********** Fichier qui contient une sauvegarde des coordonnees images + coordonnees images transformees dans le repere BCAM (MOUNT) + coordonnees des prismes dans le repere MOUNT********** 
********************************************************************** Unite en metres (m)************************************************************************************************** 

*******************************************************************coordonnees images dans le repere CCD *********************************************************************************** 
20MABNDL000077_PR002
Spot 1     0.00065995     0.00181120
Spot 2     0.00082185     0.00181250
Spot 1     0.00065969     0.00181201
Spot 2     0.00082144     0.00181272
20MABNDL000077_PR003
Spot 1     0.00235500     0.00028500
Spot 2     0.00166500     0.00022500
Spot 1     0.00235500     0.00028500
Spot 2     0.00235500     0.00028500
20MABNDL000077_20MABNDM000168
Spot 1     0.00175610     0.00118238
Spot 2     0.00157073     0.00121802
Spot 1     0.00175622     0.00118217
Spot 2     0.00157085     0.00121798
20MABNDL000077_PR024
Spot 1     0.00251726     0.00142078
Spot 2     0.00261676     0.00143225
Spot 1     0.00251789     0.00142096
Spot 2     0.00261653     0.00143200
20MABNDM000020_PR013
Spot 1     0.00044500     0.00008500
Spot 2     0.00044500     0.00008500
Spot 1     0.00044500     0.00008500
Spot 2     0.00044500     0.00008500
20MABNDM000020_PR014
Spot 1     0.00266025     0.00168473
Spot 2     0.00249772     0.00168821
20MABNDM000020_20MABNDL000196
Spot 1     0.00197653     0.00118011
Spot 2     0.00080500     0.00045500
20MABNDM000020_PR035
Spot 1     0.00125800     0.00148641
Spot 2     0.00118270     0.00152572
20MABNDM000168_PR025
Spot 1     0.00076287     0.00147817
Spot 2     0.00060500     0.00148289
20MABNDM000168_PR026
Spot 1     0.00266578     0.00142661
Spot 2     0.00250500     0.00142320
20MABNDM000168_20MABNDL000077
Spot 1     0.00154193     0.00129829
Spot 2     0.00176023     0.00130742
20MABNDM000168_PR001
Spot 1     0.00080822     0.00161775
Spot 2     0.00070593     0.00161968
20MABNDL000196_PR036
Spot 1     0.00094789     0.00164741
Spot 2     0.00111245     0.00164693
20MABNDL000196_PR037
Spot 1     0.00283290     0.00146822
Spot 2     0.00299261     0.00147098
20MABNDL000196_20MABNDM000020
Spot 1     0.00192550     0.00103979
Spot 2     0.00170430     0.00104392
20MABNDL000196_PR012
Spot 1     0.00327500     0.00013500
Spot 2     0.00272434     0.00138571
20MABNDA000134_PR004
Spot 1     0.00190447     0.00176177
Spot 2     0.00168609     0.00175533
20MABNDA000334_PR005
Spot 1     0.00248246     0.00157811
Spot 2     0.00220235     0.00157882
20MABNDB000317_PR015
Spot 1     0.00146687     0.00168222
Spot 2     0.00168675     0.00167588
20MABNDB000146_PR016
Spot 1     0.00144943     0.00131362
Spot 2     0.00172541     0.00131606
20MABNDB000135_PR027
Spot 1     0.00188670     0.00089401
Spot 2     0.00210532     0.00089728
20MABNDB000126_PR028
Spot 1     0.00193247     0.00198053
Spot 2     0.00164992     0.00197931
20MABNDA000272_PR038
Spot 1     0.00191887     0.00095113
Spot 2     0.00169657     0.00095069
20MABNDA000003_PR039
Spot 1     0.00201190     0.00192961
Spot 2     0.00229178     0.00193003
20MABNDA000196_PR006
Spot 1     0.00138892     0.00066699
Spot 2     0.00175513     0.00066897
20MABNDA000324_PR007
Spot 1     0.00199471     0.00134854
Spot 2     0.00220071     0.00134214
20MABNDB000001_PR017
Spot 1     0.00185375     0.00087737
Spot 2     0.00222435     0.00088220
20MABNDB000260_PR019
Spot 1     0.00207096     0.00146628
Spot 2     0.00227611     0.00146611
20MABNDB000212_PR029
Spot 1     0.00220663     0.00069143
Spot 2     0.00184385     0.00068910
20MABNDB000128_PR030
Spot 1     0.00248915     0.00162437
Spot 2    -0.00000100    -0.00000100
20MABNDA000444_PR040
Spot 1     0.00179668     0.00069017
Spot 2    -0.00000100    -0.00000100
20MABNDA000053_PR041
Spot 1     0.00123411     0.00144970
Spot 2     0.00144022     0.00145022
20MABNDA000188_PR008
Spot 1     0.00266500     0.00126500
Spot 2     0.00266500     0.00126500
20MABNDA000188_PR018
Spot 1     0.00159801     0.00143298
Spot 2     0.00113188     0.00143051
20MABNDA000039_PR009
Spot 1     0.00066207     0.00121289
Spot 2     0.00061204     0.00121545
20MABNDA000039_PR011
Spot 1     0.00276646     0.00037079
Spot 2     0.00258979     0.00036582
20MABNDB000155_PR020
Spot 1     0.00067253     0.00109365
Spot 2     0.00074142     0.00108982
20MABNDB000155_PR022
Spot 1     0.00223104     0.00117195
Spot 2     0.00270456     0.00116690
20MABNDB000010_PR021
Spot 1     0.00286276     0.00118226
Spot 2     0.00292193     0.00118539
20MABNDB000010_PR023
Spot 1     0.00131068     0.00039020
Spot 2     0.00148627     0.00038862
20MABNDB000069_PR031
Spot 1     0.00021500     0.00240500
Spot 2     0.00021500     0.00240500
20MABNDB000069_PR033
Spot 1     0.00190725     0.00183330
Spot 2     0.00237781     0.00185362
20MABNDB000131_PR032
Spot 1     0.00277573     0.00111372
Spot 2     0.00283749     0.00111633
20MABNDB000131_PR034
Spot 1     0.00092274     0.00041898
Spot 2     0.00109899     0.00041863
20MABNDA000208_PR042
Spot 1     0.00284500     0.00011500
Spot 2     0.00284500     0.00011500
20MABNDA000208_PR046
Spot 1     0.00129534     0.00198850
Spot 2     0.00082439     0.00199335
20MABNDA000035_PR044
Spot 1     0.00074305     0.00128810
Spot 2     0.00068304     0.00128258
20MABNDA000035_PR045
Spot 1     0.00254692     0.00055220
Spot 2     0.00236953     0.00055152


****************************************************************coordonnees images transformees dans le repere MOUNT************************************************************************* 
20MABNDL000077_PR002
Spot 1     0.01173328     0.03588795    -0.07463200
Spot 2     0.01189518     0.03588769    -0.07463200
Spot 1     0.01173302     0.03588876    -0.07463200
Spot 2     0.01189477     0.03588792    -0.07463200
20MABNDL000077_PR003
Spot 1     0.01341356     0.03434551    -0.07463200
Spot 2     0.01272301     0.03429215    -0.07463200
Spot 1     0.01341356     0.03434551    -0.07463200
Spot 2     0.01341356     0.03434551    -0.07463200
20MABNDL000077_20MABNDM000168
Spot 1    -0.01259122     0.03524538    -0.00695400
Spot 2    -0.01240623     0.03528291    -0.00695400
Spot 1    -0.01259134     0.03524516    -0.00695400
Spot 2    -0.01240635     0.03528287    -0.00695400
20MABNDL000077_PR024
Spot 1    -0.01335479     0.03547597    -0.00695400
Spot 2    -0.01345440     0.03548642    -0.00695400
Spot 1    -0.01335542     0.03547615    -0.00695400
Spot 2    -0.01345416     0.03548618    -0.00695400
20MABNDM000020_PR013
Spot 1    -0.01394554    -0.03407018    -0.00523500
Spot 2    -0.01394554    -0.03407018    -0.00523500
Spot 1    -0.01394554    -0.03407018    -0.00523500
Spot 2    -0.01394554    -0.03407018    -0.00523500
20MABNDM000020_PR014
Spot 1    -0.01169545    -0.03562053    -0.00523500
Spot 2    -0.01185787    -0.03562760    -0.00523500
20MABNDM000020_20MABNDL000196
Spot 1     0.01270975    -0.03514867    -0.07583800
Spot 2     0.01388118    -0.03442340    -0.07583800
20MABNDM000020_PR035
Spot 1     0.01342832    -0.03545487    -0.07583800
Spot 2     0.01350362    -0.03549417    -0.07583800
20MABNDM000168_PR025
Spot 1    -0.01363924    -0.03581713    -0.00532900
Spot 2    -0.01379709    -0.03582253    -0.00532900
20MABNDM000168_PR026
Spot 1    -0.01173657    -0.03575740    -0.00532900
Spot 2    -0.01189736    -0.03575468    -0.00532900
20MABNDM000168_20MABNDL000077
Spot 1     0.01288356    -0.03529892    -0.07445100
Spot 2     0.01266515    -0.03530485    -0.07445100
20MABNDM000168_PR001
Spot 1     0.01361252    -0.03562908    -0.07445100
Spot 2     0.01371477    -0.03563250    -0.07445100
20MABNDL000196_PR036
Spot 1     0.01192780     0.03583611    -0.07483600
Spot 2     0.01209236     0.03583597    -0.07483600
20MABNDL000196_PR037
Spot 1     0.01381318     0.03566085    -0.07483600
Spot 2     0.01397288     0.03566395    -0.07483600
20MABNDL000196_20MABNDM000020
Spot 1    -0.01274952     0.03531100    -0.00611000
Spot 2    -0.01252844     0.03531958    -0.00611000
20MABNDL000196_PR012
Spot 1    -0.01408054     0.03437924    -0.00611000
Spot 2    -0.01355515     0.03564078    -0.00611000
20MABNDA000134_PR004
Spot 1    -0.01287523     0.01241098    -0.07608400
Spot 2    -0.01265675     0.01241136    -0.07608400
20MABNDA000334_PR005
Spot 1    -0.01312556     0.01255029    -0.07324100
Spot 2    -0.01284545     0.01254932    -0.07324100
20MABNDB000317_PR015
Spot 1    -0.01268838    -0.01241607    -0.07326100
Spot 2    -0.01246844    -0.01241985    -0.07326100
20MABNDB000146_PR016
Spot 1    -0.01275889    -0.01247998    -0.07450500
Spot 2    -0.01248292    -0.01247693    -0.07450500
20MABNDB000135_PR027
Spot 1    -0.01251822    -0.01321896    -0.07464700
Spot 2    -0.01229957    -0.01321813    -0.07464700
20MABNDB000126_PR028
Spot 1    -0.01224692    -0.01220010    -0.07500400
Spot 2    -0.01252946    -0.01220283    -0.07500400
20MABNDA000272_PR038
Spot 1    -0.01275452     0.01316033    -0.07417900
Spot 2    -0.01253222     0.01316038    -0.07417900
20MABNDA000003_PR039
Spot 1    -0.01281299     0.01212268    -0.07373400
Spot 2    -0.01309287     0.01212298    -0.07373400
20MABNDA000196_PR006
Spot 1    -0.01234288     0.01330355    -0.07967100
Spot 2    -0.01270908     0.01330628    -0.07967100
20MABNDA000324_PR007
Spot 1    -0.01259936     0.01267267    -0.07446800
Spot 2    -0.01280540     0.01267746    -0.07446800
20MABNDB000001_PR017
Spot 1    -0.01232997    -0.01311183    -0.07418400
Spot 2    -0.01195934    -0.01311092    -0.07418400
20MABNDB000260_PR019
Spot 1    -0.01225966    -0.01243321    -0.07492700
Spot 2    -0.01205455    -0.01242918    -0.07492700
20MABNDB000212_PR029
Spot 1    -0.01188132    -0.01328955    -0.07390500
Spot 2    -0.01224410    -0.01328801    -0.07390500
20MABNDB000128_PR030
Spot 1    -0.01186467    -0.01259091    -0.07353400
Spot 2    -0.01434919    -0.01422488    -0.07353400
20MABNDA000444_PR040
Spot 1    -0.01273216     0.01332633    -0.07412000
Spot 2    -0.01094339     0.01404026    -0.07412000
20MABNDA000053_PR041
Spot 1    -0.01198029     0.01265248    -0.07430100
Spot 2    -0.01218637     0.01265598    -0.07430100
20MABNDA000188_PR008
Spot 1    -0.01369093     0.01279700    -0.07502000
Spot 2    -0.01369093     0.01279700    -0.07502000
20MABNDA000188_PR018
Spot 1    -0.01262542     0.01261989    -0.07502000
Spot 2    -0.01215928     0.01261837    -0.07502000
20MABNDA000039_PR009
Spot 1    -0.01162436     0.01303124    -0.07444800
Spot 2    -0.01157434     0.01302846    -0.07444800
20MABNDA000039_PR011
Spot 1    -0.01372509     0.01388243    -0.07444800
Spot 2    -0.01354840     0.01388664    -0.07444800
20MABNDB000155_PR020
Spot 1    -0.01359314    -0.01316300    -0.07501700
Spot 2    -0.01352420    -0.01316588    -0.07501700
20MABNDB000155_PR022
Spot 1    -0.01203585    -0.01306337    -0.07501700
Spot 2    -0.01156230    -0.01306193    -0.07501700
20MABNDB000010_PR021
Spot 1    -0.01158874    -0.01289636    -0.07358200
Spot 2    -0.01152963    -0.01289222    -0.07358200
20MABNDB000010_PR023
Spot 1    -0.01312718    -0.01371460    -0.07358200
Spot 2    -0.01295159    -0.01371320    -0.07358200
20MABNDB000069_PR031
Spot 1    -0.01361993    -0.01186066    -0.07388500
Spot 2    -0.01361993    -0.01186066    -0.07388500
20MABNDB000069_PR033
Spot 1    -0.01195271    -0.01250171    -0.07388500
Spot 2    -0.01148171    -0.01250083    -0.07388500
20MABNDB000131_PR032
Spot 1    -0.01144460    -0.01300104    -0.07533000
Spot 2    -0.01138286    -0.01299812    -0.07533000
20MABNDB000131_PR034
Spot 1    -0.01329407    -0.01370510    -0.07533000
Spot 2    -0.01311782    -0.01370456    -0.07533000
20MABNDA000208_PR042
Spot 1    -0.01371645     0.01388121    -0.07273700
Spot 2    -0.01371645     0.01388121    -0.07273700
20MABNDA000208_PR046
Spot 1    -0.01216515     0.01200907    -0.07273700
Spot 2    -0.01169420     0.01200463    -0.07273700
20MABNDA000035_PR044
Spot 1    -0.01157792     0.01296918    -0.07483200
Spot 2    -0.01151787     0.01297427    -0.07483200
20MABNDA000035_PR045
Spot 1    -0.01337651     0.01371789    -0.07483200
Spot 2    -0.01319912     0.01371731    -0.07483200


*****************************************************************coordonnees du prisme dans le repere MOUNT********************************************************************************** 
20MABNDL000077_PR002
    0.05605748     0.00580997     3.70674443
    0.05607378     0.00578437     3.70674419
20MABNDL000077_PR003
   -0.00683934     0.08572713     3.89568853
   -0.02476418     0.08434060     3.89557457
20MABNDL000077_20MABNDM000168
   -0.02614699     0.03596642    -5.46873951
   -0.02613841     0.03597553    -5.46873951
20MABNDL000077_PR024
    0.04341203     0.01903692    -5.89642620
    0.04342759     0.01903980    -5.89642620
20MABNDM000020_PR013
    0.05274186    -0.08860095    -3.80153990
    0.05274186    -0.08860095    -3.80153990
20MABNDM000020_PR014
   -0.06560059    -0.00529597    -4.74841166
20MABNDM000020_20MABNDL000196
   -0.02690765    -0.05863886     5.39463711
20MABNDM000020_PR035
   -0.04303260    -0.00730058     5.80095196
20MABNDM000168_PR025
    0.03849026    -0.01202433    -3.78836632
20MABNDM000168_PR026
   -0.05777933    -0.01407597    -3.98429179
20MABNDM000168_20MABNDL000077
    0.01165669    -0.03873169     5.38884687
20MABNDM000168_PR001
   -0.05737389    -0.01344355     5.81470585
20MABNDL000196_PR036
    0.05127531     0.00555643     3.68776965
20MABNDL000196_PR037
   -0.04404104     0.01292123     3.88352108
20MABNDL000196_20MABNDM000020
   -0.01572572     0.03805462    -5.47473907
20MABNDL000196_PR012
    0.07565221     0.06194393    -5.91504765
20MABNDA000134_PR004
   -0.00843584     0.03816482     2.74966097
20MABNDA000334_PR005
   -0.00400166     0.03146885     2.14977264
20MABNDB000317_PR015
   -0.01658222    -0.03698005     2.75126719
20MABNDB000146_PR016
   -0.01358277    -0.03125228     2.15201735
20MABNDB000135_PR027
   -0.02084473    -0.00907536     2.74937057
20MABNDB000126_PR028
   -0.02049475    -0.03810662     2.14680481
20MABNDA000272_PR038
   -0.01339897     0.01080569     2.74965858
20MABNDA000003_PR039
   -0.00559124     0.04133105     2.14891338
20MABNDA000196_PR006
   -0.01546612     0.00868429     1.64206004
20MABNDA000324_PR007
   -0.01535135     0.03306001     2.95548677
20MABNDB000001_PR017
   -0.02353920    -0.01238707     1.64039540
20MABNDB000260_PR019
   -0.03026943    -0.03703700     2.95625663
20MABNDB000212_PR029
   -0.02478156    -0.00823633     1.64224195
20MABNDB000128_PR030
    0.01037915    -0.00004072     2.95504570
20MABNDA000444_PR040
   -0.03091417     0.00072358     1.64489985
20MABNDA000053_PR041
   -0.03537697     0.03005711     2.95464516
20MABNDA000188_PR008
    0.10933864     0.04538462     9.20419693
20MABNDA000188_PR018
   -0.01790956     0.02064211     1.28361773
20MABNDA000039_PR009
   -0.17160875     0.03028594    11.00700378
20MABNDA000039_PR011
    0.03069741    -0.02049452     3.43351364
20MABNDB000155_PR020
    0.09536242    -0.00459876     9.20036125
20MABNDB000155_PR022
   -0.02768558    -0.01367759     1.28069305
20MABNDB000010_PR021
   -0.17552871    -0.03803644    11.00694656
20MABNDB000010_PR023
    0.00442955     0.01672044     3.43380332
20MABNDB000069_PR031
    0.10999375    -0.16176865     9.20229721
20MABNDB000069_PR033
   -0.02808132    -0.02286249     1.28396344
20MABNDB000131_PR032
   -0.18787102    -0.03499584    11.00641441
20MABNDB000131_PR034
    0.01441000     0.01217624     3.43341255
20MABNDA000208_PR042
    0.11037338    -0.08822197     9.20121384
20MABNDA000208_PR046
   -0.02608250     0.03100228     1.28211284
20MABNDA000035_PR044
   -0.17946377     0.03128410    11.00802326
20MABNDA000035_PR045
    0.01469304    -0.01526634     3.43486881


*****************************************************************coordonnees du prisme dans le repere ATLAS********************************************************************************** 
20MABNDL000077_PR002 0.00000000
    2.85123277    -3.68846416     6.48601723
    2.85125828    -3.68844795     6.48601723
20MABNDL000077_PR003 0.00000000
    2.77148104    -3.75156879     6.67496204
    2.77286172    -3.76949382     6.67482471
20MABNDL000077_20MABNDM000168 0.00000000
    2.81205010    -3.75933838    -2.68952703
    2.81204104    -3.75932980    -2.68952680
20MABNDL000077_PR024 0.00000000
    2.82858229    -3.68925714    -3.11714387
    2.82857943    -3.68924165    -3.11714387
20MABNDM000020_PR013 0.00000000
   -2.76372600    -3.79224682     6.48532534
   -2.76372600    -3.79224682     6.48532534
20MABNDM000020_PR014 0.00000000
   -2.84680510    -3.67459893     7.43230343
20MABNDM000020_20MABNDL000196 0.00000000
   -2.79550385    -3.70559406    -2.71078229
20MABNDM000020_PR035 0.00000000
   -2.84691858    -3.68914437    -3.11707449
20MABNDM000168_PR025 0.00000000
    2.84120703    -3.78382182    -6.47897816
20MABNDM000168_PR026 0.00000000
    2.83916903    -3.68762445    -6.67493916
20MABNDM000168_20MABNDL000077 0.00000000
    2.81506371    -3.75356889     2.69822621
20MABNDM000168_PR001 0.00000000
    2.84039593    -3.68438649     3.12405777
20MABNDL000196_PR036 0.00000000
   -2.84805107    -3.69299936    -6.47909307
20MABNDL000196_PR037 0.00000000
   -2.84064627    -3.78849435    -6.67475605
20MABNDL000196_20MABNDM000020 0.00000000
   -2.81532383    -3.75146222     2.68347335
20MABNDL000196_PR012 0.00000000
   -2.79146743    -3.65966368     3.12369633
20MABNDA000134_PR004 0.00000000
    2.61456752    -4.19698954     3.83383393
20MABNDA000334_PR005 0.00000000
    2.61699700    -4.19703007     5.89779186
20MABNDB000317_PR015 0.00000000
   -2.61202502    -4.19699240     3.83303547
20MABNDB000146_PR016 0.00000000
   -2.61271262    -4.19702053     5.89909792
20MABNDB000135_PR027 0.00000000
    2.60401869    -4.19700480    -3.82628536
20MABNDB000126_PR028 0.00000000
    2.60542202    -4.19701529    -5.89411306
20MABNDA000272_PR038 0.00000000
   -2.61113787    -4.19698286    -3.82767868
20MABNDA000003_PR039 0.00000000
   -2.61613989    -4.19702291    -5.89143562
20MABNDA000196_PR006 0.00000000
    2.58992672    -4.19496918     6.54664135
20MABNDA000324_PR007 0.00000000
    2.60396409    -4.13996458     6.94285631
20MABNDB000001_PR017 0.00000000
   -2.59724379    -4.19499063     6.54771519
20MABNDB000260_PR019 0.00000000
   -2.59849286    -4.13997173     6.94360876
20MABNDB000212_PR029 0.00000000
    2.59845924    -4.19500685    -6.54722404
20MABNDB000128_PR030 0.00000000
    2.63924742    -4.14009047    -6.97807455
20MABNDA000444_PR040 0.00000000
   -2.60608673    -4.19510937    -6.53990364
20MABNDA000053_PR041 0.00000000
   -2.58516288    -4.14004040    -6.94785595
20MABNDA000188_PR008 0.00000000
    3.52420664     3.85074425     7.96562338
20MABNDA000188_PR018 0.00000000
    3.51914978    -4.07064486     7.90278006
20MABNDA000039_PR009 0.00000000
    3.87578011     3.64745975    12.94157982
20MABNDA000039_PR011 0.00000000
    3.66432643    -3.92576361    12.88834190
20MABNDB000155_PR020 0.00000000
   -3.67401648     3.84891081     7.90227079
20MABNDB000155_PR022 0.00000000
   -3.53229618    -4.07044649     7.89438248
20MABNDB000010_PR021 0.00000000
   -3.86136222     3.64768577    12.93986511
20MABNDB000010_PR023 0.00000000
   -3.68523383    -3.92557168    12.88855553
20MABNDB000069_PR031 0.00000000
    3.69177032     3.84800911    -7.77863359
20MABNDB000069_PR033 0.00000000
    3.53221607    -4.07045412    -7.88280821
20MABNDB000131_PR032 0.00000000
    3.86867189     3.64756250   -12.94563866
20MABNDB000131_PR034 0.00000000
    3.67337799    -3.92560554   -12.89577103
20MABNDA000208_PR042 0.00000000
   -3.66039658     3.84884048    -7.99969625
20MABNDA000208_PR046 0.00000000
   -3.52968097    -4.07031250    -7.87751484
20MABNDA000035_PR044 0.00000000
   -3.86870551     3.64757872   -12.93696308
20MABNDA000035_PR045 0.00000000
   -3.67603588    -3.92561817   -12.89111805


*****************************************************************Rapport********************************************************************************** 
CAM-LBA-US_EBA-US-HO-H         2023.04.13.14.18.14     2.85124552    -3.68845606     6.48601723     0.00001276     0.00000811     0.00000000 0.00000000 VRAI 
CAM-LBA-US_JDA-US-H            2023.04.13.14.18.14     2.77217138    -3.76053131     6.67489338     0.00069034     0.00896251     0.00006866 0.00000000 VRAI 
CAM-LBA-US_CAM-LBC-US          2023.04.13.14.18.14     2.81204557    -3.75933409    -2.68952692     0.00000453     0.00000429     0.00000012 0.00000000 VRAI 
CAM-LBA-US_EBC-US-IP-H         2023.04.13.14.18.14     2.82858086    -3.68924940    -3.11714387     0.00000143     0.00000775     0.00000000 0.00000000 VRAI 
CAM-LBA-USA_EBA-USA-HO-H       2023.04.13.14.18.14    -2.76372600    -3.79224682     6.48532534     0.00000000     0.00000000     0.00000000 0.00000000 VRAI 
CAM-LBA-USA_JDA-USA-H          2023.04.13.14.18.14    -2.84680510    -3.67459893     7.43230343     0.00000000     0.00000000     0.00000000 0.00000000 VRAI 
CAM-LBA-USA_CAM-LBC-USA        2023.04.13.14.18.14    -2.79550385    -3.70559406    -2.71078229     0.00000000     0.00000000     0.00000000 0.00000000 VRAI 
CAM-LBA-USA_EBC-USA-IP-H       2023.04.13.14.18.14    -2.84691858    -3.68914437    -3.11707449     0.00000000     0.00000000     0.00000000 0.00000000 VRAI 
CAM-LBC-US_EBC-US-HO-H         2023.04.13.14.18.14     2.84120703    -3.78382182    -6.47897816     0.00000000     0.00000000     0.00000000 0.00000000 VRAI 
CAM-LBC-US_JDC-US-H            2023.04.13.14.18.14     2.83916903    -3.68762445    -6.67493916     0.00000000     0.00000000     0.00000000 0.00000000 VRAI 
CAM-LBC-US_CAM-LBA-US          2023.04.13.14.18.14     2.81506371    -3.75356889     2.69822621     0.00000000     0.00000000     0.00000000 0.00000000 VRAI 
CAM-LBC-US_EBA-US-IP-H         2023.04.13.14.18.14     2.84039593    -3.68438649     3.12405777     0.00000000     0.00000000     0.00000000 0.00000000 VRAI 
CAM-LBC-USA_EBC-USA-HO-H       2023.04.13.14.18.14    -2.84805107    -3.69299936    -6.47909307     0.00000000     0.00000000     0.00000000 0.00000000 VRAI 
CAM-LBC-USA_JDC-USA-H          2023.04.13.14.18.14    -2.84064627    -3.78849435    -6.67475605     0.00000000     0.00000000     0.00000000 0.00000000 VRAI 
CAM-LBC-USA_CAM-LBA-USA        2023.04.13.14.18.14    -2.81532383    -3.75146222     2.68347335     0.00000000     0.00000000     0.00000000 0.00000000 VRAI 
CAM-LBC-USA_EBA-USA-IP-H       2023.04.13.14.18.14    -2.79146743    -3.65966368     3.12369633     0.00000000     0.00000000     0.00000000 0.00000000 VRAI 
CAM-EBA-US-IP_EBA-US-IP        2023.04.13.14.18.14     2.61456752    -4.19698954     3.83383393     0.00000000     0.00000000     0.00000000 0.00000000 VRAI 
CAM-EBA-US-HO_EBA-US-HO        2023.04.13.14.18.14     2.61699700    -4.19703007     5.89779186     0.00000000     0.00000000     0.00000000 0.00000000 VRAI 
CAM-EBA-USA-IP_EBA-USA-IP      2023.04.13.14.18.14    -2.61202502    -4.19699240     3.83303547     0.00000000     0.00000000     0.00000000 0.00000000 VRAI 
CAM-EBA-USA-HO_EBA-USA-HO      2023.04.13.14.18.14    -2.61271262    -4.19702053     5.89909792     0.00000000     0.00000000     0.00000000 0.00000000 VRAI 
CAM-EBC-US-IP_EBC-US-IP        2023.04.13.14.18.14     2.60401869    -4.19700480    -3.82628536     0.00000000     0.00000000     0.00000000 0.00000000 VRAI 
CAM-EBC-US-HO_EBC-US-HO        2023.04.13.14.18.14     2.60542202    -4.19701529    -5.89411306     0.00000000     0.00000000     0.00000000 0.00000000 VRAI 
CAM-EBC-USA-IP_EBC-USA-IP      2023.04.13.14.18.14    -2.61113787    -4.19698286    -3.82767868     0.00000000     0.00000000     0.00000000 0.00000000 VRAI 
CAM-EBC-USA-HO_EBC-USA-HO      2023.04.13.14.18.14    -2.61613989    -4.19702291    -5.89143562     0.00000000     0.00000000     0.00000000 0.00000000 VRAI 
CAM-JDA-US-IP_JDA-US-IP        2023.04.13.14.18.14     2.58992672    -4.19496918     6.54664135     0.00000000     0.00000000     0.00000000 0.00000000 VRAI 
CAM-JDA-US-HO_JDA-US-HO        2023.04.13.14.18.14     2.60396409    -4.13996458     6.94285631     0.00000000     0.00000000     0.00000000 0.00000000 VRAI 
CAM-JDA-USA-IP_JDA-USA-IP      2023.04.13.14.18.14    -2.59724379    -4.19499063     6.54771519     0.00000000     0.00000000     0.00000000 0.00000000 VRAI 
CAM-JDA-USA-HO_JDA-USA-HO      2023.04.13.14.18.14    -2.59849286    -4.13997173     6.94360876     0.00000000     0.00000000     0.00000000 0.00000000 VRAI 
CAM-JDC-US-IP_JDC-US-IP        2023.04.13.14.18.14     2.59845924    -4.19500685    -6.54722404     0.00000000     0.00000000     0.00000000 0.00000000 VRAI 
CAM-JDC-US-HO_JDC-US-HO        2023.04.13.14.18.14     2.63924742    -4.14009047    -6.97807455     0.00000000     0.00000000     0.00000000 0.00000000 VRAI 
CAM-JDC-USA-IP_JDC-USA-IP      2023.04.13.14.18.14    -2.60608673    -4.19510937    -6.53990364     0.00000000     0.00000000     0.00000000 0.00000000 VRAI 
CAM-JDC-USA-HO_JDC-USA-HO      2023.04.13.14.18.14    -2.58516288    -4.14004040    -6.94785595     0.00000000     0.00000000     0.00000000 0.00000000 VRAI 
CAM-ECTA-US-IP_ECTA-US-IP-T    2023.04.13.14.18.14     3.52420664     3.85074425     7.96562338     0.00000000     0.00000000     0.00000000 0.00000000 VRAI 
CAM-ECTA-US-IP_ECTA-US-IP      2023.04.13.14.18.14     3.51914978    -4.07064486     7.90278006     0.00000000     0.00000000     0.00000000 0.00000000 VRAI 
CAM-ECTA-US-HO_ECTA-US-HO-T    2023.04.13.14.18.14     3.87578011     3.64745975    12.94157982     0.00000000     0.00000000     0.00000000 0.00000000 VRAI 
CAM-ECTA-US-HO_ECTA-US-HO      2023.04.13.14.18.14     3.66432643    -3.92576361    12.88834190     0.00000000     0.00000000     0.00000000 0.00000000 VRAI 
CAM-ECTA-USA-IP_ECTA-USA-IP-T  2023.04.13.14.18.14    -3.67401648     3.84891081     7.90227079     0.00000000     0.00000000     0.00000000 0.00000000 VRAI 
CAM-ECTA-USA-IP_ECTA-USA-IP    2023.04.13.14.18.14    -3.53229618    -4.07044649     7.89438248     0.00000000     0.00000000     0.00000000 0.00000000 VRAI 
CAM-ECTA-USA-HO_ECTA-USA-HO-T  2023.04.13.14.18.14    -3.86136222     3.64768577    12.93986511     0.00000000     0.00000000     0.00000000 0.00000000 VRAI 
CAM-ECTA-USA-HO_ECTA-USA-HO    2023.04.13.14.18.14    -3.68523383    -3.92557168    12.88855553     0.00000000     0.00000000     0.00000000 0.00000000 VRAI 
CAM-ECTC-US-IP_ECTC-US-IP-T    2023.04.13.14.18.14     3.69177032     3.84800911    -7.77863359     0.00000000     0.00000000     0.00000000 0.00000000 VRAI 
CAM-ECTC-US-IP_ECTC-US-IP      2023.04.13.14.18.14     3.53221607    -4.07045412    -7.88280821     0.00000000     0.00000000     0.00000000 0.00000000 VRAI 
CAM-ECTC-US-HO_ECTC-US-HO-T    2023.04.13.14.18.14     3.86867189     3.64756250   -12.94563866     0.00000000     0.00000000     0.00000000 0.00000000 VRAI 
CAM-ECTC-US-HO_ECTC-US-HO      2023.04.13.14.18.14     3.67337799    -3.92560554   -12.89577103     0.00000000     0.00000000     0.00000000 0.00000000 VRAI 
CAM-ECTC-USA-IP_ECTC-USA-IP-T  2023.04.13.14.18.14    -3.66039658     3.84884048    -7.99969625     0.00000000     0.00000000     0.00000000 0.00000000 VRAI 
CAM-ECTC-USA-IP_ECTC-USA-IP    2023.04.13.14.18.14    -3.52968097    -4.07031250    -7.87751484     0.00000000     0.00000000     0.00000000 0.00000000 VRAI 
CAM-ECTC-USA-HO_ECTC-USA-HO-T  2023.04.13.14.18.14    -3.86870551     3.64757872   -12.93696308     0.00000000     0.00000000     0.00000000 0.00000000 VRAI 
CAM-ECTC-USA-HO_ECTC-USA-HO    2023.04.13.14.18.14    -3.67603588    -3.92561817   -12.89111805     0.00000000     0.00000000     0.00000000 0.00000000 VRAI 
