********** Fichier qui contient une sauvegarde des coordonnees images + coordonnees images transformees dans le repere BCAM (MOUNT) + coordonnees des prismes dans le repere MOUNT********** 
********************************************************************** Unite en metres (m)************************************************************************************************** 

*******************************************************************coordonnees images dans le repere CCD *********************************************************************************** 
20MABNDL000077_PR002
Spot 1     0.00052500     0.00043500
Spot 2     0.00052500     0.00043500
Spot 1     0.00052500     0.00043500
Spot 2     0.00052500     0.00043500
20MABNDL000077_PR003
Spot 1     0.00213500     0.00003500
Spot 2     0.00213500     0.00003500
Spot 1     0.00245500     0.00005500
Spot 2     0.00166500     0.00022500
20MABNDL000077_20MABNDM000168
Spot 1     0.00175588     0.00118365
Spot 2     0.00075500     0.00010500
Spot 1     0.00175639     0.00118335
Spot 2     0.00075500     0.00010500
20MABNDL000077_PR024
Spot 1     0.00251547     0.00142120
Spot 2     0.00261475     0.00143261
Spot 1     0.00251528     0.00142125
Spot 2     0.00261488     0.00143294
20MABNDM000020_PR013
Spot 1     0.00044500     0.00008500
Spot 2     0.00044500     0.00008500
Spot 1     0.00044500     0.00008500
Spot 2     0.00044500     0.00008500
20MABNDM000020_PR014
Spot 1     0.00265979     0.00168443
Spot 2     0.00249824     0.00168799
Spot 1     0.00266005     0.00168534
Spot 2     0.00249804     0.00168846
20MABNDM000020_20MABNDL000196
Spot 1     0.00197552     0.00117966
Spot 2     0.00300500     0.00001500
Spot 1     0.00197556     0.00117984
Spot 2     0.00300500     0.00001500
20MABNDM000020_PR035
Spot 1     0.00126246     0.00149166
Spot 2     0.00118636     0.00152751
Spot 1     0.00126282     0.00149149
Spot 2     0.00118622     0.00152748
20MABNDM000168_PR025
Spot 1     0.00076221     0.00147383
Spot 2     0.00060510     0.00147877
Spot 1     0.00076207     0.00147421
Spot 2     0.00060479     0.00147866
20MABNDM000168_PR026
Spot 1     0.00266755     0.00142406
Spot 2     0.00250624     0.00142005
Spot 1     0.00266780     0.00142409
Spot 2     0.00250621     0.00141991
20MABNDM000168_20MABNDL000077
Spot 1     0.00154201     0.00129766
Spot 2     0.00175910     0.00130414
20MABNDM000168_PR001
Spot 1     0.00080948     0.00161741
Spot 2     0.00070674     0.00161888
20MABNDL000196_PR036
Spot 1     0.00094443     0.00165032
Spot 2     0.00110942     0.00164875
20MABNDL000196_PR037
Spot 1     0.00283307     0.00146868
Spot 2     0.00299186     0.00147128
20MABNDL000196_20MABNDM000020
Spot 1     0.00192529     0.00103786
Spot 2     0.00170429     0.00104369
20MABNDL000196_PR012
Spot 1     0.00265055     0.00133887
Spot 2     0.00272298     0.00138348
20MABNDA000134_PR004
Spot 1     0.00190761     0.00176117
Spot 2     0.00168869     0.00175384
20MABNDA000334_PR005
Spot 1     0.00220300     0.00157859
Spot 2     0.00248302     0.00157833
20MABNDB000317_PR015
Spot 1     0.00168342     0.00167623
Spot 2     0.00146362     0.00168259
20MABNDB000146_PR016
Spot 1     0.00144628     0.00131397
Spot 2     0.00172230     0.00131610
20MABNDB000135_PR027
Spot 1     0.00188469     0.00089165
Spot 2     0.00210390     0.00089491
20MABNDB000126_PR028
Spot 1     0.00193193     0.00198120
Spot 2    -0.00000100    -0.00000100
20MABNDA000272_PR038
Spot 1     0.00192306     0.00095180
Spot 2     0.00170042     0.00095125
20MABNDA000003_PR039
Spot 1     0.00201517     0.00193080
Spot 2     0.00229366     0.00193160
20MABNDA000196_PR006
Spot 1     0.00138786     0.00067163
Spot 2     0.00175403     0.00067391
20MABNDA000324_PR007
Spot 1     0.00199690     0.00134164
Spot 2     0.00220367     0.00133633
20MABNDB000001_PR017
Spot 1     0.00185735     0.00088648
Spot 2     0.00222718     0.00089109
20MABNDB000260_PR019
Spot 1     0.00206747     0.00145826
Spot 2    -0.00000100    -0.00000100
20MABNDB000212_PR029
Spot 1     0.00220750     0.00069127
Spot 2     0.00184444     0.00068889
20MABNDB000128_PR030
Spot 1     0.00268589     0.00161683
Spot 2     0.00248756     0.00161936
20MABNDA000444_PR040
Spot 1     0.00179517     0.00069634
Spot 2     0.00334500     0.00157500
20MABNDA000053_PR041
Spot 1     0.00123597     0.00144397
Spot 2     0.00144091     0.00144470
20MABNDA000188_PR008
Spot 1     0.00297500     0.00011500
Spot 2     0.00297500     0.00011500
20MABNDA000188_PR018
Spot 1     0.00170926     0.00167380
Spot 2     0.00124247     0.00167088
20MABNDA000039_PR009
Spot 1     0.00066508     0.00117819
Spot 2     0.00061480     0.00118226
20MABNDA000039_PR011
Spot 1     0.00276973     0.00028114
Spot 2     0.00259286     0.00027588
20MABNDB000155_PR020
Spot 1     0.00061882     0.00112468
Spot 2     0.00068833     0.00112024
20MABNDB000155_PR022
Spot 1     0.00211936     0.00141301
Spot 2     0.00259236     0.00140838
20MABNDB000010_PR021
Spot 1     0.00286625     0.00115035
Spot 2     0.00292451     0.00115410
20MABNDB000010_PR023
Spot 1     0.00131204     0.00030101
Spot 2     0.00148803     0.00029900
20MABNDB000069_PR031
Spot 1     0.00021500     0.00240500
Spot 2     0.00021500     0.00240500
20MABNDB000069_PR033
Spot 1     0.00183049     0.00206754
Spot 2     0.00230121     0.00208759
20MABNDB000131_PR032
Spot 1     0.00277686     0.00108101
Spot 2     0.00283781     0.00108351
20MABNDB000131_PR034
Spot 1     0.00092098     0.00032490
Spot 2     0.00109722     0.00032409
20MABNDA000208_PR042
Spot 1     0.00284500     0.00011500
Spot 2     0.00284500     0.00011500
20MABNDA000208_PR046
Spot 1     0.00143967     0.00222175
Spot 2     0.00096931     0.00222480
20MABNDA000035_PR044
Spot 1     0.00074400     0.00125796
Spot 2     0.00068410     0.00125273
20MABNDA000035_PR045
Spot 1     0.00254760     0.00046705
Spot 2     0.00237017     0.00046600


****************************************************************coordonnees images transformees dans le repere MOUNT************************************************************************* 
20MABNDL000077_PR002
Spot 1     0.01158509     0.03451311    -0.07463200
Spot 2     0.01158509     0.03451311    -0.07463200
Spot 1     0.01158509     0.03451311    -0.07463200
Spot 2     0.01158509     0.03451311    -0.07463200
20MABNDL000077_PR003
Spot 1     0.01319116     0.03409764    -0.07463200
Spot 2     0.01319116     0.03409764    -0.07463200
Spot 1     0.01351134     0.03411456    -0.07463200
Spot 2     0.01272301     0.03429215    -0.07463200
20MABNDL000077_20MABNDM000168
Spot 1    -0.01259102     0.03524665    -0.00695400
Spot 2    -0.01157915     0.03417830    -0.00695400
Spot 1    -0.01259152     0.03524634    -0.00695400
Spot 2    -0.01157915     0.03417830    -0.00695400
20MABNDL000077_PR024
Spot 1    -0.01335300     0.03547641    -0.00695400
Spot 2    -0.01345239     0.03548680    -0.00695400
Spot 1    -0.01335281     0.03547646    -0.00695400
Spot 2    -0.01345252     0.03548713    -0.00695400
20MABNDM000020_PR013
Spot 1    -0.01394554    -0.03407018    -0.00523500
Spot 2    -0.01394554    -0.03407018    -0.00523500
Spot 1    -0.01394554    -0.03407018    -0.00523500
Spot 2    -0.01394554    -0.03407018    -0.00523500
20MABNDM000020_PR014
Spot 1    -0.01169592    -0.03562024    -0.00523500
Spot 2    -0.01185735    -0.03562737    -0.00523500
Spot 1    -0.01169564    -0.03562114    -0.00523500
Spot 2    -0.01185754    -0.03562784    -0.00523500
20MABNDM000020_20MABNDL000196
Spot 1     0.01271076    -0.03514822    -0.07583800
Spot 2     0.01168112    -0.03398370    -0.07583800
Spot 1     0.01271072    -0.03514840    -0.07583800
Spot 2     0.01168112    -0.03398370    -0.07583800
20MABNDM000020_PR035
Spot 1     0.01342386    -0.03546012    -0.07583800
Spot 2     0.01349997    -0.03549596    -0.07583800
Spot 1     0.01342350    -0.03545995    -0.07583800
Spot 2     0.01350011    -0.03549593    -0.07583800
20MABNDM000168_PR025
Spot 1    -0.01363992    -0.03581279    -0.00532900
Spot 2    -0.01379700    -0.03581841    -0.00532900
Spot 1    -0.01364005    -0.03581317    -0.00532900
Spot 2    -0.01379731    -0.03581830    -0.00532900
20MABNDM000168_PR026
Spot 1    -0.01173481    -0.03575484    -0.00532900
Spot 2    -0.01189613    -0.03575152    -0.00532900
Spot 1    -0.01173456    -0.03575487    -0.00532900
Spot 2    -0.01189616    -0.03575138    -0.00532900
20MABNDM000168_20MABNDL000077
Spot 1     0.01288349    -0.03529829    -0.07445100
Spot 2     0.01266633    -0.03530159    -0.07445100
20MABNDM000168_PR001
Spot 1     0.01361126    -0.03562872    -0.07445100
Spot 2     0.01371397    -0.03563169    -0.07445100
20MABNDL000196_PR036
Spot 1     0.01192433     0.03583901    -0.07483600
Spot 2     0.01208933     0.03583779    -0.07483600
20MABNDL000196_PR037
Spot 1     0.01381335     0.03566131    -0.07483600
Spot 2     0.01397213     0.03566425    -0.07483600
20MABNDL000196_20MABNDM000020
Spot 1    -0.01274927     0.03530908    -0.00611000
Spot 2    -0.01252843     0.03531935    -0.00611000
20MABNDL000196_PR012
Spot 1    -0.01348044     0.03559543    -0.00611000
Spot 2    -0.01355375     0.03563858    -0.00611000
20MABNDA000134_PR004
Spot 1    -0.01287835     0.01241167    -0.07608400
Spot 2    -0.01265931     0.01241292    -0.07608400
20MABNDA000334_PR005
Spot 1    -0.01284610     0.01254955    -0.07324100
Spot 2    -0.01312612     0.01255007    -0.07324100
20MABNDB000317_PR015
Spot 1    -0.01247177    -0.01241954    -0.07326100
Spot 2    -0.01269163    -0.01241574    -0.07326100
20MABNDB000146_PR016
Spot 1    -0.01276204    -0.01247964    -0.07450500
Spot 2    -0.01248603    -0.01247690    -0.07450500
20MABNDB000135_PR027
Spot 1    -0.01252025    -0.01322130    -0.07464700
Spot 2    -0.01230102    -0.01322048    -0.07464700
20MABNDB000126_PR028
Spot 1    -0.01224746    -0.01219944    -0.07500400
Spot 2    -0.01416978    -0.01419193    -0.07500400
20MABNDA000272_PR038
Spot 1    -0.01275871     0.01315967    -0.07417900
Spot 2    -0.01253607     0.01315982    -0.07417900
20MABNDA000003_PR039
Spot 1    -0.01281627     0.01212150    -0.07373400
Spot 2    -0.01309476     0.01212141    -0.07373400
20MABNDA000196_PR006
Spot 1    -0.01234187     0.01329890    -0.07967100
Spot 2    -0.01270804     0.01330133    -0.07967100
20MABNDA000324_PR007
Spot 1    -0.01260160     0.01267955    -0.07446800
Spot 2    -0.01280841     0.01268325    -0.07446800
20MABNDB000001_PR017
Spot 1    -0.01232627    -0.01310276    -0.07418400
Spot 2    -0.01195641    -0.01310206    -0.07418400
20MABNDB000260_PR019
Spot 1    -0.01226299    -0.01244130    -0.07492700
Spot 2    -0.01430111    -0.01394266    -0.07492700
20MABNDB000212_PR029
Spot 1    -0.01188045    -0.01328972    -0.07390500
Spot 2    -0.01224351    -0.01328822    -0.07390500
20MABNDB000128_PR030
Spot 1    -0.01166791    -0.01259777    -0.07353400
Spot 2    -0.01186625    -0.01259592    -0.07353400
20MABNDA000444_PR040
Spot 1    -0.01273057     0.01332018    -0.07412000
Spot 2    -0.01426912     0.01242192    -0.07412000
20MABNDA000053_PR041
Spot 1    -0.01198204     0.01265824    -0.07430100
Spot 2    -0.01218695     0.01266151    -0.07430100
20MABNDA000188_PR008
Spot 1    -0.01399107     0.01394961    -0.07502000
Spot 2    -0.01399107     0.01394961    -0.07502000
20MABNDA000188_PR018
Spot 1    -0.01273872     0.01238003    -0.07502000
Spot 2    -0.01227193     0.01237895    -0.07502000
20MABNDA000039_PR009
Spot 1    -0.01162722     0.01306595    -0.07444800
Spot 2    -0.01157696     0.01306166    -0.07444800
20MABNDA000039_PR011
Spot 1    -0.01372797     0.01397210    -0.07444800
Spot 2    -0.01355108     0.01397659    -0.07444800
20MABNDB000155_PR020
Spot 1    -0.01364727    -0.01313270    -0.07501700
Spot 2    -0.01357771    -0.01313619    -0.07501700
20MABNDB000155_PR022
Spot 1    -0.01215082    -0.01282386    -0.07501700
Spot 2    -0.01167780    -0.01282201    -0.07501700
20MABNDB000010_PR021
Spot 1    -0.01158471    -0.01292820    -0.07358200
Spot 2    -0.01152652    -0.01292347    -0.07358200
20MABNDB000010_PR023
Spot 1    -0.01312431    -0.01380375    -0.07358200
Spot 2    -0.01294831    -0.01380278    -0.07358200
20MABNDB000069_PR031
Spot 1    -0.01361993    -0.01186066    -0.07388500
Spot 2    -0.01361993    -0.01186066    -0.07388500
20MABNDB000069_PR033
Spot 1    -0.01201974    -0.01226450    -0.07388500
Spot 2    -0.01154859    -0.01226390    -0.07388500
20MABNDB000131_PR032
Spot 1    -0.01144331    -0.01303374    -0.07533000
Spot 2    -0.01138237    -0.01303094    -0.07533000
20MABNDB000131_PR034
Spot 1    -0.01329536    -0.01379919    -0.07533000
Spot 2    -0.01311911    -0.01379911    -0.07533000
20MABNDA000208_PR042
Spot 1    -0.01371645     0.01388121    -0.07273700
Spot 2    -0.01371645     0.01388121    -0.07273700
20MABNDA000208_PR046
Spot 1    -0.01230928     0.01177569    -0.07273700
Spot 2    -0.01183891     0.01177305    -0.07273700
20MABNDA000035_PR044
Spot 1    -0.01157865     0.01299933    -0.07483200
Spot 2    -0.01151872     0.01300413    -0.07483200
20MABNDA000035_PR045
Spot 1    -0.01337658     0.01380305    -0.07483200
Spot 2    -0.01319915     0.01380284    -0.07483200


*****************************************************************coordonnees du prisme dans le repere MOUNT********************************************************************************** 
20MABNDL000077_PR002
    0.06737348     0.07371713     3.70652628
    0.06737348     0.07371713     3.70652628
20MABNDL000077_PR003
   -0.01321774     0.09720770     3.89548755
   -0.00937706     0.09172088     3.89559364
20MABNDL000077_20MABNDM000168
   -0.05602311     0.07581276    -5.46843529
   -0.05600481     0.07582378    -5.46843529
20MABNDL000077_PR024
    0.04326423     0.01900499    -5.89642811
    0.04326204     0.01899015    -5.89642811
20MABNDM000020_PR013
    0.05274186    -0.08860095    -3.80153990
    0.05274186    -0.08860095    -3.80153990
20MABNDM000020_PR014
   -0.06560208    -0.00531219    -4.74841166
   -0.06560491    -0.00526929    -4.74841166
20MABNDM000020_20MABNDL000196
    0.05187777    -0.07440756     5.39455175
    0.05187920    -0.07440111     5.39455175
20MABNDM000020_PR035
   -0.04271983    -0.00702931     5.80095291
   -0.04271135    -0.00703701     5.80095387
20MABNDM000168_PR025
    0.03850503    -0.01223342    -3.78836775
    0.03851612    -0.01222670    -3.78836727
20MABNDM000168_PR026
   -0.05785704    -0.01422467    -3.98429179
   -0.05786275    -0.01422756    -3.98429179
20MABNDM000168_20MABNDL000077
    0.01161692    -0.03887159     5.38884687
20MABNDM000168_PR001
   -0.05729432    -0.01348891     5.81470680
20MABNDL000196_PR036
    0.05143484     0.00544067     3.68776655
20MABNDL000196_PR037
   -0.04402600     0.01290162     3.88352108
20MABNDL000196_20MABNDM000020
   -0.01573518     0.03813204    -5.47473860
20MABNDL000196_PR012
    0.05228069     0.01476596    -5.91537380
20MABNDA000134_PR004
   -0.00833191     0.03812368     2.74966145
20MABNDA000334_PR005
   -0.00398433     0.03146868     2.14977264
20MABNDB000317_PR015
   -0.01646226    -0.03699176     2.75126719
20MABNDB000146_PR016
   -0.01349275    -0.03125769     2.15201735
20MABNDB000135_PR027
   -0.02078087    -0.00898934     2.74937057
20MABNDB000126_PR028
    0.00289307    -0.00976562     2.14690590
20MABNDA000272_PR038
   -0.01325161     0.01082797     2.74965858
20MABNDA000003_PR039
   -0.00551754     0.04137029     2.14891243
20MABNDA000196_PR006
   -0.01548837     0.00878924     1.64206028
20MABNDA000324_PR007
   -0.01524805     0.03281069     2.95548868
20MABNDB000001_PR017
   -0.02361155    -0.01258305     1.64039505
20MABNDB000260_PR019
    0.01403587    -0.00707368     2.95627952
20MABNDB000212_PR029
   -0.02479753    -0.00823210     1.64224184
20MABNDB000128_PR030
   -0.04229906    -0.03192824     2.95495367
20MABNDA000444_PR040
    0.00549442     0.01851619     1.64493871
20MABNDA000053_PR041
   -0.03533123     0.02983529     2.95464683
20MABNDA000188_PR008
    0.14616936    -0.09611703     9.20304298
20MABNDA000188_PR018
   -0.01597525     0.02474467     1.28359342
20MABNDA000039_PR009
   -0.17120844     0.02531935    11.00701523
20MABNDA000039_PR011
    0.03082374    -0.02459100     3.43346977
20MABNDB000155_PR020
    0.10196916    -0.00828124     9.20028496
20MABNDB000155_PR022
   -0.02571639    -0.01777438     1.28070629
20MABNDB000010_PR021
   -0.17605361    -0.03339856    11.00694847
20MABNDB000010_PR023
    0.00428837     0.02081844     3.43376589
20MABNDB000069_PR031
    0.10999375    -0.16176865     9.20229721
20MABNDB000069_PR033
   -0.02693592    -0.02691692     1.28393948
20MABNDB000131_PR032
   -0.18800116    -0.03020842    11.00641918
20MABNDB000131_PR034
    0.01446853     0.01647530     3.43337798
20MABNDA000208_PR042
    0.11037338    -0.08822197     9.20121384
20MABNDA000208_PR046
   -0.02361409     0.03497455     1.28207445
20MABNDA000035_PR044
   -0.17934811     0.02689537    11.00803185
20MABNDA000035_PR045
    0.01469519    -0.01916100     3.43483448


*****************************************************************coordonnees du prisme dans le repere ATLAS********************************************************************************** 
20MABNDL000077_PR002 0.00000000
    2.78332901    -3.67712641     6.48587990
    2.78332901    -3.67712641     6.48587990
20MABNDL000077_PR003 0.00000000
    2.75999808    -3.75794315     6.67476463
    2.76548624    -3.75410438     6.67487001
20MABNDL000077_20MABNDM000168 0.00000000
    2.77219462    -3.78920221    -2.68922043
    2.77218366    -3.78918386    -2.68922043
20MABNDL000077_PR024 0.00000000
    2.82861423    -3.68940496    -3.11714602
    2.82862902    -3.68940711    -3.11714602
20MABNDM000020_PR013 0.00000000
   -2.76372600    -3.79224682     6.48532534
   -2.76372600    -3.79224682     6.48532534
20MABNDM000020_PR014 0.00000000
   -2.84678888    -3.67459750     7.43230343
   -2.84683180    -3.67459464     7.43230343
20MABNDM000020_20MABNDL000196 0.00000000
   -2.77975941    -3.78438425    -2.71075988
   -2.77976584    -3.78438568    -2.71075988
20MABNDM000020_PR035 0.00000000
   -2.84718990    -3.68945718    -3.11707544
   -2.84718227    -3.68946552    -3.11707640
20MABNDM000168_PR025 0.00000000
    2.84099793    -3.78383636    -6.47897959
    2.84100461    -3.78384757    -6.47897911
20MABNDM000168_PR026 0.00000000
    2.83902025    -3.68754673    -6.67493916
    2.83901739    -3.68754101    -6.67493916
20MABNDM000168_20MABNDL000077 0.00000000
    2.81492400    -3.75352907     2.69822621
20MABNDM000168_PR001 0.00000000
    2.84035063    -3.68446612     3.12405896
20MABNDL000196_PR036 0.00000000
   -2.84816694    -3.69283986    -6.47909021
20MABNDL000196_PR037 0.00000000
   -2.84066582    -3.78847933    -6.67475605
20MABNDL000196_20MABNDM000020 0.00000000
   -2.81524634    -3.75147176     2.68347287
20MABNDL000196_PR012 0.00000000
   -2.83863449    -3.68305683     3.12404513
20MABNDA000134_PR004 0.00000000
    2.61467147    -4.19698954     3.83387494
20MABNDA000334_PR005 0.00000000
    2.61701417    -4.19703007     5.89779234
20MABNDB000317_PR015 0.00000000
   -2.61214495    -4.19699240     3.83302379
20MABNDB000146_PR016 0.00000000
   -2.61280251    -4.19702053     5.89909267
20MABNDB000135_PR027 0.00000000
    2.60408258    -4.19700480    -3.82637143
20MABNDB000126_PR028 0.00000000
    2.62879562    -4.19704485    -5.92246628
20MABNDA000272_PR038 0.00000000
   -2.61128521    -4.19698286    -3.82765627
20MABNDA000003_PR039 0.00000000
   -2.61621356    -4.19702339    -5.89139652
20MABNDA000196_PR006 0.00000000
    2.58994913    -4.19496870     6.54674625
20MABNDA000324_PR007 0.00000000
    2.60406733    -4.13996267     6.94310570
20MABNDB000001_PR017 0.00000000
   -2.59731627    -4.19499016     6.54791117
20MABNDB000260_PR019 0.00000000
   -2.64280844    -4.14002609     6.97355747
20MABNDB000212_PR029 0.00000000
    2.59847522    -4.19500685    -6.54721975
20MABNDB000128_PR030 0.00000000
    2.58656263    -4.14004183    -6.94619751
20MABNDA000444_PR040 0.00000000
   -2.56967998    -4.19507074    -6.55770016
20MABNDA000053_PR041 0.00000000
   -2.58520842    -4.14003897    -6.94807768
20MABNDA000188_PR008 0.00000000
    3.55893064     3.84859109     8.10764503
20MABNDA000188_PR018 0.00000000
    3.52114534    -4.07059431     7.89870739
20MABNDA000039_PR009 0.00000000
    3.87538052     3.64747334    12.93661308
20MABNDA000039_PR011 0.00000000
    3.66420031    -3.92580605    12.88424587
20MABNDB000155_PR020 0.00000000
   -3.68062162     3.84881854     7.89858580
20MABNDB000155_PR022 0.00000000
   -3.53426409    -4.07043839     7.89028502
20MABNDB000010_PR021 0.00000000
   -3.86189103     3.64768577    12.93522835
20MABNDB000010_PR023 0.00000000
   -3.68537855    -3.92561102    12.88445759
20MABNDB000069_PR031 0.00000000
    3.69177032     3.84800911    -7.77863359
20MABNDB000069_PR033 0.00000000
    3.53336358    -4.07046366    -7.87875462
20MABNDB000131_PR032 0.00000000
    3.86880350     3.64756918   -12.94085121
20MABNDB000131_PR034 0.00000000
    3.67332077    -3.92563868   -12.89147186
20MABNDA000208_PR042 0.00000000
   -3.66039658     3.84884048    -7.99969625
20MABNDA000208_PR046 0.00000000
   -3.53215170    -4.07034779    -7.87354374
20MABNDA000035_PR044 0.00000000
   -3.86858916     3.64758706   -12.93257427
20MABNDA000035_PR045 0.00000000
   -3.67603302    -3.92565274   -12.88722324


*****************************************************************Rapport********************************************************************************** 
CAM-LBA-US_EBA-US-HO-H         2023.10.22.04.56.44     2.78332901    -3.67712641     6.48587990     0.00000000     0.00000000     0.00000000 0.00000000 VRAI 
CAM-LBA-US_JDA-US-H            2023.10.22.04.56.44     2.76274216    -3.75602376     6.67481732     0.00274408     0.00191939     0.00005269 0.00000000 VRAI 
CAM-LBA-US_CAM-LBC-US          2023.10.22.04.56.44     2.77218914    -3.78919303    -2.68922043     0.00000548     0.00000918     0.00000000 0.00000000 VRAI 
CAM-LBA-US_EBC-US-IP-H         2023.10.22.04.56.44     2.82862163    -3.68940604    -3.11714602     0.00000739     0.00000107     0.00000000 0.00000000 VRAI 
CAM-LBA-USA_EBA-USA-HO-H       2023.10.22.04.56.44    -2.76372600    -3.79224682     6.48532534     0.00000000     0.00000000     0.00000000 0.00000000 VRAI 
CAM-LBA-USA_JDA-USA-H          2023.10.22.04.56.44    -2.84681034    -3.67459607     7.43230343     0.00002146     0.00000143     0.00000000 0.00000000 VRAI 
CAM-LBA-USA_CAM-LBC-USA        2023.10.22.04.56.44    -2.77976263    -3.78438497    -2.71075988     0.00000322     0.00000072     0.00000000 0.00000000 VRAI 
CAM-LBA-USA_EBC-USA-IP-H       2023.10.22.04.56.44    -2.84718609    -3.68946135    -3.11707592     0.00000381     0.00000417     0.00000048 0.00000000 VRAI 
CAM-LBC-US_EBC-US-HO-H         2023.10.22.04.56.44     2.84100127    -3.78384197    -6.47897935     0.00000334     0.00000560     0.00000024 0.00000000 VRAI 
CAM-LBC-US_JDC-US-H            2023.10.22.04.56.44     2.83901882    -3.68754387    -6.67493916     0.00000143     0.00000286     0.00000000 0.00000000 VRAI 
CAM-LBC-US_CAM-LBA-US          2023.10.22.04.56.44     2.81492400    -3.75352907     2.69822621     0.00000000     0.00000000     0.00000000 0.00000000 VRAI 
CAM-LBC-US_EBA-US-IP-H         2023.10.22.04.56.44     2.84035063    -3.68446612     3.12405896     0.00000000     0.00000000     0.00000000 0.00000000 VRAI 
CAM-LBC-USA_EBC-USA-HO-H       2023.10.22.04.56.44    -2.84816694    -3.69283986    -6.47909021     0.00000000     0.00000000     0.00000000 0.00000000 VRAI 
CAM-LBC-USA_JDC-USA-H          2023.10.22.04.56.44    -2.84066582    -3.78847933    -6.67475605     0.00000000     0.00000000     0.00000000 0.00000000 VRAI 
CAM-LBC-USA_CAM-LBA-USA        2023.10.22.04.56.44    -2.81524634    -3.75147176     2.68347287     0.00000000     0.00000000     0.00000000 0.00000000 VRAI 
CAM-LBC-USA_EBA-USA-IP-H       2023.10.22.04.56.44    -2.83863449    -3.68305683     3.12404513     0.00000000     0.00000000     0.00000000 0.00000000 VRAI 
CAM-EBA-US-IP_EBA-US-IP        2023.10.22.04.56.44     2.61467147    -4.19698954     3.83387494     0.00000000     0.00000000     0.00000000 0.00000000 VRAI 
CAM-EBA-US-HO_EBA-US-HO        2023.10.22.04.56.44     2.61701417    -4.19703007     5.89779234     0.00000000     0.00000000     0.00000000 0.00000000 VRAI 
CAM-EBA-USA-IP_EBA-USA-IP      2023.10.22.04.56.44    -2.61214495    -4.19699240     3.83302379     0.00000000     0.00000000     0.00000000 0.00000000 VRAI 
CAM-EBA-USA-HO_EBA-USA-HO      2023.10.22.04.56.44    -2.61280251    -4.19702053     5.89909267     0.00000000     0.00000000     0.00000000 0.00000000 VRAI 
CAM-EBC-US-IP_EBC-US-IP        2023.10.22.04.56.44     2.60408258    -4.19700480    -3.82637143     0.00000000     0.00000000     0.00000000 0.00000000 VRAI 
CAM-EBC-US-HO_EBC-US-HO        2023.10.22.04.56.44     2.62879562    -4.19704485    -5.92246628     0.00000000     0.00000000     0.00000000 0.00000000 VRAI 
CAM-EBC-USA-IP_EBC-USA-IP      2023.10.22.04.56.44    -2.61128521    -4.19698286    -3.82765627     0.00000000     0.00000000     0.00000000 0.00000000 VRAI 
CAM-EBC-USA-HO_EBC-USA-HO      2023.10.22.04.56.44    -2.61621356    -4.19702339    -5.89139652     0.00000000     0.00000000     0.00000000 0.00000000 VRAI 
CAM-JDA-US-IP_JDA-US-IP        2023.10.22.04.56.44     2.58994913    -4.19496870     6.54674625     0.00000000     0.00000000     0.00000000 0.00000000 VRAI 
CAM-JDA-US-HO_JDA-US-HO        2023.10.22.04.56.44     2.60406733    -4.13996267     6.94310570     0.00000000     0.00000000     0.00000000 0.00000000 VRAI 
CAM-JDA-USA-IP_JDA-USA-IP      2023.10.22.04.56.44    -2.59731627    -4.19499016     6.54791117     0.00000000     0.00000000     0.00000000 0.00000000 VRAI 
CAM-JDA-USA-HO_JDA-USA-HO      2023.10.22.04.56.44    -2.64280844    -4.14002609     6.97355747     0.00000000     0.00000000     0.00000000 0.00000000 VRAI 
CAM-JDC-US-IP_JDC-US-IP        2023.10.22.04.56.44     2.59847522    -4.19500685    -6.54721975     0.00000000     0.00000000     0.00000000 0.00000000 VRAI 
CAM-JDC-US-HO_JDC-US-HO        2023.10.22.04.56.44     2.58656263    -4.14004183    -6.94619751     0.00000000     0.00000000     0.00000000 0.00000000 VRAI 
CAM-JDC-USA-IP_JDC-USA-IP      2023.10.22.04.56.44    -2.56967998    -4.19507074    -6.55770016     0.00000000     0.00000000     0.00000000 0.00000000 VRAI 
CAM-JDC-USA-HO_JDC-USA-HO      2023.10.22.04.56.44    -2.58520842    -4.14003897    -6.94807768     0.00000000     0.00000000     0.00000000 0.00000000 VRAI 
CAM-ECTA-US-IP_ECTA-US-IP-T    2023.10.22.04.56.44     3.55893064     3.84859109     8.10764503     0.00000000     0.00000000     0.00000000 0.00000000 VRAI 
CAM-ECTA-US-IP_ECTA-US-IP      2023.10.22.04.56.44     3.52114534    -4.07059431     7.89870739     0.00000000     0.00000000     0.00000000 0.00000000 VRAI 
CAM-ECTA-US-HO_ECTA-US-HO-T    2023.10.22.04.56.44     3.87538052     3.64747334    12.93661308     0.00000000     0.00000000     0.00000000 0.00000000 VRAI 
CAM-ECTA-US-HO_ECTA-US-HO      2023.10.22.04.56.44     3.66420031    -3.92580605    12.88424587     0.00000000     0.00000000     0.00000000 0.00000000 VRAI 
CAM-ECTA-USA-IP_ECTA-USA-IP-T  2023.10.22.04.56.44    -3.68062162     3.84881854     7.89858580     0.00000000     0.00000000     0.00000000 0.00000000 VRAI 
CAM-ECTA-USA-IP_ECTA-USA-IP    2023.10.22.04.56.44    -3.53426409    -4.07043839     7.89028502     0.00000000     0.00000000     0.00000000 0.00000000 VRAI 
CAM-ECTA-USA-HO_ECTA-USA-HO-T  2023.10.22.04.56.44    -3.86189103     3.64768577    12.93522835     0.00000000     0.00000000     0.00000000 0.00000000 VRAI 
CAM-ECTA-USA-HO_ECTA-USA-HO    2023.10.22.04.56.44    -3.68537855    -3.92561102    12.88445759     0.00000000     0.00000000     0.00000000 0.00000000 VRAI 
CAM-ECTC-US-IP_ECTC-US-IP-T    2023.10.22.04.56.44     3.69177032     3.84800911    -7.77863359     0.00000000     0.00000000     0.00000000 0.00000000 VRAI 
CAM-ECTC-US-IP_ECTC-US-IP      2023.10.22.04.56.44     3.53336358    -4.07046366    -7.87875462     0.00000000     0.00000000     0.00000000 0.00000000 VRAI 
CAM-ECTC-US-HO_ECTC-US-HO-T    2023.10.22.04.56.44     3.86880350     3.64756918   -12.94085121     0.00000000     0.00000000     0.00000000 0.00000000 VRAI 
CAM-ECTC-US-HO_ECTC-US-HO      2023.10.22.04.56.44     3.67332077    -3.92563868   -12.89147186     0.00000000     0.00000000     0.00000000 0.00000000 VRAI 
CAM-ECTC-USA-IP_ECTC-USA-IP-T  2023.10.22.04.56.44    -3.66039658     3.84884048    -7.99969625     0.00000000     0.00000000     0.00000000 0.00000000 VRAI 
CAM-ECTC-USA-IP_ECTC-USA-IP    2023.10.22.04.56.44    -3.53215170    -4.07034779    -7.87354374     0.00000000     0.00000000     0.00000000 0.00000000 VRAI 
CAM-ECTC-USA-HO_ECTC-USA-HO-T  2023.10.22.04.56.44    -3.86858916     3.64758706   -12.93257427     0.00000000     0.00000000     0.00000000 0.00000000 VRAI 
CAM-ECTC-USA-HO_ECTC-USA-HO    2023.10.22.04.56.44    -3.67603302    -3.92565274   -12.88722324     0.00000000     0.00000000     0.00000000 0.00000000 VRAI 
