********** Fichier qui contient une sauvegarde des coordonnees images + coordonnees images transformees dans le repere BCAM (MOUNT) + coordonnees des prismes dans le repere MOUNT********** 
********************************************************************** Unite en metres (m)************************************************************************************************** 

*******************************************************************coordonnees images dans le repere CCD *********************************************************************************** 
20MABNDL000077_PR002
Spot 1     0.00097500     0.00160611
Spot 2     0.00052500     0.00043500
Spot 1     0.00052500     0.00043500
Spot 2     0.00052500     0.00043500
20MABNDL000077_PR003
Spot 1     0.00235500     0.00028500
Spot 2     0.00235500     0.00028500
Spot 1     0.00166500     0.00022500
Spot 2     0.00166500     0.00022500
20MABNDL000077_20MABNDM000168
Spot 1     0.00175633     0.00118205
Spot 2     0.00156864     0.00122455
Spot 1     0.00175585     0.00118186
Spot 2     0.00156875     0.00122475
20MABNDL000077_PR024
Spot 1     0.00251444     0.00141910
Spot 2     0.00261373     0.00143044
Spot 1     0.00251529     0.00141933
Spot 2     0.00261373     0.00143056
20MABNDM000020_PR013
Spot 1     0.00044500     0.00008500
Spot 2     0.00044500     0.00008500
Spot 1     0.00044500     0.00008500
Spot 2     0.00044500     0.00008500
20MABNDM000020_PR014
Spot 1     0.00266005     0.00168460
Spot 2     0.00249854     0.00168774
Spot 1     0.00266051     0.00168453
Spot 2     0.00249859     0.00168788
20MABNDM000020_20MABNDL000196
Spot 1     0.00197676     0.00118043
Spot 2     0.00230500     0.00010500
Spot 1     0.00197684     0.00118027
Spot 2     0.00230500     0.00010500
20MABNDM000020_PR035
Spot 1     0.00126348     0.00149176
Spot 2     0.00118694     0.00152776
20MABNDM000168_PR025
Spot 1     0.00076237     0.00147521
Spot 2     0.00060479     0.00148010
20MABNDM000168_PR026
Spot 1     0.00266786     0.00142500
Spot 2     0.00250672     0.00142141
20MABNDM000168_20MABNDL000077
Spot 1     0.00154196     0.00129761
Spot 2     0.00175933     0.00130377
20MABNDM000168_PR001
Spot 1     0.00080958     0.00161726
Spot 2     0.00070676     0.00161902
20MABNDL000196_PR036
Spot 1     0.00094447     0.00164969
Spot 2     0.00110960     0.00164865
20MABNDL000196_PR037
Spot 1     0.00283277     0.00146851
Spot 2     0.00299119     0.00147111
20MABNDL000196_20MABNDM000020
Spot 1     0.00192444     0.00103817
Spot 2     0.00170338     0.00104370
20MABNDL000196_PR012
Spot 1     0.00265043     0.00133913
Spot 2     0.00272250     0.00138401
20MABNDA000134_PR004
Spot 1     0.00190765     0.00176123
Spot 2     0.00168889     0.00175521
20MABNDA000334_PR005
Spot 1     0.00248310     0.00157820
Spot 2     0.00220259     0.00157867
20MABNDB000317_PR015
Spot 1     0.00146340     0.00168245
Spot 2     0.00168366     0.00167688
20MABNDB000146_PR016
Spot 1     0.00144681     0.00131401
Spot 2     0.00172296     0.00131620
20MABNDB000135_PR027
Spot 1     0.00188486     0.00089216
Spot 2     0.00210389     0.00089593
20MABNDB000126_PR028
Spot 1     0.00193165     0.00198126
Spot 2     0.00164922     0.00198030
20MABNDA000272_PR038
Spot 1     0.00192273     0.00095113
Spot 2     0.00170102     0.00095102
20MABNDA000003_PR039
Spot 1     0.00201475     0.00194052
Spot 2     0.00229352     0.00194125
20MABNDA000196_PR006
Spot 1     0.00175506     0.00067403
Spot 2     0.00138810     0.00067167
20MABNDA000324_PR007
Spot 1     0.00199694     0.00134088
Spot 2     0.00220294     0.00133548
20MABNDB000001_PR017
Spot 1     0.00185718     0.00088625
Spot 2     0.00222679     0.00089000
20MABNDB000260_PR019
Spot 1     0.00206725     0.00145751
Spot 2     0.00227159     0.00145636
20MABNDB000212_PR029
Spot 1     0.00220721     0.00069115
Spot 2     0.00184475     0.00068854
20MABNDB000128_PR030
Spot 1     0.00268599     0.00161730
Spot 2     0.00248728     0.00161967
20MABNDA000444_PR040
Spot 1     0.00179554     0.00069462
Spot 2    -0.00000100    -0.00000100
20MABNDA000053_PR041
Spot 1     0.00123590     0.00144468
Spot 2     0.00144057     0.00144523
20MABNDA000188_PR008
Spot 1     0.00266500     0.00126500
Spot 2     0.00266500     0.00126500
20MABNDA000188_PR018
Spot 1     0.00170527     0.00166910
Spot 2     0.00123793     0.00166563
20MABNDA000039_PR009
Spot 1     0.00066553     0.00118040
Spot 2     0.00061517     0.00118431
20MABNDA000039_PR011
Spot 1     0.00277051     0.00028460
Spot 2     0.00259448     0.00027942
20MABNDB000155_PR020
Spot 1     0.00061929     0.00112396
Spot 2     0.00068785     0.00111954
20MABNDB000155_PR022
Spot 1     0.00211602     0.00140745
Spot 2     0.00258933     0.00140259
20MABNDB000010_PR021
Spot 1     0.00286663     0.00115182
Spot 2     0.00292492     0.00115570
20MABNDB000010_PR023
Spot 1     0.00131346     0.00030318
Spot 2     0.00148841     0.00029998
20MABNDB000069_PR031
Spot 1     0.00021500     0.00240500
Spot 2     0.00021500     0.00240500
20MABNDB000069_PR033
Spot 1     0.00183048     0.00206138
Spot 2     0.00230052     0.00208147
20MABNDB000131_PR032
Spot 1     0.00277650     0.00108204
Spot 2     0.00283700     0.00108474
20MABNDB000131_PR034
Spot 1     0.00092118     0.00032823
Spot 2     0.00109678     0.00032767
20MABNDA000208_PR042
Spot 1     0.00284500     0.00011500
Spot 2     0.00284500     0.00011500
20MABNDA000208_PR046
Spot 1     0.00143781     0.00221559
Spot 2     0.00096809     0.00221755
20MABNDA000035_PR044
Spot 1     0.00074348     0.00125953
Spot 2     0.00068387     0.00125357
20MABNDA000035_PR045
Spot 1     0.00254787     0.00046992
Spot 2     0.00237012     0.00046888


****************************************************************coordonnees images transformees dans le repere MOUNT************************************************************************* 
20MABNDL000077_PR002
Spot 1     0.01204634     0.03567984    -0.07463200
Spot 2     0.01158509     0.03451311    -0.07463200
Spot 1     0.01158509     0.03451311    -0.07463200
Spot 2     0.01158509     0.03451311    -0.07463200
20MABNDL000077_PR003
Spot 1     0.01341356     0.03434551    -0.07463200
Spot 2     0.01341356     0.03434551    -0.07463200
Spot 1     0.01272301     0.03429215    -0.07463200
Spot 2     0.01272301     0.03429215    -0.07463200
20MABNDL000077_20MABNDM000168
Spot 1    -0.01259145     0.03524504    -0.00695400
Spot 2    -0.01240421     0.03528946    -0.00695400
Spot 1    -0.01259097     0.03524486    -0.00695400
Spot 2    -0.01240432     0.03528966    -0.00695400
20MABNDL000077_PR024
Spot 1    -0.01335195     0.03547432    -0.00695400
Spot 2    -0.01345135     0.03548464    -0.00695400
Spot 1    -0.01335280     0.03547454    -0.00695400
Spot 2    -0.01345135     0.03548476    -0.00695400
20MABNDM000020_PR013
Spot 1    -0.01394554    -0.03407018    -0.00523500
Spot 2    -0.01394554    -0.03407018    -0.00523500
Spot 1    -0.01394554    -0.03407018    -0.00523500
Spot 2    -0.01394554    -0.03407018    -0.00523500
20MABNDM000020_PR014
Spot 1    -0.01169566    -0.03562040    -0.00523500
Spot 2    -0.01185706    -0.03562711    -0.00523500
Spot 1    -0.01169520    -0.03562032    -0.00523500
Spot 2    -0.01185701    -0.03562725    -0.00523500
20MABNDM000020_20MABNDL000196
Spot 1     0.01270952    -0.03514899    -0.07583800
Spot 2     0.01238113    -0.03407361    -0.07583800
Spot 1     0.01270944    -0.03514883    -0.07583800
Spot 2     0.01238113    -0.03407361    -0.07583800
20MABNDM000020_PR035
Spot 1     0.01342284    -0.03546022    -0.07583800
Spot 2     0.01349939    -0.03549621    -0.07583800
20MABNDM000168_PR025
Spot 1    -0.01363975    -0.03581417    -0.00532900
Spot 2    -0.01379731    -0.03581974    -0.00532900
20MABNDM000168_PR026
Spot 1    -0.01173449    -0.03575578    -0.00532900
Spot 2    -0.01189565    -0.03575288    -0.00532900
20MABNDM000168_20MABNDL000077
Spot 1     0.01288354    -0.03529824    -0.07445100
Spot 2     0.01266610    -0.03530122    -0.07445100
20MABNDM000168_PR001
Spot 1     0.01361116    -0.03562857    -0.07445100
Spot 2     0.01371395    -0.03563183    -0.07445100
20MABNDL000196_PR036
Spot 1     0.01192437     0.03583838    -0.07483600
Spot 2     0.01208951     0.03583769    -0.07483600
20MABNDL000196_PR037
Spot 1     0.01381305     0.03566114    -0.07483600
Spot 2     0.01397146     0.03566407    -0.07483600
20MABNDL000196_20MABNDM000020
Spot 1    -0.01274842     0.03530940    -0.00611000
Spot 2    -0.01252752     0.03531938    -0.00611000
20MABNDL000196_PR012
Spot 1    -0.01348032     0.03559569    -0.00611000
Spot 2    -0.01355328     0.03563912    -0.00611000
20MABNDA000134_PR004
Spot 1    -0.01287839     0.01241161    -0.07608400
Spot 2    -0.01265955     0.01241156    -0.07608400
20MABNDA000334_PR005
Spot 1    -0.01312620     0.01255020    -0.07324100
Spot 2    -0.01284569     0.01254947    -0.07324100
20MABNDB000317_PR015
Spot 1    -0.01269185    -0.01241588    -0.07326100
Spot 2    -0.01247154    -0.01241889    -0.07326100
20MABNDB000146_PR016
Spot 1    -0.01276151    -0.01247960    -0.07450500
Spot 2    -0.01248537    -0.01247679    -0.07450500
20MABNDB000135_PR027
Spot 1    -0.01252008    -0.01322079    -0.07464700
Spot 2    -0.01230102    -0.01321946    -0.07464700
20MABNDB000126_PR028
Spot 1    -0.01224774    -0.01219938    -0.07500400
Spot 2    -0.01253016    -0.01220185    -0.07500400
20MABNDA000272_PR038
Spot 1    -0.01275838     0.01316034    -0.07417900
Spot 2    -0.01253667     0.01316005    -0.07417900
20MABNDA000003_PR039
Spot 1    -0.01281587     0.01211178    -0.07373400
Spot 2    -0.01309464     0.01211176    -0.07373400
20MABNDA000196_PR006
Spot 1    -0.01270908     0.01330122    -0.07967100
Spot 2    -0.01234212     0.01329886    -0.07967100
20MABNDA000324_PR007
Spot 1    -0.01260165     0.01268031    -0.07446800
Spot 2    -0.01280768     0.01268411    -0.07446800
20MABNDB000001_PR017
Spot 1    -0.01232644    -0.01310298    -0.07418400
Spot 2    -0.01195681    -0.01310315    -0.07418400
20MABNDB000260_PR019
Spot 1    -0.01226319    -0.01244206    -0.07492700
Spot 2    -0.01205887    -0.01243902    -0.07492700
20MABNDB000212_PR029
Spot 1    -0.01188074    -0.01328984    -0.07390500
Spot 2    -0.01224321    -0.01328858    -0.07390500
20MABNDB000128_PR030
Spot 1    -0.01166781    -0.01259730    -0.07353400
Spot 2    -0.01186653    -0.01259561    -0.07353400
20MABNDA000444_PR040
Spot 1    -0.01273096     0.01332189    -0.07412000
Spot 2    -0.01094339     0.01404026    -0.07412000
20MABNDA000053_PR041
Spot 1    -0.01198198     0.01265753    -0.07430100
Spot 2    -0.01218662     0.01266098    -0.07430100
20MABNDA000188_PR008
Spot 1    -0.01369093     0.01279700    -0.07502000
Spot 2    -0.01369093     0.01279700    -0.07502000
20MABNDA000188_PR018
Spot 1    -0.01273469     0.01238470    -0.07502000
Spot 2    -0.01226734     0.01238416    -0.07502000
20MABNDA000039_PR009
Spot 1    -0.01162768     0.01306374    -0.07444800
Spot 2    -0.01157734     0.01305961    -0.07444800
20MABNDA000039_PR011
Spot 1    -0.01372877     0.01396864    -0.07444800
Spot 2    -0.01355272     0.01397306    -0.07444800
20MABNDB000155_PR020
Spot 1    -0.01364679    -0.01313342    -0.07501700
Spot 2    -0.01357818    -0.01313690    -0.07501700
20MABNDB000155_PR022
Spot 1    -0.01215408    -0.01282946    -0.07501700
Spot 2    -0.01168075    -0.01282784    -0.07501700
20MABNDB000010_PR021
Spot 1    -0.01158436    -0.01292673    -0.07358200
Spot 2    -0.01152614    -0.01292186    -0.07358200
20MABNDB000010_PR023
Spot 1    -0.01312293    -0.01380156    -0.07358200
Spot 2    -0.01294795    -0.01380179    -0.07358200
20MABNDB000069_PR031
Spot 1    -0.01361993    -0.01186066    -0.07388500
Spot 2    -0.01361993    -0.01186066    -0.07388500
20MABNDB000069_PR033
Spot 1    -0.01202000    -0.01227066    -0.07388500
Spot 2    -0.01154954    -0.01226998    -0.07388500
20MABNDB000131_PR032
Spot 1    -0.01144367    -0.01303272    -0.07533000
Spot 2    -0.01138319    -0.01302971    -0.07533000
20MABNDB000131_PR034
Spot 1    -0.01329517    -0.01379586    -0.07533000
Spot 2    -0.01311957    -0.01379553    -0.07533000
20MABNDA000208_PR042
Spot 1    -0.01371645     0.01388121    -0.07273700
Spot 2    -0.01371645     0.01388121    -0.07273700
20MABNDA000208_PR046
Spot 1    -0.01230742     0.01178185    -0.07273700
Spot 2    -0.01183770     0.01178030    -0.07273700
20MABNDA000035_PR044
Spot 1    -0.01157815     0.01299775    -0.07483200
Spot 2    -0.01151849     0.01300329    -0.07483200
20MABNDA000035_PR045
Spot 1    -0.01337687     0.01380018    -0.07483200
Spot 2    -0.01319912     0.01379996    -0.07483200


*****************************************************************coordonnees du prisme dans le repere MOUNT********************************************************************************** 
20MABNDL000077_PR002
    0.05598522     0.04490159     3.70685768
    0.06737348     0.07371713     3.70652628
20MABNDL000077_PR003
   -0.02476418     0.08434060     3.89557457
    0.01108603     0.08711259     3.89571905
20MABNDL000077_20MABNDM000168
   -0.02621187     0.03574182    -5.46873951
   -0.02622523     0.03574132    -5.46873951
20MABNDL000077_PR024
    0.04318262     0.01917062    -5.89642906
    0.04321589     0.01915731    -5.89642859
20MABNDM000020_PR013
    0.05274186    -0.08860095    -3.80153990
    0.05274186    -0.08860095    -3.80153990
20MABNDM000020_PR014
   -0.06561945    -0.00531506    -4.74841166
   -0.06563536    -0.00531324    -4.74841118
20MABNDM000020_20MABNDL000196
    0.02684342    -0.07115996     5.39469719
    0.02684629    -0.07116569     5.39469719
20MABNDM000020_PR035
   -0.04265819    -0.00701581     5.80095387
20MABNDM000168_PR025
    0.03850843    -0.01216641    -3.78836727
20MABNDM000168_PR026
   -0.05787785    -0.01416490    -3.98429108
20MABNDM000168_20MABNDL000077
    0.01162316    -0.03888677     5.38884687
20MABNDM000168_PR001
   -0.05728967    -0.01348936     5.81470680
20MABNDL000196_PR036
    0.05142941     0.00545857     3.68776703
20MABNDL000196_PR037
   -0.04400095     0.01291046     3.88352156
20MABNDL000196_20MABNDM000020
   -0.01579817     0.03811928    -5.47473860
20MABNDL000196_PR012
    0.05225799     0.01473480    -5.91537380
20MABNDA000134_PR004
   -0.00832679     0.03814971     2.74966097
20MABNDA000334_PR005
   -0.00398909     0.03146797     2.14977264
20MABNDB000317_PR015
   -0.01646254    -0.03700105     2.75126719
20MABNDB000146_PR016
   -0.01350985    -0.03125974     2.15201735
20MABNDB000135_PR027
   -0.02078412    -0.00901736     2.74937057
20MABNDB000126_PR028
   -0.02047295    -0.03813101     2.14680457
20MABNDA000272_PR038
   -0.01324669     0.01081147     2.74965858
20MABNDA000003_PR039
   -0.00552485     0.04164707     2.14890862
20MABNDA000196_PR006
   -0.01547452     0.00879081     1.64206028
20MABNDA000324_PR007
   -0.01526139     0.03277890     2.95548868
20MABNDB000001_PR017
   -0.02360528    -0.01256869     1.64039505
20MABNDB000260_PR019
   -0.03011490    -0.03666909     2.95626044
20MABNDB000212_PR029
   -0.02479769    -0.00822695     1.64224184
20MABNDB000128_PR030
   -0.04229547    -0.03194356     2.95495319
20MABNDA000444_PR040
   -0.03092727     0.00077216     1.64489985
20MABNDA000053_PR041
   -0.03533880     0.02985979     2.95464659
20MABNDA000188_PR008
    0.10933864     0.04538462     9.20419693
20MABNDA000188_PR018
   -0.01604900     0.02466013     1.28359389
20MABNDA000039_PR009
   -0.17114714     0.02563063    11.00701618
20MABNDA000039_PR011
    0.03087919    -0.02443158     3.43347073
20MABNDB000155_PR020
    0.10196859    -0.00819406     9.20028496
20MABNDB000155_PR022
   -0.02566331    -0.01767666     1.28070712
20MABNDB000010_PR021
   -0.17610782    -0.03362519    11.00694752
20MABNDB000010_PR023
    0.00424834     0.02074553     3.43376708
20MABNDB000069_PR031
    0.10999375    -0.16176865     9.20229721
20MABNDB000069_PR033
   -0.02692562    -0.02681226     1.28394079
20MABNDB000131_PR032
   -0.18791485    -0.03037312    11.00642014
20MABNDB000131_PR034
    0.01447480     0.01631786     3.43337917
20MABNDA000208_PR042
    0.11037338    -0.08822197     9.20121384
20MABNDA000208_PR046
   -0.02364032     0.03485998     1.28207624
20MABNDA000035_PR044
   -0.17940168     0.02707202    11.00802994
20MABNDA000035_PR045
    0.01470115    -0.01902984     3.43483543


*****************************************************************coordonnees du prisme dans le repere ATLAS********************************************************************************** 
20MABNDL000077_PR002 0.00000000
    2.81214118    -3.68852425     6.48616886
    2.78332901    -3.67712641     6.48587990
20MABNDL000077_PR003 0.00000000
    2.77286172    -3.76949382     6.67482471
    2.77010131    -3.73364305     6.67501593
20MABNDL000077_20MABNDM000168 0.00000000
    2.81227469    -3.75940347    -2.68952727
    2.81227517    -3.75941682    -2.68952727
20MABNDL000077_PR024 0.00000000
    2.82844853    -3.68948650    -3.11714697
    2.82846189    -3.68945336    -3.11714649
20MABNDM000020_PR013 0.00000000
   -2.76372600    -3.79224682     6.48532534
   -2.76372600    -3.79224682     6.48532534
20MABNDM000020_PR014 0.00000000
   -2.84678602    -3.67458010     7.43230343
   -2.84678793    -3.67456412     7.43230295
20MABNDM000020_20MABNDL000196 0.00000000
   -2.78299928    -3.75934887    -2.71088576
   -2.78299356    -3.75935173    -2.71088576
20MABNDM000020_PR035 0.00000000
   -2.84720349    -3.68951869    -3.11707664
20MABNDM000168_PR025 0.00000000
    2.84106493    -3.78383994    -6.47897911
20MABNDM000168_PR026 0.00000000
    2.83908010    -3.68752599    -6.67493868
20MABNDM000168_20MABNDL000077 0.00000000
    2.81490874    -3.75353527     2.69822621
20MABNDM000168_PR001 0.00000000
    2.84035015    -3.68447065     3.12405896
20MABNDL000196_PR036 0.00000000
   -2.84814906    -3.69284534    -6.47909069
20MABNDL000196_PR037 0.00000000
   -2.84065700    -3.78845429    -6.67475653
20MABNDL000196_20MABNDM000020 0.00000000
   -2.81525898    -3.75153470     2.68347311
20MABNDL000196_PR012 0.00000000
   -2.83866572    -3.68307948     3.12404513
20MABNDA000134_PR004 0.00000000
    2.61467648    -4.19698954     3.83384895
20MABNDA000334_PR005 0.00000000
    2.61700940    -4.19703007     5.89779282
20MABNDB000317_PR015 0.00000000
   -2.61214471    -4.19699192     3.83301449
20MABNDB000146_PR016 0.00000000
   -2.61278534    -4.19702053     5.89909029
20MABNDB000135_PR027 0.00000000
    2.60407948    -4.19700480    -3.82634354
20MABNDB000126_PR028 0.00000000
    2.60544395    -4.19701529    -5.89408875
20MABNDA000272_PR038 0.00000000
   -2.61129022    -4.19698286    -3.82767296
20MABNDA000003_PR039 0.00000000
   -2.61620641    -4.19702625    -5.89111948
20MABNDA000196_PR006 0.00000000
    2.58993506    -4.19496870     6.54674768
20MABNDA000324_PR007 0.00000000
    2.60405397    -4.13996267     6.94313717
20MABNDB000001_PR017 0.00000000
   -2.59730983    -4.19499016     6.54789686
20MABNDB000260_PR019 0.00000000
   -2.59864759    -4.13996840     6.94397688
20MABNDB000212_PR029 0.00000000
    2.59847546    -4.19500685    -6.54721498
20MABNDB000128_PR030 0.00000000
    2.58656621    -4.14004230    -6.94618225
20MABNDA000444_PR040 0.00000000
   -2.60609984    -4.19510984    -6.53995228
20MABNDA000053_PR041 0.00000000
   -2.58520103    -4.14003944    -6.94805288
20MABNDA000188_PR008 0.00000000
    3.52420664     3.85074425     7.96562338
20MABNDA000188_PR018 0.00000000
    3.52107024    -4.07059574     7.89879084
20MABNDA000039_PR009 0.00000000
    3.87531900     3.64747429    12.93692493
20MABNDA000039_PR011 0.00000000
    3.66414499    -3.92580509    12.88440514
20MABNDB000155_PR020 0.00000000
   -3.68062115     3.84881854     7.89867306
20MABNDB000155_PR022 0.00000000
   -3.53431726    -4.07043743     7.89038277
20MABNDB000010_PR021 0.00000000
   -3.86194515     3.64768481    12.93545437
20MABNDB000010_PR023 0.00000000
   -3.68541837    -3.92560983    12.88453007
20MABNDB000069_PR031 0.00000000
    3.69177032     3.84800911    -7.77863359
20MABNDB000069_PR033 0.00000000
    3.53337383    -4.07046270    -7.87885904
20MABNDB000131_PR032 0.00000000
    3.86871719     3.64756989   -12.94101620
20MABNDB000131_PR034 0.00000000
    3.67331457    -3.92563748   -12.89162922
20MABNDA000208_PR042 0.00000000
   -3.66039658     3.84884048    -7.99969625
20MABNDA000208_PR046 0.00000000
   -3.53212523    -4.07034588    -7.87365818
20MABNDA000035_PR044 0.00000000
   -3.86864281     3.64758515   -12.93275070
20MABNDA000035_PR045 0.00000000
   -3.67602730    -3.92565179   -12.88735485


*****************************************************************Rapport********************************************************************************** 
CAM-LBA-US_EBA-US-HO-H         2023.05.07.02.31.41     2.79773510    -3.68282533     6.48602438     0.01440609     0.00569892     0.00014448 0.00000000 VRAI 
CAM-LBA-US_JDA-US-H            2023.05.07.02.31.41     2.77148151    -3.75156844     6.67492032     0.00138021     0.01792538     0.00009561 0.00000000 VRAI 
CAM-LBA-US_CAM-LBC-US          2023.05.07.02.31.41     2.81227493    -3.75941014    -2.68952727     0.00000024     0.00000668     0.00000000 0.00000000 VRAI 
CAM-LBA-US_EBC-US-IP-H         2023.05.07.02.31.41     2.82845521    -3.68946993    -3.11714673     0.00000668     0.00001657     0.00000024 0.00000000 VRAI 
CAM-LBA-USA_EBA-USA-HO-H       2023.05.07.02.31.41    -2.76372600    -3.79224682     6.48532534     0.00000000     0.00000000     0.00000000 0.00000000 VRAI 
CAM-LBA-USA_JDA-USA-H          2023.05.07.02.31.41    -2.84678698    -3.67457211     7.43230319     0.00000095     0.00000799     0.00000024 0.00000000 VRAI 
CAM-LBA-USA_CAM-LBC-USA        2023.05.07.02.31.41    -2.78299642    -3.75935030    -2.71088576     0.00000286     0.00000143     0.00000000 0.00000000 VRAI 
CAM-LBA-USA_EBC-USA-IP-H       2023.05.07.02.31.41    -2.84720349    -3.68951869    -3.11707664     0.00000000     0.00000000     0.00000000 0.00000000 VRAI 
CAM-LBC-US_EBC-US-HO-H         2023.05.07.02.31.41     2.84106493    -3.78383994    -6.47897911     0.00000000     0.00000000     0.00000000 0.00000000 VRAI 
CAM-LBC-US_JDC-US-H            2023.05.07.02.31.41     2.83908010    -3.68752599    -6.67493868     0.00000000     0.00000000     0.00000000 0.00000000 VRAI 
CAM-LBC-US_CAM-LBA-US          2023.05.07.02.31.41     2.81490874    -3.75353527     2.69822621     0.00000000     0.00000000     0.00000000 0.00000000 VRAI 
CAM-LBC-US_EBA-US-IP-H         2023.05.07.02.31.41     2.84035015    -3.68447065     3.12405896     0.00000000     0.00000000     0.00000000 0.00000000 VRAI 
CAM-LBC-USA_EBC-USA-HO-H       2023.05.07.02.31.41    -2.84814906    -3.69284534    -6.47909069     0.00000000     0.00000000     0.00000000 0.00000000 VRAI 
CAM-LBC-USA_JDC-USA-H          2023.05.07.02.31.41    -2.84065700    -3.78845429    -6.67475653     0.00000000     0.00000000     0.00000000 0.00000000 VRAI 
CAM-LBC-USA_CAM-LBA-USA        2023.05.07.02.31.41    -2.81525898    -3.75153470     2.68347311     0.00000000     0.00000000     0.00000000 0.00000000 VRAI 
CAM-LBC-USA_EBA-USA-IP-H       2023.05.07.02.31.41    -2.83866572    -3.68307948     3.12404513     0.00000000     0.00000000     0.00000000 0.00000000 VRAI 
CAM-EBA-US-IP_EBA-US-IP        2023.05.07.02.31.41     2.61467648    -4.19698954     3.83384895     0.00000000     0.00000000     0.00000000 0.00000000 VRAI 
CAM-EBA-US-HO_EBA-US-HO        2023.05.07.02.31.41     2.61700940    -4.19703007     5.89779282     0.00000000     0.00000000     0.00000000 0.00000000 VRAI 
CAM-EBA-USA-IP_EBA-USA-IP      2023.05.07.02.31.41    -2.61214471    -4.19699192     3.83301449     0.00000000     0.00000000     0.00000000 0.00000000 VRAI 
CAM-EBA-USA-HO_EBA-USA-HO      2023.05.07.02.31.41    -2.61278534    -4.19702053     5.89909029     0.00000000     0.00000000     0.00000000 0.00000000 VRAI 
CAM-EBC-US-IP_EBC-US-IP        2023.05.07.02.31.41     2.60407948    -4.19700480    -3.82634354     0.00000000     0.00000000     0.00000000 0.00000000 VRAI 
CAM-EBC-US-HO_EBC-US-HO        2023.05.07.02.31.41     2.60544395    -4.19701529    -5.89408875     0.00000000     0.00000000     0.00000000 0.00000000 VRAI 
CAM-EBC-USA-IP_EBC-USA-IP      2023.05.07.02.31.41    -2.61129022    -4.19698286    -3.82767296     0.00000000     0.00000000     0.00000000 0.00000000 VRAI 
CAM-EBC-USA-HO_EBC-USA-HO      2023.05.07.02.31.41    -2.61620641    -4.19702625    -5.89111948     0.00000000     0.00000000     0.00000000 0.00000000 VRAI 
CAM-JDA-US-IP_JDA-US-IP        2023.05.07.02.31.41     2.58993506    -4.19496870     6.54674768     0.00000000     0.00000000     0.00000000 0.00000000 VRAI 
CAM-JDA-US-HO_JDA-US-HO        2023.05.07.02.31.41     2.60405397    -4.13996267     6.94313717     0.00000000     0.00000000     0.00000000 0.00000000 VRAI 
CAM-JDA-USA-IP_JDA-USA-IP      2023.05.07.02.31.41    -2.59730983    -4.19499016     6.54789686     0.00000000     0.00000000     0.00000000 0.00000000 VRAI 
CAM-JDA-USA-HO_JDA-USA-HO      2023.05.07.02.31.41    -2.59864759    -4.13996840     6.94397688     0.00000000     0.00000000     0.00000000 0.00000000 VRAI 
CAM-JDC-US-IP_JDC-US-IP        2023.05.07.02.31.41     2.59847546    -4.19500685    -6.54721498     0.00000000     0.00000000     0.00000000 0.00000000 VRAI 
CAM-JDC-US-HO_JDC-US-HO        2023.05.07.02.31.41     2.58656621    -4.14004230    -6.94618225     0.00000000     0.00000000     0.00000000 0.00000000 VRAI 
CAM-JDC-USA-IP_JDC-USA-IP      2023.05.07.02.31.41    -2.60609984    -4.19510984    -6.53995228     0.00000000     0.00000000     0.00000000 0.00000000 VRAI 
CAM-JDC-USA-HO_JDC-USA-HO      2023.05.07.02.31.41    -2.58520103    -4.14003944    -6.94805288     0.00000000     0.00000000     0.00000000 0.00000000 VRAI 
CAM-ECTA-US-IP_ECTA-US-IP-T    2023.05.07.02.31.41     3.52420664     3.85074425     7.96562338     0.00000000     0.00000000     0.00000000 0.00000000 VRAI 
CAM-ECTA-US-IP_ECTA-US-IP      2023.05.07.02.31.41     3.52107024    -4.07059574     7.89879084     0.00000000     0.00000000     0.00000000 0.00000000 VRAI 
CAM-ECTA-US-HO_ECTA-US-HO-T    2023.05.07.02.31.41     3.87531900     3.64747429    12.93692493     0.00000000     0.00000000     0.00000000 0.00000000 VRAI 
CAM-ECTA-US-HO_ECTA-US-HO      2023.05.07.02.31.41     3.66414499    -3.92580509    12.88440514     0.00000000     0.00000000     0.00000000 0.00000000 VRAI 
CAM-ECTA-USA-IP_ECTA-USA-IP-T  2023.05.07.02.31.41    -3.68062115     3.84881854     7.89867306     0.00000000     0.00000000     0.00000000 0.00000000 VRAI 
CAM-ECTA-USA-IP_ECTA-USA-IP    2023.05.07.02.31.41    -3.53431726    -4.07043743     7.89038277     0.00000000     0.00000000     0.00000000 0.00000000 VRAI 
CAM-ECTA-USA-HO_ECTA-USA-HO-T  2023.05.07.02.31.41    -3.86194515     3.64768481    12.93545437     0.00000000     0.00000000     0.00000000 0.00000000 VRAI 
CAM-ECTA-USA-HO_ECTA-USA-HO    2023.05.07.02.31.41    -3.68541837    -3.92560983    12.88453007     0.00000000     0.00000000     0.00000000 0.00000000 VRAI 
CAM-ECTC-US-IP_ECTC-US-IP-T    2023.05.07.02.31.41     3.69177032     3.84800911    -7.77863359     0.00000000     0.00000000     0.00000000 0.00000000 VRAI 
CAM-ECTC-US-IP_ECTC-US-IP      2023.05.07.02.31.41     3.53337383    -4.07046270    -7.87885904     0.00000000     0.00000000     0.00000000 0.00000000 VRAI 
CAM-ECTC-US-HO_ECTC-US-HO-T    2023.05.07.02.31.41     3.86871719     3.64756989   -12.94101620     0.00000000     0.00000000     0.00000000 0.00000000 VRAI 
CAM-ECTC-US-HO_ECTC-US-HO      2023.05.07.02.31.41     3.67331457    -3.92563748   -12.89162922     0.00000000     0.00000000     0.00000000 0.00000000 VRAI 
CAM-ECTC-USA-IP_ECTC-USA-IP-T  2023.05.07.02.31.41    -3.66039658     3.84884048    -7.99969625     0.00000000     0.00000000     0.00000000 0.00000000 VRAI 
CAM-ECTC-USA-IP_ECTC-USA-IP    2023.05.07.02.31.41    -3.53212523    -4.07034588    -7.87365818     0.00000000     0.00000000     0.00000000 0.00000000 VRAI 
CAM-ECTC-USA-HO_ECTC-USA-HO-T  2023.05.07.02.31.41    -3.86864281     3.64758515   -12.93275070     0.00000000     0.00000000     0.00000000 0.00000000 VRAI 
CAM-ECTC-USA-HO_ECTC-USA-HO    2023.05.07.02.31.41    -3.67602730    -3.92565179   -12.88735485     0.00000000     0.00000000     0.00000000 0.00000000 VRAI 
