********** Fichier qui contient une sauvegarde des coordonnees images + coordonnees images transformees dans le repere BCAM (MOUNT) + coordonnees des prismes dans le repere MOUNT********** 
********************************************************************** Unite en metres (m)************************************************************************************************** 

*******************************************************************coordonnees images dans le repere CCD *********************************************************************************** 
20MABNDL000077_PR002
Spot 1     0.00086500     0.00006500
Spot 2     0.00086500     0.00006500
Spot 1     0.00086500     0.00006500
Spot 2     0.00086500     0.00006500
20MABNDL000077_PR003
Spot 1     0.00166500     0.00022500
Spot 2     0.00166500     0.00022500
Spot 1     0.00235500     0.00028500
Spot 2     0.00213500     0.00003500
20MABNDL000077_20MABNDM000168
Spot 1     0.00175617     0.00118351
Spot 2     0.00075500     0.00010500
Spot 1     0.00175636     0.00118344
Spot 2     0.00075500     0.00010500
20MABNDL000077_PR024
Spot 1     0.00251525     0.00142110
Spot 2     0.00261450     0.00143180
Spot 1     0.00251606     0.00142112
Spot 2     0.00261420     0.00143176
20MABNDM000020_PR013
Spot 1     0.00044500     0.00008500
Spot 2     0.00044500     0.00008500
Spot 1     0.00044500     0.00008500
Spot 2     0.00044500     0.00008500
20MABNDM000020_PR014
Spot 1     0.00265979     0.00168469
Spot 2     0.00249770     0.00168795
Spot 1     0.00266039     0.00168459
Spot 2     0.00249771     0.00168879
20MABNDM000020_20MABNDL000196
Spot 1     0.00197629     0.00118009
Spot 2     0.00026500     0.00017500
Spot 1     0.00197626     0.00117988
Spot 2     0.00230500     0.00010500
20MABNDM000020_PR035
Spot 1     0.00126324     0.00149151
Spot 2     0.00118710     0.00152723
Spot 1     0.00126313     0.00149167
Spot 2     0.00118686     0.00152730
20MABNDM000168_PR025
Spot 1     0.00076267     0.00147372
Spot 2     0.00060520     0.00147881
Spot 1     0.00076247     0.00147400
Spot 2     0.00060510     0.00147863
20MABNDM000168_PR026
Spot 1     0.00266798     0.00142418
Spot 2     0.00250637     0.00141986
20MABNDM000168_20MABNDL000077
Spot 1     0.00154231     0.00129819
Spot 2     0.00175871     0.00130199
20MABNDM000168_PR001
Spot 1     0.00081000     0.00161755
Spot 2     0.00070709     0.00161893
20MABNDL000196_PR036
Spot 1     0.00094483     0.00164981
Spot 2     0.00110988     0.00164845
20MABNDL000196_PR037
Spot 1     0.00283310     0.00146844
Spot 2     0.00299229     0.00147144
20MABNDL000196_20MABNDM000020
Spot 1     0.00192479     0.00103908
Spot 2     0.00170407     0.00104503
20MABNDL000196_PR012
Spot 1     0.00327500     0.00013500
Spot 2     0.00272359     0.00138539
20MABNDA000134_PR004
Spot 1     0.00190783     0.00176132
Spot 2     0.00168886     0.00175365
20MABNDA000334_PR005
Spot 1     0.00248320     0.00157837
Spot 2     0.00220314     0.00157886
20MABNDB000317_PR015
Spot 1     0.00168418     0.00167748
Spot 2     0.00146311     0.00168255
20MABNDB000146_PR016
Spot 1     0.00144636     0.00131390
Spot 2     0.00172271     0.00131615
20MABNDB000135_PR027
Spot 1     0.00188455     0.00089192
Spot 2     0.00210393     0.00089517
20MABNDB000126_PR028
Spot 1     0.00193218     0.00198126
Spot 2     0.00164500     0.00198500
20MABNDA000272_PR038
Spot 1     0.00192298     0.00095142
Spot 2     0.00170104     0.00095071
20MABNDA000003_PR039
Spot 1     0.00201506     0.00193099
Spot 2     0.00229387     0.00193160
20MABNDA000196_PR006
Spot 1     0.00138758     0.00067168
Spot 2     0.00175339     0.00067382
20MABNDA000324_PR007
Spot 1     0.00199712     0.00134175
Spot 2     0.00220381     0.00133724
20MABNDB000001_PR017
Spot 1     0.00185745     0.00088627
Spot 2     0.00222754     0.00089082
20MABNDB000260_PR019
Spot 1     0.00206727     0.00145835
Spot 2     0.00227500     0.00145500
20MABNDB000212_PR029
Spot 1     0.00220751     0.00069153
Spot 2     0.00184472     0.00068958
20MABNDB000128_PR030
Spot 1     0.00268555     0.00161638
Spot 2     0.00248767     0.00161900
20MABNDA000444_PR040
Spot 1     0.00179524     0.00069549
Spot 2     0.00301500     0.00121500
20MABNDA000053_PR041
Spot 1     0.00123584     0.00144405
Spot 2     0.00144088     0.00144500
20MABNDA000188_PR008
Spot 1     0.00297500     0.00011500
Spot 2     0.00297500     0.00011500
20MABNDA000188_PR018
Spot 1     0.00170953     0.00167116
Spot 2     0.00124254     0.00166950
20MABNDA000039_PR009
Spot 1     0.00066496     0.00117806
Spot 2     0.00061491     0.00118250
20MABNDA000039_PR011
Spot 1     0.00276978     0.00028152
Spot 2     0.00259307     0.00027616
20MABNDB000155_PR020
Spot 1     0.00061882     0.00112464
Spot 2     0.00068944     0.00112056
20MABNDB000155_PR022
Spot 1     0.00211947     0.00141133
Spot 2     0.00259270     0.00140678
20MABNDB000010_PR021
Spot 1     0.00286664     0.00115086
Spot 2     0.00292450     0.00115436
20MABNDB000010_PR023
Spot 1     0.00131192     0.00030143
Spot 2     0.00148798     0.00029959
20MABNDB000069_PR031
Spot 1     0.00021500     0.00240500
Spot 2     0.00021500     0.00240500
20MABNDB000069_PR033
Spot 1     0.00183040     0.00206554
Spot 2     0.00230110     0.00208556
20MABNDB000131_PR032
Spot 1     0.00277694     0.00108099
Spot 2     0.00283740     0.00108373
20MABNDB000131_PR034
Spot 1     0.00092118     0.00032528
Spot 2     0.00109750     0.00032467
20MABNDA000208_PR042
Spot 1     0.00284500     0.00011500
Spot 2     0.00284500     0.00011500
20MABNDA000208_PR046
Spot 1     0.00143917     0.00222026
Spot 2     0.00096851     0.00222285
20MABNDA000035_PR044
Spot 1     0.00074415     0.00125828
Spot 2     0.00068389     0.00125261
20MABNDA000035_PR045
Spot 1     0.00254784     0.00046736
Spot 2     0.00237025     0.00046634


****************************************************************coordonnees images transformees dans le repere MOUNT************************************************************************* 
20MABNDL000077_PR002
Spot 1     0.01192151     0.03413986    -0.07463200
Spot 2     0.01192151     0.03413986    -0.07463200
Spot 1     0.01192151     0.03413986    -0.07463200
Spot 2     0.01192151     0.03413986    -0.07463200
20MABNDL000077_PR003
Spot 1     0.01272301     0.03429215    -0.07463200
Spot 2     0.01272301     0.03429215    -0.07463200
Spot 1     0.01341356     0.03434551    -0.07463200
Spot 2     0.01319116     0.03409764    -0.07463200
20MABNDL000077_20MABNDM000168
Spot 1    -0.01259131     0.03524650    -0.00695400
Spot 2    -0.01157915     0.03417830    -0.00695400
Spot 1    -0.01259150     0.03524643    -0.00695400
Spot 2    -0.01157915     0.03417830    -0.00695400
20MABNDL000077_PR024
Spot 1    -0.01335278     0.03547631    -0.00695400
Spot 2    -0.01345213     0.03548600    -0.00695400
Spot 1    -0.01335359     0.03547632    -0.00695400
Spot 2    -0.01345183     0.03548596    -0.00695400
20MABNDM000020_PR013
Spot 1    -0.01394554    -0.03407018    -0.00523500
Spot 2    -0.01394554    -0.03407018    -0.00523500
Spot 1    -0.01394554    -0.03407018    -0.00523500
Spot 2    -0.01394554    -0.03407018    -0.00523500
20MABNDM000020_PR014
Spot 1    -0.01169592    -0.03562050    -0.00523500
Spot 2    -0.01185789    -0.03562734    -0.00523500
Spot 1    -0.01169532    -0.03562038    -0.00523500
Spot 2    -0.01185787    -0.03562818    -0.00523500
20MABNDM000020_20MABNDL000196
Spot 1     0.01270999    -0.03514865    -0.07583800
Spot 2     0.01442114    -0.03414333    -0.07583800
Spot 1     0.01271002    -0.03514844    -0.07583800
Spot 2     0.01238113    -0.03407361    -0.07583800
20MABNDM000020_PR035
Spot 1     0.01342308    -0.03545997    -0.07583800
Spot 2     0.01349923    -0.03549568    -0.07583800
Spot 1     0.01342319    -0.03546013    -0.07583800
Spot 2     0.01349947    -0.03549575    -0.07583800
20MABNDM000168_PR025
Spot 1    -0.01363946    -0.03581268    -0.00532900
Spot 2    -0.01379690    -0.03581845    -0.00532900
Spot 1    -0.01363966    -0.03581296    -0.00532900
Spot 2    -0.01379700    -0.03581827    -0.00532900
20MABNDM000168_PR026
Spot 1    -0.01173438    -0.03575496    -0.00532900
Spot 2    -0.01189600    -0.03575133    -0.00532900
20MABNDM000168_20MABNDL000077
Spot 1     0.01288318    -0.03529881    -0.07445100
Spot 2     0.01266675    -0.03529944    -0.07445100
20MABNDM000168_PR001
Spot 1     0.01361074    -0.03562885    -0.07445100
Spot 2     0.01371362    -0.03563174    -0.07445100
20MABNDL000196_PR036
Spot 1     0.01192473     0.03583850    -0.07483600
Spot 2     0.01208979     0.03583749    -0.07483600
20MABNDL000196_PR037
Spot 1     0.01381338     0.03566107    -0.07483600
Spot 2     0.01397256     0.03566441    -0.07483600
20MABNDL000196_20MABNDM000020
Spot 1    -0.01274879     0.03531031    -0.00611000
Spot 2    -0.01252824     0.03532069    -0.00611000
20MABNDL000196_PR012
Spot 1    -0.01408054     0.03437924    -0.00611000
Spot 2    -0.01355440     0.03564047    -0.00611000
20MABNDA000134_PR004
Spot 1    -0.01287857     0.01241153    -0.07608400
Spot 2    -0.01265948     0.01241312    -0.07608400
20MABNDA000334_PR005
Spot 1    -0.01312630     0.01255003    -0.07324100
Spot 2    -0.01284624     0.01254928    -0.07324100
20MABNDB000317_PR015
Spot 1    -0.01247103    -0.01241828    -0.07326100
Spot 2    -0.01269214    -0.01241579    -0.07326100
20MABNDB000146_PR016
Spot 1    -0.01276196    -0.01247971    -0.07450500
Spot 2    -0.01248562    -0.01247685    -0.07450500
20MABNDB000135_PR027
Spot 1    -0.01252039    -0.01322103    -0.07464700
Spot 2    -0.01230099    -0.01322022    -0.07464700
20MABNDB000126_PR028
Spot 1    -0.01224721    -0.01219938    -0.07500400
Spot 2    -0.01253441    -0.01219717    -0.07500400
20MABNDA000272_PR038
Spot 1    -0.01275863     0.01316005    -0.07417900
Spot 2    -0.01253669     0.01316036    -0.07417900
20MABNDA000003_PR039
Spot 1    -0.01281616     0.01212131    -0.07373400
Spot 2    -0.01309497     0.01212141    -0.07373400
20MABNDA000196_PR006
Spot 1    -0.01234160     0.01329885    -0.07967100
Spot 2    -0.01270740     0.01330141    -0.07967100
20MABNDA000324_PR007
Spot 1    -0.01260182     0.01267944    -0.07446800
Spot 2    -0.01280854     0.01268234    -0.07446800
20MABNDB000001_PR017
Spot 1    -0.01232617    -0.01310297    -0.07418400
Spot 2    -0.01195605    -0.01310233    -0.07418400
20MABNDB000260_PR019
Spot 1    -0.01226319    -0.01244122    -0.07492700
Spot 2    -0.01205544    -0.01244031    -0.07492700
20MABNDB000212_PR029
Spot 1    -0.01188043    -0.01328946    -0.07390500
Spot 2    -0.01224322    -0.01328754    -0.07390500
20MABNDB000128_PR030
Spot 1    -0.01166825    -0.01259822    -0.07353400
Spot 2    -0.01186613    -0.01259628    -0.07353400
20MABNDA000444_PR040
Spot 1    -0.01273065     0.01332102    -0.07412000
Spot 2    -0.01394372     0.01278608    -0.07412000
20MABNDA000053_PR041
Spot 1    -0.01198191     0.01265816    -0.07430100
Spot 2    -0.01218693     0.01266121    -0.07430100
20MABNDA000188_PR008
Spot 1    -0.01399107     0.01394961    -0.07502000
Spot 2    -0.01399107     0.01394961    -0.07502000
20MABNDA000188_PR018
Spot 1    -0.01273897     0.01238267    -0.07502000
Spot 2    -0.01227198     0.01238033    -0.07502000
20MABNDA000039_PR009
Spot 1    -0.01162710     0.01306608    -0.07444800
Spot 2    -0.01157707     0.01306142    -0.07444800
20MABNDA000039_PR011
Spot 1    -0.01372802     0.01397172    -0.07444800
Spot 2    -0.01355129     0.01397631    -0.07444800
20MABNDB000155_PR020
Spot 1    -0.01364727    -0.01313274    -0.07501700
Spot 2    -0.01357660    -0.01313586    -0.07501700
20MABNDB000155_PR022
Spot 1    -0.01215068    -0.01282554    -0.07501700
Spot 2    -0.01167744    -0.01282361    -0.07501700
20MABNDB000010_PR021
Spot 1    -0.01158433    -0.01292769    -0.07358200
Spot 2    -0.01152654    -0.01292321    -0.07358200
20MABNDB000010_PR023
Spot 1    -0.01312444    -0.01380333    -0.07358200
Spot 2    -0.01294837    -0.01380219    -0.07358200
20MABNDB000069_PR031
Spot 1    -0.01361993    -0.01186066    -0.07388500
Spot 2    -0.01361993    -0.01186066    -0.07388500
20MABNDB000069_PR033
Spot 1    -0.01201991    -0.01226650    -0.07388500
Spot 2    -0.01154879    -0.01226592    -0.07388500
20MABNDB000131_PR032
Spot 1    -0.01144323    -0.01303376    -0.07533000
Spot 2    -0.01138278    -0.01303072    -0.07533000
20MABNDB000131_PR034
Spot 1    -0.01329516    -0.01379881    -0.07533000
Spot 2    -0.01311884    -0.01379853    -0.07533000
20MABNDA000208_PR042
Spot 1    -0.01371645     0.01388121    -0.07273700
Spot 2    -0.01371645     0.01388121    -0.07273700
20MABNDA000208_PR046
Spot 1    -0.01230878     0.01177718    -0.07273700
Spot 2    -0.01183812     0.01177500    -0.07273700
20MABNDA000035_PR044
Spot 1    -0.01157881     0.01299901    -0.07483200
Spot 2    -0.01151851     0.01300425    -0.07483200
20MABNDA000035_PR045
Spot 1    -0.01337682     0.01380274    -0.07483200
Spot 2    -0.01319923     0.01380250    -0.07483200


*****************************************************************coordonnees du prisme dans le repere MOUNT********************************************************************************** 
20MABNDL000077_PR002
    0.05075517     0.09215411     3.70650077
    0.05075517     0.09215411     3.70650077
20MABNDL000077_PR003
    0.01108603     0.08711259     3.89571905
   -0.01899088     0.09077445     3.89554071
20MABNDL000077_20MABNDM000168
   -0.05601269     0.07581793    -5.46843529
   -0.05600585     0.07582052    -5.46843529
20MABNDL000077_PR024
    0.04324554     0.01904027    -5.89642811
    0.04326541     0.01904126    -5.89642811
20MABNDM000020_PR013
    0.05274186    -0.08860095    -3.80153990
    0.05274186    -0.08860095    -3.80153990
20MABNDM000020_PR014
   -0.06558544    -0.00530497    -4.74841166
   -0.06560494    -0.00528238    -4.74841166
20MABNDM000020_20MABNDL000196
   -0.04625911    -0.06867249     5.39440870
    0.02682551    -0.07117967     5.39469719
20MABNDM000020_PR035
   -0.04266127    -0.00704586     5.80095387
   -0.04267475    -0.00703700     5.80095387
20MABNDM000168_PR025
    0.03849119    -0.01223521    -3.78836775
    0.03849860    -0.01223271    -3.78836775
20MABNDM000168_PR026
   -0.05787160    -0.01422656    -3.98429132
20MABNDM000168_20MABNDL000077
    0.01161283    -0.03892973     5.38884640
20MABNDM000168_PR001
   -0.05726049    -0.01348204     5.81470680
20MABNDL000196_PR036
    0.05141369     0.00546050     3.68776703
20MABNDL000196_PR037
   -0.04403790     0.01290366     3.88352108
20MABNDL000196_20MABNDM000020
   -0.01575919     0.03803957    -5.47473860
20MABNDL000196_PR012
    0.07562283     0.06195578    -5.91504860
20MABNDA000134_PR004
   -0.00832479     0.03812275     2.74966145
20MABNDA000334_PR005
   -0.00397979     0.03147311     2.14977264
20MABNDB000317_PR015
   -0.01646655    -0.03701384     2.75126696
20MABNDB000146_PR016
   -0.01349979    -0.03125741     2.15201735
20MABNDB000135_PR027
   -0.02077897    -0.00899908     2.74937057
20MABNDB000126_PR028
   -0.02042000    -0.03819771     2.14680386
20MABNDA000272_PR038
   -0.01324174     0.01081110     2.74965858
20MABNDA000003_PR039
   -0.00551611     0.04137300     2.14891243
20MABNDA000196_PR006
   -0.01549842     0.00878893     1.64206028
20MABNDA000324_PR007
   -0.01524113     0.03283082     2.95548868
20MABNDB000001_PR017
   -0.02361652    -0.01257775     1.64039505
20MABNDB000260_PR019
   -0.03018264    -0.03666023     2.95626020
20MABNDB000212_PR029
   -0.02480082    -0.00824249     1.64224184
20MABNDB000128_PR030
   -0.04229460    -0.03191230     2.95495367
20MABNDA000444_PR040
    0.00193157     0.01451832     1.64498210
20MABNDA000053_PR041
   -0.03533423     0.02984281     2.95464659
20MABNDA000188_PR008
    0.14616936    -0.09611703     9.20304298
20MABNDA000188_PR018
   -0.01597264     0.02471024     1.28359365
20MABNDA000039_PR009
   -0.17120916     0.02532740    11.00701523
20MABNDA000039_PR011
    0.03082974    -0.02457597     3.43346977
20MABNDB000155_PR020
    0.10190127    -0.00829936     9.20028496
20MABNDB000155_PR022
   -0.02572062    -0.01774641     1.28070629
20MABNDB000010_PR021
   -0.17608058    -0.03345563    11.00694847
20MABNDB000010_PR023
    0.00429267     0.02079535     3.43376637
20MABNDB000069_PR031
    0.10999375    -0.16176865     9.20229721
20MABNDB000069_PR033
   -0.02693280    -0.02688257     1.28393996
20MABNDB000131_PR032
   -0.18797699    -0.03022291    11.00642014
20MABNDB000131_PR034
    0.01445770     0.01645337     3.43337798
20MABNDA000208_PR042
    0.11037338    -0.08822197     9.20121384
20MABNDA000208_PR046
   -0.02362517     0.03494516     1.28207505
20MABNDA000035_PR044
   -0.17935237     0.02691003    11.00803185
20MABNDA000035_PR045
    0.01470259    -0.01914622     3.43483448


*****************************************************************coordonnees du prisme dans le repere ATLAS********************************************************************************** 
20MABNDL000077_PR002 0.00000000
    2.76488686    -3.69373894     6.48585176
    2.76488686    -3.69373894     6.48585176
20MABNDL000077_PR003 0.00000000
    2.77010131    -3.73364305     6.67501593
    2.76642966    -3.76371837     6.67480421
20MABNDL000077_20MABNDM000168 0.00000000
    2.77218938    -3.78919172    -2.68922043
    2.77218676    -3.78918505    -2.68922043
20MABNDL000077_PR024 0.00000000
    2.82857895    -3.68942356    -3.11714602
    2.82857800    -3.68940377    -3.11714602
20MABNDM000020_PR013 0.00000000
   -2.76372600    -3.79224682     6.48532534
   -2.76372600    -3.79224682     6.48532534
20MABNDM000020_PR014 0.00000000
   -2.84679604    -3.67461419     7.43230343
   -2.84681869    -3.67459464     7.43230343
20MABNDM000020_20MABNDL000196 0.00000000
   -2.78546429    -3.68624592    -2.71054101
   -2.78297949    -3.75933099    -2.71088576
20MABNDM000020_PR035 0.00000000
   -2.84717345    -3.68951559    -3.11707664
   -2.84718227    -3.68950224    -3.11707664
20MABNDM000168_PR025 0.00000000
    2.84099627    -3.78382254    -6.47897959
    2.84099865    -3.78382993    -6.47897959
20MABNDM000168_PR026 0.00000000
    2.83901834    -3.68753219    -6.67493868
20MABNDM000168_20MABNDL000077 0.00000000
    2.81486583    -3.75352478     2.69822574
20MABNDM000168_PR001 0.00000000
    2.84035754    -3.68449998     3.12405896
20MABNDL000196_PR036 0.00000000
   -2.84814692    -3.69286108    -6.47909069
20MABNDL000196_PR037 0.00000000
   -2.84066367    -3.78849125    -6.67475605
20MABNDL000196_20MABNDM000020 0.00000000
   -2.81533885    -3.75149584     2.68347287
20MABNDL000196_PR012 0.00000000
   -2.79145551    -3.65969300     3.12369728
20MABNDA000134_PR004 0.00000000
    2.61467838    -4.19698954     3.83387589
20MABNDA000334_PR005 0.00000000
    2.61701870    -4.19703007     5.89778805
20MABNDB000317_PR015 0.00000000
   -2.61214066    -4.19699240     3.83300161
20MABNDB000146_PR016 0.00000000
   -2.61279559    -4.19702053     5.89909267
20MABNDB000135_PR027 0.00000000
    2.60408449    -4.19700480    -3.82636166
20MABNDB000126_PR028 0.00000000
    2.60549688    -4.19701576    -5.89402199
20MABNDA000272_PR038 0.00000000
   -2.61129522    -4.19698286    -3.82767320
20MABNDA000003_PR039 0.00000000
   -2.61621499    -4.19702339    -5.89139366
20MABNDA000196_PR006 0.00000000
    2.58995914    -4.19496870     6.54674578
20MABNDA000324_PR007 0.00000000
    2.60407424    -4.13996267     6.94308519
20MABNDB000001_PR017 0.00000000
   -2.59732127    -4.19499016     6.54790592
20MABNDB000260_PR019 0.00000000
   -2.59857988    -4.13996840     6.94398594
20MABNDB000212_PR029 0.00000000
    2.59847856    -4.19500685    -6.54723024
20MABNDB000128_PR030 0.00000000
    2.58656716    -4.14004183    -6.94621325
20MABNDA000444_PR040 0.00000000
   -2.57324243    -4.19502687    -6.55370188
20MABNDA000053_PR041 0.00000000
   -2.58520555    -4.14003944    -6.94807005
20MABNDA000188_PR008 0.00000000
    3.55893064     3.84859109     8.10764503
20MABNDA000188_PR018 0.00000000
    3.52114749    -4.07059431     7.89874172
20MABNDA000039_PR009 0.00000000
    3.87538123     3.64747334    12.93662167
20MABNDA000039_PR011 0.00000000
    3.66419435    -3.92580605    12.88426113
20MABNDB000155_PR020 0.00000000
   -3.68055391     3.84881854     7.89856768
20MABNDB000155_PR022 0.00000000
   -3.53425980    -4.07043839     7.89031267
20MABNDB000010_PR021 0.00000000
   -3.86191797     3.64768577    12.93528557
20MABNDB000010_PR023 0.00000000
   -3.68537426    -3.92561054    12.88448048
20MABNDB000069_PR031 0.00000000
    3.69177032     3.84800911    -7.77863359
20MABNDB000069_PR033 0.00000000
    3.53336668    -4.07046318    -7.87878895
20MABNDB000131_PR032 0.00000000
    3.86877918     3.64757013   -12.94086552
20MABNDB000131_PR034 0.00000000
    3.67333174    -3.92563868   -12.89149380
20MABNDA000208_PR042 0.00000000
   -3.66039658     3.84884048    -7.99969625
20MABNDA000208_PR046 0.00000000
   -3.53214049    -4.07034683    -7.87357283
20MABNDA000035_PR044 0.00000000
   -3.86859345     3.64758706   -12.93258953
20MABNDA000035_PR045 0.00000000
   -3.67602563    -3.92565274   -12.88723850


*****************************************************************Rapport********************************************************************************** 
CAM-LBA-US_EBA-US-HO-H         2023.09.20.08.39.37     2.76488686    -3.69373894     6.48585176     0.00000000     0.00000000     0.00000000 0.00000000 VRAI 
CAM-LBA-US_JDA-US-H            2023.09.20.08.39.37     2.76826549    -3.74868071     6.67491007     0.00183582     0.01503766     0.00010586 0.00000000 VRAI 
CAM-LBA-US_CAM-LBC-US          2023.09.20.08.39.37     2.77218807    -3.78918839    -2.68922043     0.00000131     0.00000334     0.00000000 0.00000000 VRAI 
CAM-LBA-US_EBC-US-IP-H         2023.09.20.08.39.37     2.82857847    -3.68941367    -3.11714602     0.00000048     0.00000989     0.00000000 0.00000000 VRAI 
CAM-LBA-USA_EBA-USA-HO-H       2023.09.20.08.39.37    -2.76372600    -3.79224682     6.48532534     0.00000000     0.00000000     0.00000000 0.00000000 VRAI 
CAM-LBA-USA_JDA-USA-H          2023.09.20.08.39.37    -2.84680736    -3.67460442     7.43230343     0.00001132     0.00000978     0.00000000 0.00000000 VRAI 
CAM-LBA-USA_CAM-LBC-USA        2023.09.20.08.39.37    -2.78422189    -3.72278845    -2.71071339     0.00124240     0.03654253     0.00017238 0.00000000 VRAI 
CAM-LBA-USA_EBC-USA-IP-H       2023.09.20.08.39.37    -2.84717786    -3.68950891    -3.11707664     0.00000441     0.00000668     0.00000000 0.00000000 VRAI 
CAM-LBC-US_EBC-US-HO-H         2023.09.20.08.39.37     2.84099746    -3.78382623    -6.47897959     0.00000119     0.00000370     0.00000000 0.00000000 VRAI 
CAM-LBC-US_JDC-US-H            2023.09.20.08.39.37     2.83901834    -3.68753219    -6.67493868     0.00000000     0.00000000     0.00000000 0.00000000 VRAI 
CAM-LBC-US_CAM-LBA-US          2023.09.20.08.39.37     2.81486583    -3.75352478     2.69822574     0.00000000     0.00000000     0.00000000 0.00000000 VRAI 
CAM-LBC-US_EBA-US-IP-H         2023.09.20.08.39.37     2.84035754    -3.68449998     3.12405896     0.00000000     0.00000000     0.00000000 0.00000000 VRAI 
CAM-LBC-USA_EBC-USA-HO-H       2023.09.20.08.39.37    -2.84814692    -3.69286108    -6.47909069     0.00000000     0.00000000     0.00000000 0.00000000 VRAI 
CAM-LBC-USA_JDC-USA-H          2023.09.20.08.39.37    -2.84066367    -3.78849125    -6.67475605     0.00000000     0.00000000     0.00000000 0.00000000 VRAI 
CAM-LBC-USA_CAM-LBA-USA        2023.09.20.08.39.37    -2.81533885    -3.75149584     2.68347287     0.00000000     0.00000000     0.00000000 0.00000000 VRAI 
CAM-LBC-USA_EBA-USA-IP-H       2023.09.20.08.39.37    -2.79145551    -3.65969300     3.12369728     0.00000000     0.00000000     0.00000000 0.00000000 VRAI 
CAM-EBA-US-IP_EBA-US-IP        2023.09.20.08.39.37     2.61467838    -4.19698954     3.83387589     0.00000000     0.00000000     0.00000000 0.00000000 VRAI 
CAM-EBA-US-HO_EBA-US-HO        2023.09.20.08.39.37     2.61701870    -4.19703007     5.89778805     0.00000000     0.00000000     0.00000000 0.00000000 VRAI 
CAM-EBA-USA-IP_EBA-USA-IP      2023.09.20.08.39.37    -2.61214066    -4.19699240     3.83300161     0.00000000     0.00000000     0.00000000 0.00000000 VRAI 
CAM-EBA-USA-HO_EBA-USA-HO      2023.09.20.08.39.37    -2.61279559    -4.19702053     5.89909267     0.00000000     0.00000000     0.00000000 0.00000000 VRAI 
CAM-EBC-US-IP_EBC-US-IP        2023.09.20.08.39.37     2.60408449    -4.19700480    -3.82636166     0.00000000     0.00000000     0.00000000 0.00000000 VRAI 
CAM-EBC-US-HO_EBC-US-HO        2023.09.20.08.39.37     2.60549688    -4.19701576    -5.89402199     0.00000000     0.00000000     0.00000000 0.00000000 VRAI 
CAM-EBC-USA-IP_EBC-USA-IP      2023.09.20.08.39.37    -2.61129522    -4.19698286    -3.82767320     0.00000000     0.00000000     0.00000000 0.00000000 VRAI 
CAM-EBC-USA-HO_EBC-USA-HO      2023.09.20.08.39.37    -2.61621499    -4.19702339    -5.89139366     0.00000000     0.00000000     0.00000000 0.00000000 VRAI 
CAM-JDA-US-IP_JDA-US-IP        2023.09.20.08.39.37     2.58995914    -4.19496870     6.54674578     0.00000000     0.00000000     0.00000000 0.00000000 VRAI 
CAM-JDA-US-HO_JDA-US-HO        2023.09.20.08.39.37     2.60407424    -4.13996267     6.94308519     0.00000000     0.00000000     0.00000000 0.00000000 VRAI 
CAM-JDA-USA-IP_JDA-USA-IP      2023.09.20.08.39.37    -2.59732127    -4.19499016     6.54790592     0.00000000     0.00000000     0.00000000 0.00000000 VRAI 
CAM-JDA-USA-HO_JDA-USA-HO      2023.09.20.08.39.37    -2.59857988    -4.13996840     6.94398594     0.00000000     0.00000000     0.00000000 0.00000000 VRAI 
CAM-JDC-US-IP_JDC-US-IP        2023.09.20.08.39.37     2.59847856    -4.19500685    -6.54723024     0.00000000     0.00000000     0.00000000 0.00000000 VRAI 
CAM-JDC-US-HO_JDC-US-HO        2023.09.20.08.39.37     2.58656716    -4.14004183    -6.94621325     0.00000000     0.00000000     0.00000000 0.00000000 VRAI 
CAM-JDC-USA-IP_JDC-USA-IP      2023.09.20.08.39.37    -2.57324243    -4.19502687    -6.55370188     0.00000000     0.00000000     0.00000000 0.00000000 VRAI 
CAM-JDC-USA-HO_JDC-USA-HO      2023.09.20.08.39.37    -2.58520555    -4.14003944    -6.94807005     0.00000000     0.00000000     0.00000000 0.00000000 VRAI 
CAM-ECTA-US-IP_ECTA-US-IP-T    2023.09.20.08.39.37     3.55893064     3.84859109     8.10764503     0.00000000     0.00000000     0.00000000 0.00000000 VRAI 
CAM-ECTA-US-IP_ECTA-US-IP      2023.09.20.08.39.37     3.52114749    -4.07059431     7.89874172     0.00000000     0.00000000     0.00000000 0.00000000 VRAI 
CAM-ECTA-US-HO_ECTA-US-HO-T    2023.09.20.08.39.37     3.87538123     3.64747334    12.93662167     0.00000000     0.00000000     0.00000000 0.00000000 VRAI 
CAM-ECTA-US-HO_ECTA-US-HO      2023.09.20.08.39.37     3.66419435    -3.92580605    12.88426113     0.00000000     0.00000000     0.00000000 0.00000000 VRAI 
CAM-ECTA-USA-IP_ECTA-USA-IP-T  2023.09.20.08.39.37    -3.68055391     3.84881854     7.89856768     0.00000000     0.00000000     0.00000000 0.00000000 VRAI 
CAM-ECTA-USA-IP_ECTA-USA-IP    2023.09.20.08.39.37    -3.53425980    -4.07043839     7.89031267     0.00000000     0.00000000     0.00000000 0.00000000 VRAI 
CAM-ECTA-USA-HO_ECTA-USA-HO-T  2023.09.20.08.39.37    -3.86191797     3.64768577    12.93528557     0.00000000     0.00000000     0.00000000 0.00000000 VRAI 
CAM-ECTA-USA-HO_ECTA-USA-HO    2023.09.20.08.39.37    -3.68537426    -3.92561054    12.88448048     0.00000000     0.00000000     0.00000000 0.00000000 VRAI 
CAM-ECTC-US-IP_ECTC-US-IP-T    2023.09.20.08.39.37     3.69177032     3.84800911    -7.77863359     0.00000000     0.00000000     0.00000000 0.00000000 VRAI 
CAM-ECTC-US-IP_ECTC-US-IP      2023.09.20.08.39.37     3.53336668    -4.07046318    -7.87878895     0.00000000     0.00000000     0.00000000 0.00000000 VRAI 
CAM-ECTC-US-HO_ECTC-US-HO-T    2023.09.20.08.39.37     3.86877918     3.64757013   -12.94086552     0.00000000     0.00000000     0.00000000 0.00000000 VRAI 
CAM-ECTC-US-HO_ECTC-US-HO      2023.09.20.08.39.37     3.67333174    -3.92563868   -12.89149380     0.00000000     0.00000000     0.00000000 0.00000000 VRAI 
CAM-ECTC-USA-IP_ECTC-USA-IP-T  2023.09.20.08.39.37    -3.66039658     3.84884048    -7.99969625     0.00000000     0.00000000     0.00000000 0.00000000 VRAI 
CAM-ECTC-USA-IP_ECTC-USA-IP    2023.09.20.08.39.37    -3.53214049    -4.07034683    -7.87357283     0.00000000     0.00000000     0.00000000 0.00000000 VRAI 
CAM-ECTC-USA-HO_ECTC-USA-HO-T  2023.09.20.08.39.37    -3.86859345     3.64758706   -12.93258953     0.00000000     0.00000000     0.00000000 0.00000000 VRAI 
CAM-ECTC-USA-HO_ECTC-USA-HO    2023.09.20.08.39.37    -3.67602563    -3.92565274   -12.88723850     0.00000000     0.00000000     0.00000000 0.00000000 VRAI 
