********** Fichier qui contient une sauvegarde des coordonnees images + coordonnees images transformees dans le repere BCAM (MOUNT) + coordonnees des prismes dans le repere MOUNT********** 
********************************************************************** Unite en metres (m)************************************************************************************************** 

*******************************************************************coordonnees images dans le repere CCD *********************************************************************************** 
20MABNDL000077_PR002
Spot 1     0.00031500     0.00109500
Spot 2     0.00052500     0.00043500
Spot 1     0.00036500     0.00140500
Spot 2     0.00052500     0.00043500
20MABNDL000077_PR003
Spot 1     0.00166500     0.00022500
Spot 2     0.00166500     0.00022500
Spot 1     0.00235500     0.00028500
Spot 2     0.00223500     0.00044500
20MABNDL000077_20MABNDM000168
Spot 1     0.00175632     0.00118207
Spot 2     0.00075500     0.00010500
Spot 1     0.00175567     0.00118237
Spot 2     0.00075500     0.00010500
20MABNDL000077_PR024
Spot 1     0.00251497     0.00142018
Spot 2     0.00261452     0.00143222
Spot 1     0.00251516     0.00142019
Spot 2     0.00261411     0.00143206
20MABNDM000020_PR013
Spot 1     0.00044500     0.00008500
Spot 2     0.00044500     0.00008500
Spot 1     0.00044500     0.00008500
Spot 2     0.00044500     0.00008500
20MABNDM000020_PR014
Spot 1     0.00266020     0.00168484
Spot 2     0.00249788     0.00168824
Spot 1     0.00266069     0.00168504
Spot 2     0.00249861     0.00168899
20MABNDM000020_20MABNDL000196
Spot 1     0.00197679     0.00118000
Spot 2     0.00230500     0.00010500
Spot 1     0.00197683     0.00117988
Spot 2     0.00230500     0.00010500
20MABNDM000020_PR035
Spot 1     0.00126428     0.00149143
Spot 2     0.00118748     0.00152711
Spot 1     0.00126443     0.00149167
Spot 2     0.00118733     0.00152744
20MABNDM000168_PR025
Spot 1     0.00076316     0.00147416
Spot 2     0.00060500     0.00147929
20MABNDM000168_PR026
Spot 1     0.00266848     0.00142469
Spot 2     0.00250630     0.00142111
20MABNDM000168_20MABNDL000077
Spot 1     0.00154186     0.00129777
Spot 2     0.00175689     0.00129949
20MABNDM000168_PR001
Spot 1     0.00080963     0.00161751
Spot 2     0.00070693     0.00161920
20MABNDL000196_PR036
Spot 1     0.00094489     0.00164954
Spot 2     0.00111017     0.00164857
20MABNDL000196_PR037
Spot 1     0.00283319     0.00146824
Spot 2     0.00299255     0.00147103
20MABNDL000196_20MABNDM000020
Spot 1     0.00192450     0.00103899
Spot 2     0.00170349     0.00104506
20MABNDL000196_PR012
Spot 1     0.00327500     0.00013500
Spot 2     0.00272291     0.00138495
20MABNDA000134_PR004
Spot 1     0.00190796     0.00176106
Spot 2     0.00168912     0.00175358
20MABNDA000334_PR005
Spot 1     0.00248328     0.00157850
Spot 2     0.00220321     0.00157861
20MABNDB000317_PR015
Spot 1     0.00168385     0.00167721
Spot 2     0.00146272     0.00168242
20MABNDB000146_PR016
Spot 1     0.00144612     0.00131424
Spot 2     0.00172193     0.00131614
20MABNDB000135_PR027
Spot 1     0.00188441     0.00089195
Spot 2     0.00210367     0.00089516
20MABNDB000126_PR028
Spot 1     0.00193247     0.00198139
Spot 2    -0.00000100    -0.00000100
20MABNDA000272_PR038
Spot 1     0.00192335     0.00095152
Spot 2     0.00170093     0.00095093
20MABNDA000003_PR039
Spot 1     0.00201517     0.00193109
Spot 2     0.00229418     0.00193170
20MABNDA000196_PR006
Spot 1     0.00138747     0.00067161
Spot 2     0.00175349     0.00067377
20MABNDA000324_PR007
Spot 1     0.00199729     0.00134168
Spot 2     0.00220369     0.00133598
20MABNDB000001_PR017
Spot 1     0.00185787     0.00088607
Spot 2     0.00222770     0.00089066
20MABNDB000260_PR019
Spot 1     0.00206738     0.00145841
Spot 2    -0.00000100    -0.00000100
20MABNDB000212_PR029
Spot 1     0.00220676     0.00069156
Spot 2     0.00184403     0.00068931
20MABNDB000128_PR030
Spot 1     0.00268591     0.00161655
Spot 2     0.00248782     0.00161903
20MABNDA000444_PR040
Spot 1     0.00179551     0.00069603
Spot 2     0.00252500     0.00168500
20MABNDA000053_PR041
Spot 1     0.00123571     0.00144409
Spot 2     0.00144071     0.00144462
20MABNDA000188_PR008
Spot 1     0.00297500     0.00011500
Spot 2     0.00297500     0.00011500
20MABNDA000188_PR018
Spot 1     0.00170883     0.00167352
Spot 2     0.00124109     0.00167063
20MABNDA000039_PR009
Spot 1     0.00066550     0.00117894
Spot 2     0.00061513     0.00118303
20MABNDA000039_PR011
Spot 1     0.00277052     0.00028159
Spot 2     0.00259339     0.00027640
20MABNDB000155_PR020
Spot 1     0.00061940     0.00112519
Spot 2     0.00068841     0.00111974
20MABNDB000155_PR022
Spot 1     0.00211820     0.00141253
Spot 2     0.00259137     0.00140821
20MABNDB000010_PR021
Spot 1     0.00286668     0.00115113
Spot 2     0.00292493     0.00115452
20MABNDB000010_PR023
Spot 1     0.00131239     0.00030097
Spot 2     0.00148858     0.00029935
20MABNDB000069_PR031
Spot 1     0.00021500     0.00240500
Spot 2     0.00021500     0.00240500
20MABNDB000069_PR033
Spot 1     0.00183098     0.00206719
Spot 2     0.00230173     0.00208773
20MABNDB000131_PR032
Spot 1     0.00277692     0.00108073
Spot 2     0.00283767     0.00108385
20MABNDB000131_PR034
Spot 1     0.00092089     0.00032463
Spot 2     0.00109725     0.00032407
20MABNDA000208_PR042
Spot 1     0.00284500     0.00011500
Spot 2     0.00284500     0.00011500
20MABNDA000208_PR046
Spot 1     0.00143955     0.00222245
Spot 2     0.00096902     0.00222485
20MABNDA000035_PR044
Spot 1     0.00074417     0.00125810
Spot 2     0.00068363     0.00125294
20MABNDA000035_PR045
Spot 1     0.00254753     0.00046723
Spot 2     0.00236989     0.00046600


****************************************************************coordonnees images transformees dans le repere MOUNT************************************************************************* 
20MABNDL000077_PR002
Spot 1     0.01138145     0.03517510    -0.07463200
Spot 2     0.01158509     0.03451311    -0.07463200
Spot 1     0.01143443     0.03548461    -0.07463200
Spot 2     0.01158509     0.03451311    -0.07463200
20MABNDL000077_PR003
Spot 1     0.01272301     0.03429215    -0.07463200
Spot 2     0.01272301     0.03429215    -0.07463200
Spot 1     0.01341356     0.03434551    -0.07463200
Spot 2     0.01329511     0.03450666    -0.07463200
20MABNDL000077_20MABNDM000168
Spot 1    -0.01259144     0.03524506    -0.00695400
Spot 2    -0.01157915     0.03417830    -0.00695400
Spot 1    -0.01259079     0.03524537    -0.00695400
Spot 2    -0.01157915     0.03417830    -0.00695400
20MABNDL000077_PR024
Spot 1    -0.01335249     0.03547540    -0.00695400
Spot 2    -0.01345216     0.03548642    -0.00695400
Spot 1    -0.01335268     0.03547540    -0.00695400
Spot 2    -0.01345175     0.03548626    -0.00695400
20MABNDM000020_PR013
Spot 1    -0.01394554    -0.03407018    -0.00523500
Spot 2    -0.01394554    -0.03407018    -0.00523500
Spot 1    -0.01394554    -0.03407018    -0.00523500
Spot 2    -0.01394554    -0.03407018    -0.00523500
20MABNDM000020_PR014
Spot 1    -0.01169550    -0.03562064    -0.00523500
Spot 2    -0.01185771    -0.03562763    -0.00523500
Spot 1    -0.01169501    -0.03562083    -0.00523500
Spot 2    -0.01185696    -0.03562836    -0.00523500
20MABNDM000020_20MABNDL000196
Spot 1     0.01270949    -0.03514856    -0.07583800
Spot 2     0.01238113    -0.03407361    -0.07583800
Spot 1     0.01270945    -0.03514844    -0.07583800
Spot 2     0.01238113    -0.03407361    -0.07583800
20MABNDM000020_PR035
Spot 1     0.01342204    -0.03545989    -0.07583800
Spot 2     0.01349885    -0.03549556    -0.07583800
Spot 1     0.01342189    -0.03546013    -0.07583800
Spot 2     0.01349900    -0.03549589    -0.07583800
20MABNDM000168_PR025
Spot 1    -0.01363896    -0.03581312    -0.00532900
Spot 2    -0.01379710    -0.03581893    -0.00532900
20MABNDM000168_PR026
Spot 1    -0.01173387    -0.03575547    -0.00532900
Spot 2    -0.01189607    -0.03575258    -0.00532900
20MABNDM000168_20MABNDL000077
Spot 1     0.01288364    -0.03529840    -0.07445100
Spot 2     0.01266860    -0.03529697    -0.07445100
20MABNDM000168_PR001
Spot 1     0.01361111    -0.03562882    -0.07445100
Spot 2     0.01371377    -0.03563201    -0.07445100
20MABNDL000196_PR036
Spot 1     0.01192479     0.03583823    -0.07483600
Spot 2     0.01209008     0.03583761    -0.07483600
20MABNDL000196_PR037
Spot 1     0.01381347     0.03566087    -0.07483600
Spot 2     0.01397282     0.03566400    -0.07483600
20MABNDL000196_20MABNDM000020
Spot 1    -0.01274850     0.03531022    -0.00611000
Spot 2    -0.01252766     0.03532074    -0.00611000
20MABNDL000196_PR012
Spot 1    -0.01408054     0.03437924    -0.00611000
Spot 2    -0.01355371     0.03564005    -0.00611000
20MABNDA000134_PR004
Spot 1    -0.01287870     0.01241179    -0.07608400
Spot 2    -0.01265973     0.01241319    -0.07608400
20MABNDA000334_PR005
Spot 1    -0.01312638     0.01254990    -0.07324100
Spot 2    -0.01284631     0.01254953    -0.07324100
20MABNDB000317_PR015
Spot 1    -0.01247135    -0.01241856    -0.07326100
Spot 2    -0.01269253    -0.01241592    -0.07326100
20MABNDB000146_PR016
Spot 1    -0.01276220    -0.01247937    -0.07450500
Spot 2    -0.01248640    -0.01247686    -0.07450500
20MABNDB000135_PR027
Spot 1    -0.01252053    -0.01322100    -0.07464700
Spot 2    -0.01230125    -0.01322023    -0.07464700
20MABNDB000126_PR028
Spot 1    -0.01224692    -0.01219924    -0.07500400
Spot 2    -0.01416978    -0.01419193    -0.07500400
20MABNDA000272_PR038
Spot 1    -0.01275900     0.01315995    -0.07417900
Spot 2    -0.01253658     0.01316014    -0.07417900
20MABNDA000003_PR039
Spot 1    -0.01281627     0.01212121    -0.07373400
Spot 2    -0.01309528     0.01212131    -0.07373400
20MABNDA000196_PR006
Spot 1    -0.01234148     0.01329892    -0.07967100
Spot 2    -0.01270750     0.01330146    -0.07967100
20MABNDA000324_PR007
Spot 1    -0.01260199     0.01267951    -0.07446800
Spot 2    -0.01280843     0.01268360    -0.07446800
20MABNDB000001_PR017
Spot 1    -0.01232575    -0.01310317    -0.07418400
Spot 2    -0.01195590    -0.01310250    -0.07418400
20MABNDB000260_PR019
Spot 1    -0.01226308    -0.01244115    -0.07492700
Spot 2    -0.01430111    -0.01394266    -0.07492700
20MABNDB000212_PR029
Spot 1    -0.01188118    -0.01328942    -0.07390500
Spot 2    -0.01224392    -0.01328780    -0.07390500
20MABNDB000128_PR030
Spot 1    -0.01166789    -0.01259805    -0.07353400
Spot 2    -0.01186598    -0.01259625    -0.07353400
20MABNDA000444_PR040
Spot 1    -0.01273091     0.01332048    -0.07412000
Spot 2    -0.01344779     0.01232233    -0.07412000
20MABNDA000053_PR041
Spot 1    -0.01198178     0.01265812    -0.07430100
Spot 2    -0.01218675     0.01266159    -0.07430100
20MABNDA000188_PR008
Spot 1    -0.01399107     0.01394961    -0.07502000
Spot 2    -0.01399107     0.01394961    -0.07502000
20MABNDA000188_PR018
Spot 1    -0.01273829     0.01238031    -0.07502000
Spot 2    -0.01227054     0.01237919    -0.07502000
20MABNDA000039_PR009
Spot 1    -0.01162764     0.01306520    -0.07444800
Spot 2    -0.01157729     0.01306089    -0.07444800
20MABNDA000039_PR011
Spot 1    -0.01372876     0.01397165    -0.07444800
Spot 2    -0.01355161     0.01397607    -0.07444800
20MABNDB000155_PR020
Spot 1    -0.01364670    -0.01313219    -0.07501700
Spot 2    -0.01357762    -0.01313669    -0.07501700
20MABNDB000155_PR022
Spot 1    -0.01215197    -0.01282435    -0.07501700
Spot 2    -0.01167879    -0.01282220    -0.07501700
20MABNDB000010_PR021
Spot 1    -0.01158429    -0.01292742    -0.07358200
Spot 2    -0.01152611    -0.01292304    -0.07358200
20MABNDB000010_PR023
Spot 1    -0.01312396    -0.01380378    -0.07358200
Spot 2    -0.01294777    -0.01380242    -0.07358200
20MABNDB000069_PR031
Spot 1    -0.01361993    -0.01186066    -0.07388500
Spot 2    -0.01361993    -0.01186066    -0.07388500
20MABNDB000069_PR033
Spot 1    -0.01201926    -0.01226487    -0.07388500
Spot 2    -0.01154807    -0.01226378    -0.07388500
20MABNDB000131_PR032
Spot 1    -0.01144325    -0.01303402    -0.07533000
Spot 2    -0.01138251    -0.01303060    -0.07533000
20MABNDB000131_PR034
Spot 1    -0.01329544    -0.01379946    -0.07533000
Spot 2    -0.01311908    -0.01379913    -0.07533000
20MABNDA000208_PR042
Spot 1    -0.01371645     0.01388121    -0.07273700
Spot 2    -0.01371645     0.01388121    -0.07273700
20MABNDA000208_PR046
Spot 1    -0.01230916     0.01177499    -0.07273700
Spot 2    -0.01183862     0.01177300    -0.07273700
20MABNDA000035_PR044
Spot 1    -0.01157883     0.01299919    -0.07483200
Spot 2    -0.01151825     0.01300392    -0.07483200
20MABNDA000035_PR045
Spot 1    -0.01337651     0.01380287    -0.07483200
Spot 2    -0.01319887     0.01380283    -0.07483200


*****************************************************************coordonnees du prisme dans le repere MOUNT********************************************************************************** 
20MABNDL000077_PR002
    0.07240391     0.05736729     3.70657873
    0.07109624     0.04972310     3.70663595
20MABNDL000077_PR003
    0.01108603     0.08711259     3.89571905
   -0.02168997     0.08015837     3.89565229
20MABNDL000077_20MABNDM000168
   -0.05600781     0.07586998    -5.46843529
   -0.05603117     0.07585891    -5.46843529
20MABNDL000077_PR024
    0.04323521     0.01905966    -5.89642811
    0.04322658     0.01906542    -5.89642859
20MABNDM000020_PR013
    0.05274186    -0.08860095    -3.80153990
    0.05274186    -0.08860095    -3.80153990
20MABNDM000020_PR014
   -0.06560411    -0.00529169    -4.74841166
   -0.06564270    -0.00526299    -4.74841070
20MABNDM000020_20MABNDL000196
    0.02684450    -0.07117537     5.39469719
    0.02684593    -0.07117966     5.39469719
20MABNDM000020_PR035
   -0.04260657    -0.00705355     5.80095482
   -0.04260657    -0.00703160     5.80095387
20MABNDM000168_PR025
    0.03848392    -0.01221250    -3.78836775
20MABNDM000168_PR026
   -0.05788298    -0.01418080    -3.98429108
20MABNDM000168_20MABNDL000077
    0.01152976    -0.03903343     5.38884640
20MABNDM000168_PR001
   -0.05728090    -0.01347282     5.81470680
20MABNDL000196_PR036
    0.05140509     0.00546417     3.68776751
20MABNDL000196_PR037
   -0.04404698     0.01291941     3.88352108
20MABNDL000196_20MABNDM000020
   -0.01579049     0.03804109    -5.47473860
20MABNDL000196_PR012
    0.07559607     0.06197234    -5.91504860
20MABNDA000134_PR004
   -0.00831783     0.03811651     2.74966145
20MABNDA000334_PR005
   -0.00397765     0.03147139     2.14977264
20MABNDB000317_PR015
   -0.01645353    -0.03700640     2.75126696
20MABNDB000146_PR016
   -0.01348512    -0.03126213     2.15201735
20MABNDB000135_PR027
   -0.02077164    -0.00899953     2.74937057
20MABNDB000126_PR028
    0.00288539    -0.00976837     2.14690590
20MABNDA000272_PR038
   -0.01323697     0.01081695     2.74965858
20MABNDA000003_PR039
   -0.00551010     0.04137585     2.14891243
20MABNDA000196_PR006
   -0.01549855     0.00878762     1.64206028
20MABNDA000324_PR007
   -0.01523994     0.03280465     2.95548868
20MABNDB000001_PR017
   -0.02362282    -0.01257375     1.64039493
20MABNDB000260_PR019
    0.01403770    -0.00707660     2.95627952
20MABNDB000212_PR029
   -0.02478500    -0.00824002     1.64224195
20MABNDB000128_PR030
   -0.04230461    -0.03191627     2.95495367
20MABNDA000444_PR040
   -0.00349738     0.01960385     1.64500952
20MABNDA000053_PR041
   -0.03534024     0.02983626     2.95464659
20MABNDA000188_PR008
    0.14616936    -0.09611703     9.20304298
20MABNDA000188_PR018
   -0.01599078     0.02474027     1.28359342
20MABNDA000039_PR009
   -0.17115313     0.02543027    11.00701618
20MABNDA000039_PR011
    0.03085394    -0.02456900     3.43346930
20MABNDB000155_PR020
    0.10192867    -0.00828241     9.20028496
20MABNDB000155_PR022
   -0.02569810    -0.01776858     1.28070652
20MABNDB000010_PR021
   -0.17611457    -0.03348782    11.00694752
20MABNDB000010_PR023
    0.00426786     0.02081098     3.43376637
20MABNDB000069_PR031
    0.10999375    -0.16176865     9.20229721
20MABNDB000069_PR033
   -0.02694448    -0.02691477     1.28393948
20MABNDB000131_PR032
   -0.18799528    -0.03021277    11.00641918
20MABNDB000131_PR034
    0.01446986     0.01648192     3.43337750
20MABNDA000208_PR042
    0.11037338    -0.08822197     9.20121384
20MABNDA000208_PR046
   -0.02361759     0.03498095     1.28207445
20MABNDA000035_PR044
   -0.17936985     0.02692112    11.00803185
20MABNDA000035_PR045
    0.01468723    -0.01915684     3.43483448


*****************************************************************coordonnees du prisme dans le repere ATLAS********************************************************************************** 
20MABNDL000077_PR002 0.00000000
    2.79968047    -3.67210126     6.48592234
    2.80732441    -3.67341137     6.48597050
20MABNDL000077_PR003 0.00000000
    2.77010131    -3.73364305     6.67501593
    2.77704501    -3.76642108     6.67490196
20MABNDL000077_20MABNDM000168 0.00000000
    2.77213740    -3.78918695    -2.68922043
    2.77214837    -3.78921032    -2.68922043
20MABNDL000077_PR024 0.00000000
    2.82855964    -3.68943405    -3.11714602
    2.82855368    -3.68944263    -3.11714649
20MABNDM000020_PR013 0.00000000
   -2.76372600    -3.79224682     6.48532534
   -2.76372600    -3.79224682     6.48532534
20MABNDM000020_PR014 0.00000000
   -2.84680939    -3.67459536     7.43230343
   -2.84683800    -3.67455673     7.43230295
20MABNDM000020_20MABNDL000196 0.00000000
   -2.78298378    -3.75935006    -2.71088576
   -2.78297973    -3.75935149    -2.71088576
20MABNDM000020_PR035 0.00000000
   -2.84716582    -3.68957043    -3.11707759
   -2.84718776    -3.68957043    -3.11707664
20MABNDM000168_PR025 0.00000000
    2.84101892    -3.78381538    -6.47897959
20MABNDM000168_PR026 0.00000000
    2.83906412    -3.68752074    -6.67493868
20MABNDM000168_20MABNDL000077 0.00000000
    2.81476212    -3.75344181     2.69822574
20MABNDM000168_PR001 0.00000000
    2.84036684    -3.68447948     3.12405896
20MABNDL000196_PR036 0.00000000
   -2.84814334    -3.69286966    -6.47909117
20MABNDL000196_PR037 0.00000000
   -2.84064794    -3.78850031    -6.67475605
20MABNDL000196_20MABNDM000020 0.00000000
   -2.81533718    -3.75152707     2.68347311
20MABNDL000196_PR012 0.00000000
   -2.79143906    -3.65971994     3.12369728
20MABNDA000134_PR004 0.00000000
    2.61468554    -4.19698954     3.83388209
20MABNDA000334_PR005 0.00000000
    2.61702085    -4.19703007     5.89778948
20MABNDB000317_PR015 0.00000000
   -2.61215377    -4.19699240     3.83300900
20MABNDB000146_PR016 0.00000000
   -2.61281013    -4.19702053     5.89908791
20MABNDB000135_PR027 0.00000000
    2.60409188    -4.19700480    -3.82636118
20MABNDB000126_PR028 0.00000000
    2.62878799    -4.19704485    -5.92246342
20MABNDA000272_PR038 0.00000000
   -2.61129999    -4.19698286    -3.82766747
20MABNDA000003_PR039 0.00000000
   -2.61622095    -4.19702339    -5.89139080
20MABNDA000196_PR006 0.00000000
    2.58995914    -4.19496870     6.54674482
20MABNDA000324_PR007 0.00000000
    2.60407543    -4.13996267     6.94311142
20MABNDB000001_PR017 0.00000000
   -2.59732747    -4.19499016     6.54790163
20MABNDB000260_PR019 0.00000000
   -2.64281011    -4.14002609     6.97355413
20MABNDB000212_PR029 0.00000000
    2.59846282    -4.19500685    -6.54722786
20MABNDB000128_PR030 0.00000000
    2.58655715    -4.14004183    -6.94620943
20MABNDA000444_PR040 0.00000000
   -2.57867193    -4.19500160    -6.55878687
20MABNDA000053_PR041 0.00000000
   -2.58519959    -4.14003944    -6.94807673
20MABNDA000188_PR008 0.00000000
    3.55893064     3.84859109     8.10764503
20MABNDA000188_PR018 0.00000000
    3.52112985    -4.07059431     7.89871120
20MABNDA000039_PR009 0.00000000
    3.87532520     3.64747429    12.93672466
20MABNDA000039_PR011 0.00000000
    3.66417027    -3.92580652    12.88426781
20MABNDB000155_PR020 0.00000000
   -3.68058133     3.84881854     7.89858484
20MABNDB000155_PR022 0.00000000
   -3.53428245    -4.07043839     7.89029074
20MABNDB000010_PR021 0.00000000
   -3.86195207     3.64768481    12.93531704
20MABNDB000010_PR023 0.00000000
   -3.68539906    -3.92561054    12.88446522
20MABNDB000069_PR031 0.00000000
    3.69177032     3.84800911    -7.77863359
20MABNDB000069_PR033 0.00000000
    3.53335500    -4.07046318    -7.87875652
20MABNDB000131_PR032 0.00000000
    3.86879754     3.64756918   -12.94085598
20MABNDB000131_PR034 0.00000000
    3.67331958    -3.92563915   -12.89146519
20MABNDA000208_PR042 0.00000000
   -3.66039658     3.84884048    -7.99969625
20MABNDA000208_PR046 0.00000000
   -3.53214812    -4.07034779    -7.87353706
20MABNDA000035_PR044 0.00000000
   -3.86861086     3.64758706   -12.93260002
20MABNDA000035_PR045 0.00000000
   -3.67604113    -3.92565274   -12.88722801


*****************************************************************Rapport********************************************************************************** 
CAM-LBA-US_EBA-US-HO-H         2023.09.04.14.28.36     2.80350244    -3.67275631     6.48594642     0.00382197     0.00065506     0.00002408 0.00000000 VRAI 
CAM-LBA-US_JDA-US-H            2023.09.04.14.28.36     2.77357316    -3.75003207     6.67495894     0.00347185     0.01638901     0.00005698 0.00000000 VRAI 
CAM-LBA-US_CAM-LBC-US          2023.09.04.14.28.36     2.77214289    -3.78919864    -2.68922043     0.00000548     0.00001168     0.00000000 0.00000000 VRAI 
CAM-LBA-US_EBC-US-IP-H         2023.09.04.14.28.36     2.82855666    -3.68943834    -3.11714625     0.00000298     0.00000429     0.00000024 0.00000000 VRAI 
CAM-LBA-USA_EBA-USA-HO-H       2023.09.04.14.28.36    -2.76372600    -3.79224682     6.48532534     0.00000000     0.00000000     0.00000000 0.00000000 VRAI 
CAM-LBA-USA_JDA-USA-H          2023.09.04.14.28.36    -2.84682369    -3.67457604     7.43230319     0.00001431     0.00001931     0.00000024 0.00000000 VRAI 
CAM-LBA-USA_CAM-LBC-USA        2023.09.04.14.28.36    -2.78298175    -3.75935078    -2.71088576     0.00000203     0.00000072     0.00000000 0.00000000 VRAI 
CAM-LBA-USA_EBC-USA-IP-H       2023.09.04.14.28.36    -2.84717679    -3.68957043    -3.11707711     0.00001097     0.00000000     0.00000048 0.00000000 VRAI 
CAM-LBC-US_EBC-US-HO-H         2023.09.04.14.28.36     2.84101892    -3.78381538    -6.47897959     0.00000000     0.00000000     0.00000000 0.00000000 VRAI 
CAM-LBC-US_JDC-US-H            2023.09.04.14.28.36     2.83906412    -3.68752074    -6.67493868     0.00000000     0.00000000     0.00000000 0.00000000 VRAI 
CAM-LBC-US_CAM-LBA-US          2023.09.04.14.28.36     2.81476212    -3.75344181     2.69822574     0.00000000     0.00000000     0.00000000 0.00000000 VRAI 
CAM-LBC-US_EBA-US-IP-H         2023.09.04.14.28.36     2.84036684    -3.68447948     3.12405896     0.00000000     0.00000000     0.00000000 0.00000000 VRAI 
CAM-LBC-USA_EBC-USA-HO-H       2023.09.04.14.28.36    -2.84814334    -3.69286966    -6.47909117     0.00000000     0.00000000     0.00000000 0.00000000 VRAI 
CAM-LBC-USA_JDC-USA-H          2023.09.04.14.28.36    -2.84064794    -3.78850031    -6.67475605     0.00000000     0.00000000     0.00000000 0.00000000 VRAI 
CAM-LBC-USA_CAM-LBA-USA        2023.09.04.14.28.36    -2.81533718    -3.75152707     2.68347311     0.00000000     0.00000000     0.00000000 0.00000000 VRAI 
CAM-LBC-USA_EBA-USA-IP-H       2023.09.04.14.28.36    -2.79143906    -3.65971994     3.12369728     0.00000000     0.00000000     0.00000000 0.00000000 VRAI 
CAM-EBA-US-IP_EBA-US-IP        2023.09.04.14.28.36     2.61468554    -4.19698954     3.83388209     0.00000000     0.00000000     0.00000000 0.00000000 VRAI 
CAM-EBA-US-HO_EBA-US-HO        2023.09.04.14.28.36     2.61702085    -4.19703007     5.89778948     0.00000000     0.00000000     0.00000000 0.00000000 VRAI 
CAM-EBA-USA-IP_EBA-USA-IP      2023.09.04.14.28.36    -2.61215377    -4.19699240     3.83300900     0.00000000     0.00000000     0.00000000 0.00000000 VRAI 
CAM-EBA-USA-HO_EBA-USA-HO      2023.09.04.14.28.36    -2.61281013    -4.19702053     5.89908791     0.00000000     0.00000000     0.00000000 0.00000000 VRAI 
CAM-EBC-US-IP_EBC-US-IP        2023.09.04.14.28.36     2.60409188    -4.19700480    -3.82636118     0.00000000     0.00000000     0.00000000 0.00000000 VRAI 
CAM-EBC-US-HO_EBC-US-HO        2023.09.04.14.28.36     2.62878799    -4.19704485    -5.92246342     0.00000000     0.00000000     0.00000000 0.00000000 VRAI 
CAM-EBC-USA-IP_EBC-USA-IP      2023.09.04.14.28.36    -2.61129999    -4.19698286    -3.82766747     0.00000000     0.00000000     0.00000000 0.00000000 VRAI 
CAM-EBC-USA-HO_EBC-USA-HO      2023.09.04.14.28.36    -2.61622095    -4.19702339    -5.89139080     0.00000000     0.00000000     0.00000000 0.00000000 VRAI 
CAM-JDA-US-IP_JDA-US-IP        2023.09.04.14.28.36     2.58995914    -4.19496870     6.54674482     0.00000000     0.00000000     0.00000000 0.00000000 VRAI 
CAM-JDA-US-HO_JDA-US-HO        2023.09.04.14.28.36     2.60407543    -4.13996267     6.94311142     0.00000000     0.00000000     0.00000000 0.00000000 VRAI 
CAM-JDA-USA-IP_JDA-USA-IP      2023.09.04.14.28.36    -2.59732747    -4.19499016     6.54790163     0.00000000     0.00000000     0.00000000 0.00000000 VRAI 
CAM-JDA-USA-HO_JDA-USA-HO      2023.09.04.14.28.36    -2.64281011    -4.14002609     6.97355413     0.00000000     0.00000000     0.00000000 0.00000000 VRAI 
CAM-JDC-US-IP_JDC-US-IP        2023.09.04.14.28.36     2.59846282    -4.19500685    -6.54722786     0.00000000     0.00000000     0.00000000 0.00000000 VRAI 
CAM-JDC-US-HO_JDC-US-HO        2023.09.04.14.28.36     2.58655715    -4.14004183    -6.94620943     0.00000000     0.00000000     0.00000000 0.00000000 VRAI 
CAM-JDC-USA-IP_JDC-USA-IP      2023.09.04.14.28.36    -2.57867193    -4.19500160    -6.55878687     0.00000000     0.00000000     0.00000000 0.00000000 VRAI 
CAM-JDC-USA-HO_JDC-USA-HO      2023.09.04.14.28.36    -2.58519959    -4.14003944    -6.94807673     0.00000000     0.00000000     0.00000000 0.00000000 VRAI 
CAM-ECTA-US-IP_ECTA-US-IP-T    2023.09.04.14.28.36     3.55893064     3.84859109     8.10764503     0.00000000     0.00000000     0.00000000 0.00000000 VRAI 
CAM-ECTA-US-IP_ECTA-US-IP      2023.09.04.14.28.36     3.52112985    -4.07059431     7.89871120     0.00000000     0.00000000     0.00000000 0.00000000 VRAI 
CAM-ECTA-US-HO_ECTA-US-HO-T    2023.09.04.14.28.36     3.87532520     3.64747429    12.93672466     0.00000000     0.00000000     0.00000000 0.00000000 VRAI 
CAM-ECTA-US-HO_ECTA-US-HO      2023.09.04.14.28.36     3.66417027    -3.92580652    12.88426781     0.00000000     0.00000000     0.00000000 0.00000000 VRAI 
CAM-ECTA-USA-IP_ECTA-USA-IP-T  2023.09.04.14.28.36    -3.68058133     3.84881854     7.89858484     0.00000000     0.00000000     0.00000000 0.00000000 VRAI 
CAM-ECTA-USA-IP_ECTA-USA-IP    2023.09.04.14.28.36    -3.53428245    -4.07043839     7.89029074     0.00000000     0.00000000     0.00000000 0.00000000 VRAI 
CAM-ECTA-USA-HO_ECTA-USA-HO-T  2023.09.04.14.28.36    -3.86195207     3.64768481    12.93531704     0.00000000     0.00000000     0.00000000 0.00000000 VRAI 
CAM-ECTA-USA-HO_ECTA-USA-HO    2023.09.04.14.28.36    -3.68539906    -3.92561054    12.88446522     0.00000000     0.00000000     0.00000000 0.00000000 VRAI 
CAM-ECTC-US-IP_ECTC-US-IP-T    2023.09.04.14.28.36     3.69177032     3.84800911    -7.77863359     0.00000000     0.00000000     0.00000000 0.00000000 VRAI 
CAM-ECTC-US-IP_ECTC-US-IP      2023.09.04.14.28.36     3.53335500    -4.07046318    -7.87875652     0.00000000     0.00000000     0.00000000 0.00000000 VRAI 
CAM-ECTC-US-HO_ECTC-US-HO-T    2023.09.04.14.28.36     3.86879754     3.64756918   -12.94085598     0.00000000     0.00000000     0.00000000 0.00000000 VRAI 
CAM-ECTC-US-HO_ECTC-US-HO      2023.09.04.14.28.36     3.67331958    -3.92563915   -12.89146519     0.00000000     0.00000000     0.00000000 0.00000000 VRAI 
CAM-ECTC-USA-IP_ECTC-USA-IP-T  2023.09.04.14.28.36    -3.66039658     3.84884048    -7.99969625     0.00000000     0.00000000     0.00000000 0.00000000 VRAI 
CAM-ECTC-USA-IP_ECTC-USA-IP    2023.09.04.14.28.36    -3.53214812    -4.07034779    -7.87353706     0.00000000     0.00000000     0.00000000 0.00000000 VRAI 
CAM-ECTC-USA-HO_ECTC-USA-HO-T  2023.09.04.14.28.36    -3.86861086     3.64758706   -12.93260002     0.00000000     0.00000000     0.00000000 0.00000000 VRAI 
CAM-ECTC-USA-HO_ECTC-USA-HO    2023.09.04.14.28.36    -3.67604113    -3.92565274   -12.88722801     0.00000000     0.00000000     0.00000000 0.00000000 VRAI 
