********** Fichier qui contient une sauvegarde des coordonnees images + coordonnees images transformees dans le repere BCAM (MOUNT) + coordonnees des prismes dans le repere MOUNT********** 
********************************************************************** Unite en metres (m)************************************************************************************************** 

*******************************************************************coordonnees images dans le repere CCD *********************************************************************************** 
20MABNDL000077_PR002
Spot 1     0.00052500     0.00043500
Spot 2     0.00052500     0.00043500
Spot 1     0.00052500     0.00043500
Spot 2     0.00052500     0.00043500
20MABNDL000077_PR003
Spot 1     0.00166500     0.00022500
Spot 2     0.00166500     0.00022500
Spot 1     0.00166500     0.00022500
Spot 2     0.00166500     0.00022500
20MABNDL000077_20MABNDM000168
Spot 1     0.00175615     0.00118249
Spot 2     0.00156833     0.00122333
Spot 1     0.00175608     0.00118244
Spot 2     0.00156865     0.00122385
20MABNDL000077_PR024
Spot 1     0.00251544     0.00142044
Spot 2     0.00261394     0.00143140
Spot 1     0.00251621     0.00142063
Spot 2     0.00261382     0.00143155
20MABNDM000020_PR013
Spot 1     0.00044500     0.00008500
Spot 2     0.00044500     0.00008500
Spot 1     0.00044500     0.00008500
Spot 2     0.00044500     0.00008500
20MABNDM000020_PR014
Spot 1     0.00266004     0.00168466
Spot 2     0.00249790     0.00168768
Spot 1     0.00265854     0.00168489
Spot 2     0.00249803     0.00168780
20MABNDM000020_20MABNDL000196
Spot 1     0.00197572     0.00117987
Spot 2     0.00230500     0.00010500
Spot 1     0.00197551     0.00117988
Spot 2     0.00026500     0.00017500
20MABNDM000020_PR035
Spot 1     0.00126260     0.00149142
Spot 2     0.00118655     0.00152751
Spot 1     0.00126268     0.00149132
Spot 2     0.00118606     0.00152758
20MABNDM000168_PR025
Spot 1     0.00076309     0.00147466
Spot 2     0.00060496     0.00147970
Spot 1     0.00076255     0.00147446
Spot 2     0.00060469     0.00147929
20MABNDM000168_PR026
Spot 1     0.00266768     0.00142465
Spot 2     0.00250628     0.00142115
Spot 1     0.00266782     0.00142439
Spot 2     0.00250622     0.00142073
20MABNDM000168_20MABNDL000077
Spot 1     0.00154206     0.00129791
Spot 2     0.00175647     0.00129950
20MABNDM000168_PR001
Spot 1     0.00080939     0.00161760
Spot 2     0.00070708     0.00161949
20MABNDL000196_PR036
Spot 1     0.00094487     0.00165006
Spot 2     0.00110952     0.00164947
20MABNDL000196_PR037
Spot 1     0.00283361     0.00146908
Spot 2     0.00299276     0.00147173
20MABNDL000196_20MABNDM000020
Spot 1     0.00192541     0.00103917
Spot 2     0.00170450     0.00104467
20MABNDL000196_PR012
Spot 1     0.00327500     0.00013500
Spot 2     0.00272323     0.00138457
20MABNDA000134_PR004
Spot 1     0.00190759     0.00176102
Spot 2     0.00168896     0.00175446
20MABNDA000334_PR005
Spot 1     0.00248291     0.00157822
Spot 2     0.00220303     0.00157881
20MABNDB000317_PR015
Spot 1     0.00168384     0.00167652
Spot 2     0.00146265     0.00168324
20MABNDB000146_PR016
Spot 1     0.00144642     0.00131358
Spot 2     0.00172264     0.00131635
20MABNDB000135_PR027
Spot 1     0.00188471     0.00089204
Spot 2     0.00210354     0.00089500
20MABNDB000126_PR028
Spot 1     0.00193203     0.00198141
Spot 2    -0.00000100    -0.00000100
20MABNDA000272_PR038
Spot 1     0.00192311     0.00095142
Spot 2     0.00170119     0.00095119
20MABNDA000003_PR039
Spot 1     0.00201502     0.00193081
Spot 2     0.00229365     0.00193143
20MABNDA000196_PR006
Spot 1     0.00138785     0.00067169
Spot 2     0.00175382     0.00067416
20MABNDA000324_PR007
Spot 1     0.00199720     0.00134156
Spot 2     0.00220342     0.00133518
20MABNDB000001_PR017
Spot 1     0.00185743     0.00088631
Spot 2     0.00222726     0.00089094
20MABNDB000260_PR019
Spot 1     0.00206725     0.00145837
Spot 2     0.00227167     0.00145500
20MABNDB000212_PR029
Spot 1     0.00220728     0.00069127
Spot 2     0.00184456     0.00068912
20MABNDB000128_PR030
Spot 1     0.00268586     0.00161672
Spot 2     0.00248765     0.00161934
20MABNDA000444_PR040
Spot 1     0.00179557     0.00069607
Spot 2     0.00066500     0.00156500
20MABNDA000053_PR041
Spot 1     0.00123570     0.00144404
Spot 2     0.00144065     0.00144477
20MABNDA000188_PR008
Spot 1     0.00297500     0.00011500
Spot 2     0.00289500     0.00025500
20MABNDA000188_PR018
Spot 1     0.00170955     0.00167374
Spot 2     0.00124264     0.00167128
20MABNDA000039_PR009
Spot 1     0.00066504     0.00117845
Spot 2     0.00061481     0.00118233
20MABNDA000039_PR011
Spot 1     0.00276962     0.00028105
Spot 2     0.00259335     0.00027559
20MABNDB000155_PR020
Spot 1     0.00061930     0.00112489
Spot 2     0.00068925     0.00112035
20MABNDB000155_PR022
Spot 1     0.00211926     0.00141298
Spot 2     0.00259253     0.00140823
20MABNDB000010_PR021
Spot 1     0.00286654     0.00115094
Spot 2     0.00292440     0.00115438
20MABNDB000010_PR023
Spot 1     0.00131191     0.00030084
Spot 2     0.00148803     0.00029940
20MABNDB000069_PR031
Spot 1     0.00021500     0.00240500
Spot 2     0.00021500     0.00240500
20MABNDB000069_PR033
Spot 1     0.00183071     0.00206753
Spot 2     0.00230127     0.00208720
20MABNDB000131_PR032
Spot 1     0.00277700     0.00108100
Spot 2     0.00283756     0.00108358
20MABNDB000131_PR034
Spot 1     0.00092096     0.00032469
Spot 2     0.00109705     0.00032430
20MABNDA000208_PR042
Spot 1     0.00284500     0.00011500
Spot 2     0.00284500     0.00011500
20MABNDA000208_PR046
Spot 1     0.00143953     0.00222145
Spot 2     0.00096928     0.00222454
20MABNDA000035_PR044
Spot 1     0.00074405     0.00125802
Spot 2     0.00068393     0.00125307
20MABNDA000035_PR045
Spot 1     0.00254779     0.00046713
Spot 2     0.00237023     0.00046585


****************************************************************coordonnees images transformees dans le repere MOUNT************************************************************************* 
20MABNDL000077_PR002
Spot 1     0.01158509     0.03451311    -0.07463200
Spot 2     0.01158509     0.03451311    -0.07463200
Spot 1     0.01158509     0.03451311    -0.07463200
Spot 2     0.01158509     0.03451311    -0.07463200
20MABNDL000077_PR003
Spot 1     0.01272301     0.03429215    -0.07463200
Spot 2     0.01272301     0.03429215    -0.07463200
Spot 1     0.01272301     0.03429215    -0.07463200
Spot 2     0.01272301     0.03429215    -0.07463200
20MABNDL000077_20MABNDM000168
Spot 1    -0.01259128     0.03524549    -0.00695400
Spot 2    -0.01240388     0.03528825    -0.00695400
Spot 1    -0.01259121     0.03524544    -0.00695400
Spot 2    -0.01240421     0.03528876    -0.00695400
20MABNDL000077_PR024
Spot 1    -0.01335296     0.03547565    -0.00695400
Spot 2    -0.01345157     0.03548560    -0.00695400
Spot 1    -0.01335373     0.03547583    -0.00695400
Spot 2    -0.01345145     0.03548575    -0.00695400
20MABNDM000020_PR013
Spot 1    -0.01394554    -0.03407018    -0.00523500
Spot 2    -0.01394554    -0.03407018    -0.00523500
Spot 1    -0.01394554    -0.03407018    -0.00523500
Spot 2    -0.01394554    -0.03407018    -0.00523500
20MABNDM000020_PR014
Spot 1    -0.01169567    -0.03562046    -0.00523500
Spot 2    -0.01185770    -0.03562707    -0.00523500
Spot 1    -0.01169716    -0.03562073    -0.00523500
Spot 2    -0.01185757    -0.03562718    -0.00523500
20MABNDM000020_20MABNDL000196
Spot 1     0.01271056    -0.03514843    -0.07583800
Spot 2     0.01238113    -0.03407361    -0.07583800
Spot 1     0.01271077    -0.03514844    -0.07583800
Spot 2     0.01442114    -0.03414333    -0.07583800
20MABNDM000020_PR035
Spot 1     0.01342372    -0.03545988    -0.07583800
Spot 2     0.01349978    -0.03549596    -0.07583800
Spot 1     0.01342364    -0.03545978    -0.07583800
Spot 2     0.01350027    -0.03549603    -0.07583800
20MABNDM000168_PR025
Spot 1    -0.01363903    -0.03581362    -0.00532900
Spot 2    -0.01379714    -0.03581934    -0.00532900
Spot 1    -0.01363957    -0.03581342    -0.00532900
Spot 2    -0.01379741    -0.03581893    -0.00532900
20MABNDM000168_PR026
Spot 1    -0.01173467    -0.03575543    -0.00532900
Spot 2    -0.01189609    -0.03575262    -0.00532900
Spot 1    -0.01173454    -0.03575517    -0.00532900
Spot 2    -0.01189615    -0.03575220    -0.00532900
20MABNDM000168_20MABNDL000077
Spot 1     0.01288343    -0.03529853    -0.07445100
Spot 2     0.01266902    -0.03529699    -0.07445100
20MABNDM000168_PR001
Spot 1     0.01361135    -0.03562891    -0.07445100
Spot 2     0.01371362    -0.03563230    -0.07445100
20MABNDL000196_PR036
Spot 1     0.01192477     0.03583875    -0.07483600
Spot 2     0.01208942     0.03583851    -0.07483600
20MABNDL000196_PR037
Spot 1     0.01381389     0.03566171    -0.07483600
Spot 2     0.01397303     0.03566470    -0.07483600
20MABNDL000196_20MABNDM000020
Spot 1    -0.01274941     0.03531038    -0.00611000
Spot 2    -0.01252866     0.03532033    -0.00611000
20MABNDL000196_PR012
Spot 1    -0.01408054     0.03437924    -0.00611000
Spot 2    -0.01355402     0.03563966    -0.00611000
20MABNDA000134_PR004
Spot 1    -0.01287833     0.01241182    -0.07608400
Spot 2    -0.01265960     0.01241231    -0.07608400
20MABNDA000334_PR005
Spot 1    -0.01312601     0.01255018    -0.07324100
Spot 2    -0.01284613     0.01254933    -0.07324100
20MABNDB000317_PR015
Spot 1    -0.01247136    -0.01241925    -0.07326100
Spot 2    -0.01269261    -0.01241510    -0.07326100
20MABNDB000146_PR016
Spot 1    -0.01276190    -0.01248003    -0.07450500
Spot 2    -0.01248569    -0.01247665    -0.07450500
20MABNDB000135_PR027
Spot 1    -0.01252023    -0.01322091    -0.07464700
Spot 2    -0.01230138    -0.01322039    -0.07464700
20MABNDB000126_PR028
Spot 1    -0.01224736    -0.01219923    -0.07500400
Spot 2    -0.01416978    -0.01419193    -0.07500400
20MABNDA000272_PR038
Spot 1    -0.01275876     0.01316005    -0.07417900
Spot 2    -0.01253684     0.01315988    -0.07417900
20MABNDA000003_PR039
Spot 1    -0.01281612     0.01212149    -0.07373400
Spot 2    -0.01309475     0.01212158    -0.07373400
20MABNDA000196_PR006
Spot 1    -0.01234187     0.01329884    -0.07967100
Spot 2    -0.01270784     0.01330108    -0.07967100
20MABNDA000324_PR007
Spot 1    -0.01260190     0.01267963    -0.07446800
Spot 2    -0.01280816     0.01268440    -0.07446800
20MABNDB000001_PR017
Spot 1    -0.01232619    -0.01310293    -0.07418400
Spot 2    -0.01195633    -0.01310221    -0.07418400
20MABNDB000260_PR019
Spot 1    -0.01226321    -0.01244120    -0.07492700
Spot 2    -0.01205877    -0.01244038    -0.07492700
20MABNDB000212_PR029
Spot 1    -0.01188067    -0.01328972    -0.07390500
Spot 2    -0.01224339    -0.01328799    -0.07390500
20MABNDB000128_PR030
Spot 1    -0.01166794    -0.01259788    -0.07353400
Spot 2    -0.01186616    -0.01259594    -0.07353400
20MABNDA000444_PR040
Spot 1    -0.01273097     0.01332044    -0.07412000
Spot 2    -0.01158946     0.01246593    -0.07412000
20MABNDA000053_PR041
Spot 1    -0.01198177     0.01265817    -0.07430100
Spot 2    -0.01218670     0.01266144    -0.07430100
20MABNDA000188_PR008
Spot 1    -0.01399107     0.01394961    -0.07502000
Spot 2    -0.01391227     0.01380893    -0.07502000
20MABNDA000188_PR018
Spot 1    -0.01273901     0.01238009    -0.07502000
Spot 2    -0.01227210     0.01237855    -0.07502000
20MABNDA000039_PR009
Spot 1    -0.01162718     0.01306569    -0.07444800
Spot 2    -0.01157697     0.01306159    -0.07444800
20MABNDA000039_PR011
Spot 1    -0.01372786     0.01397219    -0.07444800
Spot 2    -0.01355157     0.01397688    -0.07444800
20MABNDB000155_PR020
Spot 1    -0.01364679    -0.01313249    -0.07501700
Spot 2    -0.01357679    -0.01313607    -0.07501700
20MABNDB000155_PR022
Spot 1    -0.01215092    -0.01282389    -0.07501700
Spot 2    -0.01167763    -0.01282216    -0.07501700
20MABNDB000010_PR021
Spot 1    -0.01158443    -0.01292761    -0.07358200
Spot 2    -0.01152664    -0.01292319    -0.07358200
20MABNDB000010_PR023
Spot 1    -0.01312444    -0.01380392    -0.07358200
Spot 2    -0.01294832    -0.01380238    -0.07358200
20MABNDB000069_PR031
Spot 1    -0.01361993    -0.01186066    -0.07388500
Spot 2    -0.01361993    -0.01186066    -0.07388500
20MABNDB000069_PR033
Spot 1    -0.01201952    -0.01226452    -0.07388500
Spot 2    -0.01154855    -0.01226429    -0.07388500
20MABNDB000131_PR032
Spot 1    -0.01144317    -0.01303375    -0.07533000
Spot 2    -0.01138262    -0.01303087    -0.07533000
20MABNDB000131_PR034
Spot 1    -0.01329537    -0.01379940    -0.07533000
Spot 2    -0.01311929    -0.01379890    -0.07533000
20MABNDA000208_PR042
Spot 1    -0.01371645     0.01388121    -0.07273700
Spot 2    -0.01371645     0.01388121    -0.07273700
20MABNDA000208_PR046
Spot 1    -0.01230914     0.01177599    -0.07273700
Spot 2    -0.01183888     0.01177331    -0.07273700
20MABNDA000035_PR044
Spot 1    -0.01157870     0.01299927    -0.07483200
Spot 2    -0.01151855     0.01300379    -0.07483200
20MABNDA000035_PR045
Spot 1    -0.01337677     0.01380297    -0.07483200
Spot 2    -0.01319921     0.01380299    -0.07483200


*****************************************************************coordonnees du prisme dans le repere MOUNT********************************************************************************** 
20MABNDL000077_PR002
    0.06737348     0.07371713     3.70652628
    0.06737348     0.07371713     3.70652628
20MABNDL000077_PR003
    0.01108603     0.08711259     3.89571905
    0.01108603     0.08711259     3.89571905
20MABNDL000077_20MABNDM000168
   -0.02622985     0.03576981    -5.46873951
   -0.02622065     0.03575293    -5.46873951
20MABNDL000077_PR024
    0.04323070     0.01908144    -5.89642859
    0.04325617     0.01906845    -5.89642811
20MABNDM000020_PR013
    0.05274186    -0.08860095    -3.80153990
    0.05274186    -0.08860095    -3.80153990
20MABNDM000020_PR014
   -0.06559923    -0.00531461    -4.74841166
   -0.06555683    -0.00530277    -4.74841213
20MABNDM000020_20MABNDL000196
    0.02680616    -0.07118003     5.39469719
   -0.04628704    -0.06868001     5.39440823
20MABNDM000020_PR035
   -0.04270712    -0.00703855     5.80095387
   -0.04272290    -0.00703971     5.80095291
20MABNDM000168_PR025
    0.03848654    -0.01218999    -3.78836775
    0.03850662    -0.01220499    -3.78836727
20MABNDM000168_PR026
   -0.05786164    -0.01418071    -3.98429132
   -0.05786365    -0.01419841    -3.98429132
20MABNDM000168_20MABNDL000077
    0.01152194    -0.03902793     5.38884640
20MABNDM000168_PR001
   -0.05728418    -0.01345804     5.81470680
20MABNDL000196_PR036
    0.05142161     0.00542934     3.68776703
20MABNDL000196_PR037
   -0.04406318     0.01287957     3.88352060
20MABNDL000196_20MABNDM000020
   -0.01572167     0.03805002    -5.47473907
20MABNDL000196_PR012
    0.07560819     0.06198736    -5.91504860
20MABNDA000134_PR004
   -0.00832709     0.03813215     2.74966145
20MABNDA000334_PR005
   -0.00398551     0.03147026     2.14977264
20MABNDB000317_PR015
   -0.01645205    -0.03700875     2.75126696
20MABNDB000146_PR016
   -0.01349965    -0.03125568     2.15201735
20MABNDB000135_PR027
   -0.02077474    -0.00899821     2.74937057
20MABNDB000126_PR028
    0.00289166    -0.00976862     2.14690590
20MABNDA000272_PR038
   -0.01323660     0.01081988     2.74965858
20MABNDA000003_PR039
   -0.00551984     0.04136801     2.14891243
20MABNDA000196_PR006
   -0.01549072     0.00879266     1.64206028
20MABNDA000324_PR007
   -0.01524688     0.03278650     2.95548868
20MABNDB000001_PR017
   -0.02361326    -0.01257953     1.64039505
20MABNDB000260_PR019
   -0.03011668    -0.03665927     2.95626044
20MABNDB000212_PR029
   -0.02479646    -0.00823464     1.64224184
20MABNDB000128_PR030
   -0.04230025    -0.03192569     2.95495367
20MABNDA000444_PR040
   -0.02385165     0.01803140     1.64500260
20MABNDA000053_PR041
   -0.03534158     0.02983825     2.95464659
20MABNDA000188_PR008
    0.14133570    -0.08748398     9.20322323
20MABNDA000188_PR018
   -0.01597129     0.02474755     1.28359330
20MABNDA000039_PR009
   -0.17121054     0.02534349    11.00701523
20MABNDA000039_PR011
    0.03083237    -0.02459970     3.43346930
20MABNDB000155_PR020
    0.10188350    -0.00830206     9.20028496
20MABNDB000155_PR022
   -0.02571701    -0.01777285     1.28070629
20MABNDB000010_PR021
   -0.17606576    -0.03346273    11.00694847
20MABNDB000010_PR023
    0.00429145     0.02081322     3.43376589
20MABNDB000069_PR031
    0.10999375    -0.16176865     9.20229721
20MABNDB000069_PR033
   -0.02693818    -0.02691341     1.28393960
20MABNDB000131_PR032
   -0.18799309    -0.03021276    11.00641918
20MABNDB000131_PR034
    0.01447286     0.01647533     3.43337750
20MABNDA000208_PR042
    0.11037338    -0.08822197     9.20121384
20MABNDA000208_PR046
   -0.02361554     0.03496977     1.28207469
20MABNDA000035_PR044
   -0.17935666     0.02692468    11.00803185
20MABNDA000035_PR045
    0.01470088    -0.01916264     3.43483448


*****************************************************************coordonnees du prisme dans le repere ATLAS********************************************************************************** 
20MABNDL000077_PR002 0.00000000
    2.78332901    -3.67712641     6.48587990
    2.78332901    -3.67712641     6.48587990
20MABNDL000077_PR003 0.00000000
    2.77010131    -3.73364305     6.67501593
    2.77010131    -3.73364305     6.67501593
20MABNDL000077_20MABNDM000168 0.00000000
    2.81224680    -3.75942135    -2.68952727
    2.81226373    -3.75941229    -2.68952727
20MABNDL000077_PR024 0.00000000
    2.82853770    -3.68943858    -3.11714649
    2.82855082    -3.68941307    -3.11714602
20MABNDM000020_PR013 0.00000000
   -2.76372600    -3.79224682     6.48532534
   -2.76372600    -3.79224682     6.48532534
20MABNDM000020_PR014 0.00000000
   -2.84678650    -3.67460036     7.43230343
   -2.84679842    -3.67464280     7.43230391
20MABNDM000020_20MABNDL000196 0.00000000
   -2.78297925    -3.75931168    -2.71088576
   -2.78545690    -3.68621802    -2.71054053
20MABNDM000020_PR035 0.00000000
   -2.84718060    -3.68946981    -3.11707640
   -2.84717965    -3.68945408    -3.11707544
20MABNDM000168_PR025 0.00000000
    2.84104133    -3.78381801    -6.47897959
    2.84102654    -3.78383803    -6.47897911
20MABNDM000168_PR026 0.00000000
    2.83906436    -3.68754220    -6.67493868
    2.83904672    -3.68754005    -6.67493868
20MABNDM000168_20MABNDL000077 0.00000000
    2.81476760    -3.75343394     2.69822574
20MABNDM000168_PR001 0.00000000
    2.84038162    -3.68447638     3.12405896
20MABNDL000196_PR036 0.00000000
   -2.84817815    -3.69285321    -6.47909069
20MABNDL000196_PR037 0.00000000
   -2.84068775    -3.78851652    -6.67475557
20MABNDL000196_20MABNDM000020 0.00000000
   -2.81532836    -3.75145817     2.68347335
20MABNDL000196_PR012 0.00000000
   -2.79142404    -3.65970778     3.12369728
20MABNDA000134_PR004 0.00000000
    2.61467624    -4.19698954     3.83386660
20MABNDA000334_PR005 0.00000000
    2.61701298    -4.19703007     5.89779043
20MABNDB000317_PR015 0.00000000
   -2.61215520    -4.19699240     3.83300662
20MABNDB000146_PR016 0.00000000
   -2.61279559    -4.19702053     5.89909458
20MABNDB000135_PR027 0.00000000
    2.60408878    -4.19700480    -3.82636261
20MABNDB000126_PR028 0.00000000
    2.62879419    -4.19704485    -5.92246294
20MABNDA000272_PR038 0.00000000
   -2.61130023    -4.19698286    -3.82766438
20MABNDA000003_PR039 0.00000000
   -2.61621141    -4.19702339    -5.89139891
20MABNDA000196_PR006 0.00000000
    2.58995128    -4.19496870     6.54674959
20MABNDA000324_PR007 0.00000000
    2.60406852    -4.13996267     6.94312954
20MABNDB000001_PR017 0.00000000
   -2.59731793    -4.19499016     6.54790783
20MABNDB000260_PR019 0.00000000
   -2.59864569    -4.13996840     6.94398642
20MABNDB000212_PR029 0.00000000
    2.59847426    -4.19500685    -6.54722261
20MABNDB000128_PR030 0.00000000
    2.58656144    -4.14004183    -6.94619989
20MABNDA000444_PR040 0.00000000
   -2.59902596    -4.19501019    -6.55721235
20MABNDA000053_PR041 0.00000000
   -2.58519816    -4.14003944    -6.94807482
20MABNDA000188_PR008 0.00000000
    3.55422449     3.84879279     8.09894276
20MABNDA000188_PR018 0.00000000
    3.52114940    -4.07059431     7.89870453
20MABNDA000039_PR009 0.00000000
    3.87538242     3.64747334    12.93663788
20MABNDA000039_PR011 0.00000000
    3.66419172    -3.92580652    12.88423729
20MABNDB000155_PR020 0.00000000
   -3.68053603     3.84881854     7.89856529
20MABNDB000155_PR022 0.00000000
   -3.53426337    -4.07043839     7.89028645
20MABNDB000010_PR021 0.00000000
   -3.86190319     3.64768577    12.93529224
20MABNDB000010_PR023 0.00000000
   -3.68537545    -3.92561102    12.88446236
20MABNDB000069_PR031 0.00000000
    3.69177032     3.84800911    -7.77863359
20MABNDB000069_PR033 0.00000000
    3.53336120    -4.07046318    -7.87875795
20MABNDB000131_PR032 0.00000000
    3.86879539     3.64756918   -12.94085598
20MABNDB000131_PR034 0.00000000
    3.67331648    -3.92563915   -12.89147186
20MABNDA000208_PR042 0.00000000
   -3.66039658     3.84884048    -7.99969625
20MABNDA000208_PR046 0.00000000
   -3.53215003    -4.07034731    -7.87354851
20MABNDA000035_PR044 0.00000000
   -3.86859775     3.64758706   -12.93260384
20MABNDA000035_PR045 0.00000000
   -3.67602754    -3.92565274   -12.88722134


*****************************************************************Rapport********************************************************************************** 
CAM-LBA-US_EBA-US-HO-H         2023.10.18.16.15.42     2.78332901    -3.67712641     6.48587990     0.00000000     0.00000000     0.00000000 0.00000000 VRAI 
CAM-LBA-US_JDA-US-H            2023.10.18.16.15.42     2.77010131    -3.73364305     6.67501593     0.00000000     0.00000000     0.00000000 0.00000000 VRAI 
CAM-LBA-US_CAM-LBC-US          2023.10.18.16.15.42     2.81225526    -3.75941682    -2.68952727     0.00000846     0.00000453     0.00000000 0.00000000 VRAI 
CAM-LBA-US_EBC-US-IP-H         2023.10.18.16.15.42     2.82854426    -3.68942583    -3.11714625     0.00000656     0.00001276     0.00000024 0.00000000 VRAI 
CAM-LBA-USA_EBA-USA-HO-H       2023.10.18.16.15.42    -2.76372600    -3.79224682     6.48532534     0.00000000     0.00000000     0.00000000 0.00000000 VRAI 
CAM-LBA-USA_JDA-USA-H          2023.10.18.16.15.42    -2.84679246    -3.67462158     7.43230367     0.00000596     0.00002122     0.00000024 0.00000000 VRAI 
CAM-LBA-USA_CAM-LBC-USA        2023.10.18.16.15.42    -2.78421807    -3.72276485    -2.71071315     0.00123882     0.03654683     0.00017262 0.00000000 VRAI 
CAM-LBA-USA_EBC-USA-IP-H       2023.10.18.16.15.42    -2.84718013    -3.68946195    -3.11707592     0.00000048     0.00000787     0.00000048 0.00000000 VRAI 
CAM-LBC-US_EBC-US-HO-H         2023.10.18.16.15.42     2.84103394    -3.78382802    -6.47897935     0.00000739     0.00001001     0.00000024 0.00000000 VRAI 
CAM-LBC-US_JDC-US-H            2023.10.18.16.15.42     2.83905554    -3.68754113    -6.67493868     0.00000882     0.00000107     0.00000000 0.00000000 VRAI 
CAM-LBC-US_CAM-LBA-US          2023.10.18.16.15.42     2.81476760    -3.75343394     2.69822574     0.00000000     0.00000000     0.00000000 0.00000000 VRAI 
CAM-LBC-US_EBA-US-IP-H         2023.10.18.16.15.42     2.84038162    -3.68447638     3.12405896     0.00000000     0.00000000     0.00000000 0.00000000 VRAI 
CAM-LBC-USA_EBC-USA-HO-H       2023.10.18.16.15.42    -2.84817815    -3.69285321    -6.47909069     0.00000000     0.00000000     0.00000000 0.00000000 VRAI 
CAM-LBC-USA_JDC-USA-H          2023.10.18.16.15.42    -2.84068775    -3.78851652    -6.67475557     0.00000000     0.00000000     0.00000000 0.00000000 VRAI 
CAM-LBC-USA_CAM-LBA-USA        2023.10.18.16.15.42    -2.81532836    -3.75145817     2.68347335     0.00000000     0.00000000     0.00000000 0.00000000 VRAI 
CAM-LBC-USA_EBA-USA-IP-H       2023.10.18.16.15.42    -2.79142404    -3.65970778     3.12369728     0.00000000     0.00000000     0.00000000 0.00000000 VRAI 
CAM-EBA-US-IP_EBA-US-IP        2023.10.18.16.15.42     2.61467624    -4.19698954     3.83386660     0.00000000     0.00000000     0.00000000 0.00000000 VRAI 
CAM-EBA-US-HO_EBA-US-HO        2023.10.18.16.15.42     2.61701298    -4.19703007     5.89779043     0.00000000     0.00000000     0.00000000 0.00000000 VRAI 
CAM-EBA-USA-IP_EBA-USA-IP      2023.10.18.16.15.42    -2.61215520    -4.19699240     3.83300662     0.00000000     0.00000000     0.00000000 0.00000000 VRAI 
CAM-EBA-USA-HO_EBA-USA-HO      2023.10.18.16.15.42    -2.61279559    -4.19702053     5.89909458     0.00000000     0.00000000     0.00000000 0.00000000 VRAI 
CAM-EBC-US-IP_EBC-US-IP        2023.10.18.16.15.42     2.60408878    -4.19700480    -3.82636261     0.00000000     0.00000000     0.00000000 0.00000000 VRAI 
CAM-EBC-US-HO_EBC-US-HO        2023.10.18.16.15.42     2.62879419    -4.19704485    -5.92246294     0.00000000     0.00000000     0.00000000 0.00000000 VRAI 
CAM-EBC-USA-IP_EBC-USA-IP      2023.10.18.16.15.42    -2.61130023    -4.19698286    -3.82766438     0.00000000     0.00000000     0.00000000 0.00000000 VRAI 
CAM-EBC-USA-HO_EBC-USA-HO      2023.10.18.16.15.42    -2.61621141    -4.19702339    -5.89139891     0.00000000     0.00000000     0.00000000 0.00000000 VRAI 
CAM-JDA-US-IP_JDA-US-IP        2023.10.18.16.15.42     2.58995128    -4.19496870     6.54674959     0.00000000     0.00000000     0.00000000 0.00000000 VRAI 
CAM-JDA-US-HO_JDA-US-HO        2023.10.18.16.15.42     2.60406852    -4.13996267     6.94312954     0.00000000     0.00000000     0.00000000 0.00000000 VRAI 
CAM-JDA-USA-IP_JDA-USA-IP      2023.10.18.16.15.42    -2.59731793    -4.19499016     6.54790783     0.00000000     0.00000000     0.00000000 0.00000000 VRAI 
CAM-JDA-USA-HO_JDA-USA-HO      2023.10.18.16.15.42    -2.59864569    -4.13996840     6.94398642     0.00000000     0.00000000     0.00000000 0.00000000 VRAI 
CAM-JDC-US-IP_JDC-US-IP        2023.10.18.16.15.42     2.59847426    -4.19500685    -6.54722261     0.00000000     0.00000000     0.00000000 0.00000000 VRAI 
CAM-JDC-US-HO_JDC-US-HO        2023.10.18.16.15.42     2.58656144    -4.14004183    -6.94619989     0.00000000     0.00000000     0.00000000 0.00000000 VRAI 
CAM-JDC-USA-IP_JDC-USA-IP      2023.10.18.16.15.42    -2.59902596    -4.19501019    -6.55721235     0.00000000     0.00000000     0.00000000 0.00000000 VRAI 
CAM-JDC-USA-HO_JDC-USA-HO      2023.10.18.16.15.42    -2.58519816    -4.14003944    -6.94807482     0.00000000     0.00000000     0.00000000 0.00000000 VRAI 
CAM-ECTA-US-IP_ECTA-US-IP-T    2023.10.18.16.15.42     3.55422449     3.84879279     8.09894276     0.00000000     0.00000000     0.00000000 0.00000000 VRAI 
CAM-ECTA-US-IP_ECTA-US-IP      2023.10.18.16.15.42     3.52114940    -4.07059431     7.89870453     0.00000000     0.00000000     0.00000000 0.00000000 VRAI 
CAM-ECTA-US-HO_ECTA-US-HO-T    2023.10.18.16.15.42     3.87538242     3.64747334    12.93663788     0.00000000     0.00000000     0.00000000 0.00000000 VRAI 
CAM-ECTA-US-HO_ECTA-US-HO      2023.10.18.16.15.42     3.66419172    -3.92580652    12.88423729     0.00000000     0.00000000     0.00000000 0.00000000 VRAI 
CAM-ECTA-USA-IP_ECTA-USA-IP-T  2023.10.18.16.15.42    -3.68053603     3.84881854     7.89856529     0.00000000     0.00000000     0.00000000 0.00000000 VRAI 
CAM-ECTA-USA-IP_ECTA-USA-IP    2023.10.18.16.15.42    -3.53426337    -4.07043839     7.89028645     0.00000000     0.00000000     0.00000000 0.00000000 VRAI 
CAM-ECTA-USA-HO_ECTA-USA-HO-T  2023.10.18.16.15.42    -3.86190319     3.64768577    12.93529224     0.00000000     0.00000000     0.00000000 0.00000000 VRAI 
CAM-ECTA-USA-HO_ECTA-USA-HO    2023.10.18.16.15.42    -3.68537545    -3.92561102    12.88446236     0.00000000     0.00000000     0.00000000 0.00000000 VRAI 
CAM-ECTC-US-IP_ECTC-US-IP-T    2023.10.18.16.15.42     3.69177032     3.84800911    -7.77863359     0.00000000     0.00000000     0.00000000 0.00000000 VRAI 
CAM-ECTC-US-IP_ECTC-US-IP      2023.10.18.16.15.42     3.53336120    -4.07046318    -7.87875795     0.00000000     0.00000000     0.00000000 0.00000000 VRAI 
CAM-ECTC-US-HO_ECTC-US-HO-T    2023.10.18.16.15.42     3.86879539     3.64756918   -12.94085598     0.00000000     0.00000000     0.00000000 0.00000000 VRAI 
CAM-ECTC-US-HO_ECTC-US-HO      2023.10.18.16.15.42     3.67331648    -3.92563915   -12.89147186     0.00000000     0.00000000     0.00000000 0.00000000 VRAI 
CAM-ECTC-USA-IP_ECTC-USA-IP-T  2023.10.18.16.15.42    -3.66039658     3.84884048    -7.99969625     0.00000000     0.00000000     0.00000000 0.00000000 VRAI 
CAM-ECTC-USA-IP_ECTC-USA-IP    2023.10.18.16.15.42    -3.53215003    -4.07034731    -7.87354851     0.00000000     0.00000000     0.00000000 0.00000000 VRAI 
CAM-ECTC-USA-HO_ECTC-USA-HO-T  2023.10.18.16.15.42    -3.86859775     3.64758706   -12.93260384     0.00000000     0.00000000     0.00000000 0.00000000 VRAI 
CAM-ECTC-USA-HO_ECTC-USA-HO    2023.10.18.16.15.42    -3.67602754    -3.92565274   -12.88722134     0.00000000     0.00000000     0.00000000 0.00000000 VRAI 
