********** Fichier qui contient une sauvegarde des coordonnees images + coordonnees images transformees dans le repere BCAM (MOUNT) + coordonnees des prismes dans le repere MOUNT********** 
********************************************************************** Unite en metres (m)************************************************************************************************** 

*******************************************************************coordonnees images dans le repere CCD *********************************************************************************** 
20MABNDL000077_PR002
Spot 1     0.00052500     0.00043500
Spot 2     0.00052500     0.00043500
Spot 1     0.00052500     0.00043500
Spot 2     0.00052500     0.00043500
20MABNDL000077_PR003
Spot 1     0.00235500     0.00028500
Spot 2     0.00235500     0.00028500
Spot 1     0.00235500     0.00028500
Spot 2     0.00235500     0.00028500
20MABNDL000077_20MABNDM000168
Spot 1     0.00175564     0.00118256
Spot 2     0.00158467     0.00117205
Spot 1     0.00175601     0.00118299
Spot 2     0.00158484     0.00117230
20MABNDL000077_PR024
Spot 1     0.00251522     0.00141989
Spot 2     0.00261414     0.00143183
Spot 1     0.00251490     0.00142000
Spot 2     0.00261408     0.00143233
20MABNDM000020_PR013
Spot 1     0.00044500     0.00008500
Spot 2     0.00044500     0.00008500
Spot 1     0.00044500     0.00008500
Spot 2     0.00044500     0.00008500
20MABNDM000020_PR014
Spot 1     0.00266030     0.00168436
Spot 2     0.00249887     0.00168834
Spot 1     0.00266032     0.00168476
Spot 2     0.00249827     0.00168808
20MABNDM000020_20MABNDL000196
Spot 1     0.00197759     0.00117998
Spot 2     0.00230500     0.00010500
Spot 1     0.00197695     0.00118006
Spot 2     0.00230500     0.00010500
20MABNDM000020_PR035
Spot 1     0.00126465     0.00149223
Spot 2     0.00118800     0.00152722
20MABNDM000168_PR025
Spot 1     0.00076201     0.00147400
Spot 2     0.00060500     0.00147903
20MABNDM000168_PR026
Spot 1     0.00266791     0.00142426
Spot 2     0.00250599     0.00141983
20MABNDM000168_20MABNDL000077
Spot 1     0.00154259     0.00129667
Spot 2     0.00175790     0.00130100
20MABNDM000168_PR001
Spot 1     0.00080979     0.00161732
Spot 2     0.00070736     0.00161889
20MABNDL000196_PR036
Spot 1     0.00094495     0.00164960
Spot 2     0.00111024     0.00164830
20MABNDL000196_PR037
Spot 1     0.00283282     0.00146852
Spot 2     0.00299185     0.00147125
20MABNDL000196_20MABNDM000020
Spot 1     0.00192437     0.00103968
Spot 2     0.00170352     0.00104497
20MABNDL000196_PR012
Spot 1     0.00265034     0.00133985
Spot 2     0.00272274     0.00138491
20MABNDA000134_PR004
Spot 1     0.00190782     0.00176105
Spot 2     0.00168865     0.00175311
20MABNDA000334_PR005
Spot 1     0.00220264     0.00157826
Spot 2     0.00248292     0.00157818
20MABNDB000317_PR015
Spot 1     0.00146316     0.00168199
Spot 2     0.00168339     0.00167694
20MABNDB000146_PR016
Spot 1     0.00144661     0.00131414
Spot 2     0.00172298     0.00131617
20MABNDB000135_PR027
Spot 1     0.00188478     0.00089173
Spot 2     0.00210397     0.00089552
20MABNDB000126_PR028
Spot 1     0.00193235     0.00198187
Spot 2     0.00164925     0.00198068
20MABNDA000272_PR038
Spot 1     0.00192284     0.00095132
Spot 2     0.00170087     0.00095130
20MABNDA000003_PR039
Spot 1     0.00201466     0.00193085
Spot 2     0.00229400     0.00193144
20MABNDA000196_PR006
Spot 1     0.00175500     0.00067288
Spot 2     0.00138788     0.00067116
20MABNDA000324_PR007
Spot 1     0.00199699     0.00134143
Spot 2     0.00220300     0.00133595
20MABNDB000001_PR017
Spot 1     0.00185694     0.00088655
Spot 2     0.00222710     0.00089016
20MABNDB000260_PR019
Spot 1     0.00206772     0.00145854
Spot 2    -0.00000100    -0.00000100
20MABNDB000212_PR029
Spot 1     0.00220760     0.00069110
Spot 2     0.00184473     0.00068878
20MABNDB000128_PR030
Spot 1     0.00268567     0.00161720
Spot 2     0.00248757     0.00161962
20MABNDA000444_PR040
Spot 1     0.00179581     0.00069508
Spot 2    -0.00000100    -0.00000100
20MABNDA000053_PR041
Spot 1     0.00123522     0.00144445
Spot 2     0.00144056     0.00144507
20MABNDA000188_PR008
Spot 1     0.00297500     0.00011500
Spot 2     0.00297500     0.00011500
20MABNDA000188_PR018
Spot 1     0.00170591     0.00167089
Spot 2     0.00123808     0.00166844
20MABNDA000039_PR009
Spot 1     0.00066571     0.00118006
Spot 2     0.00061514     0.00118385
20MABNDA000039_PR011
Spot 1     0.00277072     0.00028393
Spot 2     0.00259467     0.00027851
20MABNDB000155_PR020
Spot 1     0.00061814     0.00112390
Spot 2     0.00068830     0.00111925
20MABNDB000155_PR022
Spot 1     0.00211500     0.00141028
Spot 2     0.00258879     0.00140530
20MABNDB000010_PR021
Spot 1     0.00286702     0.00115174
Spot 2     0.00292538     0.00115487
20MABNDB000010_PR023
Spot 1     0.00131385     0.00030219
Spot 2     0.00148883     0.00029968
20MABNDB000069_PR031
Spot 1     0.00021500     0.00240500
Spot 2     0.00021500     0.00240500
20MABNDB000069_PR033
Spot 1     0.00182994     0.00206369
Spot 2     0.00230052     0.00208455
20MABNDB000131_PR032
Spot 1     0.00277681     0.00108158
Spot 2     0.00283716     0.00108399
20MABNDB000131_PR034
Spot 1     0.00092102     0.00032680
Spot 2     0.00109722     0.00032601
20MABNDA000208_PR042
Spot 1     0.00284500     0.00011500
Spot 2     0.00284500     0.00011500
20MABNDA000208_PR046
Spot 1     0.00143861     0.00221865
Spot 2     0.00096826     0.00222102
20MABNDA000035_PR044
Spot 1     0.00074396     0.00125873
Spot 2     0.00068366     0.00125324
20MABNDA000035_PR045
Spot 1     0.00254778     0.00046897
Spot 2     0.00236977     0.00046792


****************************************************************coordonnees images transformees dans le repere MOUNT************************************************************************* 
20MABNDL000077_PR002
Spot 1     0.01158509     0.03451311    -0.07463200
Spot 2     0.01158509     0.03451311    -0.07463200
Spot 1     0.01158509     0.03451311    -0.07463200
Spot 2     0.01158509     0.03451311    -0.07463200
20MABNDL000077_PR003
Spot 1     0.01341356     0.03434551    -0.07463200
Spot 2     0.01341356     0.03434551    -0.07463200
Spot 1     0.01341356     0.03434551    -0.07463200
Spot 2     0.01341356     0.03434551    -0.07463200
20MABNDL000077_20MABNDM000168
Spot 1    -0.01259077     0.03524556    -0.00695400
Spot 2    -0.01241970     0.03523680    -0.00695400
Spot 1    -0.01259114     0.03524599    -0.00695400
Spot 2    -0.01241987     0.03523705    -0.00695400
20MABNDL000077_PR024
Spot 1    -0.01335274     0.03547510    -0.00695400
Spot 2    -0.01345177     0.03548603    -0.00695400
Spot 1    -0.01335242     0.03547522    -0.00695400
Spot 2    -0.01345172     0.03548653    -0.00695400
20MABNDM000020_PR013
Spot 1    -0.01394554    -0.03407018    -0.00523500
Spot 2    -0.01394554    -0.03407018    -0.00523500
Spot 1    -0.01394554    -0.03407018    -0.00523500
Spot 2    -0.01394554    -0.03407018    -0.00523500
20MABNDM000020_PR014
Spot 1    -0.01169541    -0.03562016    -0.00523500
Spot 2    -0.01185672    -0.03562771    -0.00523500
Spot 1    -0.01169538    -0.03562056    -0.00523500
Spot 2    -0.01185732    -0.03562746    -0.00523500
20MABNDM000020_20MABNDL000196
Spot 1     0.01270869    -0.03514854    -0.07583800
Spot 2     0.01238113    -0.03407361    -0.07583800
Spot 1     0.01270933    -0.03514862    -0.07583800
Spot 2     0.01238113    -0.03407361    -0.07583800
20MABNDM000020_PR035
Spot 1     0.01342167    -0.03546069    -0.07583800
Spot 2     0.01349833    -0.03549567    -0.07583800
20MABNDM000168_PR025
Spot 1    -0.01364012    -0.03581296    -0.00532900
Spot 2    -0.01379710    -0.03581867    -0.00532900
20MABNDM000168_PR026
Spot 1    -0.01173445    -0.03575504    -0.00532900
Spot 2    -0.01189638    -0.03575130    -0.00532900
20MABNDM000168_20MABNDL000077
Spot 1     0.01288292    -0.03529729    -0.07445100
Spot 2     0.01266757    -0.03529847    -0.07445100
20MABNDM000168_PR001
Spot 1     0.01361095    -0.03562862    -0.07445100
Spot 2     0.01371335    -0.03563169    -0.07445100
20MABNDL000196_PR036
Spot 1     0.01192485     0.03583829    -0.07483600
Spot 2     0.01209015     0.03583734    -0.07483600
20MABNDL000196_PR037
Spot 1     0.01381310     0.03566115    -0.07483600
Spot 2     0.01397212     0.03566422    -0.07483600
20MABNDL000196_20MABNDM000020
Spot 1    -0.01274838     0.03531091    -0.00611000
Spot 2    -0.01252768     0.03532065    -0.00611000
20MABNDL000196_PR012
Spot 1    -0.01348025     0.03559642    -0.00611000
Spot 2    -0.01355354     0.03564001    -0.00611000
20MABNDA000134_PR004
Spot 1    -0.01287856     0.01241180    -0.07608400
Spot 2    -0.01265925     0.01241365    -0.07608400
20MABNDA000334_PR005
Spot 1    -0.01284574     0.01254988    -0.07324100
Spot 2    -0.01312602     0.01255022    -0.07324100
20MABNDB000317_PR015
Spot 1    -0.01269208    -0.01241635    -0.07326100
Spot 2    -0.01247181    -0.01241883    -0.07326100
20MABNDB000146_PR016
Spot 1    -0.01276171    -0.01247947    -0.07450500
Spot 2    -0.01248535    -0.01247682    -0.07450500
20MABNDB000135_PR027
Spot 1    -0.01252016    -0.01322122    -0.07464700
Spot 2    -0.01230094    -0.01321987    -0.07464700
20MABNDB000126_PR028
Spot 1    -0.01224704    -0.01219877    -0.07500400
Spot 2    -0.01253013    -0.01220147    -0.07500400
20MABNDA000272_PR038
Spot 1    -0.01275849     0.01316015    -0.07417900
Spot 2    -0.01253652     0.01315977    -0.07417900
20MABNDA000003_PR039
Spot 1    -0.01281576     0.01212145    -0.07373400
Spot 2    -0.01309510     0.01212157    -0.07373400
20MABNDA000196_PR006
Spot 1    -0.01270900     0.01330237    -0.07967100
Spot 2    -0.01234189     0.01329937    -0.07967100
20MABNDA000324_PR007
Spot 1    -0.01260169     0.01267976    -0.07446800
Spot 2    -0.01280774     0.01268364    -0.07446800
20MABNDB000001_PR017
Spot 1    -0.01232668    -0.01310268    -0.07418400
Spot 2    -0.01195650    -0.01310299    -0.07418400
20MABNDB000260_PR019
Spot 1    -0.01226274    -0.01244102    -0.07492700
Spot 2    -0.01430111    -0.01394266    -0.07492700
20MABNDB000212_PR029
Spot 1    -0.01188035    -0.01328989    -0.07390500
Spot 2    -0.01224322    -0.01328834    -0.07390500
20MABNDB000128_PR030
Spot 1    -0.01166813    -0.01259740    -0.07353400
Spot 2    -0.01186624    -0.01259566    -0.07353400
20MABNDA000444_PR040
Spot 1    -0.01273122     0.01332143    -0.07412000
Spot 2    -0.01094339     0.01404026    -0.07412000
20MABNDA000053_PR041
Spot 1    -0.01198130     0.01265775    -0.07430100
Spot 2    -0.01218661     0.01266114    -0.07430100
20MABNDA000188_PR008
Spot 1    -0.01399107     0.01394961    -0.07502000
Spot 2    -0.01399107     0.01394961    -0.07502000
20MABNDA000188_PR018
Spot 1    -0.01273535     0.01238291    -0.07502000
Spot 2    -0.01226752     0.01238136    -0.07502000
20MABNDA000039_PR009
Spot 1    -0.01162786     0.01306408    -0.07444800
Spot 2    -0.01157731     0.01306007    -0.07444800
20MABNDA000039_PR011
Spot 1    -0.01372897     0.01396931    -0.07444800
Spot 2    -0.01355290     0.01397397    -0.07444800
20MABNDB000155_PR020
Spot 1    -0.01364794    -0.01313349    -0.07501700
Spot 2    -0.01357772    -0.01313718    -0.07501700
20MABNDB000155_PR022
Spot 1    -0.01215514    -0.01282665    -0.07501700
Spot 2    -0.01168133    -0.01282514    -0.07501700
20MABNDB000010_PR021
Spot 1    -0.01158396    -0.01292680    -0.07358200
Spot 2    -0.01152567    -0.01292268    -0.07358200
20MABNDB000010_PR023
Spot 1    -0.01312252    -0.01380254    -0.07358200
Spot 2    -0.01294752    -0.01380208    -0.07358200
20MABNDB000069_PR031
Spot 1    -0.01361993    -0.01186066    -0.07388500
Spot 2    -0.01361993    -0.01186066    -0.07388500
20MABNDB000069_PR033
Spot 1    -0.01202045    -0.01226833    -0.07388500
Spot 2    -0.01154941    -0.01226691    -0.07388500
20MABNDB000131_PR032
Spot 1    -0.01144336    -0.01303317    -0.07533000
Spot 2    -0.01138302    -0.01303046    -0.07533000
20MABNDB000131_PR034
Spot 1    -0.01329533    -0.01379729    -0.07533000
Spot 2    -0.01311912    -0.01379719    -0.07533000
20MABNDA000208_PR042
Spot 1    -0.01371645     0.01388121    -0.07273700
Spot 2    -0.01371645     0.01388121    -0.07273700
20MABNDA000208_PR046
Spot 1    -0.01230822     0.01177879    -0.07273700
Spot 2    -0.01183787     0.01177683    -0.07273700
20MABNDA000035_PR044
Spot 1    -0.01157862     0.01299856    -0.07483200
Spot 2    -0.01151828     0.01300362    -0.07483200
20MABNDA000035_PR045
Spot 1    -0.01337678     0.01380113    -0.07483200
Spot 2    -0.01319876     0.01380091    -0.07483200


*****************************************************************coordonnees du prisme dans le repere MOUNT********************************************************************************** 
20MABNDL000077_PR002
    0.06737348     0.07371713     3.70652628
    0.06737348     0.07371713     3.70652628
20MABNDL000077_PR003
   -0.02476418     0.08434060     3.89557457
   -0.02476418     0.08434060     3.89557457
20MABNDL000077_20MABNDM000168
   -0.02567710     0.03762508    -5.46874046
   -0.02565734     0.03760072    -5.46874046
20MABNDL000077_PR024
    0.04322987     0.01908612    -5.89642859
    0.04321530     0.01906218    -5.89642859
20MABNDM000020_PR013
    0.05274186    -0.08860095    -3.80153990
    0.05274186    -0.08860095    -3.80153990
20MABNDM000020_PR014
   -0.06563773    -0.00530427    -4.74841118
   -0.06561980    -0.00529950    -4.74841166
20MABNDM000020_20MABNDL000196
    0.02687316    -0.07117607     5.39469719
    0.02685023    -0.07117321     5.39469719
20MABNDM000020_PR035
   -0.04257229    -0.00701849     5.80095482
20MABNDM000168_PR025
    0.03851239    -0.01222276    -3.78836727
20MABNDM000168_PR026
   -0.05785990    -0.01422521    -3.98429179
20MABNDM000168_20MABNDL000077
    0.01159248    -0.03901961     5.38884640
20MABNDM000168_PR001
   -0.05725832    -0.01349254     5.81470680
20MABNDL000196_PR036
    0.05140189     0.00546932     3.68776751
20MABNDL000196_PR037
   -0.04401930     0.01290654     3.88352108
20MABNDL000196_20MABNDM000020
   -0.01579365     0.03801946    -5.47473860
20MABNDL000196_PR012
    0.05226508     0.01467197    -5.91537333
20MABNDA000134_PR004
   -0.00832923     0.03810805     2.74966145
20MABNDA000334_PR005
   -0.00399091     0.03146183     2.14977264
20MABNDB000317_PR015
   -0.01645334    -0.03699366     2.75126719
20MABNDB000146_PR016
   -0.01350726    -0.03126117     2.15201735
20MABNDB000135_PR027
   -0.02078395    -0.00900196     2.74937057
20MABNDB000126_PR028
   -0.02048328    -0.03814518     2.14680433
20MABNDA000272_PR038
   -0.01324741     0.01082009     2.74965858
20MABNDA000003_PR039
   -0.00551998     0.04136872     2.14891243
20MABNDA000196_PR006
   -0.01547781     0.00877272     1.64206028
20MABNDA000324_PR007
   -0.01525938     0.03279899     2.95548868
20MABNDB000001_PR017
   -0.02360610    -0.01257371     1.64039505
20MABNDB000260_PR019
    0.01403106    -0.00707930     2.95627952
20MABNDB000212_PR029
   -0.02480177    -0.00822899     1.64224184
20MABNDB000128_PR030
   -0.04229489    -0.03194061     2.95495367
20MABNDA000444_PR040
   -0.03092438     0.00077723     1.64490008
20MABNDA000053_PR041
   -0.03535250     0.02985240     2.95464659
20MABNDA000188_PR008
    0.14616936    -0.09611703     9.20304298
20MABNDA000188_PR018
   -0.01604190     0.02469944     1.28359365
20MABNDA000039_PR009
   -0.17113644     0.02557208    11.00701618
20MABNDA000039_PR011
    0.03088814    -0.02446765     3.43347001
20MABNDB000155_PR020
    0.10201125    -0.00817199     9.20028305
20MABNDB000155_PR022
   -0.02564933    -0.01772381     1.28070712
20MABNDB000010_PR021
   -0.17617142    -0.03355937    11.00694656
20MABNDB000010_PR023
    0.00422926     0.02077479     3.43376684
20MABNDB000069_PR031
    0.10999375    -0.16176865     9.20229721
20MABNDB000069_PR033
   -0.02692290    -0.02685850     1.28394020
20MABNDB000131_PR032
   -0.18794964    -0.03028488    11.00642014
20MABNDB000131_PR034
    0.01446806     0.01638824     3.43337870
20MABNDA000208_PR042
    0.11037338    -0.08822197     9.20121384
20MABNDA000208_PR046
   -0.02363207     0.03491576     1.28207541
20MABNDA000035_PR044
   -0.17938253     0.02698923    11.00802994
20MABNDA000035_PR045
    0.01469080    -0.01907335     3.43483520


*****************************************************************coordonnees du prisme dans le repere ATLAS********************************************************************************** 
20MABNDL000077_PR002 0.00000000
    2.78332901    -3.67712641     6.48587990
    2.78332901    -3.67712641     6.48587990
20MABNDL000077_PR003 0.00000000
    2.77286172    -3.76949382     6.67482471
    2.77286172    -3.76949382     6.67482471
20MABNDL000077_20MABNDM000168 0.00000000
    2.81039166    -3.75886798    -2.68952560
    2.81041598    -3.75884819    -2.68952560
20MABNDL000077_PR024 0.00000000
    2.82853317    -3.68943930    -3.11714649
    2.82855701    -3.68945384    -3.11714649
20MABNDM000020_PR013 0.00000000
   -2.76372600    -3.79224682     6.48532534
   -2.76372600    -3.79224682     6.48532534
20MABNDM000020_PR014 0.00000000
   -2.84679675    -3.67456174     7.43230295
   -2.84680152    -3.67457986     7.43230343
20MABNDM000020_20MABNDL000196 0.00000000
   -2.78298330    -3.75937867    -2.71088576
   -2.78298616    -3.75935578    -2.71088576
20MABNDM000020_PR035 0.00000000
   -2.84720087    -3.68960452    -3.11707759
20MABNDM000168_PR025 0.00000000
    2.84100866    -3.78384376    -6.47897911
20MABNDM000168_PR026 0.00000000
    2.83901978    -3.68754387    -6.67493916
20MABNDM000168_20MABNDL000077 0.00000000
    2.81477594    -3.75350451     2.69822574
20MABNDM000168_PR001 0.00000000
    2.84034705    -3.68450212     3.12405896
20MABNDL000196_PR036 0.00000000
   -2.84813833    -3.69287276    -6.47909117
20MABNDL000196_PR037 0.00000000
   -2.84066081    -3.78847265    -6.67475605
20MABNDL000196_20MABNDM000020 0.00000000
   -2.81535888    -3.75153017     2.68347311
20MABNDL000196_PR012 0.00000000
   -2.83872843    -3.68307257     3.12404466
20MABNDA000134_PR004 0.00000000
    2.61467409    -4.19698954     3.83389068
20MABNDA000334_PR005 0.00000000
    2.61700773    -4.19703007     5.89779902
20MABNDB000317_PR015 0.00000000
   -2.61215401    -4.19699240     3.83302188
20MABNDB000146_PR016 0.00000000
   -2.61278796    -4.19702053     5.89908886
20MABNDB000135_PR027 0.00000000
    2.60407948    -4.19700480    -3.82635880
20MABNDB000126_PR028 0.00000000
    2.60543346    -4.19701529    -5.89407444
20MABNDA000272_PR038 0.00000000
   -2.61128950    -4.19698286    -3.82766414
20MABNDA000003_PR039 0.00000000
   -2.61621118    -4.19702339    -5.89139795
20MABNDA000196_PR006 0.00000000
    2.58993840    -4.19496870     6.54672956
20MABNDA000324_PR007 0.00000000
    2.60405588    -4.13996267     6.94311714
20MABNDB000001_PR017 0.00000000
   -2.59731078    -4.19499016     6.54790163
20MABNDB000260_PR019 0.00000000
   -2.64280343    -4.14002609     6.97355175
20MABNDB000212_PR029 0.00000000
    2.59847951    -4.19500685    -6.54721689
20MABNDB000128_PR030 0.00000000
    2.58656693    -4.14004183    -6.94618511
20MABNDA000444_PR040 0.00000000
   -2.60609698    -4.19510937    -6.53995752
20MABNDA000053_PR041 0.00000000
   -2.58518720    -4.14003944    -6.94806051
20MABNDA000188_PR008 0.00000000
    3.55893064     3.84859109     8.10764503
20MABNDA000188_PR018 0.00000000
    3.52107811    -4.07059526     7.89875126
20MABNDA000039_PR009 0.00000000
    3.87530851     3.64747429    12.93686581
20MABNDA000039_PR011 0.00000000
    3.66413593    -3.92580581    12.88436890
20MABNDB000155_PR020 0.00000000
   -3.68066382     3.84881639     7.89869499
20MABNDB000155_PR022 0.00000000
   -3.53433108    -4.07043791     7.89033556
20MABNDB000010_PR021 0.00000000
   -3.86200881     3.64768386    12.93538857
20MABNDB000010_PR023 0.00000000
   -3.68543768    -3.92561007    12.88450146
20MABNDB000069_PR031 0.00000000
    3.69177032     3.84800911    -7.77863359
20MABNDB000069_PR033 0.00000000
    3.53337646    -4.07046318    -7.87881279
20MABNDB000131_PR032 0.00000000
    3.86875200     3.64757013   -12.94092751
20MABNDB000131_PR034 0.00000000
    3.67332125    -3.92563796   -12.89155960
20MABNDA000208_PR042 0.00000000
   -3.66039658     3.84884048    -7.99969625
20MABNDA000208_PR046 0.00000000
   -3.53213358    -4.07034683    -7.87360239
20MABNDA000035_PR044 0.00000000
   -3.86862350     3.64758515   -12.93266869
20MABNDA000035_PR045 0.00000000
   -3.67603755    -3.92565203   -12.88731098


*****************************************************************Rapport********************************************************************************** 
CAM-LBA-US_EBA-US-HO-H         2023.06.11.06.06.57     2.78332901    -3.67712641     6.48587990     0.00000000     0.00000000     0.00000000 0.00000000 VRAI 
CAM-LBA-US_JDA-US-H            2023.06.11.06.06.57     2.77286172    -3.76949382     6.67482471     0.00000000     0.00000000     0.00000000 0.00000000 VRAI 
CAM-LBA-US_CAM-LBC-US          2023.06.11.06.06.57     2.81040382    -3.75885808    -2.68952560     0.00001216     0.00000989     0.00000000 0.00000000 VRAI 
CAM-LBA-US_EBC-US-IP-H         2023.06.11.06.06.57     2.82854509    -3.68944657    -3.11714649     0.00001192     0.00000727     0.00000000 0.00000000 VRAI 
CAM-LBA-USA_EBA-USA-HO-H       2023.06.11.06.06.57    -2.76372600    -3.79224682     6.48532534     0.00000000     0.00000000     0.00000000 0.00000000 VRAI 
CAM-LBA-USA_JDA-USA-H          2023.06.11.06.06.57    -2.84679914    -3.67457080     7.43230319     0.00000238     0.00000906     0.00000024 0.00000000 VRAI 
CAM-LBA-USA_CAM-LBC-USA        2023.06.11.06.06.57    -2.78298473    -3.75936723    -2.71088576     0.00000143     0.00001144     0.00000000 0.00000000 VRAI 
CAM-LBA-USA_EBC-USA-IP-H       2023.06.11.06.06.57    -2.84720087    -3.68960452    -3.11707759     0.00000000     0.00000000     0.00000000 0.00000000 VRAI 
CAM-LBC-US_EBC-US-HO-H         2023.06.11.06.06.57     2.84100866    -3.78384376    -6.47897911     0.00000000     0.00000000     0.00000000 0.00000000 VRAI 
CAM-LBC-US_JDC-US-H            2023.06.11.06.06.57     2.83901978    -3.68754387    -6.67493916     0.00000000     0.00000000     0.00000000 0.00000000 VRAI 
CAM-LBC-US_CAM-LBA-US          2023.06.11.06.06.57     2.81477594    -3.75350451     2.69822574     0.00000000     0.00000000     0.00000000 0.00000000 VRAI 
CAM-LBC-US_EBA-US-IP-H         2023.06.11.06.06.57     2.84034705    -3.68450212     3.12405896     0.00000000     0.00000000     0.00000000 0.00000000 VRAI 
CAM-LBC-USA_EBC-USA-HO-H       2023.06.11.06.06.57    -2.84813833    -3.69287276    -6.47909117     0.00000000     0.00000000     0.00000000 0.00000000 VRAI 
CAM-LBC-USA_JDC-USA-H          2023.06.11.06.06.57    -2.84066081    -3.78847265    -6.67475605     0.00000000     0.00000000     0.00000000 0.00000000 VRAI 
CAM-LBC-USA_CAM-LBA-USA        2023.06.11.06.06.57    -2.81535888    -3.75153017     2.68347311     0.00000000     0.00000000     0.00000000 0.00000000 VRAI 
CAM-LBC-USA_EBA-USA-IP-H       2023.06.11.06.06.57    -2.83872843    -3.68307257     3.12404466     0.00000000     0.00000000     0.00000000 0.00000000 VRAI 
CAM-EBA-US-IP_EBA-US-IP        2023.06.11.06.06.57     2.61467409    -4.19698954     3.83389068     0.00000000     0.00000000     0.00000000 0.00000000 VRAI 
CAM-EBA-US-HO_EBA-US-HO        2023.06.11.06.06.57     2.61700773    -4.19703007     5.89779902     0.00000000     0.00000000     0.00000000 0.00000000 VRAI 
CAM-EBA-USA-IP_EBA-USA-IP      2023.06.11.06.06.57    -2.61215401    -4.19699240     3.83302188     0.00000000     0.00000000     0.00000000 0.00000000 VRAI 
CAM-EBA-USA-HO_EBA-USA-HO      2023.06.11.06.06.57    -2.61278796    -4.19702053     5.89908886     0.00000000     0.00000000     0.00000000 0.00000000 VRAI 
CAM-EBC-US-IP_EBC-US-IP        2023.06.11.06.06.57     2.60407948    -4.19700480    -3.82635880     0.00000000     0.00000000     0.00000000 0.00000000 VRAI 
CAM-EBC-US-HO_EBC-US-HO        2023.06.11.06.06.57     2.60543346    -4.19701529    -5.89407444     0.00000000     0.00000000     0.00000000 0.00000000 VRAI 
CAM-EBC-USA-IP_EBC-USA-IP      2023.06.11.06.06.57    -2.61128950    -4.19698286    -3.82766414     0.00000000     0.00000000     0.00000000 0.00000000 VRAI 
CAM-EBC-USA-HO_EBC-USA-HO      2023.06.11.06.06.57    -2.61621118    -4.19702339    -5.89139795     0.00000000     0.00000000     0.00000000 0.00000000 VRAI 
CAM-JDA-US-IP_JDA-US-IP        2023.06.11.06.06.57     2.58993840    -4.19496870     6.54672956     0.00000000     0.00000000     0.00000000 0.00000000 VRAI 
CAM-JDA-US-HO_JDA-US-HO        2023.06.11.06.06.57     2.60405588    -4.13996267     6.94311714     0.00000000     0.00000000     0.00000000 0.00000000 VRAI 
CAM-JDA-USA-IP_JDA-USA-IP      2023.06.11.06.06.57    -2.59731078    -4.19499016     6.54790163     0.00000000     0.00000000     0.00000000 0.00000000 VRAI 
CAM-JDA-USA-HO_JDA-USA-HO      2023.06.11.06.06.57    -2.64280343    -4.14002609     6.97355175     0.00000000     0.00000000     0.00000000 0.00000000 VRAI 
CAM-JDC-US-IP_JDC-US-IP        2023.06.11.06.06.57     2.59847951    -4.19500685    -6.54721689     0.00000000     0.00000000     0.00000000 0.00000000 VRAI 
CAM-JDC-US-HO_JDC-US-HO        2023.06.11.06.06.57     2.58656693    -4.14004183    -6.94618511     0.00000000     0.00000000     0.00000000 0.00000000 VRAI 
CAM-JDC-USA-IP_JDC-USA-IP      2023.06.11.06.06.57    -2.60609698    -4.19510937    -6.53995752     0.00000000     0.00000000     0.00000000 0.00000000 VRAI 
CAM-JDC-USA-HO_JDC-USA-HO      2023.06.11.06.06.57    -2.58518720    -4.14003944    -6.94806051     0.00000000     0.00000000     0.00000000 0.00000000 VRAI 
CAM-ECTA-US-IP_ECTA-US-IP-T    2023.06.11.06.06.57     3.55893064     3.84859109     8.10764503     0.00000000     0.00000000     0.00000000 0.00000000 VRAI 
CAM-ECTA-US-IP_ECTA-US-IP      2023.06.11.06.06.57     3.52107811    -4.07059526     7.89875126     0.00000000     0.00000000     0.00000000 0.00000000 VRAI 
CAM-ECTA-US-HO_ECTA-US-HO-T    2023.06.11.06.06.57     3.87530851     3.64747429    12.93686581     0.00000000     0.00000000     0.00000000 0.00000000 VRAI 
CAM-ECTA-US-HO_ECTA-US-HO      2023.06.11.06.06.57     3.66413593    -3.92580581    12.88436890     0.00000000     0.00000000     0.00000000 0.00000000 VRAI 
CAM-ECTA-USA-IP_ECTA-USA-IP-T  2023.06.11.06.06.57    -3.68066382     3.84881639     7.89869499     0.00000000     0.00000000     0.00000000 0.00000000 VRAI 
CAM-ECTA-USA-IP_ECTA-USA-IP    2023.06.11.06.06.57    -3.53433108    -4.07043791     7.89033556     0.00000000     0.00000000     0.00000000 0.00000000 VRAI 
CAM-ECTA-USA-HO_ECTA-USA-HO-T  2023.06.11.06.06.57    -3.86200881     3.64768386    12.93538857     0.00000000     0.00000000     0.00000000 0.00000000 VRAI 
CAM-ECTA-USA-HO_ECTA-USA-HO    2023.06.11.06.06.57    -3.68543768    -3.92561007    12.88450146     0.00000000     0.00000000     0.00000000 0.00000000 VRAI 
CAM-ECTC-US-IP_ECTC-US-IP-T    2023.06.11.06.06.57     3.69177032     3.84800911    -7.77863359     0.00000000     0.00000000     0.00000000 0.00000000 VRAI 
CAM-ECTC-US-IP_ECTC-US-IP      2023.06.11.06.06.57     3.53337646    -4.07046318    -7.87881279     0.00000000     0.00000000     0.00000000 0.00000000 VRAI 
CAM-ECTC-US-HO_ECTC-US-HO-T    2023.06.11.06.06.57     3.86875200     3.64757013   -12.94092751     0.00000000     0.00000000     0.00000000 0.00000000 VRAI 
CAM-ECTC-US-HO_ECTC-US-HO      2023.06.11.06.06.57     3.67332125    -3.92563796   -12.89155960     0.00000000     0.00000000     0.00000000 0.00000000 VRAI 
CAM-ECTC-USA-IP_ECTC-USA-IP-T  2023.06.11.06.06.57    -3.66039658     3.84884048    -7.99969625     0.00000000     0.00000000     0.00000000 0.00000000 VRAI 
CAM-ECTC-USA-IP_ECTC-USA-IP    2023.06.11.06.06.57    -3.53213358    -4.07034683    -7.87360239     0.00000000     0.00000000     0.00000000 0.00000000 VRAI 
CAM-ECTC-USA-HO_ECTC-USA-HO-T  2023.06.11.06.06.57    -3.86862350     3.64758515   -12.93266869     0.00000000     0.00000000     0.00000000 0.00000000 VRAI 
CAM-ECTC-USA-HO_ECTC-USA-HO    2023.06.11.06.06.57    -3.67603755    -3.92565203   -12.88731098     0.00000000     0.00000000     0.00000000 0.00000000 VRAI 
