********** Fichier qui contient une sauvegarde des coordonnees images + coordonnees images transformees dans le repere BCAM (MOUNT) + coordonnees des prismes dans le repere MOUNT********** 
********************************************************************** Unite en metres (m)************************************************************************************************** 

*******************************************************************coordonnees images dans le repere CCD *********************************************************************************** 
20MABNDL000077_PR002
Spot 1     0.00052500     0.00043500
Spot 2     0.00036500     0.00140500
Spot 1     0.00052500     0.00043500
Spot 2     0.00052500     0.00043500
20MABNDL000077_PR003
Spot 1     0.00235500     0.00028500
Spot 2     0.00235500     0.00028500
Spot 1     0.00166500     0.00022500
Spot 2     0.00235500     0.00028500
20MABNDL000077_20MABNDM000168
Spot 1     0.00175562     0.00118197
Spot 2     0.00075500     0.00010500
Spot 1     0.00175526     0.00118199
Spot 2     0.00075500     0.00010500
20MABNDL000077_PR024
Spot 1     0.00251450     0.00141936
Spot 2     0.00261390     0.00143120
Spot 1     0.00251463     0.00141949
Spot 2     0.00261379     0.00143159
20MABNDM000020_PR013
Spot 1     0.00044500     0.00008500
Spot 2     0.00044500     0.00008500
Spot 1     0.00044500     0.00008500
Spot 2     0.00044500     0.00008500
20MABNDM000020_PR014
Spot 1     0.00266072     0.00168428
Spot 2     0.00249832     0.00168682
Spot 1     0.00266094     0.00168510
Spot 2     0.00249851     0.00168779
20MABNDM000020_20MABNDL000196
Spot 1     0.00197569     0.00117986
Spot 2     0.00268500     0.00028500
Spot 1     0.00197589     0.00118002
Spot 2     0.00230500     0.00010500
20MABNDM000020_PR035
Spot 1     0.00126341     0.00149181
Spot 2     0.00118682     0.00152729
Spot 1     0.00126325     0.00149148
Spot 2     0.00118667     0.00152768
20MABNDM000168_PR025
Spot 1     0.00076243     0.00147453
Spot 2     0.00060479     0.00147972
20MABNDM000168_PR026
Spot 1     0.00266790     0.00142471
Spot 2     0.00250630     0.00142114
20MABNDM000168_20MABNDL000077
Spot 1     0.00154175     0.00129789
Spot 2     0.00176002     0.00130496
20MABNDM000168_PR001
Spot 1     0.00080941     0.00161770
Spot 2     0.00070697     0.00161935
20MABNDL000196_PR036
Spot 1     0.00094473     0.00164975
Spot 2     0.00110969     0.00164805
20MABNDL000196_PR037
Spot 1     0.00283210     0.00146853
Spot 2     0.00299155     0.00147140
20MABNDL000196_20MABNDM000020
Spot 1     0.00192588     0.00103930
Spot 2     0.00170470     0.00104464
20MABNDL000196_PR012
Spot 1     0.00265137     0.00133988
Spot 2     0.00272330     0.00138475
20MABNDA000134_PR004
Spot 1     0.00190809     0.00176143
Spot 2     0.00168895     0.00175395
20MABNDA000334_PR005
Spot 1     0.00220267     0.00157827
Spot 2     0.00248300     0.00157822
20MABNDB000317_PR015
Spot 1     0.00146262     0.00168286
Spot 2     0.00168353     0.00167500
20MABNDB000146_PR016
Spot 1     0.00144664     0.00131428
Spot 2     0.00172260     0.00131625
20MABNDB000135_PR027
Spot 1     0.00188446     0.00089250
Spot 2     0.00210308     0.00089546
20MABNDB000126_PR028
Spot 1     0.00193233     0.00198147
Spot 2     0.00164912     0.00198078
20MABNDA000272_PR038
Spot 1     0.00192299     0.00095115
Spot 2     0.00170077     0.00095090
20MABNDA000003_PR039
Spot 1     0.00201505     0.00193088
Spot 2     0.00229416     0.00193147
20MABNDA000196_PR006
Spot 1     0.00138833     0.00067128
Spot 2     0.00175450     0.00067350
20MABNDA000324_PR007
Spot 1     0.00199691     0.00134133
Spot 2     0.00220309     0.00133636
20MABNDB000001_PR017
Spot 1     0.00185709     0.00088593
Spot 2     0.00222721     0.00089022
20MABNDB000260_PR019
Spot 1     0.00206655     0.00145722
Spot 2     0.00307500     0.00004500
20MABNDB000212_PR029
Spot 1     0.00220769     0.00069104
Spot 2     0.00184461     0.00068855
20MABNDB000128_PR030
Spot 1     0.00268575     0.00161697
Spot 2     0.00248718     0.00161936
20MABNDA000444_PR040
Spot 1     0.00179554     0.00069464
Spot 2     0.00157500     0.00204500
20MABNDA000053_PR041
Spot 1     0.00123515     0.00144460
Spot 2     0.00144067     0.00144519
20MABNDA000188_PR008
Spot 1     0.00289500     0.00025500
Spot 2     0.00289500     0.00025500
20MABNDA000188_PR018
Spot 1     0.00170587     0.00167076
Spot 2     0.00123852     0.00166812
20MABNDA000039_PR009
Spot 1     0.00066628     0.00118016
Spot 2     0.00061522     0.00118401
20MABNDA000039_PR011
Spot 1     0.00277098     0.00028366
Spot 2     0.00259472     0.00027837
20MABNDB000155_PR020
Spot 1     0.00061824     0.00112412
Spot 2     0.00068831     0.00111998
20MABNDB000155_PR022
Spot 1     0.00211513     0.00140998
Spot 2     0.00258869     0.00140531
20MABNDB000010_PR021
Spot 1     0.00286713     0.00115159
Spot 2     0.00292520     0.00115510
20MABNDB000010_PR023
Spot 1     0.00131347     0.00030211
Spot 2     0.00148899     0.00029918
20MABNDB000069_PR031
Spot 1     0.00021500     0.00240500
Spot 2     0.00021500     0.00240500
20MABNDB000069_PR033
Spot 1     0.00182984     0.00206424
Spot 2     0.00230039     0.00208420
20MABNDB000131_PR032
Spot 1     0.00277667     0.00108174
Spot 2     0.00283769     0.00108386
20MABNDB000131_PR034
Spot 1     0.00092092     0.00032638
Spot 2     0.00109716     0.00032590
20MABNDA000208_PR042
Spot 1     0.00284500     0.00011500
Spot 2     0.00284500     0.00011500
20MABNDA000208_PR046
Spot 1     0.00143893     0.00221881
Spot 2     0.00096855     0.00222114
20MABNDA000035_PR044
Spot 1     0.00074390     0.00125874
Spot 2     0.00068342     0.00125326
20MABNDA000035_PR045
Spot 1     0.00254786     0.00046873
Spot 2     0.00236971     0.00046763


****************************************************************coordonnees images transformees dans le repere MOUNT************************************************************************* 
20MABNDL000077_PR002
Spot 1     0.01158509     0.03451311    -0.07463200
Spot 2     0.01143443     0.03548461    -0.07463200
Spot 1     0.01158509     0.03451311    -0.07463200
Spot 2     0.01158509     0.03451311    -0.07463200
20MABNDL000077_PR003
Spot 1     0.01341356     0.03434551    -0.07463200
Spot 2     0.01341356     0.03434551    -0.07463200
Spot 1     0.01272301     0.03429215    -0.07463200
Spot 2     0.01341356     0.03434551    -0.07463200
20MABNDL000077_20MABNDM000168
Spot 1    -0.01259074     0.03524497    -0.00695400
Spot 2    -0.01157915     0.03417830    -0.00695400
Spot 1    -0.01259038     0.03524499    -0.00695400
Spot 2    -0.01157915     0.03417830    -0.00695400
20MABNDL000077_PR024
Spot 1    -0.01335201     0.03547458    -0.00695400
Spot 2    -0.01345153     0.03548540    -0.00695400
Spot 1    -0.01335214     0.03547471    -0.00695400
Spot 2    -0.01345142     0.03548579    -0.00695400
20MABNDM000020_PR013
Spot 1    -0.01394554    -0.03407018    -0.00523500
Spot 2    -0.01394554    -0.03407018    -0.00523500
Spot 1    -0.01394554    -0.03407018    -0.00523500
Spot 2    -0.01394554    -0.03407018    -0.00523500
20MABNDM000020_PR014
Spot 1    -0.01169499    -0.03562007    -0.00523500
Spot 2    -0.01185730    -0.03562620    -0.00523500
Spot 1    -0.01169476    -0.03562088    -0.00523500
Spot 2    -0.01185709    -0.03562716    -0.00523500
20MABNDM000020_20MABNDL000196
Spot 1     0.01271059    -0.03514842    -0.07583800
Spot 2     0.01200115    -0.03425366    -0.07583800
Spot 1     0.01271039    -0.03514858    -0.07583800
Spot 2     0.01238113    -0.03407361    -0.07583800
20MABNDM000020_PR035
Spot 1     0.01342291    -0.03546027    -0.07583800
Spot 2     0.01349951    -0.03549574    -0.07583800
Spot 1     0.01342307    -0.03545994    -0.07583800
Spot 2     0.01349966    -0.03549613    -0.07583800
20MABNDM000168_PR025
Spot 1    -0.01363969    -0.03581349    -0.00532900
Spot 2    -0.01379731    -0.03581936    -0.00532900
20MABNDM000168_PR026
Spot 1    -0.01173445    -0.03575549    -0.00532900
Spot 2    -0.01189607    -0.03575261    -0.00532900
20MABNDM000168_20MABNDL000077
Spot 1     0.01288374    -0.03529852    -0.07445100
Spot 2     0.01266539    -0.03530240    -0.07445100
20MABNDM000168_PR001
Spot 1     0.01361133    -0.03562901    -0.07445100
Spot 2     0.01371373    -0.03563216    -0.07445100
20MABNDL000196_PR036
Spot 1     0.01192463     0.03583844    -0.07483600
Spot 2     0.01208960     0.03583709    -0.07483600
20MABNDL000196_PR037
Spot 1     0.01381238     0.03566116    -0.07483600
Spot 2     0.01397182     0.03566436    -0.07483600
20MABNDL000196_20MABNDM000020
Spot 1    -0.01274989     0.03531050    -0.00611000
Spot 2    -0.01252886     0.03532029    -0.00611000
20MABNDL000196_PR012
Spot 1    -0.01348128     0.03559643    -0.00611000
Spot 2    -0.01355409     0.03563984    -0.00611000
20MABNDA000134_PR004
Spot 1    -0.01287884     0.01241142    -0.07608400
Spot 2    -0.01265957     0.01241282    -0.07608400
20MABNDA000334_PR005
Spot 1    -0.01284577     0.01254987    -0.07324100
Spot 2    -0.01312610     0.01255018    -0.07324100
20MABNDB000317_PR015
Spot 1    -0.01269263    -0.01241548    -0.07326100
Spot 2    -0.01247165    -0.01242077    -0.07326100
20MABNDB000146_PR016
Spot 1    -0.01276168    -0.01247933    -0.07450500
Spot 2    -0.01248573    -0.01247675    -0.07450500
20MABNDB000135_PR027
Spot 1    -0.01252047    -0.01322045    -0.07464700
Spot 2    -0.01230183    -0.01321992    -0.07464700
20MABNDB000126_PR028
Spot 1    -0.01224706    -0.01219917    -0.07500400
Spot 2    -0.01253026    -0.01220137    -0.07500400
20MABNDA000272_PR038
Spot 1    -0.01275864     0.01316032    -0.07417900
Spot 2    -0.01253642     0.01316017    -0.07417900
20MABNDA000003_PR039
Spot 1    -0.01281615     0.01212142    -0.07373400
Spot 2    -0.01309526     0.01212154    -0.07373400
20MABNDA000196_PR006
Spot 1    -0.01234234     0.01329926    -0.07967100
Spot 2    -0.01270851     0.01330174    -0.07967100
20MABNDA000324_PR007
Spot 1    -0.01260161     0.01267986    -0.07446800
Spot 2    -0.01280783     0.01268323    -0.07446800
20MABNDB000001_PR017
Spot 1    -0.01232654    -0.01310330    -0.07418400
Spot 2    -0.01195639    -0.01310293    -0.07418400
20MABNDB000260_PR019
Spot 1    -0.01226389    -0.01244236    -0.07492700
Spot 2    -0.01122670    -0.01383361    -0.07492700
20MABNDB000212_PR029
Spot 1    -0.01188026    -0.01328995    -0.07390500
Spot 2    -0.01224335    -0.01328856    -0.07390500
20MABNDB000128_PR030
Spot 1    -0.01166805    -0.01259763    -0.07353400
Spot 2    -0.01186663    -0.01259592    -0.07353400
20MABNDA000444_PR040
Spot 1    -0.01273096     0.01332187    -0.07412000
Spot 2    -0.01249330     0.01197442    -0.07412000
20MABNDA000053_PR041
Spot 1    -0.01198123     0.01265760    -0.07430100
Spot 2    -0.01218672     0.01266102    -0.07430100
20MABNDA000188_PR008
Spot 1    -0.01391227     0.01380893    -0.07502000
Spot 2    -0.01391227     0.01380893    -0.07502000
20MABNDA000188_PR018
Spot 1    -0.01273531     0.01238304    -0.07502000
Spot 2    -0.01226795     0.01238168    -0.07502000
20MABNDA000039_PR009
Spot 1    -0.01162843     0.01306398    -0.07444800
Spot 2    -0.01157739     0.01305991    -0.07444800
20MABNDA000039_PR011
Spot 1    -0.01372923     0.01396958    -0.07444800
Spot 2    -0.01355295     0.01397411    -0.07444800
20MABNDB000155_PR020
Spot 1    -0.01364784    -0.01313327    -0.07501700
Spot 2    -0.01357772    -0.01313645    -0.07501700
20MABNDB000155_PR022
Spot 1    -0.01215501    -0.01282695    -0.07501700
Spot 2    -0.01168143    -0.01282513    -0.07501700
20MABNDB000010_PR021
Spot 1    -0.01158385    -0.01292695    -0.07358200
Spot 2    -0.01152585    -0.01292245    -0.07358200
20MABNDB000010_PR023
Spot 1    -0.01312290    -0.01380263    -0.07358200
Spot 2    -0.01294735    -0.01380258    -0.07358200
20MABNDB000069_PR031
Spot 1    -0.01361993    -0.01186066    -0.07388500
Spot 2    -0.01361993    -0.01186066    -0.07388500
20MABNDB000069_PR033
Spot 1    -0.01202053    -0.01226777    -0.07388500
Spot 2    -0.01154955    -0.01226725    -0.07388500
20MABNDB000131_PR032
Spot 1    -0.01144350    -0.01303302    -0.07533000
Spot 2    -0.01138249    -0.01303059    -0.07533000
20MABNDB000131_PR034
Spot 1    -0.01329542    -0.01379771    -0.07533000
Spot 2    -0.01311918    -0.01379730    -0.07533000
20MABNDA000208_PR042
Spot 1    -0.01371645     0.01388121    -0.07273700
Spot 2    -0.01371645     0.01388121    -0.07273700
20MABNDA000208_PR046
Spot 1    -0.01230854     0.01177863    -0.07273700
Spot 2    -0.01183816     0.01177671    -0.07273700
20MABNDA000035_PR044
Spot 1    -0.01157856     0.01299855    -0.07483200
Spot 2    -0.01151804     0.01300360    -0.07483200
20MABNDA000035_PR045
Spot 1    -0.01337685     0.01380137    -0.07483200
Spot 2    -0.01319870     0.01380120    -0.07483200


*****************************************************************coordonnees du prisme dans le repere MOUNT********************************************************************************** 
20MABNDL000077_PR002
    0.07109614     0.04972383     3.70663595
    0.06737348     0.07371713     3.70652628
20MABNDL000077_PR003
   -0.02476418     0.08434060     3.89557457
   -0.00683988     0.08572708     3.89568853
20MABNDL000077_20MABNDM000168
   -0.05603312     0.07587333    -5.46843529
   -0.05604611     0.07587247    -5.46843529
20MABNDL000077_PR024
    0.04319199     0.01913095    -5.89642906
    0.04319298     0.01911069    -5.89642859
20MABNDM000020_PR013
    0.05274186    -0.08860095    -3.80153990
    0.05274186    -0.08860095    -3.80153990
20MABNDM000020_PR014
   -0.06563261    -0.00535393    -4.74841166
   -0.06564659    -0.00529853    -4.74841118
20MABNDM000020_20MABNDL000196
    0.04041865    -0.06472945     5.39468288
    0.02681225    -0.07117465     5.39469719
20MABNDM000020_PR035
   -0.04266550    -0.00703199     5.80095387
   -0.04267745    -0.00702968     5.80095387
20MABNDM000168_PR025
    0.03850707    -0.01219262    -3.78836727
20MABNDM000168_PR026
   -0.05786790    -0.01417943    -3.98429132
20MABNDM000168_20MABNDL000077
    0.01164118    -0.03883422     5.38884687
20MABNDM000168_PR001
   -0.05728769    -0.01345954     5.81470680
20MABNDL000196_PR036
    0.05142079     0.00547181     3.68776751
20MABNDL000196_PR037
   -0.04399292     0.01290246     3.88352156
20MABNDL000196_20MABNDM000020
   -0.01569753     0.03804692    -5.47473907
20MABNDL000196_PR012
    0.05232675     0.01467827    -5.91537285
20MABNDA000134_PR004
   -0.00831818     0.03813007     2.74966145
20MABNDA000334_PR005
   -0.00398933     0.03146255     2.14977264
20MABNDB000317_PR015
   -0.01644629    -0.03697409     2.75126719
20MABNDB000146_PR016
   -0.01350222    -0.03126432     2.15201735
20MABNDB000135_PR027
   -0.02076191    -0.00901522     2.74937057
20MABNDB000126_PR028
   -0.02048117    -0.03814089     2.14680433
20MABNDA000272_PR038
   -0.01324651     0.01080964     2.74965858
20MABNDA000003_PR039
   -0.00551211     0.04136956     2.14891243
20MABNDA000196_PR006
   -0.01547820     0.00878081     1.64206028
20MABNDA000324_PR007
   -0.01525923     0.03280509     2.95548868
20MABNDB000001_PR017
   -0.02360887    -0.01256756     1.64039505
20MABNDB000260_PR019
   -0.04648811    -0.00920051     2.95621037
20MABNDB000212_PR029
   -0.02480141    -0.00822581     1.64224184
20MABNDB000128_PR030
   -0.04228883    -0.03193095     2.95495367
20MABNDA000444_PR040
   -0.01395178     0.02339950     1.64501524
20MABNDA000053_PR041
   -0.03535161     0.02985769     2.95464659
20MABNDA000188_PR008
    0.13650158    -0.07885031     9.20339394
20MABNDA000188_PR018
   -0.01603851     0.02469556     1.28359365
20MABNDA000039_PR009
   -0.17108881     0.02559088    11.00701618
20MABNDA000039_PR011
    0.03089517    -0.02447703     3.43347001
20MABNDB000155_PR020
    0.10200530    -0.00823040     9.20028496
20MABNDB000155_PR022
   -0.02564962    -0.01772134     1.28070712
20MABNDB000010_PR021
   -0.17616619    -0.03356516    11.00694656
20MABNDB000010_PR023
    0.00423408     0.02078817     3.43376684
20MABNDB000069_PR031
    0.10999375    -0.16176865     9.20229721
20MABNDB000069_PR033
   -0.02692101    -0.02686029     1.28394032
20MABNDB000131_PR032
   -0.18797812    -0.03028722    11.00642014
20MABNDB000131_PR034
    0.01447165     0.01640034     3.43337822
20MABNDA000208_PR042
    0.11037338    -0.08822197     9.20121384
20MABNDA000208_PR046
   -0.02362686     0.03491816     1.28207541
20MABNDA000035_PR044
   -0.17940445     0.02699159    11.00802994
20MABNDA000035_PR045
    0.01469116    -0.01908544     3.43483520


*****************************************************************coordonnees du prisme dans le repere ATLAS********************************************************************************** 
20MABNDL000077_PR002 0.00000000
    2.80732369    -3.67341161     6.48597050
    2.78332901    -3.67712641     6.48587990
20MABNDL000077_PR003 0.00000000
    2.77286172    -3.76949382     6.67482471
    2.77148104    -3.75156927     6.67496204
20MABNDL000077_20MABNDM000168 0.00000000
    2.77213407    -3.78921223    -2.68922043
    2.77213478    -3.78922534    -2.68922043
20MABNDL000077_PR024 0.00000000
    2.82848811    -3.68947721    -3.11714697
    2.82850838    -3.68947625    -3.11714649
20MABNDM000020_PR013 0.00000000
   -2.76372600    -3.79224682     6.48532534
   -2.76372600    -3.79224682     6.48532534
20MABNDM000020_PR014 0.00000000
   -2.84674716    -3.67456698     7.43230343
   -2.84680247    -3.67455292     7.43230343
20MABNDM000020_20MABNDL000196 0.00000000
   -2.78943396    -3.77292228    -2.71088052
   -2.78298450    -3.75931764    -2.71088576
20MABNDM000020_PR035 0.00000000
   -2.84718728    -3.68951130    -3.11707664
   -2.84718966    -3.68949938    -3.11707664
20MABNDM000168_PR025 0.00000000
    2.84103870    -3.78383851    -6.47897911
20MABNDM000168_PR026 0.00000000
    2.83906555    -3.68753576    -6.67493868
20MABNDM000168_20MABNDL000077 0.00000000
    2.81496119    -3.75355315     2.69822621
20MABNDM000168_PR001 0.00000000
    2.84037995    -3.68447280     3.12405896
20MABNDL000196_PR036 0.00000000
   -2.84813571    -3.69285393    -6.47909117
20MABNDL000196_PR037 0.00000000
   -2.84066486    -3.78844619    -6.67475653
20MABNDL000196_20MABNDM000020 0.00000000
   -2.81533146    -3.75143409     2.68347335
20MABNDL000196_PR012 0.00000000
   -2.83872223    -3.68301082     3.12404418
20MABNDA000134_PR004 0.00000000
    2.61468506    -4.19698954     3.83386850
20MABNDA000334_PR005 0.00000000
    2.61700916    -4.19703007     5.89779854
20MABNDB000317_PR015 0.00000000
   -2.61216092    -4.19699240     3.83304143
20MABNDB000146_PR016 0.00000000
   -2.61279297    -4.19702053     5.89908600
20MABNDB000135_PR027 0.00000000
    2.60410166    -4.19700480    -3.82634568
20MABNDB000126_PR028 0.00000000
    2.60543561    -4.19701576    -5.89407873
20MABNDA000272_PR038 0.00000000
   -2.61129045    -4.19698286    -3.82767463
20MABNDA000003_PR039 0.00000000
   -2.61621904    -4.19702339    -5.89139700
20MABNDA000196_PR006 0.00000000
    2.58993888    -4.19496870     6.54673767
20MABNDA000324_PR007 0.00000000
    2.60405612    -4.13996267     6.94311094
20MABNDB000001_PR017 0.00000000
   -2.59731364    -4.19499016     6.54789591
20MABNDB000260_PR019 0.00000000
   -2.58228350    -4.14002132     6.97145081
20MABNDB000212_PR029 0.00000000
    2.59847927    -4.19500685    -6.54721355
20MABNDB000128_PR030 0.00000000
    2.58657289    -4.14004183    -6.94619465
20MABNDA000444_PR040 0.00000000
   -2.58912683    -4.19499779    -6.56258154
20MABNDA000053_PR041 0.00000000
   -2.58518815    -4.14003944    -6.94805527
20MABNDA000188_PR008 0.00000000
    3.54951787     3.84898496     8.09023857
20MABNDA000188_PR018 0.00000000
    3.52108145    -4.07059526     7.89875555
20MABNDA000039_PR009 0.00000000
    3.87526083     3.64747429    12.93688488
20MABNDA000039_PR011 0.00000000
    3.66412902    -3.92580581    12.88435936
20MABNDB000155_PR020 0.00000000
   -3.68065786     3.84881830     7.89863682
20MABNDB000155_PR022 0.00000000
   -3.53433084    -4.07043791     7.89033794
20MABNDB000010_PR021 0.00000000
   -3.86200356     3.64768386    12.93539524
20MABNDB000010_PR023 0.00000000
   -3.68543267    -3.92561007    12.88448811
20MABNDB000069_PR031 0.00000000
    3.69177032     3.84800911    -7.77863359
20MABNDB000069_PR033 0.00000000
    3.53337836    -4.07046270    -7.87881088
20MABNDB000131_PR032 0.00000000
    3.86878037     3.64757013   -12.94093037
20MABNDB000131_PR034 0.00000000
    3.67331767    -3.92563844   -12.89154720
20MABNDA000208_PR042 0.00000000
   -3.66039658     3.84884048    -7.99969625
20MABNDA000208_PR046 0.00000000
   -3.53213882    -4.07034683    -7.87360001
20MABNDA000035_PR044 0.00000000
   -3.86864543     3.64758515   -12.93267059
20MABNDA000035_PR045 0.00000000
   -3.67603707    -3.92565203   -12.88729858


*****************************************************************Rapport********************************************************************************** 
CAM-LBA-US_EBA-US-HO-H         2023.06.15.14.54.09     2.79532635    -3.67526901     6.48592520     0.01199734     0.00185740     0.00004530 0.00000000 VRAI 
CAM-LBA-US_JDA-US-H            2023.06.15.14.54.09     2.77217138    -3.76053154     6.67489338     0.00069034     0.00896227     0.00006866 0.00000000 VRAI 
CAM-LBA-US_CAM-LBC-US          2023.06.15.14.54.09     2.77213442    -3.78921878    -2.68922043     0.00000036     0.00000656     0.00000000 0.00000000 VRAI 
CAM-LBA-US_EBC-US-IP-H         2023.06.15.14.54.09     2.82849824    -3.68947673    -3.11714673     0.00001013     0.00000048     0.00000024 0.00000000 VRAI 
CAM-LBA-USA_EBA-USA-HO-H       2023.06.15.14.54.09    -2.76372600    -3.79224682     6.48532534     0.00000000     0.00000000     0.00000000 0.00000000 VRAI 
CAM-LBA-USA_JDA-USA-H          2023.06.15.14.54.09    -2.84677482    -3.67455995     7.43230343     0.00002766     0.00000703     0.00000000 0.00000000 VRAI 
CAM-LBA-USA_CAM-LBC-USA        2023.06.15.14.54.09    -2.78620923    -3.76611996    -2.71088314     0.00322473     0.00680232     0.00000262 0.00000000 VRAI 
CAM-LBA-USA_EBC-USA-IP-H       2023.06.15.14.54.09    -2.84718847    -3.68950534    -3.11707664     0.00000119     0.00000596     0.00000000 0.00000000 VRAI 
CAM-LBC-US_EBC-US-HO-H         2023.06.15.14.54.09     2.84103870    -3.78383851    -6.47897911     0.00000000     0.00000000     0.00000000 0.00000000 VRAI 
CAM-LBC-US_JDC-US-H            2023.06.15.14.54.09     2.83906555    -3.68753576    -6.67493868     0.00000000     0.00000000     0.00000000 0.00000000 VRAI 
CAM-LBC-US_CAM-LBA-US          2023.06.15.14.54.09     2.81496119    -3.75355315     2.69822621     0.00000000     0.00000000     0.00000000 0.00000000 VRAI 
CAM-LBC-US_EBA-US-IP-H         2023.06.15.14.54.09     2.84037995    -3.68447280     3.12405896     0.00000000     0.00000000     0.00000000 0.00000000 VRAI 
CAM-LBC-USA_EBC-USA-HO-H       2023.06.15.14.54.09    -2.84813571    -3.69285393    -6.47909117     0.00000000     0.00000000     0.00000000 0.00000000 VRAI 
CAM-LBC-USA_JDC-USA-H          2023.06.15.14.54.09    -2.84066486    -3.78844619    -6.67475653     0.00000000     0.00000000     0.00000000 0.00000000 VRAI 
CAM-LBC-USA_CAM-LBA-USA        2023.06.15.14.54.09    -2.81533146    -3.75143409     2.68347335     0.00000000     0.00000000     0.00000000 0.00000000 VRAI 
CAM-LBC-USA_EBA-USA-IP-H       2023.06.15.14.54.09    -2.83872223    -3.68301082     3.12404418     0.00000000     0.00000000     0.00000000 0.00000000 VRAI 
CAM-EBA-US-IP_EBA-US-IP        2023.06.15.14.54.09     2.61468506    -4.19698954     3.83386850     0.00000000     0.00000000     0.00000000 0.00000000 VRAI 
CAM-EBA-US-HO_EBA-US-HO        2023.06.15.14.54.09     2.61700916    -4.19703007     5.89779854     0.00000000     0.00000000     0.00000000 0.00000000 VRAI 
CAM-EBA-USA-IP_EBA-USA-IP      2023.06.15.14.54.09    -2.61216092    -4.19699240     3.83304143     0.00000000     0.00000000     0.00000000 0.00000000 VRAI 
CAM-EBA-USA-HO_EBA-USA-HO      2023.06.15.14.54.09    -2.61279297    -4.19702053     5.89908600     0.00000000     0.00000000     0.00000000 0.00000000 VRAI 
CAM-EBC-US-IP_EBC-US-IP        2023.06.15.14.54.09     2.60410166    -4.19700480    -3.82634568     0.00000000     0.00000000     0.00000000 0.00000000 VRAI 
CAM-EBC-US-HO_EBC-US-HO        2023.06.15.14.54.09     2.60543561    -4.19701576    -5.89407873     0.00000000     0.00000000     0.00000000 0.00000000 VRAI 
CAM-EBC-USA-IP_EBC-USA-IP      2023.06.15.14.54.09    -2.61129045    -4.19698286    -3.82767463     0.00000000     0.00000000     0.00000000 0.00000000 VRAI 
CAM-EBC-USA-HO_EBC-USA-HO      2023.06.15.14.54.09    -2.61621904    -4.19702339    -5.89139700     0.00000000     0.00000000     0.00000000 0.00000000 VRAI 
CAM-JDA-US-IP_JDA-US-IP        2023.06.15.14.54.09     2.58993888    -4.19496870     6.54673767     0.00000000     0.00000000     0.00000000 0.00000000 VRAI 
CAM-JDA-US-HO_JDA-US-HO        2023.06.15.14.54.09     2.60405612    -4.13996267     6.94311094     0.00000000     0.00000000     0.00000000 0.00000000 VRAI 
CAM-JDA-USA-IP_JDA-USA-IP      2023.06.15.14.54.09    -2.59731364    -4.19499016     6.54789591     0.00000000     0.00000000     0.00000000 0.00000000 VRAI 
CAM-JDA-USA-HO_JDA-USA-HO      2023.06.15.14.54.09    -2.58228350    -4.14002132     6.97145081     0.00000000     0.00000000     0.00000000 0.00000000 VRAI 
CAM-JDC-US-IP_JDC-US-IP        2023.06.15.14.54.09     2.59847927    -4.19500685    -6.54721355     0.00000000     0.00000000     0.00000000 0.00000000 VRAI 
CAM-JDC-US-HO_JDC-US-HO        2023.06.15.14.54.09     2.58657289    -4.14004183    -6.94619465     0.00000000     0.00000000     0.00000000 0.00000000 VRAI 
CAM-JDC-USA-IP_JDC-USA-IP      2023.06.15.14.54.09    -2.58912683    -4.19499779    -6.56258154     0.00000000     0.00000000     0.00000000 0.00000000 VRAI 
CAM-JDC-USA-HO_JDC-USA-HO      2023.06.15.14.54.09    -2.58518815    -4.14003944    -6.94805527     0.00000000     0.00000000     0.00000000 0.00000000 VRAI 
CAM-ECTA-US-IP_ECTA-US-IP-T    2023.06.15.14.54.09     3.54951787     3.84898496     8.09023857     0.00000000     0.00000000     0.00000000 0.00000000 VRAI 
CAM-ECTA-US-IP_ECTA-US-IP      2023.06.15.14.54.09     3.52108145    -4.07059526     7.89875555     0.00000000     0.00000000     0.00000000 0.00000000 VRAI 
CAM-ECTA-US-HO_ECTA-US-HO-T    2023.06.15.14.54.09     3.87526083     3.64747429    12.93688488     0.00000000     0.00000000     0.00000000 0.00000000 VRAI 
CAM-ECTA-US-HO_ECTA-US-HO      2023.06.15.14.54.09     3.66412902    -3.92580581    12.88435936     0.00000000     0.00000000     0.00000000 0.00000000 VRAI 
CAM-ECTA-USA-IP_ECTA-USA-IP-T  2023.06.15.14.54.09    -3.68065786     3.84881830     7.89863682     0.00000000     0.00000000     0.00000000 0.00000000 VRAI 
CAM-ECTA-USA-IP_ECTA-USA-IP    2023.06.15.14.54.09    -3.53433084    -4.07043791     7.89033794     0.00000000     0.00000000     0.00000000 0.00000000 VRAI 
CAM-ECTA-USA-HO_ECTA-USA-HO-T  2023.06.15.14.54.09    -3.86200356     3.64768386    12.93539524     0.00000000     0.00000000     0.00000000 0.00000000 VRAI 
CAM-ECTA-USA-HO_ECTA-USA-HO    2023.06.15.14.54.09    -3.68543267    -3.92561007    12.88448811     0.00000000     0.00000000     0.00000000 0.00000000 VRAI 
CAM-ECTC-US-IP_ECTC-US-IP-T    2023.06.15.14.54.09     3.69177032     3.84800911    -7.77863359     0.00000000     0.00000000     0.00000000 0.00000000 VRAI 
CAM-ECTC-US-IP_ECTC-US-IP      2023.06.15.14.54.09     3.53337836    -4.07046270    -7.87881088     0.00000000     0.00000000     0.00000000 0.00000000 VRAI 
CAM-ECTC-US-HO_ECTC-US-HO-T    2023.06.15.14.54.09     3.86878037     3.64757013   -12.94093037     0.00000000     0.00000000     0.00000000 0.00000000 VRAI 
CAM-ECTC-US-HO_ECTC-US-HO      2023.06.15.14.54.09     3.67331767    -3.92563844   -12.89154720     0.00000000     0.00000000     0.00000000 0.00000000 VRAI 
CAM-ECTC-USA-IP_ECTC-USA-IP-T  2023.06.15.14.54.09    -3.66039658     3.84884048    -7.99969625     0.00000000     0.00000000     0.00000000 0.00000000 VRAI 
CAM-ECTC-USA-IP_ECTC-USA-IP    2023.06.15.14.54.09    -3.53213882    -4.07034683    -7.87360001     0.00000000     0.00000000     0.00000000 0.00000000 VRAI 
CAM-ECTC-USA-HO_ECTC-USA-HO-T  2023.06.15.14.54.09    -3.86864543     3.64758515   -12.93267059     0.00000000     0.00000000     0.00000000 0.00000000 VRAI 
CAM-ECTC-USA-HO_ECTC-USA-HO    2023.06.15.14.54.09    -3.67603707    -3.92565203   -12.88729858     0.00000000     0.00000000     0.00000000 0.00000000 VRAI 
