********** Fichier qui contient une sauvegarde des coordonnees images + coordonnees images transformees dans le repere BCAM (MOUNT) + coordonnees des prismes dans le repere MOUNT********** 
********************************************************************** Unite en metres (m)************************************************************************************************** 

*******************************************************************coordonnees images dans le repere CCD *********************************************************************************** 
20MABNDL000077_PR002
Spot 1     0.00086500     0.00006500
Spot 2     0.00086500     0.00006500
Spot 1     0.00086500     0.00006500
Spot 2     0.00086500     0.00006500
20MABNDL000077_PR003
Spot 1     0.00235500     0.00028500
Spot 2     0.00235500     0.00028500
Spot 1     0.00322500     0.00004500
Spot 2     0.00235500     0.00028500
20MABNDL000077_20MABNDM000168
Spot 1     0.00175578     0.00118313
Spot 2     0.00075500     0.00010500
Spot 1     0.00175566     0.00118325
Spot 2     0.00075500     0.00010500
20MABNDL000077_PR024
Spot 1     0.00251532     0.00142102
Spot 2     0.00261359     0.00143179
Spot 1     0.00251514     0.00142100
Spot 2     0.00261415     0.00143159
20MABNDM000020_PR013
Spot 1     0.00044500     0.00008500
Spot 2     0.00044500     0.00008500
Spot 1     0.00044500     0.00008500
Spot 2     0.00044500     0.00008500
20MABNDM000020_PR014
Spot 1     0.00265998     0.00168376
Spot 2     0.00249803     0.00168762
Spot 1     0.00266024     0.00168469
Spot 2     0.00249829     0.00168815
20MABNDM000020_20MABNDL000196
Spot 1     0.00197629     0.00117996
Spot 2     0.00268500     0.00028500
Spot 1     0.00197628     0.00118000
Spot 2     0.00230500     0.00010500
20MABNDM000020_PR035
Spot 1     0.00126356     0.00149167
Spot 2     0.00118701     0.00152740
Spot 1     0.00126317     0.00149115
Spot 2     0.00118685     0.00152735
20MABNDM000168_PR025
Spot 1     0.00076250     0.00147425
Spot 2     0.00060505     0.00147887
Spot 1     0.00076252     0.00147421
Spot 2     0.00060527     0.00147890
20MABNDM000168_PR026
Spot 1     0.00266786     0.00142408
Spot 2     0.00250639     0.00142029
20MABNDM000168_20MABNDL000077
Spot 1     0.00154225     0.00129868
Spot 2     0.00175852     0.00130203
20MABNDM000168_PR001
Spot 1     0.00080998     0.00161742
Spot 2     0.00070727     0.00161879
20MABNDL000196_PR036
Spot 1     0.00094491     0.00164987
Spot 2     0.00110986     0.00164847
20MABNDL000196_PR037
Spot 1     0.00283297     0.00146807
Spot 2     0.00299218     0.00147133
20MABNDL000196_20MABNDM000020
Spot 1     0.00192462     0.00103899
Spot 2     0.00170375     0.00104503
20MABNDL000196_PR012
Spot 1     0.00327500     0.00013500
Spot 2     0.00272342     0.00138495
20MABNDA000134_PR004
Spot 1     0.00190775     0.00176083
Spot 2     0.00168917     0.00175375
20MABNDA000334_PR005
Spot 1     0.00248317     0.00157837
Spot 2     0.00220310     0.00157872
20MABNDB000317_PR015
Spot 1     0.00168398     0.00167710
Spot 2     0.00146292     0.00168236
20MABNDB000146_PR016
Spot 1     0.00144627     0.00131426
Spot 2     0.00172279     0.00131616
20MABNDB000135_PR027
Spot 1     0.00188480     0.00089190
Spot 2     0.00210364     0.00089492
20MABNDB000126_PR028
Spot 1     0.00193222     0.00198120
Spot 2    -0.00000100    -0.00000100
20MABNDA000272_PR038
Spot 1     0.00192309     0.00095191
Spot 2     0.00170102     0.00095102
20MABNDA000003_PR039
Spot 1     0.00201511     0.00193103
Spot 2     0.00229360     0.00193156
20MABNDA000196_PR006
Spot 1     0.00138772     0.00067175
Spot 2     0.00175362     0.00067399
20MABNDA000324_PR007
Spot 1     0.00199723     0.00134182
Spot 2     0.00220357     0.00133916
20MABNDB000001_PR017
Spot 1     0.00185753     0.00088636
Spot 2     0.00222755     0.00089085
20MABNDB000260_PR019
Spot 1     0.00206716     0.00145814
Spot 2     0.00227000     0.00145500
20MABNDB000212_PR029
Spot 1     0.00220732     0.00069155
Spot 2     0.00184471     0.00068941
20MABNDB000128_PR030
Spot 1     0.00268574     0.00161630
Spot 2     0.00248773     0.00161906
20MABNDA000444_PR040
Spot 1     0.00179524     0.00069565
Spot 2     0.00325500     0.00223500
20MABNDA000053_PR041
Spot 1     0.00123551     0.00144403
Spot 2     0.00144104     0.00144506
20MABNDA000188_PR008
Spot 1     0.00297500     0.00011500
Spot 2     0.00297500     0.00011500
20MABNDA000188_PR018
Spot 1     0.00170974     0.00167157
Spot 2     0.00124255     0.00166974
20MABNDA000039_PR009
Spot 1     0.00066482     0.00117841
Spot 2     0.00061521     0.00118287
20MABNDA000039_PR011
Spot 1     0.00276957     0.00028149
Spot 2     0.00259283     0.00027628
20MABNDB000155_PR020
Spot 1     0.00061914     0.00112466
Spot 2     0.00068911     0.00112026
20MABNDB000155_PR022
Spot 1     0.00211969     0.00141129
Spot 2     0.00259286     0.00140698
20MABNDB000010_PR021
Spot 1     0.00286647     0.00115108
Spot 2     0.00292451     0.00115424
20MABNDB000010_PR023
Spot 1     0.00131194     0.00030161
Spot 2     0.00148803     0.00029960
20MABNDB000069_PR031
Spot 1     0.00021500     0.00240500
Spot 2     0.00021500     0.00240500
20MABNDB000069_PR033
Spot 1     0.00183030     0.00206602
Spot 2     0.00230113     0.00208603
20MABNDB000131_PR032
Spot 1     0.00277707     0.00108114
Spot 2     0.00283770     0.00108333
20MABNDB000131_PR034
Spot 1     0.00092096     0.00032550
Spot 2     0.00109732     0.00032443
20MABNDA000208_PR042
Spot 1     0.00304500     0.00138500
Spot 2     0.00284500     0.00011500
20MABNDA000208_PR046
Spot 1     0.00143918     0.00222023
Spot 2     0.00096879     0.00222313
20MABNDA000035_PR044
Spot 1     0.00074425     0.00125812
Spot 2     0.00068368     0.00125259
20MABNDA000035_PR045
Spot 1     0.00254784     0.00046768
Spot 2     0.00237008     0.00046646


****************************************************************coordonnees images transformees dans le repere MOUNT************************************************************************* 
20MABNDL000077_PR002
Spot 1     0.01192151     0.03413986    -0.07463200
Spot 2     0.01192151     0.03413986    -0.07463200
Spot 1     0.01192151     0.03413986    -0.07463200
Spot 2     0.01192151     0.03413986    -0.07463200
20MABNDL000077_PR003
Spot 1     0.01341356     0.03434551    -0.07463200
Spot 2     0.01341356     0.03434551    -0.07463200
Spot 1     0.01428121     0.03409715    -0.07463200
Spot 2     0.01341356     0.03434551    -0.07463200
20MABNDL000077_20MABNDM000168
Spot 1    -0.01259091     0.03524613    -0.00695400
Spot 2    -0.01157915     0.03417830    -0.00695400
Spot 1    -0.01259079     0.03524625    -0.00695400
Spot 2    -0.01157915     0.03417830    -0.00695400
20MABNDL000077_PR024
Spot 1    -0.01335285     0.03547623    -0.00695400
Spot 2    -0.01345122     0.03548600    -0.00695400
Spot 1    -0.01335267     0.03547621    -0.00695400
Spot 2    -0.01345178     0.03548579    -0.00695400
20MABNDM000020_PR013
Spot 1    -0.01394554    -0.03407018    -0.00523500
Spot 2    -0.01394554    -0.03407018    -0.00523500
Spot 1    -0.01394554    -0.03407018    -0.00523500
Spot 2    -0.01394554    -0.03407018    -0.00523500
20MABNDM000020_PR014
Spot 1    -0.01169575    -0.03561956    -0.00523500
Spot 2    -0.01185757    -0.03562700    -0.00523500
Spot 1    -0.01169547    -0.03562049    -0.00523500
Spot 2    -0.01185730    -0.03562753    -0.00523500
20MABNDM000020_20MABNDL000196
Spot 1     0.01270999    -0.03514852    -0.07583800
Spot 2     0.01200115    -0.03425366    -0.07583800
Spot 1     0.01271000    -0.03514856    -0.07583800
Spot 2     0.01238113    -0.03407361    -0.07583800
20MABNDM000020_PR035
Spot 1     0.01342276    -0.03546013    -0.07583800
Spot 2     0.01349932    -0.03549585    -0.07583800
Spot 1     0.01342315    -0.03545961    -0.07583800
Spot 2     0.01349948    -0.03549580    -0.07583800
20MABNDM000168_PR025
Spot 1    -0.01363962    -0.03581321    -0.00532900
Spot 2    -0.01379705    -0.03581851    -0.00532900
Spot 1    -0.01363960    -0.03581317    -0.00532900
Spot 2    -0.01379683    -0.03581854    -0.00532900
20MABNDM000168_PR026
Spot 1    -0.01173450    -0.03575486    -0.00532900
Spot 2    -0.01189598    -0.03575176    -0.00532900
20MABNDM000168_20MABNDL000077
Spot 1     0.01288323    -0.03529930    -0.07445100
Spot 2     0.01266694    -0.03529949    -0.07445100
20MABNDM000168_PR001
Spot 1     0.01361076    -0.03562872    -0.07445100
Spot 2     0.01371344    -0.03563159    -0.07445100
20MABNDL000196_PR036
Spot 1     0.01192481     0.03583856    -0.07483600
Spot 2     0.01208977     0.03583751    -0.07483600
20MABNDL000196_PR037
Spot 1     0.01381325     0.03566070    -0.07483600
Spot 2     0.01397245     0.03566430    -0.07483600
20MABNDL000196_20MABNDM000020
Spot 1    -0.01274862     0.03531022    -0.00611000
Spot 2    -0.01252792     0.03532070    -0.00611000
20MABNDL000196_PR012
Spot 1    -0.01408054     0.03437924    -0.00611000
Spot 2    -0.01355422     0.03564004    -0.00611000
20MABNDA000134_PR004
Spot 1    -0.01287848     0.01241201    -0.07608400
Spot 2    -0.01265979     0.01241303    -0.07608400
20MABNDA000334_PR005
Spot 1    -0.01312627     0.01255003    -0.07324100
Spot 2    -0.01284620     0.01254942    -0.07324100
20MABNDB000317_PR015
Spot 1    -0.01247122    -0.01241867    -0.07326100
Spot 2    -0.01269233    -0.01241598    -0.07326100
20MABNDB000146_PR016
Spot 1    -0.01276205    -0.01247935    -0.07450500
Spot 2    -0.01248554    -0.01247684    -0.07450500
20MABNDB000135_PR027
Spot 1    -0.01252014    -0.01322105    -0.07464700
Spot 2    -0.01230128    -0.01322047    -0.07464700
20MABNDB000126_PR028
Spot 1    -0.01224717    -0.01219944    -0.07500400
Spot 2    -0.01416978    -0.01419193    -0.07500400
20MABNDA000272_PR038
Spot 1    -0.01275874     0.01315956    -0.07417900
Spot 2    -0.01253667     0.01316005    -0.07417900
20MABNDA000003_PR039
Spot 1    -0.01281621     0.01212127    -0.07373400
Spot 2    -0.01309470     0.01212145    -0.07373400
20MABNDA000196_PR006
Spot 1    -0.01234174     0.01329878    -0.07967100
Spot 2    -0.01270763     0.01330124    -0.07967100
20MABNDA000324_PR007
Spot 1    -0.01260193     0.01267937    -0.07446800
Spot 2    -0.01280828     0.01268042    -0.07446800
20MABNDB000001_PR017
Spot 1    -0.01232609    -0.01310288    -0.07418400
Spot 2    -0.01195604    -0.01310230    -0.07418400
20MABNDB000260_PR019
Spot 1    -0.01226330    -0.01244143    -0.07492700
Spot 2    -0.01206043    -0.01244041    -0.07492700
20MABNDB000212_PR029
Spot 1    -0.01188062    -0.01328944    -0.07390500
Spot 2    -0.01224324    -0.01328771    -0.07390500
20MABNDB000128_PR030
Spot 1    -0.01166806    -0.01259830    -0.07353400
Spot 2    -0.01186607    -0.01259622    -0.07353400
20MABNDA000444_PR040
Spot 1    -0.01273065     0.01332086    -0.07412000
Spot 2    -0.01417075     0.01176311    -0.07412000
20MABNDA000053_PR041
Spot 1    -0.01198158     0.01265817    -0.07430100
Spot 2    -0.01218709     0.01266116    -0.07430100
20MABNDA000188_PR008
Spot 1    -0.01399107     0.01394961    -0.07502000
Spot 2    -0.01399107     0.01394961    -0.07502000
20MABNDA000188_PR018
Spot 1    -0.01273918     0.01238226    -0.07502000
Spot 2    -0.01227200     0.01238009    -0.07502000
20MABNDA000039_PR009
Spot 1    -0.01162696     0.01306573    -0.07444800
Spot 2    -0.01157737     0.01306105    -0.07444800
20MABNDA000039_PR011
Spot 1    -0.01372781     0.01397175    -0.07444800
Spot 2    -0.01355105     0.01397619    -0.07444800
20MABNDB000155_PR020
Spot 1    -0.01364695    -0.01313272    -0.07501700
Spot 2    -0.01357693    -0.01313616    -0.07501700
20MABNDB000155_PR022
Spot 1    -0.01215046    -0.01282557    -0.07501700
Spot 2    -0.01167728    -0.01282341    -0.07501700
20MABNDB000010_PR021
Spot 1    -0.01158450    -0.01292747    -0.07358200
Spot 2    -0.01152652    -0.01292333    -0.07358200
20MABNDB000010_PR023
Spot 1    -0.01312442    -0.01380315    -0.07358200
Spot 2    -0.01294832    -0.01380218    -0.07358200
20MABNDB000069_PR031
Spot 1    -0.01361993    -0.01186066    -0.07388500
Spot 2    -0.01361993    -0.01186066    -0.07388500
20MABNDB000069_PR033
Spot 1    -0.01201999    -0.01226601    -0.07388500
Spot 2    -0.01154874    -0.01226545    -0.07388500
20MABNDB000131_PR032
Spot 1    -0.01144310    -0.01303361    -0.07533000
Spot 2    -0.01138248    -0.01303112    -0.07533000
20MABNDB000131_PR034
Spot 1    -0.01329538    -0.01379859    -0.07533000
Spot 2    -0.01311902    -0.01379877    -0.07533000
20MABNDA000208_PR042
Spot 1    -0.01391534     0.01261103    -0.07273700
Spot 2    -0.01371645     0.01388121    -0.07273700
20MABNDA000208_PR046
Spot 1    -0.01230879     0.01177721    -0.07273700
Spot 2    -0.01183840     0.01177472    -0.07273700
20MABNDA000035_PR044
Spot 1    -0.01157891     0.01299917    -0.07483200
Spot 2    -0.01151830     0.01300427    -0.07483200
20MABNDA000035_PR045
Spot 1    -0.01337683     0.01380242    -0.07483200
Spot 2    -0.01319906     0.01380237    -0.07483200


*****************************************************************coordonnees du prisme dans le repere MOUNT********************************************************************************** 
20MABNDL000077_PR002
    0.05075517     0.09215411     3.70650077
    0.05075517     0.09215411     3.70650077
20MABNDL000077_PR003
   -0.02476418     0.08434060     3.89557457
   -0.04728059     0.09078228     3.89520741
20MABNDL000077_20MABNDM000168
   -0.05602691     0.07583150    -5.46843529
   -0.05603120     0.07582712    -5.46843529
20MABNDL000077_PR024
    0.04321277     0.01904344    -5.89642859
    0.04322749     0.01905217    -5.89642859
20MABNDM000020_PR013
    0.05274186    -0.08860095    -3.80153990
    0.05274186    -0.08860095    -3.80153990
20MABNDM000020_PR014
   -0.06560075    -0.00534453    -4.74841213
   -0.06561793    -0.00529947    -4.74841166
20MABNDM000020_20MABNDL000196
    0.04044015    -0.06472587     5.39468288
    0.02682622    -0.07117537     5.39469719
20MABNDM000020_PR035
   -0.04265241    -0.00703314     5.80095387
   -0.04267359    -0.00705511     5.80095387
20MABNDM000168_PR025
    0.03849903    -0.01222059    -3.78836775
    0.03849310    -0.01222086    -3.78836775
20MABNDM000168_PR026
   -0.05786903    -0.01421796    -3.98429132
20MABNDM000168_20MABNDL000077
    0.01160413    -0.03891057     5.38884640
20MABNDM000168_PR001
   -0.05725444    -0.01349259     5.81470680
20MABNDL000196_PR036
    0.05141222     0.00545854     3.68776703
20MABNDL000196_PR037
   -0.04403172     0.01291608     3.88352108
20MABNDL000196_20MABNDM000020
   -0.01577686     0.03804244    -5.47473860
20MABNDL000196_PR012
    0.07561588     0.06197274    -5.91504860
20MABNDA000134_PR004
   -0.00832078     0.03811550     2.74966145
20MABNDA000334_PR005
   -0.00398079     0.03147111     2.14977264
20MABNDB000317_PR015
   -0.01645957    -0.03700338     2.75126696
20MABNDB000146_PR016
   -0.01349964    -0.03126273     2.15201735
20MABNDB000135_PR027
   -0.02077818    -0.00899414     2.74937057
20MABNDB000126_PR028
    0.00288894    -0.00976564     2.14690590
20MABNDA000272_PR038
   -0.01324007     0.01082575     2.74965858
20MABNDA000003_PR039
   -0.00551925     0.04137301     2.14891243
20MABNDA000196_PR006
   -0.01549434     0.00879150     1.64206028
20MABNDA000324_PR007
   -0.01524399     0.03286996     2.95548820
20MABNDB000001_PR017
   -0.02361752    -0.01257905     1.64039505
20MABNDB000260_PR019
   -0.03008212    -0.03665404     2.95626068
20MABNDB000212_PR029
   -0.02479861    -0.00824087     1.64224184
20MABNDB000128_PR030
   -0.04229951    -0.03191192     2.95495367
20MABNDA000444_PR040
    0.00441756     0.02572426     1.64491069
20MABNDA000053_PR041
   -0.03533754     0.02984367     2.95464659
20MABNDA000188_PR008
    0.14616936    -0.09611703     9.20304298
20MABNDA000188_PR018
   -0.01597071     0.02471578     1.28359365
20MABNDA000039_PR009
   -0.17119721     0.02538000    11.00701523
20MABNDA000039_PR011
    0.03081949    -0.02457387     3.43347001
20MABNDB000155_PR020
    0.10190165    -0.00828216     9.20028496
20MABNDB000155_PR022
   -0.02572385    -0.01774782     1.28070629
20MABNDB000010_PR021
   -0.17606869    -0.03346278    11.00694847
20MABNDB000010_PR023
    0.00429113     0.02079097     3.43376637
20MABNDB000069_PR031
    0.10999375    -0.16176865     9.20229721
20MABNDB000069_PR033
   -0.02693253    -0.02689071     1.28393984
20MABNDB000131_PR032
   -0.18800849    -0.03020480    11.00641918
20MABNDB000131_PR034
    0.01446682     0.01645387     3.43337798
20MABNDA000208_PR042
    0.12258545    -0.01026462     9.20157051
20MABNDA000208_PR046
   -0.02362269     0.03494729     1.28207493
20MABNDA000035_PR044
   -0.17936052     0.02689692    11.00803185
20MABNDA000035_PR045
    0.01469878    -0.01913616     3.43483448


*****************************************************************coordonnees du prisme dans le repere ATLAS********************************************************************************** 
20MABNDL000077_PR002 0.00000000
    2.76488686    -3.69373894     6.48585176
    2.76488686    -3.69373894     6.48585176
20MABNDL000077_PR003 0.00000000
    2.77286172    -3.76949382     6.67482471
    2.76641250    -3.79200768     6.67443609
20MABNDL000077_20MABNDM000168 0.00000000
    2.77217579    -3.78920603    -2.68922043
    2.77218032    -3.78921032    -2.68922043
20MABNDL000077_PR024 0.00000000
    2.82857585    -3.68945646    -3.11714649
    2.82856703    -3.68944168    -3.11714649
20MABNDM000020_PR013 0.00000000
   -2.76372600    -3.79224682     6.48532534
   -2.76372600    -3.79224682     6.48532534
20MABNDM000020_PR014 0.00000000
   -2.84675646    -3.67459893     7.43230391
   -2.84680152    -3.67458153     7.43230343
20MABNDM000020_20MABNDL000196 0.00000000
   -2.78943753    -3.77294374    -2.71088052
   -2.78298378    -3.75933170    -2.71088576
20MABNDM000020_PR035 0.00000000
   -2.84718609    -3.68952441    -3.11707664
   -2.84716415    -3.68950343    -3.11707664
20MABNDM000168_PR025 0.00000000
    2.84101081    -3.78383040    -6.47897959
    2.84101057    -3.78382444    -6.47897959
20MABNDM000168_PR026 0.00000000
    2.83902717    -3.68753481    -6.67493868
20MABNDM000168_20MABNDL000077 0.00000000
    2.81488490    -3.75351620     2.69822574
20MABNDM000168_PR001 0.00000000
    2.84034705    -3.68450594     3.12405896
20MABNDL000196_PR036 0.00000000
   -2.84814906    -3.69286251    -6.47909069
20MABNDL000196_PR037 0.00000000
   -2.84065127    -3.78848505    -6.67475605
20MABNDL000196_20MABNDM000020 0.00000000
   -2.81533575    -3.75151348     2.68347287
20MABNDL000196_PR012 0.00000000
   -2.79143858    -3.65970016     3.12369728
20MABNDA000134_PR004 0.00000000
    2.61468244    -4.19698954     3.83388305
20MABNDA000334_PR005 0.00000000
    2.61701775    -4.19703007     5.89778996
20MABNDB000317_PR015 0.00000000
   -2.61214781    -4.19699240     3.83301210
20MABNDB000146_PR016 0.00000000
   -2.61279559    -4.19702053     5.89908743
20MABNDB000135_PR027 0.00000000
    2.60408545    -4.19700480    -3.82636666
20MABNDB000126_PR028 0.00000000
    2.62879157    -4.19704485    -5.92246628
20MABNDA000272_PR038 0.00000000
   -2.61129689    -4.19698286    -3.82765865
20MABNDA000003_PR039 0.00000000
   -2.61621189    -4.19702339    -5.89139366
20MABNDA000196_PR006 0.00000000
    2.58995509    -4.19496870     6.54674864
20MABNDA000324_PR007 0.00000000
    2.60407138    -4.13996315     6.94304609
20MABNDB000001_PR017 0.00000000
   -2.59732223    -4.19499016     6.54790735
20MABNDB000260_PR019 0.00000000
   -2.59868026    -4.13996792     6.94399166
20MABNDB000212_PR029 0.00000000
    2.59847641    -4.19500685    -6.54722881
20MABNDB000128_PR030 0.00000000
    2.58656216    -4.14004183    -6.94621372
20MABNDA000444_PR040 0.00000000
   -2.57075763    -4.19510078    -6.56490803
20MABNDA000053_PR041 0.00000000
   -2.58520222    -4.14003944    -6.94806910
20MABNDA000188_PR008 0.00000000
    3.55893064     3.84859109     8.10764503
20MABNDA000188_PR018 0.00000000
    3.52114940    -4.07059431     7.89873600
20MABNDA000039_PR009 0.00000000
    3.87536907     3.64747334    12.93667412
20MABNDA000039_PR011 0.00000000
    3.66420460    -3.92580581    12.88426304
20MABNDB000155_PR020 0.00000000
   -3.68055415     3.84881854     7.89858484
20MABNDB000155_PR022 0.00000000
   -3.53425670    -4.07043839     7.89031124
20MABNDB000010_PR021 0.00000000
   -3.86190605     3.64768577    12.93529224
20MABNDB000010_PR023 0.00000000
   -3.68537569    -3.92561054    12.88448524
20MABNDB000069_PR031 0.00000000
    3.69177032     3.84800911    -7.77863359
20MABNDB000069_PR033 0.00000000
    3.53336692    -4.07046318    -7.87878084
20MABNDB000131_PR032 0.00000000
    3.86881089     3.64756918   -12.94084740
20MABNDB000131_PR034 0.00000000
    3.67332244    -3.92563868   -12.89149380
20MABNDA000208_PR042 0.00000000
   -3.67265010     3.84923434    -7.92174578
20MABNDA000208_PR046 0.00000000
   -3.53214288    -4.07034731    -7.87357092
20MABNDA000035_PR044 0.00000000
   -3.86860156     3.64758706   -12.93257618
20MABNDA000035_PR045 0.00000000
   -3.67602944    -3.92565274   -12.88724804


*****************************************************************Rapport********************************************************************************** 
CAM-LBA-US_EBA-US-HO-H         2023.09.21.00.00.35     2.76488686    -3.69373894     6.48585176     0.00000000     0.00000000     0.00000000 0.00000000 VRAI 
CAM-LBA-US_JDA-US-H            2023.09.21.00.00.35     2.76963711    -3.78075075     6.67463040     0.00322461     0.01125693     0.00019431 0.00000000 VRAI 
CAM-LBA-US_CAM-LBC-US          2023.09.21.00.00.35     2.77217805    -3.78920817    -2.68922043     0.00000226     0.00000215     0.00000000 0.00000000 VRAI 
CAM-LBA-US_EBC-US-IP-H         2023.09.21.00.00.35     2.82857144    -3.68944907    -3.11714649     0.00000441     0.00000739     0.00000000 0.00000000 VRAI 
CAM-LBA-USA_EBA-USA-HO-H       2023.09.21.00.00.35    -2.76372600    -3.79224682     6.48532534     0.00000000     0.00000000     0.00000000 0.00000000 VRAI 
CAM-LBA-USA_JDA-USA-H          2023.09.21.00.00.35    -2.84677899    -3.67459023     7.43230367     0.00002253     0.00000870     0.00000024 0.00000000 VRAI 
CAM-LBA-USA_CAM-LBC-USA        2023.09.21.00.00.35    -2.78621066    -3.76613772    -2.71088314     0.00322688     0.00680602     0.00000262 0.00000000 VRAI 
CAM-LBA-USA_EBC-USA-IP-H       2023.09.21.00.00.35    -2.84717512    -3.68951392    -3.11707664     0.00001097     0.00001049     0.00000000 0.00000000 VRAI 
CAM-LBC-US_EBC-US-HO-H         2023.09.21.00.00.35     2.84101069    -3.78382742    -6.47897959     0.00000012     0.00000298     0.00000000 0.00000000 VRAI 
CAM-LBC-US_JDC-US-H            2023.09.21.00.00.35     2.83902717    -3.68753481    -6.67493868     0.00000000     0.00000000     0.00000000 0.00000000 VRAI 
CAM-LBC-US_CAM-LBA-US          2023.09.21.00.00.35     2.81488490    -3.75351620     2.69822574     0.00000000     0.00000000     0.00000000 0.00000000 VRAI 
CAM-LBC-US_EBA-US-IP-H         2023.09.21.00.00.35     2.84034705    -3.68450594     3.12405896     0.00000000     0.00000000     0.00000000 0.00000000 VRAI 
CAM-LBC-USA_EBC-USA-HO-H       2023.09.21.00.00.35    -2.84814906    -3.69286251    -6.47909069     0.00000000     0.00000000     0.00000000 0.00000000 VRAI 
CAM-LBC-USA_JDC-USA-H          2023.09.21.00.00.35    -2.84065127    -3.78848505    -6.67475605     0.00000000     0.00000000     0.00000000 0.00000000 VRAI 
CAM-LBC-USA_CAM-LBA-USA        2023.09.21.00.00.35    -2.81533575    -3.75151348     2.68347287     0.00000000     0.00000000     0.00000000 0.00000000 VRAI 
CAM-LBC-USA_EBA-USA-IP-H       2023.09.21.00.00.35    -2.79143858    -3.65970016     3.12369728     0.00000000     0.00000000     0.00000000 0.00000000 VRAI 
CAM-EBA-US-IP_EBA-US-IP        2023.09.21.00.00.35     2.61468244    -4.19698954     3.83388305     0.00000000     0.00000000     0.00000000 0.00000000 VRAI 
CAM-EBA-US-HO_EBA-US-HO        2023.09.21.00.00.35     2.61701775    -4.19703007     5.89778996     0.00000000     0.00000000     0.00000000 0.00000000 VRAI 
CAM-EBA-USA-IP_EBA-USA-IP      2023.09.21.00.00.35    -2.61214781    -4.19699240     3.83301210     0.00000000     0.00000000     0.00000000 0.00000000 VRAI 
CAM-EBA-USA-HO_EBA-USA-HO      2023.09.21.00.00.35    -2.61279559    -4.19702053     5.89908743     0.00000000     0.00000000     0.00000000 0.00000000 VRAI 
CAM-EBC-US-IP_EBC-US-IP        2023.09.21.00.00.35     2.60408545    -4.19700480    -3.82636666     0.00000000     0.00000000     0.00000000 0.00000000 VRAI 
CAM-EBC-US-HO_EBC-US-HO        2023.09.21.00.00.35     2.62879157    -4.19704485    -5.92246628     0.00000000     0.00000000     0.00000000 0.00000000 VRAI 
CAM-EBC-USA-IP_EBC-USA-IP      2023.09.21.00.00.35    -2.61129689    -4.19698286    -3.82765865     0.00000000     0.00000000     0.00000000 0.00000000 VRAI 
CAM-EBC-USA-HO_EBC-USA-HO      2023.09.21.00.00.35    -2.61621189    -4.19702339    -5.89139366     0.00000000     0.00000000     0.00000000 0.00000000 VRAI 
CAM-JDA-US-IP_JDA-US-IP        2023.09.21.00.00.35     2.58995509    -4.19496870     6.54674864     0.00000000     0.00000000     0.00000000 0.00000000 VRAI 
CAM-JDA-US-HO_JDA-US-HO        2023.09.21.00.00.35     2.60407138    -4.13996315     6.94304609     0.00000000     0.00000000     0.00000000 0.00000000 VRAI 
CAM-JDA-USA-IP_JDA-USA-IP      2023.09.21.00.00.35    -2.59732223    -4.19499016     6.54790735     0.00000000     0.00000000     0.00000000 0.00000000 VRAI 
CAM-JDA-USA-HO_JDA-USA-HO      2023.09.21.00.00.35    -2.59868026    -4.13996792     6.94399166     0.00000000     0.00000000     0.00000000 0.00000000 VRAI 
CAM-JDC-US-IP_JDC-US-IP        2023.09.21.00.00.35     2.59847641    -4.19500685    -6.54722881     0.00000000     0.00000000     0.00000000 0.00000000 VRAI 
CAM-JDC-US-HO_JDC-US-HO        2023.09.21.00.00.35     2.58656216    -4.14004183    -6.94621372     0.00000000     0.00000000     0.00000000 0.00000000 VRAI 
CAM-JDC-USA-IP_JDC-USA-IP      2023.09.21.00.00.35    -2.57075763    -4.19510078    -6.56490803     0.00000000     0.00000000     0.00000000 0.00000000 VRAI 
CAM-JDC-USA-HO_JDC-USA-HO      2023.09.21.00.00.35    -2.58520222    -4.14003944    -6.94806910     0.00000000     0.00000000     0.00000000 0.00000000 VRAI 
CAM-ECTA-US-IP_ECTA-US-IP-T    2023.09.21.00.00.35     3.55893064     3.84859109     8.10764503     0.00000000     0.00000000     0.00000000 0.00000000 VRAI 
CAM-ECTA-US-IP_ECTA-US-IP      2023.09.21.00.00.35     3.52114940    -4.07059431     7.89873600     0.00000000     0.00000000     0.00000000 0.00000000 VRAI 
CAM-ECTA-US-HO_ECTA-US-HO-T    2023.09.21.00.00.35     3.87536907     3.64747334    12.93667412     0.00000000     0.00000000     0.00000000 0.00000000 VRAI 
CAM-ECTA-US-HO_ECTA-US-HO      2023.09.21.00.00.35     3.66420460    -3.92580581    12.88426304     0.00000000     0.00000000     0.00000000 0.00000000 VRAI 
CAM-ECTA-USA-IP_ECTA-USA-IP-T  2023.09.21.00.00.35    -3.68055415     3.84881854     7.89858484     0.00000000     0.00000000     0.00000000 0.00000000 VRAI 
CAM-ECTA-USA-IP_ECTA-USA-IP    2023.09.21.00.00.35    -3.53425670    -4.07043839     7.89031124     0.00000000     0.00000000     0.00000000 0.00000000 VRAI 
CAM-ECTA-USA-HO_ECTA-USA-HO-T  2023.09.21.00.00.35    -3.86190605     3.64768577    12.93529224     0.00000000     0.00000000     0.00000000 0.00000000 VRAI 
CAM-ECTA-USA-HO_ECTA-USA-HO    2023.09.21.00.00.35    -3.68537569    -3.92561054    12.88448524     0.00000000     0.00000000     0.00000000 0.00000000 VRAI 
CAM-ECTC-US-IP_ECTC-US-IP-T    2023.09.21.00.00.35     3.69177032     3.84800911    -7.77863359     0.00000000     0.00000000     0.00000000 0.00000000 VRAI 
CAM-ECTC-US-IP_ECTC-US-IP      2023.09.21.00.00.35     3.53336692    -4.07046318    -7.87878084     0.00000000     0.00000000     0.00000000 0.00000000 VRAI 
CAM-ECTC-US-HO_ECTC-US-HO-T    2023.09.21.00.00.35     3.86881089     3.64756918   -12.94084740     0.00000000     0.00000000     0.00000000 0.00000000 VRAI 
CAM-ECTC-US-HO_ECTC-US-HO      2023.09.21.00.00.35     3.67332244    -3.92563868   -12.89149380     0.00000000     0.00000000     0.00000000 0.00000000 VRAI 
CAM-ECTC-USA-IP_ECTC-USA-IP-T  2023.09.21.00.00.35    -3.67265010     3.84923434    -7.92174578     0.00000000     0.00000000     0.00000000 0.00000000 VRAI 
CAM-ECTC-USA-IP_ECTC-USA-IP    2023.09.21.00.00.35    -3.53214288    -4.07034731    -7.87357092     0.00000000     0.00000000     0.00000000 0.00000000 VRAI 
CAM-ECTC-USA-HO_ECTC-USA-HO-T  2023.09.21.00.00.35    -3.86860156     3.64758706   -12.93257618     0.00000000     0.00000000     0.00000000 0.00000000 VRAI 
CAM-ECTC-USA-HO_ECTC-USA-HO    2023.09.21.00.00.35    -3.67602944    -3.92565274   -12.88724804     0.00000000     0.00000000     0.00000000 0.00000000 VRAI 
