********** Fichier qui contient une sauvegarde des coordonnees images + coordonnees images transformees dans le repere BCAM (MOUNT) + coordonnees des prismes dans le repere MOUNT********** 
********************************************************************** Unite en metres (m)************************************************************************************************** 

*******************************************************************coordonnees images dans le repere CCD *********************************************************************************** 
20MABNDL000077_PR002
Spot 1     0.00052500     0.00043500
Spot 2     0.00052500     0.00043500
Spot 1     0.00086500     0.00006500
Spot 2     0.00086500     0.00006500
20MABNDL000077_PR003
Spot 1     0.00235500     0.00028500
Spot 2     0.00223500     0.00044500
Spot 1     0.00235500     0.00028500
Spot 2     0.00166500     0.00022500
20MABNDL000077_20MABNDM000168
Spot 1     0.00175549     0.00118421
Spot 2     0.00075500     0.00010500
Spot 1     0.00175543     0.00118433
Spot 2     0.00075500     0.00010500
20MABNDL000077_PR024
Spot 1     0.00251482     0.00142171
Spot 2     0.00261417     0.00143267
Spot 1     0.00251486     0.00142180
Spot 2     0.00261385     0.00143260
20MABNDM000020_PR013
Spot 1     0.00044500     0.00008500
Spot 2     0.00044500     0.00008500
Spot 1     0.00044500     0.00008500
Spot 2     0.00044500     0.00008500
20MABNDM000020_PR014
Spot 1     0.00265969     0.00168586
Spot 2     0.00249827     0.00168872
Spot 1     0.00266037     0.00168387
Spot 2     0.00249850     0.00168859
20MABNDM000020_20MABNDL000196
Spot 1     0.00197683     0.00118011
Spot 2     0.00230500     0.00010500
Spot 1     0.00197687     0.00118011
Spot 2     0.00230500     0.00010500
20MABNDM000020_PR035
Spot 1     0.00126362     0.00149091
Spot 2     0.00118751     0.00152699
Spot 1     0.00126401     0.00149102
Spot 2     0.00118733     0.00152720
20MABNDM000168_PR025
Spot 1     0.00076224     0.00147431
Spot 2     0.00060475     0.00147891
20MABNDM000168_PR026
Spot 1     0.00266759     0.00142435
Spot 2     0.00250630     0.00142004
20MABNDM000168_20MABNDL000077
Spot 1     0.00154223     0.00129766
Spot 2     0.00175850     0.00130126
20MABNDM000168_PR001
Spot 1     0.00080980     0.00161734
Spot 2     0.00070713     0.00161875
20MABNDL000196_PR036
Spot 1     0.00094488     0.00164936
Spot 2     0.00110990     0.00164807
20MABNDL000196_PR037
Spot 1     0.00283277     0.00146841
Spot 2     0.00299219     0.00147110
20MABNDL000196_20MABNDM000020
Spot 1     0.00192463     0.00103908
Spot 2     0.00170349     0.00104530
20MABNDL000196_PR012
Spot 1     0.00327500     0.00013500
Spot 2     0.00272272     0.00138495
20MABNDA000134_PR004
Spot 1     0.00190792     0.00176128
Spot 2     0.00168904     0.00175400
20MABNDA000334_PR005
Spot 1     0.00248324     0.00157816
Spot 2     0.00220291     0.00157853
20MABNDB000317_PR015
Spot 1     0.00146303     0.00168263
Spot 2     0.00168327     0.00167490
20MABNDB000146_PR016
Spot 1     0.00144624     0.00131411
Spot 2     0.00172227     0.00131670
20MABNDB000135_PR027
Spot 1     0.00188443     0.00089200
Spot 2     0.00210382     0.00089500
20MABNDB000126_PR028
Spot 1     0.00193262     0.00198130
Spot 2    -0.00000100    -0.00000100
20MABNDA000272_PR038
Spot 1     0.00192300     0.00095148
Spot 2     0.00170057     0.00095080
20MABNDA000003_PR039
Spot 1     0.00201483     0.00193118
Spot 2     0.00229381     0.00193193
20MABNDA000196_PR006
Spot 1     0.00138750     0.00067158
Spot 2     0.00175352     0.00067384
20MABNDA000324_PR007
Spot 1     0.00199710     0.00134192
Spot 2     0.00220359     0.00133628
20MABNDB000001_PR017
Spot 1     0.00185777     0.00088608
Spot 2     0.00222772     0.00089070
20MABNDB000260_PR019
Spot 1     0.00206735     0.00145855
Spot 2    -0.00000100    -0.00000100
20MABNDB000212_PR029
Spot 1     0.00220762     0.00069146
Spot 2     0.00184486     0.00068886
20MABNDB000128_PR030
Spot 1     0.00268551     0.00161635
Spot 2     0.00248754     0.00161924
20MABNDA000444_PR040
Spot 1     0.00179462     0.00069591
Spot 2    -0.00000100    -0.00000100
20MABNDA000053_PR041
Spot 1     0.00123597     0.00144418
Spot 2     0.00144147     0.00144473
20MABNDA000188_PR008
Spot 1     0.00289500     0.00025500
Spot 2     0.00289500     0.00025500
20MABNDA000188_PR018
Spot 1     0.00170876     0.00167307
Spot 2     0.00124136     0.00167015
20MABNDA000039_PR009
Spot 1     0.00066536     0.00117909
Spot 2     0.00061520     0.00118279
20MABNDA000039_PR011
Spot 1     0.00277048     0.00028176
Spot 2     0.00259340     0.00027631
20MABNDB000155_PR020
Spot 1     0.00061846     0.00112521
Spot 2     0.00068841     0.00112105
20MABNDB000155_PR022
Spot 1     0.00211797     0.00141329
Spot 2     0.00259123     0.00140852
20MABNDB000010_PR021
Spot 1     0.00286667     0.00115163
Spot 2     0.00292507     0.00115497
20MABNDB000010_PR023
Spot 1     0.00131244     0.00030088
Spot 2     0.00148861     0.00029927
20MABNDB000069_PR031
Spot 1     0.00021500     0.00240500
Spot 2     0.00021500     0.00240500
20MABNDB000069_PR033
Spot 1     0.00183080     0.00206750
Spot 2     0.00230139     0.00208748
20MABNDB000131_PR032
Spot 1     0.00277712     0.00108115
Spot 2     0.00283782     0.00108395
20MABNDB000131_PR034
Spot 1     0.00092084     0.00032486
Spot 2     0.00109697     0.00032409
20MABNDA000208_PR042
Spot 1     0.00284500     0.00011500
Spot 2     0.00284500     0.00011500
20MABNDA000208_PR046
Spot 1     0.00144015     0.00222287
Spot 2     0.00096959     0.00222526
20MABNDA000035_PR044
Spot 1     0.00074435     0.00125810
Spot 2     0.00068321     0.00125295
20MABNDA000035_PR045
Spot 1     0.00254777     0.00046687
Spot 2     0.00236980     0.00046559


****************************************************************coordonnees images transformees dans le repere MOUNT************************************************************************* 
20MABNDL000077_PR002
Spot 1     0.01158509     0.03451311    -0.07463200
Spot 2     0.01158509     0.03451311    -0.07463200
Spot 1     0.01192151     0.03413986    -0.07463200
Spot 2     0.01192151     0.03413986    -0.07463200
20MABNDL000077_PR003
Spot 1     0.01341356     0.03434551    -0.07463200
Spot 2     0.01329511     0.03450666    -0.07463200
Spot 1     0.01341356     0.03434551    -0.07463200
Spot 2     0.01272301     0.03429215    -0.07463200
20MABNDL000077_20MABNDM000168
Spot 1    -0.01259063     0.03524721    -0.00695400
Spot 2    -0.01157915     0.03417830    -0.00695400
Spot 1    -0.01259057     0.03524733    -0.00695400
Spot 2    -0.01157915     0.03417830    -0.00695400
20MABNDL000077_PR024
Spot 1    -0.01335235     0.03547693    -0.00695400
Spot 2    -0.01345181     0.03548687    -0.00695400
Spot 1    -0.01335240     0.03547702    -0.00695400
Spot 2    -0.01345149     0.03548680    -0.00695400
20MABNDM000020_PR013
Spot 1    -0.01394554    -0.03407018    -0.00523500
Spot 2    -0.01394554    -0.03407018    -0.00523500
Spot 1    -0.01394554    -0.03407018    -0.00523500
Spot 2    -0.01394554    -0.03407018    -0.00523500
20MABNDM000020_PR014
Spot 1    -0.01169599    -0.03562167    -0.00523500
Spot 2    -0.01185731    -0.03562810    -0.00523500
Spot 1    -0.01169535    -0.03561967    -0.00523500
Spot 2    -0.01185708    -0.03562796    -0.00523500
20MABNDM000020_20MABNDL000196
Spot 1     0.01270945    -0.03514867    -0.07583800
Spot 2     0.01238113    -0.03407361    -0.07583800
Spot 1     0.01270941    -0.03514867    -0.07583800
Spot 2     0.01238113    -0.03407361    -0.07583800
20MABNDM000020_PR035
Spot 1     0.01342270    -0.03545937    -0.07583800
Spot 2     0.01349882    -0.03549544    -0.07583800
Spot 1     0.01342231    -0.03545948    -0.07583800
Spot 2     0.01349900    -0.03549565    -0.07583800
20MABNDM000168_PR025
Spot 1    -0.01363988    -0.03581327    -0.00532900
Spot 2    -0.01379735    -0.03581855    -0.00532900
20MABNDM000168_PR026
Spot 1    -0.01173477    -0.03575513    -0.00532900
Spot 2    -0.01189607    -0.03575151    -0.00532900
20MABNDM000168_20MABNDL000077
Spot 1     0.01288327    -0.03529828    -0.07445100
Spot 2     0.01266697    -0.03529872    -0.07445100
20MABNDM000168_PR001
Spot 1     0.01361094    -0.03562864    -0.07445100
Spot 2     0.01371358    -0.03563156    -0.07445100
20MABNDL000196_PR036
Spot 1     0.01192478     0.03583805    -0.07483600
Spot 2     0.01208981     0.03583711    -0.07483600
20MABNDL000196_PR037
Spot 1     0.01381305     0.03566104    -0.07483600
Spot 2     0.01397246     0.03566407    -0.07483600
20MABNDL000196_20MABNDM000020
Spot 1    -0.01274863     0.03531031    -0.00611000
Spot 2    -0.01252766     0.03532098    -0.00611000
20MABNDL000196_PR012
Spot 1    -0.01408054     0.03437924    -0.00611000
Spot 2    -0.01355352     0.03564005    -0.00611000
20MABNDA000134_PR004
Spot 1    -0.01287866     0.01241157    -0.07608400
Spot 2    -0.01265967     0.01241277    -0.07608400
20MABNDA000334_PR005
Spot 1    -0.01312634     0.01255024    -0.07324100
Spot 2    -0.01284601     0.01254961    -0.07324100
20MABNDB000317_PR015
Spot 1    -0.01269222    -0.01241571    -0.07326100
Spot 2    -0.01247191    -0.01242087    -0.07326100
20MABNDB000146_PR016
Spot 1    -0.01276208    -0.01247950    -0.07450500
Spot 2    -0.01248606    -0.01247630    -0.07450500
20MABNDB000135_PR027
Spot 1    -0.01252051    -0.01322095    -0.07464700
Spot 2    -0.01230110    -0.01322039    -0.07464700
20MABNDB000126_PR028
Spot 1    -0.01224677    -0.01219933    -0.07500400
Spot 2    -0.01416978    -0.01419193    -0.07500400
20MABNDA000272_PR038
Spot 1    -0.01275865     0.01315999    -0.07417900
Spot 2    -0.01253622     0.01316027    -0.07417900
20MABNDA000003_PR039
Spot 1    -0.01281593     0.01212112    -0.07373400
Spot 2    -0.01309491     0.01212108    -0.07373400
20MABNDA000196_PR006
Spot 1    -0.01234151     0.01329895    -0.07967100
Spot 2    -0.01270753     0.01330139    -0.07967100
20MABNDA000324_PR007
Spot 1    -0.01260180     0.01267927    -0.07446800
Spot 2    -0.01280833     0.01268330    -0.07446800
20MABNDB000001_PR017
Spot 1    -0.01232585    -0.01310316    -0.07418400
Spot 2    -0.01195588    -0.01310246    -0.07418400
20MABNDB000260_PR019
Spot 1    -0.01226312    -0.01244101    -0.07492700
Spot 2    -0.01430111    -0.01394266    -0.07492700
20MABNDB000212_PR029
Spot 1    -0.01188033    -0.01328953    -0.07390500
Spot 2    -0.01224309    -0.01328826    -0.07390500
20MABNDB000128_PR030
Spot 1    -0.01166829    -0.01259825    -0.07353400
Spot 2    -0.01186626    -0.01259604    -0.07353400
20MABNDA000444_PR040
Spot 1    -0.01273002     0.01332061    -0.07412000
Spot 2    -0.01094339     0.01404026    -0.07412000
20MABNDA000053_PR041
Spot 1    -0.01198204     0.01265803    -0.07430100
Spot 2    -0.01218751     0.01266150    -0.07430100
20MABNDA000188_PR008
Spot 1    -0.01391227     0.01380893    -0.07502000
Spot 2    -0.01391227     0.01380893    -0.07502000
20MABNDA000188_PR018
Spot 1    -0.01273822     0.01238076    -0.07502000
Spot 2    -0.01227081     0.01237967    -0.07502000
20MABNDA000039_PR009
Spot 1    -0.01162751     0.01306505    -0.07444800
Spot 2    -0.01157736     0.01306113    -0.07444800
20MABNDA000039_PR011
Spot 1    -0.01372872     0.01397148    -0.07444800
Spot 2    -0.01355162     0.01397616    -0.07444800
20MABNDB000155_PR020
Spot 1    -0.01364764    -0.01313218    -0.07501700
Spot 2    -0.01357764    -0.01313538    -0.07501700
20MABNDB000155_PR022
Spot 1    -0.01215221    -0.01282360    -0.07501700
Spot 2    -0.01167893    -0.01282189    -0.07501700
20MABNDB000010_PR021
Spot 1    -0.01158431    -0.01292692    -0.07358200
Spot 2    -0.01152598    -0.01292259    -0.07358200
20MABNDB000010_PR023
Spot 1    -0.01312391    -0.01380387    -0.07358200
Spot 2    -0.01294774    -0.01380250    -0.07358200
20MABNDB000069_PR031
Spot 1    -0.01361993    -0.01186066    -0.07388500
Spot 2    -0.01361993    -0.01186066    -0.07388500
20MABNDB000069_PR033
Spot 1    -0.01201943    -0.01226456    -0.07388500
Spot 2    -0.01154842    -0.01226401    -0.07388500
20MABNDB000131_PR032
Spot 1    -0.01144305    -0.01303360    -0.07533000
Spot 2    -0.01138236    -0.01303050    -0.07533000
20MABNDB000131_PR034
Spot 1    -0.01329550    -0.01379923    -0.07533000
Spot 2    -0.01311936    -0.01379911    -0.07533000
20MABNDA000208_PR042
Spot 1    -0.01371645     0.01388121    -0.07273700
Spot 2    -0.01371645     0.01388121    -0.07273700
20MABNDA000208_PR046
Spot 1    -0.01230976     0.01177457    -0.07273700
Spot 2    -0.01183919     0.01177259    -0.07273700
20MABNDA000035_PR044
Spot 1    -0.01157901     0.01299919    -0.07483200
Spot 2    -0.01151783     0.01300390    -0.07483200
20MABNDA000035_PR045
Spot 1    -0.01337675     0.01380323    -0.07483200
Spot 2    -0.01319878     0.01380324    -0.07483200


*****************************************************************coordonnees du prisme dans le repere MOUNT********************************************************************************** 
20MABNDL000077_PR002
    0.06737348     0.07371713     3.70652628
    0.05075517     0.09215411     3.70650077
20MABNDL000077_PR003
   -0.02168997     0.08015837     3.89565229
   -0.00683934     0.08572713     3.89568853
20MABNDL000077_20MABNDM000168
   -0.05603699     0.07579239    -5.46843529
   -0.05603911     0.07578804    -5.46843529
20MABNDL000077_PR024
    0.04321650     0.01898228    -5.89642811
    0.04320560     0.01898138    -5.89642859
20MABNDM000020_PR013
    0.05274186    -0.08860095    -3.80153990
    0.05274186    -0.08860095    -3.80153990
20MABNDM000020_PR014
   -0.06560138    -0.00524493    -4.74841118
   -0.06562825    -0.00531154    -4.74841166
20MABNDM000020_20MABNDL000196
    0.02684593    -0.07117142     5.39469719
    0.02684736    -0.07117142     5.39469719
20MABNDM000020_PR035
   -0.04263083    -0.00707822     5.80095387
   -0.04262275    -0.00706589     5.80095387
20MABNDM000168_PR025
    0.03851286    -0.01221806    -3.78836727
20MABNDM000168_PR026
   -0.05785967    -0.01421740    -3.98429179
20MABNDM000168_20MABNDL000077
    0.01160175    -0.03897484     5.38884640
20MABNDM000168_PR001
   -0.05726691    -0.01349706     5.81470680
20MABNDL000196_PR036
    0.05141193     0.00548087     3.68776751
20MABNDL000196_PR037
   -0.04402680     0.01291325     3.88352108
20MABNDL000196_20MABNDM000020
   -0.01578558     0.03802933    -5.47473860
20MABNDL000196_PR012
    0.07558869     0.06197219    -5.91504860
20MABNDA000134_PR004
   -0.00831970     0.03812829     2.74966145
20MABNDA000334_PR005
   -0.00398251     0.03146540     2.14977264
20MABNDB000317_PR015
   -0.01644909    -0.03696812     2.75126743
20MABNDB000146_PR016
   -0.01349172    -0.03126832     2.15201712
20MABNDB000135_PR027
   -0.02077473    -0.00899747     2.74937057
20MABNDB000126_PR028
    0.00288324    -0.00976710     2.14690590
20MABNDA000272_PR038
   -0.01324998     0.01081386     2.74965858
20MABNDA000003_PR039
   -0.00552023     0.04138044     2.14891243
20MABNDA000196_PR006
   -0.01549789     0.00878805     1.64206028
20MABNDA000324_PR007
   -0.01524573     0.03281524     2.95548868
20MABNDB000001_PR017
   -0.02362195    -0.01257430     1.64039493
20MABNDB000260_PR019
    0.01403835    -0.00707935     2.95627952
20MABNDB000212_PR029
   -0.02480347    -0.00823380     1.64224184
20MABNDB000128_PR030
   -0.04229124    -0.03191642     2.95495367
20MABNDA000444_PR040
   -0.03093753     0.00078616     1.64489985
20MABNDA000053_PR041
   -0.03532015     0.02983979     2.95464683
20MABNDA000188_PR008
    0.13650158    -0.07885031     9.20339394
20MABNDA000188_PR018
   -0.01598914     0.02473229     1.28359342
20MABNDA000039_PR009
   -0.17115828     0.02542371    11.00701618
20MABNDA000039_PR011
    0.03085326    -0.02456717     3.43346930
20MABNDB000155_PR020
    0.10198748    -0.00836326     9.20028496
20MABNDB000155_PR022
   -0.02569482    -0.01777768     1.28070652
20MABNDB000010_PR021
   -0.17612295    -0.03355781    11.00694752
20MABNDB000010_PR023
    0.00426596     0.02081485     3.43376637
20MABNDB000069_PR031
    0.10999375    -0.16176865     9.20229721
20MABNDB000069_PR033
   -0.02694006    -0.02691547     1.28393948
20MABNDB000131_PR032
   -0.18802068    -0.03025090    11.00641918
20MABNDB000131_PR034
    0.01447741     0.01647626     3.43337750
20MABNDA000208_PR042
    0.11037338    -0.08822197     9.20121384
20MABNDA000208_PR046
   -0.02360760     0.03498805     1.28207445
20MABNDA000035_PR044
   -0.17938739     0.02692198    11.00802994
20MABNDA000035_PR045
    0.01469053    -0.01917444     3.43483448


*****************************************************************coordonnees du prisme dans le repere ATLAS********************************************************************************** 
20MABNDL000077_PR002 0.00000000
    2.78332901    -3.67712641     6.48587990
    2.76488686    -3.69373894     6.48585176
20MABNDL000077_PR003 0.00000000
    2.77704501    -3.76642108     6.67490196
    2.77148104    -3.75156879     6.67496204
20MABNDL000077_20MABNDM000168 0.00000000
    2.77221489    -3.78921604    -2.68922043
    2.77221942    -3.78921819    -2.68922043
20MABNDL000077_PR024 0.00000000
    2.82863688    -3.68945265    -3.11714602
    2.82863784    -3.68946362    -3.11714649
20MABNDM000020_PR013 0.00000000
   -2.76372600    -3.79224682     6.48532534
   -2.76372600    -3.79224682     6.48532534
20MABNDM000020_PR014 0.00000000
   -2.84685612    -3.67459822     7.43230295
   -2.84678960    -3.67457128     7.43230343
20MABNDM000020_20MABNDL000196 0.00000000
   -2.78298783    -3.75935149    -2.71088576
   -2.78298783    -3.75935292    -2.71088576
20MABNDM000020_PR035 0.00000000
   -2.84714103    -3.68954611    -3.11707664
   -2.84715343    -3.68955421    -3.11707664
20MABNDM000168_PR025 0.00000000
    2.84101343    -3.78384423    -6.47897911
20MABNDM000168_PR026 0.00000000
    2.83902764    -3.68754411    -6.67493916
20MABNDM000168_20MABNDL000077 0.00000000
    2.81482077    -3.75351381     2.69822574
20MABNDM000168_PR001 0.00000000
    2.84034252    -3.68449354     3.12405896
20MABNDL000196_PR036 0.00000000
   -2.84812665    -3.69286275    -6.47909117
20MABNDL000196_PR037 0.00000000
   -2.84065413    -3.78848004    -6.67475605
20MABNDL000196_20MABNDM000020 0.00000000
   -2.81534886    -3.75152206     2.68347287
20MABNDL000196_PR012 0.00000000
   -2.79143906    -3.65972733     3.12369728
20MABNDA000134_PR004 0.00000000
    2.61468363    -4.19698954     3.83387041
20MABNDA000334_PR005 0.00000000
    2.61701608    -4.19703007     5.89779568
20MABNDB000317_PR015 0.00000000
   -2.61215830    -4.19699240     3.83304739
20MABNDB000146_PR016 0.00000000
   -2.61280346    -4.19702053     5.89908171
20MABNDB000135_PR027 0.00000000
    2.60408878    -4.19700480    -3.82636333
20MABNDB000126_PR028 0.00000000
    2.62878585    -4.19704485    -5.92246485
20MABNDA000272_PR038 0.00000000
   -2.61128688    -4.19698286    -3.82767057
20MABNDA000003_PR039 0.00000000
   -2.61621094    -4.19702339    -5.89138651
20MABNDA000196_PR006 0.00000000
    2.58995843    -4.19496870     6.54674530
20MABNDA000324_PR007 0.00000000
    2.60406971    -4.13996267     6.94310093
20MABNDB000001_PR017 0.00000000
   -2.59732652    -4.19499016     6.54790258
20MABNDB000260_PR019 0.00000000
   -2.64281082    -4.14002609     6.97355175
20MABNDB000212_PR029 0.00000000
    2.59848118    -4.19500685    -6.54722166
20MABNDB000128_PR030 0.00000000
    2.58657050    -4.14004183    -6.94620943
20MABNDA000444_PR040 0.00000000
   -2.60611010    -4.19510984    -6.53996611
20MABNDA000053_PR041 0.00000000
   -2.58521962    -4.14003897    -6.94807291
20MABNDA000188_PR008 0.00000000
    3.54951787     3.84898496     8.09023857
20MABNDA000188_PR018 0.00000000
    3.52113128    -4.07059431     7.89871931
20MABNDA000039_PR009 0.00000000
    3.87533021     3.64747429    12.93671799
20MABNDA000039_PR011 0.00000000
    3.66417074    -3.92580652    12.88426971
20MABNDB000155_PR020 0.00000000
   -3.68063998     3.84881830     7.89850378
20MABNDB000155_PR022 0.00000000
   -3.53428555    -4.07043839     7.89028168
20MABNDB000010_PR021 0.00000000
   -3.86196041     3.64768481    12.93538761
20MABNDB000010_PR023 0.00000000
   -3.68540096    -3.92561054    12.88446140
20MABNDB000069_PR031 0.00000000
    3.69177032     3.84800911    -7.77863359
20MABNDB000069_PR033 0.00000000
    3.53335929    -4.07046366    -7.87875605
20MABNDB000131_PR032 0.00000000
    3.86882305     3.64756918   -12.94089413
20MABNDB000131_PR034 0.00000000
    3.67331195    -3.92563915   -12.89147091
20MABNDA000208_PR042 0.00000000
   -3.66039658     3.84884048    -7.99969625
20MABNDA000208_PR046 0.00000000
   -3.53215814    -4.07034779    -7.87353039
20MABNDA000035_PR044 0.00000000
   -3.86862850     3.64758515   -12.93260098
20MABNDA000035_PR045 0.00000000
   -3.67603779    -3.92565274   -12.88720989


*****************************************************************Rapport********************************************************************************** 
CAM-LBA-US_EBA-US-HO-H         2023.08.27.12.00.00     2.77410793    -3.68543267     6.48586583     0.00922108     0.00830626     0.00001407 0.00000000 VRAI 
CAM-LBA-US_JDA-US-H            2023.08.27.12.00.00     2.77426302    -3.75899494     6.67493200     0.00278199     0.00742614     0.00003004 0.00000000 VRAI 
CAM-LBA-US_CAM-LBC-US          2023.08.27.12.00.00     2.77221715    -3.78921711    -2.68922043     0.00000226     0.00000107     0.00000000 0.00000000 VRAI 
CAM-LBA-US_EBC-US-IP-H         2023.08.27.12.00.00     2.82863736    -3.68945813    -3.11714625     0.00000048     0.00000548     0.00000024 0.00000000 VRAI 
CAM-LBA-USA_EBA-USA-HO-H       2023.08.27.12.00.00    -2.76372600    -3.79224682     6.48532534     0.00000000     0.00000000     0.00000000 0.00000000 VRAI 
CAM-LBA-USA_JDA-USA-H          2023.08.27.12.00.00    -2.84682286    -3.67458475     7.43230319     0.00003326     0.00001347     0.00000024 0.00000000 VRAI 
CAM-LBA-USA_CAM-LBC-USA        2023.08.27.12.00.00    -2.78298783    -3.75935221    -2.71088576     0.00000000     0.00000072     0.00000000 0.00000000 VRAI 
CAM-LBA-USA_EBC-USA-IP-H       2023.08.27.12.00.00    -2.84714723    -3.68955016    -3.11707664     0.00000620     0.00000405     0.00000000 0.00000000 VRAI 
CAM-LBC-US_EBC-US-HO-H         2023.08.27.12.00.00     2.84101343    -3.78384423    -6.47897911     0.00000000     0.00000000     0.00000000 0.00000000 VRAI 
CAM-LBC-US_JDC-US-H            2023.08.27.12.00.00     2.83902764    -3.68754411    -6.67493916     0.00000000     0.00000000     0.00000000 0.00000000 VRAI 
CAM-LBC-US_CAM-LBA-US          2023.08.27.12.00.00     2.81482077    -3.75351381     2.69822574     0.00000000     0.00000000     0.00000000 0.00000000 VRAI 
CAM-LBC-US_EBA-US-IP-H         2023.08.27.12.00.00     2.84034252    -3.68449354     3.12405896     0.00000000     0.00000000     0.00000000 0.00000000 VRAI 
CAM-LBC-USA_EBC-USA-HO-H       2023.08.27.12.00.00    -2.84812665    -3.69286275    -6.47909117     0.00000000     0.00000000     0.00000000 0.00000000 VRAI 
CAM-LBC-USA_JDC-USA-H          2023.08.27.12.00.00    -2.84065413    -3.78848004    -6.67475605     0.00000000     0.00000000     0.00000000 0.00000000 VRAI 
CAM-LBC-USA_CAM-LBA-USA        2023.08.27.12.00.00    -2.81534886    -3.75152206     2.68347287     0.00000000     0.00000000     0.00000000 0.00000000 VRAI 
CAM-LBC-USA_EBA-USA-IP-H       2023.08.27.12.00.00    -2.79143906    -3.65972733     3.12369728     0.00000000     0.00000000     0.00000000 0.00000000 VRAI 
CAM-EBA-US-IP_EBA-US-IP        2023.08.27.12.00.00     2.61468363    -4.19698954     3.83387041     0.00000000     0.00000000     0.00000000 0.00000000 VRAI 
CAM-EBA-US-HO_EBA-US-HO        2023.08.27.12.00.00     2.61701608    -4.19703007     5.89779568     0.00000000     0.00000000     0.00000000 0.00000000 VRAI 
CAM-EBA-USA-IP_EBA-USA-IP      2023.08.27.12.00.00    -2.61215830    -4.19699240     3.83304739     0.00000000     0.00000000     0.00000000 0.00000000 VRAI 
CAM-EBA-USA-HO_EBA-USA-HO      2023.08.27.12.00.00    -2.61280346    -4.19702053     5.89908171     0.00000000     0.00000000     0.00000000 0.00000000 VRAI 
CAM-EBC-US-IP_EBC-US-IP        2023.08.27.12.00.00     2.60408878    -4.19700480    -3.82636333     0.00000000     0.00000000     0.00000000 0.00000000 VRAI 
CAM-EBC-US-HO_EBC-US-HO        2023.08.27.12.00.00     2.62878585    -4.19704485    -5.92246485     0.00000000     0.00000000     0.00000000 0.00000000 VRAI 
CAM-EBC-USA-IP_EBC-USA-IP      2023.08.27.12.00.00    -2.61128688    -4.19698286    -3.82767057     0.00000000     0.00000000     0.00000000 0.00000000 VRAI 
CAM-EBC-USA-HO_EBC-USA-HO      2023.08.27.12.00.00    -2.61621094    -4.19702339    -5.89138651     0.00000000     0.00000000     0.00000000 0.00000000 VRAI 
CAM-JDA-US-IP_JDA-US-IP        2023.08.27.12.00.00     2.58995843    -4.19496870     6.54674530     0.00000000     0.00000000     0.00000000 0.00000000 VRAI 
CAM-JDA-US-HO_JDA-US-HO        2023.08.27.12.00.00     2.60406971    -4.13996267     6.94310093     0.00000000     0.00000000     0.00000000 0.00000000 VRAI 
CAM-JDA-USA-IP_JDA-USA-IP      2023.08.27.12.00.00    -2.59732652    -4.19499016     6.54790258     0.00000000     0.00000000     0.00000000 0.00000000 VRAI 
CAM-JDA-USA-HO_JDA-USA-HO      2023.08.27.12.00.00    -2.64281082    -4.14002609     6.97355175     0.00000000     0.00000000     0.00000000 0.00000000 VRAI 
CAM-JDC-US-IP_JDC-US-IP        2023.08.27.12.00.00     2.59848118    -4.19500685    -6.54722166     0.00000000     0.00000000     0.00000000 0.00000000 VRAI 
CAM-JDC-US-HO_JDC-US-HO        2023.08.27.12.00.00     2.58657050    -4.14004183    -6.94620943     0.00000000     0.00000000     0.00000000 0.00000000 VRAI 
CAM-JDC-USA-IP_JDC-USA-IP      2023.08.27.12.00.00    -2.60611010    -4.19510984    -6.53996611     0.00000000     0.00000000     0.00000000 0.00000000 VRAI 
CAM-JDC-USA-HO_JDC-USA-HO      2023.08.27.12.00.00    -2.58521962    -4.14003897    -6.94807291     0.00000000     0.00000000     0.00000000 0.00000000 VRAI 
CAM-ECTA-US-IP_ECTA-US-IP-T    2023.08.27.12.00.00     3.54951787     3.84898496     8.09023857     0.00000000     0.00000000     0.00000000 0.00000000 VRAI 
CAM-ECTA-US-IP_ECTA-US-IP      2023.08.27.12.00.00     3.52113128    -4.07059431     7.89871931     0.00000000     0.00000000     0.00000000 0.00000000 VRAI 
CAM-ECTA-US-HO_ECTA-US-HO-T    2023.08.27.12.00.00     3.87533021     3.64747429    12.93671799     0.00000000     0.00000000     0.00000000 0.00000000 VRAI 
CAM-ECTA-US-HO_ECTA-US-HO      2023.08.27.12.00.00     3.66417074    -3.92580652    12.88426971     0.00000000     0.00000000     0.00000000 0.00000000 VRAI 
CAM-ECTA-USA-IP_ECTA-USA-IP-T  2023.08.27.12.00.00    -3.68063998     3.84881830     7.89850378     0.00000000     0.00000000     0.00000000 0.00000000 VRAI 
CAM-ECTA-USA-IP_ECTA-USA-IP    2023.08.27.12.00.00    -3.53428555    -4.07043839     7.89028168     0.00000000     0.00000000     0.00000000 0.00000000 VRAI 
CAM-ECTA-USA-HO_ECTA-USA-HO-T  2023.08.27.12.00.00    -3.86196041     3.64768481    12.93538761     0.00000000     0.00000000     0.00000000 0.00000000 VRAI 
CAM-ECTA-USA-HO_ECTA-USA-HO    2023.08.27.12.00.00    -3.68540096    -3.92561054    12.88446140     0.00000000     0.00000000     0.00000000 0.00000000 VRAI 
CAM-ECTC-US-IP_ECTC-US-IP-T    2023.08.27.12.00.00     3.69177032     3.84800911    -7.77863359     0.00000000     0.00000000     0.00000000 0.00000000 VRAI 
CAM-ECTC-US-IP_ECTC-US-IP      2023.08.27.12.00.00     3.53335929    -4.07046366    -7.87875605     0.00000000     0.00000000     0.00000000 0.00000000 VRAI 
CAM-ECTC-US-HO_ECTC-US-HO-T    2023.08.27.12.00.00     3.86882305     3.64756918   -12.94089413     0.00000000     0.00000000     0.00000000 0.00000000 VRAI 
CAM-ECTC-US-HO_ECTC-US-HO      2023.08.27.12.00.00     3.67331195    -3.92563915   -12.89147091     0.00000000     0.00000000     0.00000000 0.00000000 VRAI 
CAM-ECTC-USA-IP_ECTC-USA-IP-T  2023.08.27.12.00.00    -3.66039658     3.84884048    -7.99969625     0.00000000     0.00000000     0.00000000 0.00000000 VRAI 
CAM-ECTC-USA-IP_ECTC-USA-IP    2023.08.27.12.00.00    -3.53215814    -4.07034779    -7.87353039     0.00000000     0.00000000     0.00000000 0.00000000 VRAI 
CAM-ECTC-USA-HO_ECTC-USA-HO-T  2023.08.27.12.00.00    -3.86862850     3.64758515   -12.93260098     0.00000000     0.00000000     0.00000000 0.00000000 VRAI 
CAM-ECTC-USA-HO_ECTC-USA-HO    2023.08.27.12.00.00    -3.67603779    -3.92565274   -12.88720989     0.00000000     0.00000000     0.00000000 0.00000000 VRAI 
