********** Fichier qui contient une sauvegarde des coordonnees images + coordonnees images transformees dans le repere BCAM (MOUNT) + coordonnees des prismes dans le repere MOUNT********** 
********************************************************************** Unite en metres (m)************************************************************************************************** 

*******************************************************************coordonnees images dans le repere CCD *********************************************************************************** 
20MABNDL000077_PR002
Spot 1     0.00025500     0.00081500
Spot 2     0.00025500     0.00081500
Spot 1     0.00052500     0.00043500
Spot 2     0.00052500     0.00043500
20MABNDL000077_PR003
Spot 1     0.00235500     0.00028500
Spot 2     0.00235500     0.00028500
Spot 1     0.00235500     0.00028500
Spot 2     0.00235500     0.00028500
20MABNDL000077_20MABNDM000168
Spot 1     0.00175552     0.00118240
Spot 2     0.00158467     0.00117200
Spot 1     0.00175594     0.00118254
Spot 2     0.00158441     0.00117088
20MABNDL000077_PR024
Spot 1     0.00251487     0.00141979
Spot 2     0.00261392     0.00143129
Spot 1     0.00251470     0.00141988
Spot 2     0.00261369     0.00143161
20MABNDM000020_PR013
Spot 1     0.00044500     0.00008500
Spot 2     0.00044500     0.00008500
Spot 1     0.00044500     0.00008500
Spot 2     0.00044500     0.00008500
20MABNDM000020_PR014
Spot 1     0.00266025     0.00168477
Spot 2     0.00249808     0.00168831
Spot 1     0.00265998     0.00168533
Spot 2     0.00249745     0.00168853
20MABNDM000020_20MABNDL000196
Spot 1     0.00197711     0.00117998
Spot 2     0.00218743     0.00122824
Spot 1     0.00197720     0.00118006
Spot 2     0.00328500     0.00172500
20MABNDM000020_PR035
Spot 1     0.00126475     0.00149110
Spot 2     0.00118763     0.00152708
Spot 1     0.00126488     0.00149082
Spot 2     0.00118769     0.00152701
20MABNDM000168_PR025
Spot 1     0.00076236     0.00147495
Spot 2     0.00060460     0.00148007
Spot 1     0.00076227     0.00147500
Spot 2     0.00060455     0.00147962
20MABNDM000168_PR026
Spot 1     0.00266809     0.00142527
Spot 2     0.00250584     0.00142105
20MABNDM000168_20MABNDL000077
Spot 1     0.00154178     0.00129720
Spot 2     0.00175863     0.00130303
20MABNDM000168_PR001
Spot 1     0.00080912     0.00161729
Spot 2     0.00070631     0.00161854
20MABNDL000196_PR036
Spot 1     0.00094463     0.00164964
Spot 2     0.00111035     0.00164800
20MABNDL000196_PR037
Spot 1     0.00283213     0.00146842
Spot 2     0.00299141     0.00147113
20MABNDL000196_20MABNDM000020
Spot 1     0.00192480     0.00103910
Spot 2     0.00170345     0.00104523
20MABNDL000196_PR012
Spot 1     0.00327500     0.00013500
Spot 2     0.00272328     0.00138510
20MABNDA000134_PR004
Spot 1     0.00190801     0.00176127
Spot 2     0.00168876     0.00175415
20MABNDA000334_PR005
Spot 1     0.00248329     0.00157814
Spot 2     0.00220268     0.00157831
20MABNDB000317_PR015
Spot 1     0.00146282     0.00168247
Spot 2     0.00168382     0.00167694
20MABNDB000146_PR016
Spot 1     0.00144669     0.00131477
Spot 2     0.00172217     0.00131611
20MABNDB000135_PR027
Spot 1     0.00188460     0.00089201
Spot 2     0.00210369     0.00089529
20MABNDB000126_PR028
Spot 1     0.00193287     0.00198195
Spot 2     0.00164924     0.00198125
20MABNDA000272_PR038
Spot 1     0.00192276     0.00095086
Spot 2     0.00170104     0.00095093
20MABNDA000003_PR039
Spot 1     0.00201503     0.00193084
Spot 2     0.00229383     0.00193177
20MABNDA000196_PR006
Spot 1     0.00175424     0.00067225
Spot 2     0.00138746     0.00066993
20MABNDA000324_PR007
Spot 1     0.00199699     0.00134199
Spot 2     0.00220333     0.00133740
20MABNDB000001_PR017
Spot 1     0.00185764     0.00088621
Spot 2     0.00222776     0.00089014
20MABNDB000260_PR019
Spot 1     0.00206613     0.00145762
Spot 2     0.00227100     0.00145700
20MABNDB000212_PR029
Spot 1     0.00220773     0.00069129
Spot 2     0.00184425     0.00068925
20MABNDB000128_PR030
Spot 1     0.00268597     0.00161685
Spot 2     0.00248749     0.00161931
20MABNDA000444_PR040
Spot 1     0.00179517     0.00069432
Spot 2    -0.00000100    -0.00000100
20MABNDA000053_PR041
Spot 1     0.00123510     0.00144437
Spot 2     0.00144088     0.00144534
20MABNDA000188_PR008
Spot 1     0.00297500     0.00011500
Spot 2     0.00297500     0.00011500
20MABNDA000188_PR018
Spot 1     0.00170869     0.00167121
Spot 2     0.00124125     0.00166825
20MABNDA000039_PR009
Spot 1     0.00066654     0.00117921
Spot 2     0.00061380     0.00118346
20MABNDA000039_PR011
Spot 1     0.00276984     0.00028251
Spot 2     0.00259340     0.00027730
20MABNDB000155_PR020
Spot 1     0.00061842     0.00112448
Spot 2     0.00068893     0.00111947
20MABNDB000155_PR022
Spot 1     0.00211828     0.00141039
Spot 2     0.00259167     0.00140563
20MABNDB000010_PR021
Spot 1     0.00286652     0.00115150
Spot 2     0.00292478     0.00115414
20MABNDB000010_PR023
Spot 1     0.00131245     0.00030199
Spot 2     0.00148788     0.00029909
20MABNDB000069_PR031
Spot 1     0.00021500     0.00240500
Spot 2     0.00021500     0.00240500
20MABNDB000069_PR033
Spot 1     0.00182898     0.00206451
Spot 2     0.00230022     0.00208452
20MABNDB000131_PR032
Spot 1     0.00277759     0.00108119
Spot 2     0.00283808     0.00108363
20MABNDB000131_PR034
Spot 1     0.00092127     0.00032591
Spot 2     0.00109764     0.00032608
20MABNDA000208_PR042
Spot 1     0.00284500     0.00011500
Spot 2     0.00284500     0.00011625
20MABNDA000208_PR046
Spot 1     0.00143896     0.00221869
Spot 2     0.00096847     0.00222162
20MABNDA000035_PR044
Spot 1     0.00074455     0.00125917
Spot 2     0.00068349     0.00125342
20MABNDA000035_PR045
Spot 1     0.00254798     0.00046855
Spot 2     0.00236981     0.00046753


****************************************************************coordonnees images transformees dans le repere MOUNT************************************************************************* 
20MABNDL000077_PR002
Spot 1     0.01131876     0.03489570    -0.07463200
Spot 2     0.01131876     0.03489570    -0.07463200
Spot 1     0.01158509     0.03451311    -0.07463200
Spot 2     0.01158509     0.03451311    -0.07463200
20MABNDL000077_PR003
Spot 1     0.01341356     0.03434551    -0.07463200
Spot 2     0.01341356     0.03434551    -0.07463200
Spot 1     0.01341356     0.03434551    -0.07463200
Spot 2     0.01341356     0.03434551    -0.07463200
20MABNDL000077_20MABNDM000168
Spot 1    -0.01259065     0.03524540    -0.00695400
Spot 2    -0.01241970     0.03523675    -0.00695400
Spot 1    -0.01259107     0.03524554    -0.00695400
Spot 2    -0.01241943     0.03523563    -0.00695400
20MABNDL000077_PR024
Spot 1    -0.01335239     0.03547501    -0.00695400
Spot 2    -0.01345155     0.03548549    -0.00695400
Spot 1    -0.01335222     0.03547510    -0.00695400
Spot 2    -0.01345132     0.03548581    -0.00695400
20MABNDM000020_PR013
Spot 1    -0.01394554    -0.03407018    -0.00523500
Spot 2    -0.01394554    -0.03407018    -0.00523500
Spot 1    -0.01394554    -0.03407018    -0.00523500
Spot 2    -0.01394554    -0.03407018    -0.00523500
20MABNDM000020_PR014
Spot 1    -0.01169545    -0.03562057    -0.00523500
Spot 2    -0.01185751    -0.03562769    -0.00523500
Spot 1    -0.01169571    -0.03562113    -0.00523500
Spot 2    -0.01185813    -0.03562793    -0.00523500
20MABNDM000020_20MABNDL000196
Spot 1     0.01270917    -0.03514854    -0.07583800
Spot 2     0.01249885    -0.03519683    -0.07583800
Spot 1     0.01270908    -0.03514862    -0.07583800
Spot 2     0.01140135    -0.03569374    -0.07583800
20MABNDM000020_PR035
Spot 1     0.01342157    -0.03545956    -0.07583800
Spot 2     0.01349870    -0.03549553    -0.07583800
Spot 1     0.01342144    -0.03545928    -0.07583800
Spot 2     0.01349864    -0.03549546    -0.07583800
20MABNDM000168_PR025
Spot 1    -0.01363976    -0.03581391    -0.00532900
Spot 2    -0.01379750    -0.03581971    -0.00532900
Spot 1    -0.01363985    -0.03581396    -0.00532900
Spot 2    -0.01379755    -0.03581926    -0.00532900
20MABNDM000168_PR026
Spot 1    -0.01173426    -0.03575605    -0.00532900
Spot 2    -0.01189653    -0.03575252    -0.00532900
20MABNDM000168_20MABNDL000077
Spot 1     0.01288372    -0.03529783    -0.07445100
Spot 2     0.01266681    -0.03530049    -0.07445100
20MABNDM000168_PR001
Spot 1     0.01361162    -0.03562860    -0.07445100
Spot 2     0.01371440    -0.03563136    -0.07445100
20MABNDL000196_PR036
Spot 1     0.01192453     0.03583833    -0.07483600
Spot 2     0.01209026     0.03583704    -0.07483600
20MABNDL000196_PR037
Spot 1     0.01381241     0.03566105    -0.07483600
Spot 2     0.01397168     0.03566409    -0.07483600
20MABNDL000196_20MABNDM000020
Spot 1    -0.01274880     0.03531033    -0.00611000
Spot 2    -0.01252762     0.03532091    -0.00611000
20MABNDL000196_PR012
Spot 1    -0.01408054     0.03437924    -0.00611000
Spot 2    -0.01355408     0.03564019    -0.00611000
20MABNDA000134_PR004
Spot 1    -0.01287875     0.01241158    -0.07608400
Spot 2    -0.01265939     0.01241261    -0.07608400
20MABNDA000334_PR005
Spot 1    -0.01312639     0.01255026    -0.07324100
Spot 2    -0.01284578     0.01254983    -0.07324100
20MABNDB000317_PR015
Spot 1    -0.01269243    -0.01241587    -0.07326100
Spot 2    -0.01247138    -0.01241883    -0.07326100
20MABNDB000146_PR016
Spot 1    -0.01276163    -0.01247884    -0.07450500
Spot 2    -0.01248616    -0.01247689    -0.07450500
20MABNDB000135_PR027
Spot 1    -0.01252034    -0.01322094    -0.07464700
Spot 2    -0.01230123    -0.01322010    -0.07464700
20MABNDB000126_PR028
Spot 1    -0.01224652    -0.01219868    -0.07500400
Spot 2    -0.01253015    -0.01220090    -0.07500400
20MABNDA000272_PR038
Spot 1    -0.01275841     0.01316061    -0.07417900
Spot 2    -0.01253669     0.01316014    -0.07417900
20MABNDA000003_PR039
Spot 1    -0.01281613     0.01212146    -0.07373400
Spot 2    -0.01309493     0.01212124    -0.07373400
20MABNDA000196_PR006
Spot 1    -0.01270823     0.01330299    -0.07967100
Spot 2    -0.01234145     0.01330060    -0.07967100
20MABNDA000324_PR007
Spot 1    -0.01260169     0.01267920    -0.07446800
Spot 2    -0.01280806     0.01268218    -0.07446800
20MABNDB000001_PR017
Spot 1    -0.01232598    -0.01310303    -0.07418400
Spot 2    -0.01195584    -0.01310302    -0.07418400
20MABNDB000260_PR019
Spot 1    -0.01226432    -0.01244197    -0.07492700
Spot 2    -0.01205948    -0.01243839    -0.07492700
20MABNDB000212_PR029
Spot 1    -0.01188022    -0.01328970    -0.07390500
Spot 2    -0.01224370    -0.01328786    -0.07390500
20MABNDB000128_PR030
Spot 1    -0.01166783    -0.01259775    -0.07353400
Spot 2    -0.01186632    -0.01259597    -0.07353400
20MABNDA000444_PR040
Spot 1    -0.01273059     0.01332220    -0.07412000
Spot 2    -0.01094339     0.01404026    -0.07412000
20MABNDA000053_PR041
Spot 1    -0.01198118     0.01265783    -0.07430100
Spot 2    -0.01218694     0.01266087    -0.07430100
20MABNDA000188_PR008
Spot 1    -0.01399107     0.01394961    -0.07502000
Spot 2    -0.01399107     0.01394961    -0.07502000
20MABNDA000188_PR018
Spot 1    -0.01273813     0.01238262    -0.07502000
Spot 2    -0.01227068     0.01238157    -0.07502000
20MABNDA000039_PR009
Spot 1    -0.01162869     0.01306494    -0.07444800
Spot 2    -0.01157596     0.01306046    -0.07444800
20MABNDA000039_PR011
Spot 1    -0.01372809     0.01397073    -0.07444800
Spot 2    -0.01355163     0.01397517    -0.07444800
20MABNDB000155_PR020
Spot 1    -0.01364767    -0.01313291    -0.07501700
Spot 2    -0.01357710    -0.01313695    -0.07501700
20MABNDB000155_PR022
Spot 1    -0.01215186    -0.01282649    -0.07501700
Spot 2    -0.01167845    -0.01282477    -0.07501700
20MABNDB000010_PR021
Spot 1    -0.01158446    -0.01292705    -0.07358200
Spot 2    -0.01152625    -0.01292342    -0.07358200
20MABNDB000010_PR023
Spot 1    -0.01312392    -0.01380276    -0.07358200
Spot 2    -0.01294846    -0.01380269    -0.07358200
20MABNDB000069_PR031
Spot 1    -0.01361993    -0.01186066    -0.07388500
Spot 2    -0.01361993    -0.01186066    -0.07388500
20MABNDB000069_PR033
Spot 1    -0.01202137    -0.01226747    -0.07388500
Spot 2    -0.01154971    -0.01226692    -0.07388500
20MABNDB000131_PR032
Spot 1    -0.01144258    -0.01303356    -0.07533000
Spot 2    -0.01138210    -0.01303082    -0.07533000
20MABNDB000131_PR034
Spot 1    -0.01329507    -0.01379818    -0.07533000
Spot 2    -0.01311870    -0.01379712    -0.07533000
20MABNDA000208_PR042
Spot 1    -0.01371645     0.01388121    -0.07273700
Spot 2    -0.01371645     0.01387996    -0.07273700
20MABNDA000208_PR046
Spot 1    -0.01230857     0.01177875    -0.07273700
Spot 2    -0.01183808     0.01177623    -0.07273700
20MABNDA000035_PR044
Spot 1    -0.01157921     0.01299812    -0.07483200
Spot 2    -0.01151811     0.01300344    -0.07483200
20MABNDA000035_PR045
Spot 1    -0.01337697     0.01380155    -0.07483200
Spot 2    -0.01319880     0.01380130    -0.07483200


*****************************************************************coordonnees du prisme dans le repere MOUNT********************************************************************************** 
20MABNDL000077_PR002
    0.08052787     0.05481873     3.70645308
    0.06737348     0.07371713     3.70652628
20MABNDL000077_PR003
   -0.02476418     0.08434060     3.89557457
   -0.02476418     0.08434060     3.89557457
20MABNDL000077_20MABNDM000168
   -0.02568151     0.03763262    -5.46874046
   -0.02567609     0.03766807    -5.46874046
20MABNDL000077_PR024
    0.04320740     0.01911083    -5.89642859
    0.04319197     0.01909469    -5.89642859
20MABNDM000020_PR013
    0.05274186    -0.08860095    -3.80153990
    0.05274186    -0.08860095    -3.80153990
20MABNDM000020_PR014
   -0.06561188    -0.00529186    -4.74841166
   -0.06558442    -0.00526697    -4.74841166
20MABNDM000020_20MABNDL000196
    0.02263840    -0.03093344     5.39481926
    0.06196108    -0.01312811     5.39455795
20MABNDM000020_PR035
   -0.04258268    -0.00706742     5.80095482
   -0.04257536    -0.00708090     5.80095482
20MABNDM000168_PR025
    0.03851341    -0.01217356    -3.78836727
    0.03851692    -0.01218343    -3.78836727
20MABNDM000168_PR026
   -0.05786093    -0.01416717    -3.98429132
20MABNDM000168_20MABNDL000077
    0.01159095    -0.03892762     5.38884640
20MABNDM000168_PR001
   -0.05732519    -0.01350629     5.81470633
20MABNDL000196_PR036
    0.05140704     0.00547571     3.68776751
20MABNDL000196_PR037
   -0.04399010     0.01291229     3.88352156
20MABNDL000196_20MABNDM000020
   -0.01578095     0.03803122    -5.47473860
20MABNDL000196_PR012
    0.07561056     0.06196680    -5.91504860
20MABNDA000134_PR004
   -0.00832310     0.03813094     2.74966145
20MABNDA000334_PR005
   -0.00398509     0.03146197     2.14977264
20MABNDB000317_PR015
   -0.01645488    -0.03700241     2.75126719
20MABNDB000146_PR016
   -0.01349675    -0.03126934     2.15201712
20MABNDB000135_PR027
   -0.02077553    -0.00900297     2.74937057
20MABNDB000126_PR028
   -0.02049050    -0.03815448     2.14680433
20MABNDA000272_PR038
   -0.01324578     0.01080487     2.74965858
20MABNDA000003_PR039
   -0.00551711     0.04137329     2.14891243
20MABNDA000196_PR006
   -0.01549096     0.00875256     1.64206004
20MABNDA000324_PR007
   -0.01525319     0.03283860     2.95548868
20MABNDB000001_PR017
   -0.02362091    -0.01256961     1.64039493
20MABNDB000260_PR019
   -0.03008093    -0.03668316     2.95626044
20MABNDB000212_PR029
   -0.02479801    -0.00823627     1.64224184
20MABNDB000128_PR030
   -0.04229926    -0.03192765     2.95495367
20MABNDA000444_PR040
   -0.03093128     0.00076882     1.64489985
20MABNDA000053_PR041
   -0.03534850     0.02985606     2.95464659
20MABNDA000188_PR008
    0.14616936    -0.09611703     9.20304298
20MABNDA000188_PR018
   -0.01599096     0.02470012     1.28359365
20MABNDA000039_PR009
   -0.17117411     0.02548156    11.00701523
20MABNDA000039_PR011
    0.03083885    -0.02452742     3.43347001
20MABNDB000155_PR020
    0.10195607    -0.00822186     9.20028496
20MABNDB000155_PR022
   -0.02570190    -0.01772829     1.28070652
20MABNDB000010_PR021
   -0.17609179    -0.03348670    11.00694752
20MABNDB000010_PR023
    0.00428283     0.02079381     3.43376637
20MABNDB000069_PR031
    0.10999375    -0.16176865     9.20229721
20MABNDB000069_PR033
   -0.02691242    -0.02686570     1.28394032
20MABNDB000131_PR032
   -0.18807408    -0.03023070    11.00641823
20MABNDB000131_PR034
    0.01445270     0.01640686     3.43337870
20MABNDA000208_PR042
    0.11037333    -0.08814526     9.20121479
20MABNDA000208_PR046
   -0.02362729     0.03492124     1.28207541
20MABNDA000035_PR044
   -0.17935149     0.02703436    11.00803185
20MABNDA000035_PR045
    0.01469614    -0.01909187     3.43483520


*****************************************************************coordonnees du prisme dans le repere ATLAS********************************************************************************** 
20MABNDL000077_PR002 0.00000000
    2.80223155    -3.66397786     6.48580408
    2.78332901    -3.67712641     6.48587990
20MABNDL000077_PR003 0.00000000
    2.77286172    -3.76949382     6.67482471
    2.77286172    -3.76949382     6.67482471
20MABNDL000077_20MABNDM000168 0.00000000
    2.81038404    -3.75887251    -2.68952560
    2.81034875    -3.75886703    -2.68952560
20MABNDL000077_PR024 0.00000000
    2.82850838    -3.68946171    -3.11714649
    2.82852459    -3.68947721    -3.11714649
20MABNDM000020_PR013 0.00000000
   -2.76372600    -3.79224682     6.48532534
   -2.76372600    -3.79224682     6.48532534
20MABNDM000020_PR014 0.00000000
   -2.84680915    -3.67458773     7.43230343
   -2.84683418    -3.67461514     7.43230343
20MABNDM000020_20MABNDL000196 0.00000000
   -2.82322454    -3.75513148    -2.71099639
   -2.84104180    -3.79444885    -2.71076155
20MABNDM000020_PR035 0.00000000
   -2.84715199    -3.68959427    -3.11707759
   -2.84713840    -3.68960166    -3.11707759
20MABNDM000168_PR025 0.00000000
    2.84105778    -3.78384495    -6.47897911
    2.84104800    -3.78384829    -6.47897911
20MABNDM000168_PR026 0.00000000
    2.83907795    -3.68754292    -6.67493868
20MABNDM000168_20MABNDL000077 0.00000000
    2.81486797    -3.75350308     2.69822574
20MABNDM000168_PR001 0.00000000
    2.84033322    -3.68443513     3.12405849
20MABNDL000196_PR036 0.00000000
   -2.84813190    -3.69286776    -6.47909117
20MABNDL000196_PR037 0.00000000
   -2.84065509    -3.78844333    -6.67475653
20MABNDL000196_20MABNDM000020 0.00000000
   -2.81534719    -3.75151753     2.68347287
20MABNDL000196_PR012 0.00000000
   -2.79144454    -3.65970540     3.12369728
20MABNDA000134_PR004 0.00000000
    2.61468029    -4.19698954     3.83386779
20MABNDA000334_PR005 0.00000000
    2.61701345    -4.19703007     5.89779902
20MABNDB000317_PR015 0.00000000
   -2.61215234    -4.19699192     3.83301306
20MABNDB000146_PR016 0.00000000
   -2.61279845    -4.19702053     5.89908075
20MABNDB000135_PR027 0.00000000
    2.60408807    -4.19700480    -3.82635784
20MABNDB000126_PR028 0.00000000
    2.60542631    -4.19701529    -5.89406538
20MABNDA000272_PR038 0.00000000
   -2.61129117    -4.19698286    -3.82767940
20MABNDA000003_PR039 0.00000000
   -2.61621404    -4.19702339    -5.89139318
20MABNDA000196_PR006 0.00000000
    2.58995152    -4.19496918     6.54670954
20MABNDA000324_PR007 0.00000000
    2.60406208    -4.13996267     6.94307756
20MABNDB000001_PR017 0.00000000
   -2.59732556    -4.19499016     6.54789782
20MABNDB000260_PR019 0.00000000
   -2.59868145    -4.13996840     6.94396257
20MABNDB000212_PR029 0.00000000
    2.59847569    -4.19500685    -6.54722404
20MABNDB000128_PR030 0.00000000
    2.58656240    -4.14004183    -6.94619799
20MABNDA000444_PR040 0.00000000
   -2.60610390    -4.19510984    -6.53994894
20MABNDA000053_PR041 0.00000000
   -2.58519125    -4.14003944    -6.94805670
20MABNDA000188_PR008 0.00000000
    3.55893064     3.84859109     8.10764503
20MABNDA000188_PR018 0.00000000
    3.52112889    -4.07059479     7.89875174
20MABNDA000039_PR009 0.00000000
    3.87534618     3.64747334    12.93677521
20MABNDA000039_PR011 0.00000000
    3.66418529    -3.92580581    12.88430882
20MABNDB000155_PR020 0.00000000
   -3.68060875     3.84881854     7.89864540
20MABNDB000155_PR022 0.00000000
   -3.53427863    -4.07043839     7.89033079
20MABNDB000010_PR021 0.00000000
   -3.86192918     3.64768481    12.93531609
20MABNDB000010_PR023 0.00000000
   -3.68538404    -3.92561054    12.88448238
20MABNDB000069_PR031 0.00000000
    3.69177032     3.84800911    -7.77863359
20MABNDB000069_PR033 0.00000000
    3.53338695    -4.07046270    -7.87880564
20MABNDB000131_PR032 0.00000000
    3.86887646     3.64756823   -12.94087315
20MABNDB000131_PR034 0.00000000
    3.67333651    -3.92563796   -12.89154053
20MABNDA000208_PR042 0.00000000
   -3.66039658     3.84884143    -7.99961948
20MABNDA000208_PR046 0.00000000
   -3.53213835    -4.07034683    -7.87359715
20MABNDA000035_PR044 0.00000000
   -3.86859250     3.64758706   -12.93271351
20MABNDA000035_PR045 0.00000000
   -3.67603230    -3.92565203   -12.88729286


*****************************************************************Rapport********************************************************************************** 
CAM-LBA-US_EBA-US-HO-H         2023.07.12.11.03.22     2.79278028    -3.67055213     6.48584199     0.00945127     0.00657427     0.00003791 0.00000000 VRAI 
CAM-LBA-US_JDA-US-H            2023.07.12.11.03.22     2.77286172    -3.76949382     6.67482471     0.00000000     0.00000000     0.00000000 0.00000000 VRAI 
CAM-LBA-US_CAM-LBC-US          2023.07.12.11.03.22     2.81036639    -3.75886977    -2.68952560     0.00001764     0.00000274     0.00000000 0.00000000 VRAI 
CAM-LBA-US_EBC-US-IP-H         2023.07.12.11.03.22     2.82851648    -3.68946946    -3.11714649     0.00000811     0.00000775     0.00000000 0.00000000 VRAI 
CAM-LBA-USA_EBA-USA-HO-H       2023.07.12.11.03.22    -2.76372600    -3.79224682     6.48532534     0.00000000     0.00000000     0.00000000 0.00000000 VRAI 
CAM-LBA-USA_JDA-USA-H          2023.07.12.11.03.22    -2.84682167    -3.67460144     7.43230343     0.00001252     0.00001371     0.00000000 0.00000000 VRAI 
CAM-LBA-USA_CAM-LBC-USA        2023.07.12.11.03.22    -2.83213317    -3.77479017    -2.71087897     0.00890863     0.01965868     0.00011742 0.00000000 VRAI 
CAM-LBA-USA_EBC-USA-IP-H       2023.07.12.11.03.22    -2.84714520    -3.68959796    -3.11707759     0.00000679     0.00000370     0.00000000 0.00000000 VRAI 
CAM-LBC-US_EBC-US-HO-H         2023.07.12.11.03.22     2.84105289    -3.78384662    -6.47897911     0.00000489     0.00000167     0.00000000 0.00000000 VRAI 
CAM-LBC-US_JDC-US-H            2023.07.12.11.03.22     2.83907795    -3.68754292    -6.67493868     0.00000000     0.00000000     0.00000000 0.00000000 VRAI 
CAM-LBC-US_CAM-LBA-US          2023.07.12.11.03.22     2.81486797    -3.75350308     2.69822574     0.00000000     0.00000000     0.00000000 0.00000000 VRAI 
CAM-LBC-US_EBA-US-IP-H         2023.07.12.11.03.22     2.84033322    -3.68443513     3.12405849     0.00000000     0.00000000     0.00000000 0.00000000 VRAI 
CAM-LBC-USA_EBC-USA-HO-H       2023.07.12.11.03.22    -2.84813190    -3.69286776    -6.47909117     0.00000000     0.00000000     0.00000000 0.00000000 VRAI 
CAM-LBC-USA_JDC-USA-H          2023.07.12.11.03.22    -2.84065509    -3.78844333    -6.67475653     0.00000000     0.00000000     0.00000000 0.00000000 VRAI 
CAM-LBC-USA_CAM-LBA-USA        2023.07.12.11.03.22    -2.81534719    -3.75151753     2.68347287     0.00000000     0.00000000     0.00000000 0.00000000 VRAI 
CAM-LBC-USA_EBA-USA-IP-H       2023.07.12.11.03.22    -2.79144454    -3.65970540     3.12369728     0.00000000     0.00000000     0.00000000 0.00000000 VRAI 
CAM-EBA-US-IP_EBA-US-IP        2023.07.12.11.03.22     2.61468029    -4.19698954     3.83386779     0.00000000     0.00000000     0.00000000 0.00000000 VRAI 
CAM-EBA-US-HO_EBA-US-HO        2023.07.12.11.03.22     2.61701345    -4.19703007     5.89779902     0.00000000     0.00000000     0.00000000 0.00000000 VRAI 
CAM-EBA-USA-IP_EBA-USA-IP      2023.07.12.11.03.22    -2.61215234    -4.19699192     3.83301306     0.00000000     0.00000000     0.00000000 0.00000000 VRAI 
CAM-EBA-USA-HO_EBA-USA-HO      2023.07.12.11.03.22    -2.61279845    -4.19702053     5.89908075     0.00000000     0.00000000     0.00000000 0.00000000 VRAI 
CAM-EBC-US-IP_EBC-US-IP        2023.07.12.11.03.22     2.60408807    -4.19700480    -3.82635784     0.00000000     0.00000000     0.00000000 0.00000000 VRAI 
CAM-EBC-US-HO_EBC-US-HO        2023.07.12.11.03.22     2.60542631    -4.19701529    -5.89406538     0.00000000     0.00000000     0.00000000 0.00000000 VRAI 
CAM-EBC-USA-IP_EBC-USA-IP      2023.07.12.11.03.22    -2.61129117    -4.19698286    -3.82767940     0.00000000     0.00000000     0.00000000 0.00000000 VRAI 
CAM-EBC-USA-HO_EBC-USA-HO      2023.07.12.11.03.22    -2.61621404    -4.19702339    -5.89139318     0.00000000     0.00000000     0.00000000 0.00000000 VRAI 
CAM-JDA-US-IP_JDA-US-IP        2023.07.12.11.03.22     2.58995152    -4.19496918     6.54670954     0.00000000     0.00000000     0.00000000 0.00000000 VRAI 
CAM-JDA-US-HO_JDA-US-HO        2023.07.12.11.03.22     2.60406208    -4.13996267     6.94307756     0.00000000     0.00000000     0.00000000 0.00000000 VRAI 
CAM-JDA-USA-IP_JDA-USA-IP      2023.07.12.11.03.22    -2.59732556    -4.19499016     6.54789782     0.00000000     0.00000000     0.00000000 0.00000000 VRAI 
CAM-JDA-USA-HO_JDA-USA-HO      2023.07.12.11.03.22    -2.59868145    -4.13996840     6.94396257     0.00000000     0.00000000     0.00000000 0.00000000 VRAI 
CAM-JDC-US-IP_JDC-US-IP        2023.07.12.11.03.22     2.59847569    -4.19500685    -6.54722404     0.00000000     0.00000000     0.00000000 0.00000000 VRAI 
CAM-JDC-US-HO_JDC-US-HO        2023.07.12.11.03.22     2.58656240    -4.14004183    -6.94619799     0.00000000     0.00000000     0.00000000 0.00000000 VRAI 
CAM-JDC-USA-IP_JDC-USA-IP      2023.07.12.11.03.22    -2.60610390    -4.19510984    -6.53994894     0.00000000     0.00000000     0.00000000 0.00000000 VRAI 
CAM-JDC-USA-HO_JDC-USA-HO      2023.07.12.11.03.22    -2.58519125    -4.14003944    -6.94805670     0.00000000     0.00000000     0.00000000 0.00000000 VRAI 
CAM-ECTA-US-IP_ECTA-US-IP-T    2023.07.12.11.03.22     3.55893064     3.84859109     8.10764503     0.00000000     0.00000000     0.00000000 0.00000000 VRAI 
CAM-ECTA-US-IP_ECTA-US-IP      2023.07.12.11.03.22     3.52112889    -4.07059479     7.89875174     0.00000000     0.00000000     0.00000000 0.00000000 VRAI 
CAM-ECTA-US-HO_ECTA-US-HO-T    2023.07.12.11.03.22     3.87534618     3.64747334    12.93677521     0.00000000     0.00000000     0.00000000 0.00000000 VRAI 
CAM-ECTA-US-HO_ECTA-US-HO      2023.07.12.11.03.22     3.66418529    -3.92580581    12.88430882     0.00000000     0.00000000     0.00000000 0.00000000 VRAI 
CAM-ECTA-USA-IP_ECTA-USA-IP-T  2023.07.12.11.03.22    -3.68060875     3.84881854     7.89864540     0.00000000     0.00000000     0.00000000 0.00000000 VRAI 
CAM-ECTA-USA-IP_ECTA-USA-IP    2023.07.12.11.03.22    -3.53427863    -4.07043839     7.89033079     0.00000000     0.00000000     0.00000000 0.00000000 VRAI 
CAM-ECTA-USA-HO_ECTA-USA-HO-T  2023.07.12.11.03.22    -3.86192918     3.64768481    12.93531609     0.00000000     0.00000000     0.00000000 0.00000000 VRAI 
CAM-ECTA-USA-HO_ECTA-USA-HO    2023.07.12.11.03.22    -3.68538404    -3.92561054    12.88448238     0.00000000     0.00000000     0.00000000 0.00000000 VRAI 
CAM-ECTC-US-IP_ECTC-US-IP-T    2023.07.12.11.03.22     3.69177032     3.84800911    -7.77863359     0.00000000     0.00000000     0.00000000 0.00000000 VRAI 
CAM-ECTC-US-IP_ECTC-US-IP      2023.07.12.11.03.22     3.53338695    -4.07046270    -7.87880564     0.00000000     0.00000000     0.00000000 0.00000000 VRAI 
CAM-ECTC-US-HO_ECTC-US-HO-T    2023.07.12.11.03.22     3.86887646     3.64756823   -12.94087315     0.00000000     0.00000000     0.00000000 0.00000000 VRAI 
CAM-ECTC-US-HO_ECTC-US-HO      2023.07.12.11.03.22     3.67333651    -3.92563796   -12.89154053     0.00000000     0.00000000     0.00000000 0.00000000 VRAI 
CAM-ECTC-USA-IP_ECTC-USA-IP-T  2023.07.12.11.03.22    -3.66039658     3.84884143    -7.99961948     0.00000000     0.00000000     0.00000000 0.00000000 VRAI 
CAM-ECTC-USA-IP_ECTC-USA-IP    2023.07.12.11.03.22    -3.53213835    -4.07034683    -7.87359715     0.00000000     0.00000000     0.00000000 0.00000000 VRAI 
CAM-ECTC-USA-HO_ECTC-USA-HO-T  2023.07.12.11.03.22    -3.86859250     3.64758706   -12.93271351     0.00000000     0.00000000     0.00000000 0.00000000 VRAI 
CAM-ECTC-USA-HO_ECTC-USA-HO    2023.07.12.11.03.22    -3.67603230    -3.92565203   -12.88729286     0.00000000     0.00000000     0.00000000 0.00000000 VRAI 
