********** Fichier qui contient une sauvegarde des coordonnees images + coordonnees images transformees dans le repere BCAM (MOUNT) + coordonnees des prismes dans le repere MOUNT********** 
********************************************************************** Unite en metres (m)************************************************************************************************** 

*******************************************************************coordonnees images dans le repere CCD *********************************************************************************** 
20MABNDL000077_PR002
Spot 1     0.00052500     0.00043500
Spot 2     0.00100333     0.00147300
Spot 1     0.00052500     0.00043500
Spot 2     0.00052500     0.00043500
20MABNDL000077_PR003
Spot 1     0.00131500     0.00081500
Spot 2     0.00166500     0.00022500
Spot 1     0.00235500     0.00028500
Spot 2     0.00235500     0.00028500
20MABNDL000077_20MABNDM000168
Spot 1     0.00175577     0.00118226
Spot 2     0.00075500     0.00010500
Spot 1     0.00175582     0.00118201
Spot 2     0.00075500     0.00010500
20MABNDL000077_PR024
Spot 1     0.00251486     0.00141964
Spot 2     0.00261411     0.00143109
Spot 1     0.00251424     0.00141962
Spot 2     0.00261393     0.00143139
20MABNDM000020_PR013
Spot 1     0.00044500     0.00008500
Spot 2     0.00044500     0.00008500
Spot 1     0.00044500     0.00008500
Spot 2     0.00044500     0.00008500
20MABNDM000020_PR014
Spot 1     0.00266037     0.00168500
Spot 2     0.00249791     0.00168820
Spot 1     0.00265986     0.00168419
Spot 2     0.00249815     0.00168845
20MABNDM000020_20MABNDL000196
Spot 1     0.00197699     0.00118009
Spot 2     0.00230500     0.00010500
Spot 1     0.00197671     0.00118006
Spot 2     0.00230500     0.00010500
20MABNDM000020_PR035
Spot 1     0.00126469     0.00149214
Spot 2     0.00118768     0.00152721
20MABNDM000168_PR025
Spot 1     0.00076258     0.00147389
Spot 2     0.00060546     0.00147897
20MABNDM000168_PR026
Spot 1     0.00266825     0.00142418
Spot 2     0.00250665     0.00141991
20MABNDM000168_20MABNDL000077
Spot 1     0.00154212     0.00129795
Spot 2     0.00175828     0.00130253
20MABNDM000168_PR001
Spot 1     0.00081007     0.00161749
Spot 2     0.00070725     0.00161897
20MABNDL000196_PR036
Spot 1     0.00094483     0.00164951
Spot 2     0.00111002     0.00164778
20MABNDL000196_PR037
Spot 1     0.00283308     0.00146842
Spot 2     0.00299251     0.00147144
20MABNDL000196_20MABNDM000020
Spot 1     0.00192450     0.00103909
Spot 2     0.00170348     0.00104521
20MABNDL000196_PR012
Spot 1     0.00219500     0.00095500
Spot 2     0.00272318     0.00138500
20MABNDA000134_PR004
Spot 1     0.00190791     0.00176121
Spot 2     0.00168885     0.00175349
20MABNDA000334_PR005
Spot 1     0.00248334     0.00157838
Spot 2     0.00220319     0.00157859
20MABNDB000317_PR015
Spot 1     0.00168400     0.00167722
Spot 2     0.00146296     0.00168223
20MABNDB000146_PR016
Spot 1     0.00144604     0.00131433
Spot 2     0.00172217     0.00131652
20MABNDB000135_PR027
Spot 1     0.00188452     0.00089191
Spot 2     0.00210336     0.00089520
20MABNDB000126_PR028
Spot 1     0.00193222     0.00198147
Spot 2    -0.00000100    -0.00000100
20MABNDA000272_PR038
Spot 1     0.00192327     0.00095167
Spot 2     0.00170105     0.00095093
20MABNDA000003_PR039
Spot 1     0.00201515     0.00193102
Spot 2     0.00229383     0.00193182
20MABNDA000196_PR006
Spot 1     0.00138747     0.00067139
Spot 2     0.00175349     0.00067401
20MABNDA000324_PR007
Spot 1     0.00199695     0.00134186
Spot 2     0.00220364     0.00133653
20MABNDB000001_PR017
Spot 1     0.00185794     0.00088599
Spot 2     0.00222806     0.00089048
20MABNDB000260_PR019
Spot 1     0.00206730     0.00145848
Spot 2     0.00227500     0.00145500
20MABNDB000212_PR029
Spot 1     0.00220723     0.00069135
Spot 2     0.00184432     0.00068911
20MABNDB000128_PR030
Spot 1     0.00268600     0.00161664
Spot 2     0.00248767     0.00161900
20MABNDA000444_PR040
Spot 1     0.00179449     0.00069611
Spot 2     0.00294500     0.00185500
20MABNDA000053_PR041
Spot 1     0.00123637     0.00144395
Spot 2     0.00144115     0.00144478
20MABNDA000188_PR008
Spot 1     0.00297500     0.00011500
Spot 2     0.00297500     0.00011500
20MABNDA000188_PR018
Spot 1     0.00170879     0.00167393
Spot 2     0.00124106     0.00167061
20MABNDA000039_PR009
Spot 1     0.00066524     0.00117889
Spot 2     0.00061510     0.00118305
20MABNDA000039_PR011
Spot 1     0.00277033     0.00028163
Spot 2     0.00259384     0.00027597
20MABNDB000155_PR020
Spot 1     0.00061836     0.00112482
Spot 2     0.00068861     0.00111958
20MABNDB000155_PR022
Spot 1     0.00211811     0.00141258
Spot 2     0.00259123     0.00140802
20MABNDB000010_PR021
Spot 1     0.00286642     0.00115089
Spot 2     0.00292473     0.00115436
20MABNDB000010_PR023
Spot 1     0.00131253     0.00030099
Spot 2     0.00148866     0.00029906
20MABNDB000069_PR031
Spot 1     0.00021500     0.00240500
Spot 2     0.00021500     0.00240500
20MABNDB000069_PR033
Spot 1     0.00183078     0.00206722
Spot 2     0.00230155     0.00208751
20MABNDB000131_PR032
Spot 1     0.00277713     0.00108081
Spot 2     0.00283758     0.00108376
20MABNDB000131_PR034
Spot 1     0.00092069     0.00032479
Spot 2     0.00109730     0.00032413
20MABNDA000208_PR042
Spot 1     0.00304500     0.00138500
Spot 2     0.00284500     0.00011500
20MABNDA000208_PR046
Spot 1     0.00143992     0.00222246
Spot 2     0.00096922     0.00222480
20MABNDA000035_PR044
Spot 1     0.00074444     0.00125813
Spot 2     0.00068318     0.00125297
20MABNDA000035_PR045
Spot 1     0.00254791     0.00046714
Spot 2     0.00237007     0.00046592


****************************************************************coordonnees images transformees dans le repere MOUNT************************************************************************* 
20MABNDL000077_PR002
Spot 1     0.01158509     0.03451311    -0.07463200
Spot 2     0.01207338     0.03554646    -0.07463200
Spot 1     0.01158509     0.03451311    -0.07463200
Spot 2     0.01158509     0.03451311    -0.07463200
20MABNDL000077_PR003
Spot 1     0.01237871     0.03488550    -0.07463200
Spot 2     0.01272301     0.03429215    -0.07463200
Spot 1     0.01341356     0.03434551    -0.07463200
Spot 2     0.01341356     0.03434551    -0.07463200
20MABNDL000077_20MABNDM000168
Spot 1    -0.01259089     0.03524526    -0.00695400
Spot 2    -0.01157915     0.03417830    -0.00695400
Spot 1    -0.01259094     0.03524501    -0.00695400
Spot 2    -0.01157915     0.03417830    -0.00695400
20MABNDL000077_PR024
Spot 1    -0.01335237     0.03547486    -0.00695400
Spot 2    -0.01345174     0.03548529    -0.00695400
Spot 1    -0.01335175     0.03547484    -0.00695400
Spot 2    -0.01345156     0.03548559    -0.00695400
20MABNDM000020_PR013
Spot 1    -0.01394554    -0.03407018    -0.00523500
Spot 2    -0.01394554    -0.03407018    -0.00523500
Spot 1    -0.01394554    -0.03407018    -0.00523500
Spot 2    -0.01394554    -0.03407018    -0.00523500
20MABNDM000020_PR014
Spot 1    -0.01169533    -0.03562079    -0.00523500
Spot 2    -0.01185768    -0.03562759    -0.00523500
Spot 1    -0.01169586    -0.03562000    -0.00523500
Spot 2    -0.01185743    -0.03562783    -0.00523500
20MABNDM000020_20MABNDL000196
Spot 1     0.01270929    -0.03514865    -0.07583800
Spot 2     0.01238113    -0.03407361    -0.07583800
Spot 1     0.01270957    -0.03514862    -0.07583800
Spot 2     0.01238113    -0.03407361    -0.07583800
20MABNDM000020_PR035
Spot 1     0.01342163    -0.03546060    -0.07583800
Spot 2     0.01349865    -0.03549566    -0.07583800
20MABNDM000168_PR025
Spot 1    -0.01363955    -0.03581285    -0.00532900
Spot 2    -0.01379664    -0.03581861    -0.00532900
20MABNDM000168_PR026
Spot 1    -0.01173411    -0.03575496    -0.00532900
Spot 2    -0.01189572    -0.03575138    -0.00532900
20MABNDM000168_20MABNDL000077
Spot 1     0.01288337    -0.03529857    -0.07445100
Spot 2     0.01266717    -0.03529999    -0.07445100
20MABNDM000168_PR001
Spot 1     0.01361067    -0.03562879    -0.07445100
Spot 2     0.01371346    -0.03563177    -0.07445100
20MABNDL000196_PR036
Spot 1     0.01192473     0.03583820    -0.07483600
Spot 2     0.01208993     0.03583682    -0.07483600
20MABNDL000196_PR037
Spot 1     0.01381336     0.03566105    -0.07483600
Spot 2     0.01397278     0.03566441    -0.07483600
20MABNDL000196_20MABNDM000020
Spot 1    -0.01274850     0.03531032    -0.00611000
Spot 2    -0.01252765     0.03532089    -0.00611000
20MABNDL000196_PR012
Spot 1    -0.01301725     0.03522081    -0.00611000
Spot 2    -0.01355398     0.03564009    -0.00611000
20MABNDA000134_PR004
Spot 1    -0.01287865     0.01241164    -0.07608400
Spot 2    -0.01265946     0.01241328    -0.07608400
20MABNDA000334_PR005
Spot 1    -0.01312644     0.01255002    -0.07324100
Spot 2    -0.01284629     0.01254955    -0.07324100
20MABNDB000317_PR015
Spot 1    -0.01247120    -0.01241854    -0.07326100
Spot 2    -0.01269229    -0.01241611    -0.07326100
20MABNDB000146_PR016
Spot 1    -0.01276228    -0.01247928    -0.07450500
Spot 2    -0.01248616    -0.01247648    -0.07450500
20MABNDB000135_PR027
Spot 1    -0.01252042    -0.01322104    -0.07464700
Spot 2    -0.01230156    -0.01322018    -0.07464700
20MABNDB000126_PR028
Spot 1    -0.01224717    -0.01219917    -0.07500400
Spot 2    -0.01416978    -0.01419193    -0.07500400
20MABNDA000272_PR038
Spot 1    -0.01275892     0.01315980    -0.07417900
Spot 2    -0.01253670     0.01316014    -0.07417900
20MABNDA000003_PR039
Spot 1    -0.01281625     0.01212128    -0.07373400
Spot 2    -0.01309493     0.01212119    -0.07373400
20MABNDA000196_PR006
Spot 1    -0.01234148     0.01329914    -0.07967100
Spot 2    -0.01270751     0.01330122    -0.07967100
20MABNDA000324_PR007
Spot 1    -0.01260165     0.01267933    -0.07446800
Spot 2    -0.01280837     0.01268305    -0.07446800
20MABNDB000001_PR017
Spot 1    -0.01232569    -0.01310325    -0.07418400
Spot 2    -0.01195554    -0.01310268    -0.07418400
20MABNDB000260_PR019
Spot 1    -0.01226316    -0.01244109    -0.07492700
Spot 2    -0.01205544    -0.01244031    -0.07492700
20MABNDB000212_PR029
Spot 1    -0.01188072    -0.01328964    -0.07390500
Spot 2    -0.01224363    -0.01328800    -0.07390500
20MABNDB000128_PR030
Spot 1    -0.01166780    -0.01259796    -0.07353400
Spot 2    -0.01186613    -0.01259628    -0.07353400
20MABNDA000444_PR040
Spot 1    -0.01272989     0.01332041    -0.07412000
Spot 2    -0.01386560     0.01214702    -0.07412000
20MABNDA000053_PR041
Spot 1    -0.01198244     0.01265827    -0.07430100
Spot 2    -0.01218720     0.01266144    -0.07430100
20MABNDA000188_PR008
Spot 1    -0.01399107     0.01394961    -0.07502000
Spot 2    -0.01399107     0.01394961    -0.07502000
20MABNDA000188_PR018
Spot 1    -0.01273825     0.01237990    -0.07502000
Spot 2    -0.01227051     0.01237921    -0.07502000
20MABNDA000039_PR009
Spot 1    -0.01162738     0.01306525    -0.07444800
Spot 2    -0.01157726     0.01306087    -0.07444800
20MABNDA000039_PR011
Spot 1    -0.01372857     0.01397161    -0.07444800
Spot 2    -0.01355206     0.01397651    -0.07444800
20MABNDB000155_PR020
Spot 1    -0.01364773    -0.01313257    -0.07501700
Spot 2    -0.01357742    -0.01313685    -0.07501700
20MABNDB000155_PR022
Spot 1    -0.01215206    -0.01282431    -0.07501700
Spot 2    -0.01167892    -0.01282239    -0.07501700
20MABNDB000010_PR021
Spot 1    -0.01158455    -0.01292766    -0.07358200
Spot 2    -0.01152631    -0.01292320    -0.07358200
20MABNDB000010_PR023
Spot 1    -0.01312382    -0.01380376    -0.07358200
Spot 2    -0.01294768    -0.01380271    -0.07358200
20MABNDB000069_PR031
Spot 1    -0.01361993    -0.01186066    -0.07388500
Spot 2    -0.01361993    -0.01186066    -0.07388500
20MABNDB000069_PR033
Spot 1    -0.01201946    -0.01226484    -0.07388500
Spot 2    -0.01154826    -0.01226399    -0.07388500
20MABNDB000131_PR032
Spot 1    -0.01144304    -0.01303394    -0.07533000
Spot 2    -0.01138260    -0.01303069    -0.07533000
20MABNDB000131_PR034
Spot 1    -0.01329565    -0.01379930    -0.07533000
Spot 2    -0.01311903    -0.01379907    -0.07533000
20MABNDA000208_PR042
Spot 1    -0.01391534     0.01261103    -0.07273700
Spot 2    -0.01371645     0.01388121    -0.07273700
20MABNDA000208_PR046
Spot 1    -0.01230953     0.01177498    -0.07273700
Spot 2    -0.01183882     0.01177305    -0.07273700
20MABNDA000035_PR044
Spot 1    -0.01157910     0.01299916    -0.07483200
Spot 2    -0.01151780     0.01300388    -0.07483200
20MABNDA000035_PR045
Spot 1    -0.01337689     0.01380296    -0.07483200
Spot 2    -0.01319905     0.01380291    -0.07483200


*****************************************************************coordonnees du prisme dans le repere MOUNT********************************************************************************** 
20MABNDL000077_PR002
    0.05531747     0.04819684     3.70685625
    0.06737348     0.07371713     3.70652628
20MABNDL000077_PR003
    0.02002402     0.07171187     3.89588356
   -0.02476418     0.08434060     3.89557457
20MABNDL000077_20MABNDM000168
   -0.05602760     0.07586291    -5.46843529
   -0.05602589     0.07587196    -5.46843529
20MABNDL000077_PR024
    0.04321427     0.01912455    -5.89642859
    0.04318321     0.01911331    -5.89642906
20MABNDM000020_PR013
    0.05274186    -0.08860095    -3.80153990
    0.05274186    -0.08860095    -3.80153990
20MABNDM000020_PR014
   -0.06561041    -0.00528809    -4.74841166
   -0.06560162    -0.00530534    -4.74841166
20MABNDM000020_20MABNDL000196
    0.02685166    -0.07117214     5.39469719
    0.02684163    -0.07117321     5.39469719
20MABNDM000020_PR035
   -0.04258307    -0.00702234     5.80095482
20MABNDM000168_PR025
    0.03848695    -0.01222707    -3.78836775
20MABNDM000168_PR026
   -0.05788592    -0.01422532    -3.98429132
20MABNDM000168_20MABNDL000077
    0.01159072    -0.03891863     5.38884640
20MABNDM000168_PR001
   -0.05725159    -0.01348294     5.81470680
20MABNDL000196_PR036
    0.05141021     0.00548431     3.68776751
20MABNDL000196_PR037
   -0.04404307     0.01290417     3.88352108
20MABNDL000196_20MABNDM000020
   -0.01579067     0.03803210    -5.47473860
20MABNDL000196_PR012
    0.03429063     0.02926600    -5.91558123
20MABNDA000134_PR004
   -0.00832365     0.03811778     2.74966145
20MABNDA000334_PR005
   -0.00397708     0.03146939     2.14977264
20MABNDB000317_PR015
   -0.01646067    -0.03700321     2.75126696
20MABNDB000146_PR016
   -0.01348740    -0.03126889     2.15201712
20MABNDB000135_PR027
   -0.02076797    -0.00899957     2.74937057
20MABNDB000126_PR028
    0.00288896    -0.00976949     2.14690590
20MABNDA000272_PR038
   -0.01323623     0.01081970     2.74965858
20MABNDA000003_PR039
   -0.00551538     0.04137657     2.14891243
20MABNDA000196_PR006
   -0.01549854     0.00878784     1.64206028
20MABNDA000324_PR007
   -0.01524773     0.03281896     2.95548868
20MABNDB000001_PR017
   -0.02362749    -0.01257086     1.64039493
20MABNDB000260_PR019
   -0.03018317    -0.03666280     2.95626020
20MABNDB000212_PR029
   -0.02479329    -0.00823544     1.64224184
20MABNDB000128_PR030
   -0.04230342    -0.03191744     2.95495367
20MABNDA000444_PR040
    0.00106752     0.02152470     1.64496899
20MABNDA000053_PR041
   -0.03531864     0.02983623     2.95464683
20MABNDA000188_PR008
    0.14616936    -0.09611703     9.20304298
20MABNDA000188_PR018
   -0.01599135     0.02474361     1.28359330
20MABNDA000039_PR009
   -0.17117435     0.02542817    11.00701523
20MABNDA000039_PR011
    0.03085983    -0.02457792     3.43346930
20MABNDB000155_PR020
    0.10197978    -0.00824917     9.20028496
20MABNDB000155_PR022
   -0.02569615    -0.01776735     1.28070652
20MABNDB000010_PR021
   -0.17608128    -0.03345785    11.00694847
20MABNDB000010_PR023
    0.00426271     0.02081709     3.43376637
20MABNDB000069_PR031
    0.10999375    -0.16176865     9.20229721
20MABNDB000069_PR033
   -0.02694117    -0.02691329     1.28393948
20MABNDB000131_PR032
   -0.18800405    -0.03021209    11.00641918
20MABNDB000131_PR034
    0.01447331     0.01647692     3.43337750
20MABNDA000208_PR042
    0.12258545    -0.01026462     9.20157051
20MABNDA000208_PR046
   -0.02361272     0.03498062     1.28207445
20MABNDA000035_PR044
   -0.17938298     0.02692560    11.00802994
20MABNDA000035_PR045
    0.01469998    -0.01916081     3.43483448


*****************************************************************coordonnees du prisme dans le repere ATLAS********************************************************************************** 
20MABNDL000077_PR002 0.00000000
    2.80884576    -3.68919086     6.48616982
    2.78332901    -3.67712641     6.48587990
20MABNDL000077_PR003 0.00000000
    2.78550506    -3.72470999     6.67517662
    2.77286172    -3.76949382     6.67482471
20MABNDL000077_20MABNDM000168 0.00000000
    2.77214456    -3.78920674    -2.68922043
    2.77213550    -3.78920507    -2.68922043
20MABNDL000077_PR024 0.00000000
    2.82849455    -3.68945479    -3.11714649
    2.82850575    -3.68948603    -3.11714697
20MABNDM000020_PR013 0.00000000
   -2.76372600    -3.79224682     6.48532534
   -2.76372600    -3.79224682     6.48532534
20MABNDM000020_PR014 0.00000000
   -2.84681296    -3.67458916     7.43230343
   -2.84679580    -3.67459798     7.43230343
20MABNDM000020_20MABNDL000196 0.00000000
   -2.78298712    -3.75935721    -2.71088576
   -2.78298616    -3.75934720    -2.71088576
20MABNDM000020_PR035 0.00000000
   -2.84719706    -3.68959379    -3.11707759
20MABNDM000168_PR025 0.00000000
    2.84100437    -3.78381848    -6.47897959
20MABNDM000168_PR026 0.00000000
    2.83901978    -3.68751788    -6.67493868
20MABNDM000168_20MABNDL000077 0.00000000
    2.81487679    -3.75350285     2.69822574
20MABNDM000168_PR001 0.00000000
    2.84035659    -3.68450880     3.12405896
20MABNDL000196_PR036 0.00000000
   -2.84812331    -3.69286442    -6.47909117
20MABNDL000196_PR037 0.00000000
   -2.84066319    -3.78849626    -6.67475605
20MABNDL000196_20MABNDM000020 0.00000000
   -2.81534624    -3.75152731     2.68347311
20MABNDL000196_PR012 0.00000000
   -2.82412601    -3.70104003     3.12426901
20MABNDA000134_PR004 0.00000000
    2.61467957    -4.19698954     3.83388090
20MABNDA000334_PR005 0.00000000
    2.61702156    -4.19703007     5.89779139
20MABNDB000317_PR015 0.00000000
   -2.61214662    -4.19699240     3.83301234
20MABNDB000146_PR016 0.00000000
   -2.61280799    -4.19702053     5.89908123
20MABNDB000135_PR027 0.00000000
    2.60409546    -4.19700480    -3.82636118
20MABNDB000126_PR028 0.00000000
    2.62879157    -4.19704485    -5.92246246
20MABNDA000272_PR038 0.00000000
   -2.61130071    -4.19698286    -3.82766461
20MABNDA000003_PR039 0.00000000
   -2.61621571    -4.19702339    -5.89139032
20MABNDA000196_PR006 0.00000000
    2.58995914    -4.19496870     6.54674482
20MABNDA000324_PR007 0.00000000
    2.60406756    -4.13996267     6.94309711
20MABNDB000001_PR017 0.00000000
   -2.59733224    -4.19499016     6.54789877
20MABNDB000260_PR019 0.00000000
   -2.59857941    -4.13996840     6.94398308
20MABNDB000212_PR029 0.00000000
    2.59847093    -4.19500685    -6.54722309
20MABNDB000128_PR030 0.00000000
    2.58655834    -4.14004183    -6.94620800
20MABNDA000444_PR040 0.00000000
   -2.57410717    -4.19504166    -6.56070805
20MABNDA000053_PR041 0.00000000
   -2.58522105    -4.14003897    -6.94807673
20MABNDA000188_PR008 0.00000000
    3.55893064     3.84859109     8.10764503
20MABNDA000188_PR018 0.00000000
    3.52112913    -4.07059431     7.89870787
20MABNDA000039_PR009 0.00000000
    3.87534642     3.64747334    12.93672180
20MABNDA000039_PR011 0.00000000
    3.66416430    -3.92580652    12.88425827
20MABNDB000155_PR020 0.00000000
   -3.68063235     3.84881854     7.89861822
20MABNDB000155_PR022 0.00000000
   -3.53428435    -4.07043839     7.89029169
20MABNDB000010_PR021 0.00000000
   -3.86191869     3.64768577    12.93528748
20MABNDB000010_PR023 0.00000000
   -3.68540406    -3.92561054    12.88445854
20MABNDB000069_PR031 0.00000000
    3.69177032     3.84800911    -7.77863359
20MABNDB000069_PR033 0.00000000
    3.53335834    -4.07046366    -7.87875795
20MABNDB000131_PR032 0.00000000
    3.86880636     3.64756918   -12.94085503
20MABNDB000131_PR034 0.00000000
    3.67331600    -3.92563915   -12.89147091
20MABNDA000208_PR042 0.00000000
   -3.67265010     3.84923434    -7.92174578
20MABNDA000208_PR046 0.00000000
   -3.53215289    -4.07034779    -7.87353754
20MABNDA000035_PR044 0.00000000
   -3.86862397     3.64758515   -12.93260479
20MABNDA000035_PR045 0.00000000
   -3.67602825    -3.92565274   -12.88722324


*****************************************************************Rapport********************************************************************************** 
CAM-LBA-US_EBA-US-HO-H         2023.09.05.15.38.44     2.79608738    -3.68315864     6.48602486     0.01275837     0.00603223     0.00014496 0.00000000 VRAI 
CAM-LBA-US_JDA-US-H            2023.09.05.15.38.44     2.77918339    -3.74710190     6.67500067     0.00632167     0.02239192     0.00017595 0.00000000 VRAI 
CAM-LBA-US_CAM-LBC-US          2023.09.05.15.38.44     2.77214003    -3.78920591    -2.68922043     0.00000453     0.00000083     0.00000000 0.00000000 VRAI 
CAM-LBA-US_EBC-US-IP-H         2023.09.05.15.38.44     2.82850015    -3.68947041    -3.11714673     0.00000560     0.00001562     0.00000024 0.00000000 VRAI 
CAM-LBA-USA_EBA-USA-HO-H       2023.09.05.15.38.44    -2.76372600    -3.79224682     6.48532534     0.00000000     0.00000000     0.00000000 0.00000000 VRAI 
CAM-LBA-USA_JDA-USA-H          2023.09.05.15.38.44    -2.84680438    -3.67459357     7.43230343     0.00000858     0.00000441     0.00000000 0.00000000 VRAI 
CAM-LBA-USA_CAM-LBC-USA        2023.09.05.15.38.44    -2.78298664    -3.75935221    -2.71088576     0.00000048     0.00000501     0.00000000 0.00000000 VRAI 
CAM-LBA-USA_EBC-USA-IP-H       2023.09.05.15.38.44    -2.84719706    -3.68959379    -3.11707759     0.00000000     0.00000000     0.00000000 0.00000000 VRAI 
CAM-LBC-US_EBC-US-HO-H         2023.09.05.15.38.44     2.84100437    -3.78381848    -6.47897959     0.00000000     0.00000000     0.00000000 0.00000000 VRAI 
CAM-LBC-US_JDC-US-H            2023.09.05.15.38.44     2.83901978    -3.68751788    -6.67493868     0.00000000     0.00000000     0.00000000 0.00000000 VRAI 
CAM-LBC-US_CAM-LBA-US          2023.09.05.15.38.44     2.81487679    -3.75350285     2.69822574     0.00000000     0.00000000     0.00000000 0.00000000 VRAI 
CAM-LBC-US_EBA-US-IP-H         2023.09.05.15.38.44     2.84035659    -3.68450880     3.12405896     0.00000000     0.00000000     0.00000000 0.00000000 VRAI 
CAM-LBC-USA_EBC-USA-HO-H       2023.09.05.15.38.44    -2.84812331    -3.69286442    -6.47909117     0.00000000     0.00000000     0.00000000 0.00000000 VRAI 
CAM-LBC-USA_JDC-USA-H          2023.09.05.15.38.44    -2.84066319    -3.78849626    -6.67475605     0.00000000     0.00000000     0.00000000 0.00000000 VRAI 
CAM-LBC-USA_CAM-LBA-USA        2023.09.05.15.38.44    -2.81534624    -3.75152731     2.68347311     0.00000000     0.00000000     0.00000000 0.00000000 VRAI 
CAM-LBC-USA_EBA-USA-IP-H       2023.09.05.15.38.44    -2.82412601    -3.70104003     3.12426901     0.00000000     0.00000000     0.00000000 0.00000000 VRAI 
CAM-EBA-US-IP_EBA-US-IP        2023.09.05.15.38.44     2.61467957    -4.19698954     3.83388090     0.00000000     0.00000000     0.00000000 0.00000000 VRAI 
CAM-EBA-US-HO_EBA-US-HO        2023.09.05.15.38.44     2.61702156    -4.19703007     5.89779139     0.00000000     0.00000000     0.00000000 0.00000000 VRAI 
CAM-EBA-USA-IP_EBA-USA-IP      2023.09.05.15.38.44    -2.61214662    -4.19699240     3.83301234     0.00000000     0.00000000     0.00000000 0.00000000 VRAI 
CAM-EBA-USA-HO_EBA-USA-HO      2023.09.05.15.38.44    -2.61280799    -4.19702053     5.89908123     0.00000000     0.00000000     0.00000000 0.00000000 VRAI 
CAM-EBC-US-IP_EBC-US-IP        2023.09.05.15.38.44     2.60409546    -4.19700480    -3.82636118     0.00000000     0.00000000     0.00000000 0.00000000 VRAI 
CAM-EBC-US-HO_EBC-US-HO        2023.09.05.15.38.44     2.62879157    -4.19704485    -5.92246246     0.00000000     0.00000000     0.00000000 0.00000000 VRAI 
CAM-EBC-USA-IP_EBC-USA-IP      2023.09.05.15.38.44    -2.61130071    -4.19698286    -3.82766461     0.00000000     0.00000000     0.00000000 0.00000000 VRAI 
CAM-EBC-USA-HO_EBC-USA-HO      2023.09.05.15.38.44    -2.61621571    -4.19702339    -5.89139032     0.00000000     0.00000000     0.00000000 0.00000000 VRAI 
CAM-JDA-US-IP_JDA-US-IP        2023.09.05.15.38.44     2.58995914    -4.19496870     6.54674482     0.00000000     0.00000000     0.00000000 0.00000000 VRAI 
CAM-JDA-US-HO_JDA-US-HO        2023.09.05.15.38.44     2.60406756    -4.13996267     6.94309711     0.00000000     0.00000000     0.00000000 0.00000000 VRAI 
CAM-JDA-USA-IP_JDA-USA-IP      2023.09.05.15.38.44    -2.59733224    -4.19499016     6.54789877     0.00000000     0.00000000     0.00000000 0.00000000 VRAI 
CAM-JDA-USA-HO_JDA-USA-HO      2023.09.05.15.38.44    -2.59857941    -4.13996840     6.94398308     0.00000000     0.00000000     0.00000000 0.00000000 VRAI 
CAM-JDC-US-IP_JDC-US-IP        2023.09.05.15.38.44     2.59847093    -4.19500685    -6.54722309     0.00000000     0.00000000     0.00000000 0.00000000 VRAI 
CAM-JDC-US-HO_JDC-US-HO        2023.09.05.15.38.44     2.58655834    -4.14004183    -6.94620800     0.00000000     0.00000000     0.00000000 0.00000000 VRAI 
CAM-JDC-USA-IP_JDC-USA-IP      2023.09.05.15.38.44    -2.57410717    -4.19504166    -6.56070805     0.00000000     0.00000000     0.00000000 0.00000000 VRAI 
CAM-JDC-USA-HO_JDC-USA-HO      2023.09.05.15.38.44    -2.58522105    -4.14003897    -6.94807673     0.00000000     0.00000000     0.00000000 0.00000000 VRAI 
CAM-ECTA-US-IP_ECTA-US-IP-T    2023.09.05.15.38.44     3.55893064     3.84859109     8.10764503     0.00000000     0.00000000     0.00000000 0.00000000 VRAI 
CAM-ECTA-US-IP_ECTA-US-IP      2023.09.05.15.38.44     3.52112913    -4.07059431     7.89870787     0.00000000     0.00000000     0.00000000 0.00000000 VRAI 
CAM-ECTA-US-HO_ECTA-US-HO-T    2023.09.05.15.38.44     3.87534642     3.64747334    12.93672180     0.00000000     0.00000000     0.00000000 0.00000000 VRAI 
CAM-ECTA-US-HO_ECTA-US-HO      2023.09.05.15.38.44     3.66416430    -3.92580652    12.88425827     0.00000000     0.00000000     0.00000000 0.00000000 VRAI 
CAM-ECTA-USA-IP_ECTA-USA-IP-T  2023.09.05.15.38.44    -3.68063235     3.84881854     7.89861822     0.00000000     0.00000000     0.00000000 0.00000000 VRAI 
CAM-ECTA-USA-IP_ECTA-USA-IP    2023.09.05.15.38.44    -3.53428435    -4.07043839     7.89029169     0.00000000     0.00000000     0.00000000 0.00000000 VRAI 
CAM-ECTA-USA-HO_ECTA-USA-HO-T  2023.09.05.15.38.44    -3.86191869     3.64768577    12.93528748     0.00000000     0.00000000     0.00000000 0.00000000 VRAI 
CAM-ECTA-USA-HO_ECTA-USA-HO    2023.09.05.15.38.44    -3.68540406    -3.92561054    12.88445854     0.00000000     0.00000000     0.00000000 0.00000000 VRAI 
CAM-ECTC-US-IP_ECTC-US-IP-T    2023.09.05.15.38.44     3.69177032     3.84800911    -7.77863359     0.00000000     0.00000000     0.00000000 0.00000000 VRAI 
CAM-ECTC-US-IP_ECTC-US-IP      2023.09.05.15.38.44     3.53335834    -4.07046366    -7.87875795     0.00000000     0.00000000     0.00000000 0.00000000 VRAI 
CAM-ECTC-US-HO_ECTC-US-HO-T    2023.09.05.15.38.44     3.86880636     3.64756918   -12.94085503     0.00000000     0.00000000     0.00000000 0.00000000 VRAI 
CAM-ECTC-US-HO_ECTC-US-HO      2023.09.05.15.38.44     3.67331600    -3.92563915   -12.89147091     0.00000000     0.00000000     0.00000000 0.00000000 VRAI 
CAM-ECTC-USA-IP_ECTC-USA-IP-T  2023.09.05.15.38.44    -3.67265010     3.84923434    -7.92174578     0.00000000     0.00000000     0.00000000 0.00000000 VRAI 
CAM-ECTC-USA-IP_ECTC-USA-IP    2023.09.05.15.38.44    -3.53215289    -4.07034779    -7.87353754     0.00000000     0.00000000     0.00000000 0.00000000 VRAI 
CAM-ECTC-USA-HO_ECTC-USA-HO-T  2023.09.05.15.38.44    -3.86862397     3.64758515   -12.93260479     0.00000000     0.00000000     0.00000000 0.00000000 VRAI 
CAM-ECTC-USA-HO_ECTC-USA-HO    2023.09.05.15.38.44    -3.67602825    -3.92565274   -12.88722324     0.00000000     0.00000000     0.00000000 0.00000000 VRAI 
