********** Fichier qui contient une sauvegarde des coordonnees images + coordonnees images transformees dans le repere BCAM (MOUNT) + coordonnees des prismes dans le repere MOUNT********** 
********************************************************************** Unite en metres (m)************************************************************************************************** 

*******************************************************************coordonnees images dans le repere CCD *********************************************************************************** 
20MABNDL000077_PR002
Spot 1     0.00052500     0.00043500
Spot 2     0.00052500     0.00043500
Spot 1     0.00086500     0.00006500
Spot 2     0.00086500     0.00006500
20MABNDL000077_PR003
Spot 1     0.00303500     0.00003500
Spot 2     0.00166500     0.00022500
Spot 1     0.00166500     0.00022500
Spot 2     0.00213500     0.00003500
20MABNDL000077_20MABNDM000168
Spot 1     0.00175603     0.00118417
Spot 2     0.00075500     0.00010500
Spot 1     0.00175573     0.00118415
Spot 2     0.00075500     0.00010500
20MABNDL000077_PR024
Spot 1     0.00251505     0.00142149
Spot 2     0.00261449     0.00143290
Spot 1     0.00251518     0.00142147
Spot 2     0.00261441     0.00143271
20MABNDM000020_PR013
Spot 1     0.00044500     0.00008500
Spot 2     0.00044500     0.00008500
Spot 1     0.00044500     0.00008500
Spot 2     0.00044500     0.00008500
20MABNDM000020_PR014
Spot 1     0.00266003     0.00168465
Spot 2     0.00249797     0.00168814
Spot 1     0.00266106     0.00168484
Spot 2     0.00249821     0.00168797
20MABNDM000020_20MABNDL000196
Spot 1     0.00197750     0.00118014
Spot 2     0.00268500     0.00028500
Spot 1     0.00197739     0.00117982
Spot 2     0.00230500     0.00010500
20MABNDM000020_PR035
Spot 1     0.00126432     0.00149088
Spot 2     0.00118791     0.00152704
Spot 1     0.00126394     0.00149080
Spot 2     0.00118766     0.00152722
20MABNDM000168_PR025
Spot 1     0.00076233     0.00147424
Spot 2     0.00060505     0.00147915
Spot 1     0.00076218     0.00147431
Spot 2     0.00060495     0.00147901
20MABNDM000168_PR026
Spot 1     0.00266796     0.00142399
Spot 2     0.00250618     0.00142005
Spot 1     0.00266817     0.00142442
Spot 2     0.00250622     0.00142014
20MABNDM000168_20MABNDL000077
Spot 1     0.00154201     0.00129816
Spot 2     0.00175838     0.00130215
20MABNDM000168_PR001
Spot 1     0.00080998     0.00161746
Spot 2     0.00070706     0.00161862
20MABNDL000196_PR036
Spot 1     0.00094502     0.00164924
Spot 2     0.00110998     0.00164749
20MABNDL000196_PR037
Spot 1     0.00283285     0.00146846
Spot 2     0.00299225     0.00147129
20MABNDL000196_20MABNDM000020
Spot 1     0.00192426     0.00103943
Spot 2     0.00170303     0.00104575
20MABNDL000196_PR012
Spot 1     0.00327500     0.00013500
Spot 2     0.00272216     0.00138481
20MABNDA000134_PR004
Spot 1     0.00190797     0.00176097
Spot 2     0.00168891     0.00175368
20MABNDA000334_PR005
Spot 1     0.00248311     0.00157831
Spot 2     0.00220276     0.00157846
20MABNDB000317_PR015
Spot 1     0.00146312     0.00168261
Spot 2     0.00168354     0.00167465
20MABNDB000146_PR016
Spot 1     0.00144615     0.00131415
Spot 2     0.00172250     0.00131607
20MABNDB000135_PR027
Spot 1     0.00188461     0.00089191
Spot 2     0.00210346     0.00089515
20MABNDB000126_PR028
Spot 1     0.00193238     0.00198145
Spot 2    -0.00000100    -0.00000100
20MABNDA000272_PR038
Spot 1     0.00192302     0.00095148
Spot 2     0.00170065     0.00095100
20MABNDA000003_PR039
Spot 1     0.00201506     0.00193116
Spot 2     0.00229364     0.00193170
20MABNDA000196_PR006
Spot 1     0.00138749     0.00067146
Spot 2     0.00175328     0.00067381
20MABNDA000324_PR007
Spot 1     0.00199717     0.00134198
Spot 2     0.00220365     0.00133622
20MABNDB000001_PR017
Spot 1     0.00185791     0.00088608
Spot 2     0.00222769     0.00089065
20MABNDB000260_PR019
Spot 1     0.00206717     0.00145864
Spot 2     0.00227500     0.00145500
20MABNDB000212_PR029
Spot 1     0.00220750     0.00069127
Spot 2     0.00184500     0.00068879
20MABNDB000128_PR030
Spot 1     0.00268586     0.00161648
Spot 2     0.00248751     0.00161900
20MABNDA000444_PR040
Spot 1     0.00179431     0.00069560
Spot 2     0.00242500     0.00014500
20MABNDA000053_PR041
Spot 1     0.00123622     0.00144425
Spot 2     0.00144113     0.00144486
20MABNDA000188_PR008
Spot 1     0.00297500     0.00011500
Spot 2     0.00297500     0.00011500
20MABNDA000188_PR018
Spot 1     0.00170887     0.00167353
Spot 2     0.00124137     0.00166994
20MABNDA000039_PR009
Spot 1     0.00066566     0.00117867
Spot 2     0.00061508     0.00118323
20MABNDA000039_PR011
Spot 1     0.00277049     0.00028173
Spot 2     0.00259349     0.00027642
20MABNDB000155_PR020
Spot 1     0.00061830     0.00112500
Spot 2     0.00068823     0.00112034
20MABNDB000155_PR022
Spot 1     0.00211776     0.00141284
Spot 2     0.00259125     0.00140825
20MABNDB000010_PR021
Spot 1     0.00286670     0.00115144
Spot 2     0.00292523     0.00115490
20MABNDB000010_PR023
Spot 1     0.00131240     0.00030110
Spot 2     0.00148861     0.00029919
20MABNDB000069_PR031
Spot 1     0.00021500     0.00240500
Spot 2     0.00021500     0.00240500
20MABNDB000069_PR033
Spot 1     0.00183079     0.00206734
Spot 2     0.00230146     0.00208752
20MABNDB000131_PR032
Spot 1     0.00277730     0.00108121
Spot 2     0.00283781     0.00109406
20MABNDB000131_PR034
Spot 1     0.00092092     0.00032484
Spot 2     0.00109698     0.00032426
20MABNDA000208_PR042
Spot 1     0.00284500     0.00011500
Spot 2     0.00284500     0.00011500
20MABNDA000208_PR046
Spot 1     0.00143998     0.00222270
Spot 2     0.00096958     0.00222522
20MABNDA000035_PR044
Spot 1     0.00074474     0.00125823
Spot 2     0.00068355     0.00125308
20MABNDA000035_PR045
Spot 1     0.00254806     0.00046723
Spot 2     0.00236998     0.00046562


****************************************************************coordonnees images transformees dans le repere MOUNT************************************************************************* 
20MABNDL000077_PR002
Spot 1     0.01158509     0.03451311    -0.07463200
Spot 2     0.01158509     0.03451311    -0.07463200
Spot 1     0.01192151     0.03413986    -0.07463200
Spot 2     0.01192151     0.03413986    -0.07463200
20MABNDL000077_PR003
Spot 1     0.01409112     0.03408898    -0.07463200
Spot 2     0.01272301     0.03429215    -0.07463200
Spot 1     0.01272301     0.03429215    -0.07463200
Spot 2     0.01319116     0.03409764    -0.07463200
20MABNDL000077_20MABNDM000168
Spot 1    -0.01259117     0.03524717    -0.00695400
Spot 2    -0.01157915     0.03417830    -0.00695400
Spot 1    -0.01259087     0.03524715    -0.00695400
Spot 2    -0.01157915     0.03417830    -0.00695400
20MABNDL000077_PR024
Spot 1    -0.01335258     0.03547670    -0.00695400
Spot 2    -0.01345213     0.03548710    -0.00695400
Spot 1    -0.01335271     0.03547668    -0.00695400
Spot 2    -0.01345205     0.03548691    -0.00695400
20MABNDM000020_PR013
Spot 1    -0.01394554    -0.03407018    -0.00523500
Spot 2    -0.01394554    -0.03407018    -0.00523500
Spot 1    -0.01394554    -0.03407018    -0.00523500
Spot 2    -0.01394554    -0.03407018    -0.00523500
20MABNDM000020_PR014
Spot 1    -0.01169568    -0.03562045    -0.00523500
Spot 2    -0.01185762    -0.03562753    -0.00523500
Spot 1    -0.01169464    -0.03562062    -0.00523500
Spot 2    -0.01185738    -0.03562735    -0.00523500
20MABNDM000020_20MABNDL000196
Spot 1     0.01270878    -0.03514870    -0.07583800
Spot 2     0.01200115    -0.03425366    -0.07583800
Spot 1     0.01270889    -0.03514838    -0.07583800
Spot 2     0.01238113    -0.03407361    -0.07583800
20MABNDM000020_PR035
Spot 1     0.01342200    -0.03545934    -0.07583800
Spot 2     0.01349842    -0.03549549    -0.07583800
Spot 1     0.01342238    -0.03545926    -0.07583800
Spot 2     0.01349867    -0.03549567    -0.07583800
20MABNDM000168_PR025
Spot 1    -0.01363979    -0.03581320    -0.00532900
Spot 2    -0.01379705    -0.03581879    -0.00532900
Spot 1    -0.01363994    -0.03581327    -0.00532900
Spot 2    -0.01379715    -0.03581865    -0.00532900
20MABNDM000168_PR026
Spot 1    -0.01173440    -0.03575477    -0.00532900
Spot 2    -0.01189619    -0.03575152    -0.00532900
Spot 1    -0.01173419    -0.03575520    -0.00532900
Spot 2    -0.01189615    -0.03575161    -0.00532900
20MABNDM000168_20MABNDL000077
Spot 1     0.01288348    -0.03529879    -0.07445100
Spot 2     0.01266707    -0.03529961    -0.07445100
20MABNDM000168_PR001
Spot 1     0.01361076    -0.03562876    -0.07445100
Spot 2     0.01371365    -0.03563143    -0.07445100
20MABNDL000196_PR036
Spot 1     0.01192492     0.03583794    -0.07483600
Spot 2     0.01208989     0.03583653    -0.07483600
20MABNDL000196_PR037
Spot 1     0.01381313     0.03566109    -0.07483600
Spot 2     0.01397252     0.03566426    -0.07483600
20MABNDL000196_20MABNDM000020
Spot 1    -0.01274827     0.03531067    -0.00611000
Spot 2    -0.01252721     0.03532144    -0.00611000
20MABNDL000196_PR012
Spot 1    -0.01408054     0.03437924    -0.00611000
Spot 2    -0.01355296     0.03563992    -0.00611000
20MABNDA000134_PR004
Spot 1    -0.01287871     0.01241188    -0.07608400
Spot 2    -0.01265953     0.01241309    -0.07608400
20MABNDA000334_PR005
Spot 1    -0.01312621     0.01255009    -0.07324100
Spot 2    -0.01284586     0.01254968    -0.07324100
20MABNDB000317_PR015
Spot 1    -0.01269213    -0.01241573    -0.07326100
Spot 2    -0.01247163    -0.01242112    -0.07326100
20MABNDB000146_PR016
Spot 1    -0.01276217    -0.01247946    -0.07450500
Spot 2    -0.01248583    -0.01247693    -0.07450500
20MABNDB000135_PR027
Spot 1    -0.01252033    -0.01322104    -0.07464700
Spot 2    -0.01230146    -0.01322023    -0.07464700
20MABNDB000126_PR028
Spot 1    -0.01224701    -0.01219918    -0.07500400
Spot 2    -0.01416978    -0.01419193    -0.07500400
20MABNDA000272_PR038
Spot 1    -0.01275867     0.01315999    -0.07417900
Spot 2    -0.01253630     0.01316007    -0.07417900
20MABNDA000003_PR039
Spot 1    -0.01281616     0.01212114    -0.07373400
Spot 2    -0.01309474     0.01212131    -0.07373400
20MABNDA000196_PR006
Spot 1    -0.01234150     0.01329907    -0.07967100
Spot 2    -0.01270729     0.01330142    -0.07967100
20MABNDA000324_PR007
Spot 1    -0.01260187     0.01267921    -0.07446800
Spot 2    -0.01280839     0.01268336    -0.07446800
20MABNDB000001_PR017
Spot 1    -0.01232571    -0.01310316    -0.07418400
Spot 2    -0.01195591    -0.01310251    -0.07418400
20MABNDB000260_PR019
Spot 1    -0.01226330    -0.01244093    -0.07492700
Spot 2    -0.01205544    -0.01244031    -0.07492700
20MABNDB000212_PR029
Spot 1    -0.01188045    -0.01328972    -0.07390500
Spot 2    -0.01224295    -0.01328833    -0.07390500
20MABNDB000128_PR030
Spot 1    -0.01166794    -0.01259812    -0.07353400
Spot 2    -0.01186629    -0.01259628    -0.07353400
20MABNDA000444_PR040
Spot 1    -0.01272972     0.01332093    -0.07412000
Spot 2    -0.01336734     0.01386348    -0.07412000
20MABNDA000053_PR041
Spot 1    -0.01198229     0.01265797    -0.07430100
Spot 2    -0.01218718     0.01266136    -0.07430100
20MABNDA000188_PR008
Spot 1    -0.01399107     0.01394961    -0.07502000
Spot 2    -0.01399107     0.01394961    -0.07502000
20MABNDA000188_PR018
Spot 1    -0.01273833     0.01238030    -0.07502000
Spot 2    -0.01227082     0.01237988    -0.07502000
20MABNDA000039_PR009
Spot 1    -0.01162780     0.01306547    -0.07444800
Spot 2    -0.01157724     0.01306069    -0.07444800
20MABNDA000039_PR011
Spot 1    -0.01372873     0.01397151    -0.07444800
Spot 2    -0.01355171     0.01397605    -0.07444800
20MABNDB000155_PR020
Spot 1    -0.01364779    -0.01313239    -0.07501700
Spot 2    -0.01357781    -0.01313609    -0.07501700
20MABNDB000155_PR022
Spot 1    -0.01215242    -0.01282405    -0.07501700
Spot 2    -0.01167891    -0.01282216    -0.07501700
20MABNDB000010_PR021
Spot 1    -0.01158428    -0.01292711    -0.07358200
Spot 2    -0.01152582    -0.01292265    -0.07358200
20MABNDB000010_PR023
Spot 1    -0.01312395    -0.01380365    -0.07358200
Spot 2    -0.01294773    -0.01380258    -0.07358200
20MABNDB000069_PR031
Spot 1    -0.01361993    -0.01186066    -0.07388500
Spot 2    -0.01361993    -0.01186066    -0.07388500
20MABNDB000069_PR033
Spot 1    -0.01201945    -0.01226472    -0.07388500
Spot 2    -0.01154835    -0.01226398    -0.07388500
20MABNDB000131_PR032
Spot 1    -0.01144287    -0.01303354    -0.07533000
Spot 2    -0.01138242    -0.01302039    -0.07533000
20MABNDB000131_PR034
Spot 1    -0.01329542    -0.01379925    -0.07533000
Spot 2    -0.01311936    -0.01379894    -0.07533000
20MABNDA000208_PR042
Spot 1    -0.01371645     0.01388121    -0.07273700
Spot 2    -0.01371645     0.01388121    -0.07273700
20MABNDA000208_PR046
Spot 1    -0.01230959     0.01177474    -0.07273700
Spot 2    -0.01183918     0.01177263    -0.07273700
20MABNDA000035_PR044
Spot 1    -0.01157940     0.01299906    -0.07483200
Spot 2    -0.01151817     0.01300378    -0.07483200
20MABNDA000035_PR045
Spot 1    -0.01337704     0.01380287    -0.07483200
Spot 2    -0.01319896     0.01380321    -0.07483200


*****************************************************************coordonnees du prisme dans le repere MOUNT********************************************************************************** 
20MABNDL000077_PR002
    0.06737348     0.07371713     3.70652628
    0.05075517     0.09215411     3.70650077
20MABNDL000077_PR003
   -0.02442564     0.09238309     3.89546967
   -0.00106648     0.09216069     3.89562559
20MABNDL000077_20MABNDM000168
   -0.05601750     0.07579404    -5.46843529
   -0.05602834     0.07579465    -5.46843529
20MABNDL000077_PR024
    0.04323795     0.01898211    -5.89642811
    0.04323982     0.01899031    -5.89642811
20MABNDM000020_PR013
    0.05274186    -0.08860095    -3.80153990
    0.05274186    -0.08860095    -3.80153990
20MABNDM000020_PR014
   -0.06560141    -0.00530066    -4.74841166
   -0.06564094    -0.00530091    -4.74841118
20MABNDM000020_20MABNDL000196
    0.04048350    -0.06471941     5.39468241
    0.02686599    -0.07118180     5.39469719
20MABNDM000020_PR035
   -0.04258846    -0.00707744     5.80095482
   -0.04261273    -0.00707359     5.80095482
20MABNDM000168_PR025
    0.03850320    -0.01221390    -3.78836727
    0.03850939    -0.01221560    -3.78836727
20MABNDM000168_PR026
   -0.05786614    -0.01422653    -3.98429179
   -0.05787270    -0.01421303    -3.98429132
20MABNDM000168_20MABNDL000077
    0.01159027    -0.03892473     5.38884640
20MABNDM000168_PR001
   -0.05726265    -0.01349751     5.81470680
20MABNDL000196_PR036
    0.05140650     0.00549805     3.68776751
20MABNDL000196_PR037
   -0.04403041     0.01290704     3.88352108
20MABNDL000196_20MABNDM000020
   -0.01581482     0.03800000    -5.47473860
20MABNDL000196_PR012
    0.07556682     0.06197719    -5.91504860
20MABNDA000134_PR004
   -0.00832148     0.03811681     2.74966145
20MABNDA000334_PR005
   -0.00398651     0.03146654     2.14977264
20MABNDB000317_PR015
   -0.01645570    -0.03696328     2.75126743
20MABNDB000146_PR016
   -0.01349375    -0.03125984     2.15201735
20MABNDB000135_PR027
   -0.02077144    -0.00899861     2.74937057
20MABNDB000126_PR028
    0.00288667    -0.00976922     2.14690590
20MABNDA000272_PR038
   -0.01324814     0.01081752     2.74965858
20MABNDA000003_PR039
   -0.00551938     0.04137687     2.14891243
20MABNDA000196_PR006
   -0.01550064     0.00878645     1.64206028
20MABNDA000324_PR007
   -0.01524317     0.03281526     2.95548868
20MABNDB000001_PR017
   -0.02362314    -0.01257374     1.64039493
20MABNDB000260_PR019
   -0.03018055    -0.03666590     2.95626020
20MABNDB000212_PR029
   -0.02480366    -0.00823094     1.64224184
20MABNDB000128_PR030
   -0.04229754    -0.03191428     2.95495367
20MABNDA000444_PR040
   -0.00439170     0.00271832     1.64499378
20MABNDA000053_PR041
   -0.03532184     0.02984375     2.95464683
20MABNDA000188_PR008
    0.14616936    -0.09611703     9.20304298
20MABNDA000188_PR018
   -0.01598809     0.02473442     1.28359342
20MABNDA000039_PR009
   -0.17114511     0.02542512    11.00701618
20MABNDA000039_PR011
    0.03085555    -0.02456535     3.43346930
20MABNDB000155_PR020
    0.10200758    -0.00830650     9.20028496
20MABNDB000155_PR022
   -0.02569328    -0.01777150     1.28070652
20MABNDB000010_PR021
   -0.17613724    -0.03353894    11.00694752
20MABNDB000010_PR023
    0.00426693     0.02081166     3.43376637
20MABNDB000069_PR031
    0.10999375    -0.16176865     9.20229721
20MABNDB000069_PR033
   -0.02694052    -0.02691442     1.28393948
20MABNDB000131_PR032
   -0.18802933    -0.03099403    11.00641823
20MABNDB000131_PR034
    0.01447538     0.01647283     3.43337750
20MABNDA000208_PR042
    0.11037338    -0.08822197     9.20121384
20MABNDA000208_PR046
   -0.02360914     0.03498626     1.28207445
20MABNDA000035_PR044
   -0.17933387     0.02694061    11.00803185
20MABNDA000035_PR045
    0.01470132    -0.01916561     3.43483448


*****************************************************************coordonnees du prisme dans le repere ATLAS********************************************************************************** 
20MABNDL000077_PR002 0.00000000
    2.78332901    -3.67712641     6.48587990
    2.76488686    -3.69373894     6.48585176
20MABNDL000077_PR003 0.00000000
    2.76481915    -3.76915264     6.67472792
    2.76504922    -3.74579382     6.67491245
20MABNDL000077_20MABNDM000168 0.00000000
    2.77221322    -3.78919673    -2.68922043
    2.77221274    -3.78920746    -2.68922043
20MABNDL000077_PR024 0.00000000
    2.82863712    -3.68943119    -3.11714602
    2.82862878    -3.68942952    -3.11714602
20MABNDM000020_PR013 0.00000000
   -2.76372600    -3.79224682     6.48532534
   -2.76372600    -3.79224682     6.48532534
20MABNDM000020_PR014 0.00000000
   -2.84680057    -3.67459822     7.43230343
   -2.84680009    -3.67455864     7.43230295
20MABNDM000020_20MABNDL000196 0.00000000
   -2.78944397    -3.77298689    -2.71088004
   -2.78297758    -3.75937152    -2.71088576
20MABNDM000020_PR035 0.00000000
   -2.84714198    -3.68958855    -3.11707759
   -2.84714580    -3.68956423    -3.11707759
20MABNDM000168_PR025 0.00000000
    2.84101748    -3.78383470    -6.47897911
    2.84101582    -3.78384089    -6.47897911
20MABNDM000168_PR026 0.00000000
    2.83901858    -3.68753767    -6.67493916
    2.83903193    -3.68753099    -6.67493868
20MABNDM000168_20MABNDL000077 0.00000000
    2.81487083    -3.75350237     2.69822574
20MABNDM000168_PR001 0.00000000
    2.84034204    -3.68449783     3.12405896
20MABNDL000196_PR036 0.00000000
   -2.84810948    -3.69286823    -6.47909117
20MABNDL000196_PR037 0.00000000
   -2.84066033    -3.78848362    -6.67475605
20MABNDL000196_20MABNDM000020 0.00000000
   -2.81537819    -3.75155139     2.68347311
20MABNDL000196_PR012 0.00000000
   -2.79143405    -3.65974903     3.12369728
20MABNDA000134_PR004 0.00000000
    2.61468172    -4.19698954     3.83388186
20MABNDA000334_PR005 0.00000000
    2.61701202    -4.19703007     5.89779425
20MABNDB000317_PR015 0.00000000
   -2.61215162    -4.19699240     3.83305216
20MABNDB000146_PR016 0.00000000
   -2.61280155    -4.19702053     5.89909029
20MABNDB000135_PR027 0.00000000
    2.60409212    -4.19700480    -3.82636213
20MABNDB000126_PR028 0.00000000
    2.62878919    -4.19704485    -5.92246246
20MABNDA000272_PR038 0.00000000
   -2.61128879    -4.19698286    -3.82766676
20MABNDA000003_PR039 0.00000000
   -2.61621189    -4.19702339    -5.89138985
20MABNDA000196_PR006 0.00000000
    2.58996129    -4.19496870     6.54674339
20MABNDA000324_PR007 0.00000000
    2.60407209    -4.13996267     6.94310093
20MABNDB000001_PR017 0.00000000
   -2.59732771    -4.19499016     6.54790163
20MABNDB000260_PR019 0.00000000
   -2.59858203    -4.13996840     6.94398022
20MABNDB000212_PR029 0.00000000
    2.59848142    -4.19500685    -6.54721880
20MABNDB000128_PR030 0.00000000
    2.58656406    -4.14004183    -6.94621134
20MABNDA000444_PR040 0.00000000
   -2.57956433    -4.19501305    -6.54190111
20MABNDA000053_PR041 0.00000000
   -2.58521795    -4.14003897    -6.94806910
20MABNDA000188_PR008 0.00000000
    3.55893064     3.84859109     8.10764503
20MABNDA000188_PR018 0.00000000
    3.52113223    -4.07059431     7.89871740
20MABNDA000039_PR009 0.00000000
    3.87531710     3.64747429    12.93671894
20MABNDA000039_PR011 0.00000000
    3.66416860    -3.92580652    12.88427162
20MABNDB000155_PR020 0.00000000
   -3.68066025     3.84881830     7.89856052
20MABNDB000155_PR022 0.00000000
   -3.53428721    -4.07043839     7.89028788
20MABNDB000010_PR021 0.00000000
   -3.86197472     3.64768481    12.93536854
20MABNDB000010_PR023 0.00000000
   -3.68540001    -3.92561054    12.88446426
20MABNDB000069_PR031 0.00000000
    3.69177032     3.84800911    -7.77863359
20MABNDB000069_PR033 0.00000000
    3.53335881    -4.07046366    -7.87875700
20MABNDB000131_PR032 0.00000000
    3.86883140     3.64756799   -12.94163704
20MABNDB000131_PR034 0.00000000
    3.67331386    -3.92563915   -12.89147472
20MABNDA000208_PR042 0.00000000
   -3.66039658     3.84884048    -7.99969625
20MABNDA000208_PR046 0.00000000
   -3.53215647    -4.07034779    -7.87353182
20MABNDA000035_PR044 0.00000000
   -3.86857486     3.64758706   -12.93262005
20MABNDA000035_PR045 0.00000000
   -3.67602706    -3.92565274   -12.88721848


*****************************************************************Rapport********************************************************************************** 
CAM-LBA-US_EBA-US-HO-H         2023.08.26.11.23.47     2.77410793    -3.68543267     6.48586583     0.00922108     0.00830626     0.00001407 0.00000000 VRAI 
CAM-LBA-US_JDA-US-H            2023.08.26.11.23.47     2.76493418    -3.75747323     6.67482018     0.00011504     0.01167941     0.00009227 0.00000000 VRAI 
CAM-LBA-US_CAM-LBC-US          2023.08.26.11.23.47     2.77221298    -3.78920209    -2.68922043     0.00000024     0.00000536     0.00000000 0.00000000 VRAI 
CAM-LBA-US_EBC-US-IP-H         2023.08.26.11.23.47     2.82863295    -3.68943036    -3.11714602     0.00000417     0.00000083     0.00000000 0.00000000 VRAI 
CAM-LBA-USA_EBA-USA-HO-H       2023.08.26.11.23.47    -2.76372600    -3.79224682     6.48532534     0.00000000     0.00000000     0.00000000 0.00000000 VRAI 
CAM-LBA-USA_JDA-USA-H          2023.08.26.11.23.47    -2.84680033    -3.67457843     7.43230319     0.00000024     0.00001979     0.00000024 0.00000000 VRAI 
CAM-LBA-USA_CAM-LBC-USA        2023.08.26.11.23.47    -2.78621078    -3.76617920    -2.71088290     0.00323319     0.00680768     0.00000286 0.00000000 VRAI 
CAM-LBA-USA_EBC-USA-IP-H       2023.08.26.11.23.47    -2.84714389    -3.68957639    -3.11707759     0.00000191     0.00001216     0.00000000 0.00000000 VRAI 
CAM-LBC-US_EBC-US-HO-H         2023.08.26.11.23.47     2.84101665    -3.78383780    -6.47897911     0.00000083     0.00000310     0.00000000 0.00000000 VRAI 
CAM-LBC-US_JDC-US-H            2023.08.26.11.23.47     2.83902526    -3.68753433    -6.67493892     0.00000668     0.00000334     0.00000024 0.00000000 VRAI 
CAM-LBC-US_CAM-LBA-US          2023.08.26.11.23.47     2.81487083    -3.75350237     2.69822574     0.00000000     0.00000000     0.00000000 0.00000000 VRAI 
CAM-LBC-US_EBA-US-IP-H         2023.08.26.11.23.47     2.84034204    -3.68449783     3.12405896     0.00000000     0.00000000     0.00000000 0.00000000 VRAI 
CAM-LBC-USA_EBC-USA-HO-H       2023.08.26.11.23.47    -2.84810948    -3.69286823    -6.47909117     0.00000000     0.00000000     0.00000000 0.00000000 VRAI 
CAM-LBC-USA_JDC-USA-H          2023.08.26.11.23.47    -2.84066033    -3.78848362    -6.67475605     0.00000000     0.00000000     0.00000000 0.00000000 VRAI 
CAM-LBC-USA_CAM-LBA-USA        2023.08.26.11.23.47    -2.81537819    -3.75155139     2.68347311     0.00000000     0.00000000     0.00000000 0.00000000 VRAI 
CAM-LBC-USA_EBA-USA-IP-H       2023.08.26.11.23.47    -2.79143405    -3.65974903     3.12369728     0.00000000     0.00000000     0.00000000 0.00000000 VRAI 
CAM-EBA-US-IP_EBA-US-IP        2023.08.26.11.23.47     2.61468172    -4.19698954     3.83388186     0.00000000     0.00000000     0.00000000 0.00000000 VRAI 
CAM-EBA-US-HO_EBA-US-HO        2023.08.26.11.23.47     2.61701202    -4.19703007     5.89779425     0.00000000     0.00000000     0.00000000 0.00000000 VRAI 
CAM-EBA-USA-IP_EBA-USA-IP      2023.08.26.11.23.47    -2.61215162    -4.19699240     3.83305216     0.00000000     0.00000000     0.00000000 0.00000000 VRAI 
CAM-EBA-USA-HO_EBA-USA-HO      2023.08.26.11.23.47    -2.61280155    -4.19702053     5.89909029     0.00000000     0.00000000     0.00000000 0.00000000 VRAI 
CAM-EBC-US-IP_EBC-US-IP        2023.08.26.11.23.47     2.60409212    -4.19700480    -3.82636213     0.00000000     0.00000000     0.00000000 0.00000000 VRAI 
CAM-EBC-US-HO_EBC-US-HO        2023.08.26.11.23.47     2.62878919    -4.19704485    -5.92246246     0.00000000     0.00000000     0.00000000 0.00000000 VRAI 
CAM-EBC-USA-IP_EBC-USA-IP      2023.08.26.11.23.47    -2.61128879    -4.19698286    -3.82766676     0.00000000     0.00000000     0.00000000 0.00000000 VRAI 
CAM-EBC-USA-HO_EBC-USA-HO      2023.08.26.11.23.47    -2.61621189    -4.19702339    -5.89138985     0.00000000     0.00000000     0.00000000 0.00000000 VRAI 
CAM-JDA-US-IP_JDA-US-IP        2023.08.26.11.23.47     2.58996129    -4.19496870     6.54674339     0.00000000     0.00000000     0.00000000 0.00000000 VRAI 
CAM-JDA-US-HO_JDA-US-HO        2023.08.26.11.23.47     2.60407209    -4.13996267     6.94310093     0.00000000     0.00000000     0.00000000 0.00000000 VRAI 
CAM-JDA-USA-IP_JDA-USA-IP      2023.08.26.11.23.47    -2.59732771    -4.19499016     6.54790163     0.00000000     0.00000000     0.00000000 0.00000000 VRAI 
CAM-JDA-USA-HO_JDA-USA-HO      2023.08.26.11.23.47    -2.59858203    -4.13996840     6.94398022     0.00000000     0.00000000     0.00000000 0.00000000 VRAI 
CAM-JDC-US-IP_JDC-US-IP        2023.08.26.11.23.47     2.59848142    -4.19500685    -6.54721880     0.00000000     0.00000000     0.00000000 0.00000000 VRAI 
CAM-JDC-US-HO_JDC-US-HO        2023.08.26.11.23.47     2.58656406    -4.14004183    -6.94621134     0.00000000     0.00000000     0.00000000 0.00000000 VRAI 
CAM-JDC-USA-IP_JDC-USA-IP      2023.08.26.11.23.47    -2.57956433    -4.19501305    -6.54190111     0.00000000     0.00000000     0.00000000 0.00000000 VRAI 
CAM-JDC-USA-HO_JDC-USA-HO      2023.08.26.11.23.47    -2.58521795    -4.14003897    -6.94806910     0.00000000     0.00000000     0.00000000 0.00000000 VRAI 
CAM-ECTA-US-IP_ECTA-US-IP-T    2023.08.26.11.23.47     3.55893064     3.84859109     8.10764503     0.00000000     0.00000000     0.00000000 0.00000000 VRAI 
CAM-ECTA-US-IP_ECTA-US-IP      2023.08.26.11.23.47     3.52113223    -4.07059431     7.89871740     0.00000000     0.00000000     0.00000000 0.00000000 VRAI 
CAM-ECTA-US-HO_ECTA-US-HO-T    2023.08.26.11.23.47     3.87531710     3.64747429    12.93671894     0.00000000     0.00000000     0.00000000 0.00000000 VRAI 
CAM-ECTA-US-HO_ECTA-US-HO      2023.08.26.11.23.47     3.66416860    -3.92580652    12.88427162     0.00000000     0.00000000     0.00000000 0.00000000 VRAI 
CAM-ECTA-USA-IP_ECTA-USA-IP-T  2023.08.26.11.23.47    -3.68066025     3.84881830     7.89856052     0.00000000     0.00000000     0.00000000 0.00000000 VRAI 
CAM-ECTA-USA-IP_ECTA-USA-IP    2023.08.26.11.23.47    -3.53428721    -4.07043839     7.89028788     0.00000000     0.00000000     0.00000000 0.00000000 VRAI 
CAM-ECTA-USA-HO_ECTA-USA-HO-T  2023.08.26.11.23.47    -3.86197472     3.64768481    12.93536854     0.00000000     0.00000000     0.00000000 0.00000000 VRAI 
CAM-ECTA-USA-HO_ECTA-USA-HO    2023.08.26.11.23.47    -3.68540001    -3.92561054    12.88446426     0.00000000     0.00000000     0.00000000 0.00000000 VRAI 
CAM-ECTC-US-IP_ECTC-US-IP-T    2023.08.26.11.23.47     3.69177032     3.84800911    -7.77863359     0.00000000     0.00000000     0.00000000 0.00000000 VRAI 
CAM-ECTC-US-IP_ECTC-US-IP      2023.08.26.11.23.47     3.53335881    -4.07046366    -7.87875700     0.00000000     0.00000000     0.00000000 0.00000000 VRAI 
CAM-ECTC-US-HO_ECTC-US-HO-T    2023.08.26.11.23.47     3.86883140     3.64756799   -12.94163704     0.00000000     0.00000000     0.00000000 0.00000000 VRAI 
CAM-ECTC-US-HO_ECTC-US-HO      2023.08.26.11.23.47     3.67331386    -3.92563915   -12.89147472     0.00000000     0.00000000     0.00000000 0.00000000 VRAI 
CAM-ECTC-USA-IP_ECTC-USA-IP-T  2023.08.26.11.23.47    -3.66039658     3.84884048    -7.99969625     0.00000000     0.00000000     0.00000000 0.00000000 VRAI 
CAM-ECTC-USA-IP_ECTC-USA-IP    2023.08.26.11.23.47    -3.53215647    -4.07034779    -7.87353182     0.00000000     0.00000000     0.00000000 0.00000000 VRAI 
CAM-ECTC-USA-HO_ECTC-USA-HO-T  2023.08.26.11.23.47    -3.86857486     3.64758706   -12.93262005     0.00000000     0.00000000     0.00000000 0.00000000 VRAI 
CAM-ECTC-USA-HO_ECTC-USA-HO    2023.08.26.11.23.47    -3.67602706    -3.92565274   -12.88721848     0.00000000     0.00000000     0.00000000 0.00000000 VRAI 
