********** Fichier qui contient une sauvegarde des coordonnees images + coordonnees images transformees dans le repere BCAM (MOUNT) + coordonnees des prismes dans le repere MOUNT********** 
********************************************************************** Unite en metres (m)************************************************************************************************** 

*******************************************************************coordonnees images dans le repere CCD *********************************************************************************** 
20MABNDL000077_PR002
Spot 1     0.00109500     0.00008500
Spot 2     0.00100389     0.00147222
Spot 1     0.00097100     0.00160600
Spot 2     0.00109500     0.00008500
20MABNDL000077_PR003
Spot 1     0.00235500     0.00028500
Spot 2     0.00235500     0.00028500
Spot 1     0.00235500     0.00028500
Spot 2     0.00235500     0.00028500
20MABNDL000077_20MABNDM000168
Spot 1     0.00175591     0.00118188
Spot 2     0.00156859     0.00122423
Spot 1     0.00175599     0.00118175
Spot 2     0.00075500     0.00010500
20MABNDL000077_PR024
Spot 1     0.00251491     0.00141927
Spot 2     0.00261376     0.00143110
Spot 1     0.00251488     0.00141949
Spot 2     0.00261397     0.00143119
20MABNDM000020_PR013
Spot 1     0.00044500     0.00008500
Spot 2     0.00044500     0.00008500
Spot 1     0.00044500     0.00008500
Spot 2     0.00044500     0.00008500
20MABNDM000020_PR014
Spot 1     0.00265994     0.00168444
Spot 2     0.00249836     0.00168824
Spot 1     0.00266026     0.00168510
Spot 2     0.00249843     0.00168795
20MABNDM000020_20MABNDL000196
Spot 1     0.00197670     0.00117993
Spot 2     0.00124500     0.00029500
Spot 1     0.00197642     0.00117984
Spot 2     0.00247500     0.00023500
20MABNDM000020_PR035
Spot 1     0.00126383     0.00149132
Spot 2     0.00118709     0.00152733
20MABNDM000168_PR025
Spot 1     0.00076234     0.00147549
Spot 2     0.00060479     0.00148036
20MABNDM000168_PR026
Spot 1     0.00266775     0.00142564
Spot 2     0.00250642     0.00142163
20MABNDM000168_20MABNDL000077
Spot 1     0.00154165     0.00129804
Spot 2     0.00175966     0.00130429
20MABNDM000168_PR001
Spot 1     0.00080900     0.00161743
Spot 2     0.00070699     0.00161917
20MABNDL000196_PR036
Spot 1     0.00094512     0.00164944
Spot 2     0.00110993     0.00164855
20MABNDL000196_PR037
Spot 1     0.00283289     0.00146848
Spot 2     0.00299215     0.00147138
20MABNDL000196_20MABNDM000020
Spot 1     0.00192492     0.00103938
Spot 2     0.00170389     0.00104451
20MABNDL000196_PR012
Spot 1     0.00327500     0.00013500
Spot 2     0.00272231     0.00138433
20MABNDA000134_PR004
Spot 1     0.00190770     0.00176103
Spot 2     0.00168887     0.00175420
20MABNDA000334_PR005
Spot 1     0.00248287     0.00157809
Spot 2     0.00220255     0.00157854
20MABNDB000317_PR015
Spot 1     0.00146294     0.00168259
Spot 2     0.00168314     0.00167696
20MABNDB000146_PR016
Spot 1     0.00144689     0.00131408
Spot 2     0.00172266     0.00131662
20MABNDB000135_PR027
Spot 1     0.00188470     0.00089243
Spot 2     0.00210389     0.00089532
20MABNDB000126_PR028
Spot 1     0.00193189     0.00198143
Spot 2     0.00164915     0.00198069
20MABNDA000272_PR038
Spot 1     0.00192244     0.00095159
Spot 2     0.00170133     0.00095100
20MABNDA000003_PR039
Spot 1     0.00201474     0.00193080
Spot 2     0.00229391     0.00193173
20MABNDA000196_PR006
Spot 1     0.00175506     0.00067368
Spot 2     0.00138879     0.00067147
20MABNDA000324_PR007
Spot 1     0.00199699     0.00134120
Spot 2     0.00220293     0.00133599
20MABNDB000001_PR017
Spot 1     0.00185702     0.00088618
Spot 2     0.00222697     0.00089008
20MABNDB000260_PR019
Spot 1     0.00206711     0.00145763
Spot 2     0.00227161     0.00145726
20MABNDB000212_PR029
Spot 1     0.00220726     0.00069120
Spot 2     0.00184472     0.00068908
20MABNDB000128_PR030
Spot 1     0.00268572     0.00161724
Spot 2     0.00248739     0.00161932
20MABNDA000444_PR040
Spot 1     0.00179632     0.00069467
Spot 2     0.00180500     0.00002500
20MABNDA000053_PR041
Spot 1     0.00123547     0.00144453
Spot 2     0.00144056     0.00144475
20MABNDA000188_PR008
Spot 1     0.00297500     0.00011500
Spot 2     0.00297500     0.00011500
20MABNDA000188_PR018
Spot 1     0.00170568     0.00167092
Spot 2     0.00123815     0.00166775
20MABNDA000039_PR009
Spot 1     0.00066549     0.00117991
Spot 2     0.00061554     0.00118406
20MABNDA000039_PR011
Spot 1     0.00277083     0.00028404
Spot 2     0.00259488     0.00027871
20MABNDB000155_PR020
Spot 1     0.00061833     0.00112395
Spot 2     0.00068758     0.00111923
20MABNDB000155_PR022
Spot 1     0.00211536     0.00140930
Spot 2     0.00258885     0.00140473
20MABNDB000010_PR021
Spot 1     0.00286685     0.00115146
Spot 2     0.00292505     0.00115503
20MABNDB000010_PR023
Spot 1     0.00131357     0.00030244
Spot 2     0.00148873     0.00029946
20MABNDB000069_PR031
Spot 1     0.00021500     0.00240500
Spot 2     0.00021500     0.00240500
20MABNDB000069_PR033
Spot 1     0.00183038     0.00206309
Spot 2     0.00230025     0.00208377
20MABNDB000131_PR032
Spot 1     0.00277639     0.00108135
Spot 2     0.00283694     0.00108419
20MABNDB000131_PR034
Spot 1     0.00092099     0.00032698
Spot 2     0.00109721     0.00032646
20MABNDA000208_PR042
Spot 1     0.00284500     0.00011500
Spot 2     0.00284500     0.00011500
20MABNDA000208_PR046
Spot 1     0.00143818     0.00221813
Spot 2     0.00096833     0.00222018
20MABNDA000035_PR044
Spot 1     0.00074405     0.00125878
Spot 2     0.00068381     0.00125341
20MABNDA000035_PR045
Spot 1     0.00254759     0.00046925
Spot 2     0.00236981     0.00046788


****************************************************************coordonnees images transformees dans le repere MOUNT************************************************************************* 
20MABNDL000077_PR002
Spot 1     0.01215169     0.03415765    -0.07463200
Spot 2     0.01207394     0.03554568    -0.07463200
Spot 1     0.01204234     0.03567977    -0.07463200
Spot 2     0.01215169     0.03415765    -0.07463200
20MABNDL000077_PR003
Spot 1     0.01341356     0.03434551    -0.07463200
Spot 2     0.01341356     0.03434551    -0.07463200
Spot 1     0.01341356     0.03434551    -0.07463200
Spot 2     0.01341356     0.03434551    -0.07463200
20MABNDL000077_20MABNDM000168
Spot 1    -0.01259103     0.03524488    -0.00695400
Spot 2    -0.01240415     0.03528914    -0.00695400
Spot 1    -0.01259111     0.03524475    -0.00695400
Spot 2    -0.01157915     0.03417830    -0.00695400
20MABNDL000077_PR024
Spot 1    -0.01335242     0.03547449    -0.00695400
Spot 2    -0.01345139     0.03548530    -0.00695400
Spot 1    -0.01335239     0.03547471    -0.00695400
Spot 2    -0.01345160     0.03548539    -0.00695400
20MABNDM000020_PR013
Spot 1    -0.01394554    -0.03407018    -0.00523500
Spot 2    -0.01394554    -0.03407018    -0.00523500
Spot 1    -0.01394554    -0.03407018    -0.00523500
Spot 2    -0.01394554    -0.03407018    -0.00523500
20MABNDM000020_PR014
Spot 1    -0.01169577    -0.03562024    -0.00523500
Spot 2    -0.01185723    -0.03562762    -0.00523500
Spot 1    -0.01169544    -0.03562090    -0.00523500
Spot 2    -0.01185716    -0.03562733    -0.00523500
20MABNDM000020_20MABNDL000196
Spot 1     0.01270958    -0.03514849    -0.07583800
Spot 2     0.01344116    -0.03426346    -0.07583800
Spot 1     0.01270986    -0.03514840    -0.07583800
Spot 2     0.01221115    -0.03420363    -0.07583800
20MABNDM000020_PR035
Spot 1     0.01342249    -0.03545978    -0.07583800
Spot 2     0.01349924    -0.03549578    -0.07583800
20MABNDM000168_PR025
Spot 1    -0.01363978    -0.03581445    -0.00532900
Spot 2    -0.01379731    -0.03582000    -0.00532900
20MABNDM000168_PR026
Spot 1    -0.01173460    -0.03575642    -0.00532900
Spot 2    -0.01189595    -0.03575310    -0.00532900
20MABNDM000168_20MABNDL000077
Spot 1     0.01288384    -0.03529867    -0.07445100
Spot 2     0.01266576    -0.03530173    -0.07445100
20MABNDM000168_PR001
Spot 1     0.01361174    -0.03562875    -0.07445100
Spot 2     0.01371371    -0.03563198    -0.07445100
20MABNDL000196_PR036
Spot 1     0.01192502     0.03583814    -0.07483600
Spot 2     0.01208984     0.03583759    -0.07483600
20MABNDL000196_PR037
Spot 1     0.01381317     0.03566111    -0.07483600
Spot 2     0.01397242     0.03566435    -0.07483600
20MABNDL000196_20MABNDM000020
Spot 1    -0.01274893     0.03531060    -0.00611000
Spot 2    -0.01252805     0.03532018    -0.00611000
20MABNDL000196_PR012
Spot 1    -0.01408054     0.03437924    -0.00611000
Spot 2    -0.01355310     0.03563944    -0.00611000
20MABNDA000134_PR004
Spot 1    -0.01287844     0.01241181    -0.07608400
Spot 2    -0.01265950     0.01241257    -0.07608400
20MABNDA000334_PR005
Spot 1    -0.01312597     0.01255031    -0.07324100
Spot 2    -0.01284565     0.01254960    -0.07324100
20MABNDB000317_PR015
Spot 1    -0.01269231    -0.01241575    -0.07326100
Spot 2    -0.01247206    -0.01241881    -0.07326100
20MABNDB000146_PR016
Spot 1    -0.01276143    -0.01247953    -0.07450500
Spot 2    -0.01248567    -0.01247638    -0.07450500
20MABNDB000135_PR027
Spot 1    -0.01252023    -0.01322052    -0.07464700
Spot 2    -0.01230102    -0.01322007    -0.07464700
20MABNDB000126_PR028
Spot 1    -0.01224750    -0.01219921    -0.07500400
Spot 2    -0.01253023    -0.01220146    -0.07500400
20MABNDA000272_PR038
Spot 1    -0.01275809     0.01315988    -0.07417900
Spot 2    -0.01253698     0.01316008    -0.07417900
20MABNDA000003_PR039
Spot 1    -0.01281584     0.01212150    -0.07373400
Spot 2    -0.01309501     0.01212128    -0.07373400
20MABNDA000196_PR006
Spot 1    -0.01270907     0.01330157    -0.07967100
Spot 2    -0.01234280     0.01329907    -0.07967100
20MABNDA000324_PR007
Spot 1    -0.01260169     0.01267999    -0.07446800
Spot 2    -0.01280767     0.01268360    -0.07446800
20MABNDB000001_PR017
Spot 1    -0.01232660    -0.01310305    -0.07418400
Spot 2    -0.01195663    -0.01310307    -0.07418400
20MABNDB000260_PR019
Spot 1    -0.01226334    -0.01244194    -0.07492700
Spot 2    -0.01205887    -0.01243812    -0.07492700
20MABNDB000212_PR029
Spot 1    -0.01188069    -0.01328979    -0.07390500
Spot 2    -0.01224323    -0.01328804    -0.07390500
20MABNDB000128_PR030
Spot 1    -0.01166808    -0.01259736    -0.07353400
Spot 2    -0.01186642    -0.01259596    -0.07353400
20MABNDA000444_PR040
Spot 1    -0.01273174     0.01332183    -0.07412000
Spot 2    -0.01274892     0.01399134    -0.07412000
20MABNDA000053_PR041
Spot 1    -0.01198155     0.01265767    -0.07430100
Spot 2    -0.01218660     0.01266146    -0.07430100
20MABNDA000188_PR008
Spot 1    -0.01399107     0.01394961    -0.07502000
Spot 2    -0.01399107     0.01394961    -0.07502000
20MABNDA000188_PR018
Spot 1    -0.01273512     0.01238288    -0.07502000
Spot 2    -0.01226758     0.01238205    -0.07502000
20MABNDA000039_PR009
Spot 1    -0.01162764     0.01306423    -0.07444800
Spot 2    -0.01157771     0.01305987    -0.07444800
20MABNDA000039_PR011
Spot 1    -0.01372908     0.01396920    -0.07444800
Spot 2    -0.01355311     0.01397377    -0.07444800
20MABNDB000155_PR020
Spot 1    -0.01364775    -0.01313344    -0.07501700
Spot 2    -0.01357844    -0.01313721    -0.07501700
20MABNDB000155_PR022
Spot 1    -0.01215477    -0.01282762    -0.07501700
Spot 2    -0.01168126    -0.01282571    -0.07501700
20MABNDB000010_PR021
Spot 1    -0.01158413    -0.01292708    -0.07358200
Spot 2    -0.01152600    -0.01292253    -0.07358200
20MABNDB000010_PR023
Spot 1    -0.01312280    -0.01380229    -0.07358200
Spot 2    -0.01294762    -0.01380231    -0.07358200
20MABNDB000069_PR031
Spot 1    -0.01361993    -0.01186066    -0.07388500
Spot 2    -0.01361993    -0.01186066    -0.07388500
20MABNDB000069_PR033
Spot 1    -0.01202003    -0.01226895    -0.07388500
Spot 2    -0.01154971    -0.01226767    -0.07388500
20MABNDB000131_PR032
Spot 1    -0.01144378    -0.01303341    -0.07533000
Spot 2    -0.01138324    -0.01303026    -0.07533000
20MABNDB000131_PR034
Spot 1    -0.01329536    -0.01379711    -0.07533000
Spot 2    -0.01311914    -0.01379674    -0.07533000
20MABNDA000208_PR042
Spot 1    -0.01371645     0.01388121    -0.07273700
Spot 2    -0.01371645     0.01388121    -0.07273700
20MABNDA000208_PR046
Spot 1    -0.01230779     0.01177931    -0.07273700
Spot 2    -0.01183794     0.01177767    -0.07273700
20MABNDA000035_PR044
Spot 1    -0.01157871     0.01299851    -0.07483200
Spot 2    -0.01151843     0.01300345    -0.07483200
20MABNDA000035_PR045
Spot 1    -0.01337659     0.01380085    -0.07483200
Spot 2    -0.01319880     0.01380095    -0.07483200


*****************************************************************coordonnees du prisme dans le repere MOUNT********************************************************************************** 
20MABNDL000077_PR002
    0.04130901     0.05699709     3.70695138
    0.04208975     0.05368391     3.70696259
20MABNDL000077_PR003
   -0.02476418     0.08434060     3.89557457
   -0.02476418     0.08434060     3.89557457
20MABNDL000077_20MABNDM000168
   -0.02622902     0.03575934    -5.46873951
   -0.05601984     0.07588141    -5.46843529
20MABNDL000077_PR024
    0.04320244     0.01913846    -5.89642859
    0.04320958     0.01912645    -5.89642859
20MABNDM000020_PR013
    0.05274186    -0.08860095    -3.80153990
    0.05274186    -0.08860095    -3.80153990
20MABNDM000020_PR014
   -0.06561066    -0.00530429    -4.74841166
   -0.06562304    -0.00529303    -4.74841118
20MABNDM000020_20MABNDL000196
   -0.01113704    -0.06437586     5.39470291
    0.03292134    -0.06652271     5.39470673
20MABNDM000020_PR035
   -0.04263893    -0.00704932     5.80095387
20MABNDM000168_PR025
    0.03850912    -0.01215306    -3.78836727
20MABNDM000168_PR026
   -0.05786727    -0.01414247    -3.98429108
20MABNDM000168_20MABNDL000077
    0.01162438    -0.03885266     5.38884687
20MABNDM000168_PR001
   -0.05730305    -0.01347677     5.81470633
20MABNDL000196_PR036
    0.05140533     0.00546711     3.68776751
20MABNDL000196_PR037
   -0.04402886     0.01290420     3.88352108
20MABNDL000196_20MABNDM000020
   -0.01576115     0.03804743    -5.47473860
20MABNDL000196_PR012
    0.07557227     0.06199596    -5.91504860
20MABNDA000134_PR004
   -0.00832686     0.03812757     2.74966145
20MABNDA000334_PR005
   -0.00399295     0.03146455     2.14977264
20MABNDB000317_PR015
   -0.01644465    -0.03700484     2.75126719
20MABNDB000146_PR016
   -0.01350667    -0.03126677     2.15201712
20MABNDB000135_PR027
   -0.02078112    -0.00901116     2.74937057
20MABNDB000126_PR028
   -0.02047533    -0.03813901     2.14680457
20MABNDA000272_PR038
   -0.01324631     0.01081953     2.74965858
20MABNDA000003_PR039
   -0.00552011     0.04137215     2.14891243
20MABNDA000196_PR006
   -0.01546706     0.00878470     1.64206028
20MABNDA000324_PR007
   -0.01526073     0.03279524     2.95548868
20MABNDB000001_PR017
   -0.02360550    -0.01256879     1.64039505
20MABNDB000260_PR019
   -0.03011212    -0.03668912     2.95626044
20MABNDB000212_PR029
   -0.02479798    -0.00823342     1.64224184
20MABNDB000128_PR030
   -0.04229235    -0.03193549     2.95495367
20MABNDA000444_PR040
   -0.01114335     0.00130786     1.64500427
20MABNDA000053_PR041
   -0.03534769     0.02984759     2.95464659
20MABNDA000188_PR008
    0.14616936    -0.09611703     9.20304298
20MABNDA000188_PR018
   -0.01604332     0.02469381     1.28359365
20MABNDA000039_PR009
   -0.17112325     0.02557641    11.00701618
20MABNDA000039_PR011
    0.03089548    -0.02446061     3.43347001
20MABNDB000155_PR020
    0.10204381    -0.00817339     9.20028305
20MABNDB000155_PR022
   -0.02565310    -0.01771062     1.28070712
20MABNDB000010_PR021
   -0.17613485    -0.03354992    11.00694752
20MABNDB000010_PR023
    0.00423799     0.02077425     3.43376684
20MABNDB000069_PR031
    0.10999375    -0.16176865     9.20229721
20MABNDB000069_PR033
   -0.02692387    -0.02684665     1.28394032
20MABNDB000131_PR032
   -0.18790290    -0.03028246    11.00642204
20MABNDB000131_PR034
    0.01446905     0.01637389     3.43337870
20MABNDA000208_PR042
    0.11037338    -0.08822197     9.20121384
20MABNDA000208_PR046
   -0.02363514     0.03490414     1.28207552
20MABNDA000035_PR044
   -0.17936486     0.02700520    11.00803185
20MABNDA000035_PR045
    0.01468741    -0.01906785     3.43483543


*****************************************************************coordonnees du prisme dans le repere ATLAS********************************************************************************** 
20MABNDL000077_PR002 0.00000000
    2.80004120    -3.70319676     6.48625612
    2.80335450    -3.70241714     6.48626518
20MABNDL000077_PR003 0.00000000
    2.77286172    -3.76949382     6.67482471
    2.77286172    -3.76949382     6.67482471
20MABNDL000077_20MABNDM000168 0.00000000
    2.81225729    -3.75942063    -2.68952727
    2.77212596    -3.78919888    -2.68922043
20MABNDL000077_PR024 0.00000000
    2.82848072    -3.68946671    -3.11714649
    2.82849264    -3.68945956    -3.11714649
20MABNDM000020_PR013 0.00000000
   -2.76372600    -3.79224682     6.48532534
   -2.76372600    -3.79224682     6.48532534
20MABNDM000020_PR014 0.00000000
   -2.84679675    -3.67458892     7.43230343
   -2.84680796    -3.67457652     7.43230295
20MABNDM000020_20MABNDL000196 0.00000000
   -2.78977180    -3.72136641    -2.71086121
   -2.78763843    -3.76542544    -2.71089888
20MABNDM000020_PR035 0.00000000
   -2.84716988    -3.68953800    -3.11707664
20MABNDM000168_PR025 0.00000000
    2.84107828    -3.78384066    -6.47897911
20MABNDM000168_PR026 0.00000000
    2.83910251    -3.68753648    -6.67493868
20MABNDM000168_20MABNDL000077 0.00000000
    2.81494284    -3.75353646     2.69822621
20MABNDM000168_PR001 0.00000000
    2.84036279    -3.68445730     3.12405849
20MABNDL000196_PR036 0.00000000
   -2.84814048    -3.69286942    -6.47909117
20MABNDL000196_PR037 0.00000000
   -2.84066319    -3.78848219    -6.67475605
20MABNDL000196_20MABNDM000020 0.00000000
   -2.81533098    -3.75149775     2.68347287
20MABNDL000196_PR012 0.00000000
   -2.79141521    -3.65974355     3.12369728
20MABNDA000134_PR004 0.00000000
    2.61467648    -4.19698954     3.83387113
20MABNDA000334_PR005 0.00000000
    2.61700559    -4.19703007     5.89779615
20MABNDB000317_PR015 0.00000000
   -2.61216259    -4.19699192     3.83301067
20MABNDB000146_PR016 0.00000000
   -2.61278868    -4.19702053     5.89908361
20MABNDB000135_PR027 0.00000000
    2.60408235    -4.19700480    -3.82634974
20MABNDB000126_PR028 0.00000000
    2.60544157    -4.19701529    -5.89408064
20MABNDA000272_PR038 0.00000000
   -2.61129069    -4.19698286    -3.82766485
20MABNDA000003_PR039 0.00000000
   -2.61621094    -4.19702339    -5.89139462
20MABNDA000196_PR006 0.00000000
    2.58992767    -4.19496870     6.54674196
20MABNDA000324_PR007 0.00000000
    2.60405469    -4.13996267     6.94312096
20MABNDB000001_PR017 0.00000000
   -2.59731007    -4.19499016     6.54789686
20MABNDB000260_PR019 0.00000000
   -2.59865046    -4.13996840     6.94395685
20MABNDB000212_PR029 0.00000000
    2.59847569    -4.19500685    -6.54722118
20MABNDB000128_PR030 0.00000000
    2.58656931    -4.14004183    -6.94619036
20MABNDA000444_PR040 0.00000000
   -2.58631587    -4.19500303    -6.54049015
20MABNDA000053_PR041 0.00000000
   -2.58519197    -4.14003944    -6.94806528
20MABNDA000188_PR008 0.00000000
    3.55893064     3.84859109     8.10764503
20MABNDA000188_PR018 0.00000000
    3.52107644    -4.07059574     7.89875698
20MABNDA000039_PR009 0.00000000
    3.87529516     3.64747429    12.93687057
20MABNDA000039_PR011 0.00000000
    3.66412854    -3.92580581    12.88437557
20MABNDB000155_PR020 0.00000000
   -3.68069649     3.84881639     7.89869356
20MABNDB000155_PR022 0.00000000
   -3.53432727    -4.07043791     7.89034843
20MABNDB000010_PR021 0.00000000
   -3.86197233     3.64768481    12.93537903
20MABNDB000010_PR023 0.00000000
   -3.68542886    -3.92561007    12.88450146
20MABNDB000069_PR031 0.00000000
    3.69177032     3.84800911    -7.77863359
20MABNDB000069_PR033 0.00000000
    3.53337550    -4.07046270    -7.87882471
20MABNDB000131_PR032 0.00000000
    3.86870527     3.64757180   -12.94092560
20MABNDB000131_PR034 0.00000000
    3.67332029    -3.92563796   -12.89157391
20MABNDA000208_PR042 0.00000000
   -3.66039658     3.84884048    -7.99969625
20MABNDA000208_PR046 0.00000000
   -3.53213048    -4.07034636    -7.87361383
20MABNDA000035_PR044 0.00000000
   -3.86860585     3.64758706   -12.93268394
20MABNDA000035_PR045 0.00000000
   -3.67604089    -3.92565179   -12.88731670


*****************************************************************Rapport********************************************************************************** 
CAM-LBA-US_EBA-US-HO-H         2023.06.01.12.43.28     2.80169785    -3.70280695     6.48626065     0.00165665     0.00038981     0.00000453 0.00000000 VRAI 
CAM-LBA-US_JDA-US-H            2023.06.01.12.43.28     2.77286172    -3.76949382     6.67482471     0.00000000     0.00000000     0.00000000 0.00000000 VRAI 
CAM-LBA-US_CAM-LBC-US          2023.06.01.12.43.28     2.79219162    -3.77430975    -2.68937385     0.02006567     0.01488912     0.00015342 0.00000000 VRAI 
CAM-LBA-US_EBC-US-IP-H         2023.06.01.12.43.28     2.82848668    -3.68946314    -3.11714649     0.00000596     0.00000358     0.00000000 0.00000000 VRAI 
CAM-LBA-USA_EBA-USA-HO-H       2023.06.01.12.43.28    -2.76372600    -3.79224682     6.48532534     0.00000000     0.00000000     0.00000000 0.00000000 VRAI 
CAM-LBA-USA_JDA-USA-H          2023.06.01.12.43.28    -2.84680235    -3.67458272     7.43230319     0.00000560     0.00000620     0.00000024 0.00000000 VRAI 
CAM-LBA-USA_CAM-LBC-USA        2023.06.01.12.43.28    -2.78870511    -3.74339592    -2.71088004     0.00106668     0.02202952     0.00001884 0.00000000 VRAI 
CAM-LBA-USA_EBC-USA-IP-H       2023.06.01.12.43.28    -2.84716988    -3.68953800    -3.11707664     0.00000000     0.00000000     0.00000000 0.00000000 VRAI 
CAM-LBC-US_EBC-US-HO-H         2023.06.01.12.43.28     2.84107828    -3.78384066    -6.47897911     0.00000000     0.00000000     0.00000000 0.00000000 VRAI 
CAM-LBC-US_JDC-US-H            2023.06.01.12.43.28     2.83910251    -3.68753648    -6.67493868     0.00000000     0.00000000     0.00000000 0.00000000 VRAI 
CAM-LBC-US_CAM-LBA-US          2023.06.01.12.43.28     2.81494284    -3.75353646     2.69822621     0.00000000     0.00000000     0.00000000 0.00000000 VRAI 
CAM-LBC-US_EBA-US-IP-H         2023.06.01.12.43.28     2.84036279    -3.68445730     3.12405849     0.00000000     0.00000000     0.00000000 0.00000000 VRAI 
CAM-LBC-USA_EBC-USA-HO-H       2023.06.01.12.43.28    -2.84814048    -3.69286942    -6.47909117     0.00000000     0.00000000     0.00000000 0.00000000 VRAI 
CAM-LBC-USA_JDC-USA-H          2023.06.01.12.43.28    -2.84066319    -3.78848219    -6.67475605     0.00000000     0.00000000     0.00000000 0.00000000 VRAI 
CAM-LBC-USA_CAM-LBA-USA        2023.06.01.12.43.28    -2.81533098    -3.75149775     2.68347287     0.00000000     0.00000000     0.00000000 0.00000000 VRAI 
CAM-LBC-USA_EBA-USA-IP-H       2023.06.01.12.43.28    -2.79141521    -3.65974355     3.12369728     0.00000000     0.00000000     0.00000000 0.00000000 VRAI 
CAM-EBA-US-IP_EBA-US-IP        2023.06.01.12.43.28     2.61467648    -4.19698954     3.83387113     0.00000000     0.00000000     0.00000000 0.00000000 VRAI 
CAM-EBA-US-HO_EBA-US-HO        2023.06.01.12.43.28     2.61700559    -4.19703007     5.89779615     0.00000000     0.00000000     0.00000000 0.00000000 VRAI 
CAM-EBA-USA-IP_EBA-USA-IP      2023.06.01.12.43.28    -2.61216259    -4.19699192     3.83301067     0.00000000     0.00000000     0.00000000 0.00000000 VRAI 
CAM-EBA-USA-HO_EBA-USA-HO      2023.06.01.12.43.28    -2.61278868    -4.19702053     5.89908361     0.00000000     0.00000000     0.00000000 0.00000000 VRAI 
CAM-EBC-US-IP_EBC-US-IP        2023.06.01.12.43.28     2.60408235    -4.19700480    -3.82634974     0.00000000     0.00000000     0.00000000 0.00000000 VRAI 
CAM-EBC-US-HO_EBC-US-HO        2023.06.01.12.43.28     2.60544157    -4.19701529    -5.89408064     0.00000000     0.00000000     0.00000000 0.00000000 VRAI 
CAM-EBC-USA-IP_EBC-USA-IP      2023.06.01.12.43.28    -2.61129069    -4.19698286    -3.82766485     0.00000000     0.00000000     0.00000000 0.00000000 VRAI 
CAM-EBC-USA-HO_EBC-USA-HO      2023.06.01.12.43.28    -2.61621094    -4.19702339    -5.89139462     0.00000000     0.00000000     0.00000000 0.00000000 VRAI 
CAM-JDA-US-IP_JDA-US-IP        2023.06.01.12.43.28     2.58992767    -4.19496870     6.54674196     0.00000000     0.00000000     0.00000000 0.00000000 VRAI 
CAM-JDA-US-HO_JDA-US-HO        2023.06.01.12.43.28     2.60405469    -4.13996267     6.94312096     0.00000000     0.00000000     0.00000000 0.00000000 VRAI 
CAM-JDA-USA-IP_JDA-USA-IP      2023.06.01.12.43.28    -2.59731007    -4.19499016     6.54789686     0.00000000     0.00000000     0.00000000 0.00000000 VRAI 
CAM-JDA-USA-HO_JDA-USA-HO      2023.06.01.12.43.28    -2.59865046    -4.13996840     6.94395685     0.00000000     0.00000000     0.00000000 0.00000000 VRAI 
CAM-JDC-US-IP_JDC-US-IP        2023.06.01.12.43.28     2.59847569    -4.19500685    -6.54722118     0.00000000     0.00000000     0.00000000 0.00000000 VRAI 
CAM-JDC-US-HO_JDC-US-HO        2023.06.01.12.43.28     2.58656931    -4.14004183    -6.94619036     0.00000000     0.00000000     0.00000000 0.00000000 VRAI 
CAM-JDC-USA-IP_JDC-USA-IP      2023.06.01.12.43.28    -2.58631587    -4.19500303    -6.54049015     0.00000000     0.00000000     0.00000000 0.00000000 VRAI 
CAM-JDC-USA-HO_JDC-USA-HO      2023.06.01.12.43.28    -2.58519197    -4.14003944    -6.94806528     0.00000000     0.00000000     0.00000000 0.00000000 VRAI 
CAM-ECTA-US-IP_ECTA-US-IP-T    2023.06.01.12.43.28     3.55893064     3.84859109     8.10764503     0.00000000     0.00000000     0.00000000 0.00000000 VRAI 
CAM-ECTA-US-IP_ECTA-US-IP      2023.06.01.12.43.28     3.52107644    -4.07059574     7.89875698     0.00000000     0.00000000     0.00000000 0.00000000 VRAI 
CAM-ECTA-US-HO_ECTA-US-HO-T    2023.06.01.12.43.28     3.87529516     3.64747429    12.93687057     0.00000000     0.00000000     0.00000000 0.00000000 VRAI 
CAM-ECTA-US-HO_ECTA-US-HO      2023.06.01.12.43.28     3.66412854    -3.92580581    12.88437557     0.00000000     0.00000000     0.00000000 0.00000000 VRAI 
CAM-ECTA-USA-IP_ECTA-USA-IP-T  2023.06.01.12.43.28    -3.68069649     3.84881639     7.89869356     0.00000000     0.00000000     0.00000000 0.00000000 VRAI 
CAM-ECTA-USA-IP_ECTA-USA-IP    2023.06.01.12.43.28    -3.53432727    -4.07043791     7.89034843     0.00000000     0.00000000     0.00000000 0.00000000 VRAI 
CAM-ECTA-USA-HO_ECTA-USA-HO-T  2023.06.01.12.43.28    -3.86197233     3.64768481    12.93537903     0.00000000     0.00000000     0.00000000 0.00000000 VRAI 
CAM-ECTA-USA-HO_ECTA-USA-HO    2023.06.01.12.43.28    -3.68542886    -3.92561007    12.88450146     0.00000000     0.00000000     0.00000000 0.00000000 VRAI 
CAM-ECTC-US-IP_ECTC-US-IP-T    2023.06.01.12.43.28     3.69177032     3.84800911    -7.77863359     0.00000000     0.00000000     0.00000000 0.00000000 VRAI 
CAM-ECTC-US-IP_ECTC-US-IP      2023.06.01.12.43.28     3.53337550    -4.07046270    -7.87882471     0.00000000     0.00000000     0.00000000 0.00000000 VRAI 
CAM-ECTC-US-HO_ECTC-US-HO-T    2023.06.01.12.43.28     3.86870527     3.64757180   -12.94092560     0.00000000     0.00000000     0.00000000 0.00000000 VRAI 
CAM-ECTC-US-HO_ECTC-US-HO      2023.06.01.12.43.28     3.67332029    -3.92563796   -12.89157391     0.00000000     0.00000000     0.00000000 0.00000000 VRAI 
CAM-ECTC-USA-IP_ECTC-USA-IP-T  2023.06.01.12.43.28    -3.66039658     3.84884048    -7.99969625     0.00000000     0.00000000     0.00000000 0.00000000 VRAI 
CAM-ECTC-USA-IP_ECTC-USA-IP    2023.06.01.12.43.28    -3.53213048    -4.07034636    -7.87361383     0.00000000     0.00000000     0.00000000 0.00000000 VRAI 
CAM-ECTC-USA-HO_ECTC-USA-HO-T  2023.06.01.12.43.28    -3.86860585     3.64758706   -12.93268394     0.00000000     0.00000000     0.00000000 0.00000000 VRAI 
CAM-ECTC-USA-HO_ECTC-USA-HO    2023.06.01.12.43.28    -3.67604089    -3.92565179   -12.88731670     0.00000000     0.00000000     0.00000000 0.00000000 VRAI 
