********** Fichier qui contient une sauvegarde des coordonnees images + coordonnees images transformees dans le repere BCAM (MOUNT) + coordonnees des prismes dans le repere MOUNT********** 
********************************************************************** Unite en metres (m)************************************************************************************************** 

*******************************************************************coordonnees images dans le repere CCD *********************************************************************************** 
20MABNDL000077_PR002
Spot 1     0.00066077     0.00181143
Spot 2     0.00082201     0.00181254
Spot 1     0.00066033     0.00181185
Spot 2     0.00082175     0.00181301
20MABNDL000077_PR003
Spot 1     0.00166500     0.00022500
Spot 2     0.00166500     0.00022500
Spot 1     0.00166500     0.00022500
Spot 2     0.00166500     0.00022500
20MABNDL000077_20MABNDM000168
Spot 1     0.00175666     0.00118164
Spot 2     0.00157179     0.00121464
Spot 1     0.00175647     0.00118161
Spot 2     0.00075500     0.00010500
20MABNDL000077_PR024
Spot 1     0.00251813     0.00142033
Spot 2     0.00261622     0.00143147
Spot 1     0.00251794     0.00142032
Spot 2     0.00261683     0.00143160
20MABNDM000020_PR013
Spot 1     0.00044500     0.00008500
Spot 2     0.00044500     0.00008500
Spot 1     0.00044500     0.00008500
Spot 2     0.00044500     0.00008500
20MABNDM000020_PR014
Spot 1     0.00265981     0.00168565
Spot 2     0.00249785     0.00168960
Spot 1     0.00265998     0.00168590
Spot 2     0.00249833     0.00168933
20MABNDM000020_20MABNDL000196
Spot 1     0.00197596     0.00117982
Spot 2     0.00096500     0.00046500
Spot 1     0.00197616     0.00118010
Spot 2     0.00230500     0.00010500
20MABNDM000020_PR035
Spot 1     0.00125724     0.00148635
Spot 2     0.00118181     0.00152579
20MABNDM000168_PR025
Spot 1     0.00076174     0.00147859
Spot 2     0.00060369     0.00148363
20MABNDM000168_PR026
Spot 1     0.00266468     0.00142695
Spot 2     0.00250426     0.00142353
20MABNDM000168_20MABNDL000077
Spot 1     0.00154142     0.00129748
Spot 2     0.00175867     0.00130319
20MABNDM000168_PR001
Spot 1     0.00080771     0.00161683
Spot 2     0.00070600     0.00161889
20MABNDL000196_PR036
Spot 1     0.00094836     0.00164803
Spot 2     0.00111250     0.00164740
20MABNDL000196_PR037
Spot 1     0.00283379     0.00146853
Spot 2     0.00299284     0.00147136
20MABNDL000196_20MABNDM000020
Spot 1     0.00192557     0.00103965
Spot 2     0.00170463     0.00104329
20MABNDL000196_PR012
Spot 1     0.00327500     0.00013500
Spot 2     0.00272460     0.00138520
20MABNDA000134_PR004
Spot 1     0.00190379     0.00176170
Spot 2     0.00168567     0.00175562
20MABNDA000334_PR005
Spot 1     0.00248169     0.00157844
Spot 2     0.00220182     0.00157912
20MABNDB000317_PR015
Spot 1     0.00146686     0.00168272
Spot 2     0.00168786     0.00167799
20MABNDB000146_PR016
Spot 1     0.00144998     0.00131409
Spot 2     0.00172568     0.00131585
20MABNDB000135_PR027
Spot 1     0.00188713     0.00089393
Spot 2     0.00210596     0.00089713
20MABNDB000126_PR028
Spot 1     0.00193317     0.00198028
Spot 2     0.00165077     0.00197926
20MABNDA000272_PR038
Spot 1     0.00191797     0.00095148
Spot 2     0.00169641     0.00095135
20MABNDA000003_PR039
Spot 1     0.00201160     0.00192979
Spot 2     0.00229138     0.00193002
20MABNDA000196_PR006
Spot 1     0.00175466     0.00066875
Spot 2     0.00138897     0.00066655
20MABNDA000324_PR007
Spot 1     0.00199477     0.00134870
Spot 2     0.00220500     0.00134500
20MABNDB000001_PR017
Spot 1     0.00185391     0.00087690
Spot 2     0.00222424     0.00088186
20MABNDB000260_PR019
Spot 1     0.00207153     0.00146687
Spot 2     0.00227677     0.00146688
20MABNDB000212_PR029
Spot 1     0.00220641     0.00069114
Spot 2     0.00184378     0.00068865
20MABNDB000128_PR030
Spot 1     0.00248955     0.00162510
Spot 2    -0.00000100    -0.00000100
20MABNDA000444_PR040
Spot 1     0.00179762     0.00069046
Spot 2     0.00180500     0.00065500
20MABNDA000053_PR041
Spot 1     0.00123347     0.00144997
Spot 2     0.00143940     0.00145060
20MABNDA000188_PR008
Spot 1     0.00266500     0.00126500
Spot 2     0.00266500     0.00126500
20MABNDA000188_PR018
Spot 1     0.00159773     0.00143318
Spot 2     0.00113103     0.00142946
20MABNDA000039_PR009
Spot 1     0.00066197     0.00121189
Spot 2     0.00061264     0.00121515
20MABNDA000039_PR011
Spot 1     0.00276654     0.00037046
Spot 2     0.00258974     0.00036572
20MABNDB000155_PR020
Spot 1     0.00067284     0.00109257
Spot 2     0.00074114     0.00108841
20MABNDB000155_PR022
Spot 1     0.00223065     0.00117185
Spot 2     0.00270421     0.00116701
20MABNDB000010_PR021
Spot 1     0.00286297     0.00118145
Spot 2     0.00292146     0.00118480
20MABNDB000010_PR023
Spot 1     0.00131114     0.00038977
Spot 2     0.00148629     0.00038847
20MABNDB000069_PR031
Spot 1     0.00021500     0.00240500
Spot 2     0.00021500     0.00240500
20MABNDB000069_PR033
Spot 1     0.00190710     0.00183261
Spot 2     0.00237696     0.00185304
20MABNDB000131_PR032
Spot 1     0.00277627     0.00111264
Spot 2     0.00283708     0.00111556
20MABNDB000131_PR034
Spot 1     0.00092303     0.00041837
Spot 2     0.00109907     0.00041801
20MABNDA000208_PR042
Spot 1     0.00284500     0.00011500
Spot 2     0.00284500     0.00011500
20MABNDA000208_PR046
Spot 1     0.00129568     0.00198800
Spot 2     0.00082506     0.00199231
20MABNDA000035_PR044
Spot 1     0.00074331     0.00128741
Spot 2     0.00068423     0.00128170
20MABNDA000035_PR045
Spot 1     0.00254687     0.00055250
Spot 2     0.00236987     0.00055170


****************************************************************coordonnees images transformees dans le repere MOUNT************************************************************************* 
20MABNDL000077_PR002
Spot 1     0.01173410     0.03588817    -0.07463200
Spot 2     0.01189534     0.03588773    -0.07463200
Spot 1     0.01173366     0.03588860    -0.07463200
Spot 2     0.01189508     0.03588821    -0.07463200
20MABNDL000077_PR003
Spot 1     0.01272301     0.03429215    -0.07463200
Spot 2     0.01272301     0.03429215    -0.07463200
Spot 1     0.01272301     0.03429215    -0.07463200
Spot 2     0.01272301     0.03429215    -0.07463200
20MABNDL000077_20MABNDM000168
Spot 1    -0.01259178     0.03524463    -0.00695400
Spot 2    -0.01240725     0.03527952    -0.00695400
Spot 1    -0.01259159     0.03524460    -0.00695400
Spot 2    -0.01157915     0.03417830    -0.00695400
20MABNDL000077_PR024
Spot 1    -0.01335565     0.03547551    -0.00695400
Spot 2    -0.01345385     0.03548565    -0.00695400
Spot 1    -0.01335546     0.03547551    -0.00695400
Spot 2    -0.01345446     0.03548577    -0.00695400
20MABNDM000020_PR013
Spot 1    -0.01394554    -0.03407018    -0.00523500
Spot 2    -0.01394554    -0.03407018    -0.00523500
Spot 1    -0.01394554    -0.03407018    -0.00523500
Spot 2    -0.01394554    -0.03407018    -0.00523500
20MABNDM000020_PR014
Spot 1    -0.01169587    -0.03562146    -0.00523500
Spot 2    -0.01185771    -0.03562899    -0.00523500
Spot 1    -0.01169570    -0.03562170    -0.00523500
Spot 2    -0.01185723    -0.03562871    -0.00523500
20MABNDM000020_20MABNDL000196
Spot 1     0.01271032    -0.03514838    -0.07583800
Spot 2     0.01372118    -0.03443342    -0.07583800
Spot 1     0.01271012    -0.03514866    -0.07583800
Spot 2     0.01238113    -0.03407361    -0.07583800
20MABNDM000020_PR035
Spot 1     0.01342908    -0.03545481    -0.07583800
Spot 2     0.01350451    -0.03549424    -0.07583800
20MABNDM000168_PR025
Spot 1    -0.01364037    -0.03581756    -0.00532900
Spot 2    -0.01379839    -0.03582327    -0.00532900
20MABNDM000168_PR026
Spot 1    -0.01173766    -0.03575774    -0.00532900
Spot 2    -0.01189810    -0.03575501    -0.00532900
20MABNDM000168_20MABNDL000077
Spot 1     0.01288408    -0.03529811    -0.07445100
Spot 2     0.01266677    -0.03530065    -0.07445100
20MABNDM000168_PR001
Spot 1     0.01361304    -0.03562816    -0.07445100
Spot 2     0.01371471    -0.03563171    -0.07445100
20MABNDL000196_PR036
Spot 1     0.01192827     0.03583673    -0.07483600
Spot 2     0.01209241     0.03583644    -0.07483600
20MABNDL000196_PR037
Spot 1     0.01381407     0.03566117    -0.07483600
Spot 2     0.01397311     0.03566433    -0.07483600
20MABNDL000196_20MABNDM000020
Spot 1    -0.01274958     0.03531086    -0.00611000
Spot 2    -0.01252876     0.03531894    -0.00611000
20MABNDL000196_PR012
Spot 1    -0.01408054     0.03437924    -0.00611000
Spot 2    -0.01355540     0.03564026    -0.00611000
20MABNDA000134_PR004
Spot 1    -0.01287455     0.01241103    -0.07608400
Spot 2    -0.01265634     0.01241106    -0.07608400
20MABNDA000334_PR005
Spot 1    -0.01312479     0.01254996    -0.07324100
Spot 2    -0.01284492     0.01254902    -0.07324100
20MABNDB000317_PR015
Spot 1    -0.01268839    -0.01241557    -0.07326100
Spot 2    -0.01246735    -0.01241773    -0.07326100
20MABNDB000146_PR016
Spot 1    -0.01275834    -0.01247951    -0.07450500
Spot 2    -0.01248265    -0.01247714    -0.07450500
20MABNDB000135_PR027
Spot 1    -0.01251779    -0.01321905    -0.07464700
Spot 2    -0.01229893    -0.01321828    -0.07464700
20MABNDB000126_PR028
Spot 1    -0.01224621    -0.01220035    -0.07500400
Spot 2    -0.01252861    -0.01220288    -0.07500400
20MABNDA000272_PR038
Spot 1    -0.01275362     0.01315998    -0.07417900
Spot 2    -0.01253206     0.01315972    -0.07417900
20MABNDA000003_PR039
Spot 1    -0.01281269     0.01212250    -0.07373400
Spot 2    -0.01309247     0.01212298    -0.07373400
20MABNDA000196_PR006
Spot 1    -0.01270861     0.01330650    -0.07967100
Spot 2    -0.01234292     0.01330399    -0.07967100
20MABNDA000324_PR007
Spot 1    -0.01259942     0.01267251    -0.07446800
Spot 2    -0.01280967     0.01267457    -0.07446800
20MABNDB000001_PR017
Spot 1    -0.01232981    -0.01311230    -0.07418400
Spot 2    -0.01195945    -0.01311126    -0.07418400
20MABNDB000260_PR019
Spot 1    -0.01225911    -0.01243261    -0.07492700
Spot 2    -0.01205391    -0.01242839    -0.07492700
20MABNDB000212_PR029
Spot 1    -0.01188154    -0.01328984    -0.07390500
Spot 2    -0.01224417    -0.01328846    -0.07390500
20MABNDB000128_PR030
Spot 1    -0.01186428    -0.01259018    -0.07353400
Spot 2    -0.01434919    -0.01422488    -0.07353400
20MABNDA000444_PR040
Spot 1    -0.01273309     0.01332602    -0.07412000
Spot 2    -0.01274092     0.01336139    -0.07412000
20MABNDA000053_PR041
Spot 1    -0.01197966     0.01265220    -0.07430100
Spot 2    -0.01218556     0.01265559    -0.07430100
20MABNDA000188_PR008
Spot 1    -0.01369093     0.01279700    -0.07502000
Spot 2    -0.01369093     0.01279700    -0.07502000
20MABNDA000188_PR018
Spot 1    -0.01262514     0.01261969    -0.07502000
Spot 2    -0.01215842     0.01261941    -0.07502000
20MABNDA000039_PR009
Spot 1    -0.01162426     0.01303224    -0.07444800
Spot 2    -0.01157494     0.01302876    -0.07444800
20MABNDA000039_PR011
Spot 1    -0.01372517     0.01388276    -0.07444800
Spot 2    -0.01354835     0.01388674    -0.07444800
20MABNDB000155_PR020
Spot 1    -0.01359282    -0.01316407    -0.07501700
Spot 2    -0.01352446    -0.01316730    -0.07501700
20MABNDB000155_PR022
Spot 1    -0.01203624    -0.01306347    -0.07501700
Spot 2    -0.01156265    -0.01306183    -0.07501700
20MABNDB000010_PR021
Spot 1    -0.01158852    -0.01289716    -0.07358200
Spot 2    -0.01153009    -0.01289282    -0.07358200
20MABNDB000010_PR023
Spot 1    -0.01312671    -0.01371502    -0.07358200
Spot 2    -0.01295157    -0.01371335    -0.07358200
20MABNDB000069_PR031
Spot 1    -0.01361993    -0.01186066    -0.07388500
Spot 2    -0.01361993    -0.01186066    -0.07388500
20MABNDB000069_PR033
Spot 1    -0.01195289    -0.01250240    -0.07388500
Spot 2    -0.01148259    -0.01250137    -0.07388500
20MABNDB000131_PR032
Spot 1    -0.01144406    -0.01300212    -0.07533000
Spot 2    -0.01138326    -0.01299889    -0.07533000
20MABNDB000131_PR034
Spot 1    -0.01329378    -0.01370571    -0.07533000
Spot 2    -0.01311774    -0.01370518    -0.07533000
20MABNDA000208_PR042
Spot 1    -0.01371645     0.01388121    -0.07273700
Spot 2    -0.01371645     0.01388121    -0.07273700
20MABNDA000208_PR046
Spot 1    -0.01216549     0.01200957    -0.07273700
Spot 2    -0.01169487     0.01200567    -0.07273700
20MABNDA000035_PR044
Spot 1    -0.01157817     0.01296987    -0.07483200
Spot 2    -0.01151905     0.01297516    -0.07483200
20MABNDA000035_PR045
Spot 1    -0.01337646     0.01371759    -0.07483200
Spot 2    -0.01319946     0.01371714    -0.07483200


*****************************************************************coordonnees du prisme dans le repere MOUNT********************************************************************************** 
20MABNDL000077_PR002
    0.05603322     0.00580353     3.70674443
    0.05605029     0.00578139     3.70674419
20MABNDL000077_PR003
    0.01108603     0.08711259     3.89571905
    0.01108603     0.08711259     3.89571905
20MABNDL000077_20MABNDM000168
   -0.02609001     0.03611581    -5.46873951
   -0.05600256     0.07588664    -5.46843529
20MABNDL000077_PR024
    0.04342440     0.01908499    -5.89642620
    0.04344082     0.01908048    -5.89642620
20MABNDM000020_PR013
    0.05274186    -0.08860095    -3.80153990
    0.05274186    -0.08860095    -3.80153990
20MABNDM000020_PR014
   -0.06559252    -0.00522390    -4.74841118
   -0.06561272    -0.00522496    -4.74841118
20MABNDM000020_20MABNDL000196
   -0.02119600    -0.05829036     5.39467764
    0.02682192    -0.07117178     5.39469719
20MABNDM000020_PR035
   -0.04309616    -0.00730020     5.80095100
20MABNDM000168_PR025
    0.03855045    -0.01199540    -3.78836584
20MABNDM000168_PR026
   -0.05773151    -0.01405832    -3.98429227
20MABNDM000168_20MABNDL000077
    0.01157968    -0.03891164     5.38884640
20MABNDM000168_PR001
   -0.05739191    -0.01350958     5.81470585
20MABNDL000196_PR036
    0.05126259     0.00552965     3.68776917
20MABNDL000196_PR037
   -0.04406995     0.01290334     3.88352060
20MABNDL000196_20MABNDM000020
   -0.01571191     0.03808256    -5.47473907
20MABNDL000196_PR012
    0.07566191     0.06196395    -5.91504765
20MABNDA000134_PR004
   -0.00845585     0.03816941     2.74966097
20MABNDA000334_PR005
   -0.00402022     0.03147786     2.14977264
20MABNDB000317_PR015
   -0.01660170    -0.03702779     2.75126696
20MABNDB000146_PR016
   -0.01359455    -0.03125604     2.15201735
20MABNDB000135_PR027
   -0.02086430    -0.00907093     2.74937057
20MABNDB000126_PR028
   -0.02051686    -0.03810246     2.14680481
20MABNDA000272_PR038
   -0.01341836     0.01082424     2.74965858
20MABNDA000003_PR039
   -0.00560123     0.04133350     2.14891338
20MABNDA000196_PR006
   -0.01547084     0.00867714     1.64206004
20MABNDA000324_PR007
   -0.01526621     0.03312010     2.95548654
20MABNDB000001_PR017
   -0.02353965    -0.01237822     1.64039540
20MABNDB000260_PR019
   -0.03029310    -0.03706427     2.95625639
20MABNDB000212_PR029
   -0.02477830    -0.00822825     1.64224195
20MABNDB000128_PR030
    0.01037134    -0.00005510     2.95504570
20MABNDA000444_PR040
   -0.01121608     0.00816188     1.64503956
20MABNDA000053_PR041
   -0.03540538     0.03007043     2.95464468
20MABNDA000188_PR008
    0.10933864     0.04538462     9.20419693
20MABNDA000188_PR018
   -0.01791930     0.02063492     1.28361773
20MABNDA000039_PR009
   -0.17157260     0.03019072    11.00700378
20MABNDA000039_PR011
    0.03069805    -0.02050433     3.43351364
20MABNDB000155_PR020
    0.09535848    -0.00444594     9.20036125
20MABNDB000155_PR022
   -0.02767926    -0.01367759     1.28069305
20MABNDB000010_PR021
   -0.17551136    -0.03793321    11.00694752
20MABNDB000010_PR023
    0.00441832     0.01673355     3.43380332
20MABNDB000069_PR031
    0.10999375    -0.16176865     9.20229721
20MABNDB000069_PR033
   -0.02807233    -0.02285200     1.28396368
20MABNDB000131_PR032
   -0.18788120    -0.03486072    11.00641441
20MABNDB000131_PR034
    0.01440142     0.01220423     3.43341255
20MABNDA000208_PR042
    0.11037338    -0.08822197     9.20121384
20MABNDA000208_PR046
   -0.02607386     0.03098914     1.28211308
20MABNDA000035_PR044
   -0.17935857     0.03116852    11.00802422
20MABNDA000035_PR045
    0.01469974    -0.01525543     3.43486881


*****************************************************************coordonnees du prisme dans le repere ATLAS********************************************************************************** 
20MABNDL000077_PR002 0.00000000
    2.85123920    -3.68848848     6.48601723
    2.85126138    -3.68847156     6.48601723
20MABNDL000077_PR003 0.00000000
    2.77010131    -3.73364305     6.67501593
    2.77010131    -3.73364305     6.67501593
20MABNDL000077_20MABNDM000168 0.00000000
    2.81190085    -3.75928140    -2.68952680
    2.77212071    -3.78918171    -2.68922043
20MABNDL000077_PR024 0.00000000
    2.82853436    -3.68924475    -3.11714387
    2.82853866    -3.68922830    -3.11714387
20MABNDM000020_PR013 0.00000000
   -2.76372600    -3.79224682     6.48532534
   -2.76372600    -3.79224682     6.48532534
20MABNDM000020_PR014 0.00000000
   -2.84687710    -3.67460704     7.43230295
   -2.84687614    -3.67458677     7.43230295
20MABNDM000020_20MABNDL000196 0.00000000
   -2.79585409    -3.71130562    -2.71082711
   -2.78298759    -3.75932741    -2.71088576
20MABNDM000020_PR035 0.00000000
   -2.84691906    -3.68908072    -3.11707330
20MABNDM000168_PR025 0.00000000
    2.84123611    -3.78388190    -6.47897768
20MABNDM000168_PR026 0.00000000
    2.83918667    -3.68767238    -6.67493963
20MABNDM000168_20MABNDL000077 0.00000000
    2.81488395    -3.75349164     2.69822574
20MABNDM000168_PR001 0.00000000
    2.84032989    -3.68436861     3.12405777
20MABNDL000196_PR036 0.00000000
   -2.84807777    -3.69301200    -6.47909260
20MABNDL000196_PR037 0.00000000
   -2.84066415    -3.78852320    -6.67475557
20MABNDL000196_20MABNDM000020 0.00000000
   -2.81529570    -3.75144839     2.68347335
20MABNDL000196_PR012 0.00000000
   -2.79144740    -3.65965414     3.12369633
20MABNDA000134_PR004 0.00000000
    2.61454749    -4.19698954     3.83382916
20MABNDA000334_PR005 0.00000000
    2.61697841    -4.19703007     5.89778328
20MABNDB000317_PR015 0.00000000
   -2.61200571    -4.19699192     3.83298755
20MABNDB000146_PR016 0.00000000
   -2.61270070    -4.19702053     5.89909410
20MABNDB000135_PR027 0.00000000
    2.60399914    -4.19700480    -3.82628989
20MABNDB000126_PR028 0.00000000
    2.60540009    -4.19701529    -5.89411736
20MABNDA000272_PR038 0.00000000
   -2.61111856    -4.19698286    -3.82766008
20MABNDA000003_PR039 0.00000000
   -2.61612988    -4.19702291    -5.89143324
20MABNDA000196_PR006 0.00000000
    2.58993149    -4.19496918     6.54663420
20MABNDA000324_PR007 0.00000000
    2.60404921    -4.13996506     6.94279623
20MABNDB000001_PR017 0.00000000
   -2.59724426    -4.19499063     6.54770613
20MABNDB000260_PR019 0.00000000
   -2.59846926    -4.13997173     6.94358158
20MABNDB000212_PR029 0.00000000
    2.59845614    -4.19500685    -6.54721594
20MABNDB000128_PR030 0.00000000
    2.63923955    -4.14009047    -6.97806025
20MABNDA000444_PR040 0.00000000
   -2.58638930    -4.19496918    -6.54734421
20MABNDA000053_PR041 0.00000000
   -2.58513427    -4.14004087    -6.94784260
20MABNDA000188_PR008 0.00000000
    3.52420664     3.85074425     7.96562338
20MABNDA000188_PR018 0.00000000
    3.51914001    -4.07064486     7.90278721
20MABNDA000039_PR009 0.00000000
    3.87574410     3.64745998    12.94148445
20MABNDA000039_PR011 0.00000000
    3.66432571    -3.92576361    12.88833237
20MABNDB000155_PR020 0.00000000
   -3.67401242     3.84891081     7.90242338
20MABNDB000155_PR022 0.00000000
   -3.53230262    -4.07044649     7.89438248
20MABNDB000010_PR021 0.00000000
   -3.86134481     3.64768672    12.93976212
20MABNDB000010_PR023 0.00000000
   -3.68524504    -3.92557168    12.88854218
20MABNDB000069_PR031 0.00000000
    3.69177032     3.84800911    -7.77863359
20MABNDB000069_PR033 0.00000000
    3.53222513    -4.07045412    -7.88281870
20MABNDB000131_PR032 0.00000000
    3.86868215     3.64756274   -12.94550323
20MABNDB000131_PR034 0.00000000
    3.67338657    -3.92560554   -12.89574337
20MABNDA000208_PR042 0.00000000
   -3.66039658     3.84884048    -7.99969625
20MABNDA000208_PR046 0.00000000
   -3.52968955    -4.07031202    -7.87752771
20MABNDA000035_PR044 0.00000000
   -3.86860037     3.64757967   -12.93684769
20MABNDA000035_PR045 0.00000000
   -3.67602921    -3.92561817   -12.89112854


*****************************************************************Rapport********************************************************************************** 
CAM-LBA-US_EBA-US-HO-H         2023.04.09.06.02.54     2.85125029    -3.68848002     6.48601723     0.00001109     0.00000846     0.00000000 0.00000000 VRAI 
CAM-LBA-US_JDA-US-H            2023.04.09.06.02.54     2.77010131    -3.73364305     6.67501593     0.00000000     0.00000000     0.00000000 0.00000000 VRAI 
CAM-LBA-US_CAM-LBC-US          2023.04.09.06.02.54     2.79201078    -3.77423155    -2.68937361     0.01989007     0.01495016     0.00015318 0.00000000 VRAI 
CAM-LBA-US_EBC-US-IP-H         2023.04.09.06.02.54     2.82853651    -3.68923652    -3.11714387     0.00000215     0.00000823     0.00000000 0.00000000 VRAI 
CAM-LBA-USA_EBA-USA-HO-H       2023.04.09.06.02.54    -2.76372600    -3.79224682     6.48532534     0.00000000     0.00000000     0.00000000 0.00000000 VRAI 
CAM-LBA-USA_JDA-USA-H          2023.04.09.06.02.54    -2.84687662    -3.67459691     7.43230295     0.00000048     0.00001013     0.00000000 0.00000000 VRAI 
CAM-LBA-USA_CAM-LBC-USA        2023.04.09.06.02.54    -2.78942084    -3.73531651    -2.71085644     0.00643325     0.02401090     0.00002933 0.00000000 VRAI 
CAM-LBA-USA_EBC-USA-IP-H       2023.04.09.06.02.54    -2.84691906    -3.68908072    -3.11707330     0.00000000     0.00000000     0.00000000 0.00000000 VRAI 
CAM-LBC-US_EBC-US-HO-H         2023.04.09.06.02.54     2.84123611    -3.78388190    -6.47897768     0.00000000     0.00000000     0.00000000 0.00000000 VRAI 
CAM-LBC-US_JDC-US-H            2023.04.09.06.02.54     2.83918667    -3.68767238    -6.67493963     0.00000000     0.00000000     0.00000000 0.00000000 VRAI 
CAM-LBC-US_CAM-LBA-US          2023.04.09.06.02.54     2.81488395    -3.75349164     2.69822574     0.00000000     0.00000000     0.00000000 0.00000000 VRAI 
CAM-LBC-US_EBA-US-IP-H         2023.04.09.06.02.54     2.84032989    -3.68436861     3.12405777     0.00000000     0.00000000     0.00000000 0.00000000 VRAI 
CAM-LBC-USA_EBC-USA-HO-H       2023.04.09.06.02.54    -2.84807777    -3.69301200    -6.47909260     0.00000000     0.00000000     0.00000000 0.00000000 VRAI 
CAM-LBC-USA_JDC-USA-H          2023.04.09.06.02.54    -2.84066415    -3.78852320    -6.67475557     0.00000000     0.00000000     0.00000000 0.00000000 VRAI 
CAM-LBC-USA_CAM-LBA-USA        2023.04.09.06.02.54    -2.81529570    -3.75144839     2.68347335     0.00000000     0.00000000     0.00000000 0.00000000 VRAI 
CAM-LBC-USA_EBA-USA-IP-H       2023.04.09.06.02.54    -2.79144740    -3.65965414     3.12369633     0.00000000     0.00000000     0.00000000 0.00000000 VRAI 
CAM-EBA-US-IP_EBA-US-IP        2023.04.09.06.02.54     2.61454749    -4.19698954     3.83382916     0.00000000     0.00000000     0.00000000 0.00000000 VRAI 
CAM-EBA-US-HO_EBA-US-HO        2023.04.09.06.02.54     2.61697841    -4.19703007     5.89778328     0.00000000     0.00000000     0.00000000 0.00000000 VRAI 
CAM-EBA-USA-IP_EBA-USA-IP      2023.04.09.06.02.54    -2.61200571    -4.19699192     3.83298755     0.00000000     0.00000000     0.00000000 0.00000000 VRAI 
CAM-EBA-USA-HO_EBA-USA-HO      2023.04.09.06.02.54    -2.61270070    -4.19702053     5.89909410     0.00000000     0.00000000     0.00000000 0.00000000 VRAI 
CAM-EBC-US-IP_EBC-US-IP        2023.04.09.06.02.54     2.60399914    -4.19700480    -3.82628989     0.00000000     0.00000000     0.00000000 0.00000000 VRAI 
CAM-EBC-US-HO_EBC-US-HO        2023.04.09.06.02.54     2.60540009    -4.19701529    -5.89411736     0.00000000     0.00000000     0.00000000 0.00000000 VRAI 
CAM-EBC-USA-IP_EBC-USA-IP      2023.04.09.06.02.54    -2.61111856    -4.19698286    -3.82766008     0.00000000     0.00000000     0.00000000 0.00000000 VRAI 
CAM-EBC-USA-HO_EBC-USA-HO      2023.04.09.06.02.54    -2.61612988    -4.19702291    -5.89143324     0.00000000     0.00000000     0.00000000 0.00000000 VRAI 
CAM-JDA-US-IP_JDA-US-IP        2023.04.09.06.02.54     2.58993149    -4.19496918     6.54663420     0.00000000     0.00000000     0.00000000 0.00000000 VRAI 
CAM-JDA-US-HO_JDA-US-HO        2023.04.09.06.02.54     2.60404921    -4.13996506     6.94279623     0.00000000     0.00000000     0.00000000 0.00000000 VRAI 
CAM-JDA-USA-IP_JDA-USA-IP      2023.04.09.06.02.54    -2.59724426    -4.19499063     6.54770613     0.00000000     0.00000000     0.00000000 0.00000000 VRAI 
CAM-JDA-USA-HO_JDA-USA-HO      2023.04.09.06.02.54    -2.59846926    -4.13997173     6.94358158     0.00000000     0.00000000     0.00000000 0.00000000 VRAI 
CAM-JDC-US-IP_JDC-US-IP        2023.04.09.06.02.54     2.59845614    -4.19500685    -6.54721594     0.00000000     0.00000000     0.00000000 0.00000000 VRAI 
CAM-JDC-US-HO_JDC-US-HO        2023.04.09.06.02.54     2.63923955    -4.14009047    -6.97806025     0.00000000     0.00000000     0.00000000 0.00000000 VRAI 
CAM-JDC-USA-IP_JDC-USA-IP      2023.04.09.06.02.54    -2.58638930    -4.19496918    -6.54734421     0.00000000     0.00000000     0.00000000 0.00000000 VRAI 
CAM-JDC-USA-HO_JDC-USA-HO      2023.04.09.06.02.54    -2.58513427    -4.14004087    -6.94784260     0.00000000     0.00000000     0.00000000 0.00000000 VRAI 
CAM-ECTA-US-IP_ECTA-US-IP-T    2023.04.09.06.02.54     3.52420664     3.85074425     7.96562338     0.00000000     0.00000000     0.00000000 0.00000000 VRAI 
CAM-ECTA-US-IP_ECTA-US-IP      2023.04.09.06.02.54     3.51914001    -4.07064486     7.90278721     0.00000000     0.00000000     0.00000000 0.00000000 VRAI 
CAM-ECTA-US-HO_ECTA-US-HO-T    2023.04.09.06.02.54     3.87574410     3.64745998    12.94148445     0.00000000     0.00000000     0.00000000 0.00000000 VRAI 
CAM-ECTA-US-HO_ECTA-US-HO      2023.04.09.06.02.54     3.66432571    -3.92576361    12.88833237     0.00000000     0.00000000     0.00000000 0.00000000 VRAI 
CAM-ECTA-USA-IP_ECTA-USA-IP-T  2023.04.09.06.02.54    -3.67401242     3.84891081     7.90242338     0.00000000     0.00000000     0.00000000 0.00000000 VRAI 
CAM-ECTA-USA-IP_ECTA-USA-IP    2023.04.09.06.02.54    -3.53230262    -4.07044649     7.89438248     0.00000000     0.00000000     0.00000000 0.00000000 VRAI 
CAM-ECTA-USA-HO_ECTA-USA-HO-T  2023.04.09.06.02.54    -3.86134481     3.64768672    12.93976212     0.00000000     0.00000000     0.00000000 0.00000000 VRAI 
CAM-ECTA-USA-HO_ECTA-USA-HO    2023.04.09.06.02.54    -3.68524504    -3.92557168    12.88854218     0.00000000     0.00000000     0.00000000 0.00000000 VRAI 
CAM-ECTC-US-IP_ECTC-US-IP-T    2023.04.09.06.02.54     3.69177032     3.84800911    -7.77863359     0.00000000     0.00000000     0.00000000 0.00000000 VRAI 
CAM-ECTC-US-IP_ECTC-US-IP      2023.04.09.06.02.54     3.53222513    -4.07045412    -7.88281870     0.00000000     0.00000000     0.00000000 0.00000000 VRAI 
CAM-ECTC-US-HO_ECTC-US-HO-T    2023.04.09.06.02.54     3.86868215     3.64756274   -12.94550323     0.00000000     0.00000000     0.00000000 0.00000000 VRAI 
CAM-ECTC-US-HO_ECTC-US-HO      2023.04.09.06.02.54     3.67338657    -3.92560554   -12.89574337     0.00000000     0.00000000     0.00000000 0.00000000 VRAI 
CAM-ECTC-USA-IP_ECTC-USA-IP-T  2023.04.09.06.02.54    -3.66039658     3.84884048    -7.99969625     0.00000000     0.00000000     0.00000000 0.00000000 VRAI 
CAM-ECTC-USA-IP_ECTC-USA-IP    2023.04.09.06.02.54    -3.52968955    -4.07031202    -7.87752771     0.00000000     0.00000000     0.00000000 0.00000000 VRAI 
CAM-ECTC-USA-HO_ECTC-USA-HO-T  2023.04.09.06.02.54    -3.86860037     3.64757967   -12.93684769     0.00000000     0.00000000     0.00000000 0.00000000 VRAI 
CAM-ECTC-USA-HO_ECTC-USA-HO    2023.04.09.06.02.54    -3.67602921    -3.92561817   -12.89112854     0.00000000     0.00000000     0.00000000 0.00000000 VRAI 
