********** Fichier qui contient une sauvegarde des coordonnees images + coordonnees images transformees dans le repere BCAM (MOUNT) + coordonnees des prismes dans le repere MOUNT********** 
********************************************************************** Unite en metres (m)************************************************************************************************** 

*******************************************************************coordonnees images dans le repere CCD *********************************************************************************** 
20MABNDL000077_PR002
Spot 1     0.00097452     0.00160690
Spot 2     0.00036500     0.00140500
Spot 1     0.00097250     0.00160750
Spot 2     0.00052500     0.00043500
20MABNDL000077_PR003
Spot 1     0.00235500     0.00028500
Spot 2     0.00291500     0.00210500
Spot 1     0.00131500     0.00081500
Spot 2     0.00291500     0.00210500
20MABNDL000077_20MABNDM000168
Spot 1     0.00175588     0.00118197
Spot 2     0.00075500     0.00010500
Spot 1     0.00175610     0.00118224
Spot 2     0.00075500     0.00010500
20MABNDL000077_PR024
Spot 1     0.00251470     0.00141937
Spot 2     0.00261356     0.00143092
Spot 1     0.00251447     0.00141952
Spot 2     0.00261359     0.00143128
20MABNDM000020_PR013
Spot 1     0.00044500     0.00008500
Spot 2     0.00044500     0.00008500
Spot 1     0.00044500     0.00008500
Spot 2     0.00044500     0.00008500
20MABNDM000020_PR014
Spot 1     0.00266036     0.00168403
Spot 2     0.00249817     0.00168764
Spot 1     0.00266030     0.00168418
Spot 2     0.00249808     0.00168830
20MABNDM000020_20MABNDL000196
Spot 1     0.00197715     0.00118007
Spot 2     0.00245500     0.00029500
Spot 1     0.00197707     0.00118011
Spot 2     0.00230500     0.00010500
20MABNDM000020_PR035
Spot 1     0.00126451     0.00149094
Spot 2     0.00118772     0.00152705
Spot 1     0.00126474     0.00149082
Spot 2     0.00118764     0.00152725
20MABNDM000168_PR025
Spot 1     0.00076278     0.00147488
Spot 2     0.00060476     0.00147950
Spot 1     0.00076267     0.00147451
Spot 2     0.00060467     0.00147931
20MABNDM000168_PR026
Spot 1     0.00266798     0.00142496
Spot 2     0.00250585     0.00142101
20MABNDM000168_20MABNDL000077
Spot 1     0.00154167     0.00129778
Spot 2     0.00175951     0.00130414
20MABNDM000168_PR001
Spot 1     0.00080872     0.00161747
Spot 2     0.00070663     0.00161916
20MABNDL000196_PR036
Spot 1     0.00094470     0.00164943
Spot 2     0.00111008     0.00164801
20MABNDL000196_PR037
Spot 1     0.00283216     0.00146820
Spot 2     0.00299141     0.00147098
20MABNDL000196_20MABNDM000020
Spot 1     0.00192482     0.00103948
Spot 2     0.00170348     0.00104522
20MABNDL000196_PR012
Spot 1     0.00327500     0.00013500
Spot 2     0.00272259     0.00138495
20MABNDA000134_PR004
Spot 1     0.00190795     0.00176178
Spot 2     0.00168877     0.00175426
20MABNDA000334_PR005
Spot 1     0.00248329     0.00157829
Spot 2     0.00220304     0.00157859
20MABNDB000317_PR015
Spot 1     0.00146268     0.00168261
Spot 2     0.00168275     0.00167522
20MABNDB000146_PR016
Spot 1     0.00144639     0.00131452
Spot 2     0.00172233     0.00131547
20MABNDB000135_PR027
Spot 1     0.00188428     0.00089213
Spot 2     0.00210355     0.00089508
20MABNDB000126_PR028
Spot 1     0.00164934     0.00198116
Spot 2     0.00193255     0.00198198
20MABNDA000272_PR038
Spot 1     0.00192277     0.00095096
Spot 2     0.00170116     0.00095062
20MABNDA000003_PR039
Spot 1     0.00201508     0.00193080
Spot 2     0.00229407     0.00193165
20MABNDA000196_PR006
Spot 1     0.00175365     0.00067254
Spot 2     0.00138744     0.00067065
20MABNDA000324_PR007
Spot 1     0.00199718     0.00134189
Spot 2     0.00220343     0.00133611
20MABNDB000001_PR017
Spot 1     0.00185777     0.00088646
Spot 2     0.00222745     0.00089027
20MABNDB000260_PR019
Spot 1     0.00206662     0.00145757
Spot 2    -0.00000100    -0.00000100
20MABNDB000212_PR029
Spot 1     0.00220789     0.00069147
Spot 2     0.00184440     0.00068963
20MABNDB000128_PR030
Spot 1     0.00268600     0.00161658
Spot 2     0.00248730     0.00161897
20MABNDA000444_PR040
Spot 1     0.00179458     0.00069383
Spot 2     0.00084500     0.00007500
20MABNDA000053_PR041
Spot 1     0.00123567     0.00144464
Spot 2     0.00144113     0.00144543
20MABNDA000188_PR008
Spot 1     0.00297500     0.00011500
Spot 2     0.00297500     0.00011500
20MABNDA000188_PR018
Spot 1     0.00170938     0.00166904
Spot 2     0.00124168     0.00166610
20MABNDA000039_PR009
Spot 1     0.00066587     0.00117937
Spot 2     0.00061379     0.00118348
20MABNDA000039_PR011
Spot 1     0.00277002     0.00028326
Spot 2     0.00259335     0.00027769
20MABNDB000155_PR020
Spot 1     0.00061945     0.00112395
Spot 2     0.00068890     0.00111898
20MABNDB000155_PR022
Spot 1     0.00211879     0.00140837
Spot 2     0.00259203     0.00140359
20MABNDB000010_PR021
Spot 1     0.00286676     0.00115183
Spot 2     0.00292462     0.00115482
20MABNDB000010_PR023
Spot 1     0.00131234     0.00030247
Spot 2     0.00148772     0.00030007
20MABNDB000069_PR031
Spot 1     0.00021500     0.00240500
Spot 2     0.00021500     0.00240500
20MABNDB000069_PR033
Spot 1     0.00182921     0.00206170
Spot 2     0.00230050     0.00208221
20MABNDB000131_PR032
Spot 1     0.00277700     0.00108213
Spot 2     0.00283810     0.00108394
20MABNDB000131_PR034
Spot 1     0.00092086     0.00032703
Spot 2     0.00109767     0.00032694
20MABNDA000208_PR042
Spot 1     0.00284500     0.00011500
Spot 2     0.00284500     0.00011500
20MABNDA000208_PR046
Spot 1     0.00143843     0.00221588
Spot 2     0.00096807     0.00221872
20MABNDA000035_PR044
Spot 1     0.00074424     0.00125924
Spot 2     0.00068348     0.00125348
20MABNDA000035_PR045
Spot 1     0.00254772     0.00046943
Spot 2     0.00237007     0.00046833


****************************************************************coordonnees images transformees dans le repere MOUNT************************************************************************* 
20MABNDL000077_PR002
Spot 1     0.01204586     0.03568063    -0.07463200
Spot 2     0.01143443     0.03548461    -0.07463200
Spot 1     0.01204385     0.03568125    -0.07463200
Spot 2     0.01158509     0.03451311    -0.07463200
20MABNDL000077_PR003
Spot 1     0.01341356     0.03434551    -0.07463200
Spot 2     0.01399105     0.03616004    -0.07463200
Spot 1     0.01237871     0.03488550    -0.07463200
Spot 2     0.01399105     0.03616004    -0.07463200
20MABNDL000077_20MABNDM000168
Spot 1    -0.01259100     0.03524497    -0.00695400
Spot 2    -0.01157915     0.03417830    -0.00695400
Spot 1    -0.01259122     0.03524524    -0.00695400
Spot 2    -0.01157915     0.03417830    -0.00695400
20MABNDL000077_PR024
Spot 1    -0.01335221     0.03547459    -0.00695400
Spot 2    -0.01345118     0.03548513    -0.00695400
Spot 1    -0.01335198     0.03547474    -0.00695400
Spot 2    -0.01345122     0.03548549    -0.00695400
20MABNDM000020_PR013
Spot 1    -0.01394554    -0.03407018    -0.00523500
Spot 2    -0.01394554    -0.03407018    -0.00523500
Spot 1    -0.01394554    -0.03407018    -0.00523500
Spot 2    -0.01394554    -0.03407018    -0.00523500
20MABNDM000020_PR014
Spot 1    -0.01169536    -0.03561983    -0.00523500
Spot 2    -0.01185743    -0.03562702    -0.00523500
Spot 1    -0.01169542    -0.03561998    -0.00523500
Spot 2    -0.01185751    -0.03562768    -0.00523500
20MABNDM000020_20MABNDL000196
Spot 1     0.01270913    -0.03514863    -0.07583800
Spot 2     0.01223116    -0.03426363    -0.07583800
Spot 1     0.01270921    -0.03514867    -0.07583800
Spot 2     0.01238113    -0.03407361    -0.07583800
20MABNDM000020_PR035
Spot 1     0.01342181    -0.03545940    -0.07583800
Spot 2     0.01349861    -0.03549550    -0.07583800
Spot 1     0.01342158    -0.03545928    -0.07583800
Spot 2     0.01349869    -0.03549570    -0.07583800
20MABNDM000168_PR025
Spot 1    -0.01363934    -0.03581384    -0.00532900
Spot 2    -0.01379734    -0.03581914    -0.00532900
Spot 1    -0.01363945    -0.03581347    -0.00532900
Spot 2    -0.01379743    -0.03581895    -0.00532900
20MABNDM000168_PR026
Spot 1    -0.01173437    -0.03575574    -0.00532900
Spot 2    -0.01189652    -0.03575248    -0.00532900
20MABNDM000168_20MABNDL000077
Spot 1     0.01288383    -0.03529841    -0.07445100
Spot 2     0.01266592    -0.03530158    -0.07445100
20MABNDM000168_PR001
Spot 1     0.01361202    -0.03562879    -0.07445100
Spot 2     0.01371407    -0.03563197    -0.07445100
20MABNDL000196_PR036
Spot 1     0.01192460     0.03583812    -0.07483600
Spot 2     0.01208999     0.03583705    -0.07483600
20MABNDL000196_PR037
Spot 1     0.01381244     0.03566083    -0.07483600
Spot 2     0.01397168     0.03566394    -0.07483600
20MABNDL000196_20MABNDM000020
Spot 1    -0.01274883     0.03531070    -0.00611000
Spot 2    -0.01252765     0.03532090    -0.00611000
20MABNDL000196_PR012
Spot 1    -0.01408054     0.03437924    -0.00611000
Spot 2    -0.01355339     0.03564005    -0.00611000
20MABNDA000134_PR004
Spot 1    -0.01287871     0.01241107    -0.07608400
Spot 2    -0.01265940     0.01241250    -0.07608400
20MABNDA000334_PR005
Spot 1    -0.01312639     0.01255011    -0.07324100
Spot 2    -0.01284614     0.01254955    -0.07324100
20MABNDB000317_PR015
Spot 1    -0.01269257    -0.01241573    -0.07326100
Spot 2    -0.01247243    -0.01242056    -0.07326100
20MABNDB000146_PR016
Spot 1    -0.01276193    -0.01247909    -0.07450500
Spot 2    -0.01248599    -0.01247753    -0.07450500
20MABNDB000135_PR027
Spot 1    -0.01252066    -0.01322081    -0.07464700
Spot 2    -0.01230137    -0.01322031    -0.07464700
20MABNDB000126_PR028
Spot 1    -0.01253005    -0.01220099    -0.07500400
Spot 2    -0.01224684    -0.01219865    -0.07500400
20MABNDA000272_PR038
Spot 1    -0.01275842     0.01316051    -0.07417900
Spot 2    -0.01253681     0.01316045    -0.07417900
20MABNDA000003_PR039
Spot 1    -0.01281618     0.01212150    -0.07373400
Spot 2    -0.01309517     0.01212136    -0.07373400
20MABNDA000196_PR006
Spot 1    -0.01270765     0.01330269    -0.07967100
Spot 2    -0.01234144     0.01329987    -0.07967100
20MABNDA000324_PR007
Spot 1    -0.01260188     0.01267930    -0.07446800
Spot 2    -0.01280817     0.01268347    -0.07446800
20MABNDB000001_PR017
Spot 1    -0.01232585    -0.01310278    -0.07418400
Spot 2    -0.01195615    -0.01310288    -0.07418400
20MABNDB000260_PR019
Spot 1    -0.01226382    -0.01244201    -0.07492700
Spot 2    -0.01430111    -0.01394266    -0.07492700
20MABNDB000212_PR029
Spot 1    -0.01188006    -0.01328952    -0.07390500
Spot 2    -0.01224354    -0.01328748    -0.07390500
20MABNDB000128_PR030
Spot 1    -0.01166780    -0.01259802    -0.07353400
Spot 2    -0.01186650    -0.01259631    -0.07353400
20MABNDA000444_PR040
Spot 1    -0.01273001     0.01332269    -0.07412000
Spot 2    -0.01178836     0.01395353    -0.07412000
20MABNDA000053_PR041
Spot 1    -0.01198175     0.01265757    -0.07430100
Spot 2    -0.01218719     0.01266079    -0.07430100
20MABNDA000188_PR008
Spot 1    -0.01399107     0.01394961    -0.07502000
Spot 2    -0.01399107     0.01394961    -0.07502000
20MABNDA000188_PR018
Spot 1    -0.01273880     0.01238479    -0.07502000
Spot 2    -0.01227110     0.01238373    -0.07502000
20MABNDA000039_PR009
Spot 1    -0.01162802     0.01306477    -0.07444800
Spot 2    -0.01157596     0.01306044    -0.07444800
20MABNDA000039_PR011
Spot 1    -0.01372827     0.01396998    -0.07444800
Spot 2    -0.01355158     0.01397478    -0.07444800
20MABNDB000155_PR020
Spot 1    -0.01364663    -0.01313342    -0.07501700
Spot 2    -0.01357712    -0.01313744    -0.07501700
20MABNDB000155_PR022
Spot 1    -0.01215132    -0.01282851    -0.07501700
Spot 2    -0.01167806    -0.01282681    -0.07501700
20MABNDB000010_PR021
Spot 1    -0.01158423    -0.01292671    -0.07358200
Spot 2    -0.01152642    -0.01292274    -0.07358200
20MABNDB000010_PR023
Spot 1    -0.01312403    -0.01380228    -0.07358200
Spot 2    -0.01294864    -0.01380171    -0.07358200
20MABNDB000069_PR031
Spot 1    -0.01361993    -0.01186066    -0.07388500
Spot 2    -0.01361993    -0.01186066    -0.07388500
20MABNDB000069_PR033
Spot 1    -0.01202126    -0.01227029    -0.07388500
Spot 2    -0.01154952    -0.01226924    -0.07388500
20MABNDB000131_PR032
Spot 1    -0.01144317    -0.01303262    -0.07533000
Spot 2    -0.01138208    -0.01303051    -0.07533000
20MABNDB000131_PR034
Spot 1    -0.01329549    -0.01379706    -0.07533000
Spot 2    -0.01311868    -0.01379626    -0.07533000
20MABNDA000208_PR042
Spot 1    -0.01371645     0.01388121    -0.07273700
Spot 2    -0.01371645     0.01388121    -0.07273700
20MABNDA000208_PR046
Spot 1    -0.01230804     0.01178156    -0.07273700
Spot 2    -0.01183768     0.01177913    -0.07273700
20MABNDA000035_PR044
Spot 1    -0.01157890     0.01299805    -0.07483200
Spot 2    -0.01151810     0.01300338    -0.07483200
20MABNDA000035_PR045
Spot 1    -0.01337672     0.01380067    -0.07483200
Spot 2    -0.01319907     0.01380050    -0.07483200


*****************************************************************coordonnees du prisme dans le repere MOUNT********************************************************************************** 
20MABNDL000077_PR002
    0.05971730     0.02088637     3.70679188
    0.05604663     0.04486666     3.70685720
20MABNDL000077_PR003
   -0.03975649     0.03723855     3.89570093
   -0.01289505     0.02322064     3.89594936
20MABNDL000077_20MABNDM000168
   -0.05602373     0.07587343    -5.46843529
   -0.05601569     0.07586376    -5.46843529
20MABNDL000077_PR024
    0.04318643     0.01914142    -5.89642906
    0.04317883     0.01912146    -5.89642906
20MABNDM000020_PR013
    0.05274186    -0.08860095    -3.80153990
    0.05274186    -0.08860095    -3.80153990
20MABNDM000020_PR014
   -0.06561713    -0.00533587    -4.74841166
   -0.06561302    -0.00531057    -4.74841166
20MABNDM000020_20MABNDL000196
    0.03223070    -0.06436498     5.39472055
    0.02685453    -0.07117142     5.39469719
20MABNDM000020_PR035
   -0.04258846    -0.00707474     5.80095482
   -0.04258268    -0.00707166     5.80095482
20MABNDM000168_PR025
    0.03849914    -0.01218944    -3.78836727
    0.03850415    -0.01220326    -3.78836727
20MABNDM000168_PR026
   -0.05785828    -0.01417627    -3.98429132
20MABNDM000168_20MABNDL000077
    0.01161949    -0.03886732     5.38884687
20MABNDM000168_PR001
   -0.05732784    -0.01347524     5.81470633
20MABNDL000196_PR036
    0.05141193     0.00548063     3.68776751
20MABNDL000196_PR037
   -0.04399090     0.01292185     3.88352156
20MABNDL000196_20MABNDM000020
   -0.01577888     0.03801797    -5.47473860
20MABNDL000196_PR012
    0.07558364     0.06197209    -5.91504860
20MABNDA000134_PR004
   -0.00832370     0.03814230     2.74966097
20MABNDA000334_PR005
   -0.00397994     0.03146811     2.14977264
20MABNDB000317_PR015
   -0.01643319    -0.03697339     2.75126743
20MABNDB000146_PR016
   -0.01349476    -0.03125654     2.15201735
20MABNDB000135_PR027
   -0.02076707    -0.00900141     2.74937057
20MABNDB000126_PR028
   -0.02048740    -0.03815361     2.14680433
20MABNDA000272_PR038
   -0.01324341     0.01080102     2.74965858
20MABNDA000003_PR039
   -0.00551297     0.04137099     2.14891243
20MABNDA000196_PR006
   -0.01549748     0.00876368     1.64206004
20MABNDA000324_PR007
   -0.01524727     0.03281129     2.95548868
20MABNDB000001_PR017
   -0.02361899    -0.01257379     1.64039493
20MABNDB000260_PR019
    0.01405233    -0.00705975     2.95627952
20MABNDB000212_PR029
   -0.02480148    -0.00824237     1.64224184
20MABNDB000128_PR030
   -0.04229616    -0.03191565     2.95495367
20MABNDA000444_PR040
   -0.02168350     0.00171273     1.64498329
20MABNDA000053_PR041
   -0.03533226     0.02986281     2.95464659
20MABNDA000188_PR008
    0.14616936    -0.09611703     9.20304298
20MABNDA000188_PR018
   -0.01598169     0.02466306     1.28359413
20MABNDA000039_PR009
   -0.17122377     0.02549493    11.00701523
20MABNDA000039_PR011
    0.03084193    -0.02450144     3.43347049
20MABNDB000155_PR020
    0.10189384    -0.00816009     9.20028496
20MABNDB000155_PR022
   -0.02570981    -0.01769370     1.28070664
20MABNDB000010_PR021
   -0.17609641    -0.03356104    11.00694752
20MABNDB000010_PR023
    0.00428959     0.02076045     3.43376684
20MABNDB000069_PR031
    0.10999375    -0.16176865     9.20229721
20MABNDB000069_PR033
   -0.02691497    -0.02682177     1.28394079
20MABNDB000131_PR032
   -0.18803200    -0.03032183    11.00641918
20MABNDB000131_PR034
    0.01446159     0.01636178     3.43337917
20MABNDA000208_PR042
    0.11037338    -0.08822197     9.20121384
20MABNDA000208_PR046
   -0.02363520     0.03487245     1.28207612
20MABNDA000035_PR044
   -0.17937481     0.02704404    11.00802994
20MABNDA000035_PR045
    0.01469642    -0.01905353     3.43483543


*****************************************************************coordonnees du prisme dans le repere ATLAS********************************************************************************** 
20MABNDL000077_PR002 0.00000000
    2.83615756    -3.68479967     6.48608398
    2.81217623    -3.68846273     6.48616838
20MABNDL000077_PR003 0.00000000
    2.81995893    -3.78450131     6.67488623
    2.83398581    -3.75764465     6.67515421
20MABNDL000077_20MABNDM000168 0.00000000
    2.77213383    -3.78920293    -2.68922043
    2.77214360    -3.78919482    -2.68922043
20MABNDL000077_PR024 0.00000000
    2.82847786    -3.68948269    -3.11714697
    2.82849765    -3.68949032    -3.11714697
20MABNDM000020_PR013 0.00000000
   -2.76372600    -3.79224682     6.48532534
   -2.76372600    -3.79224682     6.48532534
20MABNDM000020_PR014 0.00000000
   -2.84676528    -3.67458248     7.43230343
   -2.84679055    -3.67458653     7.43230343
20MABNDM000020_20MABNDL000196 0.00000000
   -2.78979588    -3.76473403    -2.71091175
   -2.78298783    -3.75936007    -2.71088576
20MABNDM000020_PR035 0.00000000
   -2.84714460    -3.68958855    -3.11707759
   -2.84714770    -3.68959427    -3.11707759
20MABNDM000168_PR025 0.00000000
    2.84104204    -3.78383064    -6.47897911
    2.84102821    -3.78383565    -6.47897911
20MABNDM000168_PR026 0.00000000
    2.83906865    -3.68754554    -6.67493868
20MABNDM000168_20MABNDL000077 0.00000000
    2.81492829    -3.75353146     2.69822621
20MABNDM000168_PR001 0.00000000
    2.84036422    -3.68443251     3.12405849
20MABNDL000196_PR036 0.00000000
   -2.84812689    -3.69286275    -6.47909117
20MABNDL000196_PR037 0.00000000
   -2.84064555    -3.78844428    -6.67475653
20MABNDL000196_20MABNDM000020 0.00000000
   -2.81536031    -3.75151539     2.68347287
20MABNDL000196_PR012 0.00000000
   -2.79143929    -3.65973234     3.12369728
20MABNDA000134_PR004 0.00000000
    2.61467957    -4.19698954     3.83385634
20MABNDA000334_PR005 0.00000000
    2.61701870    -4.19703007     5.89779282
20MABNDB000317_PR015 0.00000000
   -2.61217403    -4.19699240     3.83304214
20MABNDB000146_PR016 0.00000000
   -2.61280060    -4.19702053     5.89909363
20MABNDB000135_PR027 0.00000000
    2.60409641    -4.19700480    -3.82635927
20MABNDB000126_PR028 0.00000000
    2.60542941    -4.19701529    -5.89406633
20MABNDA000272_PR038 0.00000000
   -2.61129355    -4.19698286    -3.82768321
20MABNDA000003_PR039 0.00000000
   -2.61621809    -4.19702339    -5.89139557
20MABNDA000196_PR006 0.00000000
    2.58995819    -4.19496918     6.54672098
20MABNDA000324_PR007 0.00000000
    2.60406804    -4.13996267     6.94310474
20MABNDB000001_PR017 0.00000000
   -2.59732366    -4.19499016     6.54790211
20MABNDB000260_PR019 0.00000000
   -2.64282489    -4.14002609     6.97357130
20MABNDB000212_PR029 0.00000000
    2.59847927    -4.19500685    -6.54723024
20MABNDB000128_PR030 0.00000000
    2.58656549    -4.14004183    -6.94620991
20MABNDA000444_PR040 0.00000000
   -2.59685612    -4.19502544    -6.54089403
20MABNDA000053_PR041 0.00000000
   -2.58520746    -4.14003944    -6.94805002
20MABNDA000188_PR008 0.00000000
    3.55893064     3.84859109     8.10764503
20MABNDA000188_PR018 0.00000000
    3.52113771    -4.07059431     7.89878893
20MABNDA000039_PR009 0.00000000
    3.87539577     3.64747334    12.93678856
20MABNDA000039_PR011 0.00000000
    3.66418219    -3.92580533    12.88433552
20MABNDB000155_PR020 0.00000000
   -3.68054652     3.84881854     7.89870691
20MABNDB000155_PR022 0.00000000
   -3.53427076    -4.07043791     7.89036560
20MABNDB000010_PR021 0.00000000
   -3.86193371     3.64768481    12.93539047
20MABNDB000010_PR023 0.00000000
   -3.68537736    -3.92561007    12.88451576
20MABNDB000069_PR031 0.00000000
    3.69177032     3.84800911    -7.77863359
20MABNDB000069_PR033 0.00000000
    3.53338432    -4.07046270    -7.87884951
20MABNDB000131_PR032 0.00000000
    3.86883426     3.64756918   -12.94096470
20MABNDB000131_PR034 0.00000000
    3.67332768    -3.92563748   -12.89158535
20MABNDA000208_PR042 0.00000000
   -3.66039658     3.84884048    -7.99969625
20MABNDA000208_PR046 0.00000000
   -3.53213048    -4.07034588    -7.87364578
20MABNDA000035_PR044 0.00000000
   -3.86861587     3.64758515   -12.93272305
20MABNDA000035_PR045 0.00000000
   -3.67603183    -3.92565179   -12.88733101


*****************************************************************Rapport********************************************************************************** 
CAM-LBA-US_EBA-US-HO-H         2023.07.03.01.05.13     2.82416689    -3.68663120     6.48612618     0.01199067     0.00183153     0.00004220 0.00000000 VRAI 
CAM-LBA-US_JDA-US-H            2023.07.03.01.05.13     2.82697237    -3.77107298     6.67502022     0.00701344     0.01342833     0.00013399 0.00000000 VRAI 
CAM-LBA-US_CAM-LBC-US          2023.07.03.01.05.13     2.77213871    -3.78919888    -2.68922043     0.00000489     0.00000405     0.00000000 0.00000000 VRAI 
CAM-LBA-US_EBC-US-IP-H         2023.07.03.01.05.13     2.82848775    -3.68948650    -3.11714697     0.00000989     0.00000381     0.00000000 0.00000000 VRAI 
CAM-LBA-USA_EBA-USA-HO-H       2023.07.03.01.05.13    -2.76372600    -3.79224682     6.48532534     0.00000000     0.00000000     0.00000000 0.00000000 VRAI 
CAM-LBA-USA_JDA-USA-H          2023.07.03.01.05.13    -2.84677792    -3.67458451     7.43230343     0.00001264     0.00000203     0.00000000 0.00000000 VRAI 
CAM-LBA-USA_CAM-LBC-USA        2023.07.03.01.05.13    -2.78639185    -3.76204705    -2.71089876     0.00340402     0.00268698     0.00001299 0.00000000 VRAI 
CAM-LBA-USA_EBC-USA-IP-H       2023.07.03.01.05.13    -2.84714615    -3.68959141    -3.11707759     0.00000155     0.00000286     0.00000000 0.00000000 VRAI 
CAM-LBC-US_EBC-US-HO-H         2023.07.03.01.05.13     2.84103513    -3.78383315    -6.47897911     0.00000691     0.00000250     0.00000000 0.00000000 VRAI 
CAM-LBC-US_JDC-US-H            2023.07.03.01.05.13     2.83906865    -3.68754554    -6.67493868     0.00000000     0.00000000     0.00000000 0.00000000 VRAI 
CAM-LBC-US_CAM-LBA-US          2023.07.03.01.05.13     2.81492829    -3.75353146     2.69822621     0.00000000     0.00000000     0.00000000 0.00000000 VRAI 
CAM-LBC-US_EBA-US-IP-H         2023.07.03.01.05.13     2.84036422    -3.68443251     3.12405849     0.00000000     0.00000000     0.00000000 0.00000000 VRAI 
CAM-LBC-USA_EBC-USA-HO-H       2023.07.03.01.05.13    -2.84812689    -3.69286275    -6.47909117     0.00000000     0.00000000     0.00000000 0.00000000 VRAI 
CAM-LBC-USA_JDC-USA-H          2023.07.03.01.05.13    -2.84064555    -3.78844428    -6.67475653     0.00000000     0.00000000     0.00000000 0.00000000 VRAI 
CAM-LBC-USA_CAM-LBA-USA        2023.07.03.01.05.13    -2.81536031    -3.75151539     2.68347287     0.00000000     0.00000000     0.00000000 0.00000000 VRAI 
CAM-LBC-USA_EBA-USA-IP-H       2023.07.03.01.05.13    -2.79143929    -3.65973234     3.12369728     0.00000000     0.00000000     0.00000000 0.00000000 VRAI 
CAM-EBA-US-IP_EBA-US-IP        2023.07.03.01.05.13     2.61467957    -4.19698954     3.83385634     0.00000000     0.00000000     0.00000000 0.00000000 VRAI 
CAM-EBA-US-HO_EBA-US-HO        2023.07.03.01.05.13     2.61701870    -4.19703007     5.89779282     0.00000000     0.00000000     0.00000000 0.00000000 VRAI 
CAM-EBA-USA-IP_EBA-USA-IP      2023.07.03.01.05.13    -2.61217403    -4.19699240     3.83304214     0.00000000     0.00000000     0.00000000 0.00000000 VRAI 
CAM-EBA-USA-HO_EBA-USA-HO      2023.07.03.01.05.13    -2.61280060    -4.19702053     5.89909363     0.00000000     0.00000000     0.00000000 0.00000000 VRAI 
CAM-EBC-US-IP_EBC-US-IP        2023.07.03.01.05.13     2.60409641    -4.19700480    -3.82635927     0.00000000     0.00000000     0.00000000 0.00000000 VRAI 
CAM-EBC-US-HO_EBC-US-HO        2023.07.03.01.05.13     2.60542941    -4.19701529    -5.89406633     0.00000000     0.00000000     0.00000000 0.00000000 VRAI 
CAM-EBC-USA-IP_EBC-USA-IP      2023.07.03.01.05.13    -2.61129355    -4.19698286    -3.82768321     0.00000000     0.00000000     0.00000000 0.00000000 VRAI 
CAM-EBC-USA-HO_EBC-USA-HO      2023.07.03.01.05.13    -2.61621809    -4.19702339    -5.89139557     0.00000000     0.00000000     0.00000000 0.00000000 VRAI 
CAM-JDA-US-IP_JDA-US-IP        2023.07.03.01.05.13     2.58995819    -4.19496918     6.54672098     0.00000000     0.00000000     0.00000000 0.00000000 VRAI 
CAM-JDA-US-HO_JDA-US-HO        2023.07.03.01.05.13     2.60406804    -4.13996267     6.94310474     0.00000000     0.00000000     0.00000000 0.00000000 VRAI 
CAM-JDA-USA-IP_JDA-USA-IP      2023.07.03.01.05.13    -2.59732366    -4.19499016     6.54790211     0.00000000     0.00000000     0.00000000 0.00000000 VRAI 
CAM-JDA-USA-HO_JDA-USA-HO      2023.07.03.01.05.13    -2.64282489    -4.14002609     6.97357130     0.00000000     0.00000000     0.00000000 0.00000000 VRAI 
CAM-JDC-US-IP_JDC-US-IP        2023.07.03.01.05.13     2.59847927    -4.19500685    -6.54723024     0.00000000     0.00000000     0.00000000 0.00000000 VRAI 
CAM-JDC-US-HO_JDC-US-HO        2023.07.03.01.05.13     2.58656549    -4.14004183    -6.94620991     0.00000000     0.00000000     0.00000000 0.00000000 VRAI 
CAM-JDC-USA-IP_JDC-USA-IP      2023.07.03.01.05.13    -2.59685612    -4.19502544    -6.54089403     0.00000000     0.00000000     0.00000000 0.00000000 VRAI 
CAM-JDC-USA-HO_JDC-USA-HO      2023.07.03.01.05.13    -2.58520746    -4.14003944    -6.94805002     0.00000000     0.00000000     0.00000000 0.00000000 VRAI 
CAM-ECTA-US-IP_ECTA-US-IP-T    2023.07.03.01.05.13     3.55893064     3.84859109     8.10764503     0.00000000     0.00000000     0.00000000 0.00000000 VRAI 
CAM-ECTA-US-IP_ECTA-US-IP      2023.07.03.01.05.13     3.52113771    -4.07059431     7.89878893     0.00000000     0.00000000     0.00000000 0.00000000 VRAI 
CAM-ECTA-US-HO_ECTA-US-HO-T    2023.07.03.01.05.13     3.87539577     3.64747334    12.93678856     0.00000000     0.00000000     0.00000000 0.00000000 VRAI 
CAM-ECTA-US-HO_ECTA-US-HO      2023.07.03.01.05.13     3.66418219    -3.92580533    12.88433552     0.00000000     0.00000000     0.00000000 0.00000000 VRAI 
CAM-ECTA-USA-IP_ECTA-USA-IP-T  2023.07.03.01.05.13    -3.68054652     3.84881854     7.89870691     0.00000000     0.00000000     0.00000000 0.00000000 VRAI 
CAM-ECTA-USA-IP_ECTA-USA-IP    2023.07.03.01.05.13    -3.53427076    -4.07043791     7.89036560     0.00000000     0.00000000     0.00000000 0.00000000 VRAI 
CAM-ECTA-USA-HO_ECTA-USA-HO-T  2023.07.03.01.05.13    -3.86193371     3.64768481    12.93539047     0.00000000     0.00000000     0.00000000 0.00000000 VRAI 
CAM-ECTA-USA-HO_ECTA-USA-HO    2023.07.03.01.05.13    -3.68537736    -3.92561007    12.88451576     0.00000000     0.00000000     0.00000000 0.00000000 VRAI 
CAM-ECTC-US-IP_ECTC-US-IP-T    2023.07.03.01.05.13     3.69177032     3.84800911    -7.77863359     0.00000000     0.00000000     0.00000000 0.00000000 VRAI 
CAM-ECTC-US-IP_ECTC-US-IP      2023.07.03.01.05.13     3.53338432    -4.07046270    -7.87884951     0.00000000     0.00000000     0.00000000 0.00000000 VRAI 
CAM-ECTC-US-HO_ECTC-US-HO-T    2023.07.03.01.05.13     3.86883426     3.64756918   -12.94096470     0.00000000     0.00000000     0.00000000 0.00000000 VRAI 
CAM-ECTC-US-HO_ECTC-US-HO      2023.07.03.01.05.13     3.67332768    -3.92563748   -12.89158535     0.00000000     0.00000000     0.00000000 0.00000000 VRAI 
CAM-ECTC-USA-IP_ECTC-USA-IP-T  2023.07.03.01.05.13    -3.66039658     3.84884048    -7.99969625     0.00000000     0.00000000     0.00000000 0.00000000 VRAI 
CAM-ECTC-USA-IP_ECTC-USA-IP    2023.07.03.01.05.13    -3.53213048    -4.07034588    -7.87364578     0.00000000     0.00000000     0.00000000 0.00000000 VRAI 
CAM-ECTC-USA-HO_ECTC-USA-HO-T  2023.07.03.01.05.13    -3.86861587     3.64758515   -12.93272305     0.00000000     0.00000000     0.00000000 0.00000000 VRAI 
CAM-ECTC-USA-HO_ECTC-USA-HO    2023.07.03.01.05.13    -3.67603183    -3.92565179   -12.88733101     0.00000000     0.00000000     0.00000000 0.00000000 VRAI 
