********** Fichier qui contient une sauvegarde des coordonnees images + coordonnees images transformees dans le repere BCAM (MOUNT) + coordonnees des prismes dans le repere MOUNT********** 
********************************************************************** Unite en metres (m)************************************************************************************************** 

*******************************************************************coordonnees images dans le repere CCD *********************************************************************************** 
20MABNDL000077_PR002
Spot 1     0.00052500     0.00043500
Spot 2     0.00025500     0.00081500
Spot 1     0.00052500     0.00043500
Spot 2     0.00025500     0.00081500
20MABNDL000077_PR003
Spot 1     0.00235500     0.00028500
Spot 2     0.00235500     0.00028500
Spot 1     0.00166500     0.00022500
Spot 2     0.00166500     0.00022500
20MABNDL000077_20MABNDM000168
Spot 1     0.00175604     0.00118262
Spot 2     0.00075500     0.00010500
Spot 1     0.00175594     0.00118283
Spot 2     0.00075500     0.00010500
20MABNDL000077_PR024
Spot 1     0.00251564     0.00141987
Spot 2     0.00261391     0.00143172
Spot 1     0.00251486     0.00142015
Spot 2     0.00261380     0.00143200
20MABNDM000020_PR013
Spot 1     0.00044500     0.00008500
Spot 2     0.00044500     0.00008500
Spot 1     0.00044500     0.00008500
Spot 2     0.00044500     0.00008500
20MABNDM000020_PR014
Spot 1     0.00265925     0.00168456
Spot 2     0.00249767     0.00168791
Spot 1     0.00265971     0.00168392
Spot 2     0.00249794     0.00168850
20MABNDM000020_20MABNDL000196
Spot 1     0.00197572     0.00117998
Spot 2     0.00230500     0.00010500
Spot 1     0.00197578     0.00117992
Spot 2     0.00230500     0.00010500
20MABNDM000020_PR035
Spot 1     0.00126306     0.00149156
Spot 2     0.00118661     0.00152741
Spot 1     0.00126256     0.00149089
Spot 2     0.00118633     0.00152734
20MABNDM000168_PR025
Spot 1     0.00076257     0.00147396
Spot 2     0.00060522     0.00147860
Spot 1     0.00076233     0.00147398
Spot 2     0.00060510     0.00147881
20MABNDM000168_PR026
Spot 1     0.00266780     0.00142409
Spot 2     0.00250622     0.00141993
Spot 1     0.00266799     0.00142428
Spot 2     0.00250642     0.00141988
20MABNDM000168_20MABNDL000077
Spot 1     0.00154206     0.00129797
Spot 2     0.00175766     0.00130036
20MABNDM000168_PR001
Spot 1     0.00080989     0.00161749
Spot 2     0.00070726     0.00161880
20MABNDL000196_PR036
Spot 1     0.00094471     0.00164984
Spot 2     0.00110957     0.00164854
20MABNDL000196_PR037
Spot 1     0.00283271     0.00146833
Spot 2     0.00299222     0.00147124
20MABNDL000196_20MABNDM000020
Spot 1     0.00192532     0.00103896
Spot 2     0.00170453     0.00104490
20MABNDL000196_PR012
Spot 1     0.00327500     0.00013500
Spot 2     0.00272346     0.00138505
20MABNDA000134_PR004
Spot 1     0.00190787     0.00176064
Spot 2     0.00168906     0.00175366
20MABNDA000334_PR005
Spot 1     0.00248313     0.00157833
Spot 2     0.00220326     0.00157869
20MABNDB000317_PR015
Spot 1     0.00168403     0.00167727
Spot 2     0.00146316     0.00168236
20MABNDB000146_PR016
Spot 1     0.00144620     0.00131412
Spot 2     0.00172222     0.00131630
20MABNDB000135_PR027
Spot 1     0.00188474     0.00089186
Spot 2     0.00210346     0.00089509
20MABNDB000126_PR028
Spot 1     0.00193222     0.00198112
Spot 2    -0.00000100    -0.00000100
20MABNDA000272_PR038
Spot 1     0.00192303     0.00095133
Spot 2     0.00170084     0.00095110
20MABNDA000003_PR039
Spot 1     0.00201519     0.00193087
Spot 2     0.00229400     0.00193160
20MABNDA000196_PR006
Spot 1     0.00138826     0.00067185
Spot 2     0.00175428     0.00067398
20MABNDA000324_PR007
Spot 1     0.00199676     0.00134171
Spot 2     0.00220367     0.00133727
20MABNDB000001_PR017
Spot 1     0.00185689     0.00088620
Spot 2     0.00222710     0.00089088
20MABNDB000260_PR019
Spot 1     0.00206732     0.00145835
Spot 2    -0.00000100    -0.00000100
20MABNDB000212_PR029
Spot 1     0.00220735     0.00069162
Spot 2     0.00184459     0.00068938
20MABNDB000128_PR030
Spot 1     0.00268595     0.00161655
Spot 2     0.00248793     0.00161895
20MABNDA000444_PR040
Spot 1     0.00179547     0.00069563
Spot 2    -0.00000100    -0.00000100
20MABNDA000053_PR041
Spot 1     0.00123536     0.00144406
Spot 2     0.00144085     0.00144488
20MABNDA000188_PR008
Spot 1     0.00297500     0.00011500
Spot 2     0.00297500     0.00011500
20MABNDA000188_PR018
Spot 1     0.00170963     0.00167167
Spot 2     0.00124226     0.00166929
20MABNDA000039_PR009
Spot 1     0.00066511     0.00117880
Spot 2     0.00061488     0.00118236
20MABNDA000039_PR011
Spot 1     0.00276977     0.00028143
Spot 2     0.00259284     0.00027627
20MABNDB000155_PR020
Spot 1     0.00061941     0.00112491
Spot 2     0.00068914     0.00112073
20MABNDB000155_PR022
Spot 1     0.00212004     0.00141079
Spot 2     0.00259325     0.00140623
20MABNDB000010_PR021
Spot 1     0.00286687     0.00115112
Spot 2     0.00292456     0.00115458
20MABNDB000010_PR023
Spot 1     0.00131186     0.00030193
Spot 2     0.00148803     0.00029966
20MABNDB000069_PR031
Spot 1     0.00021500     0.00240500
Spot 2     0.00021500     0.00240500
20MABNDB000069_PR033
Spot 1     0.00183040     0.00206470
Spot 2     0.00230111     0.00208535
20MABNDB000131_PR032
Spot 1     0.00277723     0.00108123
Spot 2     0.00283734     0.00108357
20MABNDB000131_PR034
Spot 1     0.00092095     0.00032559
Spot 2     0.00109713     0.00032505
20MABNDA000208_PR042
Spot 1     0.00284500     0.00011500
Spot 2     0.00284500     0.00011500
20MABNDA000208_PR046
Spot 1     0.00143888     0.00221971
Spot 2     0.00096823     0.00222251
20MABNDA000035_PR044
Spot 1     0.00074406     0.00125828
Spot 2     0.00068368     0.00125268
20MABNDA000035_PR045
Spot 1     0.00254809     0.00046786
Spot 2     0.00237013     0.00046685


****************************************************************coordonnees images transformees dans le repere MOUNT************************************************************************* 
20MABNDL000077_PR002
Spot 1     0.01158509     0.03451311    -0.07463200
Spot 2     0.01131876     0.03489570    -0.07463200
Spot 1     0.01158509     0.03451311    -0.07463200
Spot 2     0.01131876     0.03489570    -0.07463200
20MABNDL000077_PR003
Spot 1     0.01341356     0.03434551    -0.07463200
Spot 2     0.01341356     0.03434551    -0.07463200
Spot 1     0.01272301     0.03429215    -0.07463200
Spot 2     0.01272301     0.03429215    -0.07463200
20MABNDL000077_20MABNDM000168
Spot 1    -0.01259117     0.03524562    -0.00695400
Spot 2    -0.01157915     0.03417830    -0.00695400
Spot 1    -0.01259107     0.03524583    -0.00695400
Spot 2    -0.01157915     0.03417830    -0.00695400
20MABNDL000077_PR024
Spot 1    -0.01335316     0.03547508    -0.00695400
Spot 2    -0.01345154     0.03548592    -0.00695400
Spot 1    -0.01335238     0.03547537    -0.00695400
Spot 2    -0.01345143     0.03548620    -0.00695400
20MABNDM000020_PR013
Spot 1    -0.01394554    -0.03407018    -0.00523500
Spot 2    -0.01394554    -0.03407018    -0.00523500
Spot 1    -0.01394554    -0.03407018    -0.00523500
Spot 2    -0.01394554    -0.03407018    -0.00523500
20MABNDM000020_PR014
Spot 1    -0.01169646    -0.03562038    -0.00523500
Spot 2    -0.01185792    -0.03562730    -0.00523500
Spot 1    -0.01169601    -0.03561973    -0.00523500
Spot 2    -0.01185764    -0.03562789    -0.00523500
20MABNDM000020_20MABNDL000196
Spot 1     0.01271056    -0.03514854    -0.07583800
Spot 2     0.01238113    -0.03407361    -0.07583800
Spot 1     0.01271050    -0.03514848    -0.07583800
Spot 2     0.01238113    -0.03407361    -0.07583800
20MABNDM000020_PR035
Spot 1     0.01342326    -0.03546002    -0.07583800
Spot 2     0.01349972    -0.03549586    -0.07583800
Spot 1     0.01342376    -0.03545935    -0.07583800
Spot 2     0.01350000    -0.03549579    -0.07583800
20MABNDM000168_PR025
Spot 1    -0.01363956    -0.03581292    -0.00532900
Spot 2    -0.01379688    -0.03581824    -0.00532900
Spot 1    -0.01363980    -0.03581294    -0.00532900
Spot 2    -0.01379700    -0.03581845    -0.00532900
20MABNDM000168_PR026
Spot 1    -0.01173456    -0.03575487    -0.00532900
Spot 2    -0.01189615    -0.03575140    -0.00532900
Spot 1    -0.01173437    -0.03575506    -0.00532900
Spot 2    -0.01189595    -0.03575135    -0.00532900
20MABNDM000168_20MABNDL000077
Spot 1     0.01288343    -0.03529859    -0.07445100
Spot 2     0.01266782    -0.03529783    -0.07445100
20MABNDM000168_PR001
Spot 1     0.01361085    -0.03562879    -0.07445100
Spot 2     0.01371345    -0.03563160    -0.07445100
20MABNDL000196_PR036
Spot 1     0.01192461     0.03583853    -0.07483600
Spot 2     0.01208948     0.03583758    -0.07483600
20MABNDL000196_PR037
Spot 1     0.01381299     0.03566096    -0.07483600
Spot 2     0.01397249     0.03566421    -0.07483600
20MABNDL000196_20MABNDM000020
Spot 1    -0.01274932     0.03531017    -0.00611000
Spot 2    -0.01252869     0.03532056    -0.00611000
20MABNDL000196_PR012
Spot 1    -0.01408054     0.03437924    -0.00611000
Spot 2    -0.01355426     0.03564014    -0.00611000
20MABNDA000134_PR004
Spot 1    -0.01287860     0.01241221    -0.07608400
Spot 2    -0.01265968     0.01241311    -0.07608400
20MABNDA000334_PR005
Spot 1    -0.01312623     0.01255007    -0.07324100
Spot 2    -0.01284636     0.01254945    -0.07324100
20MABNDB000317_PR015
Spot 1    -0.01247117    -0.01241849    -0.07326100
Spot 2    -0.01269209    -0.01241598    -0.07326100
20MABNDB000146_PR016
Spot 1    -0.01276212    -0.01247949    -0.07450500
Spot 2    -0.01248611    -0.01247670    -0.07450500
20MABNDB000135_PR027
Spot 1    -0.01252020    -0.01322109    -0.07464700
Spot 2    -0.01230146    -0.01322029    -0.07464700
20MABNDB000126_PR028
Spot 1    -0.01224717    -0.01219952    -0.07500400
Spot 2    -0.01416978    -0.01419193    -0.07500400
20MABNDA000272_PR038
Spot 1    -0.01275868     0.01316014    -0.07417900
Spot 2    -0.01253649     0.01315997    -0.07417900
20MABNDA000003_PR039
Spot 1    -0.01281629     0.01212143    -0.07373400
Spot 2    -0.01309510     0.01212141    -0.07373400
20MABNDA000196_PR006
Spot 1    -0.01234228     0.01329869    -0.07967100
Spot 2    -0.01270829     0.01330126    -0.07967100
20MABNDA000324_PR007
Spot 1    -0.01260146     0.01267949    -0.07446800
Spot 2    -0.01280840     0.01268231    -0.07446800
20MABNDB000001_PR017
Spot 1    -0.01232673    -0.01310303    -0.07418400
Spot 2    -0.01195649    -0.01310227    -0.07418400
20MABNDB000260_PR019
Spot 1    -0.01226314    -0.01244122    -0.07492700
Spot 2    -0.01430111    -0.01394266    -0.07492700
20MABNDB000212_PR029
Spot 1    -0.01188059    -0.01328937    -0.07390500
Spot 2    -0.01224336    -0.01328773    -0.07390500
20MABNDB000128_PR030
Spot 1    -0.01166785    -0.01259805    -0.07353400
Spot 2    -0.01186587    -0.01259633    -0.07353400
20MABNDA000444_PR040
Spot 1    -0.01273088     0.01332088    -0.07412000
Spot 2    -0.01094339     0.01404026    -0.07412000
20MABNDA000053_PR041
Spot 1    -0.01198143     0.01265814    -0.07430100
Spot 2    -0.01218690     0.01266133    -0.07430100
20MABNDA000188_PR008
Spot 1    -0.01399107     0.01394961    -0.07502000
Spot 2    -0.01399107     0.01394961    -0.07502000
20MABNDA000188_PR018
Spot 1    -0.01273908     0.01238216    -0.07502000
Spot 2    -0.01227170     0.01238054    -0.07502000
20MABNDA000039_PR009
Spot 1    -0.01162725     0.01306534    -0.07444800
Spot 2    -0.01157704     0.01306156    -0.07444800
20MABNDA000039_PR011
Spot 1    -0.01372801     0.01397181    -0.07444800
Spot 2    -0.01355106     0.01397620    -0.07444800
20MABNDB000155_PR020
Spot 1    -0.01364668    -0.01313247    -0.07501700
Spot 2    -0.01357690    -0.01313569    -0.07501700
20MABNDB000155_PR022
Spot 1    -0.01215011    -0.01282607    -0.07501700
Spot 2    -0.01167688    -0.01282415    -0.07501700
20MABNDB000010_PR021
Spot 1    -0.01158410    -0.01292742    -0.07358200
Spot 2    -0.01152648    -0.01292299    -0.07358200
20MABNDB000010_PR023
Spot 1    -0.01312451    -0.01380283    -0.07358200
Spot 2    -0.01294832    -0.01380212    -0.07358200
20MABNDB000069_PR031
Spot 1    -0.01361993    -0.01186066    -0.07388500
Spot 2    -0.01361993    -0.01186066    -0.07388500
20MABNDB000069_PR033
Spot 1    -0.01201995    -0.01226734    -0.07388500
Spot 2    -0.01154879    -0.01226613    -0.07388500
20MABNDB000131_PR032
Spot 1    -0.01144294    -0.01303352    -0.07533000
Spot 2    -0.01138284    -0.01303088    -0.07533000
20MABNDB000131_PR034
Spot 1    -0.01329539    -0.01379850    -0.07533000
Spot 2    -0.01311921    -0.01379815    -0.07533000
20MABNDA000208_PR042
Spot 1    -0.01371645     0.01388121    -0.07273700
Spot 2    -0.01371645     0.01388121    -0.07273700
20MABNDA000208_PR046
Spot 1    -0.01230849     0.01177773    -0.07273700
Spot 2    -0.01183784     0.01177534    -0.07273700
20MABNDA000035_PR044
Spot 1    -0.01157872     0.01299901    -0.07483200
Spot 2    -0.01151830     0.01300418    -0.07483200
20MABNDA000035_PR045
Spot 1    -0.01337708     0.01380224    -0.07483200
Spot 2    -0.01319912     0.01380199    -0.07483200


*****************************************************************coordonnees du prisme dans le repere MOUNT********************************************************************************** 
20MABNDL000077_PR002
    0.07395094     0.06426812     3.70650744
    0.07395094     0.06426812     3.70650744
20MABNDL000077_PR003
   -0.02476418     0.08434060     3.89557457
    0.01108603     0.08711259     3.89571905
20MABNDL000077_20MABNDM000168
   -0.05601772     0.07585001    -5.46843529
   -0.05602125     0.07584239    -5.46843529
20MABNDL000077_PR024
    0.04323723     0.01909126    -5.89642859
    0.04320276     0.01906907    -5.89642859
20MABNDM000020_PR013
    0.05274186    -0.08860095    -3.80153990
    0.05274186    -0.08860095    -3.80153990
20MABNDM000020_PR014
   -0.06556758    -0.00530986    -4.74841213
   -0.06559026    -0.00531195    -4.74841166
20MABNDM000020_20MABNDL000196
    0.02680616    -0.07117608     5.39469719
    0.02680831    -0.07117824     5.39469719
20MABNDM000020_PR035
   -0.04268708    -0.00703700     5.80095387
   -0.04271712    -0.00706552     5.80095387
20MABNDM000168_PR025
    0.03849316    -0.01223446    -3.78836775
    0.03850204    -0.01222874    -3.78836775
20MABNDM000168_PR026
   -0.05786301    -0.01422704    -3.98429179
   -0.05787317    -0.01422345    -3.98429132
20MABNDM000168_20MABNDL000077
    0.01156516    -0.03899550     5.38884640
20MABNDM000168_PR001
   -0.05725827    -0.01348944     5.81470680
20MABNDL000196_PR036
    0.05142426     0.00545758     3.68776703
20MABNDL000196_PR037
   -0.04402602     0.01291170     3.88352108
20MABNDL000196_20MABNDM000020
   -0.01572381     0.03804926    -5.47473907
20MABNDL000196_PR012
    0.07561751     0.06196889    -5.91504860
20MABNDA000134_PR004
   -0.00832074     0.03811038     2.74966145
20MABNDA000334_PR005
   -0.00397908     0.03147011     2.14977264
20MABNDB000317_PR015
   -0.01646482    -0.03700653     2.75126696
20MABNDB000146_PR016
   -0.01349044    -0.03126271     2.15201735
20MABNDB000135_PR027
   -0.02077381    -0.00899657     2.74937057
20MABNDB000126_PR028
    0.00288893    -0.00976450     2.14690590
20MABNDA000272_PR038
   -0.01324448     0.01081660     2.74965858
20MABNDA000003_PR039
   -0.00551240     0.04137128     2.14891243
20MABNDA000196_PR006
   -0.01548123     0.00879232     1.64206028
20MABNDA000324_PR007
   -0.01525097     0.03283054     2.95548868
20MABNDB000001_PR017
   -0.02360559    -0.01257776     1.64039505
20MABNDB000260_PR019
    0.01403886    -0.00707540     2.95627952
20MABNDB000212_PR029
   -0.02479763    -0.00824131     1.64224184
20MABNDB000128_PR030
   -0.04230756    -0.03191470     2.95495367
20MABNDA000444_PR040
   -0.03092818     0.00078321     1.64490008
20MABNDA000053_PR041
   -0.03534428     0.02984085     2.95464659
20MABNDA000188_PR008
    0.14616936    -0.09611703     9.20304298
20MABNDA000188_PR018
   -0.01597415     0.02471282     1.28359365
20MABNDA000039_PR009
   -0.17120019     0.02537124    11.00701523
20MABNDA000039_PR011
    0.03082427    -0.02457549     3.43346977
20MABNDB000155_PR020
    0.10188384    -0.00832661     9.20028496
20MABNDB000155_PR022
   -0.02573032    -0.01773722     1.28070629
20MABNDB000010_PR021
   -0.17610128    -0.03349127    11.00694752
20MABNDB000010_PR023
    0.00429312     0.02078229     3.43376637
20MABNDB000069_PR031
    0.10999375    -0.16176865     9.20229721
20MABNDB000069_PR033
   -0.02693251    -0.02687359     1.28393996
20MABNDB000131_PR032
   -0.18799375    -0.03022884    11.00641918
20MABNDB000131_PR034
    0.01447146     0.01643771     3.43337798
20MABNDA000208_PR042
    0.11037338    -0.08822197     9.20121384
20MABNDA000208_PR046
   -0.02363003     0.03493755     1.28207505
20MABNDA000035_PR044
   -0.17937428     0.02691530    11.00803185
20MABNDA000035_PR045
    0.01470573    -0.01912320     3.43483472


*****************************************************************coordonnees du prisme dans le repere ATLAS********************************************************************************** 
20MABNDL000077_PR002 0.00000000
    2.79278016    -3.67055202     6.48585987
    2.79278016    -3.67055202     6.48585987
20MABNDL000077_PR003 0.00000000
    2.77286172    -3.76949382     6.67482471
    2.77010131    -3.73364305     6.67501593
20MABNDL000077_20MABNDM000168 0.00000000
    2.77215743    -3.78919673    -2.68922043
    2.77216506    -3.78920031    -2.68922043
20MABNDL000077_PR024 0.00000000
    2.82852793    -3.68943191    -3.11714649
    2.82855010    -3.68946648    -3.11714649
20MABNDM000020_PR013 0.00000000
   -2.76372600    -3.79224682     6.48532534
   -2.76372600    -3.79224682     6.48532534
20MABNDM000020_PR014 0.00000000
   -2.84679127    -3.67463207     7.43230391
   -2.84678912    -3.67460918     7.43230343
20MABNDM000020_20MABNDL000196 0.00000000
   -2.78298306    -3.75931168    -2.71088576
   -2.78298092    -3.75931382    -2.71088576
20MABNDM000020_PR035 0.00000000
   -2.84718227    -3.68948984    -3.11707664
   -2.84715366    -3.68945980    -3.11707640
20MABNDM000168_PR025 0.00000000
    2.84099698    -3.78382468    -6.47897959
    2.84100270    -3.78383350    -6.47897959
20MABNDM000168_PR026 0.00000000
    2.83901787    -3.68754077    -6.67493916
    2.83902168    -3.68753052    -6.67493868
20MABNDM000168_20MABNDL000077 0.00000000
    2.81480002    -3.75347710     2.69822574
20MABNDM000168_PR001 0.00000000
    2.84035015    -3.68450212     3.12405896
20MABNDL000196_PR036 0.00000000
   -2.84815001    -3.69285035    -6.47909069
20MABNDL000196_PR037 0.00000000
   -2.84065580    -3.78847933    -6.67475605
20MABNDL000196_20MABNDM000020 0.00000000
   -2.81532907    -3.75146031     2.68347335
20MABNDL000196_PR012 0.00000000
   -2.79144239    -3.65969849     3.12369728
20MABNDA000134_PR004 0.00000000
    2.61468244    -4.19698954     3.83388829
20MABNDA000334_PR005 0.00000000
    2.61701941    -4.19703007     5.89779091
20MABNDB000317_PR015 0.00000000
   -2.61214256    -4.19699240     3.83300900
20MABNDB000146_PR016 0.00000000
   -2.61280489    -4.19702053     5.89908743
20MABNDB000135_PR027 0.00000000
    2.60408974    -4.19700480    -3.82636428
20MABNDB000126_PR028 0.00000000
    2.62879157    -4.19704485    -5.92246723
20MABNDA000272_PR038 0.00000000
   -2.61129236    -4.19698286    -3.82766771
20MABNDA000003_PR039 0.00000000
   -2.61621881    -4.19702339    -5.89139557
20MABNDA000196_PR006 0.00000000
    2.58994198    -4.19496870     6.54674959
20MABNDA000324_PR007 0.00000000
    2.60406446    -4.13996267     6.94308567
20MABNDB000001_PR017 0.00000000
   -2.59731030    -4.19499016     6.54790592
20MABNDB000260_PR019 0.00000000
   -2.64281130    -4.14002609     6.97355556
20MABNDB000212_PR029 0.00000000
    2.59847546    -4.19500685    -6.54722929
20MABNDB000128_PR030 0.00000000
    2.58655405    -4.14004183    -6.94621086
20MABNDA000444_PR040 0.00000000
   -2.60610080    -4.19510937    -6.53996325
20MABNDA000053_PR041 0.00000000
   -2.58519554    -4.14003944    -6.94807196
20MABNDA000188_PR008 0.00000000
    3.55893064     3.84859109     8.10764503
20MABNDA000188_PR018 0.00000000
    3.52114606    -4.07059431     7.89873886
20MABNDA000039_PR009 0.00000000
    3.87537217     3.64747334    12.93666553
20MABNDA000039_PR011 0.00000000
    3.66419983    -3.92580605    12.88426113
20MABNDB000155_PR020 0.00000000
   -3.68053651     3.84881854     7.89854050
20MABNDB000155_PR022 0.00000000
   -3.53425026    -4.07043839     7.89032221
20MABNDB000010_PR021 0.00000000
   -3.86193871     3.64768481    12.93532085
20MABNDB000010_PR023 0.00000000
   -3.68537378    -3.92561054    12.88449383
20MABNDB000069_PR031 0.00000000
    3.69177032     3.84800911    -7.77863359
20MABNDB000069_PR033 0.00000000
    3.53336692    -4.07046318    -7.87879753
20MABNDB000131_PR032 0.00000000
    3.86879611     3.64756918   -12.94087124
20MABNDB000131_PR034 0.00000000
    3.67331791    -3.92563868   -12.89151001
20MABNDA000208_PR042 0.00000000
   -3.66039658     3.84884048    -7.99969625
20MABNDA000208_PR046 0.00000000
   -3.53213573    -4.07034683    -7.87358046
20MABNDA000035_PR044 0.00000000
   -3.86861539     3.64758706   -12.93259430
20MABNDA000035_PR045 0.00000000
   -3.67602253    -3.92565250   -12.88726139


*****************************************************************Rapport********************************************************************************** 
CAM-LBA-US_EBA-US-HO-H         2023.09.17.07.48.44     2.79278016    -3.67055202     6.48585987     0.00000000     0.00000000     0.00000000 0.00000000 VRAI 
CAM-LBA-US_JDA-US-H            2023.09.17.07.48.44     2.77148151    -3.75156844     6.67492032     0.00138021     0.01792538     0.00009561 0.00000000 VRAI 
CAM-LBA-US_CAM-LBC-US          2023.09.17.07.48.44     2.77216125    -3.78919852    -2.68922043     0.00000381     0.00000179     0.00000000 0.00000000 VRAI 
CAM-LBA-US_EBC-US-IP-H         2023.09.17.07.48.44     2.82853901    -3.68944919    -3.11714649     0.00001109     0.00001729     0.00000000 0.00000000 VRAI 
CAM-LBA-USA_EBA-USA-HO-H       2023.09.17.07.48.44    -2.76372600    -3.79224682     6.48532534     0.00000000     0.00000000     0.00000000 0.00000000 VRAI 
CAM-LBA-USA_JDA-USA-H          2023.09.17.07.48.44    -2.84679019    -3.67462063     7.43230367     0.00000107     0.00001144     0.00000024 0.00000000 VRAI 
CAM-LBA-USA_CAM-LBC-USA        2023.09.17.07.48.44    -2.78298199    -3.75931275    -2.71088576     0.00000107     0.00000107     0.00000000 0.00000000 VRAI 
CAM-LBA-USA_EBC-USA-IP-H       2023.09.17.07.48.44    -2.84716797    -3.68947482    -3.11707652     0.00001431     0.00001502     0.00000012 0.00000000 VRAI 
CAM-LBC-US_EBC-US-HO-H         2023.09.17.07.48.44     2.84099984    -3.78382909    -6.47897959     0.00000286     0.00000441     0.00000000 0.00000000 VRAI 
CAM-LBC-US_JDC-US-H            2023.09.17.07.48.44     2.83901978    -3.68753564    -6.67493892     0.00000191     0.00000513     0.00000024 0.00000000 VRAI 
CAM-LBC-US_CAM-LBA-US          2023.09.17.07.48.44     2.81480002    -3.75347710     2.69822574     0.00000000     0.00000000     0.00000000 0.00000000 VRAI 
CAM-LBC-US_EBA-US-IP-H         2023.09.17.07.48.44     2.84035015    -3.68450212     3.12405896     0.00000000     0.00000000     0.00000000 0.00000000 VRAI 
CAM-LBC-USA_EBC-USA-HO-H       2023.09.17.07.48.44    -2.84815001    -3.69285035    -6.47909069     0.00000000     0.00000000     0.00000000 0.00000000 VRAI 
CAM-LBC-USA_JDC-USA-H          2023.09.17.07.48.44    -2.84065580    -3.78847933    -6.67475605     0.00000000     0.00000000     0.00000000 0.00000000 VRAI 
CAM-LBC-USA_CAM-LBA-USA        2023.09.17.07.48.44    -2.81532907    -3.75146031     2.68347335     0.00000000     0.00000000     0.00000000 0.00000000 VRAI 
CAM-LBC-USA_EBA-USA-IP-H       2023.09.17.07.48.44    -2.79144239    -3.65969849     3.12369728     0.00000000     0.00000000     0.00000000 0.00000000 VRAI 
CAM-EBA-US-IP_EBA-US-IP        2023.09.17.07.48.44     2.61468244    -4.19698954     3.83388829     0.00000000     0.00000000     0.00000000 0.00000000 VRAI 
CAM-EBA-US-HO_EBA-US-HO        2023.09.17.07.48.44     2.61701941    -4.19703007     5.89779091     0.00000000     0.00000000     0.00000000 0.00000000 VRAI 
CAM-EBA-USA-IP_EBA-USA-IP      2023.09.17.07.48.44    -2.61214256    -4.19699240     3.83300900     0.00000000     0.00000000     0.00000000 0.00000000 VRAI 
CAM-EBA-USA-HO_EBA-USA-HO      2023.09.17.07.48.44    -2.61280489    -4.19702053     5.89908743     0.00000000     0.00000000     0.00000000 0.00000000 VRAI 
CAM-EBC-US-IP_EBC-US-IP        2023.09.17.07.48.44     2.60408974    -4.19700480    -3.82636428     0.00000000     0.00000000     0.00000000 0.00000000 VRAI 
CAM-EBC-US-HO_EBC-US-HO        2023.09.17.07.48.44     2.62879157    -4.19704485    -5.92246723     0.00000000     0.00000000     0.00000000 0.00000000 VRAI 
CAM-EBC-USA-IP_EBC-USA-IP      2023.09.17.07.48.44    -2.61129236    -4.19698286    -3.82766771     0.00000000     0.00000000     0.00000000 0.00000000 VRAI 
CAM-EBC-USA-HO_EBC-USA-HO      2023.09.17.07.48.44    -2.61621881    -4.19702339    -5.89139557     0.00000000     0.00000000     0.00000000 0.00000000 VRAI 
CAM-JDA-US-IP_JDA-US-IP        2023.09.17.07.48.44     2.58994198    -4.19496870     6.54674959     0.00000000     0.00000000     0.00000000 0.00000000 VRAI 
CAM-JDA-US-HO_JDA-US-HO        2023.09.17.07.48.44     2.60406446    -4.13996267     6.94308567     0.00000000     0.00000000     0.00000000 0.00000000 VRAI 
CAM-JDA-USA-IP_JDA-USA-IP      2023.09.17.07.48.44    -2.59731030    -4.19499016     6.54790592     0.00000000     0.00000000     0.00000000 0.00000000 VRAI 
CAM-JDA-USA-HO_JDA-USA-HO      2023.09.17.07.48.44    -2.64281130    -4.14002609     6.97355556     0.00000000     0.00000000     0.00000000 0.00000000 VRAI 
CAM-JDC-US-IP_JDC-US-IP        2023.09.17.07.48.44     2.59847546    -4.19500685    -6.54722929     0.00000000     0.00000000     0.00000000 0.00000000 VRAI 
CAM-JDC-US-HO_JDC-US-HO        2023.09.17.07.48.44     2.58655405    -4.14004183    -6.94621086     0.00000000     0.00000000     0.00000000 0.00000000 VRAI 
CAM-JDC-USA-IP_JDC-USA-IP      2023.09.17.07.48.44    -2.60610080    -4.19510937    -6.53996325     0.00000000     0.00000000     0.00000000 0.00000000 VRAI 
CAM-JDC-USA-HO_JDC-USA-HO      2023.09.17.07.48.44    -2.58519554    -4.14003944    -6.94807196     0.00000000     0.00000000     0.00000000 0.00000000 VRAI 
CAM-ECTA-US-IP_ECTA-US-IP-T    2023.09.17.07.48.44     3.55893064     3.84859109     8.10764503     0.00000000     0.00000000     0.00000000 0.00000000 VRAI 
CAM-ECTA-US-IP_ECTA-US-IP      2023.09.17.07.48.44     3.52114606    -4.07059431     7.89873886     0.00000000     0.00000000     0.00000000 0.00000000 VRAI 
CAM-ECTA-US-HO_ECTA-US-HO-T    2023.09.17.07.48.44     3.87537217     3.64747334    12.93666553     0.00000000     0.00000000     0.00000000 0.00000000 VRAI 
CAM-ECTA-US-HO_ECTA-US-HO      2023.09.17.07.48.44     3.66419983    -3.92580605    12.88426113     0.00000000     0.00000000     0.00000000 0.00000000 VRAI 
CAM-ECTA-USA-IP_ECTA-USA-IP-T  2023.09.17.07.48.44    -3.68053651     3.84881854     7.89854050     0.00000000     0.00000000     0.00000000 0.00000000 VRAI 
CAM-ECTA-USA-IP_ECTA-USA-IP    2023.09.17.07.48.44    -3.53425026    -4.07043839     7.89032221     0.00000000     0.00000000     0.00000000 0.00000000 VRAI 
CAM-ECTA-USA-HO_ECTA-USA-HO-T  2023.09.17.07.48.44    -3.86193871     3.64768481    12.93532085     0.00000000     0.00000000     0.00000000 0.00000000 VRAI 
CAM-ECTA-USA-HO_ECTA-USA-HO    2023.09.17.07.48.44    -3.68537378    -3.92561054    12.88449383     0.00000000     0.00000000     0.00000000 0.00000000 VRAI 
CAM-ECTC-US-IP_ECTC-US-IP-T    2023.09.17.07.48.44     3.69177032     3.84800911    -7.77863359     0.00000000     0.00000000     0.00000000 0.00000000 VRAI 
CAM-ECTC-US-IP_ECTC-US-IP      2023.09.17.07.48.44     3.53336692    -4.07046318    -7.87879753     0.00000000     0.00000000     0.00000000 0.00000000 VRAI 
CAM-ECTC-US-HO_ECTC-US-HO-T    2023.09.17.07.48.44     3.86879611     3.64756918   -12.94087124     0.00000000     0.00000000     0.00000000 0.00000000 VRAI 
CAM-ECTC-US-HO_ECTC-US-HO      2023.09.17.07.48.44     3.67331791    -3.92563868   -12.89151001     0.00000000     0.00000000     0.00000000 0.00000000 VRAI 
CAM-ECTC-USA-IP_ECTC-USA-IP-T  2023.09.17.07.48.44    -3.66039658     3.84884048    -7.99969625     0.00000000     0.00000000     0.00000000 0.00000000 VRAI 
CAM-ECTC-USA-IP_ECTC-USA-IP    2023.09.17.07.48.44    -3.53213573    -4.07034683    -7.87358046     0.00000000     0.00000000     0.00000000 0.00000000 VRAI 
CAM-ECTC-USA-HO_ECTC-USA-HO-T  2023.09.17.07.48.44    -3.86861539     3.64758706   -12.93259430     0.00000000     0.00000000     0.00000000 0.00000000 VRAI 
CAM-ECTC-USA-HO_ECTC-USA-HO    2023.09.17.07.48.44    -3.67602253    -3.92565250   -12.88726139     0.00000000     0.00000000     0.00000000 0.00000000 VRAI 
