********** Fichier qui contient une sauvegarde des coordonnees images + coordonnees images transformees dans le repere BCAM (MOUNT) + coordonnees des prismes dans le repere MOUNT********** 
********************************************************************** Unite en metres (m)************************************************************************************************** 

*******************************************************************coordonnees images dans le repere CCD *********************************************************************************** 
20MABNDL000077_PR002
Spot 1     0.00025500     0.00081500
Spot 2     0.00100167     0.00147278
Spot 1     0.00031500     0.00109500
Spot 2     0.00100000     0.00147313
20MABNDL000077_PR003
Spot 1     0.00235500     0.00028500
Spot 2     0.00235500     0.00028500
Spot 1     0.00235500     0.00028500
Spot 2     0.00235500     0.00028500
20MABNDL000077_20MABNDM000168
Spot 1     0.00175427     0.00118251
Spot 2     0.00156708     0.00122311
Spot 1     0.00175434     0.00118234
Spot 2     0.00075500     0.00010500
20MABNDL000077_PR024
Spot 1     0.00251316     0.00141981
Spot 2     0.00261288     0.00143032
Spot 1     0.00251300     0.00141999
Spot 2     0.00261289     0.00143062
20MABNDM000020_PR013
Spot 1     0.00044500     0.00008500
Spot 2     0.00044500     0.00008500
Spot 1     0.00044500     0.00008500
Spot 2     0.00044500     0.00008500
20MABNDM000020_PR014
Spot 1     0.00266027     0.00168456
Spot 2     0.00249728     0.00168772
Spot 1     0.00266036     0.00168454
Spot 2     0.00249725     0.00168761
20MABNDM000020_20MABNDL000196
Spot 1     0.00197903     0.00118038
Spot 2     0.00268500     0.00028500
Spot 1     0.00197884     0.00117975
Spot 2     0.00230500     0.00010500
20MABNDM000020_PR035
Spot 1     0.00126384     0.00148936
Spot 2     0.00118959     0.00152684
20MABNDM000168_PR025
Spot 1     0.00076478     0.00147397
Spot 2     0.00060667     0.00147928
20MABNDM000168_PR026
Spot 1     0.00266950     0.00142432
Spot 2     0.00250741     0.00142068
20MABNDM000168_20MABNDL000077
Spot 1     0.00154322     0.00129820
Spot 2     0.00176079     0.00130593
20MABNDM000168_PR001
Spot 1     0.00081053     0.00161811
Spot 2     0.00070669     0.00162012
20MABNDL000196_PR036
Spot 1     0.00094410     0.00164742
Spot 2     0.00110967     0.00164668
20MABNDL000196_PR037
Spot 1     0.00283165     0.00146701
Spot 2     0.00299133     0.00146957
20MABNDL000196_20MABNDM000020
Spot 1     0.00192341     0.00104005
Spot 2     0.00170177     0.00104633
20MABNDL000196_PR012
Spot 1     0.00327500     0.00013500
Spot 2     0.00272081     0.00138538
20MABNDA000134_PR004
Spot 1     0.00191155     0.00176064
Spot 2     0.00169124     0.00175317
20MABNDA000334_PR005
Spot 1     0.00248456     0.00157848
Spot 2     0.00220403     0.00157870
20MABNDB000317_PR015
Spot 1     0.00145906     0.00168192
Spot 2     0.00168024     0.00167854
20MABNDB000146_PR016
Spot 1     0.00144500     0.00131489
Spot 2     0.00172125     0.00131741
20MABNDB000135_PR027
Spot 1     0.00188157     0.00089089
Spot 2     0.00210097     0.00089395
20MABNDB000126_PR028
Spot 1     0.00193134     0.00198202
Spot 2     0.00164833     0.00198167
20MABNDA000272_PR038
Spot 1     0.00192633     0.00095139
Spot 2     0.00170276     0.00095051
20MABNDA000003_PR039
Spot 1     0.00201576     0.00193169
Spot 2     0.00229466     0.00193212
20MABNDA000196_PR006
Spot 1     0.00138536     0.00067074
Spot 2     0.00175164     0.00067286
20MABNDA000324_PR007
Spot 1     0.00199760     0.00134144
Spot 2     0.00220463     0.00133613
20MABNDB000001_PR017
Spot 1     0.00185958     0.00088460
Spot 2     0.00222943     0.00088840
20MABNDB000260_PR019
Spot 1     0.00206586     0.00145810
Spot 2     0.00227500     0.00146000
20MABNDB000212_PR029
Spot 1     0.00220891     0.00069109
Spot 2     0.00184550     0.00068900
20MABNDB000128_PR030
Spot 1     0.00268486     0.00161646
Spot 2     0.00248656     0.00161876
20MABNDA000444_PR040
Spot 1     0.00179261     0.00069381
Spot 2     0.00224500     0.00218500
20MABNDA000053_PR041
Spot 1     0.00123676     0.00144399
Spot 2     0.00144286     0.00144421
20MABNDA000188_PR008
Spot 1     0.00289500     0.00025500
Spot 2     0.00297500     0.00011500
20MABNDA000188_PR018
Spot 1     0.00170966     0.00167215
Spot 2     0.00124128     0.00166984
20MABNDA000039_PR009
Spot 1     0.00066660     0.00118006
Spot 2     0.00061270     0.00118475
20MABNDA000039_PR011
Spot 1     0.00277109     0.00028121
Spot 2     0.00259373     0.00027574
20MABNDB000155_PR020
Spot 1     0.00061713     0.00112320
Spot 2     0.00068821     0.00111889
20MABNDB000155_PR022
Spot 1     0.00211679     0.00141150
Spot 2     0.00259045     0.00140692
20MABNDB000010_PR021
Spot 1     0.00286658     0.00115235
Spot 2     0.00292591     0.00115524
20MABNDB000010_PR023
Spot 1     0.00131221     0.00030069
Spot 2     0.00148888     0.00029844
20MABNDB000069_PR031
Spot 1     0.00021500     0.00240500
Spot 2     0.00021500     0.00240500
20MABNDB000069_PR033
Spot 1     0.00183006     0.00206571
Spot 2     0.00230154     0.00208663
20MABNDB000131_PR032
Spot 1     0.00277738     0.00108192
Spot 2     0.00283787     0.00108446
20MABNDB000131_PR034
Spot 1     0.00092054     0.00032444
Spot 2     0.00109702     0.00032336
20MABNDA000208_PR042
Spot 1     0.00284500     0.00011500
Spot 2     0.00284500     0.00011500
20MABNDA000208_PR046
Spot 1     0.00144085     0.00222074
Spot 2     0.00096984     0.00222293
20MABNDA000035_PR044
Spot 1     0.00074467     0.00125926
Spot 2     0.00068190     0.00125318
20MABNDA000035_PR045
Spot 1     0.00254830     0.00046647
Spot 2     0.00236980     0.00046493


****************************************************************coordonnees images transformees dans le repere MOUNT************************************************************************* 
20MABNDL000077_PR002
Spot 1     0.01131876     0.03489570    -0.07463200
Spot 2     0.01207172     0.03554626    -0.07463200
Spot 1     0.01138145     0.03517510    -0.07463200
Spot 2     0.01207006     0.03554663    -0.07463200
20MABNDL000077_PR003
Spot 1     0.01341356     0.03434551    -0.07463200
Spot 2     0.01341356     0.03434551    -0.07463200
Spot 1     0.01341356     0.03434551    -0.07463200
Spot 2     0.01341356     0.03434551    -0.07463200
20MABNDL000077_20MABNDM000168
Spot 1    -0.01258940     0.03524552    -0.00695400
Spot 2    -0.01240263     0.03528804    -0.00695400
Spot 1    -0.01258946     0.03524535    -0.00695400
Spot 2    -0.01157915     0.03417830    -0.00695400
20MABNDL000077_PR024
Spot 1    -0.01335068     0.03547504    -0.00695400
Spot 2    -0.01345050     0.03548453    -0.00695400
Spot 1    -0.01335052     0.03547523    -0.00695400
Spot 2    -0.01345051     0.03548483    -0.00695400
20MABNDM000020_PR013
Spot 1    -0.01394554    -0.03407018    -0.00523500
Spot 2    -0.01394554    -0.03407018    -0.00523500
Spot 1    -0.01394554    -0.03407018    -0.00523500
Spot 2    -0.01394554    -0.03407018    -0.00523500
20MABNDM000020_PR014
Spot 1    -0.01169544    -0.03562036    -0.00523500
Spot 2    -0.01185832    -0.03562712    -0.00523500
Spot 1    -0.01169535    -0.03562034    -0.00523500
Spot 2    -0.01185835    -0.03562701    -0.00523500
20MABNDM000020_20MABNDL000196
Spot 1     0.01270725    -0.03514894    -0.07583800
Spot 2     0.01200115    -0.03425366    -0.07583800
Spot 1     0.01270744    -0.03514831    -0.07583800
Spot 2     0.01238113    -0.03407361    -0.07583800
20MABNDM000020_PR035
Spot 1     0.01342248    -0.03545782    -0.07583800
Spot 2     0.01349674    -0.03549529    -0.07583800
20MABNDM000168_PR025
Spot 1    -0.01363735    -0.03581292    -0.00532900
Spot 2    -0.01379543    -0.03581891    -0.00532900
20MABNDM000168_PR026
Spot 1    -0.01173286    -0.03575509    -0.00532900
Spot 2    -0.01189496    -0.03575215    -0.00532900
20MABNDM000168_20MABNDL000077
Spot 1     0.01288227    -0.03529881    -0.07445100
Spot 2     0.01266461    -0.03530335    -0.07445100
20MABNDM000168_PR001
Spot 1     0.01361020    -0.03562940    -0.07445100
Spot 2     0.01371400    -0.03563293    -0.07445100
20MABNDL000196_PR036
Spot 1     0.01192401     0.03583611    -0.07483600
Spot 2     0.01208958     0.03583572    -0.07483600
20MABNDL000196_PR037
Spot 1     0.01381193     0.03565964    -0.07483600
Spot 2     0.01397161     0.03566253    -0.07483600
20MABNDL000196_20MABNDM000020
Spot 1    -0.01274743     0.03531130    -0.00611000
Spot 2    -0.01252596     0.03532204    -0.00611000
20MABNDL000196_PR012
Spot 1    -0.01408054     0.03437924    -0.00611000
Spot 2    -0.01355162     0.03564052    -0.00611000
20MABNDA000134_PR004
Spot 1    -0.01288227     0.01241231    -0.07608400
Spot 2    -0.01266184     0.01241366    -0.07608400
20MABNDA000334_PR005
Spot 1    -0.01312766     0.01254993    -0.07324100
Spot 2    -0.01284713     0.01254944    -0.07324100
20MABNDB000317_PR015
Spot 1    -0.01269618    -0.01241647    -0.07326100
Spot 2    -0.01247498    -0.01241727    -0.07326100
20MABNDB000146_PR016
Spot 1    -0.01276332    -0.01247872    -0.07450500
Spot 2    -0.01248708    -0.01247559    -0.07450500
20MABNDB000135_PR027
Spot 1    -0.01252338    -0.01322202    -0.07464700
Spot 2    -0.01230396    -0.01322141    -0.07464700
20MABNDB000126_PR028
Spot 1    -0.01224805    -0.01219862    -0.07500400
Spot 2    -0.01253106    -0.01220048    -0.07500400
20MABNDA000272_PR038
Spot 1    -0.01276198     0.01316008    -0.07417900
Spot 2    -0.01253841     0.01316057    -0.07417900
20MABNDA000003_PR039
Spot 1    -0.01281686     0.01212061    -0.07373400
Spot 2    -0.01309576     0.01212089    -0.07373400
20MABNDA000196_PR006
Spot 1    -0.01233936     0.01329976    -0.07967100
Spot 2    -0.01270564     0.01330235    -0.07967100
20MABNDA000324_PR007
Spot 1    -0.01260230     0.01267975    -0.07446800
Spot 2    -0.01280937     0.01268344    -0.07446800
20MABNDB000001_PR017
Spot 1    -0.01232406    -0.01310466    -0.07418400
Spot 2    -0.01195419    -0.01310477    -0.07418400
20MABNDB000260_PR019
Spot 1    -0.01226460    -0.01244150    -0.07492700
Spot 2    -0.01205554    -0.01243531    -0.07492700
20MABNDB000212_PR029
Spot 1    -0.01187904    -0.01328991    -0.07390500
Spot 2    -0.01224245    -0.01328812    -0.07390500
20MABNDB000128_PR030
Spot 1    -0.01166894    -0.01259814    -0.07353400
Spot 2    -0.01186724    -0.01259653    -0.07353400
20MABNDA000444_PR040
Spot 1    -0.01272804     0.01332274    -0.07412000
Spot 2    -0.01316147     0.01182593    -0.07412000
20MABNDA000053_PR041
Spot 1    -0.01198283     0.01265824    -0.07430100
Spot 2    -0.01218889     0.01266204    -0.07430100
20MABNDA000188_PR008
Spot 1    -0.01391227     0.01380893    -0.07502000
Spot 2    -0.01399107     0.01394961    -0.07502000
20MABNDA000188_PR018
Spot 1    -0.01273911     0.01238168    -0.07502000
Spot 2    -0.01227073     0.01237998    -0.07502000
20MABNDA000039_PR009
Spot 1    -0.01162875     0.01306409    -0.07444800
Spot 2    -0.01157487     0.01305916    -0.07444800
20MABNDA000039_PR011
Spot 1    -0.01372933     0.01397203    -0.07444800
Spot 2    -0.01355195     0.01397674    -0.07444800
20MABNDB000155_PR020
Spot 1    -0.01364894    -0.01313421    -0.07501700
Spot 2    -0.01357781    -0.01313754    -0.07501700
20MABNDB000155_PR022
Spot 1    -0.01215337    -0.01282540    -0.07501700
Spot 2    -0.01167969    -0.01282350    -0.07501700
20MABNDB000010_PR021
Spot 1    -0.01158441    -0.01292620    -0.07358200
Spot 2    -0.01152514    -0.01292230    -0.07358200
20MABNDB000010_PR023
Spot 1    -0.01312413    -0.01380407    -0.07358200
Spot 2    -0.01294745    -0.01380332    -0.07358200
20MABNDB000069_PR031
Spot 1    -0.01361993    -0.01186066    -0.07388500
Spot 2    -0.01361993    -0.01186066    -0.07388500
20MABNDB000069_PR033
Spot 1    -0.01202024    -0.01226631    -0.07388500
Spot 2    -0.01154830    -0.01226487    -0.07388500
20MABNDB000131_PR032
Spot 1    -0.01144279    -0.01303283    -0.07533000
Spot 2    -0.01138231    -0.01302999    -0.07533000
20MABNDB000131_PR034
Spot 1    -0.01329579    -0.01379965    -0.07533000
Spot 2    -0.01311931    -0.01379984    -0.07533000
20MABNDA000208_PR042
Spot 1    -0.01371645     0.01388121    -0.07273700
Spot 2    -0.01371645     0.01388121    -0.07273700
20MABNDA000208_PR046
Spot 1    -0.01231046     0.01177670    -0.07273700
Spot 2    -0.01183945     0.01177492    -0.07273700
20MABNDA000035_PR044
Spot 1    -0.01157933     0.01299803    -0.07483200
Spot 2    -0.01151652     0.01300367    -0.07483200
20MABNDA000035_PR045
Spot 1    -0.01337728     0.01380363    -0.07483200
Spot 2    -0.01319877     0.01380390    -0.07483200


*****************************************************************coordonnees du prisme dans le repere MOUNT********************************************************************************** 
20MABNDL000077_PR002
    0.06193623     0.03875184     3.70679307
    0.06042913     0.03184129     3.70681143
20MABNDL000077_PR003
   -0.02476418     0.08434060     3.89557457
   -0.02476418     0.08434060     3.89557457
20MABNDL000077_20MABNDM000168
   -0.02634297     0.03577587    -5.46873856
   -0.05607920     0.07585949    -5.46843433
20MABNDL000077_PR024
    0.04309984     0.01914676    -5.89643002
    0.04309418     0.01912799    -5.89643002
20MABNDM000020_PR013
    0.05274186    -0.08860095    -3.80153990
    0.05274186    -0.08860095    -3.80153990
20MABNDM000020_PR014
   -0.06558708    -0.00531620    -4.74841213
   -0.06558886    -0.00532029    -4.74841213
20MABNDM000020_20MABNDL000196
    0.04053831    -0.06471081     5.39468241
    0.02691794    -0.07118431     5.39469719
20MABNDM000020_PR035
   -0.04254222    -0.00714369     5.80095530
20MABNDM000168_PR025
    0.03840262    -0.01221778    -3.78836894
20MABNDM000168_PR026
   -0.05793834    -0.01420186    -3.98429084
20MABNDM000168_20MABNDL000077
    0.01172231    -0.03878942     5.38884687
20MABNDM000168_PR001
   -0.05725446    -0.01341428     5.81470680
20MABNDL000196_PR036
    0.05143657     0.00556267     3.68776774
20MABNDL000196_PR037
   -0.04397579     0.01298910     3.88352251
20MABNDL000196_20MABNDM000020
   -0.01588974     0.03795537    -5.47473860
20MABNDL000196_PR012
    0.07551483     0.06195400    -5.91505003
20MABNDA000134_PR004
   -0.00821380     0.03809844     2.74966145
20MABNDA000334_PR005
   -0.00394764     0.03147236     2.14977264
20MABNDB000317_PR015
   -0.01632103    -0.03701998     2.75126719
20MABNDB000146_PR016
   -0.01345918    -0.03128967     2.15201712
20MABNDB000135_PR027
   -0.02066960    -0.00895904     2.74937105
20MABNDB000126_PR028
   -0.02045569    -0.03816128     2.14680433
20MABNDA000272_PR038
   -0.01314885     0.01080672     2.74965858
20MABNDA000003_PR039
   -0.00549477     0.04139037     2.14891195
20MABNDA000196_PR006
   -0.01554205     0.00876874     1.64206004
20MABNDA000324_PR007
   -0.01521533     0.03280307     2.95548868
20MABNDB000001_PR017
   -0.02365998    -0.01253258     1.64039469
20MABNDB000260_PR019
   -0.03015296    -0.03675318     2.95625949
20MABNDB000212_PR029
   -0.02482460    -0.00823105     1.64224160
20MABNDB000128_PR030
   -0.04225922    -0.03190903     2.95495367
20MABNDA000444_PR040
   -0.00666510     0.02501635     1.64499390
20MABNDA000053_PR041
   -0.03527763     0.02982502     2.95464706
20MABNDA000188_PR008
    0.14133559    -0.08748379     9.20322323
20MABNDA000188_PR018
   -0.01598221     0.02472170     1.28359365
20MABNDA000039_PR009
   -0.17124948     0.02563838    11.00701427
20MABNDA000039_PR011
    0.03087459    -0.02459281     3.43346906
20MABNDB000155_PR020
    0.10207788    -0.00810600     9.20028305
20MABNDB000155_PR022
   -0.02567847    -0.01774848     1.28070676
20MABNDB000010_PR021
   -0.17617682    -0.03363151    11.00694656
20MABNDB000010_PR023
    0.00426465     0.02083822     3.43376589
20MABNDB000069_PR031
    0.10999375    -0.16176865     9.20229721
20MABNDB000069_PR033
   -0.02693409    -0.02689313     1.28393984
20MABNDB000131_PR032
   -0.18804285    -0.03034453    11.00641918
20MABNDB000131_PR034
    0.01448298     0.01650250     3.43337750
20MABNDA000208_PR042
    0.11037338    -0.08822197     9.20121384
20MABNDA000208_PR046
   -0.02359946     0.03494997     1.28207517
20MABNDA000035_PR044
   -0.17945907     0.02702416    11.00802994
20MABNDA000035_PR045
    0.01470245    -0.01919871     3.43483400


*****************************************************************coordonnees du prisme dans le repere ATLAS********************************************************************************** 
20MABNDL000077_PR002 0.00000000
    2.81829286    -3.68257499     6.48610544
    2.82520294    -3.68408442     6.48611546
20MABNDL000077_PR003 0.00000000
    2.77286172    -3.76949382     6.67482471
    2.77286172    -3.76949382     6.67482471
20MABNDL000077_20MABNDM000168 0.00000000
    2.81224060    -3.75953460    -2.68952632
    2.77214789    -3.78925824    -2.68921947
20MABNDL000077_PR024 0.00000000
    2.82847238    -3.68956923    -3.11714792
    2.82849121    -3.68957496    -3.11714792
20MABNDM000020_PR013 0.00000000
   -2.76372600    -3.79224682     6.48532534
   -2.76372600    -3.79224682     6.48532534
20MABNDM000020_PR014 0.00000000
   -2.84678483    -3.67461252     7.43230391
   -2.84678078    -3.67461061     7.43230391
20MABNDM000020_20MABNDL000196 0.00000000
   -2.78945255    -3.77304173    -2.71088004
   -2.78297496    -3.75942349    -2.71088576
20MABNDM000020_PR035 0.00000000
   -2.84707570    -3.68963480    -3.11707807
20MABNDM000168_PR025 0.00000000
    2.84101367    -3.78373408    -6.47898102
20MABNDM000168_PR026 0.00000000
    2.83904314    -3.68746543    -6.67493820
20MABNDM000168_20MABNDL000077 0.00000000
    2.81500602    -3.75363445     2.69822621
20MABNDM000168_PR001 0.00000000
    2.84042525    -3.68450594     3.12405896
20MABNDL000196_PR036 0.00000000
   -2.84804487    -3.69283819    -6.47909117
20MABNDL000196_PR037 0.00000000
   -2.84057832    -3.78842902    -6.67475748
20MABNDL000196_20MABNDM000020 0.00000000
   -2.81542277    -3.75162625     2.68347311
20MABNDL000196_PR012 0.00000000
   -2.79145718    -3.65980101     3.12369871
20MABNDA000134_PR004 0.00000000
    2.61478949    -4.19699001     3.83390021
20MABNDA000334_PR005 0.00000000
    2.61705089    -4.19703007     5.89778852
20MABNDB000317_PR015 0.00000000
   -2.61228633    -4.19699192     3.83299541
20MABNDB000146_PR016 0.00000000
   -2.61283612    -4.19702053     5.89906073
20MABNDB000135_PR027 0.00000000
    2.60419393    -4.19700432    -3.82640171
20MABNDB000126_PR028 0.00000000
    2.60546112    -4.19701529    -5.89405870
20MABNDA000272_PR038 0.00000000
   -2.61138797    -4.19698286    -3.82767749
20MABNDA000003_PR039 0.00000000
   -2.61623645    -4.19702387    -5.89137650
20MABNDA000196_PR006 0.00000000
    2.59000278    -4.19496918     6.54672575
20MABNDA000324_PR007 0.00000000
    2.60409999    -4.13996267     6.94311333
20MABNDB000001_PR017 0.00000000
   -2.59736466    -4.19499063     6.54786062
20MABNDB000260_PR019 0.00000000
   -2.59860945    -4.13996935     6.94389296
20MABNDB000212_PR029 0.00000000
    2.59850240    -4.19500732    -6.54721880
20MABNDB000128_PR030 0.00000000
    2.58660245    -4.14004183    -6.94621658
20MABNDA000444_PR040 0.00000000
   -2.58184028    -4.19501877    -6.56419897
20MABNDA000053_PR041 0.00000000
   -2.58526206    -4.14003897    -6.94808769
20MABNDA000188_PR008 0.00000000
    3.55422425     3.84879279     8.09894276
20MABNDA000188_PR018 0.00000000
    3.52113795    -4.07059431     7.89873028
20MABNDA000039_PR009 0.00000000
    3.87542152     3.64747238    12.93693256
20MABNDA000039_PR011 0.00000000
    3.66414952    -3.92580652    12.88424397
20MABNDB000155_PR020 0.00000000
   -3.68073058     3.84881639     7.89876127
20MABNDB000155_PR022 0.00000000
   -3.53430200    -4.07043791     7.89031076
20MABNDB000010_PR021 0.00000000
   -3.86201406     3.64768386    12.93546104
20MABNDB000010_PR023 0.00000000
   -3.68540215    -3.92561102    12.88443756
20MABNDB000069_PR031 0.00000000
    3.69177032     3.84800911    -7.77863359
20MABNDB000069_PR033 0.00000000
    3.53336525    -4.07046318    -7.87877798
20MABNDB000131_PR032 0.00000000
    3.86884522     3.64756918   -12.94098759
20MABNDB000131_PR034 0.00000000
    3.67330647    -3.92563915   -12.89144516
20MABNDA000208_PR042 0.00000000
   -3.66039658     3.84884048    -7.99969625
20MABNDA000208_PR046 0.00000000
   -3.53216624    -4.07034683    -7.87356806
20MABNDA000035_PR044 0.00000000
   -3.86870003     3.64758515   -12.93270302
20MABNDA000035_PR045 0.00000000
   -3.67602587    -3.92565322   -12.88718605


*****************************************************************Rapport********************************************************************************** 
CAM-LBA-US_EBA-US-HO-H         2023.08.22.12.55.13     2.82174790    -3.68332970     6.48611045     0.00345504     0.00075471     0.00000501 0.00000000 VRAI 
CAM-LBA-US_JDA-US-H            2023.08.22.12.55.13     2.77286172    -3.76949382     6.67482471     0.00000000     0.00000000     0.00000000 0.00000000 VRAI 
CAM-LBA-US_CAM-LBC-US          2023.08.22.12.55.13     2.79219425    -3.77439642    -2.68937290     0.02004635     0.01486182     0.00015342 0.00000000 VRAI 
CAM-LBA-US_EBC-US-IP-H         2023.08.22.12.55.13     2.82848179    -3.68957210    -3.11714792     0.00000942     0.00000286     0.00000000 0.00000000 VRAI 
CAM-LBA-USA_EBA-USA-HO-H       2023.08.22.12.55.13    -2.76372600    -3.79224682     6.48532534     0.00000000     0.00000000     0.00000000 0.00000000 VRAI 
CAM-LBA-USA_JDA-USA-H          2023.08.22.12.55.13    -2.84678280    -3.67461157     7.43230391     0.00000203     0.00000095     0.00000000 0.00000000 VRAI 
CAM-LBA-USA_CAM-LBC-USA        2023.08.22.12.55.13    -2.78621376    -3.76623261    -2.71088290     0.00323880     0.00680912     0.00000286 0.00000000 VRAI 
CAM-LBA-USA_EBC-USA-IP-H       2023.08.22.12.55.13    -2.84707570    -3.68963480    -3.11707807     0.00000000     0.00000000     0.00000000 0.00000000 VRAI 
CAM-LBC-US_EBC-US-HO-H         2023.08.22.12.55.13     2.84101367    -3.78373408    -6.47898102     0.00000000     0.00000000     0.00000000 0.00000000 VRAI 
CAM-LBC-US_JDC-US-H            2023.08.22.12.55.13     2.83904314    -3.68746543    -6.67493820     0.00000000     0.00000000     0.00000000 0.00000000 VRAI 
CAM-LBC-US_CAM-LBA-US          2023.08.22.12.55.13     2.81500602    -3.75363445     2.69822621     0.00000000     0.00000000     0.00000000 0.00000000 VRAI 
CAM-LBC-US_EBA-US-IP-H         2023.08.22.12.55.13     2.84042525    -3.68450594     3.12405896     0.00000000     0.00000000     0.00000000 0.00000000 VRAI 
CAM-LBC-USA_EBC-USA-HO-H       2023.08.22.12.55.13    -2.84804487    -3.69283819    -6.47909117     0.00000000     0.00000000     0.00000000 0.00000000 VRAI 
CAM-LBC-USA_JDC-USA-H          2023.08.22.12.55.13    -2.84057832    -3.78842902    -6.67475748     0.00000000     0.00000000     0.00000000 0.00000000 VRAI 
CAM-LBC-USA_CAM-LBA-USA        2023.08.22.12.55.13    -2.81542277    -3.75162625     2.68347311     0.00000000     0.00000000     0.00000000 0.00000000 VRAI 
CAM-LBC-USA_EBA-USA-IP-H       2023.08.22.12.55.13    -2.79145718    -3.65980101     3.12369871     0.00000000     0.00000000     0.00000000 0.00000000 VRAI 
CAM-EBA-US-IP_EBA-US-IP        2023.08.22.12.55.13     2.61478949    -4.19699001     3.83390021     0.00000000     0.00000000     0.00000000 0.00000000 VRAI 
CAM-EBA-US-HO_EBA-US-HO        2023.08.22.12.55.13     2.61705089    -4.19703007     5.89778852     0.00000000     0.00000000     0.00000000 0.00000000 VRAI 
CAM-EBA-USA-IP_EBA-USA-IP      2023.08.22.12.55.13    -2.61228633    -4.19699192     3.83299541     0.00000000     0.00000000     0.00000000 0.00000000 VRAI 
CAM-EBA-USA-HO_EBA-USA-HO      2023.08.22.12.55.13    -2.61283612    -4.19702053     5.89906073     0.00000000     0.00000000     0.00000000 0.00000000 VRAI 
CAM-EBC-US-IP_EBC-US-IP        2023.08.22.12.55.13     2.60419393    -4.19700432    -3.82640171     0.00000000     0.00000000     0.00000000 0.00000000 VRAI 
CAM-EBC-US-HO_EBC-US-HO        2023.08.22.12.55.13     2.60546112    -4.19701529    -5.89405870     0.00000000     0.00000000     0.00000000 0.00000000 VRAI 
CAM-EBC-USA-IP_EBC-USA-IP      2023.08.22.12.55.13    -2.61138797    -4.19698286    -3.82767749     0.00000000     0.00000000     0.00000000 0.00000000 VRAI 
CAM-EBC-USA-HO_EBC-USA-HO      2023.08.22.12.55.13    -2.61623645    -4.19702387    -5.89137650     0.00000000     0.00000000     0.00000000 0.00000000 VRAI 
CAM-JDA-US-IP_JDA-US-IP        2023.08.22.12.55.13     2.59000278    -4.19496918     6.54672575     0.00000000     0.00000000     0.00000000 0.00000000 VRAI 
CAM-JDA-US-HO_JDA-US-HO        2023.08.22.12.55.13     2.60409999    -4.13996267     6.94311333     0.00000000     0.00000000     0.00000000 0.00000000 VRAI 
CAM-JDA-USA-IP_JDA-USA-IP      2023.08.22.12.55.13    -2.59736466    -4.19499063     6.54786062     0.00000000     0.00000000     0.00000000 0.00000000 VRAI 
CAM-JDA-USA-HO_JDA-USA-HO      2023.08.22.12.55.13    -2.59860945    -4.13996935     6.94389296     0.00000000     0.00000000     0.00000000 0.00000000 VRAI 
CAM-JDC-US-IP_JDC-US-IP        2023.08.22.12.55.13     2.59850240    -4.19500732    -6.54721880     0.00000000     0.00000000     0.00000000 0.00000000 VRAI 
CAM-JDC-US-HO_JDC-US-HO        2023.08.22.12.55.13     2.58660245    -4.14004183    -6.94621658     0.00000000     0.00000000     0.00000000 0.00000000 VRAI 
CAM-JDC-USA-IP_JDC-USA-IP      2023.08.22.12.55.13    -2.58184028    -4.19501877    -6.56419897     0.00000000     0.00000000     0.00000000 0.00000000 VRAI 
CAM-JDC-USA-HO_JDC-USA-HO      2023.08.22.12.55.13    -2.58526206    -4.14003897    -6.94808769     0.00000000     0.00000000     0.00000000 0.00000000 VRAI 
CAM-ECTA-US-IP_ECTA-US-IP-T    2023.08.22.12.55.13     3.55422425     3.84879279     8.09894276     0.00000000     0.00000000     0.00000000 0.00000000 VRAI 
CAM-ECTA-US-IP_ECTA-US-IP      2023.08.22.12.55.13     3.52113795    -4.07059431     7.89873028     0.00000000     0.00000000     0.00000000 0.00000000 VRAI 
CAM-ECTA-US-HO_ECTA-US-HO-T    2023.08.22.12.55.13     3.87542152     3.64747238    12.93693256     0.00000000     0.00000000     0.00000000 0.00000000 VRAI 
CAM-ECTA-US-HO_ECTA-US-HO      2023.08.22.12.55.13     3.66414952    -3.92580652    12.88424397     0.00000000     0.00000000     0.00000000 0.00000000 VRAI 
CAM-ECTA-USA-IP_ECTA-USA-IP-T  2023.08.22.12.55.13    -3.68073058     3.84881639     7.89876127     0.00000000     0.00000000     0.00000000 0.00000000 VRAI 
CAM-ECTA-USA-IP_ECTA-USA-IP    2023.08.22.12.55.13    -3.53430200    -4.07043791     7.89031076     0.00000000     0.00000000     0.00000000 0.00000000 VRAI 
CAM-ECTA-USA-HO_ECTA-USA-HO-T  2023.08.22.12.55.13    -3.86201406     3.64768386    12.93546104     0.00000000     0.00000000     0.00000000 0.00000000 VRAI 
CAM-ECTA-USA-HO_ECTA-USA-HO    2023.08.22.12.55.13    -3.68540215    -3.92561102    12.88443756     0.00000000     0.00000000     0.00000000 0.00000000 VRAI 
CAM-ECTC-US-IP_ECTC-US-IP-T    2023.08.22.12.55.13     3.69177032     3.84800911    -7.77863359     0.00000000     0.00000000     0.00000000 0.00000000 VRAI 
CAM-ECTC-US-IP_ECTC-US-IP      2023.08.22.12.55.13     3.53336525    -4.07046318    -7.87877798     0.00000000     0.00000000     0.00000000 0.00000000 VRAI 
CAM-ECTC-US-HO_ECTC-US-HO-T    2023.08.22.12.55.13     3.86884522     3.64756918   -12.94098759     0.00000000     0.00000000     0.00000000 0.00000000 VRAI 
CAM-ECTC-US-HO_ECTC-US-HO      2023.08.22.12.55.13     3.67330647    -3.92563915   -12.89144516     0.00000000     0.00000000     0.00000000 0.00000000 VRAI 
CAM-ECTC-USA-IP_ECTC-USA-IP-T  2023.08.22.12.55.13    -3.66039658     3.84884048    -7.99969625     0.00000000     0.00000000     0.00000000 0.00000000 VRAI 
CAM-ECTC-USA-IP_ECTC-USA-IP    2023.08.22.12.55.13    -3.53216624    -4.07034683    -7.87356806     0.00000000     0.00000000     0.00000000 0.00000000 VRAI 
CAM-ECTC-USA-HO_ECTC-USA-HO-T  2023.08.22.12.55.13    -3.86870003     3.64758515   -12.93270302     0.00000000     0.00000000     0.00000000 0.00000000 VRAI 
CAM-ECTC-USA-HO_ECTC-USA-HO    2023.08.22.12.55.13    -3.67602587    -3.92565322   -12.88718605     0.00000000     0.00000000     0.00000000 0.00000000 VRAI 
