********** Fichier qui contient une sauvegarde des coordonnees images + coordonnees images transformees dans le repere BCAM (MOUNT) + coordonnees des prismes dans le repere MOUNT********** 
********************************************************************** Unite en metres (m)************************************************************************************************** 

*******************************************************************coordonnees images dans le repere CCD *********************************************************************************** 
20MABNDL000077_PR002
Spot 1     0.00036500     0.00140500
Spot 2     0.00052500     0.00043500
Spot 1     0.00052500     0.00043500
Spot 2     0.00052500     0.00043500
20MABNDL000077_PR003
Spot 1     0.00166500     0.00022500
Spot 2     0.00245500     0.00005500
Spot 1     0.00166500     0.00022500
Spot 2     0.00166500     0.00022500
20MABNDL000077_20MABNDM000168
Spot 1     0.00175575     0.00118364
Spot 2     0.00075500     0.00010500
Spot 1     0.00175535     0.00118371
Spot 2     0.00075500     0.00010500
20MABNDL000077_PR024
Spot 1     0.00251524     0.00142150
Spot 2     0.00261395     0.00143274
Spot 1     0.00251540     0.00142189
Spot 2     0.00261396     0.00143287
20MABNDM000020_PR013
Spot 1     0.00044500     0.00008500
Spot 2     0.00044500     0.00008500
Spot 1     0.00044500     0.00008500
Spot 2     0.00044500     0.00008500
20MABNDM000020_PR014
Spot 1     0.00266033     0.00168368
Spot 2     0.00249917     0.00168790
Spot 1     0.00266070     0.00168517
Spot 2     0.00249849     0.00168777
20MABNDM000020_20MABNDL000196
Spot 1     0.00197570     0.00117994
Spot 2     0.00070500     0.00024500
Spot 1     0.00197552     0.00117992
Spot 2     0.00230500     0.00010500
20MABNDM000020_PR035
Spot 1     0.00126334     0.00149141
Spot 2     0.00118685     0.00152732
Spot 1     0.00126272     0.00149111
Spot 2     0.00118647     0.00152743
20MABNDM000168_PR025
Spot 1     0.00076244     0.00147389
Spot 2     0.00060505     0.00147858
Spot 1     0.00076225     0.00147407
Spot 2     0.00060525     0.00147860
20MABNDM000168_PR026
Spot 1     0.00266792     0.00142386
Spot 2     0.00250648     0.00141995
Spot 1     0.00266805     0.00142392
Spot 2     0.00250646     0.00142017
20MABNDM000168_20MABNDL000077
Spot 1     0.00154206     0.00129774
Spot 2     0.00175871     0.00130230
20MABNDM000168_PR001
Spot 1     0.00080952     0.00161734
Spot 2     0.00070695     0.00161912
20MABNDL000196_PR036
Spot 1     0.00094449     0.00164957
Spot 2     0.00110961     0.00164824
20MABNDL000196_PR037
Spot 1     0.00283223     0.00146837
Spot 2     0.00299154     0.00147146
20MABNDL000196_20MABNDM000020
Spot 1     0.00192615     0.00103933
Spot 2     0.00170500     0.00104463
20MABNDL000196_PR012
Spot 1     0.00327500     0.00013500
Spot 2     0.00272331     0.00138500
20MABNDA000134_PR004
Spot 1     0.00190823     0.00176136
Spot 2     0.00168898     0.00175410
20MABNDA000334_PR005
Spot 1     0.00220290     0.00157831
Spot 2     0.00248304     0.00157820
20MABNDB000317_PR015
Spot 1     0.00146268     0.00168261
Spot 2     0.00168343     0.00167486
20MABNDB000146_PR016
Spot 1     0.00144638     0.00131429
Spot 2     0.00172260     0.00131604
20MABNDB000135_PR027
Spot 1     0.00188437     0.00089268
Spot 2     0.00210312     0.00089529
20MABNDB000126_PR028
Spot 1     0.00193250     0.00198184
Spot 2     0.00164904     0.00198079
20MABNDA000272_PR038
Spot 1     0.00192308     0.00095138
Spot 2     0.00170110     0.00095098
20MABNDA000003_PR039
Spot 1     0.00201497     0.00193076
Spot 2     0.00229436     0.00193162
20MABNDA000196_PR006
Spot 1     0.00138854     0.00067126
Spot 2     0.00175426     0.00067338
20MABNDA000324_PR007
Spot 1     0.00199684     0.00134136
Spot 2     0.00220352     0.00133574
20MABNDB000001_PR017
Spot 1     0.00185719     0.00088557
Spot 2     0.00222768     0.00089018
20MABNDB000260_PR019
Spot 1     0.00206658     0.00145742
Spot 2    -0.00000100    -0.00000100
20MABNDB000212_PR029
Spot 1     0.00220759     0.00069101
Spot 2     0.00184445     0.00068870
20MABNDB000128_PR030
Spot 1     0.00268555     0.00161671
Spot 2     0.00248735     0.00161912
20MABNDA000444_PR040
Spot 1     0.00179582     0.00069473
Spot 2     0.00133500     0.00126500
20MABNDA000053_PR041
Spot 1     0.00123541     0.00144434
Spot 2     0.00144090     0.00144512
20MABNDA000188_PR008
Spot 1     0.00297500     0.00011500
Spot 2     0.00297500     0.00011500
20MABNDA000188_PR018
Spot 1     0.00170571     0.00167071
Spot 2     0.00123851     0.00166851
20MABNDA000039_PR009
Spot 1     0.00066588     0.00118023
Spot 2     0.00061517     0.00118384
20MABNDA000039_PR011
Spot 1     0.00277128     0.00028357
Spot 2     0.00259450     0.00027847
20MABNDB000155_PR020
Spot 1     0.00061821     0.00112386
Spot 2     0.00068802     0.00111905
20MABNDB000155_PR022
Spot 1     0.00211531     0.00140986
Spot 2     0.00258859     0.00140521
20MABNDB000010_PR021
Spot 1     0.00286729     0.00115172
Spot 2     0.00292515     0.00115510
20MABNDB000010_PR023
Spot 1     0.00131345     0.00030203
Spot 2     0.00148908     0.00029927
20MABNDB000069_PR031
Spot 1     0.00021500     0.00240500
Spot 2     0.00021500     0.00240500
20MABNDB000069_PR033
Spot 1     0.00182969     0.00206411
Spot 2     0.00230031     0.00208414
20MABNDB000131_PR032
Spot 1     0.00277667     0.00108148
Spot 2     0.00283756     0.00108413
20MABNDB000131_PR034
Spot 1     0.00092095     0.00032630
Spot 2     0.00109709     0.00032579
20MABNDA000208_PR042
Spot 1     0.00284500     0.00011500
Spot 2     0.00284500     0.00011500
20MABNDA000208_PR046
Spot 1     0.00143868     0.00221904
Spot 2     0.00096850     0.00222113
20MABNDA000035_PR044
Spot 1     0.00074407     0.00125907
Spot 2     0.00068374     0.00125328
20MABNDA000035_PR045
Spot 1     0.00254766     0.00046882
Spot 2     0.00236982     0.00046753


****************************************************************coordonnees images transformees dans le repere MOUNT************************************************************************* 
20MABNDL000077_PR002
Spot 1     0.01143443     0.03548461    -0.07463200
Spot 2     0.01158509     0.03451311    -0.07463200
Spot 1     0.01158509     0.03451311    -0.07463200
Spot 2     0.01158509     0.03451311    -0.07463200
20MABNDL000077_PR003
Spot 1     0.01272301     0.03429215    -0.07463200
Spot 2     0.01351134     0.03411456    -0.07463200
Spot 1     0.01272301     0.03429215    -0.07463200
Spot 2     0.01272301     0.03429215    -0.07463200
20MABNDL000077_20MABNDM000168
Spot 1    -0.01259089     0.03524664    -0.00695400
Spot 2    -0.01157915     0.03417830    -0.00695400
Spot 1    -0.01259049     0.03524671    -0.00695400
Spot 2    -0.01157915     0.03417830    -0.00695400
20MABNDL000077_PR024
Spot 1    -0.01335277     0.03547671    -0.00695400
Spot 2    -0.01345159     0.03548694    -0.00695400
Spot 1    -0.01335294     0.03547710    -0.00695400
Spot 2    -0.01345160     0.03548707    -0.00695400
20MABNDM000020_PR013
Spot 1    -0.01394554    -0.03407018    -0.00523500
Spot 2    -0.01394554    -0.03407018    -0.00523500
Spot 1    -0.01394554    -0.03407018    -0.00523500
Spot 2    -0.01394554    -0.03407018    -0.00523500
20MABNDM000020_PR014
Spot 1    -0.01169540    -0.03561948    -0.00523500
Spot 2    -0.01185643    -0.03562726    -0.00523500
Spot 1    -0.01169499    -0.03562096    -0.00523500
Spot 2    -0.01185711    -0.03562714    -0.00523500
20MABNDM000020_20MABNDL000196
Spot 1     0.01271058    -0.03514850    -0.07583800
Spot 2     0.01398115    -0.03421339    -0.07583800
Spot 1     0.01271076    -0.03514848    -0.07583800
Spot 2     0.01238113    -0.03407361    -0.07583800
20MABNDM000020_PR035
Spot 1     0.01342298    -0.03545987    -0.07583800
Spot 2     0.01349948    -0.03549577    -0.07583800
Spot 1     0.01342360    -0.03545957    -0.07583800
Spot 2     0.01349986    -0.03549588    -0.07583800
20MABNDM000168_PR025
Spot 1    -0.01363969    -0.03581285    -0.00532900
Spot 2    -0.01379705    -0.03581822    -0.00532900
Spot 1    -0.01363987    -0.03581303    -0.00532900
Spot 2    -0.01379685    -0.03581824    -0.00532900
20MABNDM000168_PR026
Spot 1    -0.01173444    -0.03575464    -0.00532900
Spot 2    -0.01189589    -0.03575142    -0.00532900
Spot 1    -0.01173431    -0.03575470    -0.00532900
Spot 2    -0.01189591    -0.03575164    -0.00532900
20MABNDM000168_20MABNDL000077
Spot 1     0.01288344    -0.03529836    -0.07445100
Spot 2     0.01266674    -0.03529975    -0.07445100
20MABNDM000168_PR001
Spot 1     0.01361122    -0.03562865    -0.07445100
Spot 2     0.01371375    -0.03563193    -0.07445100
20MABNDL000196_PR036
Spot 1     0.01192439     0.03583826    -0.07483600
Spot 2     0.01208952     0.03583728    -0.07483600
20MABNDL000196_PR037
Spot 1     0.01381251     0.03566100    -0.07483600
Spot 2     0.01397181     0.03566442    -0.07483600
20MABNDL000196_20MABNDM000020
Spot 1    -0.01275016     0.03531053    -0.00611000
Spot 2    -0.01252916     0.03532028    -0.00611000
20MABNDL000196_PR012
Spot 1    -0.01408054     0.03437924    -0.00611000
Spot 2    -0.01355411     0.03564009    -0.00611000
20MABNDA000134_PR004
Spot 1    -0.01287898     0.01241150    -0.07608400
Spot 2    -0.01265961     0.01241267    -0.07608400
20MABNDA000334_PR005
Spot 1    -0.01284600     0.01254983    -0.07324100
Spot 2    -0.01312614     0.01255020    -0.07324100
20MABNDB000317_PR015
Spot 1    -0.01269257    -0.01241573    -0.07326100
Spot 2    -0.01247175    -0.01242091    -0.07326100
20MABNDB000146_PR016
Spot 1    -0.01276194    -0.01247932    -0.07450500
Spot 2    -0.01248573    -0.01247696    -0.07450500
20MABNDB000135_PR027
Spot 1    -0.01252056    -0.01322027    -0.07464700
Spot 2    -0.01230180    -0.01322009    -0.07464700
20MABNDB000126_PR028
Spot 1    -0.01224689    -0.01219879    -0.07500400
Spot 2    -0.01253034    -0.01220136    -0.07500400
20MABNDA000272_PR038
Spot 1    -0.01275873     0.01316009    -0.07417900
Spot 2    -0.01253675     0.01316009    -0.07417900
20MABNDA000003_PR039
Spot 1    -0.01281607     0.01212154    -0.07373400
Spot 2    -0.01309546     0.01212139    -0.07373400
20MABNDA000196_PR006
Spot 1    -0.01234255     0.01329928    -0.07967100
Spot 2    -0.01270827     0.01330186    -0.07967100
20MABNDA000324_PR007
Spot 1    -0.01260154     0.01267984    -0.07446800
Spot 2    -0.01280826     0.01268384    -0.07446800
20MABNDB000001_PR017
Spot 1    -0.01232644    -0.01310366    -0.07418400
Spot 2    -0.01195592    -0.01310298    -0.07418400
20MABNDB000260_PR019
Spot 1    -0.01226386    -0.01244216    -0.07492700
Spot 2    -0.01430111    -0.01394266    -0.07492700
20MABNDB000212_PR029
Spot 1    -0.01188036    -0.01328998    -0.07390500
Spot 2    -0.01224350    -0.01328841    -0.07390500
20MABNDB000128_PR030
Spot 1    -0.01166825    -0.01259789    -0.07353400
Spot 2    -0.01186645    -0.01259616    -0.07353400
20MABNDA000444_PR040
Spot 1    -0.01273124     0.01332178    -0.07412000
Spot 2    -0.01226322     0.01275740    -0.07412000
20MABNDA000053_PR041
Spot 1    -0.01198149     0.01265786    -0.07430100
Spot 2    -0.01218695     0.01266109    -0.07430100
20MABNDA000188_PR008
Spot 1    -0.01399107     0.01394961    -0.07502000
Spot 2    -0.01399107     0.01394961    -0.07502000
20MABNDA000188_PR018
Spot 1    -0.01273515     0.01238309    -0.07502000
Spot 2    -0.01226795     0.01238129    -0.07502000
20MABNDA000039_PR009
Spot 1    -0.01162803     0.01306391    -0.07444800
Spot 2    -0.01157734     0.01306008    -0.07444800
20MABNDA000039_PR011
Spot 1    -0.01372953     0.01396967    -0.07444800
Spot 2    -0.01355273     0.01397401    -0.07444800
20MABNDB000155_PR020
Spot 1    -0.01364787    -0.01313353    -0.07501700
Spot 2    -0.01357800    -0.01313739    -0.07501700
20MABNDB000155_PR022
Spot 1    -0.01215482    -0.01282706    -0.07501700
Spot 2    -0.01168152    -0.01282523    -0.07501700
20MABNDB000010_PR021
Spot 1    -0.01158369    -0.01292682    -0.07358200
Spot 2    -0.01152590    -0.01292246    -0.07358200
20MABNDB000010_PR023
Spot 1    -0.01312292    -0.01380271    -0.07358200
Spot 2    -0.01294727    -0.01380249    -0.07358200
20MABNDB000069_PR031
Spot 1    -0.01361993    -0.01186066    -0.07388500
Spot 2    -0.01361993    -0.01186066    -0.07388500
20MABNDB000069_PR033
Spot 1    -0.01202068    -0.01226790    -0.07388500
Spot 2    -0.01154963    -0.01226731    -0.07388500
20MABNDB000131_PR032
Spot 1    -0.01144350    -0.01303328    -0.07533000
Spot 2    -0.01138262    -0.01303032    -0.07533000
20MABNDB000131_PR034
Spot 1    -0.01329539    -0.01379779    -0.07533000
Spot 2    -0.01311925    -0.01379741    -0.07533000
20MABNDA000208_PR042
Spot 1    -0.01371645     0.01388121    -0.07273700
Spot 2    -0.01371645     0.01388121    -0.07273700
20MABNDA000208_PR046
Spot 1    -0.01230829     0.01177840    -0.07273700
Spot 2    -0.01183811     0.01177672    -0.07273700
20MABNDA000035_PR044
Spot 1    -0.01157873     0.01299822    -0.07483200
Spot 2    -0.01151836     0.01300358    -0.07483200
20MABNDA000035_PR045
Spot 1    -0.01337666     0.01380128    -0.07483200
Spot 2    -0.01319881     0.01380130    -0.07483200


*****************************************************************coordonnees du prisme dans le repere MOUNT********************************************************************************** 
20MABNDL000077_PR002
    0.07109624     0.04972310     3.70663595
    0.06737348     0.07371713     3.70652628
20MABNDL000077_PR003
   -0.00937768     0.09172102     3.89559364
    0.01108603     0.08711259     3.89571905
20MABNDL000077_20MABNDM000168
   -0.05602781     0.07581308    -5.46843529
   -0.05604223     0.07581040    -5.46843529
20MABNDL000077_PR024
    0.04322425     0.01898781    -5.89642811
    0.04323108     0.01896761    -5.89642811
20MABNDM000020_PR013
    0.05274186    -0.08860095    -3.80153990
    0.05274186    -0.08860095    -3.80153990
20MABNDM000020_PR014
   -0.06564722    -0.00533935    -4.74841118
   -0.06563853    -0.00529680    -4.74841118
20MABNDM000020_20MABNDL000196
   -0.03051855    -0.06616881     5.39457226
    0.02679900    -0.07117824     5.39469719
20MABNDM000020_PR035
   -0.04266704    -0.00704625     5.80095387
   -0.04270557    -0.00705357     5.80095387
20MABNDM000168_PR025
    0.03850059    -0.01223665    -3.78836775
    0.03850032    -0.01223171    -3.78836775
20MABNDM000168_PR026
   -0.05787288    -0.01423255    -3.98429132
   -0.05787577    -0.01422528    -3.98429132
20MABNDM000168_20MABNDL000077
    0.01160378    -0.03893463     5.38884640
20MABNDM000168_PR001
   -0.05728453    -0.01348246     5.81470680
20MABNDL000196_PR036
    0.05142865     0.00547158     3.68776703
20MABNDL000196_PR037
   -0.04399603     0.01290504     3.88352156
20MABNDL000196_20MABNDM000020
   -0.01567704     0.03804661    -5.47473907
20MABNDL000196_PR012
    0.07561164     0.06197071    -5.91504860
20MABNDA000134_PR004
   -0.00831503     0.03813145     2.74966145
20MABNDA000334_PR005
   -0.00398548     0.03146283     2.14977264
20MABNDB000317_PR015
   -0.01644564    -0.03696699     2.75126743
20MABNDB000146_PR016
   -0.01349849    -0.03126144     2.15201735
20MABNDB000135_PR027
   -0.02076099    -0.00901542     2.74937057
20MABNDB000126_PR028
   -0.02048242    -0.03814631     2.14680433
20MABNDA000272_PR038
   -0.01323880     0.01081531     2.74965858
20MABNDA000003_PR039
   -0.00551040     0.04136999     2.14891243
20MABNDA000196_PR006
   -0.01547855     0.00877928     1.64206028
20MABNDA000324_PR007
   -0.01525205     0.03279354     2.95548868
20MABNDB000001_PR017
   -0.02361505    -0.01256312     1.64039505
20MABNDB000260_PR019
    0.01405305    -0.00705679     2.95627952
20MABNDB000212_PR029
   -0.02479857    -0.00822716     1.64224184
20MABNDB000128_PR030
   -0.04228827    -0.03192112     2.95495367
20MABNDA000444_PR040
   -0.01646896     0.01482421     1.64504254
20MABNDA000053_PR041
   -0.03534212     0.02985102     2.95464659
20MABNDA000188_PR008
    0.14616936    -0.09611703     9.20304298
20MABNDA000188_PR018
   -0.01603994     0.02469849     1.28359365
20MABNDA000039_PR009
   -0.17112176     0.02558371    11.00701618
20MABNDA000039_PR011
    0.03089700    -0.02447681     3.43347001
20MABNDB000155_PR020
    0.10202394    -0.00815708     9.20028305
20MABNDB000155_PR022
   -0.02565033    -0.01771947     1.28070712
20MABNDB000010_PR021
   -0.17617410    -0.03357485    11.00694656
20MABNDB000010_PR023
    0.00423248     0.02078792     3.43376684
20MABNDB000069_PR031
    0.10999375    -0.16176865     9.20229721
20MABNDB000069_PR033
   -0.02691898    -0.02685875     1.28394032
20MABNDB000131_PR032
   -0.18796864    -0.03028790    11.00642014
20MABNDB000131_PR034
    0.01447254     0.01640467     3.43337822
20MABNDA000208_PR042
    0.11037338    -0.08822197     9.20121384
20MABNDA000208_PR046
   -0.02362942     0.03492004     1.28207541
20MABNDA000035_PR044
   -0.17936845     0.02701693    11.00803185
20MABNDA000035_PR045
    0.01468911    -0.01908566     3.43483520


*****************************************************************coordonnees du prisme dans le repere ATLAS********************************************************************************** 
20MABNDL000077_PR002 0.00000000
    2.80732441    -3.67341137     6.48597050
    2.78332901    -3.67712641     6.48587990
20MABNDL000077_PR003 0.00000000
    2.76548624    -3.75410509     6.67487001
    2.77010131    -3.73364305     6.67501593
20MABNDL000077_20MABNDM000168 0.00000000
    2.77219439    -3.78920698    -2.68922043
    2.77219701    -3.78922129    -2.68922043
20MABNDL000077_PR024 0.00000000
    2.82863140    -3.68944502    -3.11714602
    2.82865167    -3.68943810    -3.11714602
20MABNDM000020_PR013 0.00000000
   -2.76372600    -3.79224682     6.48532534
   -2.76372600    -3.79224682     6.48532534
20MABNDM000020_PR014 0.00000000
   -2.84676170    -3.67455244     7.43230295
   -2.84680438    -3.67456102     7.43230295
20MABNDM000020_20MABNDL000196 0.00000000
   -2.78797293    -3.70198560    -2.71071625
   -2.78298092    -3.75930452    -2.71088576
20MABNDM000020_PR035 0.00000000
   -2.84717298    -3.68950987    -3.11707664
   -2.84716558    -3.68947124    -3.11707640
20MABNDM000168_PR025 0.00000000
    2.84099483    -3.78383207    -6.47897959
    2.84099960    -3.78383183    -6.47897959
20MABNDM000168_PR026 0.00000000
    2.83901238    -3.68753076    -6.67493868
    2.83901978    -3.68752789    -6.67493868
20MABNDM000168_20MABNDL000077 0.00000000
    2.81486082    -3.75351572     2.69822574
20MABNDM000168_PR001 0.00000000
    2.84035707    -3.68447590     3.12405896
20MABNDL000196_PR036 0.00000000
   -2.84813595    -3.69284606    -6.47909069
20MABNDL000196_PR037 0.00000000
   -2.84066248    -3.78844929    -6.67475653
20MABNDL000196_20MABNDM000020 0.00000000
   -2.81533170    -3.75141358     2.68347335
20MABNDL000196_PR012 0.00000000
   -2.79144049    -3.65970421     3.12369728
20MABNDA000134_PR004 0.00000000
    2.61468816    -4.19698954     3.83386707
20MABNDA000334_PR005 0.00000000
    2.61701298    -4.19703007     5.89779806
20MABNDB000317_PR015 0.00000000
   -2.61216164    -4.19699240     3.83304834
20MABNDB000146_PR016 0.00000000
   -2.61279678    -4.19702053     5.89908886
20MABNDB000135_PR027 0.00000000
    2.60410261    -4.19700480    -3.82634544
20MABNDB000126_PR028 0.00000000
    2.60543442    -4.19701529    -5.89407349
20MABNDA000272_PR038 0.00000000
   -2.61129808    -4.19698286    -3.82766914
20MABNDA000003_PR039 0.00000000
   -2.61622071    -4.19702339    -5.89139652
20MABNDA000196_PR006 0.00000000
    2.58993912    -4.19496870     6.54673624
20MABNDA000324_PR007 0.00000000
    2.60406327    -4.13996267     6.94312286
20MABNDB000001_PR017 0.00000000
   -2.59731960    -4.19499016     6.54789114
20MABNDB000260_PR019 0.00000000
   -2.64282560    -4.14002609     6.97357416
20MABNDB000212_PR029 0.00000000
    2.59847641    -4.19500685    -6.54721498
20MABNDB000128_PR030 0.00000000
    2.58657336    -4.14004183    -6.94620466
20MABNDA000444_PR040 0.00000000
   -2.59164310    -4.19496870    -6.55400610
20MABNDA000053_PR041 0.00000000
   -2.58519769    -4.14003944    -6.94806194
20MABNDA000188_PR008 0.00000000
    3.55893064     3.84859109     8.10764503
20MABNDA000188_PR018 0.00000000
    3.52108002    -4.07059526     7.89875221
20MABNDA000039_PR009 0.00000000
    3.87529373     3.64747429    12.93687725
20MABNDA000039_PR011 0.00000000
    3.66412711    -3.92580581    12.88435936
20MABNDB000155_PR020 0.00000000
   -3.68067646     3.84881639     7.89871025
20MABNDB000155_PR022 0.00000000
   -3.53433013    -4.07043791     7.89033985
20MABNDB000010_PR021 0.00000000
   -3.86201143     3.64768386    12.93540478
20MABNDB000010_PR023 0.00000000
   -3.68543434    -3.92561007    12.88448811
20MABNDB000069_PR031 0.00000000
    3.69177032     3.84800911    -7.77863359
20MABNDB000069_PR033 0.00000000
    3.53338051    -4.07046270    -7.87881279
20MABNDB000131_PR032 0.00000000
    3.86877084     3.64757013   -12.94093037
20MABNDB000131_PR034 0.00000000
    3.67331672    -3.92563844   -12.89154243
20MABNDA000208_PR042 0.00000000
   -3.66039658     3.84884048    -7.99969625
20MABNDA000208_PR046 0.00000000
   -3.53213620    -4.07034683    -7.87359810
20MABNDA000035_PR044 0.00000000
   -3.86860943     3.64758706   -12.93269634
20MABNDA000035_PR045 0.00000000
   -3.67603922    -3.92565203   -12.88729858


*****************************************************************Rapport********************************************************************************** 
CAM-LBA-US_EBA-US-HO-H         2023.06.15.23.22.09     2.79532671    -3.67526889     6.48592520     0.01199770     0.00185752     0.00004530 0.00000000 VRAI 
CAM-LBA-US_JDA-US-H            2023.06.15.23.22.09     2.76779377    -3.74387407     6.67494297     0.00230753     0.01023102     0.00007296 0.00000000 VRAI 
CAM-LBA-US_CAM-LBC-US          2023.06.15.23.22.09     2.77219570    -3.78921413    -2.68922043     0.00000131     0.00000715     0.00000000 0.00000000 VRAI 
CAM-LBA-US_EBC-US-IP-H         2023.06.15.23.22.09     2.82864153    -3.68944156    -3.11714602     0.00001013     0.00000346     0.00000000 0.00000000 VRAI 
CAM-LBA-USA_EBA-USA-HO-H       2023.06.15.23.22.09    -2.76372600    -3.79224682     6.48532534     0.00000000     0.00000000     0.00000000 0.00000000 VRAI 
CAM-LBA-USA_JDA-USA-H          2023.06.15.23.22.09    -2.84678304    -3.67455673     7.43230295     0.00002134     0.00000429     0.00000000 0.00000000 VRAI 
CAM-LBA-USA_CAM-LBC-USA        2023.06.15.23.22.09    -2.78547692    -3.73064506    -2.71080101     0.00249600     0.02865946     0.00008476 0.00000000 VRAI 
CAM-LBA-USA_EBC-USA-IP-H       2023.06.15.23.22.09    -2.84716928    -3.68949056    -3.11707652     0.00000370     0.00001931     0.00000012 0.00000000 VRAI 
CAM-LBC-US_EBC-US-HO-H         2023.06.15.23.22.09     2.84099722    -3.78383195    -6.47897959     0.00000238     0.00000012     0.00000000 0.00000000 VRAI 
CAM-LBC-US_JDC-US-H            2023.06.15.23.22.09     2.83901608    -3.68752933    -6.67493868     0.00000370     0.00000143     0.00000000 0.00000000 VRAI 
CAM-LBC-US_CAM-LBA-US          2023.06.15.23.22.09     2.81486082    -3.75351572     2.69822574     0.00000000     0.00000000     0.00000000 0.00000000 VRAI 
CAM-LBC-US_EBA-US-IP-H         2023.06.15.23.22.09     2.84035707    -3.68447590     3.12405896     0.00000000     0.00000000     0.00000000 0.00000000 VRAI 
CAM-LBC-USA_EBC-USA-HO-H       2023.06.15.23.22.09    -2.84813595    -3.69284606    -6.47909069     0.00000000     0.00000000     0.00000000 0.00000000 VRAI 
CAM-LBC-USA_JDC-USA-H          2023.06.15.23.22.09    -2.84066248    -3.78844929    -6.67475653     0.00000000     0.00000000     0.00000000 0.00000000 VRAI 
CAM-LBC-USA_CAM-LBA-USA        2023.06.15.23.22.09    -2.81533170    -3.75141358     2.68347335     0.00000000     0.00000000     0.00000000 0.00000000 VRAI 
CAM-LBC-USA_EBA-USA-IP-H       2023.06.15.23.22.09    -2.79144049    -3.65970421     3.12369728     0.00000000     0.00000000     0.00000000 0.00000000 VRAI 
CAM-EBA-US-IP_EBA-US-IP        2023.06.15.23.22.09     2.61468816    -4.19698954     3.83386707     0.00000000     0.00000000     0.00000000 0.00000000 VRAI 
CAM-EBA-US-HO_EBA-US-HO        2023.06.15.23.22.09     2.61701298    -4.19703007     5.89779806     0.00000000     0.00000000     0.00000000 0.00000000 VRAI 
CAM-EBA-USA-IP_EBA-USA-IP      2023.06.15.23.22.09    -2.61216164    -4.19699240     3.83304834     0.00000000     0.00000000     0.00000000 0.00000000 VRAI 
CAM-EBA-USA-HO_EBA-USA-HO      2023.06.15.23.22.09    -2.61279678    -4.19702053     5.89908886     0.00000000     0.00000000     0.00000000 0.00000000 VRAI 
CAM-EBC-US-IP_EBC-US-IP        2023.06.15.23.22.09     2.60410261    -4.19700480    -3.82634544     0.00000000     0.00000000     0.00000000 0.00000000 VRAI 
CAM-EBC-US-HO_EBC-US-HO        2023.06.15.23.22.09     2.60543442    -4.19701529    -5.89407349     0.00000000     0.00000000     0.00000000 0.00000000 VRAI 
CAM-EBC-USA-IP_EBC-USA-IP      2023.06.15.23.22.09    -2.61129808    -4.19698286    -3.82766914     0.00000000     0.00000000     0.00000000 0.00000000 VRAI 
CAM-EBC-USA-HO_EBC-USA-HO      2023.06.15.23.22.09    -2.61622071    -4.19702339    -5.89139652     0.00000000     0.00000000     0.00000000 0.00000000 VRAI 
CAM-JDA-US-IP_JDA-US-IP        2023.06.15.23.22.09     2.58993912    -4.19496870     6.54673624     0.00000000     0.00000000     0.00000000 0.00000000 VRAI 
CAM-JDA-US-HO_JDA-US-HO        2023.06.15.23.22.09     2.60406327    -4.13996267     6.94312286     0.00000000     0.00000000     0.00000000 0.00000000 VRAI 
CAM-JDA-USA-IP_JDA-USA-IP      2023.06.15.23.22.09    -2.59731960    -4.19499016     6.54789114     0.00000000     0.00000000     0.00000000 0.00000000 VRAI 
CAM-JDA-USA-HO_JDA-USA-HO      2023.06.15.23.22.09    -2.64282560    -4.14002609     6.97357416     0.00000000     0.00000000     0.00000000 0.00000000 VRAI 
CAM-JDC-US-IP_JDC-US-IP        2023.06.15.23.22.09     2.59847641    -4.19500685    -6.54721498     0.00000000     0.00000000     0.00000000 0.00000000 VRAI 
CAM-JDC-US-HO_JDC-US-HO        2023.06.15.23.22.09     2.58657336    -4.14004183    -6.94620466     0.00000000     0.00000000     0.00000000 0.00000000 VRAI 
CAM-JDC-USA-IP_JDC-USA-IP      2023.06.15.23.22.09    -2.59164310    -4.19496870    -6.55400610     0.00000000     0.00000000     0.00000000 0.00000000 VRAI 
CAM-JDC-USA-HO_JDC-USA-HO      2023.06.15.23.22.09    -2.58519769    -4.14003944    -6.94806194     0.00000000     0.00000000     0.00000000 0.00000000 VRAI 
CAM-ECTA-US-IP_ECTA-US-IP-T    2023.06.15.23.22.09     3.55893064     3.84859109     8.10764503     0.00000000     0.00000000     0.00000000 0.00000000 VRAI 
CAM-ECTA-US-IP_ECTA-US-IP      2023.06.15.23.22.09     3.52108002    -4.07059526     7.89875221     0.00000000     0.00000000     0.00000000 0.00000000 VRAI 
CAM-ECTA-US-HO_ECTA-US-HO-T    2023.06.15.23.22.09     3.87529373     3.64747429    12.93687725     0.00000000     0.00000000     0.00000000 0.00000000 VRAI 
CAM-ECTA-US-HO_ECTA-US-HO      2023.06.15.23.22.09     3.66412711    -3.92580581    12.88435936     0.00000000     0.00000000     0.00000000 0.00000000 VRAI 
CAM-ECTA-USA-IP_ECTA-USA-IP-T  2023.06.15.23.22.09    -3.68067646     3.84881639     7.89871025     0.00000000     0.00000000     0.00000000 0.00000000 VRAI 
CAM-ECTA-USA-IP_ECTA-USA-IP    2023.06.15.23.22.09    -3.53433013    -4.07043791     7.89033985     0.00000000     0.00000000     0.00000000 0.00000000 VRAI 
CAM-ECTA-USA-HO_ECTA-USA-HO-T  2023.06.15.23.22.09    -3.86201143     3.64768386    12.93540478     0.00000000     0.00000000     0.00000000 0.00000000 VRAI 
CAM-ECTA-USA-HO_ECTA-USA-HO    2023.06.15.23.22.09    -3.68543434    -3.92561007    12.88448811     0.00000000     0.00000000     0.00000000 0.00000000 VRAI 
CAM-ECTC-US-IP_ECTC-US-IP-T    2023.06.15.23.22.09     3.69177032     3.84800911    -7.77863359     0.00000000     0.00000000     0.00000000 0.00000000 VRAI 
CAM-ECTC-US-IP_ECTC-US-IP      2023.06.15.23.22.09     3.53338051    -4.07046270    -7.87881279     0.00000000     0.00000000     0.00000000 0.00000000 VRAI 
CAM-ECTC-US-HO_ECTC-US-HO-T    2023.06.15.23.22.09     3.86877084     3.64757013   -12.94093037     0.00000000     0.00000000     0.00000000 0.00000000 VRAI 
CAM-ECTC-US-HO_ECTC-US-HO      2023.06.15.23.22.09     3.67331672    -3.92563844   -12.89154243     0.00000000     0.00000000     0.00000000 0.00000000 VRAI 
CAM-ECTC-USA-IP_ECTC-USA-IP-T  2023.06.15.23.22.09    -3.66039658     3.84884048    -7.99969625     0.00000000     0.00000000     0.00000000 0.00000000 VRAI 
CAM-ECTC-USA-IP_ECTC-USA-IP    2023.06.15.23.22.09    -3.53213620    -4.07034683    -7.87359810     0.00000000     0.00000000     0.00000000 0.00000000 VRAI 
CAM-ECTC-USA-HO_ECTC-USA-HO-T  2023.06.15.23.22.09    -3.86860943     3.64758706   -12.93269634     0.00000000     0.00000000     0.00000000 0.00000000 VRAI 
CAM-ECTC-USA-HO_ECTC-USA-HO    2023.06.15.23.22.09    -3.67603922    -3.92565203   -12.88729858     0.00000000     0.00000000     0.00000000 0.00000000 VRAI 
