********** Fichier qui contient une sauvegarde des coordonnees images + coordonnees images transformees dans le repere BCAM (MOUNT) + coordonnees des prismes dans le repere MOUNT********** 
********************************************************************** Unite en metres (m)************************************************************************************************** 

*******************************************************************coordonnees images dans le repere CCD *********************************************************************************** 
20MABNDL000077_PR002
Spot 1     0.00065995     0.00181058
Spot 2     0.00082157     0.00181138
Spot 1     0.00065947     0.00181102
Spot 2     0.00082107     0.00181156
20MABNDL000077_PR003
Spot 1     0.00235500     0.00028500
Spot 2     0.00235500     0.00028500
Spot 1     0.00235500     0.00028500
Spot 2     0.00235500     0.00028500
20MABNDL000077_20MABNDM000168
Spot 1     0.00175618     0.00118197
Spot 2     0.00075500     0.00010500
Spot 1     0.00175662     0.00118162
Spot 2     0.00075500     0.00010500
20MABNDL000077_PR024
Spot 1     0.00251533     0.00142091
Spot 2     0.00261423     0.00143108
Spot 1     0.00251567     0.00142103
Spot 2     0.00261427     0.00143113
20MABNDM000020_PR013
Spot 1     0.00044500     0.00008500
Spot 2     0.00044500     0.00008500
Spot 1     0.00044500     0.00008500
Spot 2     0.00044500     0.00008500
20MABNDM000020_PR014
Spot 1     0.00266117     0.00168563
Spot 2     0.00250021     0.00168880
Spot 1     0.00266144     0.00168596
Spot 2     0.00250003     0.00168877
20MABNDM000020_20MABNDL000196
Spot 1     0.00197713     0.00118012
Spot 2     0.00080500     0.00045500
Spot 1     0.00197699     0.00117991
Spot 2     0.00247500     0.00023500
20MABNDM000020_PR035
Spot 1     0.00125992     0.00148906
Spot 2     0.00118618     0.00152722
Spot 1     0.00125997     0.00148919
Spot 2     0.00118621     0.00152715
20MABNDM000168_PR025
Spot 1     0.00076342     0.00147763
Spot 2     0.00060621     0.00148201
Spot 1     0.00076313     0.00147746
Spot 2     0.00060618     0.00148209
20MABNDM000168_PR026
Spot 1     0.00266949     0.00142551
Spot 2     0.00250867     0.00142171
Spot 1     0.00266957     0.00142541
Spot 2     0.00250866     0.00142157
20MABNDM000168_20MABNDL000077
Spot 1     0.00154206     0.00129798
Spot 2     0.00176049     0.00130540
20MABNDM000168_PR001
Spot 1     0.00081027     0.00161750
Spot 2     0.00070756     0.00161947
20MABNDL000196_PR036
Spot 1     0.00094399     0.00164741
Spot 2     0.00110841     0.00164656
20MABNDL000196_PR037
Spot 1     0.00283195     0.00146853
Spot 2     0.00299123     0.00147136
20MABNDL000196_20MABNDM000020
Spot 1     0.00192496     0.00103998
Spot 2     0.00170394     0.00104381
20MABNDL000196_PR012
Spot 1     0.00264921     0.00133925
Spot 2     0.00272309     0.00138648
20MABNDA000134_PR004
Spot 1     0.00190418     0.00176272
Spot 2     0.00168608     0.00175597
20MABNDA000334_PR005
Spot 1     0.00248138     0.00157768
Spot 2     0.00220128     0.00157848
20MABNDB000317_PR015
Spot 1     0.00146701     0.00168370
Spot 2     0.00168786     0.00167659
20MABNDB000146_PR016
Spot 1     0.00144998     0.00131291
Spot 2     0.00172592     0.00131546
20MABNDB000135_PR027
Spot 1     0.00188683     0.00089559
Spot 2     0.00210539     0.00089875
20MABNDB000126_PR028
Spot 1     0.00193369     0.00197987
Spot 2     0.00165120     0.00197833
20MABNDA000272_PR038
Spot 1     0.00191819     0.00095306
Spot 2     0.00169631     0.00095250
20MABNDA000003_PR039
Spot 1     0.00201099     0.00192816
Spot 2     0.00229095     0.00192847
20MABNDA000196_PR006
Spot 1     0.00138845     0.00066687
Spot 2     0.00175425     0.00066887
20MABNDA000324_PR007
Spot 1     0.00199477     0.00134870
Spot 2     0.00220152     0.00134341
20MABNDB000001_PR017
Spot 1     0.00185366     0.00087987
Spot 2     0.00222430     0.00088484
20MABNDB000260_PR019
Spot 1     0.00207132     0.00146474
Spot 2     0.00227598     0.00146524
20MABNDB000212_PR029
Spot 1     0.00220635     0.00069134
Spot 2     0.00184355     0.00068921
20MABNDB000128_PR030
Spot 1     0.00248964     0.00162529
Spot 2    -0.00000100    -0.00000100
20MABNDA000444_PR040
Spot 1     0.00179663     0.00069252
Spot 2     0.00082500     0.00213500
20MABNDA000053_PR041
Spot 1     0.00123346     0.00144911
Spot 2     0.00143972     0.00144915
20MABNDA000188_PR008
Spot 1     0.00266500     0.00126500
Spot 2     0.00266500     0.00126500
20MABNDA000188_PR018
Spot 1     0.00159784     0.00143438
Spot 2     0.00113133     0.00143053
20MABNDA000039_PR009
Spot 1     0.00066196     0.00121282
Spot 2     0.00061293     0.00121574
20MABNDA000039_PR011
Spot 1     0.00276661     0.00037093
Spot 2     0.00258998     0.00036601
20MABNDB000155_PR020
Spot 1     0.00067236     0.00109318
Spot 2     0.00074128     0.00108883
20MABNDB000155_PR022
Spot 1     0.00223027     0.00117160
Spot 2     0.00270338     0.00116691
20MABNDB000010_PR021
Spot 1     0.00286309     0.00118301
Spot 2     0.00292120     0.00118602
20MABNDB000010_PR023
Spot 1     0.00131118     0.00039088
Spot 2     0.00148600     0.00038961
20MABNDB000069_PR031
Spot 1     0.00021500     0.00240500
Spot 2     0.00021500     0.00240500
20MABNDB000069_PR033
Spot 1     0.00190635     0.00183323
Spot 2     0.00237627     0.00185348
20MABNDB000131_PR032
Spot 1     0.00277605     0.00111305
Spot 2     0.00283695     0.00111643
20MABNDB000131_PR034
Spot 1     0.00092275     0.00041926
Spot 2     0.00109897     0.00041922
20MABNDA000208_PR042
Spot 1     0.00284500     0.00011500
Spot 2     0.00284500     0.00011500
20MABNDA000208_PR046
Spot 1     0.00129651     0.00198867
Spot 2     0.00082567     0.00199360
20MABNDA000035_PR044
Spot 1     0.00074315     0.00128806
Spot 2     0.00068382     0.00128267
20MABNDA000035_PR045
Spot 1     0.00254679     0.00055328
Spot 2     0.00236951     0.00055237


****************************************************************coordonnees images transformees dans le repere MOUNT************************************************************************* 
20MABNDL000077_PR002
Spot 1     0.01173327     0.03588733    -0.07463200
Spot 2     0.01189489     0.03588658    -0.07463200
Spot 1     0.01173279     0.03588778    -0.07463200
Spot 2     0.01189439     0.03588676    -0.07463200
20MABNDL000077_PR003
Spot 1     0.01341356     0.03434551    -0.07463200
Spot 2     0.01341356     0.03434551    -0.07463200
Spot 1     0.01341356     0.03434551    -0.07463200
Spot 2     0.01341356     0.03434551    -0.07463200
20MABNDL000077_20MABNDM000168
Spot 1    -0.01259130     0.03524496    -0.00695400
Spot 2    -0.01157915     0.03417830    -0.00695400
Spot 1    -0.01259174     0.03524461    -0.00695400
Spot 2    -0.01157915     0.03417830    -0.00695400
20MABNDL000077_PR024
Spot 1    -0.01335286     0.03547612    -0.00695400
Spot 2    -0.01345186     0.03548528    -0.00695400
Spot 1    -0.01335320     0.03547624    -0.00695400
Spot 2    -0.01345190     0.03548533    -0.00695400
20MABNDM000020_PR013
Spot 1    -0.01394554    -0.03407018    -0.00523500
Spot 2    -0.01394554    -0.03407018    -0.00523500
Spot 1    -0.01394554    -0.03407018    -0.00523500
Spot 2    -0.01394554    -0.03407018    -0.00523500
20MABNDM000020_PR014
Spot 1    -0.01169451    -0.03562141    -0.00523500
Spot 2    -0.01185537    -0.03562814    -0.00523500
Spot 1    -0.01169424    -0.03562173    -0.00523500
Spot 2    -0.01185555    -0.03562811    -0.00523500
20MABNDM000020_20MABNDL000196
Spot 1     0.01270915    -0.03514868    -0.07583800
Spot 2     0.01388118    -0.03442340    -0.07583800
Spot 1     0.01270929    -0.03514847    -0.07583800
Spot 2     0.01221115    -0.03420363    -0.07583800
20MABNDM000020_PR035
Spot 1     0.01342640    -0.03545752    -0.07583800
Spot 2     0.01350015    -0.03549567    -0.07583800
Spot 1     0.01342635    -0.03545765    -0.07583800
Spot 2     0.01350012    -0.03549560    -0.07583800
20MABNDM000168_PR025
Spot 1    -0.01363869    -0.03581659    -0.00532900
Spot 2    -0.01379588    -0.03582164    -0.00532900
Spot 1    -0.01363898    -0.03581642    -0.00532900
Spot 2    -0.01379591    -0.03582172    -0.00532900
20MABNDM000168_PR026
Spot 1    -0.01173286    -0.03575628    -0.00532900
Spot 2    -0.01189370    -0.03575317    -0.00532900
Spot 1    -0.01173278    -0.03575618    -0.00532900
Spot 2    -0.01189371    -0.03575303    -0.00532900
20MABNDM000168_20MABNDL000077
Spot 1     0.01288343    -0.03529860    -0.07445100
Spot 2     0.01266492    -0.03530283    -0.07445100
20MABNDM000168_PR001
Spot 1     0.01361047    -0.03562880    -0.07445100
Spot 2     0.01371314    -0.03563227    -0.07445100
20MABNDL000196_PR036
Spot 1     0.01192390     0.03583610    -0.07483600
Spot 2     0.01208832     0.03583560    -0.07483600
20MABNDL000196_PR037
Spot 1     0.01381223     0.03566116    -0.07483600
Spot 2     0.01397150     0.03566432    -0.07483600
20MABNDL000196_20MABNDM000020
Spot 1    -0.01274898     0.03531120    -0.00611000
Spot 2    -0.01252808     0.03531948    -0.00611000
20MABNDL000196_PR012
Spot 1    -0.01347910     0.03559584    -0.00611000
Spot 2    -0.01355392     0.03564157    -0.00611000
20MABNDA000134_PR004
Spot 1    -0.01287497     0.01241002    -0.07608400
Spot 2    -0.01265676     0.01241072    -0.07608400
20MABNDA000334_PR005
Spot 1    -0.01312448     0.01255072    -0.07324100
Spot 2    -0.01284438     0.01254966    -0.07324100
20MABNDB000317_PR015
Spot 1    -0.01268825    -0.01241459    -0.07326100
Spot 2    -0.01246734    -0.01241913    -0.07326100
20MABNDB000146_PR016
Spot 1    -0.01275834    -0.01248069    -0.07450500
Spot 2    -0.01248240    -0.01247753    -0.07450500
20MABNDB000135_PR027
Spot 1    -0.01251807    -0.01321738    -0.07464700
Spot 2    -0.01229949    -0.01321666    -0.07464700
20MABNDB000126_PR028
Spot 1    -0.01224569    -0.01220076    -0.07500400
Spot 2    -0.01252817    -0.01220381    -0.07500400
20MABNDA000272_PR038
Spot 1    -0.01275385     0.01315840    -0.07417900
Spot 2    -0.01253197     0.01315857    -0.07417900
20MABNDA000003_PR039
Spot 1    -0.01281208     0.01212413    -0.07373400
Spot 2    -0.01309204     0.01212453    -0.07373400
20MABNDA000196_PR006
Spot 1    -0.01234240     0.01330367    -0.07967100
Spot 2    -0.01270820     0.01330637    -0.07967100
20MABNDA000324_PR007
Spot 1    -0.01259942     0.01267251    -0.07446800
Spot 2    -0.01280620     0.01267619    -0.07446800
20MABNDB000001_PR017
Spot 1    -0.01233003    -0.01310933    -0.07418400
Spot 2    -0.01195936    -0.01310828    -0.07418400
20MABNDB000260_PR019
Spot 1    -0.01225927    -0.01243474    -0.07492700
Spot 2    -0.01205467    -0.01243005    -0.07492700
20MABNDB000212_PR029
Spot 1    -0.01188160    -0.01328964    -0.07390500
Spot 2    -0.01224440    -0.01328789    -0.07390500
20MABNDB000128_PR030
Spot 1    -0.01186419    -0.01258999    -0.07353400
Spot 2    -0.01434919    -0.01422488    -0.07353400
20MABNDA000444_PR040
Spot 1    -0.01273208     0.01332398    -0.07412000
Spot 2    -0.01174222     0.01189394    -0.07412000
20MABNDA000053_PR041
Spot 1    -0.01197963     0.01265305    -0.07430100
Spot 2    -0.01218585     0.01265704    -0.07430100
20MABNDA000188_PR008
Spot 1    -0.01369093     0.01279700    -0.07502000
Spot 2    -0.01369093     0.01279700    -0.07502000
20MABNDA000188_PR018
Spot 1    -0.01262526     0.01261849    -0.07502000
Spot 2    -0.01215873     0.01261834    -0.07502000
20MABNDA000039_PR009
Spot 1    -0.01162425     0.01303131    -0.07444800
Spot 2    -0.01157523     0.01302817    -0.07444800
20MABNDA000039_PR011
Spot 1    -0.01372524     0.01388229    -0.07444800
Spot 2    -0.01354859     0.01388645    -0.07444800
20MABNDB000155_PR020
Spot 1    -0.01359330    -0.01316347    -0.07501700
Spot 2    -0.01352433    -0.01316687    -0.07501700
20MABNDB000155_PR022
Spot 1    -0.01203661    -0.01306373    -0.07501700
Spot 2    -0.01156348    -0.01306194    -0.07501700
20MABNDB000010_PR021
Spot 1    -0.01158842    -0.01289560    -0.07358200
Spot 2    -0.01153037    -0.01289161    -0.07358200
20MABNDB000010_PR023
Spot 1    -0.01312669    -0.01371391    -0.07358200
Spot 2    -0.01295188    -0.01371222    -0.07358200
20MABNDB000069_PR031
Spot 1    -0.01361993    -0.01186066    -0.07388500
Spot 2    -0.01361993    -0.01186066    -0.07388500
20MABNDB000069_PR033
Spot 1    -0.01195361    -0.01250174    -0.07388500
Spot 2    -0.01148326    -0.01250090    -0.07388500
20MABNDB000131_PR032
Spot 1    -0.01144428    -0.01300171    -0.07533000
Spot 2    -0.01138340    -0.01299802    -0.07533000
20MABNDB000131_PR034
Spot 1    -0.01329406    -0.01370482    -0.07533000
Spot 2    -0.01311784    -0.01370397    -0.07533000
20MABNDA000208_PR042
Spot 1    -0.01371645     0.01388121    -0.07273700
Spot 2    -0.01371645     0.01388121    -0.07273700
20MABNDA000208_PR046
Spot 1    -0.01216632     0.01200890    -0.07273700
Spot 2    -0.01169548     0.01200438    -0.07273700
20MABNDA000035_PR044
Spot 1    -0.01157802     0.01296922    -0.07483200
Spot 2    -0.01151865     0.01297419    -0.07483200
20MABNDA000035_PR045
Spot 1    -0.01337639     0.01371681    -0.07483200
Spot 2    -0.01319910     0.01371646    -0.07483200


*****************************************************************coordonnees du prisme dans le repere MOUNT********************************************************************************** 
20MABNDL000077_PR002
    0.05606481     0.00585288     3.70674443
    0.05608887     0.00583733     3.70674419
20MABNDL000077_PR003
   -0.02476418     0.08434060     3.89557457
   -0.02476418     0.08434060     3.89557457
20MABNDL000077_20MABNDM000168
   -0.05601290     0.07587354    -5.46843529
   -0.05599714     0.07588634    -5.46843529
20MABNDL000077_PR024
    0.04323778     0.01907567    -5.89642859
    0.04325265     0.01906919    -5.89642811
20MABNDM000020_PR013
    0.05274186    -0.08860095    -3.80153990
    0.05274186    -0.08860095    -3.80153990
20MABNDM000020_PR014
   -0.06570765    -0.00525196    -4.74841022
   -0.06571067    -0.00524269    -4.74841022
20MABNDM000020_20MABNDL000196
   -0.02688615    -0.05863850     5.39463711
    0.03294177    -0.06652020     5.39470577
20MABNDM000020_PR035
   -0.04282460    -0.00714066     5.80095291
   -0.04282151    -0.00713835     5.80095291
20MABNDM000168_PR025
    0.03844691    -0.01205962    -3.78836727
    0.03845483    -0.01206181    -3.78836727
20MABNDM000168_PR026
   -0.05797111    -0.01414422    -3.98428988
   -0.05797291    -0.01415048    -3.98428988
20MABNDM000168_20MABNDL000077
    0.01166947    -0.03881560     5.38884687
20MABNDM000168_PR001
   -0.05723154    -0.01346346     5.81470776
20MABNDL000196_PR036
    0.05147018     0.00556594     3.68776751
20MABNDL000196_PR037
   -0.04398078     0.01290352     3.88352203
20MABNDL000196_20MABNDM000020
   -0.01575799     0.03805109    -5.47473860
20MABNDL000196_PR012
    0.05223554     0.01463367    -5.91537380
20MABNDA000134_PR004
   -0.00844052     0.03819406     2.74966097
20MABNDA000334_PR005
   -0.00403239     0.03145787     2.14977312
20MABNDB000317_PR015
   -0.01660451    -0.03702018     2.75126696
20MABNDB000146_PR016
   -0.01359805    -0.03123348     2.15201759
20MABNDB000135_PR027
   -0.02084902    -0.00913124     2.74937057
20MABNDB000126_PR028
   -0.02053051    -0.03808343     2.14680481
20MABNDA000272_PR038
   -0.01341607     0.01087425     2.74965858
20MABNDA000003_PR039
   -0.00561621     0.04128810     2.14891386
20MABNDA000196_PR006
   -0.01548089     0.00868208     1.64206004
20MABNDA000324_PR007
   -0.01533445     0.03308828     2.95548677
20MABNDB000001_PR017
   -0.02353826    -0.01244326     1.64039540
20MABNDB000260_PR019
   -0.03027493    -0.03698964     2.95625687
20MABNDB000212_PR029
   -0.02477521    -0.00823662     1.64224195
20MABNDB000128_PR030
    0.01036958    -0.00005884     2.95504570
20MABNDA000444_PR040
   -0.02216628     0.02425768     1.64498305
20MABNDA000053_PR041
   -0.03540018     0.03002496     2.95464516
20MABNDA000188_PR008
    0.10933864     0.04538462     9.20419693
20MABNDA000188_PR018
   -0.01791562     0.02065432     1.28361750
20MABNDA000039_PR009
   -0.17155164     0.03030178    11.00700378
20MABNDA000039_PR011
    0.03070520    -0.02048703     3.43351364
20MABNDB000155_PR020
    0.09538022    -0.00450888     9.20036125
20MABNDB000155_PR022
   -0.02766896    -0.01367446     1.28069317
20MABNDB000010_PR021
   -0.17549759    -0.03813738    11.00694752
20MABNDB000010_PR023
    0.00442493     0.01668207     3.43380356
20MABNDB000069_PR031
    0.10999375    -0.16176865     9.20229721
20MABNDB000069_PR033
   -0.02806040    -0.02286156     1.28396380
20MABNDB000131_PR032
   -0.18785515    -0.03495411    11.00641441
20MABNDB000131_PR034
    0.01441033     0.01215642     3.43341303
20MABNDA000208_PR042
    0.11037338    -0.08822197     9.20121384
20MABNDA000208_PR046
   -0.02606158     0.03100589     1.28211308
20MABNDA000035_PR044
   -0.17939940     0.03128730    11.00802422
20MABNDA000035_PR045
    0.01468994    -0.01522227     3.43486929


*****************************************************************coordonnees du prisme dans le repere ATLAS********************************************************************************** 
20MABNDL000077_PR002 0.00000000
    2.85118985    -3.68845701     6.48601723
    2.85120535    -3.68843293     6.48601723
20MABNDL000077_PR003 0.00000000
    2.77286172    -3.76949382     6.67482471
    2.77286172    -3.76949382     6.67482471
20MABNDL000077_20MABNDM000168 0.00000000
    2.77213383    -3.78919196    -2.68922043
    2.77212095    -3.78917623    -2.68922043
20MABNDL000077_PR024 0.00000000
    2.82854342    -3.68943143    -3.11714649
    2.82855010    -3.68941665    -3.11714602
20MABNDM000020_PR013 0.00000000
   -2.76372600    -3.79224682     6.48532534
   -2.76372600    -3.79224682     6.48532534
20MABNDM000020_PR014 0.00000000
   -2.84684920    -3.67449188     7.43230247
   -2.84685850    -3.67448878     7.43230247
20MABNDM000020_20MABNDL000196 0.00000000
   -2.79550433    -3.70561552    -2.71078229
   -2.78764105    -3.76544571    -2.71089792
20MABNDM000020_PR035 0.00000000
   -2.84707856    -3.68935227    -3.11707544
   -2.84708095    -3.68935537    -3.11707544
20MABNDM000168_PR025 0.00000000
    2.84117174    -3.78377843    -6.47897911
    2.84116960    -3.78378630    -6.47897911
20MABNDM000168_PR026 0.00000000
    2.83910084    -3.68743277    -6.67493725
    2.83909464    -3.68743086    -6.67493725
20MABNDM000168_20MABNDL000077 0.00000000
    2.81497979    -3.75358152     2.69822621
20MABNDM000168_PR001 0.00000000
    2.84037614    -3.68452883     3.12405992
20MABNDL000196_PR036 0.00000000
   -2.84804153    -3.69280457    -6.47909117
20MABNDL000196_PR037 0.00000000
   -2.84066391    -3.78843403    -6.67475700
20MABNDL000196_20MABNDM000020 0.00000000
   -2.81532717    -3.75149465     2.68347287
20MABNDL000196_PR012 0.00000000
   -2.83876681    -3.68310213     3.12404513
20MABNDA000134_PR004 0.00000000
    2.61456275    -4.19698906     3.83380461
20MABNDA000334_PR005 0.00000000
    2.61696625    -4.19702959     5.89780283
20MABNDB000317_PR015 0.00000000
   -2.61200285    -4.19699192     3.83299518
20MABNDB000146_PR016 0.00000000
   -2.61269712    -4.19702005     5.89911699
20MABNDB000135_PR027 0.00000000
    2.60401440    -4.19700480    -3.82622957
20MABNDB000126_PR028 0.00000000
    2.60538626    -4.19701529    -5.89413643
20MABNDA000272_PR038 0.00000000
   -2.61112070    -4.19698286    -3.82761002
20MABNDA000003_PR039 0.00000000
   -2.61611485    -4.19702244    -5.89147854
20MABNDA000196_PR006 0.00000000
    2.58994150    -4.19496918     6.54663897
20MABNDA000324_PR007 0.00000000
    2.60398102    -4.13996458     6.94282818
20MABNDB000001_PR017 0.00000000
   -2.59724283    -4.19499016     6.54777145
20MABNDB000260_PR019 0.00000000
   -2.59848738    -4.13997126     6.94365644
20MABNDB000212_PR029 0.00000000
    2.59845304    -4.19500685    -6.54722452
20MABNDB000128_PR030 0.00000000
    2.63923764    -4.14009047    -6.97805643
20MABNDA000444_PR040 0.00000000
   -2.59734130    -4.19503117    -6.56343889
20MABNDA000053_PR041 0.00000000
   -2.58513951    -4.14004040    -6.94788790
20MABNDA000188_PR008 0.00000000
    3.52420664     3.85074425     7.96562338
20MABNDA000188_PR018 0.00000000
    3.51914382    -4.07064486     7.90276766
20MABNDA000039_PR009 0.00000000
    3.87572312     3.64745998    12.94159603
20MABNDA000039_PR011 0.00000000
    3.66431856    -3.92576361    12.88834953
20MABNDB000155_PR020 0.00000000
   -3.67403436     3.84891081     7.90236044
20MABNDB000155_PR022 0.00000000
   -3.53231287    -4.07044649     7.89438534
20MABNDB000010_PR021 0.00000000
   -3.86133099     3.64768672    12.93996620
20MABNDB000010_PR023 0.00000000
   -3.68523836    -3.92557144    12.88859367
20MABNDB000069_PR031 0.00000000
    3.69177032     3.84800911    -7.77863359
20MABNDB000069_PR033 0.00000000
    3.53223705    -4.07045364    -7.88280916
20MABNDB000131_PR032 0.00000000
    3.86865592     3.64756250   -12.94559669
20MABNDB000131_PR034 0.00000000
    3.67337775    -3.92560506   -12.89579105
20MABNDA000208_PR042 0.00000000
   -3.66039658     3.84884048    -7.99969625
20MABNDA000208_PR046 0.00000000
   -3.52970195    -4.07031202    -7.87751102
20MABNDA000035_PR044 0.00000000
   -3.86864114     3.64757967   -12.93696690
20MABNDA000035_PR045 0.00000000
   -3.67603898    -3.92561769   -12.89116192


*****************************************************************Rapport********************************************************************************** 
CAM-LBA-US_EBA-US-HO-H         2023.03.30.22.11.34     2.85119760    -3.68844497     6.48601723     0.00000775     0.00001204     0.00000000 0.00000000 VRAI 
CAM-LBA-US_JDA-US-H            2023.03.30.22.11.34     2.77286172    -3.76949382     6.67482471     0.00000000     0.00000000     0.00000000 0.00000000 VRAI 
CAM-LBA-US_CAM-LBC-US          2023.03.30.22.11.34     2.77212739    -3.78918409    -2.68922043     0.00000644     0.00000787     0.00000000 0.00000000 VRAI 
CAM-LBA-US_EBC-US-IP-H         2023.03.30.22.11.34     2.82854676    -3.68942404    -3.11714625     0.00000334     0.00000739     0.00000024 0.00000000 VRAI 
CAM-LBA-USA_EBA-USA-HO-H       2023.03.30.22.11.34    -2.76372600    -3.79224682     6.48532534     0.00000000     0.00000000     0.00000000 0.00000000 VRAI 
CAM-LBA-USA_JDA-USA-H          2023.03.30.22.11.34    -2.84685385    -3.67449033     7.43230247     0.00000465     0.00000155     0.00000000 0.00000000 VRAI 
CAM-LBA-USA_CAM-LBC-USA        2023.03.30.22.11.34    -2.79157269    -3.73553061    -2.71084011     0.00393164     0.02991509     0.00005782 0.00000000 VRAI 
CAM-LBA-USA_EBC-USA-IP-H       2023.03.30.22.11.34    -2.84707975    -3.68935382    -3.11707544     0.00000119     0.00000155     0.00000000 0.00000000 VRAI 
CAM-LBC-US_EBC-US-HO-H         2023.03.30.22.11.34     2.84117067    -3.78378236    -6.47897911     0.00000107     0.00000393     0.00000000 0.00000000 VRAI 
CAM-LBC-US_JDC-US-H            2023.03.30.22.11.34     2.83909774    -3.68743181    -6.67493725     0.00000310     0.00000095     0.00000000 0.00000000 VRAI 
CAM-LBC-US_CAM-LBA-US          2023.03.30.22.11.34     2.81497979    -3.75358152     2.69822621     0.00000000     0.00000000     0.00000000 0.00000000 VRAI 
CAM-LBC-US_EBA-US-IP-H         2023.03.30.22.11.34     2.84037614    -3.68452883     3.12405992     0.00000000     0.00000000     0.00000000 0.00000000 VRAI 
CAM-LBC-USA_EBC-USA-HO-H       2023.03.30.22.11.34    -2.84804153    -3.69280457    -6.47909117     0.00000000     0.00000000     0.00000000 0.00000000 VRAI 
CAM-LBC-USA_JDC-USA-H          2023.03.30.22.11.34    -2.84066391    -3.78843403    -6.67475700     0.00000000     0.00000000     0.00000000 0.00000000 VRAI 
CAM-LBC-USA_CAM-LBA-USA        2023.03.30.22.11.34    -2.81532717    -3.75149465     2.68347287     0.00000000     0.00000000     0.00000000 0.00000000 VRAI 
CAM-LBC-USA_EBA-USA-IP-H       2023.03.30.22.11.34    -2.83876681    -3.68310213     3.12404513     0.00000000     0.00000000     0.00000000 0.00000000 VRAI 
CAM-EBA-US-IP_EBA-US-IP        2023.03.30.22.11.34     2.61456275    -4.19698906     3.83380461     0.00000000     0.00000000     0.00000000 0.00000000 VRAI 
CAM-EBA-US-HO_EBA-US-HO        2023.03.30.22.11.34     2.61696625    -4.19702959     5.89780283     0.00000000     0.00000000     0.00000000 0.00000000 VRAI 
CAM-EBA-USA-IP_EBA-USA-IP      2023.03.30.22.11.34    -2.61200285    -4.19699192     3.83299518     0.00000000     0.00000000     0.00000000 0.00000000 VRAI 
CAM-EBA-USA-HO_EBA-USA-HO      2023.03.30.22.11.34    -2.61269712    -4.19702005     5.89911699     0.00000000     0.00000000     0.00000000 0.00000000 VRAI 
CAM-EBC-US-IP_EBC-US-IP        2023.03.30.22.11.34     2.60401440    -4.19700480    -3.82622957     0.00000000     0.00000000     0.00000000 0.00000000 VRAI 
CAM-EBC-US-HO_EBC-US-HO        2023.03.30.22.11.34     2.60538626    -4.19701529    -5.89413643     0.00000000     0.00000000     0.00000000 0.00000000 VRAI 
CAM-EBC-USA-IP_EBC-USA-IP      2023.03.30.22.11.34    -2.61112070    -4.19698286    -3.82761002     0.00000000     0.00000000     0.00000000 0.00000000 VRAI 
CAM-EBC-USA-HO_EBC-USA-HO      2023.03.30.22.11.34    -2.61611485    -4.19702244    -5.89147854     0.00000000     0.00000000     0.00000000 0.00000000 VRAI 
CAM-JDA-US-IP_JDA-US-IP        2023.03.30.22.11.34     2.58994150    -4.19496918     6.54663897     0.00000000     0.00000000     0.00000000 0.00000000 VRAI 
CAM-JDA-US-HO_JDA-US-HO        2023.03.30.22.11.34     2.60398102    -4.13996458     6.94282818     0.00000000     0.00000000     0.00000000 0.00000000 VRAI 
CAM-JDA-USA-IP_JDA-USA-IP      2023.03.30.22.11.34    -2.59724283    -4.19499016     6.54777145     0.00000000     0.00000000     0.00000000 0.00000000 VRAI 
CAM-JDA-USA-HO_JDA-USA-HO      2023.03.30.22.11.34    -2.59848738    -4.13997126     6.94365644     0.00000000     0.00000000     0.00000000 0.00000000 VRAI 
CAM-JDC-US-IP_JDC-US-IP        2023.03.30.22.11.34     2.59845304    -4.19500685    -6.54722452     0.00000000     0.00000000     0.00000000 0.00000000 VRAI 
CAM-JDC-US-HO_JDC-US-HO        2023.03.30.22.11.34     2.63923764    -4.14009047    -6.97805643     0.00000000     0.00000000     0.00000000 0.00000000 VRAI 
CAM-JDC-USA-IP_JDC-USA-IP      2023.03.30.22.11.34    -2.59734130    -4.19503117    -6.56343889     0.00000000     0.00000000     0.00000000 0.00000000 VRAI 
CAM-JDC-USA-HO_JDC-USA-HO      2023.03.30.22.11.34    -2.58513951    -4.14004040    -6.94788790     0.00000000     0.00000000     0.00000000 0.00000000 VRAI 
CAM-ECTA-US-IP_ECTA-US-IP-T    2023.03.30.22.11.34     3.52420664     3.85074425     7.96562338     0.00000000     0.00000000     0.00000000 0.00000000 VRAI 
CAM-ECTA-US-IP_ECTA-US-IP      2023.03.30.22.11.34     3.51914382    -4.07064486     7.90276766     0.00000000     0.00000000     0.00000000 0.00000000 VRAI 
CAM-ECTA-US-HO_ECTA-US-HO-T    2023.03.30.22.11.34     3.87572312     3.64745998    12.94159603     0.00000000     0.00000000     0.00000000 0.00000000 VRAI 
CAM-ECTA-US-HO_ECTA-US-HO      2023.03.30.22.11.34     3.66431856    -3.92576361    12.88834953     0.00000000     0.00000000     0.00000000 0.00000000 VRAI 
CAM-ECTA-USA-IP_ECTA-USA-IP-T  2023.03.30.22.11.34    -3.67403436     3.84891081     7.90236044     0.00000000     0.00000000     0.00000000 0.00000000 VRAI 
CAM-ECTA-USA-IP_ECTA-USA-IP    2023.03.30.22.11.34    -3.53231287    -4.07044649     7.89438534     0.00000000     0.00000000     0.00000000 0.00000000 VRAI 
CAM-ECTA-USA-HO_ECTA-USA-HO-T  2023.03.30.22.11.34    -3.86133099     3.64768672    12.93996620     0.00000000     0.00000000     0.00000000 0.00000000 VRAI 
CAM-ECTA-USA-HO_ECTA-USA-HO    2023.03.30.22.11.34    -3.68523836    -3.92557144    12.88859367     0.00000000     0.00000000     0.00000000 0.00000000 VRAI 
CAM-ECTC-US-IP_ECTC-US-IP-T    2023.03.30.22.11.34     3.69177032     3.84800911    -7.77863359     0.00000000     0.00000000     0.00000000 0.00000000 VRAI 
CAM-ECTC-US-IP_ECTC-US-IP      2023.03.30.22.11.34     3.53223705    -4.07045364    -7.88280916     0.00000000     0.00000000     0.00000000 0.00000000 VRAI 
CAM-ECTC-US-HO_ECTC-US-HO-T    2023.03.30.22.11.34     3.86865592     3.64756250   -12.94559669     0.00000000     0.00000000     0.00000000 0.00000000 VRAI 
CAM-ECTC-US-HO_ECTC-US-HO      2023.03.30.22.11.34     3.67337775    -3.92560506   -12.89579105     0.00000000     0.00000000     0.00000000 0.00000000 VRAI 
CAM-ECTC-USA-IP_ECTC-USA-IP-T  2023.03.30.22.11.34    -3.66039658     3.84884048    -7.99969625     0.00000000     0.00000000     0.00000000 0.00000000 VRAI 
CAM-ECTC-USA-IP_ECTC-USA-IP    2023.03.30.22.11.34    -3.52970195    -4.07031202    -7.87751102     0.00000000     0.00000000     0.00000000 0.00000000 VRAI 
CAM-ECTC-USA-HO_ECTC-USA-HO-T  2023.03.30.22.11.34    -3.86864114     3.64757967   -12.93696690     0.00000000     0.00000000     0.00000000 0.00000000 VRAI 
CAM-ECTC-USA-HO_ECTC-USA-HO    2023.03.30.22.11.34    -3.67603898    -3.92561769   -12.89116192     0.00000000     0.00000000     0.00000000 0.00000000 VRAI 
