********** Fichier qui contient une sauvegarde des coordonnees images + coordonnees images transformees dans le repere BCAM (MOUNT) + coordonnees des prismes dans le repere MOUNT********** 
********************************************************************** Unite en metres (m)************************************************************************************************** 

*******************************************************************coordonnees images dans le repere CCD *********************************************************************************** 
20MABNDL000077_PR002
Spot 1     0.00086500     0.00006500
Spot 2     0.00052500     0.00043500
Spot 1     0.00052500     0.00043500
Spot 2     0.00052500     0.00043500
20MABNDL000077_PR003
Spot 1     0.00223500     0.00044500
Spot 2     0.00223500     0.00044500
Spot 1     0.00166500     0.00022500
Spot 2     0.00166500     0.00022500
20MABNDL000077_20MABNDM000168
Spot 1     0.00175612     0.00118437
Spot 2     0.00075500     0.00010500
Spot 1     0.00175578     0.00118428
Spot 2     0.00075500     0.00010500
20MABNDL000077_PR024
Spot 1     0.00251512     0.00142181
Spot 2     0.00261345     0.00143295
Spot 1     0.00251490     0.00142167
Spot 2     0.00261391     0.00143238
20MABNDM000020_PR013
Spot 1     0.00044500     0.00008500
Spot 2     0.00044500     0.00008500
Spot 1     0.00044500     0.00008500
Spot 2     0.00044500     0.00008500
20MABNDM000020_PR014
Spot 1     0.00265993     0.00168433
Spot 2     0.00249794     0.00168803
Spot 1     0.00266004     0.00168472
Spot 2     0.00249829     0.00168876
20MABNDM000020_20MABNDL000196
Spot 1     0.00197589     0.00118014
Spot 2     0.00230500     0.00010500
Spot 1     0.00197575     0.00117978
Spot 2     0.00230500     0.00010500
20MABNDM000020_PR035
Spot 1     0.00126326     0.00149136
Spot 2     0.00118671     0.00152712
Spot 1     0.00126284     0.00149151
Spot 2     0.00118683     0.00152740
20MABNDM000168_PR025
Spot 1     0.00076256     0.00147417
Spot 2     0.00060531     0.00147869
Spot 1     0.00076246     0.00147431
Spot 2     0.00060525     0.00147896
20MABNDM000168_PR026
Spot 1     0.00266788     0.00142430
Spot 2     0.00250646     0.00141990
20MABNDM000168_20MABNDL000077
Spot 1     0.00154196     0.00129814
Spot 2     0.00175827     0.00130135
20MABNDM000168_PR001
Spot 1     0.00080952     0.00161763
Spot 2     0.00070679     0.00161926
20MABNDL000196_PR036
Spot 1     0.00094495     0.00164965
Spot 2     0.00110985     0.00164853
20MABNDL000196_PR037
Spot 1     0.00283305     0.00146846
Spot 2     0.00299228     0.00147116
20MABNDL000196_20MABNDM000020
Spot 1     0.00192503     0.00103910
Spot 2     0.00170431     0.00104507
20MABNDL000196_PR012
Spot 1     0.00327500     0.00013500
Spot 2     0.00272333     0.00138479
20MABNDA000134_PR004
Spot 1     0.00190764     0.00176099
Spot 2     0.00168909     0.00175374
20MABNDA000334_PR005
Spot 1     0.00248336     0.00157840
Spot 2     0.00220320     0.00157860
20MABNDB000317_PR015
Spot 1     0.00168409     0.00167746
Spot 2     0.00146354     0.00168292
20MABNDB000146_PR016
Spot 1     0.00144616     0.00131406
Spot 2     0.00172253     0.00131601
20MABNDB000135_PR027
Spot 1     0.00188451     0.00089191
Spot 2     0.00210346     0.00089507
20MABNDB000126_PR028
Spot 1     0.00193236     0.00198135
Spot 2     0.00104500     0.00043500
20MABNDA000272_PR038
Spot 1     0.00192313     0.00095150
Spot 2     0.00170093     0.00095081
20MABNDA000003_PR039
Spot 1     0.00201505     0.00193078
Spot 2     0.00229381     0.00193162
20MABNDA000196_PR006
Spot 1     0.00138753     0.00067149
Spot 2     0.00175350     0.00067392
20MABNDA000324_PR007
Spot 1     0.00199745     0.00134173
Spot 2     0.00220353     0.00133780
20MABNDB000001_PR017
Spot 1     0.00185767     0.00088626
Spot 2     0.00222796     0.00089076
20MABNDB000260_PR019
Spot 1     0.00206716     0.00145820
Spot 2     0.00137500     0.00056500
20MABNDB000212_PR029
Spot 1     0.00220762     0.00069143
Spot 2     0.00184457     0.00068920
20MABNDB000128_PR030
Spot 1     0.00268564     0.00161651
Spot 2     0.00248748     0.00161894
20MABNDA000444_PR040
Spot 1     0.00179540     0.00069540
Spot 2    -0.00000100    -0.00000100
20MABNDA000053_PR041
Spot 1     0.00123574     0.00144405
Spot 2     0.00144074     0.00144500
20MABNDA000188_PR008
Spot 1     0.00297500     0.00011500
Spot 2     0.00297500     0.00011500
20MABNDA000188_PR018
Spot 1     0.00170980     0.00167225
Spot 2     0.00124235     0.00167013
20MABNDA000039_PR009
Spot 1     0.00066493     0.00117832
Spot 2     0.00061500     0.00118247
20MABNDA000039_PR011
Spot 1     0.00276961     0.00028137
Spot 2     0.00259313     0.00027608
20MABNDB000155_PR020
Spot 1     0.00061912     0.00112486
Spot 2     0.00068887     0.00112054
20MABNDB000155_PR022
Spot 1     0.00211949     0.00141172
Spot 2     0.00259275     0.00140697
20MABNDB000010_PR021
Spot 1     0.00286656     0.00115094
Spot 2     0.00292456     0.00115465
20MABNDB000010_PR023
Spot 1     0.00131186     0.00030149
Spot 2     0.00148799     0.00029950
20MABNDB000069_PR031
Spot 1     0.00021500     0.00240500
Spot 2     0.00021500     0.00240500
20MABNDB000069_PR033
Spot 1     0.00183047     0.00206632
Spot 2     0.00230059     0.00208623
20MABNDB000131_PR032
Spot 1     0.00277702     0.00108087
Spot 2     0.00283748     0.00108370
20MABNDB000131_PR034
Spot 1     0.00092086     0.00032532
Spot 2     0.00109733     0.00032450
20MABNDA000208_PR042
Spot 1     0.00284500     0.00011500
Spot 2     0.00284500     0.00011500
20MABNDA000208_PR046
Spot 1     0.00143922     0.00222041
Spot 2     0.00096894     0.00222362
20MABNDA000035_PR044
Spot 1     0.00074447     0.00125787
Spot 2     0.00068365     0.00125278
20MABNDA000035_PR045
Spot 1     0.00254757     0.00046752
Spot 2     0.00237019     0.00046665


****************************************************************coordonnees images transformees dans le repere MOUNT************************************************************************* 
20MABNDL000077_PR002
Spot 1     0.01192151     0.03413986    -0.07463200
Spot 2     0.01158509     0.03451311    -0.07463200
Spot 1     0.01158509     0.03451311    -0.07463200
Spot 2     0.01158509     0.03451311    -0.07463200
20MABNDL000077_PR003
Spot 1     0.01329511     0.03450666    -0.07463200
Spot 2     0.01329511     0.03450666    -0.07463200
Spot 1     0.01272301     0.03429215    -0.07463200
Spot 2     0.01272301     0.03429215    -0.07463200
20MABNDL000077_20MABNDM000168
Spot 1    -0.01259127     0.03524737    -0.00695400
Spot 2    -0.01157915     0.03417830    -0.00695400
Spot 1    -0.01259092     0.03524728    -0.00695400
Spot 2    -0.01157915     0.03417830    -0.00695400
20MABNDL000077_PR024
Spot 1    -0.01335266     0.03547702    -0.00695400
Spot 2    -0.01345109     0.03548716    -0.00695400
Spot 1    -0.01335243     0.03547689    -0.00695400
Spot 2    -0.01345155     0.03548658    -0.00695400
20MABNDM000020_PR013
Spot 1    -0.01394554    -0.03407018    -0.00523500
Spot 2    -0.01394554    -0.03407018    -0.00523500
Spot 1    -0.01394554    -0.03407018    -0.00523500
Spot 2    -0.01394554    -0.03407018    -0.00523500
20MABNDM000020_PR014
Spot 1    -0.01169578    -0.03562013    -0.00523500
Spot 2    -0.01185765    -0.03562742    -0.00523500
Spot 1    -0.01169566    -0.03562052    -0.00523500
Spot 2    -0.01185729    -0.03562814    -0.00523500
20MABNDM000020_20MABNDL000196
Spot 1     0.01271039    -0.03514870    -0.07583800
Spot 2     0.01238113    -0.03407361    -0.07583800
Spot 1     0.01271053    -0.03514834    -0.07583800
Spot 2     0.01238113    -0.03407361    -0.07583800
20MABNDM000020_PR035
Spot 1     0.01342306    -0.03545982    -0.07583800
Spot 2     0.01349962    -0.03549557    -0.07583800
Spot 1     0.01342348    -0.03545997    -0.07583800
Spot 2     0.01349950    -0.03549585    -0.07583800
20MABNDM000168_PR025
Spot 1    -0.01363956    -0.03581313    -0.00532900
Spot 2    -0.01379679    -0.03581833    -0.00532900
Spot 1    -0.01363966    -0.03581327    -0.00532900
Spot 2    -0.01379685    -0.03581860    -0.00532900
20MABNDM000168_PR026
Spot 1    -0.01173448    -0.03575508    -0.00532900
Spot 2    -0.01189591    -0.03575137    -0.00532900
20MABNDM000168_20MABNDL000077
Spot 1     0.01288353    -0.03529877    -0.07445100
Spot 2     0.01266720    -0.03529881    -0.07445100
20MABNDM000168_PR001
Spot 1     0.01361122    -0.03562894    -0.07445100
Spot 2     0.01371391    -0.03563207    -0.07445100
20MABNDL000196_PR036
Spot 1     0.01192485     0.03583834    -0.07483600
Spot 2     0.01208976     0.03583757    -0.07483600
20MABNDL000196_PR037
Spot 1     0.01381333     0.03566109    -0.07483600
Spot 2     0.01397255     0.03566413    -0.07483600
20MABNDL000196_20MABNDM000020
Spot 1    -0.01274903     0.03531032    -0.00611000
Spot 2    -0.01252848     0.03532073    -0.00611000
20MABNDL000196_PR012
Spot 1    -0.01408054     0.03437924    -0.00611000
Spot 2    -0.01355413     0.03563988    -0.00611000
20MABNDA000134_PR004
Spot 1    -0.01287838     0.01241185    -0.07608400
Spot 2    -0.01265971     0.01241303    -0.07608400
20MABNDA000334_PR005
Spot 1    -0.01312646     0.01255000    -0.07324100
Spot 2    -0.01284630     0.01254954    -0.07324100
20MABNDB000317_PR015
Spot 1    -0.01247112    -0.01241830    -0.07326100
Spot 2    -0.01269171    -0.01241541    -0.07326100
20MABNDB000146_PR016
Spot 1    -0.01276216    -0.01247955    -0.07450500
Spot 2    -0.01248580    -0.01247699    -0.07450500
20MABNDB000135_PR027
Spot 1    -0.01252043    -0.01322104    -0.07464700
Spot 2    -0.01230146    -0.01322031    -0.07464700
20MABNDB000126_PR028
Spot 1    -0.01224703    -0.01219928    -0.07500400
Spot 2    -0.01312612    -0.01375035    -0.07500400
20MABNDA000272_PR038
Spot 1    -0.01275878     0.01315997    -0.07417900
Spot 2    -0.01253658     0.01316026    -0.07417900
20MABNDA000003_PR039
Spot 1    -0.01281615     0.01212152    -0.07373400
Spot 2    -0.01309491     0.01212139    -0.07373400
20MABNDA000196_PR006
Spot 1    -0.01234154     0.01329904    -0.07967100
Spot 2    -0.01270751     0.01330131    -0.07967100
20MABNDA000324_PR007
Spot 1    -0.01260215     0.01267946    -0.07446800
Spot 2    -0.01280825     0.01268178    -0.07446800
20MABNDB000001_PR017
Spot 1    -0.01232595    -0.01310298    -0.07418400
Spot 2    -0.01195564    -0.01310240    -0.07418400
20MABNDB000260_PR019
Spot 1    -0.01226330    -0.01244137    -0.07492700
Spot 2    -0.01293700    -0.01334857    -0.07492700
20MABNDB000212_PR029
Spot 1    -0.01188033    -0.01328956    -0.07390500
Spot 2    -0.01224338    -0.01328791    -0.07390500
20MABNDB000128_PR030
Spot 1    -0.01166816    -0.01259809    -0.07353400
Spot 2    -0.01186632    -0.01259634    -0.07353400
20MABNDA000444_PR040
Spot 1    -0.01273081     0.01332111    -0.07412000
Spot 2    -0.01094339     0.01404026    -0.07412000
20MABNDA000053_PR041
Spot 1    -0.01198181     0.01265816    -0.07430100
Spot 2    -0.01218679     0.01266121    -0.07430100
20MABNDA000188_PR008
Spot 1    -0.01399107     0.01394961    -0.07502000
Spot 2    -0.01399107     0.01394961    -0.07502000
20MABNDA000188_PR018
Spot 1    -0.01273925     0.01238158    -0.07502000
Spot 2    -0.01227180     0.01237970    -0.07502000
20MABNDA000039_PR009
Spot 1    -0.01162707     0.01306582    -0.07444800
Spot 2    -0.01157716     0.01306145    -0.07444800
20MABNDA000039_PR011
Spot 1    -0.01372785     0.01397187    -0.07444800
Spot 2    -0.01355135     0.01397639    -0.07444800
20MABNDB000155_PR020
Spot 1    -0.01364697    -0.01313252    -0.07501700
Spot 2    -0.01357717    -0.01313588    -0.07501700
20MABNDB000155_PR022
Spot 1    -0.01215067    -0.01282515    -0.07501700
Spot 2    -0.01167739    -0.01282342    -0.07501700
20MABNDB000010_PR021
Spot 1    -0.01158441    -0.01292761    -0.07358200
Spot 2    -0.01152648    -0.01292292    -0.07358200
20MABNDB000010_PR023
Spot 1    -0.01312450    -0.01380327    -0.07358200
Spot 2    -0.01294836    -0.01380228    -0.07358200
20MABNDB000069_PR031
Spot 1    -0.01361993    -0.01186066    -0.07388500
Spot 2    -0.01361993    -0.01186066    -0.07388500
20MABNDB000069_PR033
Spot 1    -0.01201981    -0.01226572    -0.07388500
Spot 2    -0.01154927    -0.01226523    -0.07388500
20MABNDB000131_PR032
Spot 1    -0.01144315    -0.01303388    -0.07533000
Spot 2    -0.01138270    -0.01303075    -0.07533000
20MABNDB000131_PR034
Spot 1    -0.01329548    -0.01379877    -0.07533000
Spot 2    -0.01311901    -0.01379870    -0.07533000
20MABNDA000208_PR042
Spot 1    -0.01371645     0.01388121    -0.07273700
Spot 2    -0.01371645     0.01388121    -0.07273700
20MABNDA000208_PR046
Spot 1    -0.01230883     0.01177703    -0.07273700
Spot 2    -0.01183855     0.01177423    -0.07273700
20MABNDA000035_PR044
Spot 1    -0.01157912     0.01299942    -0.07483200
Spot 2    -0.01151827     0.01300408    -0.07483200
20MABNDA000035_PR045
Spot 1    -0.01337656     0.01380258    -0.07483200
Spot 2    -0.01319917     0.01380219    -0.07483200


*****************************************************************coordonnees du prisme dans le repere MOUNT********************************************************************************** 
20MABNDL000077_PR002
    0.05906443     0.08293606     3.70653439
    0.06737348     0.07371713     3.70652628
20MABNDL000077_PR003
   -0.01861569     0.07597603     3.89572382
    0.01108603     0.08711259     3.89571905
20MABNDL000077_20MABNDM000168
   -0.05601418     0.07578685    -5.46843529
   -0.05602649     0.07578997    -5.46843529
20MABNDL000077_PR024
    0.04320029     0.01896730    -5.89642859
    0.04320936     0.01899507    -5.89642859
20MABNDM000020_PR013
    0.05274186    -0.08860095    -3.80153990
    0.05274186    -0.08860095    -3.80153990
20MABNDM000020_PR014
   -0.06559706    -0.00531395    -4.74841166
   -0.06561214    -0.00527943    -4.74841118
20MABNDM000020_20MABNDL000196
    0.02681225    -0.07117035     5.39469719
    0.02680724    -0.07118325     5.39469719
20MABNDM000020_PR035
   -0.04267552    -0.00705588     5.80095387
   -0.04268708    -0.00703932     5.80095387
20MABNDM000168_PR025
    0.03849115    -0.01222705    -3.78836775
    0.03849506    -0.01221690    -3.78836775
20MABNDM000168_PR026
   -0.05787136    -0.01422240    -3.98429132
20MABNDM000168_20MABNDL000077
    0.01158409    -0.03895411     5.38884640
20MABNDM000168_PR001
   -0.05729049    -0.01346570     5.81470680
20MABNDL000196_PR036
    0.05141148     0.00546246     3.68776751
20MABNDL000196_PR037
   -0.04403636     0.01291038     3.88352108
20MABNDL000196_20MABNDM000020
   -0.01574191     0.03803775    -5.47473907
20MABNDL000196_PR012
    0.07561225     0.06197888    -5.91504860
20MABNDA000134_PR004
   -0.00832418     0.03811834     2.74966145
20MABNDA000334_PR005
   -0.00397665     0.03146982     2.14977264
20MABNDB000317_PR015
   -0.01647267    -0.03702028     2.75126696
20MABNDB000146_PR016
   -0.01349433    -0.03125769     2.15201735
20MABNDB000135_PR027
   -0.02076959    -0.00899717     2.74937057
20MABNDB000126_PR028
   -0.01198885    -0.01606193     2.14696264
20MABNDA000272_PR038
   -0.01324100     0.01081439     2.74965858
20MABNDA000003_PR039
   -0.00551711     0.04137029     2.14891243
20MABNDA000196_PR006
   -0.01549778     0.00878794     1.64206028
20MABNDA000324_PR007
   -0.01524023     0.03284146     2.95548868
20MABNDB000001_PR017
   -0.02362351    -0.01257691     1.64039493
20MABNDB000260_PR019
   -0.01282056    -0.01877171     2.95640063
20MABNDB000212_PR029
   -0.02480033    -0.00823723     1.64224184
20MABNDB000128_PR030
   -0.04229262    -0.03191367     2.95495367
20MABNDA000444_PR040
   -0.03092892     0.00078068     1.64490008
20MABNDA000053_PR041
   -0.03533894     0.02984291     2.95464659
20MABNDA000188_PR008
    0.14616936    -0.09611703     9.20304298
20MABNDA000188_PR018
   -0.01597182     0.02472495     1.28359365
20MABNDA000039_PR009
   -0.17120469     0.02534420    11.00701523
20MABNDA000039_PR011
    0.03082721    -0.02458120     3.43346977
20MABNDB000155_PR020
    0.10191801    -0.00831141     9.20028496
20MABNDB000155_PR022
   -0.02572115    -0.01775137     1.28070629
20MABNDB000010_PR021
   -0.17607865    -0.03348280    11.00694847
20MABNDB000010_PR023
    0.00429380     0.02079606     3.43376637
20MABNDB000069_PR031
    0.10999375    -0.16176865     9.20229721
20MABNDB000069_PR033
   -0.02692955    -0.02689511     1.28393984
20MABNDB000131_PR032
   -0.18798873    -0.03021201    11.00642014
20MABNDB000131_PR034
    0.01446886     0.01645639     3.43337798
20MABNDA000208_PR042
    0.11037338    -0.08822197     9.20121384
20MABNDA000208_PR046
   -0.02362107     0.03495302     1.28207493
20MABNDA000035_PR044
   -0.17934665     0.02689243    11.00803185
20MABNDA000035_PR045
    0.01469514    -0.01913545     3.43483472


*****************************************************************coordonnees du prisme dans le repere ATLAS********************************************************************************** 
20MABNDL000077_PR002 0.00000000
    2.77410746    -3.68543243     6.48588657
    2.78332901    -3.67712641     6.48587990
20MABNDL000077_PR003 0.00000000
    2.78122830    -3.76334810     6.67497301
    2.77010131    -3.73364305     6.67501593
20MABNDL000077_20MABNDM000168 0.00000000
    2.77222061    -3.78919339    -2.68922043
    2.77221727    -3.78920555    -2.68922043
20MABNDL000077_PR024 0.00000000
    2.82865191    -3.68946886    -3.11714649
    2.82862401    -3.68945980    -3.11714649
20MABNDM000020_PR013 0.00000000
   -2.76372600    -3.79224682     6.48532534
   -2.76372600    -3.79224682     6.48532534
20MABNDM000020_PR014 0.00000000
   -2.84678721    -3.67460251     7.43230343
   -2.84682178    -3.67458749     7.43230295
20MABNDM000020_20MABNDL000196 0.00000000
   -2.78298879    -3.75931764    -2.71088576
   -2.78297591    -3.75931263    -2.71088576
20MABNDM000020_PR035 0.00000000
   -2.84716344    -3.68950129    -3.11707664
   -2.84717989    -3.68948984    -3.11707664
20MABNDM000168_PR025 0.00000000
    2.84100437    -3.78382254    -6.47897959
    2.84101462    -3.78382659    -6.47897959
20MABNDM000168_PR026 0.00000000
    2.83902264    -3.68753242    -6.67493868
20MABNDM000168_20MABNDL000077 0.00000000
    2.81484151    -3.75349617     2.69822574
20MABNDM000168_PR001 0.00000000
    2.84037375    -3.68446994     3.12405896
20MABNDL000196_PR036 0.00000000
   -2.84814501    -3.69286323    -6.47909117
20MABNDL000196_PR037 0.00000000
   -2.84065700    -3.78848958    -6.67475605
20MABNDL000196_20MABNDM000020 0.00000000
   -2.81534052    -3.75147843     2.68347335
20MABNDL000196_PR012 0.00000000
   -2.79143238    -3.65970373     3.12369728
20MABNDA000134_PR004 0.00000000
    2.61467910    -4.19698954     3.83388019
20MABNDA000334_PR005 0.00000000
    2.61702180    -4.19703007     5.89779091
20MABNDB000317_PR015 0.00000000
   -2.61213470    -4.19699192     3.83299518
20MABNDB000146_PR016 0.00000000
   -2.61280084    -4.19702053     5.89909267
20MABNDB000135_PR027 0.00000000
    2.60409403    -4.19700480    -3.82636356
20MABNDB000126_PR028 0.00000000
    2.61391687    -4.19695616    -5.91616249
20MABNDA000272_PR038 0.00000000
   -2.61129594    -4.19698286    -3.82766986
20MABNDA000003_PR039 0.00000000
   -2.61621404    -4.19702339    -5.89139652
20MABNDA000196_PR006 0.00000000
    2.58995843    -4.19496870     6.54674482
20MABNDA000324_PR007 0.00000000
    2.60407519    -4.13996267     6.94307470
20MABNDB000001_PR017 0.00000000
   -2.59732819    -4.19499016     6.54790497
20MABNDB000260_PR019 0.00000000
   -2.61594820    -4.13986349     6.96186829
20MABNDB000212_PR029 0.00000000
    2.59847808    -4.19500685    -6.54722500
20MABNDB000128_PR030 0.00000000
    2.58656907    -4.14004183    -6.94621181
20MABNDA000444_PR040 0.00000000
   -2.60610151    -4.19510937    -6.53996086
20MABNDA000053_PR041 0.00000000
   -2.58520079    -4.14003944    -6.94807005
20MABNDA000188_PR008 0.00000000
    3.55893064     3.84859109     8.10764503
20MABNDA000188_PR018 0.00000000
    3.52114844    -4.07059383     7.89872694
20MABNDA000039_PR009 0.00000000
    3.87537670     3.64747334    12.93663788
20MABNDA000039_PR011 0.00000000
    3.66419697    -3.92580605    12.88425541
20MABNDB000155_PR020 0.00000000
   -3.68057060     3.84881854     7.89855576
20MABNDB000155_PR022 0.00000000
   -3.53425932    -4.07043839     7.89030790
20MABNDB000010_PR021 0.00000000
   -3.86191607     3.64768577    12.93531227
20MABNDB000010_PR023 0.00000000
   -3.68537307    -3.92561054    12.88447952
20MABNDB000069_PR031 0.00000000
    3.69177032     3.84800911    -7.77863359
20MABNDB000069_PR033 0.00000000
    3.53336978    -4.07046318    -7.87877607
20MABNDB000131_PR032 0.00000000
    3.86879110     3.64757013   -12.94085503
20MABNDB000131_PR034 0.00000000
    3.67332053    -3.92563868   -12.89149094
20MABNDA000208_PR042 0.00000000
   -3.66039658     3.84884048    -7.99969625
20MABNDA000208_PR046 0.00000000
   -3.53214455    -4.07034731    -7.87356520
20MABNDA000035_PR044 0.00000000
   -3.86858773     3.64758706   -12.93257141
20MABNDA000035_PR045 0.00000000
   -3.67603326    -3.92565250   -12.88724899


*****************************************************************Rapport********************************************************************************** 
CAM-LBA-US_EBA-US-HO-H         2023.09.22.06.20.50     2.77871823    -3.68127942     6.48588324     0.00461078     0.00415301     0.00000334 0.00000000 VRAI 
CAM-LBA-US_JDA-US-H            2023.09.22.06.20.50     2.77566481    -3.74849558     6.67499447     0.00556350     0.01485252     0.00002146 0.00000000 VRAI 
CAM-LBA-US_CAM-LBC-US          2023.09.22.06.20.50     2.77221894    -3.78919947    -2.68922043     0.00000167     0.00000608     0.00000000 0.00000000 VRAI 
CAM-LBA-US_EBC-US-IP-H         2023.09.22.06.20.50     2.82863796    -3.68946433    -3.11714649     0.00001395     0.00000453     0.00000000 0.00000000 VRAI 
CAM-LBA-USA_EBA-USA-HO-H       2023.09.22.06.20.50    -2.76372600    -3.79224682     6.48532534     0.00000000     0.00000000     0.00000000 0.00000000 VRAI 
CAM-LBA-USA_JDA-USA-H          2023.09.22.06.20.50    -2.84680450    -3.67459500     7.43230319     0.00001729     0.00000751     0.00000024 0.00000000 VRAI 
CAM-LBA-USA_CAM-LBC-USA        2023.09.22.06.20.50    -2.78298235    -3.75931513    -2.71088576     0.00000644     0.00000250     0.00000000 0.00000000 VRAI 
CAM-LBA-USA_EBC-USA-IP-H       2023.09.22.06.20.50    -2.84717166    -3.68949556    -3.11707664     0.00000823     0.00000572     0.00000000 0.00000000 VRAI 
CAM-LBC-US_EBC-US-HO-H         2023.09.22.06.20.50     2.84100950    -3.78382456    -6.47897959     0.00000513     0.00000203     0.00000000 0.00000000 VRAI 
CAM-LBC-US_JDC-US-H            2023.09.22.06.20.50     2.83902264    -3.68753242    -6.67493868     0.00000000     0.00000000     0.00000000 0.00000000 VRAI 
CAM-LBC-US_CAM-LBA-US          2023.09.22.06.20.50     2.81484151    -3.75349617     2.69822574     0.00000000     0.00000000     0.00000000 0.00000000 VRAI 
CAM-LBC-US_EBA-US-IP-H         2023.09.22.06.20.50     2.84037375    -3.68446994     3.12405896     0.00000000     0.00000000     0.00000000 0.00000000 VRAI 
CAM-LBC-USA_EBC-USA-HO-H       2023.09.22.06.20.50    -2.84814501    -3.69286323    -6.47909117     0.00000000     0.00000000     0.00000000 0.00000000 VRAI 
CAM-LBC-USA_JDC-USA-H          2023.09.22.06.20.50    -2.84065700    -3.78848958    -6.67475605     0.00000000     0.00000000     0.00000000 0.00000000 VRAI 
CAM-LBC-USA_CAM-LBA-USA        2023.09.22.06.20.50    -2.81534052    -3.75147843     2.68347335     0.00000000     0.00000000     0.00000000 0.00000000 VRAI 
CAM-LBC-USA_EBA-USA-IP-H       2023.09.22.06.20.50    -2.79143238    -3.65970373     3.12369728     0.00000000     0.00000000     0.00000000 0.00000000 VRAI 
CAM-EBA-US-IP_EBA-US-IP        2023.09.22.06.20.50     2.61467910    -4.19698954     3.83388019     0.00000000     0.00000000     0.00000000 0.00000000 VRAI 
CAM-EBA-US-HO_EBA-US-HO        2023.09.22.06.20.50     2.61702180    -4.19703007     5.89779091     0.00000000     0.00000000     0.00000000 0.00000000 VRAI 
CAM-EBA-USA-IP_EBA-USA-IP      2023.09.22.06.20.50    -2.61213470    -4.19699192     3.83299518     0.00000000     0.00000000     0.00000000 0.00000000 VRAI 
CAM-EBA-USA-HO_EBA-USA-HO      2023.09.22.06.20.50    -2.61280084    -4.19702053     5.89909267     0.00000000     0.00000000     0.00000000 0.00000000 VRAI 
CAM-EBC-US-IP_EBC-US-IP        2023.09.22.06.20.50     2.60409403    -4.19700480    -3.82636356     0.00000000     0.00000000     0.00000000 0.00000000 VRAI 
CAM-EBC-US-HO_EBC-US-HO        2023.09.22.06.20.50     2.61391687    -4.19695616    -5.91616249     0.00000000     0.00000000     0.00000000 0.00000000 VRAI 
CAM-EBC-USA-IP_EBC-USA-IP      2023.09.22.06.20.50    -2.61129594    -4.19698286    -3.82766986     0.00000000     0.00000000     0.00000000 0.00000000 VRAI 
CAM-EBC-USA-HO_EBC-USA-HO      2023.09.22.06.20.50    -2.61621404    -4.19702339    -5.89139652     0.00000000     0.00000000     0.00000000 0.00000000 VRAI 
CAM-JDA-US-IP_JDA-US-IP        2023.09.22.06.20.50     2.58995843    -4.19496870     6.54674482     0.00000000     0.00000000     0.00000000 0.00000000 VRAI 
CAM-JDA-US-HO_JDA-US-HO        2023.09.22.06.20.50     2.60407519    -4.13996267     6.94307470     0.00000000     0.00000000     0.00000000 0.00000000 VRAI 
CAM-JDA-USA-IP_JDA-USA-IP      2023.09.22.06.20.50    -2.59732819    -4.19499016     6.54790497     0.00000000     0.00000000     0.00000000 0.00000000 VRAI 
CAM-JDA-USA-HO_JDA-USA-HO      2023.09.22.06.20.50    -2.61594820    -4.13986349     6.96186829     0.00000000     0.00000000     0.00000000 0.00000000 VRAI 
CAM-JDC-US-IP_JDC-US-IP        2023.09.22.06.20.50     2.59847808    -4.19500685    -6.54722500     0.00000000     0.00000000     0.00000000 0.00000000 VRAI 
CAM-JDC-US-HO_JDC-US-HO        2023.09.22.06.20.50     2.58656907    -4.14004183    -6.94621181     0.00000000     0.00000000     0.00000000 0.00000000 VRAI 
CAM-JDC-USA-IP_JDC-USA-IP      2023.09.22.06.20.50    -2.60610151    -4.19510937    -6.53996086     0.00000000     0.00000000     0.00000000 0.00000000 VRAI 
CAM-JDC-USA-HO_JDC-USA-HO      2023.09.22.06.20.50    -2.58520079    -4.14003944    -6.94807005     0.00000000     0.00000000     0.00000000 0.00000000 VRAI 
CAM-ECTA-US-IP_ECTA-US-IP-T    2023.09.22.06.20.50     3.55893064     3.84859109     8.10764503     0.00000000     0.00000000     0.00000000 0.00000000 VRAI 
CAM-ECTA-US-IP_ECTA-US-IP      2023.09.22.06.20.50     3.52114844    -4.07059383     7.89872694     0.00000000     0.00000000     0.00000000 0.00000000 VRAI 
CAM-ECTA-US-HO_ECTA-US-HO-T    2023.09.22.06.20.50     3.87537670     3.64747334    12.93663788     0.00000000     0.00000000     0.00000000 0.00000000 VRAI 
CAM-ECTA-US-HO_ECTA-US-HO      2023.09.22.06.20.50     3.66419697    -3.92580605    12.88425541     0.00000000     0.00000000     0.00000000 0.00000000 VRAI 
CAM-ECTA-USA-IP_ECTA-USA-IP-T  2023.09.22.06.20.50    -3.68057060     3.84881854     7.89855576     0.00000000     0.00000000     0.00000000 0.00000000 VRAI 
CAM-ECTA-USA-IP_ECTA-USA-IP    2023.09.22.06.20.50    -3.53425932    -4.07043839     7.89030790     0.00000000     0.00000000     0.00000000 0.00000000 VRAI 
CAM-ECTA-USA-HO_ECTA-USA-HO-T  2023.09.22.06.20.50    -3.86191607     3.64768577    12.93531227     0.00000000     0.00000000     0.00000000 0.00000000 VRAI 
CAM-ECTA-USA-HO_ECTA-USA-HO    2023.09.22.06.20.50    -3.68537307    -3.92561054    12.88447952     0.00000000     0.00000000     0.00000000 0.00000000 VRAI 
CAM-ECTC-US-IP_ECTC-US-IP-T    2023.09.22.06.20.50     3.69177032     3.84800911    -7.77863359     0.00000000     0.00000000     0.00000000 0.00000000 VRAI 
CAM-ECTC-US-IP_ECTC-US-IP      2023.09.22.06.20.50     3.53336978    -4.07046318    -7.87877607     0.00000000     0.00000000     0.00000000 0.00000000 VRAI 
CAM-ECTC-US-HO_ECTC-US-HO-T    2023.09.22.06.20.50     3.86879110     3.64757013   -12.94085503     0.00000000     0.00000000     0.00000000 0.00000000 VRAI 
CAM-ECTC-US-HO_ECTC-US-HO      2023.09.22.06.20.50     3.67332053    -3.92563868   -12.89149094     0.00000000     0.00000000     0.00000000 0.00000000 VRAI 
CAM-ECTC-USA-IP_ECTC-USA-IP-T  2023.09.22.06.20.50    -3.66039658     3.84884048    -7.99969625     0.00000000     0.00000000     0.00000000 0.00000000 VRAI 
CAM-ECTC-USA-IP_ECTC-USA-IP    2023.09.22.06.20.50    -3.53214455    -4.07034731    -7.87356520     0.00000000     0.00000000     0.00000000 0.00000000 VRAI 
CAM-ECTC-USA-HO_ECTC-USA-HO-T  2023.09.22.06.20.50    -3.86858773     3.64758706   -12.93257141     0.00000000     0.00000000     0.00000000 0.00000000 VRAI 
CAM-ECTC-USA-HO_ECTC-USA-HO    2023.09.22.06.20.50    -3.67603326    -3.92565250   -12.88724899     0.00000000     0.00000000     0.00000000 0.00000000 VRAI 
