********** Fichier qui contient une sauvegarde des coordonnees images + coordonnees images transformees dans le repere BCAM (MOUNT) + coordonnees des prismes dans le repere MOUNT********** 
********************************************************************** Unite en metres (m)************************************************************************************************** 

*******************************************************************coordonnees images dans le repere CCD *********************************************************************************** 
20MABNDL000077_PR002
Spot 1     0.00097250     0.00160650
Spot 2     0.00100111     0.00147333
Spot 1     0.00097125     0.00160625
Spot 2     0.00100029     0.00147324
20MABNDL000077_PR003
Spot 1     0.00235500     0.00028500
Spot 2     0.00235500     0.00028500
Spot 1     0.00235500     0.00028500
Spot 2     0.00235500     0.00028500
20MABNDL000077_20MABNDM000168
Spot 1     0.00175449     0.00118275
Spot 2     0.00075500     0.00010500
Spot 1     0.00175437     0.00118283
Spot 2     0.00075500     0.00010500
20MABNDL000077_PR024
Spot 1     0.00251382     0.00142036
Spot 2     0.00261366     0.00143032
Spot 1     0.00251363     0.00142042
Spot 2     0.00261353     0.00143058
20MABNDM000020_PR013
Spot 1     0.00044500     0.00008500
Spot 2     0.00044500     0.00008500
Spot 1     0.00044500     0.00008500
Spot 2     0.00044500     0.00008500
20MABNDM000020_PR014
Spot 1     0.00265948     0.00168439
Spot 2     0.00249596     0.00168766
Spot 1     0.00265962     0.00168462
Spot 2     0.00249580     0.00168795
20MABNDM000020_20MABNDL000196
Spot 1     0.00197928     0.00118055
Spot 2     0.00230500     0.00010500
Spot 1     0.00197937     0.00118010
Spot 2     0.00230500     0.00010500
20MABNDM000020_PR035
Spot 1     0.00126411     0.00148950
Spot 2     0.00118986     0.00152687
20MABNDM000168_PR025
Spot 1     0.00076444     0.00147461
Spot 2     0.00060638     0.00147952
20MABNDM000168_PR026
Spot 1     0.00266932     0.00142478
Spot 2     0.00250742     0.00142112
20MABNDM000168_20MABNDL000077
Spot 1     0.00154330     0.00129868
Spot 2     0.00176100     0.00130555
20MABNDM000168_PR001
Spot 1     0.00081042     0.00161802
Spot 2     0.00070701     0.00162000
20MABNDL000196_PR036
Spot 1     0.00094386     0.00164821
Spot 2     0.00110923     0.00164747
20MABNDL000196_PR037
Spot 1     0.00283138     0.00146761
Spot 2     0.00299111     0.00147045
20MABNDL000196_20MABNDM000020
Spot 1     0.00192308     0.00103949
Spot 2     0.00170157     0.00104539
20MABNDL000196_PR012
Spot 1     0.00327500     0.00013500
Spot 2     0.00272111     0.00138514
20MABNDA000134_PR004
Spot 1     0.00191118     0.00176080
Spot 2     0.00169112     0.00175306
20MABNDA000334_PR005
Spot 1     0.00248473     0.00157818
Spot 2     0.00220433     0.00157849
20MABNDB000317_PR015
Spot 1     0.00168054     0.00167781
Spot 2     0.00145936     0.00168163
20MABNDB000146_PR016
Spot 1     0.00144480     0.00131470
Spot 2     0.00172134     0.00131741
20MABNDB000135_PR027
Spot 1     0.00188171     0.00089064
Spot 2     0.00210115     0.00089398
20MABNDB000126_PR028
Spot 1     0.00193154     0.00198149
Spot 2    -0.00000100    -0.00000100
20MABNDA000272_PR038
Spot 1     0.00192611     0.00095130
Spot 2     0.00170242     0.00095015
20MABNDA000003_PR039
Spot 1     0.00201569     0.00193144
Spot 2     0.00229447     0.00193228
20MABNDA000196_PR006
Spot 1     0.00138602     0.00067102
Spot 2     0.00175190     0.00067369
20MABNDA000324_PR007
Spot 1     0.00199761     0.00134142
Spot 2     0.00220448     0.00133583
20MABNDB000001_PR017
Spot 1     0.00185935     0.00088507
Spot 2     0.00222890     0.00088910
20MABNDB000260_PR019
Spot 1     0.00206600     0.00145822
Spot 2     0.00227250     0.00145750
20MABNDB000212_PR029
Spot 1     0.00220885     0.00069122
Spot 2     0.00184579     0.00068895
20MABNDB000128_PR030
Spot 1     0.00268472     0.00161600
Spot 2     0.00248679     0.00161864
20MABNDA000444_PR040
Spot 1     0.00179308     0.00069392
Spot 2     0.00250500     0.00052500
20MABNDA000053_PR041
Spot 1     0.00123694     0.00144397
Spot 2     0.00144295     0.00144414
20MABNDA000188_PR008
Spot 1     0.00297500     0.00011500
Spot 2     0.00297500     0.00011500
20MABNDA000188_PR018
Spot 1     0.00170927     0.00167177
Spot 2     0.00124113     0.00167007
20MABNDA000039_PR009
Spot 1     0.00066635     0.00118062
Spot 2     0.00061419     0.00118398
20MABNDA000039_PR011
Spot 1     0.00277139     0.00028092
Spot 2     0.00259393     0.00027542
20MABNDB000155_PR020
Spot 1     0.00061669     0.00112293
Spot 2     0.00068894     0.00111850
20MABNDB000155_PR022
Spot 1     0.00211733     0.00141100
Spot 2     0.00259077     0.00140702
20MABNDB000010_PR021
Spot 1     0.00286656     0.00115211
Spot 2     0.00292590     0.00115514
20MABNDB000010_PR023
Spot 1     0.00131201     0.00030065
Spot 2     0.00148894     0.00029809
20MABNDB000069_PR031
Spot 1     0.00021500     0.00240500
Spot 2     0.00021500     0.00240500
20MABNDB000069_PR033
Spot 1     0.00183059     0.00206621
Spot 2     0.00230173     0.00208632
20MABNDB000131_PR032
Spot 1     0.00277769     0.00108170
Spot 2     0.00283793     0.00108465
20MABNDB000131_PR034
Spot 1     0.00092034     0.00032400
Spot 2     0.00109667     0.00032319
20MABNDA000208_PR042
Spot 1     0.00284500     0.00011500
Spot 2     0.00284500     0.00011500
20MABNDA000208_PR046
Spot 1     0.00144044     0.00222054
Spot 2     0.00096918     0.00222272
20MABNDA000035_PR044
Spot 1     0.00074470     0.00125903
Spot 2     0.00068232     0.00125290
20MABNDA000035_PR045
Spot 1     0.00254849     0.00046583
Spot 2     0.00237027     0.00046458


****************************************************************coordonnees images transformees dans le repere MOUNT************************************************************************* 
20MABNDL000077_PR002
Spot 1     0.01204384     0.03568025    -0.07463200
Spot 2     0.01207117     0.03554682    -0.07463200
Spot 1     0.01204259     0.03568002    -0.07463200
Spot 2     0.01207035     0.03554673    -0.07463200
20MABNDL000077_PR003
Spot 1     0.01341356     0.03434551    -0.07463200
Spot 2     0.01341356     0.03434551    -0.07463200
Spot 1     0.01341356     0.03434551    -0.07463200
Spot 2     0.01341356     0.03434551    -0.07463200
20MABNDL000077_20MABNDM000168
Spot 1    -0.01258962     0.03524576    -0.00695400
Spot 2    -0.01157915     0.03417830    -0.00695400
Spot 1    -0.01258950     0.03524584    -0.00695400
Spot 2    -0.01157915     0.03417830    -0.00695400
20MABNDL000077_PR024
Spot 1    -0.01335134     0.03547559    -0.00695400
Spot 2    -0.01345128     0.03548452    -0.00695400
Spot 1    -0.01335115     0.03547565    -0.00695400
Spot 2    -0.01345115     0.03548479    -0.00695400
20MABNDM000020_PR013
Spot 1    -0.01394554    -0.03407018    -0.00523500
Spot 2    -0.01394554    -0.03407018    -0.00523500
Spot 1    -0.01394554    -0.03407018    -0.00523500
Spot 2    -0.01394554    -0.03407018    -0.00523500
20MABNDM000020_PR014
Spot 1    -0.01169623    -0.03562020    -0.00523500
Spot 2    -0.01185964    -0.03562709    -0.00523500
Spot 1    -0.01169609    -0.03562043    -0.00523500
Spot 2    -0.01185979    -0.03562738    -0.00523500
20MABNDM000020_20MABNDL000196
Spot 1     0.01270700    -0.03514911    -0.07583800
Spot 2     0.01238113    -0.03407361    -0.07583800
Spot 1     0.01270691    -0.03514866    -0.07583800
Spot 2     0.01238113    -0.03407361    -0.07583800
20MABNDM000020_PR035
Spot 1     0.01342221    -0.03545796    -0.07583800
Spot 2     0.01349647    -0.03549532    -0.07583800
20MABNDM000168_PR025
Spot 1    -0.01363768    -0.03581356    -0.00532900
Spot 2    -0.01379572    -0.03581915    -0.00532900
20MABNDM000168_PR026
Spot 1    -0.01173303    -0.03575555    -0.00532900
Spot 2    -0.01189495    -0.03575259    -0.00532900
20MABNDM000168_20MABNDL000077
Spot 1     0.01288218    -0.03529929    -0.07445100
Spot 2     0.01266440    -0.03530297    -0.07445100
20MABNDM000168_PR001
Spot 1     0.01361031    -0.03562931    -0.07445100
Spot 2     0.01371368    -0.03563281    -0.07445100
20MABNDL000196_PR036
Spot 1     0.01192377     0.03583690    -0.07483600
Spot 2     0.01208914     0.03583651    -0.07483600
20MABNDL000196_PR037
Spot 1     0.01381166     0.03566024    -0.07483600
Spot 2     0.01397138     0.03566341    -0.07483600
20MABNDL000196_20MABNDM000020
Spot 1    -0.01274709     0.03531075    -0.00611000
Spot 2    -0.01252574     0.03532111    -0.00611000
20MABNDL000196_PR012
Spot 1    -0.01408054     0.03437924    -0.00611000
Spot 2    -0.01355191     0.03564027    -0.00611000
20MABNDA000134_PR004
Spot 1    -0.01288191     0.01241214    -0.07608400
Spot 2    -0.01266172     0.01241377    -0.07608400
20MABNDA000334_PR005
Spot 1    -0.01312783     0.01255023    -0.07324100
Spot 2    -0.01284743     0.01254965    -0.07324100
20MABNDB000317_PR015
Spot 1    -0.01247467    -0.01241800    -0.07326100
Spot 2    -0.01269588    -0.01241675    -0.07326100
20MABNDB000146_PR016
Spot 1    -0.01276352    -0.01247891    -0.07450500
Spot 2    -0.01248699    -0.01247559    -0.07450500
20MABNDB000135_PR027
Spot 1    -0.01252324    -0.01322228    -0.07464700
Spot 2    -0.01230378    -0.01322138    -0.07464700
20MABNDB000126_PR028
Spot 1    -0.01224785    -0.01219915    -0.07500400
Spot 2    -0.01416978    -0.01419193    -0.07500400
20MABNDA000272_PR038
Spot 1    -0.01276176     0.01316017    -0.07417900
Spot 2    -0.01253807     0.01316093    -0.07417900
20MABNDA000003_PR039
Spot 1    -0.01281679     0.01212086    -0.07373400
Spot 2    -0.01309557     0.01212073    -0.07373400
20MABNDA000196_PR006
Spot 1    -0.01234003     0.01329949    -0.07967100
Spot 2    -0.01270591     0.01330152    -0.07967100
20MABNDA000324_PR007
Spot 1    -0.01260231     0.01267977    -0.07446800
Spot 2    -0.01280922     0.01268374    -0.07446800
20MABNDB000001_PR017
Spot 1    -0.01232429    -0.01310419    -0.07418400
Spot 2    -0.01195471    -0.01310407    -0.07418400
20MABNDB000260_PR019
Spot 1    -0.01226446    -0.01244137    -0.07492700
Spot 2    -0.01205799    -0.01243786    -0.07492700
20MABNDB000212_PR029
Spot 1    -0.01187910    -0.01328978    -0.07390500
Spot 2    -0.01224216    -0.01328818    -0.07390500
20MABNDB000128_PR030
Spot 1    -0.01166907    -0.01259860    -0.07353400
Spot 2    -0.01186701    -0.01259665    -0.07353400
20MABNDA000444_PR040
Spot 1    -0.01272851     0.01332262    -0.07412000
Spot 2    -0.01344252     0.01348249    -0.07412000
20MABNDA000053_PR041
Spot 1    -0.01198301     0.01265826    -0.07430100
Spot 2    -0.01218898     0.01266211    -0.07430100
20MABNDA000188_PR008
Spot 1    -0.01399107     0.01394961    -0.07502000
Spot 2    -0.01399107     0.01394961    -0.07502000
20MABNDA000188_PR018
Spot 1    -0.01273872     0.01238206    -0.07502000
Spot 2    -0.01227058     0.01237975    -0.07502000
20MABNDA000039_PR009
Spot 1    -0.01162850     0.01306352    -0.07444800
Spot 2    -0.01157636     0.01305994    -0.07444800
20MABNDA000039_PR011
Spot 1    -0.01372963     0.01397232    -0.07444800
Spot 2    -0.01355215     0.01397706    -0.07444800
20MABNDB000155_PR020
Spot 1    -0.01364938    -0.01313448    -0.07501700
Spot 2    -0.01357707    -0.01313792    -0.07501700
20MABNDB000155_PR022
Spot 1    -0.01215282    -0.01282590    -0.07501700
Spot 2    -0.01167937    -0.01282339    -0.07501700
20MABNDB000010_PR021
Spot 1    -0.01158443    -0.01292644    -0.07358200
Spot 2    -0.01152515    -0.01292240    -0.07358200
20MABNDB000010_PR023
Spot 1    -0.01312433    -0.01380411    -0.07358200
Spot 2    -0.01294739    -0.01380367    -0.07358200
20MABNDB000069_PR031
Spot 1    -0.01361993    -0.01186066    -0.07388500
Spot 2    -0.01361993    -0.01186066    -0.07388500
20MABNDB000069_PR033
Spot 1    -0.01201969    -0.01226584    -0.07388500
Spot 2    -0.01154813    -0.01226519    -0.07388500
20MABNDB000131_PR032
Spot 1    -0.01144248    -0.01303305    -0.07533000
Spot 2    -0.01138226    -0.01302980    -0.07533000
20MABNDB000131_PR034
Spot 1    -0.01329599    -0.01380009    -0.07533000
Spot 2    -0.01311966    -0.01380001    -0.07533000
20MABNDA000208_PR042
Spot 1    -0.01371645     0.01388121    -0.07273700
Spot 2    -0.01371645     0.01388121    -0.07273700
20MABNDA000208_PR046
Spot 1    -0.01231005     0.01177690    -0.07273700
Spot 2    -0.01183879     0.01177513    -0.07273700
20MABNDA000035_PR044
Spot 1    -0.01157936     0.01299826    -0.07483200
Spot 2    -0.01151694     0.01300395    -0.07483200
20MABNDA000035_PR045
Spot 1    -0.01337746     0.01380427    -0.07483200
Spot 2    -0.01319924     0.01380426    -0.07483200


*****************************************************************coordonnees du prisme dans le repere MOUNT********************************************************************************** 
20MABNDL000077_PR002
    0.04404153     0.01935861     3.70695138
    0.04409273     0.01936651     3.70695066
20MABNDL000077_PR003
   -0.02476418     0.08434060     3.89557457
   -0.02476418     0.08434060     3.89557457
20MABNDL000077_20MABNDM000168
   -0.05607363     0.07584474    -5.46843433
   -0.05607793     0.07584181    -5.46843433
20MABNDL000077_PR024
    0.04315618     0.01912590    -5.89642906
    0.04314383     0.01911330    -5.89642906
20MABNDM000020_PR013
    0.05274186    -0.08860095    -3.80153990
    0.05274186    -0.08860095    -3.80153990
20MABNDM000020_PR014
   -0.06552130    -0.00532191    -4.74841213
   -0.06552103    -0.00530572    -4.74841213
20MABNDM000020_20MABNDL000196
    0.02693370    -0.07115564     5.39469719
    0.02693693    -0.07117176     5.39469719
20MABNDM000020_PR035
   -0.04252142    -0.00713714     5.80095577
20MABNDM000168_PR025
    0.03841809    -0.01219596    -3.78836870
20MABNDM000168_PR026
   -0.05793401    -0.01417842    -3.98429084
20MABNDM000168_20MABNDL000077
    0.01173278    -0.03878598     5.38884687
20MABNDM000168_PR001
   -0.05724644    -0.01342254     5.81470680
20MABNDL000196_PR036
    0.05145333     0.00552392     3.68776751
20MABNDL000196_PR037
   -0.04396304     0.01295086     3.88352251
20MABNDL000196_20MABNDM000020
   -0.01590987     0.03800886    -5.47473860
20MABNDL000196_PR012
    0.07552629     0.06196355    -5.91504955
20MABNDA000134_PR004
   -0.00822274     0.03809960     2.74966145
20MABNDA000334_PR005
   -0.00394093     0.03146507     2.14977264
20MABNDB000317_PR015
   -0.01633215    -0.03700153     2.75126719
20MABNDB000146_PR016
   -0.01345760    -0.03128694     2.15201712
20MABNDB000135_PR027
   -0.02067542    -0.00895494     2.74937105
20MABNDB000126_PR028
    0.00289865    -0.00976972     2.14690590
20MABNDA000272_PR038
   -0.01315913     0.01079849     2.74965858
20MABNDA000003_PR039
   -0.00549849     0.04138910     2.14891243
20MABNDA000196_PR006
   -0.01553185     0.00878073     1.64206004
20MABNDA000324_PR007
   -0.01521803     0.03279676     2.95548868
20MABNDB000001_PR017
   -0.02365181    -0.01254546     1.64039469
20MABNDB000260_PR019
   -0.03010746    -0.03670537     2.95626020
20MABNDB000212_PR029
   -0.02482713    -0.00823190     1.64224160
20MABNDB000128_PR030
   -0.04226104    -0.03189764     2.95495415
20MABNDA000444_PR040
   -0.00358148     0.00687272     1.64501047
20MABNDA000053_PR041
   -0.03527236     0.02982315     2.95464706
20MABNDA000188_PR008
    0.14616936    -0.09611703     9.20304298
20MABNDA000188_PR018
   -0.01598684     0.02472046     1.28359365
20MABNDA000039_PR009
   -0.17115887     0.02562263    11.00701523
20MABNDA000039_PR011
    0.03088593    -0.02460676     3.43346882
20MABNDB000155_PR020
    0.10205952    -0.00806573     9.20028305
20MABNDB000155_PR022
   -0.02568586    -0.01774516     1.28070664
20MABNDB000010_PR021
   -0.17617506    -0.03360648    11.00694656
20MABNDB000010_PR023
    0.00426771     0.02084721     3.43376589
20MABNDB000069_PR031
    0.10999375    -0.16176865     9.20229721
20MABNDB000069_PR033
   -0.02694030    -0.02689449     1.28393984
20MABNDB000131_PR032
   -0.18806988    -0.03034247    11.00641823
20MABNDB000131_PR034
    0.01449544     0.01651646     3.43337727
20MABNDA000208_PR042
    0.11037338    -0.08822197     9.20121384
20MABNDA000208_PR046
   -0.02360860     0.03494646     1.28207505
20MABNDA000035_PR044
   -0.17942643     0.02698662    11.00802994
20MABNDA000035_PR045
    0.01471734    -0.01922141     3.43483377


*****************************************************************coordonnees du prisme dans le repere ATLAS********************************************************************************** 
20MABNDL000077_PR002 0.00000000
    2.83768058    -3.70047617     6.48622274
    2.83767271    -3.70042491     6.48622227
20MABNDL000077_PR003 0.00000000
    2.77286172    -3.76949382     6.67482471
    2.77286172    -3.76949382     6.67482471
20MABNDL000077_20MABNDM000168 0.00000000
    2.77216268    -3.78925276    -2.68921947
    2.77216554    -3.78925705    -2.68921947
20MABNDL000077_PR024 0.00000000
    2.82849336    -3.68951297    -3.11714697
    2.82850575    -3.68952537    -3.11714697
20MABNDM000020_PR013 0.00000000
   -2.76372600    -3.79224682     6.48532534
   -2.76372600    -3.79224682     6.48532534
20MABNDM000020_PR014 0.00000000
   -2.84677911    -3.67467833     7.43230391
   -2.84679532    -3.67467856     7.43230391
20MABNDM000020_20MABNDL000196 0.00000000
   -2.78300357    -3.75943923    -2.71088576
   -2.78298759    -3.75944233    -2.71088576
20MABNDM000020_PR035 0.00000000
   -2.84708214    -3.68965554    -3.11707854
20MABNDM000168_PR025 0.00000000
    2.84103537    -3.78374958    -6.47898054
20MABNDM000168_PR026 0.00000000
    2.83906651    -3.68746972    -6.67493820
20MABNDM000168_20MABNDL000077 0.00000000
    2.81500959    -3.75364494     2.69822621
20MABNDM000168_PR001 0.00000000
    2.84041691    -3.68451405     3.12405896
20MABNDL000196_PR036 0.00000000
   -2.84808373    -3.69282126    -6.47909117
20MABNDL000196_PR037 0.00000000
   -2.84061646    -3.78841639    -6.67475748
20MABNDL000196_20MABNDM000020 0.00000000
   -2.81536937    -3.75164652     2.68347311
20MABNDL000196_PR012 0.00000000
   -2.79144764    -3.65978956     3.12369823
20MABNDA000134_PR004 0.00000000
    2.61478066    -4.19698954     3.83389902
20MABNDA000334_PR005 0.00000000
    2.61705756    -4.19703007     5.89779568
20MABNDB000317_PR015 0.00000000
   -2.61227512    -4.19699240     3.83301401
20MABNDB000146_PR016 0.00000000
   -2.61283755    -4.19702053     5.89906311
20MABNDB000135_PR027 0.00000000
    2.60418820    -4.19700432    -3.82640576
20MABNDB000126_PR028 0.00000000
    2.62880135    -4.19704485    -5.92246199
20MABNDA000272_PR038 0.00000000
   -2.61137772    -4.19698286    -3.82768583
20MABNDA000003_PR039 0.00000000
   -2.61623263    -4.19702339    -5.89137745
20MABNDA000196_PR006 0.00000000
    2.58999252    -4.19496918     6.54673767
20MABNDA000324_PR007 0.00000000
    2.60409737    -4.13996267     6.94311953
20MABNDB000001_PR017 0.00000000
   -2.59735656    -4.19499063     6.54787350
20MABNDB000260_PR019 0.00000000
   -2.59865499    -4.13996840     6.94394064
20MABNDB000212_PR029 0.00000000
    2.59850478    -4.19500732    -6.54721975
20MABNDB000128_PR030 0.00000000
    2.58660078    -4.14004135    -6.94622803
20MABNDA000444_PR040 0.00000000
   -2.57875466    -4.19499731    -6.54605579
20MABNDA000053_PR041 0.00000000
   -2.58526731    -4.14003897    -6.94808960
20MABNDA000188_PR008 0.00000000
    3.55893064     3.84859109     8.10764503
20MABNDA000188_PR018 0.00000000
    3.52113342    -4.07059431     7.89873123
20MABNDA000039_PR009 0.00000000
    3.87533092     3.64747334    12.93691635
20MABNDA000039_PR011 0.00000000
    3.66413808    -3.92580676    12.88422966
20MABNDB000155_PR020 0.00000000
   -3.68071222     3.84881639     7.89880133
20MABNDB000155_PR022 0.00000000
   -3.53429461    -4.07043791     7.89031410
20MABNDB000010_PR021 0.00000000
   -3.86201239     3.64768386    12.93543625
20MABNDB000010_PR023 0.00000000
   -3.68539929    -3.92561102    12.88442898
20MABNDB000069_PR031 0.00000000
    3.69177032     3.84800911    -7.77863359
20MABNDB000069_PR033 0.00000000
    3.53335905    -4.07046318    -7.87877703
20MABNDB000131_PR032 0.00000000
    3.86887217     3.64756823   -12.94098568
20MABNDB000131_PR034 0.00000000
    3.67329383    -3.92563939   -12.89143085
20MABNDA000208_PR042 0.00000000
   -3.66039658     3.84884048    -7.99969625
20MABNDA000208_PR046 0.00000000
   -3.53215694    -4.07034683    -7.87357187
20MABNDA000035_PR044 0.00000000
   -3.86866736     3.64758515   -12.93266582
20MABNDA000035_PR045 0.00000000
   -3.67601085    -3.92565346   -12.88716316


*****************************************************************Rapport********************************************************************************** 
CAM-LBA-US_EBA-US-HO-H         2023.08.11.13.25.03     2.83767664    -3.70045054     6.48622251     0.00000393     0.00002563     0.00000024 0.00000000 VRAI 
CAM-LBA-US_JDA-US-H            2023.08.11.13.25.03     2.77286172    -3.76949382     6.67482471     0.00000000     0.00000000     0.00000000 0.00000000 VRAI 
CAM-LBA-US_CAM-LBC-US          2023.08.11.13.25.03     2.77216411    -3.78925490    -2.68921947     0.00000143     0.00000215     0.00000000 0.00000000 VRAI 
CAM-LBA-US_EBC-US-IP-H         2023.08.11.13.25.03     2.82849956    -3.68951917    -3.11714697     0.00000620     0.00000620     0.00000000 0.00000000 VRAI 
CAM-LBA-USA_EBA-USA-HO-H       2023.08.11.13.25.03    -2.76372600    -3.79224682     6.48532534     0.00000000     0.00000000     0.00000000 0.00000000 VRAI 
CAM-LBA-USA_JDA-USA-H          2023.08.11.13.25.03    -2.84678721    -3.67467844     7.43230391     0.00000811     0.00000012     0.00000000 0.00000000 VRAI 
CAM-LBA-USA_CAM-LBC-USA        2023.08.11.13.25.03    -2.78299558    -3.75944078    -2.71088576     0.00000799     0.00000155     0.00000000 0.00000000 VRAI 
CAM-LBA-USA_EBC-USA-IP-H       2023.08.11.13.25.03    -2.84708214    -3.68965554    -3.11707854     0.00000000     0.00000000     0.00000000 0.00000000 VRAI 
CAM-LBC-US_EBC-US-HO-H         2023.08.11.13.25.03     2.84103537    -3.78374958    -6.47898054     0.00000000     0.00000000     0.00000000 0.00000000 VRAI 
CAM-LBC-US_JDC-US-H            2023.08.11.13.25.03     2.83906651    -3.68746972    -6.67493820     0.00000000     0.00000000     0.00000000 0.00000000 VRAI 
CAM-LBC-US_CAM-LBA-US          2023.08.11.13.25.03     2.81500959    -3.75364494     2.69822621     0.00000000     0.00000000     0.00000000 0.00000000 VRAI 
CAM-LBC-US_EBA-US-IP-H         2023.08.11.13.25.03     2.84041691    -3.68451405     3.12405896     0.00000000     0.00000000     0.00000000 0.00000000 VRAI 
CAM-LBC-USA_EBC-USA-HO-H       2023.08.11.13.25.03    -2.84808373    -3.69282126    -6.47909117     0.00000000     0.00000000     0.00000000 0.00000000 VRAI 
CAM-LBC-USA_JDC-USA-H          2023.08.11.13.25.03    -2.84061646    -3.78841639    -6.67475748     0.00000000     0.00000000     0.00000000 0.00000000 VRAI 
CAM-LBC-USA_CAM-LBA-USA        2023.08.11.13.25.03    -2.81536937    -3.75164652     2.68347311     0.00000000     0.00000000     0.00000000 0.00000000 VRAI 
CAM-LBC-USA_EBA-USA-IP-H       2023.08.11.13.25.03    -2.79144764    -3.65978956     3.12369823     0.00000000     0.00000000     0.00000000 0.00000000 VRAI 
CAM-EBA-US-IP_EBA-US-IP        2023.08.11.13.25.03     2.61478066    -4.19698954     3.83389902     0.00000000     0.00000000     0.00000000 0.00000000 VRAI 
CAM-EBA-US-HO_EBA-US-HO        2023.08.11.13.25.03     2.61705756    -4.19703007     5.89779568     0.00000000     0.00000000     0.00000000 0.00000000 VRAI 
CAM-EBA-USA-IP_EBA-USA-IP      2023.08.11.13.25.03    -2.61227512    -4.19699240     3.83301401     0.00000000     0.00000000     0.00000000 0.00000000 VRAI 
CAM-EBA-USA-HO_EBA-USA-HO      2023.08.11.13.25.03    -2.61283755    -4.19702053     5.89906311     0.00000000     0.00000000     0.00000000 0.00000000 VRAI 
CAM-EBC-US-IP_EBC-US-IP        2023.08.11.13.25.03     2.60418820    -4.19700432    -3.82640576     0.00000000     0.00000000     0.00000000 0.00000000 VRAI 
CAM-EBC-US-HO_EBC-US-HO        2023.08.11.13.25.03     2.62880135    -4.19704485    -5.92246199     0.00000000     0.00000000     0.00000000 0.00000000 VRAI 
CAM-EBC-USA-IP_EBC-USA-IP      2023.08.11.13.25.03    -2.61137772    -4.19698286    -3.82768583     0.00000000     0.00000000     0.00000000 0.00000000 VRAI 
CAM-EBC-USA-HO_EBC-USA-HO      2023.08.11.13.25.03    -2.61623263    -4.19702339    -5.89137745     0.00000000     0.00000000     0.00000000 0.00000000 VRAI 
CAM-JDA-US-IP_JDA-US-IP        2023.08.11.13.25.03     2.58999252    -4.19496918     6.54673767     0.00000000     0.00000000     0.00000000 0.00000000 VRAI 
CAM-JDA-US-HO_JDA-US-HO        2023.08.11.13.25.03     2.60409737    -4.13996267     6.94311953     0.00000000     0.00000000     0.00000000 0.00000000 VRAI 
CAM-JDA-USA-IP_JDA-USA-IP      2023.08.11.13.25.03    -2.59735656    -4.19499063     6.54787350     0.00000000     0.00000000     0.00000000 0.00000000 VRAI 
CAM-JDA-USA-HO_JDA-USA-HO      2023.08.11.13.25.03    -2.59865499    -4.13996840     6.94394064     0.00000000     0.00000000     0.00000000 0.00000000 VRAI 
CAM-JDC-US-IP_JDC-US-IP        2023.08.11.13.25.03     2.59850478    -4.19500732    -6.54721975     0.00000000     0.00000000     0.00000000 0.00000000 VRAI 
CAM-JDC-US-HO_JDC-US-HO        2023.08.11.13.25.03     2.58660078    -4.14004135    -6.94622803     0.00000000     0.00000000     0.00000000 0.00000000 VRAI 
CAM-JDC-USA-IP_JDC-USA-IP      2023.08.11.13.25.03    -2.57875466    -4.19499731    -6.54605579     0.00000000     0.00000000     0.00000000 0.00000000 VRAI 
CAM-JDC-USA-HO_JDC-USA-HO      2023.08.11.13.25.03    -2.58526731    -4.14003897    -6.94808960     0.00000000     0.00000000     0.00000000 0.00000000 VRAI 
CAM-ECTA-US-IP_ECTA-US-IP-T    2023.08.11.13.25.03     3.55893064     3.84859109     8.10764503     0.00000000     0.00000000     0.00000000 0.00000000 VRAI 
CAM-ECTA-US-IP_ECTA-US-IP      2023.08.11.13.25.03     3.52113342    -4.07059431     7.89873123     0.00000000     0.00000000     0.00000000 0.00000000 VRAI 
CAM-ECTA-US-HO_ECTA-US-HO-T    2023.08.11.13.25.03     3.87533092     3.64747334    12.93691635     0.00000000     0.00000000     0.00000000 0.00000000 VRAI 
CAM-ECTA-US-HO_ECTA-US-HO      2023.08.11.13.25.03     3.66413808    -3.92580676    12.88422966     0.00000000     0.00000000     0.00000000 0.00000000 VRAI 
CAM-ECTA-USA-IP_ECTA-USA-IP-T  2023.08.11.13.25.03    -3.68071222     3.84881639     7.89880133     0.00000000     0.00000000     0.00000000 0.00000000 VRAI 
CAM-ECTA-USA-IP_ECTA-USA-IP    2023.08.11.13.25.03    -3.53429461    -4.07043791     7.89031410     0.00000000     0.00000000     0.00000000 0.00000000 VRAI 
CAM-ECTA-USA-HO_ECTA-USA-HO-T  2023.08.11.13.25.03    -3.86201239     3.64768386    12.93543625     0.00000000     0.00000000     0.00000000 0.00000000 VRAI 
CAM-ECTA-USA-HO_ECTA-USA-HO    2023.08.11.13.25.03    -3.68539929    -3.92561102    12.88442898     0.00000000     0.00000000     0.00000000 0.00000000 VRAI 
CAM-ECTC-US-IP_ECTC-US-IP-T    2023.08.11.13.25.03     3.69177032     3.84800911    -7.77863359     0.00000000     0.00000000     0.00000000 0.00000000 VRAI 
CAM-ECTC-US-IP_ECTC-US-IP      2023.08.11.13.25.03     3.53335905    -4.07046318    -7.87877703     0.00000000     0.00000000     0.00000000 0.00000000 VRAI 
CAM-ECTC-US-HO_ECTC-US-HO-T    2023.08.11.13.25.03     3.86887217     3.64756823   -12.94098568     0.00000000     0.00000000     0.00000000 0.00000000 VRAI 
CAM-ECTC-US-HO_ECTC-US-HO      2023.08.11.13.25.03     3.67329383    -3.92563939   -12.89143085     0.00000000     0.00000000     0.00000000 0.00000000 VRAI 
CAM-ECTC-USA-IP_ECTC-USA-IP-T  2023.08.11.13.25.03    -3.66039658     3.84884048    -7.99969625     0.00000000     0.00000000     0.00000000 0.00000000 VRAI 
CAM-ECTC-USA-IP_ECTC-USA-IP    2023.08.11.13.25.03    -3.53215694    -4.07034683    -7.87357187     0.00000000     0.00000000     0.00000000 0.00000000 VRAI 
CAM-ECTC-USA-HO_ECTC-USA-HO-T  2023.08.11.13.25.03    -3.86866736     3.64758515   -12.93266582     0.00000000     0.00000000     0.00000000 0.00000000 VRAI 
CAM-ECTC-USA-HO_ECTC-USA-HO    2023.08.11.13.25.03    -3.67601085    -3.92565346   -12.88716316     0.00000000     0.00000000     0.00000000 0.00000000 VRAI 
