********** Fichier qui contient une sauvegarde des coordonnees images + coordonnees images transformees dans le repere BCAM (MOUNT) + coordonnees des prismes dans le repere MOUNT********** 
********************************************************************** Unite en metres (m)************************************************************************************************** 

*******************************************************************coordonnees images dans le repere CCD *********************************************************************************** 
20MABNDL000077_PR002
Spot 1     0.00052500     0.00043500
Spot 2     0.00052500     0.00043500
Spot 1     0.00052500     0.00043500
Spot 2     0.00052500     0.00043500
20MABNDL000077_PR003
Spot 1     0.00166500     0.00022500
Spot 2     0.00166500     0.00022500
Spot 1     0.00166500     0.00022500
Spot 2     0.00166500     0.00022500
20MABNDL000077_20MABNDM000168
Spot 1     0.00175571     0.00118265
Spot 2     0.00075500     0.00010500
Spot 1     0.00175590     0.00118280
Spot 2     0.00075500     0.00010500
20MABNDL000077_PR024
Spot 1     0.00251580     0.00141985
Spot 2     0.00261338     0.00143114
Spot 1     0.00251607     0.00142046
Spot 2     0.00261309     0.00143123
20MABNDM000020_PR013
Spot 1     0.00044500     0.00008500
Spot 2     0.00044500     0.00008500
Spot 1     0.00044500     0.00008500
Spot 2     0.00044500     0.00008500
20MABNDM000020_PR014
Spot 1     0.00265979     0.00168418
Spot 2     0.00249768     0.00168814
Spot 1     0.00266005     0.00168438
Spot 2     0.00249798     0.00168736
20MABNDM000020_20MABNDL000196
Spot 1     0.00197559     0.00117989
Spot 2     0.00230500     0.00010500
Spot 1     0.00197558     0.00117995
Spot 2     0.00230500     0.00010500
20MABNDM000020_PR035
Spot 1     0.00126248     0.00149138
Spot 2     0.00118645     0.00152755
Spot 1     0.00126234     0.00149141
Spot 2     0.00118594     0.00152747
20MABNDM000168_PR025
Spot 1     0.00076244     0.00147390
Spot 2     0.00060490     0.00147879
20MABNDM000168_PR026
Spot 1     0.00266768     0.00142384
Spot 2     0.00250654     0.00141989
20MABNDM000168_20MABNDL000077
Spot 1     0.00154217     0.00129812
Spot 2     0.00175747     0.00129986
20MABNDM000168_PR001
Spot 1     0.00080949     0.00161736
Spot 2     0.00070716     0.00161905
20MABNDL000196_PR036
Spot 1     0.00094474     0.00165010
Spot 2     0.00110964     0.00164955
20MABNDL000196_PR037
Spot 1     0.00283352     0.00146917
Spot 2     0.00299281     0.00147172
20MABNDL000196_20MABNDM000020
Spot 1     0.00192517     0.00103933
Spot 2     0.00170439     0.00104466
20MABNDL000196_PR012
Spot 1     0.00327500     0.00013500
Spot 2     0.00272330     0.00138468
20MABNDA000134_PR004
Spot 1     0.00190738     0.00176085
Spot 2     0.00168895     0.00175432
20MABNDA000334_PR005
Spot 1     0.00248308     0.00157815
Spot 2     0.00220301     0.00157859
20MABNDB000317_PR015
Spot 1     0.00168390     0.00167640
Spot 2     0.00146318     0.00168182
20MABNDB000146_PR016
Spot 1     0.00144653     0.00131375
Spot 2     0.00172244     0.00131600
20MABNDB000135_PR027
Spot 1     0.00188490     0.00089196
Spot 2     0.00210379     0.00089493
20MABNDB000126_PR028
Spot 1     0.00193230     0.00198122
Spot 2    -0.00000100    -0.00000100
20MABNDA000272_PR038
Spot 1     0.00192295     0.00095142
Spot 2     0.00170056     0.00095105
20MABNDA000003_PR039
Spot 1     0.00201487     0.00193088
Spot 2     0.00229364     0.00193156
20MABNDA000196_PR006
Spot 1     0.00138799     0.00067195
Spot 2     0.00175385     0.00067431
20MABNDA000324_PR007
Spot 1     0.00199711     0.00134148
Spot 2     0.00220313     0.00133578
20MABNDB000001_PR017
Spot 1     0.00185720     0.00088655
Spot 2     0.00222729     0.00089096
20MABNDB000260_PR019
Spot 1     0.00206754     0.00145833
Spot 2    -0.00000100    -0.00000100
20MABNDB000212_PR029
Spot 1     0.00220728     0.00069143
Spot 2     0.00184426     0.00068912
20MABNDB000128_PR030
Spot 1     0.00268564     0.00161645
Spot 2     0.00248755     0.00161900
20MABNDA000444_PR040
Spot 1     0.00179517     0.00069602
Spot 2    -0.00000100    -0.00000100
20MABNDA000053_PR041
Spot 1     0.00123564     0.00144404
Spot 2     0.00144076     0.00144462
20MABNDA000188_PR008
Spot 1     0.00289500     0.00025500
Spot 2     0.00289500     0.00025500
20MABNDA000188_PR018
Spot 1     0.00170955     0.00167334
Spot 2     0.00124245     0.00167098
20MABNDA000039_PR009
Spot 1     0.00066467     0.00117815
Spot 2     0.00061527     0.00118220
20MABNDA000039_PR011
Spot 1     0.00276968     0.00028120
Spot 2     0.00259297     0.00027573
20MABNDB000155_PR020
Spot 1     0.00061876     0.00112482
Spot 2     0.00068878     0.00112039
20MABNDB000155_PR022
Spot 1     0.00211931     0.00141297
Spot 2     0.00259247     0.00140828
20MABNDB000010_PR021
Spot 1     0.00286637     0.00115090
Spot 2     0.00292433     0.00115391
20MABNDB000010_PR023
Spot 1     0.00131200     0.00030103
Spot 2     0.00148795     0.00029899
20MABNDB000069_PR031
Spot 1     0.00021500     0.00240500
Spot 2     0.00021500     0.00240500
20MABNDB000069_PR033
Spot 1     0.00183074     0.00206752
Spot 2     0.00230138     0.00208712
20MABNDB000131_PR032
Spot 1     0.00277685     0.00108097
Spot 2     0.00283793     0.00108356
20MABNDB000131_PR034
Spot 1     0.00092090     0.00032471
Spot 2     0.00109688     0.00032396
20MABNDA000208_PR042
Spot 1     0.00284500     0.00011500
Spot 2     0.00284500     0.00011500
20MABNDA000208_PR046
Spot 1     0.00143951     0.00222136
Spot 2     0.00096920     0.00222448
20MABNDA000035_PR044
Spot 1     0.00074404     0.00125804
Spot 2     0.00068375     0.00125278
20MABNDA000035_PR045
Spot 1     0.00254780     0.00046724
Spot 2     0.00237029     0.00046615


****************************************************************coordonnees images transformees dans le repere MOUNT************************************************************************* 
20MABNDL000077_PR002
Spot 1     0.01158509     0.03451311    -0.07463200
Spot 2     0.01158509     0.03451311    -0.07463200
Spot 1     0.01158509     0.03451311    -0.07463200
Spot 2     0.01158509     0.03451311    -0.07463200
20MABNDL000077_PR003
Spot 1     0.01272301     0.03429215    -0.07463200
Spot 2     0.01272301     0.03429215    -0.07463200
Spot 1     0.01272301     0.03429215    -0.07463200
Spot 2     0.01272301     0.03429215    -0.07463200
20MABNDL000077_20MABNDM000168
Spot 1    -0.01259084     0.03524565    -0.00695400
Spot 2    -0.01157915     0.03417830    -0.00695400
Spot 1    -0.01259103     0.03524580    -0.00695400
Spot 2    -0.01157915     0.03417830    -0.00695400
20MABNDL000077_PR024
Spot 1    -0.01335332     0.03547506    -0.00695400
Spot 2    -0.01345101     0.03548535    -0.00695400
Spot 1    -0.01335359     0.03547566    -0.00695400
Spot 2    -0.01345072     0.03548544    -0.00695400
20MABNDM000020_PR013
Spot 1    -0.01394554    -0.03407018    -0.00523500
Spot 2    -0.01394554    -0.03407018    -0.00523500
Spot 1    -0.01394554    -0.03407018    -0.00523500
Spot 2    -0.01394554    -0.03407018    -0.00523500
20MABNDM000020_PR014
Spot 1    -0.01169593    -0.03561999    -0.00523500
Spot 2    -0.01185791    -0.03562753    -0.00523500
Spot 1    -0.01169566    -0.03562018    -0.00523500
Spot 2    -0.01185763    -0.03562675    -0.00523500
20MABNDM000020_20MABNDL000196
Spot 1     0.01271069    -0.03514845    -0.07583800
Spot 2     0.01238113    -0.03407361    -0.07583800
Spot 1     0.01271070    -0.03514851    -0.07583800
Spot 2     0.01238113    -0.03407361    -0.07583800
20MABNDM000020_PR035
Spot 1     0.01342384    -0.03545984    -0.07583800
Spot 2     0.01349988    -0.03549600    -0.07583800
Spot 1     0.01342398    -0.03545987    -0.07583800
Spot 2     0.01350039    -0.03549592    -0.07583800
20MABNDM000168_PR025
Spot 1    -0.01363969    -0.03581286    -0.00532900
Spot 2    -0.01379720    -0.03581843    -0.00532900
20MABNDM000168_PR026
Spot 1    -0.01173468    -0.03575462    -0.00532900
Spot 2    -0.01189583    -0.03575136    -0.00532900
20MABNDM000168_20MABNDL000077
Spot 1     0.01288332    -0.03529874    -0.07445100
Spot 2     0.01266802    -0.03529733    -0.07445100
20MABNDM000168_PR001
Spot 1     0.01361125    -0.03562867    -0.07445100
Spot 2     0.01371355    -0.03563186    -0.07445100
20MABNDL000196_PR036
Spot 1     0.01192464     0.03583879    -0.07483600
Spot 2     0.01208954     0.03583859    -0.07483600
20MABNDL000196_PR037
Spot 1     0.01381380     0.03566180    -0.07483600
Spot 2     0.01397308     0.03566469    -0.07483600
20MABNDL000196_20MABNDM000020
Spot 1    -0.01274918     0.03531055    -0.00611000
Spot 2    -0.01252855     0.03532032    -0.00611000
20MABNDL000196_PR012
Spot 1    -0.01408054     0.03437924    -0.00611000
Spot 2    -0.01355409     0.03563977    -0.00611000
20MABNDA000134_PR004
Spot 1    -0.01287811     0.01241198    -0.07608400
Spot 2    -0.01265959     0.01241245    -0.07608400
20MABNDA000334_PR005
Spot 1    -0.01312618     0.01255025    -0.07324100
Spot 2    -0.01284611     0.01254955    -0.07324100
20MABNDB000317_PR015
Spot 1    -0.01247129    -0.01241937    -0.07326100
Spot 2    -0.01269206    -0.01241652    -0.07326100
20MABNDB000146_PR016
Spot 1    -0.01276179    -0.01247986    -0.07450500
Spot 2    -0.01248589    -0.01247700    -0.07450500
20MABNDB000135_PR027
Spot 1    -0.01252004    -0.01322099    -0.07464700
Spot 2    -0.01230113    -0.01322046    -0.07464700
20MABNDB000126_PR028
Spot 1    -0.01224709    -0.01219942    -0.07500400
Spot 2    -0.01416978    -0.01419193    -0.07500400
20MABNDA000272_PR038
Spot 1    -0.01275860     0.01316005    -0.07417900
Spot 2    -0.01253621     0.01316002    -0.07417900
20MABNDA000003_PR039
Spot 1    -0.01281597     0.01212142    -0.07373400
Spot 2    -0.01309474     0.01212145    -0.07373400
20MABNDA000196_PR006
Spot 1    -0.01234201     0.01329858    -0.07967100
Spot 2    -0.01270787     0.01330093    -0.07967100
20MABNDA000324_PR007
Spot 1    -0.01260181     0.01267971    -0.07446800
Spot 2    -0.01280787     0.01268380    -0.07446800
20MABNDB000001_PR017
Spot 1    -0.01232642    -0.01310268    -0.07418400
Spot 2    -0.01195630    -0.01310219    -0.07418400
20MABNDB000260_PR019
Spot 1    -0.01226292    -0.01244123    -0.07492700
Spot 2    -0.01430111    -0.01394266    -0.07492700
20MABNDB000212_PR029
Spot 1    -0.01188067    -0.01328956    -0.07390500
Spot 2    -0.01224369    -0.01328799    -0.07390500
20MABNDB000128_PR030
Spot 1    -0.01166816    -0.01259815    -0.07353400
Spot 2    -0.01186625    -0.01259628    -0.07353400
20MABNDA000444_PR040
Spot 1    -0.01273057     0.01332050    -0.07412000
Spot 2    -0.01094339     0.01404026    -0.07412000
20MABNDA000053_PR041
Spot 1    -0.01198171     0.01265817    -0.07430100
Spot 2    -0.01218680     0.01266159    -0.07430100
20MABNDA000188_PR008
Spot 1    -0.01391227     0.01380893    -0.07502000
Spot 2    -0.01391227     0.01380893    -0.07502000
20MABNDA000188_PR018
Spot 1    -0.01273901     0.01238049    -0.07502000
Spot 2    -0.01227191     0.01237885    -0.07502000
20MABNDA000039_PR009
Spot 1    -0.01162681     0.01306599    -0.07444800
Spot 2    -0.01157743     0.01306172    -0.07444800
20MABNDA000039_PR011
Spot 1    -0.01372792     0.01397204    -0.07444800
Spot 2    -0.01355119     0.01397674    -0.07444800
20MABNDB000155_PR020
Spot 1    -0.01364733    -0.01313256    -0.07501700
Spot 2    -0.01357726    -0.01313604    -0.07501700
20MABNDB000155_PR022
Spot 1    -0.01215087    -0.01282390    -0.07501700
Spot 2    -0.01167769    -0.01282211    -0.07501700
20MABNDB000010_PR021
Spot 1    -0.01158460    -0.01292765    -0.07358200
Spot 2    -0.01152670    -0.01292366    -0.07358200
20MABNDB000010_PR023
Spot 1    -0.01312435    -0.01380373    -0.07358200
Spot 2    -0.01294839    -0.01380279    -0.07358200
20MABNDB000069_PR031
Spot 1    -0.01361993    -0.01186066    -0.07388500
Spot 2    -0.01361993    -0.01186066    -0.07388500
20MABNDB000069_PR033
Spot 1    -0.01201949    -0.01226453    -0.07388500
Spot 2    -0.01154844    -0.01226437    -0.07388500
20MABNDB000131_PR032
Spot 1    -0.01144332    -0.01303378    -0.07533000
Spot 2    -0.01138225    -0.01303089    -0.07533000
20MABNDB000131_PR034
Spot 1    -0.01329544    -0.01379938    -0.07533000
Spot 2    -0.01311945    -0.01379924    -0.07533000
20MABNDA000208_PR042
Spot 1    -0.01371645     0.01388121    -0.07273700
Spot 2    -0.01371645     0.01388121    -0.07273700
20MABNDA000208_PR046
Spot 1    -0.01230912     0.01177608    -0.07273700
Spot 2    -0.01183880     0.01177337    -0.07273700
20MABNDA000035_PR044
Spot 1    -0.01157869     0.01299925    -0.07483200
Spot 2    -0.01151837     0.01300408    -0.07483200
20MABNDA000035_PR045
Spot 1    -0.01337678     0.01380286    -0.07483200
Spot 2    -0.01319927     0.01380269    -0.07483200


*****************************************************************coordonnees du prisme dans le repere MOUNT********************************************************************************** 
20MABNDL000077_PR002
    0.06737348     0.07371713     3.70652628
    0.06737348     0.07371713     3.70652628
20MABNDL000077_PR003
    0.01108603     0.08711259     3.89571905
    0.01108603     0.08711259     3.89571905
20MABNDL000077_20MABNDM000168
   -0.05602962     0.07584880    -5.46843529
   -0.05602270     0.07584346    -5.46843529
20MABNDL000077_PR024
    0.04322257     0.01911450    -5.89642859
    0.04322207     0.01908720    -5.89642859
20MABNDM000020_PR013
    0.05274186    -0.08860095    -3.80153990
    0.05274186    -0.08860095    -3.80153990
20MABNDM000020_PR014
   -0.06558460    -0.00531492    -4.74841213
   -0.06560162    -0.00533333    -4.74841166
20MABNDM000020_20MABNDL000196
    0.02680150    -0.07117931     5.39469719
    0.02680114    -0.07117716     5.39469719
20MABNDM000020_PR035
   -0.04271559    -0.00703855     5.80095387
   -0.04274062    -0.00704048     5.80095291
20MABNDM000168_PR025
    0.03850427    -0.01223120    -3.78836775
20MABNDM000168_PR026
   -0.05786819    -0.01423461    -3.98429179
20MABNDM000168_20MABNDL000077
    0.01156211    -0.03900804     5.38884640
20MABNDM000168_PR001
   -0.05727758    -0.01348450     5.81470680
20MABNDL000196_PR036
    0.05142186     0.00542640     3.68776655
20MABNDL000196_PR037
   -0.04406214     0.01287750     3.88352060
20MABNDL000196_20MABNDM000020
   -0.01573414     0.03804438    -5.47473907
20MABNDL000196_PR012
    0.07561100     0.06198313    -5.91504860
20MABNDA000134_PR004
   -0.00833128     0.03812660     2.74966145
20MABNDA000334_PR005
   -0.00398337     0.03146611     2.14977264
20MABNDB000317_PR015
   -0.01646311    -0.03698084     2.75126719
20MABNDB000146_PR016
   -0.01349837    -0.03125310     2.15201735
20MABNDB000135_PR027
   -0.02078278    -0.00899537     2.74937057
20MABNDB000126_PR028
    0.00288780    -0.00976593     2.14690590
20MABNDA000272_PR038
   -0.01325108     0.01081734     2.74965858
20MABNDA000003_PR039
   -0.00552211     0.04137087     2.14891243
20MABNDA000196_PR006
   -0.01548881     0.00879711     1.64206028
20MABNDA000324_PR007
   -0.01525444     0.03279667     2.95548868
20MABNDB000001_PR017
   -0.02361111    -0.01258240     1.64039505
20MABNDB000260_PR019
    0.01403452    -0.00707509     2.95627952
20MABNDB000212_PR029
   -0.02479319    -0.00823643     1.64224184
20MABNDB000128_PR030
   -0.04229400    -0.03191367     2.95495367
20MABNDA000444_PR040
   -0.03093152     0.00078744     1.64490008
20MABNDA000053_PR041
   -0.03534066     0.02983528     2.95464659
20MABNDA000188_PR008
    0.13650158    -0.07885031     9.20339394
20MABNDA000188_PR018
   -0.01597297     0.02474157     1.28359342
20MABNDA000039_PR009
   -0.17120409     0.02531202    11.00701523
20MABNDA000039_PR011
    0.03082510    -0.02459306     3.43346977
20MABNDB000155_PR020
    0.10194546    -0.00829937     9.20028496
20MABNDB000155_PR022
   -0.02571693    -0.01777319     1.28070629
20MABNDB000010_PR021
   -0.17604876    -0.03342494    11.00694847
20MABNDB000010_PR023
    0.00429113     0.02081826     3.43376589
20MABNDB000069_PR031
    0.10999375    -0.16176865     9.20229721
20MABNDB000069_PR033
   -0.02693934    -0.02691259     1.28393948
20MABNDB000131_PR032
   -0.18800919    -0.03020919    11.00641918
20MABNDB000131_PR034
    0.01447807     0.01648264     3.43337750
20MABNDA000208_PR042
    0.11037338    -0.08822197     9.20121384
20MABNDA000208_PR046
   -0.02361639     0.03496849     1.28207469
20MABNDA000035_PR044
   -0.17937070     0.02690504    11.00803185
20MABNDA000035_PR045
    0.01470254    -0.01915330     3.43483448


*****************************************************************coordonnees du prisme dans le repere ATLAS********************************************************************************** 
20MABNDL000077_PR002 0.00000000
    2.78332901    -3.67712641     6.48587990
    2.78332901    -3.67712641     6.48587990
20MABNDL000077_PR003 0.00000000
    2.77010131    -3.73364305     6.67501593
    2.77010131    -3.73364305     6.67501593
20MABNDL000077_20MABNDM000168 0.00000000
    2.77215862    -3.78920865    -2.68922043
    2.77216387    -3.78920174    -2.68922043
20MABNDL000077_PR024 0.00000000
    2.82850480    -3.68944669    -3.11714649
    2.82853198    -3.68944716    -3.11714649
20MABNDM000020_PR013 0.00000000
   -2.76372600    -3.79224682     6.48532534
   -2.76372600    -3.79224682     6.48532534
20MABNDM000020_PR014 0.00000000
   -2.84678626    -3.67461491     7.43230391
   -2.84676766    -3.67459798     7.43230343
20MABNDM000020_20MABNDL000196 0.00000000
   -2.78297997    -3.75930691    -2.71088576
   -2.78298211    -3.75930667    -2.71088576
20MABNDM000020_PR035 0.00000000
   -2.84718060    -3.68946123    -3.11707640
   -2.84717870    -3.68943620    -3.11707544
20MABNDM000168_PR025 0.00000000
    2.84100032    -3.78383565    -6.47897959
20MABNDM000168_PR026 0.00000000
    2.83901048    -3.68753552    -6.67493916
20MABNDM000168_20MABNDL000077 0.00000000
    2.81478739    -3.75347424     2.69822574
20MABNDM000168_PR001 0.00000000
    2.84035516    -3.68448281     3.12405896
20MABNDL000196_PR036 0.00000000
   -2.84818125    -3.69285297    -6.47909021
20MABNDL000196_PR037 0.00000000
   -2.84068990    -3.78851533    -6.67475557
20MABNDL000196_20MABNDM000020 0.00000000
   -2.81533384    -3.75147080     2.68347335
20MABNDL000196_PR012 0.00000000
   -2.79142809    -3.65970492     3.12369728
20MABNDA000134_PR004 0.00000000
    2.61467195    -4.19698954     3.83387208
20MABNDA000334_PR005 0.00000000
    2.61701512    -4.19703007     5.89779472
20MABNDB000317_PR015 0.00000000
   -2.61214423    -4.19699240     3.83303452
20MABNDB000146_PR016 0.00000000
   -2.61279702    -4.19702053     5.89909697
20MABNDB000135_PR027 0.00000000
    2.60408068    -4.19700480    -3.82636547
20MABNDB000126_PR028 0.00000000
    2.62879038    -4.19704485    -5.92246580
20MABNDA000272_PR038 0.00000000
   -2.61128592    -4.19698286    -3.82766700
20MABNDA000003_PR039 0.00000000
   -2.61620903    -4.19702339    -5.89139605
20MABNDA000196_PR006 0.00000000
    2.58994937    -4.19496870     6.54675436
20MABNDA000324_PR007 0.00000000
    2.60406089    -4.13996267     6.94311953
20MABNDB000001_PR017 0.00000000
   -2.59731579    -4.19499016     6.54791069
20MABNDB000260_PR019 0.00000000
   -2.64280701    -4.14002609     6.97355604
20MABNDB000212_PR029 0.00000000
    2.59847093    -4.19500685    -6.54722404
20MABNDB000128_PR030 0.00000000
    2.58656764    -4.14004183    -6.94621181
20MABNDA000444_PR040 0.00000000
   -2.60610414    -4.19510937    -6.53996754
20MABNDA000053_PR041 0.00000000
   -2.58519912    -4.14003944    -6.94807768
20MABNDA000188_PR008 0.00000000
    3.54951787     3.84898496     8.09023857
20MABNDA000188_PR018 0.00000000
    3.52114749    -4.07059431     7.89871025
20MABNDA000039_PR009 0.00000000
    3.87537599     3.64747334    12.93660641
20MABNDA000039_PR011 0.00000000
    3.66419911    -3.92580605    12.88424397
20MABNDB000155_PR020 0.00000000
   -3.68059802     3.84881854     7.89856768
20MABNDB000155_PR022 0.00000000
   -3.53426361    -4.07043839     7.89028597
20MABNDB000010_PR021 0.00000000
   -3.86188626     3.64768577    12.93525410
20MABNDB000010_PR023 0.00000000
   -3.68537569    -3.92561102    12.88445759
20MABNDB000069_PR031 0.00000000
    3.69177032     3.84800911    -7.77863359
20MABNDB000069_PR033 0.00000000
    3.53336000    -4.07046366    -7.87875891
20MABNDB000131_PR032 0.00000000
    3.86881137     3.64756918   -12.94085217
20MABNDB000131_PR034 0.00000000
    3.67331123    -3.92563915   -12.89146519
20MABNDA000208_PR042 0.00000000
   -3.66039658     3.84884048    -7.99969625
20MABNDA000208_PR046 0.00000000
   -3.53214931    -4.07034731    -7.87354994
20MABNDA000035_PR044 0.00000000
   -3.86861181     3.64758706   -12.93258381
20MABNDA000035_PR045 0.00000000
   -3.67602587    -3.92565274   -12.88723087


*****************************************************************Rapport********************************************************************************** 
CAM-LBA-US_EBA-US-HO-H         2023.10.18.10.58.11     2.78332901    -3.67712641     6.48587990     0.00000000     0.00000000     0.00000000 0.00000000 VRAI 
CAM-LBA-US_JDA-US-H            2023.10.18.10.58.11     2.77010131    -3.73364305     6.67501593     0.00000000     0.00000000     0.00000000 0.00000000 VRAI 
CAM-LBA-US_CAM-LBC-US          2023.10.18.10.58.11     2.77216125    -3.78920519    -2.68922043     0.00000262     0.00000346     0.00000000 0.00000000 VRAI 
CAM-LBA-US_EBC-US-IP-H         2023.10.18.10.58.11     2.82851839    -3.68944693    -3.11714649     0.00001359     0.00000024     0.00000000 0.00000000 VRAI 
CAM-LBA-USA_EBA-USA-HO-H       2023.10.18.10.58.11    -2.76372600    -3.79224682     6.48532534     0.00000000     0.00000000     0.00000000 0.00000000 VRAI 
CAM-LBA-USA_JDA-USA-H          2023.10.18.10.58.11    -2.84677696    -3.67460644     7.43230367     0.00000930     0.00000846     0.00000024 0.00000000 VRAI 
CAM-LBA-USA_CAM-LBC-USA        2023.10.18.10.58.11    -2.78298104    -3.75930679    -2.71088576     0.00000107     0.00000012     0.00000000 0.00000000 VRAI 
CAM-LBA-USA_EBC-USA-IP-H       2023.10.18.10.58.11    -2.84717965    -3.68944871    -3.11707592     0.00000095     0.00001252     0.00000048 0.00000000 VRAI 
CAM-LBC-US_EBC-US-HO-H         2023.10.18.10.58.11     2.84100032    -3.78383565    -6.47897959     0.00000000     0.00000000     0.00000000 0.00000000 VRAI 
CAM-LBC-US_JDC-US-H            2023.10.18.10.58.11     2.83901048    -3.68753552    -6.67493916     0.00000000     0.00000000     0.00000000 0.00000000 VRAI 
CAM-LBC-US_CAM-LBA-US          2023.10.18.10.58.11     2.81478739    -3.75347424     2.69822574     0.00000000     0.00000000     0.00000000 0.00000000 VRAI 
CAM-LBC-US_EBA-US-IP-H         2023.10.18.10.58.11     2.84035516    -3.68448281     3.12405896     0.00000000     0.00000000     0.00000000 0.00000000 VRAI 
CAM-LBC-USA_EBC-USA-HO-H       2023.10.18.10.58.11    -2.84818125    -3.69285297    -6.47909021     0.00000000     0.00000000     0.00000000 0.00000000 VRAI 
CAM-LBC-USA_JDC-USA-H          2023.10.18.10.58.11    -2.84068990    -3.78851533    -6.67475557     0.00000000     0.00000000     0.00000000 0.00000000 VRAI 
CAM-LBC-USA_CAM-LBA-USA        2023.10.18.10.58.11    -2.81533384    -3.75147080     2.68347335     0.00000000     0.00000000     0.00000000 0.00000000 VRAI 
CAM-LBC-USA_EBA-USA-IP-H       2023.10.18.10.58.11    -2.79142809    -3.65970492     3.12369728     0.00000000     0.00000000     0.00000000 0.00000000 VRAI 
CAM-EBA-US-IP_EBA-US-IP        2023.10.18.10.58.11     2.61467195    -4.19698954     3.83387208     0.00000000     0.00000000     0.00000000 0.00000000 VRAI 
CAM-EBA-US-HO_EBA-US-HO        2023.10.18.10.58.11     2.61701512    -4.19703007     5.89779472     0.00000000     0.00000000     0.00000000 0.00000000 VRAI 
CAM-EBA-USA-IP_EBA-USA-IP      2023.10.18.10.58.11    -2.61214423    -4.19699240     3.83303452     0.00000000     0.00000000     0.00000000 0.00000000 VRAI 
CAM-EBA-USA-HO_EBA-USA-HO      2023.10.18.10.58.11    -2.61279702    -4.19702053     5.89909697     0.00000000     0.00000000     0.00000000 0.00000000 VRAI 
CAM-EBC-US-IP_EBC-US-IP        2023.10.18.10.58.11     2.60408068    -4.19700480    -3.82636547     0.00000000     0.00000000     0.00000000 0.00000000 VRAI 
CAM-EBC-US-HO_EBC-US-HO        2023.10.18.10.58.11     2.62879038    -4.19704485    -5.92246580     0.00000000     0.00000000     0.00000000 0.00000000 VRAI 
CAM-EBC-USA-IP_EBC-USA-IP      2023.10.18.10.58.11    -2.61128592    -4.19698286    -3.82766700     0.00000000     0.00000000     0.00000000 0.00000000 VRAI 
CAM-EBC-USA-HO_EBC-USA-HO      2023.10.18.10.58.11    -2.61620903    -4.19702339    -5.89139605     0.00000000     0.00000000     0.00000000 0.00000000 VRAI 
CAM-JDA-US-IP_JDA-US-IP        2023.10.18.10.58.11     2.58994937    -4.19496870     6.54675436     0.00000000     0.00000000     0.00000000 0.00000000 VRAI 
CAM-JDA-US-HO_JDA-US-HO        2023.10.18.10.58.11     2.60406089    -4.13996267     6.94311953     0.00000000     0.00000000     0.00000000 0.00000000 VRAI 
CAM-JDA-USA-IP_JDA-USA-IP      2023.10.18.10.58.11    -2.59731579    -4.19499016     6.54791069     0.00000000     0.00000000     0.00000000 0.00000000 VRAI 
CAM-JDA-USA-HO_JDA-USA-HO      2023.10.18.10.58.11    -2.64280701    -4.14002609     6.97355604     0.00000000     0.00000000     0.00000000 0.00000000 VRAI 
CAM-JDC-US-IP_JDC-US-IP        2023.10.18.10.58.11     2.59847093    -4.19500685    -6.54722404     0.00000000     0.00000000     0.00000000 0.00000000 VRAI 
CAM-JDC-US-HO_JDC-US-HO        2023.10.18.10.58.11     2.58656764    -4.14004183    -6.94621181     0.00000000     0.00000000     0.00000000 0.00000000 VRAI 
CAM-JDC-USA-IP_JDC-USA-IP      2023.10.18.10.58.11    -2.60610414    -4.19510937    -6.53996754     0.00000000     0.00000000     0.00000000 0.00000000 VRAI 
CAM-JDC-USA-HO_JDC-USA-HO      2023.10.18.10.58.11    -2.58519912    -4.14003944    -6.94807768     0.00000000     0.00000000     0.00000000 0.00000000 VRAI 
CAM-ECTA-US-IP_ECTA-US-IP-T    2023.10.18.10.58.11     3.54951787     3.84898496     8.09023857     0.00000000     0.00000000     0.00000000 0.00000000 VRAI 
CAM-ECTA-US-IP_ECTA-US-IP      2023.10.18.10.58.11     3.52114749    -4.07059431     7.89871025     0.00000000     0.00000000     0.00000000 0.00000000 VRAI 
CAM-ECTA-US-HO_ECTA-US-HO-T    2023.10.18.10.58.11     3.87537599     3.64747334    12.93660641     0.00000000     0.00000000     0.00000000 0.00000000 VRAI 
CAM-ECTA-US-HO_ECTA-US-HO      2023.10.18.10.58.11     3.66419911    -3.92580605    12.88424397     0.00000000     0.00000000     0.00000000 0.00000000 VRAI 
CAM-ECTA-USA-IP_ECTA-USA-IP-T  2023.10.18.10.58.11    -3.68059802     3.84881854     7.89856768     0.00000000     0.00000000     0.00000000 0.00000000 VRAI 
CAM-ECTA-USA-IP_ECTA-USA-IP    2023.10.18.10.58.11    -3.53426361    -4.07043839     7.89028597     0.00000000     0.00000000     0.00000000 0.00000000 VRAI 
CAM-ECTA-USA-HO_ECTA-USA-HO-T  2023.10.18.10.58.11    -3.86188626     3.64768577    12.93525410     0.00000000     0.00000000     0.00000000 0.00000000 VRAI 
CAM-ECTA-USA-HO_ECTA-USA-HO    2023.10.18.10.58.11    -3.68537569    -3.92561102    12.88445759     0.00000000     0.00000000     0.00000000 0.00000000 VRAI 
CAM-ECTC-US-IP_ECTC-US-IP-T    2023.10.18.10.58.11     3.69177032     3.84800911    -7.77863359     0.00000000     0.00000000     0.00000000 0.00000000 VRAI 
CAM-ECTC-US-IP_ECTC-US-IP      2023.10.18.10.58.11     3.53336000    -4.07046366    -7.87875891     0.00000000     0.00000000     0.00000000 0.00000000 VRAI 
CAM-ECTC-US-HO_ECTC-US-HO-T    2023.10.18.10.58.11     3.86881137     3.64756918   -12.94085217     0.00000000     0.00000000     0.00000000 0.00000000 VRAI 
CAM-ECTC-US-HO_ECTC-US-HO      2023.10.18.10.58.11     3.67331123    -3.92563915   -12.89146519     0.00000000     0.00000000     0.00000000 0.00000000 VRAI 
CAM-ECTC-USA-IP_ECTC-USA-IP-T  2023.10.18.10.58.11    -3.66039658     3.84884048    -7.99969625     0.00000000     0.00000000     0.00000000 0.00000000 VRAI 
CAM-ECTC-USA-IP_ECTC-USA-IP    2023.10.18.10.58.11    -3.53214931    -4.07034731    -7.87354994     0.00000000     0.00000000     0.00000000 0.00000000 VRAI 
CAM-ECTC-USA-HO_ECTC-USA-HO-T  2023.10.18.10.58.11    -3.86861181     3.64758706   -12.93258381     0.00000000     0.00000000     0.00000000 0.00000000 VRAI 
CAM-ECTC-USA-HO_ECTC-USA-HO    2023.10.18.10.58.11    -3.67602587    -3.92565274   -12.88723087     0.00000000     0.00000000     0.00000000 0.00000000 VRAI 
