********** Fichier qui contient une sauvegarde des coordonnees images + coordonnees images transformees dans le repere BCAM (MOUNT) + coordonnees des prismes dans le repere MOUNT********** 
********************************************************************** Unite en metres (m)************************************************************************************************** 

*******************************************************************coordonnees images dans le repere CCD *********************************************************************************** 
20MABNDL000077_PR002
Spot 1     0.00052500     0.00043500
Spot 2     0.00052500     0.00043500
Spot 1     0.00086500     0.00006500
Spot 2     0.00052500     0.00043500
20MABNDL000077_PR003
Spot 1     0.00235500     0.00028500
Spot 2     0.00235500     0.00028500
Spot 1     0.00166500     0.00022500
Spot 2     0.00166500     0.00022500
20MABNDL000077_20MABNDM000168
Spot 1     0.00175566     0.00118187
Spot 2     0.00075500     0.00010500
Spot 1     0.00175581     0.00118197
Spot 2     0.00075500     0.00010500
20MABNDL000077_PR024
Spot 1     0.00251456     0.00141927
Spot 2     0.00261413     0.00143128
Spot 1     0.00251477     0.00141948
Spot 2     0.00261399     0.00143146
20MABNDM000020_PR013
Spot 1     0.00044500     0.00008500
Spot 2     0.00044500     0.00008500
Spot 1     0.00044500     0.00008500
Spot 2     0.00044500     0.00008500
20MABNDM000020_PR014
Spot 1     0.00265971     0.00168388
Spot 2     0.00249826     0.00168688
Spot 1     0.00266012     0.00168508
Spot 2     0.00249865     0.00168836
20MABNDM000020_20MABNDL000196
Spot 1     0.00197677     0.00117991
Spot 2     0.00230500     0.00010500
Spot 1     0.00197658     0.00117996
Spot 2     0.00230500     0.00010500
20MABNDM000020_PR035
Spot 1     0.00126437     0.00149183
Spot 2     0.00118735     0.00152752
20MABNDM000168_PR025
Spot 1     0.00076216     0.00147534
Spot 2     0.00060441     0.00148027
20MABNDM000168_PR026
Spot 1     0.00266750     0.00142534
Spot 2     0.00250610     0.00142171
20MABNDM000168_20MABNDL000077
Spot 1     0.00154153     0.00129790
Spot 2     0.00175939     0.00130421
20MABNDM000168_PR001
Spot 1     0.00080927     0.00161736
Spot 2     0.00070667     0.00161917
20MABNDL000196_PR036
Spot 1     0.00094502     0.00164946
Spot 2     0.00110993     0.00164846
20MABNDL000196_PR037
Spot 1     0.00283290     0.00146855
Spot 2     0.00299188     0.00147150
20MABNDL000196_20MABNDM000020
Spot 1     0.00192477     0.00103941
Spot 2     0.00170363     0.00104471
20MABNDL000196_PR012
Spot 1     0.00061500     0.00060500
Spot 2     0.00272241     0.00138470
20MABNDA000134_PR004
Spot 1     0.00190757     0.00176142
Spot 2     0.00168869     0.00175421
20MABNDA000334_PR005
Spot 1     0.00248283     0.00157818
Spot 2     0.00220260     0.00157849
20MABNDB000317_PR015
Spot 1     0.00146316     0.00168237
Spot 2     0.00168313     0.00167563
20MABNDB000146_PR016
Spot 1     0.00144681     0.00131405
Spot 2     0.00172248     0.00131657
20MABNDB000135_PR027
Spot 1     0.00188455     0.00089265
Spot 2     0.00210402     0.00089566
20MABNDB000126_PR028
Spot 1     0.00193227     0.00198162
Spot 2     0.00164930     0.00198070
20MABNDA000272_PR038
Spot 1     0.00192271     0.00095151
Spot 2     0.00170107     0.00095129
20MABNDA000003_PR039
Spot 1     0.00201466     0.00193081
Spot 2     0.00229402     0.00193168
20MABNDA000196_PR006
Spot 1     0.00138839     0.00067150
Spot 2     0.00175477     0.00067379
20MABNDA000324_PR007
Spot 1     0.00199709     0.00134114
Spot 2     0.00220307     0.00133601
20MABNDB000001_PR017
Spot 1     0.00185692     0.00088653
Spot 2     0.00222723     0.00089021
20MABNDB000260_PR019
Spot 1     0.00206689     0.00145749
Spot 2     0.00227150     0.00145700
20MABNDB000212_PR029
Spot 1     0.00220732     0.00069106
Spot 2     0.00184451     0.00068866
20MABNDB000128_PR030
Spot 1     0.00268595     0.00161691
Spot 2     0.00248721     0.00161924
20MABNDA000444_PR040
Spot 1     0.00179578     0.00069483
Spot 2     0.00100500     0.00002500
20MABNDA000053_PR041
Spot 1     0.00123562     0.00144454
Spot 2     0.00144071     0.00144506
20MABNDA000188_PR008
Spot 1     0.00297500     0.00011500
Spot 2     0.00297500     0.00011500
20MABNDA000188_PR018
Spot 1     0.00170590     0.00167053
Spot 2     0.00123817     0.00166769
20MABNDA000039_PR009
Spot 1     0.00066518     0.00117986
Spot 2     0.00061510     0.00118367
20MABNDA000039_PR011
Spot 1     0.00277099     0.00028387
Spot 2     0.00259488     0.00027845
20MABNDB000155_PR020
Spot 1     0.00061856     0.00112460
Spot 2     0.00068758     0.00111948
20MABNDB000155_PR022
Spot 1     0.00211514     0.00140978
Spot 2     0.00258865     0.00140531
20MABNDB000010_PR021
Spot 1     0.00286705     0.00115140
Spot 2     0.00292539     0.00115500
20MABNDB000010_PR023
Spot 1     0.00131360     0.00030227
Spot 2     0.00148885     0.00029943
20MABNDB000069_PR031
Spot 1     0.00021500     0.00240500
Spot 2     0.00021500     0.00240500
20MABNDB000069_PR033
Spot 1     0.00183019     0.00206344
Spot 2     0.00230019     0.00208422
20MABNDB000131_PR032
Spot 1     0.00277719     0.00108192
Spot 2     0.00283735     0.00108443
20MABNDB000131_PR034
Spot 1     0.00092084     0.00032701
Spot 2     0.00109730     0.00032639
20MABNDA000208_PR042
Spot 1     0.00284500     0.00011500
Spot 2     0.00284500     0.00011500
20MABNDA000208_PR046
Spot 1     0.00143853     0.00221830
Spot 2     0.00096858     0.00222075
20MABNDA000035_PR044
Spot 1     0.00074404     0.00125865
Spot 2     0.00068383     0.00125325
20MABNDA000035_PR045
Spot 1     0.00254767     0.00046909
Spot 2     0.00237005     0.00046781


****************************************************************coordonnees images transformees dans le repere MOUNT************************************************************************* 
20MABNDL000077_PR002
Spot 1     0.01158509     0.03451311    -0.07463200
Spot 2     0.01158509     0.03451311    -0.07463200
Spot 1     0.01192151     0.03413986    -0.07463200
Spot 2     0.01158509     0.03451311    -0.07463200
20MABNDL000077_PR003
Spot 1     0.01341356     0.03434551    -0.07463200
Spot 2     0.01341356     0.03434551    -0.07463200
Spot 1     0.01272301     0.03429215    -0.07463200
Spot 2     0.01272301     0.03429215    -0.07463200
20MABNDL000077_20MABNDM000168
Spot 1    -0.01259078     0.03524487    -0.00695400
Spot 2    -0.01157915     0.03417830    -0.00695400
Spot 1    -0.01259093     0.03524497    -0.00695400
Spot 2    -0.01157915     0.03417830    -0.00695400
20MABNDL000077_PR024
Spot 1    -0.01335207     0.03547449    -0.00695400
Spot 2    -0.01345176     0.03548548    -0.00695400
Spot 1    -0.01335228     0.03547470    -0.00695400
Spot 2    -0.01345162     0.03548566    -0.00695400
20MABNDM000020_PR013
Spot 1    -0.01394554    -0.03407018    -0.00523500
Spot 2    -0.01394554    -0.03407018    -0.00523500
Spot 1    -0.01394554    -0.03407018    -0.00523500
Spot 2    -0.01394554    -0.03407018    -0.00523500
20MABNDM000020_PR014
Spot 1    -0.01169601    -0.03561969    -0.00523500
Spot 2    -0.01185736    -0.03562626    -0.00523500
Spot 1    -0.01169558    -0.03562088    -0.00523500
Spot 2    -0.01185693    -0.03562773    -0.00523500
20MABNDM000020_20MABNDL000196
Spot 1     0.01270951    -0.03514847    -0.07583800
Spot 2     0.01238113    -0.03407361    -0.07583800
Spot 1     0.01270970    -0.03514852    -0.07583800
Spot 2     0.01238113    -0.03407361    -0.07583800
20MABNDM000020_PR035
Spot 1     0.01342195    -0.03546029    -0.07583800
Spot 2     0.01349898    -0.03549597    -0.07583800
20MABNDM000168_PR025
Spot 1    -0.01363996    -0.03581430    -0.00532900
Spot 2    -0.01379769    -0.03581991    -0.00532900
20MABNDM000168_PR026
Spot 1    -0.01173485    -0.03575612    -0.00532900
Spot 2    -0.01189627    -0.03575318    -0.00532900
20MABNDM000168_20MABNDL000077
Spot 1     0.01288396    -0.03529853    -0.07445100
Spot 2     0.01266603    -0.03530165    -0.07445100
20MABNDM000168_PR001
Spot 1     0.01361147    -0.03562867    -0.07445100
Spot 2     0.01371403    -0.03563198    -0.07445100
20MABNDL000196_PR036
Spot 1     0.01192492     0.03583815    -0.07483600
Spot 2     0.01208984     0.03583750    -0.07483600
20MABNDL000196_PR037
Spot 1     0.01381318     0.03566118    -0.07483600
Spot 2     0.01397215     0.03566447    -0.07483600
20MABNDL000196_20MABNDM000020
Spot 1    -0.01274878     0.03531064    -0.00611000
Spot 2    -0.01252779     0.03532038    -0.00611000
20MABNDL000196_PR012
Spot 1    -0.01143053     0.03490267    -0.00611000
Spot 2    -0.01355320     0.03563981    -0.00611000
20MABNDA000134_PR004
Spot 1    -0.01287832     0.01241142    -0.07608400
Spot 2    -0.01265932     0.01241255    -0.07608400
20MABNDA000334_PR005
Spot 1    -0.01312593     0.01255022    -0.07324100
Spot 2    -0.01284570     0.01254965    -0.07324100
20MABNDB000317_PR015
Spot 1    -0.01269209    -0.01241597    -0.07326100
Spot 2    -0.01247205    -0.01242014    -0.07326100
20MABNDB000146_PR016
Spot 1    -0.01276151    -0.01247956    -0.07450500
Spot 2    -0.01248585    -0.01247643    -0.07450500
20MABNDB000135_PR027
Spot 1    -0.01252038    -0.01322030    -0.07464700
Spot 2    -0.01230089    -0.01321973    -0.07464700
20MABNDB000126_PR028
Spot 1    -0.01224712    -0.01219902    -0.07500400
Spot 2    -0.01253008    -0.01220145    -0.07500400
20MABNDA000272_PR038
Spot 1    -0.01275836     0.01315996    -0.07417900
Spot 2    -0.01253672     0.01315978    -0.07417900
20MABNDA000003_PR039
Spot 1    -0.01281576     0.01212149    -0.07373400
Spot 2    -0.01309512     0.01212133    -0.07373400
20MABNDA000196_PR006
Spot 1    -0.01234240     0.01329904    -0.07967100
Spot 2    -0.01270878     0.01330146    -0.07967100
20MABNDA000324_PR007
Spot 1    -0.01260179     0.01268005    -0.07446800
Spot 2    -0.01280781     0.01268358    -0.07446800
20MABNDB000001_PR017
Spot 1    -0.01232670    -0.01310270    -0.07418400
Spot 2    -0.01195637    -0.01310294    -0.07418400
20MABNDB000260_PR019
Spot 1    -0.01226355    -0.01244208    -0.07492700
Spot 2    -0.01205898    -0.01243838    -0.07492700
20MABNDB000212_PR029
Spot 1    -0.01188063    -0.01328993    -0.07390500
Spot 2    -0.01224344    -0.01328845    -0.07390500
20MABNDB000128_PR030
Spot 1    -0.01166785    -0.01259769    -0.07353400
Spot 2    -0.01186659    -0.01259604    -0.07353400
20MABNDA000444_PR040
Spot 1    -0.01273120     0.01332168    -0.07412000
Spot 2    -0.01194898     0.01400149    -0.07412000
20MABNDA000053_PR041
Spot 1    -0.01198170     0.01265767    -0.07430100
Spot 2    -0.01218676     0.01266115    -0.07430100
20MABNDA000188_PR008
Spot 1    -0.01399107     0.01394961    -0.07502000
Spot 2    -0.01399107     0.01394961    -0.07502000
20MABNDA000188_PR018
Spot 1    -0.01273534     0.01238327    -0.07502000
Spot 2    -0.01226760     0.01238211    -0.07502000
20MABNDA000039_PR009
Spot 1    -0.01162733     0.01306428    -0.07444800
Spot 2    -0.01157727     0.01306025    -0.07444800
20MABNDA000039_PR011
Spot 1    -0.01372924     0.01396937    -0.07444800
Spot 2    -0.01355311     0.01397403    -0.07444800
20MABNDB000155_PR020
Spot 1    -0.01364753    -0.01313279    -0.07501700
Spot 2    -0.01357845    -0.01313696    -0.07501700
20MABNDB000155_PR022
Spot 1    -0.01215499    -0.01282715    -0.07501700
Spot 2    -0.01168147    -0.01282513    -0.07501700
20MABNDB000010_PR021
Spot 1    -0.01158393    -0.01292714    -0.07358200
Spot 2    -0.01152566    -0.01292255    -0.07358200
20MABNDB000010_PR023
Spot 1    -0.01312277    -0.01380246    -0.07358200
Spot 2    -0.01294750    -0.01380233    -0.07358200
20MABNDB000069_PR031
Spot 1    -0.01361993    -0.01186066    -0.07388500
Spot 2    -0.01361993    -0.01186066    -0.07388500
20MABNDB000069_PR033
Spot 1    -0.01202021    -0.01226859    -0.07388500
Spot 2    -0.01154975    -0.01226722    -0.07388500
20MABNDB000131_PR032
Spot 1    -0.01144298    -0.01303283    -0.07533000
Spot 2    -0.01138283    -0.01303002    -0.07533000
20MABNDB000131_PR034
Spot 1    -0.01329551    -0.01379708    -0.07533000
Spot 2    -0.01311905    -0.01379681    -0.07533000
20MABNDA000208_PR042
Spot 1    -0.01371645     0.01388121    -0.07273700
Spot 2    -0.01371645     0.01388121    -0.07273700
20MABNDA000208_PR046
Spot 1    -0.01230814     0.01177914    -0.07273700
Spot 2    -0.01183819     0.01177710    -0.07273700
20MABNDA000035_PR044
Spot 1    -0.01157870     0.01299864    -0.07483200
Spot 2    -0.01151845     0.01300361    -0.07483200
20MABNDA000035_PR045
Spot 1    -0.01337667     0.01380101    -0.07483200
Spot 2    -0.01319904     0.01380102    -0.07483200


*****************************************************************coordonnees du prisme dans le repere MOUNT********************************************************************************** 
20MABNDL000077_PR002
    0.06737348     0.07371713     3.70652628
    0.05906443     0.08293606     3.70653439
20MABNDL000077_PR003
   -0.02476418     0.08434060     3.89557457
    0.01108603     0.08711259     3.89571905
20MABNDL000077_20MABNDM000168
   -0.05603172     0.07587695    -5.46843529
   -0.05602626     0.07587340    -5.46843529
20MABNDL000077_PR024
    0.04320329     0.01913145    -5.89642859
    0.04320618     0.01911628    -5.89642859
20MABNDM000020_PR013
    0.05274186    -0.08860095    -3.80153990
    0.05274186    -0.08860095    -3.80153990
20MABNDM000020_PR014
   -0.06559908    -0.00536378    -4.74841213
   -0.06562580    -0.00528096    -4.74841118
20MABNDM000020_20MABNDL000196
    0.02684378    -0.07117859     5.39469719
    0.02683697    -0.07117680     5.39469719
20MABNDM000020_PR035
   -0.04260811    -0.00702235     5.80095387
20MABNDM000168_PR025
    0.03852299    -0.01215893    -3.78836727
20MABNDM000168_PR026
   -0.05785241    -0.01414813    -3.98429132
20MABNDM000168_20MABNDL000077
    0.01161025    -0.03886036     5.38884687
20MABNDM000168_PR001
   -0.05730503    -0.01347945     5.81470633
20MABNDL000196_PR036
    0.05140779     0.00546884     3.68776751
20MABNDL000196_PR037
   -0.04402212     0.01289930     3.88352108
20MABNDL000196_20MABNDM000020
   -0.01577571     0.03803887    -5.47473860
20MABNDL000196_PR012
   -0.02740719     0.04164159    -5.91575336
20MABNDA000134_PR004
   -0.00833232     0.03813504     2.74966097
20MABNDA000334_PR005
   -0.00399280     0.03146512     2.14977264
20MABNDB000317_PR015
   -0.01644881    -0.03697667     2.75126719
20MABNDB000146_PR016
   -0.01350294    -0.03126562     2.15201735
20MABNDB000135_PR027
   -0.02078087    -0.00902143     2.74937057
20MABNDB000126_PR028
   -0.02048287    -0.03814190     2.14680433
20MABNDA000272_PR038
   -0.01324612     0.01082338     2.74965858
20MABNDA000003_PR039
   -0.00551968     0.04137158     2.14891243
20MABNDA000196_PR006
   -0.01547453     0.00878633     1.64206028
20MABNDA000324_PR007
   -0.01525600     0.03279450     2.95548868
20MABNDB000001_PR017
   -0.02360730    -0.01257402     1.64039505
20MABNDB000260_PR019
   -0.03010579    -0.03668111     2.95626044
20MABNDB000212_PR029
   -0.02479627    -0.00822729     1.64224184
20MABNDB000128_PR030
   -0.04229336    -0.03192743     2.95495367
20MABNDA000444_PR040
   -0.01991119     0.00119844     1.64498830
20MABNDA000053_PR041
   -0.03534167     0.02985376     2.95464659
20MABNDA000188_PR008
    0.14616936    -0.09611703     9.20304298
20MABNDA000188_PR018
   -0.01604129     0.02468994     1.28359365
20MABNDA000039_PR009
   -0.17117822     0.02554447    11.00701523
20MABNDA000039_PR011
    0.03089908    -0.02447043     3.43347001
20MABNDB000155_PR020
    0.10203044    -0.00822883     9.20028305
20MABNDB000155_PR022
   -0.02564938    -0.01771963     1.28070712
20MABNDB000010_PR021
   -0.17617463    -0.03354398    11.00694656
20MABNDB000010_PR023
    0.00423447     0.02077878     3.43376684
20MABNDB000069_PR031
    0.10999375    -0.16176865     9.20229721
20MABNDB000069_PR033
   -0.02692202    -0.02685357     1.28394032
20MABNDB000131_PR032
   -0.18799098    -0.03034208    11.00641918
20MABNDB000131_PR034
    0.01447041     0.01637481     3.43337870
20MABNDA000208_PR042
    0.11037338    -0.08822197     9.20121384
20MABNDA000208_PR046
   -0.02363002     0.03491047     1.28207552
20MABNDA000035_PR044
   -0.17936429     0.02698399    11.00803185
20MABNDA000035_PR045
    0.01469467    -0.01907315     3.43483520


*****************************************************************coordonnees du prisme dans le repere ATLAS********************************************************************************** 
20MABNDL000077_PR002 0.00000000
    2.78332901    -3.67712641     6.48587990
    2.77410746    -3.68543243     6.48588657
20MABNDL000077_PR003 0.00000000
    2.77286172    -3.76949382     6.67482471
    2.77010131    -3.73364305     6.67501593
20MABNDL000077_20MABNDM000168 0.00000000
    2.77213049    -3.78921080    -2.68922043
    2.77213407    -3.78920531    -2.68922043
20MABNDL000077_PR024 0.00000000
    2.82848763    -3.68946600    -3.11714649
    2.82850289    -3.68946290    -3.11714649
20MABNDM000020_PR013 0.00000000
   -2.76372600    -3.79224682     6.48532534
   -2.76372600    -3.79224682     6.48532534
20MABNDM000020_PR014 0.00000000
   -2.84673738    -3.67460060     7.43230391
   -2.84682012    -3.67457366     7.43230295
20MABNDM000020_20MABNDL000196 0.00000000
   -2.78298068    -3.75934935    -2.71088576
   -2.78298235    -3.75934243    -2.71088576
20MABNDM000020_PR035 0.00000000
   -2.84719706    -3.68956876    -3.11707664
20MABNDM000168_PR025 0.00000000
    2.84107256    -3.78385448    -6.47897911
20MABNDM000168_PR026 0.00000000
    2.83909678    -3.68755126    -6.67493868
20MABNDM000168_20MABNDL000077 0.00000000
    2.81493521    -3.75352240     2.69822621
20MABNDM000168_PR001 0.00000000
    2.84036016    -3.68445539     3.12405849
20MABNDL000196_PR036 0.00000000
   -2.84813881    -3.69286680    -6.47909117
20MABNDL000196_PR037 0.00000000
   -2.84066820    -3.78847551    -6.67475605
20MABNDL000196_20MABNDM000020 0.00000000
   -2.81533933    -3.75151229     2.68347287
20MABNDL000196_PR012 0.00000000
   -2.81172180    -3.76273179     3.12449837
20MABNDA000134_PR004 0.00000000
    2.61467099    -4.19699001     3.83386350
20MABNDA000334_PR005 0.00000000
    2.61700583    -4.19703007     5.89779568
20MABNDB000317_PR015 0.00000000
   -2.61215854    -4.19699240     3.83303881
20MABNDB000146_PR016 0.00000000
   -2.61279225    -4.19702053     5.89908457
20MABNDB000135_PR027 0.00000000
    2.60408258    -4.19700480    -3.82633948
20MABNDB000126_PR028 0.00000000
    2.60543394    -4.19701529    -5.89407778
20MABNDA000272_PR038 0.00000000
   -2.61129069    -4.19698286    -3.82766104
20MABNDA000003_PR039 0.00000000
   -2.61621141    -4.19702339    -5.89139509
20MABNDA000196_PR006 0.00000000
    2.58993530    -4.19496870     6.54674339
20MABNDA000324_PR007 0.00000000
    2.60405946    -4.13996267     6.94312191
20MABNDB000001_PR017 0.00000000
   -2.59731197    -4.19499016     6.54790211
20MABNDB000260_PR019 0.00000000
   -2.59865665    -4.13996840     6.94396496
20MABNDB000212_PR029 0.00000000
    2.59847403    -4.19500685    -6.54721498
20MABNDB000128_PR030 0.00000000
    2.58656836    -4.14004183    -6.94619846
20MABNDA000444_PR040 0.00000000
   -2.59508371    -4.19501972    -6.54038000
20MABNDA000053_PR041 0.00000000
   -2.58519816    -4.14003944    -6.94805908
20MABNDA000188_PR008 0.00000000
    3.55893064     3.84859109     8.10764503
20MABNDA000188_PR018 0.00000000
    3.52107859    -4.07059574     7.89876080
20MABNDA000039_PR009 0.00000000
    3.87535024     3.64747334    12.93683815
20MABNDA000039_PR011 0.00000000
    3.66412497    -3.92580581    12.88436604
20MABNDB000155_PR020 0.00000000
   -3.68068314     3.84881639     7.89863825
20MABNDB000155_PR022 0.00000000
   -3.53433108    -4.07043791     7.89033937
20MABNDB000010_PR021 0.00000000
   -3.86201191     3.64768386    12.93537331
20MABNDB000010_PR023 0.00000000
   -3.68543243    -3.92561007    12.88449669
20MABNDB000069_PR031 0.00000000
    3.69177032     3.84800911    -7.77863359
20MABNDB000069_PR033 0.00000000
    3.53337741    -4.07046270    -7.87881756
20MABNDB000131_PR032 0.00000000
    3.86879325     3.64756918   -12.94098473
20MABNDB000131_PR034 0.00000000
    3.67331886    -3.92563796   -12.89157295
20MABNDA000208_PR042 0.00000000
   -3.66039658     3.84884048    -7.99969625
20MABNDA000208_PR046 0.00000000
   -3.53213573    -4.07034636    -7.87360764
20MABNDA000035_PR044 0.00000000
   -3.86860538     3.64758706   -12.93266296
20MABNDA000035_PR045 0.00000000
   -3.67603374    -3.92565203   -12.88731098


*****************************************************************Rapport********************************************************************************** 
CAM-LBA-US_EBA-US-HO-H         2023.06.06.01.44.41     2.77871823    -3.68127942     6.48588324     0.00461078     0.00415301     0.00000334 0.00000000 VRAI 
CAM-LBA-US_JDA-US-H            2023.06.06.01.44.41     2.77148151    -3.75156844     6.67492032     0.00138021     0.01792538     0.00009561 0.00000000 VRAI 
CAM-LBA-US_CAM-LBC-US          2023.06.06.01.44.41     2.77213228    -3.78920805    -2.68922043     0.00000179     0.00000274     0.00000000 0.00000000 VRAI 
CAM-LBA-US_EBC-US-IP-H         2023.06.06.01.44.41     2.82849526    -3.68946445    -3.11714649     0.00000763     0.00000155     0.00000000 0.00000000 VRAI 
CAM-LBA-USA_EBA-USA-HO-H       2023.06.06.01.44.41    -2.76372600    -3.79224682     6.48532534     0.00000000     0.00000000     0.00000000 0.00000000 VRAI 
CAM-LBA-USA_JDA-USA-H          2023.06.06.01.44.41    -2.84677875    -3.67458713     7.43230343     0.00004137     0.00001347     0.00000048 0.00000000 VRAI 
CAM-LBA-USA_CAM-LBC-USA        2023.06.06.01.44.41    -2.78298151    -3.75934589    -2.71088576     0.00000083     0.00000346     0.00000000 0.00000000 VRAI 
CAM-LBA-USA_EBC-USA-IP-H       2023.06.06.01.44.41    -2.84719706    -3.68956876    -3.11707664     0.00000000     0.00000000     0.00000000 0.00000000 VRAI 
CAM-LBC-US_EBC-US-HO-H         2023.06.06.01.44.41     2.84107256    -3.78385448    -6.47897911     0.00000000     0.00000000     0.00000000 0.00000000 VRAI 
CAM-LBC-US_JDC-US-H            2023.06.06.01.44.41     2.83909678    -3.68755126    -6.67493868     0.00000000     0.00000000     0.00000000 0.00000000 VRAI 
CAM-LBC-US_CAM-LBA-US          2023.06.06.01.44.41     2.81493521    -3.75352240     2.69822621     0.00000000     0.00000000     0.00000000 0.00000000 VRAI 
CAM-LBC-US_EBA-US-IP-H         2023.06.06.01.44.41     2.84036016    -3.68445539     3.12405849     0.00000000     0.00000000     0.00000000 0.00000000 VRAI 
CAM-LBC-USA_EBC-USA-HO-H       2023.06.06.01.44.41    -2.84813881    -3.69286680    -6.47909117     0.00000000     0.00000000     0.00000000 0.00000000 VRAI 
CAM-LBC-USA_JDC-USA-H          2023.06.06.01.44.41    -2.84066820    -3.78847551    -6.67475605     0.00000000     0.00000000     0.00000000 0.00000000 VRAI 
CAM-LBC-USA_CAM-LBA-USA        2023.06.06.01.44.41    -2.81533933    -3.75151229     2.68347287     0.00000000     0.00000000     0.00000000 0.00000000 VRAI 
CAM-LBC-USA_EBA-USA-IP-H       2023.06.06.01.44.41    -2.81172180    -3.76273179     3.12449837     0.00000000     0.00000000     0.00000000 0.00000000 VRAI 
CAM-EBA-US-IP_EBA-US-IP        2023.06.06.01.44.41     2.61467099    -4.19699001     3.83386350     0.00000000     0.00000000     0.00000000 0.00000000 VRAI 
CAM-EBA-US-HO_EBA-US-HO        2023.06.06.01.44.41     2.61700583    -4.19703007     5.89779568     0.00000000     0.00000000     0.00000000 0.00000000 VRAI 
CAM-EBA-USA-IP_EBA-USA-IP      2023.06.06.01.44.41    -2.61215854    -4.19699240     3.83303881     0.00000000     0.00000000     0.00000000 0.00000000 VRAI 
CAM-EBA-USA-HO_EBA-USA-HO      2023.06.06.01.44.41    -2.61279225    -4.19702053     5.89908457     0.00000000     0.00000000     0.00000000 0.00000000 VRAI 
CAM-EBC-US-IP_EBC-US-IP        2023.06.06.01.44.41     2.60408258    -4.19700480    -3.82633948     0.00000000     0.00000000     0.00000000 0.00000000 VRAI 
CAM-EBC-US-HO_EBC-US-HO        2023.06.06.01.44.41     2.60543394    -4.19701529    -5.89407778     0.00000000     0.00000000     0.00000000 0.00000000 VRAI 
CAM-EBC-USA-IP_EBC-USA-IP      2023.06.06.01.44.41    -2.61129069    -4.19698286    -3.82766104     0.00000000     0.00000000     0.00000000 0.00000000 VRAI 
CAM-EBC-USA-HO_EBC-USA-HO      2023.06.06.01.44.41    -2.61621141    -4.19702339    -5.89139509     0.00000000     0.00000000     0.00000000 0.00000000 VRAI 
CAM-JDA-US-IP_JDA-US-IP        2023.06.06.01.44.41     2.58993530    -4.19496870     6.54674339     0.00000000     0.00000000     0.00000000 0.00000000 VRAI 
CAM-JDA-US-HO_JDA-US-HO        2023.06.06.01.44.41     2.60405946    -4.13996267     6.94312191     0.00000000     0.00000000     0.00000000 0.00000000 VRAI 
CAM-JDA-USA-IP_JDA-USA-IP      2023.06.06.01.44.41    -2.59731197    -4.19499016     6.54790211     0.00000000     0.00000000     0.00000000 0.00000000 VRAI 
CAM-JDA-USA-HO_JDA-USA-HO      2023.06.06.01.44.41    -2.59865665    -4.13996840     6.94396496     0.00000000     0.00000000     0.00000000 0.00000000 VRAI 
CAM-JDC-US-IP_JDC-US-IP        2023.06.06.01.44.41     2.59847403    -4.19500685    -6.54721498     0.00000000     0.00000000     0.00000000 0.00000000 VRAI 
CAM-JDC-US-HO_JDC-US-HO        2023.06.06.01.44.41     2.58656836    -4.14004183    -6.94619846     0.00000000     0.00000000     0.00000000 0.00000000 VRAI 
CAM-JDC-USA-IP_JDC-USA-IP      2023.06.06.01.44.41    -2.59508371    -4.19501972    -6.54038000     0.00000000     0.00000000     0.00000000 0.00000000 VRAI 
CAM-JDC-USA-HO_JDC-USA-HO      2023.06.06.01.44.41    -2.58519816    -4.14003944    -6.94805908     0.00000000     0.00000000     0.00000000 0.00000000 VRAI 
CAM-ECTA-US-IP_ECTA-US-IP-T    2023.06.06.01.44.41     3.55893064     3.84859109     8.10764503     0.00000000     0.00000000     0.00000000 0.00000000 VRAI 
CAM-ECTA-US-IP_ECTA-US-IP      2023.06.06.01.44.41     3.52107859    -4.07059574     7.89876080     0.00000000     0.00000000     0.00000000 0.00000000 VRAI 
CAM-ECTA-US-HO_ECTA-US-HO-T    2023.06.06.01.44.41     3.87535024     3.64747334    12.93683815     0.00000000     0.00000000     0.00000000 0.00000000 VRAI 
CAM-ECTA-US-HO_ECTA-US-HO      2023.06.06.01.44.41     3.66412497    -3.92580581    12.88436604     0.00000000     0.00000000     0.00000000 0.00000000 VRAI 
CAM-ECTA-USA-IP_ECTA-USA-IP-T  2023.06.06.01.44.41    -3.68068314     3.84881639     7.89863825     0.00000000     0.00000000     0.00000000 0.00000000 VRAI 
CAM-ECTA-USA-IP_ECTA-USA-IP    2023.06.06.01.44.41    -3.53433108    -4.07043791     7.89033937     0.00000000     0.00000000     0.00000000 0.00000000 VRAI 
CAM-ECTA-USA-HO_ECTA-USA-HO-T  2023.06.06.01.44.41    -3.86201191     3.64768386    12.93537331     0.00000000     0.00000000     0.00000000 0.00000000 VRAI 
CAM-ECTA-USA-HO_ECTA-USA-HO    2023.06.06.01.44.41    -3.68543243    -3.92561007    12.88449669     0.00000000     0.00000000     0.00000000 0.00000000 VRAI 
CAM-ECTC-US-IP_ECTC-US-IP-T    2023.06.06.01.44.41     3.69177032     3.84800911    -7.77863359     0.00000000     0.00000000     0.00000000 0.00000000 VRAI 
CAM-ECTC-US-IP_ECTC-US-IP      2023.06.06.01.44.41     3.53337741    -4.07046270    -7.87881756     0.00000000     0.00000000     0.00000000 0.00000000 VRAI 
CAM-ECTC-US-HO_ECTC-US-HO-T    2023.06.06.01.44.41     3.86879325     3.64756918   -12.94098473     0.00000000     0.00000000     0.00000000 0.00000000 VRAI 
CAM-ECTC-US-HO_ECTC-US-HO      2023.06.06.01.44.41     3.67331886    -3.92563796   -12.89157295     0.00000000     0.00000000     0.00000000 0.00000000 VRAI 
CAM-ECTC-USA-IP_ECTC-USA-IP-T  2023.06.06.01.44.41    -3.66039658     3.84884048    -7.99969625     0.00000000     0.00000000     0.00000000 0.00000000 VRAI 
CAM-ECTC-USA-IP_ECTC-USA-IP    2023.06.06.01.44.41    -3.53213573    -4.07034636    -7.87360764     0.00000000     0.00000000     0.00000000 0.00000000 VRAI 
CAM-ECTC-USA-HO_ECTC-USA-HO-T  2023.06.06.01.44.41    -3.86860538     3.64758706   -12.93266296     0.00000000     0.00000000     0.00000000 0.00000000 VRAI 
CAM-ECTC-USA-HO_ECTC-USA-HO    2023.06.06.01.44.41    -3.67603374    -3.92565203   -12.88731098     0.00000000     0.00000000     0.00000000 0.00000000 VRAI 
