********** Fichier qui contient une sauvegarde des coordonnees images + coordonnees images transformees dans le repere BCAM (MOUNT) + coordonnees des prismes dans le repere MOUNT********** 
********************************************************************** Unite en metres (m)************************************************************************************************** 

*******************************************************************coordonnees images dans le repere CCD *********************************************************************************** 
20MABNDL000077_PR002
Spot 1     0.00109500     0.00008500
Spot 2     0.00109500     0.00008500
Spot 1     0.00109500     0.00008500
Spot 2     0.00109500     0.00008500
20MABNDL000077_PR003
Spot 1     0.00235500     0.00028500
Spot 2     0.00235500     0.00028500
Spot 1     0.00235500     0.00028500
Spot 2     0.00235500     0.00028500
20MABNDL000077_20MABNDM000168
Spot 1     0.00175618     0.00118219
Spot 2     0.00156906     0.00122438
Spot 1     0.00175637     0.00118238
Spot 2     0.00075500     0.00010500
20MABNDL000077_PR024
Spot 1     0.00254873     0.00147820
Spot 2     0.00265175     0.00147644
Spot 1     0.00254830     0.00147851
Spot 2     0.00265126     0.00147682
20MABNDM000020_PR013
Spot 1     0.00044500     0.00008500
Spot 2     0.00044500     0.00008500
20MABNDM000020_PR014
Spot 1     0.00265953     0.00168427
Spot 2     0.00249756     0.00168756
20MABNDM000020_20MABNDL000196
Spot 1     0.00197532     0.00117990
Spot 2     0.00095500     0.00013500
20MABNDM000020_PR035
Spot 1     0.00125743     0.00148711
Spot 2     0.00118401     0.00152532
20MABNDM000168_PR025
Spot 1     0.00075705     0.00147188
Spot 2     0.00059902     0.00147677
20MABNDM000168_PR026
Spot 1     0.00266615     0.00142862
Spot 2     0.00250468     0.00142449
20MABNDM000168_20MABNDL000077
Spot 1     0.00154163     0.00129779
Spot 2     0.00175814     0.00130231
20MABNDM000168_PR001
Spot 1     0.00080765     0.00161463
Spot 2     0.00070603     0.00161786
20MABNDL000196_PR036
Spot 1     0.00094673     0.00164692
Spot 2     0.00111186     0.00164588
20MABNDL000196_PR037
Spot 1     0.00283703     0.00146233
Spot 2     0.00299604     0.00146484
20MABNDL000196_20MABNDM000020
Spot 1     0.00192609     0.00103712
Spot 2     0.00170485     0.00104245
20MABNDL000196_PR012
Spot 1     0.00265079     0.00133780
Spot 2     0.00272273     0.00138495
20MABNDA000134_PR004
Spot 1     0.00190215     0.00177282
Spot 2     0.00168366     0.00176455
20MABNDA000334_PR005
Spot 1     0.00248056     0.00159073
Spot 2     0.00220028     0.00159098
20MABNDB000317_PR015
Spot 1     0.00168414     0.00167461
Spot 2     0.00146353     0.00167969
20MABNDB000146_PR016
Spot 1     0.00144633     0.00131272
Spot 2     0.00172232     0.00131500
20MABNDB000135_PR027
Spot 1     0.00188372     0.00091021
Spot 2     0.00210300     0.00091211
20MABNDB000126_PR028
Spot 1     0.00192749     0.00200590
Spot 2     0.00164399     0.00200393
20MABNDA000272_PR038
Spot 1     0.00192000     0.00096693
Spot 2     0.00169734     0.00096422
20MABNDA000003_PR039
Spot 1     0.00200841     0.00195284
Spot 2     0.00228698     0.00195381
20MABNDA000196_PR006
Spot 1     0.00140883     0.00066238
Spot 2     0.00177507     0.00066493
20MABNDA000324_PR007
Spot 1     0.00199105     0.00134790
Spot 2     0.00219671     0.00134211
20MABNDB000001_PR017
Spot 1     0.00186122     0.00089328
Spot 2     0.00223215     0.00089681
20MABNDB000260_PR019
Spot 1     0.00205872     0.00145469
Spot 2     0.00226336     0.00145385
20MABNDB000212_PR029
Spot 1     0.00219770     0.00068543
Spot 2     0.00183470     0.00068379
20MABNDB000128_PR030
Spot 1     0.00267996     0.00162119
Spot 2     0.00248205     0.00162472
20MABNDA000444_PR040
Spot 1     0.00107559     0.00067773
Spot 2     0.00144408     0.00067447
20MABNDA000053_PR041
Spot 1     0.00123183     0.00145092
Spot 2     0.00143717     0.00145126
20MABNDA000188_PR008
Spot 1     0.00297500     0.00011500
Spot 2     0.00297500     0.00011500
20MABNDA000188_PR018
Spot 1     0.00166107     0.00172546
Spot 2     0.00119516     0.00172014
20MABNDA000039_PR009
Spot 1     0.00066233     0.00117138
Spot 2     0.00061245     0.00117470
20MABNDA000039_PR011
Spot 1     0.00276040     0.00026137
Spot 2     0.00258387     0.00025565
20MABNDB000155_PR020
Spot 1     0.00061440     0.00111850
Spot 2     0.00068464     0.00111391
20MABNDB000155_PR022
Spot 1     0.00207594     0.00136206
Spot 2     0.00254937     0.00135763
20MABNDB000010_PR021
Spot 1     0.00286381     0.00116718
Spot 2     0.00292324     0.00116807
20MABNDB000010_PR023
Spot 1     0.00130511     0.00032530
Spot 2     0.00148196     0.00032365
20MABNDB000069_PR031
Spot 1     0.00021500     0.00240500
Spot 2     0.00021500     0.00240500
20MABNDB000069_PR033
Spot 1     0.00185632     0.00204446
Spot 2     0.00232694     0.00206479
20MABNDB000131_PR032
Spot 1     0.00277740     0.00108317
Spot 2     0.00283772     0.00108668
20MABNDB000131_PR034
Spot 1     0.00092200     0.00032951
Spot 2     0.00109858     0.00032986
20MABNDA000208_PR042
Spot 1     0.00332438     0.00040563
Spot 2     0.00332500     0.00040500
20MABNDA000208_PR046
Spot 1     0.00147408     0.00216235
Spot 2     0.00100205     0.00216405
20MABNDA000035_PR044
Spot 1     0.00074916     0.00126378
Spot 2     0.00068867     0.00125732
20MABNDA000035_PR045
Spot 1     0.00255259     0.00048401
Spot 2     0.00237405     0.00048533


****************************************************************coordonnees images transformees dans le repere MOUNT************************************************************************* 
20MABNDL000077_PR002
Spot 1     0.01215169     0.03415765    -0.07463200
Spot 2     0.01215169     0.03415765    -0.07463200
Spot 1     0.01215169     0.03415765    -0.07463200
Spot 2     0.01215169     0.03415765    -0.07463200
20MABNDL000077_PR003
Spot 1     0.01341356     0.03434551    -0.07463200
Spot 2     0.01341356     0.03434551    -0.07463200
Spot 1     0.01341356     0.03434551    -0.07463200
Spot 2     0.01341356     0.03434551    -0.07463200
20MABNDL000077_20MABNDM000168
Spot 1    -0.01259130     0.03524518    -0.00695400
Spot 2    -0.01240462     0.03528929    -0.00695400
Spot 1    -0.01259149     0.03524537    -0.00695400
Spot 2    -0.01157915     0.03417830    -0.00695400
20MABNDL000077_PR024
Spot 1    -0.01338684     0.03553307    -0.00695400
Spot 2    -0.01348984     0.03553025    -0.00695400
Spot 1    -0.01338641     0.03553338    -0.00695400
Spot 2    -0.01348935     0.03553064    -0.00695400
20MABNDM000020_PR013
Spot 1    -0.01394554    -0.03407018    -0.00523500
Spot 2    -0.01394554    -0.03407018    -0.00523500
20MABNDM000020_PR014
Spot 1    -0.01169618    -0.03562008    -0.00523500
Spot 2    -0.01185804    -0.03562695    -0.00523500
20MABNDM000020_20MABNDL000196
Spot 1     0.01271096    -0.03514846    -0.07583800
Spot 2     0.01373113    -0.03410342    -0.07583800
20MABNDM000020_PR035
Spot 1     0.01342889    -0.03545557    -0.07583800
Spot 2     0.01350231    -0.03549377    -0.07583800
20MABNDM000168_PR025
Spot 1    -0.01364508    -0.03581087    -0.00532900
Spot 2    -0.01380309    -0.03581643    -0.00532900
20MABNDM000168_PR026
Spot 1    -0.01173619    -0.03575941    -0.00532900
Spot 2    -0.01189767    -0.03575597    -0.00532900
20MABNDM000168_20MABNDL000077
Spot 1     0.01288386    -0.03529842    -0.07445100
Spot 2     0.01266731    -0.03529977    -0.07445100
20MABNDM000168_PR001
Spot 1     0.01361313    -0.03562597    -0.07445100
Spot 2     0.01371469    -0.03563068    -0.07445100
20MABNDL000196_PR036
Spot 1     0.01192664     0.03583562    -0.07483600
Spot 2     0.01209177     0.03583492    -0.07483600
20MABNDL000196_PR037
Spot 1     0.01381732     0.03565497    -0.07483600
Spot 2     0.01397632     0.03565781    -0.07483600
20MABNDL000196_20MABNDM000020
Spot 1    -0.01275005     0.03530832    -0.00611000
Spot 2    -0.01252896     0.03531810    -0.00611000
20MABNDL000196_PR012
Spot 1    -0.01348065     0.03559436    -0.00611000
Spot 2    -0.01355353     0.03564005    -0.00611000
20MABNDA000134_PR004
Spot 1    -0.01287322     0.01239987    -0.07608400
Spot 2    -0.01265458     0.01240208    -0.07608400
20MABNDA000334_PR005
Spot 1    -0.01312368     0.01253767    -0.07324100
Spot 2    -0.01284340     0.01253716    -0.07324100
20MABNDB000317_PR015
Spot 1    -0.01247103    -0.01242115    -0.07326100
Spot 2    -0.01269169    -0.01241864    -0.07326100
20MABNDB000146_PR016
Spot 1    -0.01276199    -0.01248089    -0.07450500
Spot 2    -0.01248600    -0.01247800    -0.07450500
20MABNDB000135_PR027
Spot 1    -0.01252102    -0.01320273    -0.07464700
Spot 2    -0.01230173    -0.01320327    -0.07464700
20MABNDB000126_PR028
Spot 1    -0.01225203    -0.01217476    -0.07500400
Spot 2    -0.01253552    -0.01217824    -0.07500400
20MABNDA000272_PR038
Spot 1    -0.01275568     0.01314453    -0.07417900
Spot 2    -0.01253302     0.01314685    -0.07417900
20MABNDA000003_PR039
Spot 1    -0.01280956     0.01209945    -0.07373400
Spot 2    -0.01308813     0.01209918    -0.07373400
20MABNDA000196_PR006
Spot 1    -0.01236272     0.01330842    -0.07967100
Spot 2    -0.01272897     0.01331058    -0.07967100
20MABNDA000324_PR007
Spot 1    -0.01259570     0.01267334    -0.07446800
Spot 2    -0.01280140     0.01267753    -0.07446800
20MABNDB000001_PR017
Spot 1    -0.01232233    -0.01309600    -0.07418400
Spot 2    -0.01195138    -0.01309639    -0.07418400
20MABNDB000260_PR019
Spot 1    -0.01227166    -0.01244505    -0.07492700
Spot 2    -0.01206705    -0.01244170    -0.07492700
20MABNDB000212_PR029
Spot 1    -0.01189031    -0.01329545    -0.07390500
Spot 2    -0.01225331    -0.01329322    -0.07390500
20MABNDB000128_PR030
Spot 1    -0.01167385    -0.01259343    -0.07353400
Spot 2    -0.01187177    -0.01259058    -0.07353400
20MABNDA000444_PR040
Spot 1    -0.01201128     0.01334792    -0.07412000
Spot 2    -0.01237978     0.01334650    -0.07412000
20MABNDA000053_PR041
Spot 1    -0.01197804     0.01265121    -0.07430100
Spot 2    -0.01218334     0.01265488    -0.07430100
20MABNDA000188_PR008
Spot 1    -0.01399107     0.01394961    -0.07502000
Spot 2    -0.01399107     0.01394961    -0.07502000
20MABNDA000188_PR018
Spot 1    -0.01269098     0.01232796    -0.07502000
Spot 2    -0.01222504     0.01232929    -0.07502000
20MABNDA000039_PR009
Spot 1    -0.01162444     0.01307275    -0.07444800
Spot 2    -0.01157458     0.01306921    -0.07444800
20MABNDA000039_PR011
Spot 1    -0.01371856     0.01399183    -0.07444800
Spot 2    -0.01354200     0.01399678    -0.07444800
20MABNDB000155_PR020
Spot 1    -0.01365160    -0.01313894    -0.07501700
Spot 2    -0.01358131    -0.01314257    -0.07501700
20MABNDB000155_PR022
Spot 1    -0.01219354    -0.01287540    -0.07501700
Spot 2    -0.01172009    -0.01287335    -0.07501700
20MABNDB000010_PR021
Spot 1    -0.01158744    -0.01291142    -0.07358200
Spot 2    -0.01152803    -0.01290952    -0.07358200
20MABNDB000010_PR023
Spot 1    -0.01313165    -0.01377958    -0.07358200
Spot 2    -0.01295480    -0.01377823    -0.07358200
20MABNDB000069_PR031
Spot 1    -0.01361993    -0.01186066    -0.07388500
Spot 2    -0.01361993    -0.01186066    -0.07388500
20MABNDB000069_PR033
Spot 1    -0.01199488    -0.01228863    -0.07388500
Spot 2    -0.01152383    -0.01228774    -0.07388500
20MABNDB000131_PR032
Spot 1    -0.01144278    -0.01303158    -0.07533000
Spot 2    -0.01138248    -0.01302777    -0.07533000
20MABNDB000131_PR034
Spot 1    -0.01329436    -0.01379457    -0.07533000
Spot 2    -0.01311778    -0.01379333    -0.07533000
20MABNDA000208_PR042
Spot 1    -0.01419558     0.01359016    -0.07273700
Spot 2    -0.01419620     0.01359079    -0.07273700
20MABNDA000208_PR046
Spot 1    -0.01234374     0.01183506    -0.07273700
Spot 2    -0.01187171     0.01183377    -0.07273700
20MABNDA000035_PR044
Spot 1    -0.01158386     0.01299354    -0.07483200
Spot 2    -0.01152332     0.01299957    -0.07483200
20MABNDA000035_PR045
Spot 1    -0.01338169     0.01378612    -0.07483200
Spot 2    -0.01320317     0.01378353    -0.07483200


*****************************************************************coordonnees du prisme dans le repere MOUNT********************************************************************************** 
20MABNDL000077_PR002
    0.03938594     0.09127724     3.70661330
    0.03938594     0.09127724     3.70661330
20MABNDL000077_PR003
   -0.02476418     0.08434060     3.89557457
   -0.02476418     0.08434060     3.89557457
20MABNDL000077_20MABNDM000168
   -0.02620213     0.03574301    -5.46873951
   -0.05600589     0.07585880    -5.46843529
20MABNDL000077_PR024
    0.04604287     0.01510270    -5.89638805
    0.04600728     0.01507543    -5.89638805
20MABNDM000020_PR013
    0.05274186    -0.08860095    -3.80153990
20MABNDM000020_PR014
   -0.06557244    -0.00532989    -4.74841213
20MABNDM000020_20MABNDL000196
   -0.02157517    -0.07011023     5.39461327
20MABNDM000020_PR035
   -0.04300410    -0.00728901     5.80095196
20MABNDM000168_PR025
    0.03878328    -0.01232990    -3.78836441
20MABNDM000168_PR026
   -0.05778099    -0.01399008    -3.98429132
20MABNDM000168_20MABNDL000077
    0.01156789    -0.03893195     5.38884640
20MABNDM000168_PR001
   -0.05739491    -0.01363475     5.81470633
20MABNDL000196_PR036
    0.05131818     0.00559433     3.68776917
20MABNDL000196_PR037
   -0.04423712     0.01323184     3.88352013
20MABNDL000196_20MABNDM000020
   -0.01568776     0.03820415    -5.47473860
20MABNDL000196_PR012
    0.05228061     0.01475041    -5.91537380
20MABNDA000134_PR004
   -0.00851244     0.03853798     2.74965811
20MABNDA000334_PR005
   -0.00405806     0.03182295     2.14976978
20MABNDB000317_PR015
   -0.01647468    -0.03690961     2.75126791
20MABNDB000146_PR016
   -0.01349383    -0.03122390     2.15201759
20MABNDB000135_PR027
   -0.02075389    -0.00964538     2.74937153
20MABNDB000126_PR028
   -0.02033542    -0.03881818     2.14679694
20MABNDA000272_PR038
   -0.01336320     0.01134306     2.74965906
20MABNDA000003_PR039
   -0.00570803     0.04200303     2.14890432
20MABNDA000196_PR006
   -0.01503204     0.00858421     1.64206028
20MABNDA000324_PR007
   -0.01550199     0.03304565     2.95548677
20MABNDB000001_PR017
   -0.02370960    -0.01271885     1.64039445
20MABNDB000260_PR019
   -0.02978710    -0.03655741     2.95626354
20MABNDB000212_PR029
   -0.02458201    -0.00811443     1.64224315
20MABNDB000128_PR030
   -0.04207353    -0.03211854     2.95495439
20MABNDA000444_PR040
   -0.02307796     0.00808525     1.64500713
20MABNDA000053_PR041
   -0.03548072     0.03010351     2.95464396
20MABNDA000188_PR008
    0.14616936    -0.09611703     9.20304298
20MABNDA000188_PR018
   -0.01678529     0.02561544     1.28358293
20MABNDA000039_PR009
   -0.17158590     0.02427009    11.00701141
20MABNDA000039_PR011
    0.03040187    -0.02550150     3.43346500
20MABNDB000155_PR020
    0.10245641    -0.00750649     9.20027733
20MABNDB000155_PR022
   -0.02499007    -0.01689535     1.28071630
20MABNDB000010_PR021
   -0.17574257    -0.03565785    11.00694847
20MABNDB000010_PR023
    0.00460548     0.01970154     3.43377519
20MABNDB000069_PR031
    0.10999375    -0.16176865     9.20229721
20MABNDB000069_PR033
   -0.02736027    -0.02650672     1.28393912
20MABNDB000131_PR032
   -0.18803206    -0.03059802    11.00641823
20MABNDB000131_PR034
    0.01441550     0.01623848     3.43338013
20MABNDA000208_PR042
    0.16921157    -0.05252928     9.20056343
20MABNDA000208_PR046
   -0.02303960     0.03394879     1.28209639
20MABNDA000035_PR044
   -0.17863117     0.02765171    11.00804138
20MABNDA000035_PR045
    0.01490354    -0.01833435     3.43484020


*****************************************************************coordonnees du prisme dans le repere ATLAS********************************************************************************** 
20MABNDL000077_PR002 0.00000000
    2.76576018    -3.70510840     6.48594952
    2.76576018    -3.70510840     6.48594952
20MABNDL000077_PR003 0.00000000
    2.77286172    -3.76949382     6.67482471
    2.77286172    -3.76949382     6.67482471
20MABNDL000077_20MABNDM000168 0.00000000
    2.81227350    -3.75939369    -2.68952727
    2.77214861    -3.78918505    -2.68922043
20MABNDL000077_PR024 0.00000000
    2.83251739    -3.68662763    -3.11710644
    2.83254457    -3.68666315    -3.11710644
20MABNDM000020_PR013 0.00000000
   -2.76372600    -3.79224682     6.48532534
20MABNDM000020_PR014 0.00000000
   -2.84677124    -3.67462707     7.43230391
20MABNDM000020_20MABNDL000196 0.00000000
   -2.78403425    -3.71093011    -2.71076465
20MABNDM000020_PR035 0.00000000
   -2.84693027    -3.68917298    -3.11707449
20MABNDM000168_PR025 0.00000000
    2.84090137    -3.78411460    -6.47897625
20MABNDM000168_PR026 0.00000000
    2.83925486    -3.68762279    -6.67493868
20MABNDM000168_20MABNDL000077 0.00000000
    2.81486344    -3.75347996     2.69822574
20MABNDM000168_PR001 0.00000000
    2.84020472    -3.68436551     3.12405825
20MABNDL000196_PR036 0.00000000
   -2.84801316    -3.69295645    -6.47909260
20MABNDL000196_PR037 0.00000000
   -2.84033537    -3.78869033    -6.67475462
20MABNDL000196_20MABNDM000020 0.00000000
   -2.81517410    -3.75142431     2.68347287
20MABNDL000196_PR012 0.00000000
   -2.83864999    -3.68305707     3.12404513
20MABNDA000134_PR004 0.00000000
    2.61449075    -4.19698763     3.83346057
20MABNDA000334_PR005 0.00000000
    2.61694050    -4.19703293     5.89743805
20MABNDB000317_PR015 0.00000000
   -2.61213255    -4.19699240     3.83310580
20MABNDB000146_PR016 0.00000000
   -2.61280155    -4.19702005     5.89912653
20MABNDB000135_PR027 0.00000000
    2.60410953    -4.19700384    -3.82571530
20MABNDB000126_PR028 0.00000000
    2.60558176    -4.19702005    -5.89340162
20MABNDA000272_PR038 0.00000000
   -2.61117363    -4.19698238    -3.82714128
20MABNDA000003_PR039 0.00000000
   -2.61602330    -4.19702911    -5.89076376
20MABNDA000196_PR006 0.00000000
    2.58949280    -4.19496918     6.54654121
20MABNDA000324_PR007 0.00000000
    2.60381341    -4.13996506     6.94287062
20MABNDB000001_PR017 0.00000000
   -2.59741426    -4.19499016     6.54804707
20MABNDB000260_PR019 0.00000000
   -2.59897542    -4.13996553     6.94408846
20MABNDB000212_PR029 0.00000000
    2.59825969    -4.19500589    -6.54710245
20MABNDB000128_PR030 0.00000000
    2.58678818    -4.14004087    -6.94600725
20MABNDA000444_PR040 0.00000000
   -2.59825134    -4.19500303    -6.54726648
20MABNDA000053_PR041 0.00000000
   -2.58505893    -4.14004135    -6.94780922
20MABNDA000188_PR008 0.00000000
    3.55893064     3.84859109     8.10764503
20MABNDA000188_PR018 0.00000000
    3.52034855    -4.07060719     7.89782429
20MABNDA000039_PR009 0.00000000
    3.87575793     3.64746952    12.93556404
20MABNDA000039_PR011 0.00000000
    3.66462231    -3.92581105    12.88333511
20MABNDB000155_PR020 0.00000000
   -3.68110919     3.84880972     7.89936066
20MABNDB000155_PR022 0.00000000
   -3.53499079    -4.07042980     7.89116383
20MABNDB000010_PR021 0.00000000
   -3.86157799     3.64768672    12.93748665
20MABNDB000010_PR023 0.00000000
   -3.68506050    -3.92560124    12.88557434
20MABNDB000069_PR031 0.00000000
    3.69177032     3.84800911    -7.77863359
20MABNDB000069_PR033 0.00000000
    3.53293896    -4.07046461    -7.87916422
20MABNDB000131_PR032 0.00000000
    3.86883426     3.64756799   -12.94124126
20MABNDB000131_PR034 0.00000000
    3.67337370    -3.92563653   -12.89170933
20MABNDA000208_PR042 0.00000000
   -3.71925426     3.84824538    -7.96403503
20MABNDA000208_PR046 0.00000000
   -3.53272557    -4.07032537    -7.87456989
20MABNDA000035_PR044 0.00000000
   -3.86787224     3.64759636   -12.93333054
20MABNDA000035_PR045 0.00000000
   -3.67582488    -3.92564702   -12.88805008


*****************************************************************Rapport********************************************************************************** 
CAM-LBA-US_EBA-US-HO-H         2024.08.10.17.23.35     2.76576018    -3.70510840     6.48594952     0.00000000     0.00000000     0.00000000 0.00000000 VRAI 
CAM-LBA-US_JDA-US-H            2024.08.10.17.23.35     2.77286172    -3.76949382     6.67482471     0.00000000     0.00000000     0.00000000 0.00000000 VRAI 
CAM-LBA-US_CAM-LBC-US          2024.08.10.17.23.35     2.79221106    -3.77428937    -2.68937385     0.02006245     0.01489568     0.00015342 0.00000000 VRAI 
CAM-LBA-US_EBC-US-IP-H         2024.08.10.17.23.35     2.83253098    -3.68664539    -3.11710644     0.00001359     0.00001776     0.00000000 0.00000000 VRAI 
CAM-LBA-USA_EBA-USA-HO-H       2024.08.10.17.23.35    -2.76372600    -3.79224682     6.48532534     0.00000000     0.00000000     0.00000000 0.00000000 VRAI 
CAM-LBA-USA_JDA-USA-H          2024.08.10.17.23.35    -2.84677124    -3.67462707     7.43230391     0.00000000     0.00000000     0.00000000 0.00000000 VRAI 
CAM-LBA-USA_CAM-LBC-USA        2024.08.10.17.23.35    -2.78403425    -3.71093011    -2.71076465     0.00000000     0.00000000     0.00000000 0.00000000 VRAI 
CAM-LBA-USA_EBC-USA-IP-H       2024.08.10.17.23.35    -2.84693027    -3.68917298    -3.11707449     0.00000000     0.00000000     0.00000000 0.00000000 VRAI 
CAM-LBC-US_EBC-US-HO-H         2024.08.10.17.23.35     2.84090137    -3.78411460    -6.47897625     0.00000000     0.00000000     0.00000000 0.00000000 VRAI 
CAM-LBC-US_JDC-US-H            2024.08.10.17.23.35     2.83925486    -3.68762279    -6.67493868     0.00000000     0.00000000     0.00000000 0.00000000 VRAI 
CAM-LBC-US_CAM-LBA-US          2024.08.10.17.23.35     2.81486344    -3.75347996     2.69822574     0.00000000     0.00000000     0.00000000 0.00000000 VRAI 
CAM-LBC-US_EBA-US-IP-H         2024.08.10.17.23.35     2.84020472    -3.68436551     3.12405825     0.00000000     0.00000000     0.00000000 0.00000000 VRAI 
CAM-LBC-USA_EBC-USA-HO-H       2024.08.10.17.23.35    -2.84801316    -3.69295645    -6.47909260     0.00000000     0.00000000     0.00000000 0.00000000 VRAI 
CAM-LBC-USA_JDC-USA-H          2024.08.10.17.23.35    -2.84033537    -3.78869033    -6.67475462     0.00000000     0.00000000     0.00000000 0.00000000 VRAI 
CAM-LBC-USA_CAM-LBA-USA        2024.08.10.17.23.35    -2.81517410    -3.75142431     2.68347287     0.00000000     0.00000000     0.00000000 0.00000000 VRAI 
CAM-LBC-USA_EBA-USA-IP-H       2024.08.10.17.23.35    -2.83864999    -3.68305707     3.12404513     0.00000000     0.00000000     0.00000000 0.00000000 VRAI 
CAM-EBA-US-IP_EBA-US-IP        2024.08.10.17.23.35     2.61449075    -4.19698763     3.83346057     0.00000000     0.00000000     0.00000000 0.00000000 VRAI 
CAM-EBA-US-HO_EBA-US-HO        2024.08.10.17.23.35     2.61694050    -4.19703293     5.89743805     0.00000000     0.00000000     0.00000000 0.00000000 VRAI 
CAM-EBA-USA-IP_EBA-USA-IP      2024.08.10.17.23.35    -2.61213255    -4.19699240     3.83310580     0.00000000     0.00000000     0.00000000 0.00000000 VRAI 
CAM-EBA-USA-HO_EBA-USA-HO      2024.08.10.17.23.35    -2.61280155    -4.19702005     5.89912653     0.00000000     0.00000000     0.00000000 0.00000000 VRAI 
CAM-EBC-US-IP_EBC-US-IP        2024.08.10.17.23.35     2.60410953    -4.19700384    -3.82571530     0.00000000     0.00000000     0.00000000 0.00000000 VRAI 
CAM-EBC-US-HO_EBC-US-HO        2024.08.10.17.23.35     2.60558176    -4.19702005    -5.89340162     0.00000000     0.00000000     0.00000000 0.00000000 VRAI 
CAM-EBC-USA-IP_EBC-USA-IP      2024.08.10.17.23.35    -2.61117363    -4.19698238    -3.82714128     0.00000000     0.00000000     0.00000000 0.00000000 VRAI 
CAM-EBC-USA-HO_EBC-USA-HO      2024.08.10.17.23.35    -2.61602330    -4.19702911    -5.89076376     0.00000000     0.00000000     0.00000000 0.00000000 VRAI 
CAM-JDA-US-IP_JDA-US-IP        2024.08.10.17.23.35     2.58949280    -4.19496918     6.54654121     0.00000000     0.00000000     0.00000000 0.00000000 VRAI 
CAM-JDA-US-HO_JDA-US-HO        2024.08.10.17.23.35     2.60381341    -4.13996506     6.94287062     0.00000000     0.00000000     0.00000000 0.00000000 VRAI 
CAM-JDA-USA-IP_JDA-USA-IP      2024.08.10.17.23.35    -2.59741426    -4.19499016     6.54804707     0.00000000     0.00000000     0.00000000 0.00000000 VRAI 
CAM-JDA-USA-HO_JDA-USA-HO      2024.08.10.17.23.35    -2.59897542    -4.13996553     6.94408846     0.00000000     0.00000000     0.00000000 0.00000000 VRAI 
CAM-JDC-US-IP_JDC-US-IP        2024.08.10.17.23.35     2.59825969    -4.19500589    -6.54710245     0.00000000     0.00000000     0.00000000 0.00000000 VRAI 
CAM-JDC-US-HO_JDC-US-HO        2024.08.10.17.23.35     2.58678818    -4.14004087    -6.94600725     0.00000000     0.00000000     0.00000000 0.00000000 VRAI 
CAM-JDC-USA-IP_JDC-USA-IP      2024.08.10.17.23.35    -2.59825134    -4.19500303    -6.54726648     0.00000000     0.00000000     0.00000000 0.00000000 VRAI 
CAM-JDC-USA-HO_JDC-USA-HO      2024.08.10.17.23.35    -2.58505893    -4.14004135    -6.94780922     0.00000000     0.00000000     0.00000000 0.00000000 VRAI 
CAM-ECTA-US-IP_ECTA-US-IP-T    2024.08.10.17.23.35     3.55893064     3.84859109     8.10764503     0.00000000     0.00000000     0.00000000 0.00000000 VRAI 
CAM-ECTA-US-IP_ECTA-US-IP      2024.08.10.17.23.35     3.52034855    -4.07060719     7.89782429     0.00000000     0.00000000     0.00000000 0.00000000 VRAI 
CAM-ECTA-US-HO_ECTA-US-HO-T    2024.08.10.17.23.35     3.87575793     3.64746952    12.93556404     0.00000000     0.00000000     0.00000000 0.00000000 VRAI 
CAM-ECTA-US-HO_ECTA-US-HO      2024.08.10.17.23.35     3.66462231    -3.92581105    12.88333511     0.00000000     0.00000000     0.00000000 0.00000000 VRAI 
CAM-ECTA-USA-IP_ECTA-USA-IP-T  2024.08.10.17.23.35    -3.68110919     3.84880972     7.89936066     0.00000000     0.00000000     0.00000000 0.00000000 VRAI 
CAM-ECTA-USA-IP_ECTA-USA-IP    2024.08.10.17.23.35    -3.53499079    -4.07042980     7.89116383     0.00000000     0.00000000     0.00000000 0.00000000 VRAI 
CAM-ECTA-USA-HO_ECTA-USA-HO-T  2024.08.10.17.23.35    -3.86157799     3.64768672    12.93748665     0.00000000     0.00000000     0.00000000 0.00000000 VRAI 
CAM-ECTA-USA-HO_ECTA-USA-HO    2024.08.10.17.23.35    -3.68506050    -3.92560124    12.88557434     0.00000000     0.00000000     0.00000000 0.00000000 VRAI 
CAM-ECTC-US-IP_ECTC-US-IP-T    2024.08.10.17.23.35     3.69177032     3.84800911    -7.77863359     0.00000000     0.00000000     0.00000000 0.00000000 VRAI 
CAM-ECTC-US-IP_ECTC-US-IP      2024.08.10.17.23.35     3.53293896    -4.07046461    -7.87916422     0.00000000     0.00000000     0.00000000 0.00000000 VRAI 
CAM-ECTC-US-HO_ECTC-US-HO-T    2024.08.10.17.23.35     3.86883426     3.64756799   -12.94124126     0.00000000     0.00000000     0.00000000 0.00000000 VRAI 
CAM-ECTC-US-HO_ECTC-US-HO      2024.08.10.17.23.35     3.67337370    -3.92563653   -12.89170933     0.00000000     0.00000000     0.00000000 0.00000000 VRAI 
CAM-ECTC-USA-IP_ECTC-USA-IP-T  2024.08.10.17.23.35    -3.71925426     3.84824538    -7.96403503     0.00000000     0.00000000     0.00000000 0.00000000 VRAI 
CAM-ECTC-USA-IP_ECTC-USA-IP    2024.08.10.17.23.35    -3.53272557    -4.07032537    -7.87456989     0.00000000     0.00000000     0.00000000 0.00000000 VRAI 
CAM-ECTC-USA-HO_ECTC-USA-HO-T  2024.08.10.17.23.35    -3.86787224     3.64759636   -12.93333054     0.00000000     0.00000000     0.00000000 0.00000000 VRAI 
CAM-ECTC-USA-HO_ECTC-USA-HO    2024.08.10.17.23.35    -3.67582488    -3.92564702   -12.88805008     0.00000000     0.00000000     0.00000000 0.00000000 VRAI 
