********** Fichier qui contient une sauvegarde des coordonnees images + coordonnees images transformees dans le repere BCAM (MOUNT) + coordonnees des prismes dans le repere MOUNT********** 
********************************************************************** Unite en metres (m)************************************************************************************************** 

*******************************************************************coordonnees images dans le repere CCD *********************************************************************************** 
20MABNDL000077_PR002
Spot 1     0.00032500     0.00012500
Spot 2     0.00032500     0.00012500
Spot 1     0.00036500     0.00140500
Spot 2     0.00105500     0.00034500
20MABNDL000077_PR003
Spot 1     0.00166500     0.00022500
Spot 2     0.00235500     0.00028500
Spot 1     0.00235500     0.00028500
Spot 2     0.00235500     0.00028500
20MABNDL000077_20MABNDM000168
Spot 1     0.00175613     0.00118168
Spot 2     0.00156771     0.00122458
Spot 1     0.00175577     0.00118250
Spot 2     0.00156763     0.00122474
20MABNDL000077_PR024
Spot 1     0.00254845     0.00147805
Spot 2     0.00265079     0.00147515
Spot 1     0.00254806     0.00147840
Spot 2     0.00265052     0.00147544
20MABNDM000020_PR013
Spot 1     0.00044500     0.00008500
Spot 2     0.00044500     0.00008500
20MABNDM000020_PR014
Spot 1     0.00265943     0.00168410
Spot 2     0.00249782     0.00168834
20MABNDM000020_20MABNDL000196
Spot 1     0.00197600     0.00118048
Spot 2     0.00297500     0.00009500
20MABNDM000020_PR035
Spot 1     0.00125832     0.00148637
Spot 2     0.00118435     0.00152587
20MABNDM000168_PR025
Spot 1     0.00075739     0.00147142
Spot 2     0.00059953     0.00147651
20MABNDM000168_PR026
Spot 1     0.00266644     0.00142815
Spot 2     0.00250506     0.00142439
20MABNDM000168_20MABNDL000077
Spot 1     0.00154137     0.00129815
Spot 2     0.00175900     0.00130376
20MABNDM000168_PR001
Spot 1     0.00080829     0.00161462
Spot 2     0.00070653     0.00161815
20MABNDL000196_PR036
Spot 1     0.00094706     0.00164704
Spot 2     0.00111152     0.00164564
20MABNDL000196_PR037
Spot 1     0.00283765     0.00146265
Spot 2     0.00299663     0.00146528
20MABNDL000196_20MABNDM000020
Spot 1     0.00192490     0.00103746
Spot 2     0.00170380     0.00104285
20MABNDL000196_PR012
Spot 1     0.00264962     0.00133771
Spot 2     0.00272190     0.00138500
20MABNDA000134_PR004
Spot 1     0.00168394     0.00176476
Spot 2     0.00190220     0.00177274
20MABNDA000334_PR005
Spot 1     0.00248085     0.00159085
Spot 2     0.00220037     0.00159112
20MABNDB000317_PR015
Spot 1     0.00168430     0.00167319
Spot 2     0.00146365     0.00168005
20MABNDB000146_PR016
Spot 1     0.00144603     0.00131245
Spot 2     0.00172224     0.00131483
20MABNDB000135_PR027
Spot 1     0.00188350     0.00091004
Spot 2     0.00210275     0.00091213
20MABNDB000126_PR028
Spot 1     0.00164367     0.00200361
Spot 2     0.00192692     0.00200558
20MABNDA000272_PR038
Spot 1     0.00191994     0.00096718
Spot 2     0.00169774     0.00096511
20MABNDA000003_PR039
Spot 1     0.00200863     0.00195267
Spot 2     0.00228750     0.00195335
20MABNDA000196_PR006
Spot 1     0.00140888     0.00066253
Spot 2     0.00177520     0.00066470
20MABNDA000324_PR007
Spot 1     0.00199114     0.00134671
Spot 2     0.00219688     0.00134123
20MABNDB000001_PR017
Spot 1     0.00186170     0.00089268
Spot 2     0.00223256     0.00089622
20MABNDB000260_PR019
Spot 1     0.00205822     0.00145422
Spot 2    -0.00000100    -0.00000100
20MABNDB000212_PR029
Spot 1     0.00219763     0.00068557
Spot 2     0.00183465     0.00068360
20MABNDB000128_PR030
Spot 1     0.00267957     0.00162153
Spot 2     0.00248163     0.00162442
20MABNDA000444_PR040
Spot 1     0.00107573     0.00067787
Spot 2     0.00144400     0.00067429
20MABNDA000053_PR041
Spot 1     0.00123210     0.00145137
Spot 2     0.00143720     0.00145134
20MABNDA000188_PR008
Spot 1     0.00297500     0.00011500
Spot 2     0.00297500     0.00011500
20MABNDA000188_PR018
Spot 1     0.00165950     0.00172276
Spot 2     0.00119295     0.00171810
20MABNDA000039_PR009
Spot 1     0.00066231     0.00117186
Spot 2     0.00061288     0.00117528
20MABNDA000039_PR011
Spot 1     0.00276042     0.00026311
Spot 2     0.00258446     0.00025771
20MABNDB000155_PR020
Spot 1     0.00061412     0.00111830
Spot 2     0.00068391     0.00111376
20MABNDB000155_PR022
Spot 1     0.00207418     0.00135957
Spot 2     0.00254743     0.00135455
20MABNDB000010_PR021
Spot 1     0.00286474     0.00116746
Spot 2     0.00292373     0.00116814
20MABNDB000010_PR023
Spot 1     0.00127774     0.00033153
Spot 2     0.00164500     0.00094500
20MABNDB000069_PR031
Spot 1     0.00021500     0.00240500
Spot 2     0.00021500     0.00240500
20MABNDB000069_PR033
Spot 1     0.00185701     0.00204213
Spot 2     0.00232622     0.00206193
20MABNDB000131_PR032
Spot 1     0.00277732     0.00108352
Spot 2     0.00283794     0.00108622
20MABNDB000131_PR034
Spot 1     0.00092267     0.00033084
Spot 2     0.00109887     0.00033135
20MABNDA000208_PR042
Spot 1     0.00284500     0.00011500
Spot 2     0.00284500     0.00011500
20MABNDA000208_PR046
Spot 1     0.00147356     0.00215963
Spot 2     0.00100225     0.00216021
20MABNDA000035_PR044
Spot 1     0.00074810     0.00126432
Spot 2     0.00069011     0.00125748
20MABNDA000035_PR045
Spot 1     0.00255262     0.00048598
Spot 2     0.00237378     0.00048650


****************************************************************coordonnees images transformees dans le repere MOUNT************************************************************************* 
20MABNDL000077_PR002
Spot 1     0.01138211     0.03420505    -0.07463200
Spot 2     0.01138211     0.03420505    -0.07463200
Spot 1     0.01143443     0.03548461    -0.07463200
Spot 2     0.01211420     0.03441802    -0.07463200
20MABNDL000077_PR003
Spot 1     0.01272301     0.03429215    -0.07463200
Spot 2     0.01341356     0.03434551    -0.07463200
Spot 1     0.01341356     0.03434551    -0.07463200
Spot 2     0.01341356     0.03434551    -0.07463200
20MABNDL000077_20MABNDM000168
Spot 1    -0.01259125     0.03524468    -0.00695400
Spot 2    -0.01240328     0.03528950    -0.00695400
Spot 1    -0.01259090     0.03524550    -0.00695400
Spot 2    -0.01240320     0.03528966    -0.00695400
20MABNDL000077_PR024
Spot 1    -0.01338656     0.03553292    -0.00695400
Spot 2    -0.01348886     0.03552897    -0.00695400
Spot 1    -0.01338617     0.03553327    -0.00695400
Spot 2    -0.01348860     0.03552927    -0.00695400
20MABNDM000020_PR013
Spot 1    -0.01394554    -0.03407018    -0.00523500
Spot 2    -0.01394554    -0.03407018    -0.00523500
20MABNDM000020_PR014
Spot 1    -0.01169629    -0.03561992    -0.00523500
Spot 2    -0.01185777    -0.03562773    -0.00523500
20MABNDM000020_20MABNDL000196
Spot 1     0.01271028    -0.03514904    -0.07583800
Spot 2     0.01171113    -0.03406370    -0.07583800
20MABNDM000020_PR035
Spot 1     0.01342800    -0.03545483    -0.07583800
Spot 2     0.01350197    -0.03549432    -0.07583800
20MABNDM000168_PR025
Spot 1    -0.01364475    -0.03581040    -0.00532900
Spot 2    -0.01380258    -0.03581617    -0.00532900
20MABNDM000168_PR026
Spot 1    -0.01173590    -0.03575893    -0.00532900
Spot 2    -0.01189729    -0.03575587    -0.00532900
20MABNDM000168_20MABNDL000077
Spot 1     0.01288412    -0.03529878    -0.07445100
Spot 2     0.01266643    -0.03530121    -0.07445100
20MABNDM000168_PR001
Spot 1     0.01361249    -0.03562595    -0.07445100
Spot 2     0.01371419    -0.03563096    -0.07445100
20MABNDL000196_PR036
Spot 1     0.01192697     0.03583574    -0.07483600
Spot 2     0.01209143     0.03583468    -0.07483600
20MABNDL000196_PR037
Spot 1     0.01381794     0.03565529    -0.07483600
Spot 2     0.01397691     0.03565826    -0.07483600
20MABNDL000196_20MABNDM000020
Spot 1    -0.01274887     0.03530868    -0.00611000
Spot 2    -0.01252792     0.03531852    -0.00611000
20MABNDL000196_PR012
Spot 1    -0.01347948     0.03559429    -0.00611000
Spot 2    -0.01355270     0.03564012    -0.00611000
20MABNDA000134_PR004
Spot 1    -0.01265487     0.01240187    -0.07608400
Spot 2    -0.01287326     0.01239995    -0.07608400
20MABNDA000334_PR005
Spot 1    -0.01312397     0.01253755    -0.07324100
Spot 2    -0.01284349     0.01253702    -0.07324100
20MABNDB000317_PR015
Spot 1    -0.01247086    -0.01242257    -0.07326100
Spot 2    -0.01269157    -0.01241828    -0.07326100
20MABNDB000146_PR016
Spot 1    -0.01276229    -0.01248116    -0.07450500
Spot 2    -0.01248608    -0.01247817    -0.07450500
20MABNDB000135_PR027
Spot 1    -0.01252124    -0.01320290    -0.07464700
Spot 2    -0.01230198    -0.01320325    -0.07464700
20MABNDB000126_PR028
Spot 1    -0.01253584    -0.01217857    -0.07500400
Spot 2    -0.01225260    -0.01217508    -0.07500400
20MABNDA000272_PR038
Spot 1    -0.01275562     0.01314428    -0.07417900
Spot 2    -0.01253342     0.01314596    -0.07417900
20MABNDA000003_PR039
Spot 1    -0.01280978     0.01209962    -0.07373400
Spot 2    -0.01308865     0.01209964    -0.07373400
20MABNDA000196_PR006
Spot 1    -0.01236278     0.01330827    -0.07967100
Spot 2    -0.01272909     0.01331081    -0.07967100
20MABNDA000324_PR007
Spot 1    -0.01259580     0.01267453    -0.07446800
Spot 2    -0.01280158     0.01267840    -0.07446800
20MABNDB000001_PR017
Spot 1    -0.01232185    -0.01309660    -0.07418400
Spot 2    -0.01195098    -0.01309699    -0.07418400
20MABNDB000260_PR019
Spot 1    -0.01227215    -0.01244553    -0.07492700
Spot 2    -0.01430111    -0.01394266    -0.07492700
20MABNDB000212_PR029
Spot 1    -0.01189038    -0.01329531    -0.07390500
Spot 2    -0.01225336    -0.01329341    -0.07390500
20MABNDB000128_PR030
Spot 1    -0.01167424    -0.01259309    -0.07353400
Spot 2    -0.01187219    -0.01259088    -0.07353400
20MABNDA000444_PR040
Spot 1    -0.01201142     0.01334778    -0.07412000
Spot 2    -0.01237971     0.01334668    -0.07412000
20MABNDA000053_PR041
Spot 1    -0.01197831     0.01265077    -0.07430100
Spot 2    -0.01218337     0.01265480    -0.07430100
20MABNDA000188_PR008
Spot 1    -0.01399107     0.01394961    -0.07502000
Spot 2    -0.01399107     0.01394961    -0.07502000
20MABNDA000188_PR018
Spot 1    -0.01268938     0.01233065    -0.07502000
Spot 2    -0.01222281     0.01233131    -0.07502000
20MABNDA000039_PR009
Spot 1    -0.01162442     0.01307227    -0.07444800
Spot 2    -0.01157501     0.01306863    -0.07444800
20MABNDA000039_PR011
Spot 1    -0.01371858     0.01399009    -0.07444800
Spot 2    -0.01354260     0.01399472    -0.07444800
20MABNDB000155_PR020
Spot 1    -0.01365188    -0.01313915    -0.07501700
Spot 2    -0.01358204    -0.01314273    -0.07501700
20MABNDB000155_PR022
Spot 1    -0.01219526    -0.01287791    -0.07501700
Spot 2    -0.01172199    -0.01287645    -0.07501700
20MABNDB000010_PR021
Spot 1    -0.01158651    -0.01291112    -0.07358200
Spot 2    -0.01152754    -0.01290944    -0.07358200
20MABNDB000010_PR023
Spot 1    -0.01315912    -0.01377381    -0.07358200
Spot 2    -0.01280231    -0.01315421    -0.07358200
20MABNDB000069_PR031
Spot 1    -0.01361993    -0.01186066    -0.07388500
Spot 2    -0.01361993    -0.01186066    -0.07388500
20MABNDB000069_PR033
Spot 1    -0.01199429    -0.01229099    -0.07388500
Spot 2    -0.01152466    -0.01229057    -0.07388500
20MABNDB000131_PR032
Spot 1    -0.01144286    -0.01303123    -0.07533000
Spot 2    -0.01138225    -0.01302823    -0.07533000
20MABNDB000131_PR034
Spot 1    -0.01329370    -0.01379324    -0.07533000
Spot 2    -0.01311750    -0.01379184    -0.07533000
20MABNDA000208_PR042
Spot 1    -0.01371645     0.01388121    -0.07273700
Spot 2    -0.01371645     0.01388121    -0.07273700
20MABNDA000208_PR046
Spot 1    -0.01234322     0.01183778    -0.07273700
Spot 2    -0.01187191     0.01183761    -0.07273700
20MABNDA000035_PR044
Spot 1    -0.01158280     0.01299300    -0.07483200
Spot 2    -0.01152476     0.01299942    -0.07483200
20MABNDA000035_PR045
Spot 1    -0.01338174     0.01378415    -0.07483200
Spot 2    -0.01320291     0.01378236    -0.07483200


*****************************************************************coordonnees du prisme dans le repere MOUNT********************************************************************************** 
20MABNDL000077_PR002
    0.07739355     0.08892922     3.70617890
    0.05803017     0.05207258     3.70680904
20MABNDL000077_PR003
   -0.00683988     0.08572708     3.89568853
   -0.02476418     0.08434060     3.89557457
20MABNDL000077_20MABNDM000168
   -0.02625280     0.03575368    -5.46873856
   -0.02626833     0.03571813    -5.46873856
20MABNDL000077_PR024
    0.04599397     0.01515833    -5.89638853
    0.04596850     0.01513312    -5.89638853
20MABNDM000020_PR013
    0.05274186    -0.08860095    -3.80153990
20MABNDM000020_PR014
   -0.06557783    -0.00531104    -4.74841213
20MABNDM000020_20MABNDL000196
    0.05081996    -0.07151237     5.39457893
20MABNDM000020_PR035
   -0.04295671    -0.00729632     5.80095243
20MABNDM000168_PR025
    0.03876235    -0.01234779    -3.78836489
20MABNDM000168_PR026
   -0.05779836    -0.01400500    -3.98429108
20MABNDM000168_20MABNDL000077
    0.01159039    -0.03886725     5.38884687
20MABNDM000168_PR001
   -0.05735057    -0.01362455     5.81470633
20MABNDL000196_PR036
    0.05131842     0.00559727     3.68776917
20MABNDL000196_PR037
   -0.04426835     0.01321213     3.88351917
20MABNDL000196_20MABNDM000020
   -0.01576769     0.03817595    -5.47473860
20MABNDL000196_PR012
    0.05220288     0.01475040    -5.91537428
20MABNDA000134_PR004
   -0.00850630     0.03854019     2.74965811
20MABNDA000334_PR005
   -0.00405263     0.03182666     2.14976978
20MABNDB000317_PR015
   -0.01648001    -0.03689038     2.75126815
20MABNDB000146_PR016
   -0.01348838    -0.03121756     2.15201759
20MABNDB000135_PR027
   -0.02074524    -0.00964273     2.74937153
20MABNDB000126_PR028
   -0.02032281    -0.03880899     2.14679718
20MABNDA000272_PR038
   -0.01335693     0.01136393     2.74965906
20MABNDA000003_PR039
   -0.00569747     0.04199400     2.14890480
20MABNDA000196_PR006
   -0.01503009     0.00858331     1.64206028
20MABNDA000324_PR007
   -0.01549655     0.03300495     2.95548725
20MABNDB000001_PR017
   -0.02371919    -0.01270575     1.64039445
20MABNDB000260_PR019
    0.01421634    -0.00699042     2.95627785
20MABNDB000212_PR029
   -0.02458069    -0.00811390     1.64224315
20MABNDB000128_PR030
   -0.04205760    -0.03211927     2.95495462
20MABNDA000444_PR040
   -0.02307730     0.00808482     1.64500713
20MABNDA000053_PR041
   -0.03547463     0.03011380     2.95464396
20MABNDA000188_PR008
    0.14616936    -0.09611703     9.20304298
20MABNDA000188_PR018
   -0.01681800     0.02557514     1.28358305
20MABNDA000039_PR009
   -0.17155558     0.02434747    11.00701141
20MABNDA000039_PR011
    0.03041617    -0.02541489     3.43346548
20MABNDB000155_PR020
    0.10251810    -0.00748416     9.20027733
20MABNDB000155_PR022
   -0.02495912    -0.01684732     1.28071690
20MABNDB000010_PR021
   -0.17584649    -0.03568535    11.00694752
20MABNDB000010_PR023
    0.00173932     0.00526120     3.43389606
20MABNDB000069_PR031
    0.10999375    -0.16176865     9.20229721
20MABNDB000069_PR033
   -0.02735819    -0.02646239     1.28393960
20MABNDB000131_PR032
   -0.18804233    -0.03059004    11.00641823
20MABNDB000131_PR034
    0.01439395     0.01617410     3.43338108
20MABNDA000208_PR042
    0.11037338    -0.08822197     9.20121384
20MABNDA000208_PR046
   -0.02304229     0.03389274     1.28209734
20MABNDA000035_PR044
   -0.17860302     0.02770271    11.00804138
20MABNDA000035_PR045
    0.01489858    -0.01826267     3.43484139


*****************************************************************coordonnees du prisme dans le repere ATLAS********************************************************************************** 
20MABNDL000077_PR002 0.00000000
    2.76811981    -3.66710114     6.48555946
    2.80497098    -3.68647695     6.48612976
20MABNDL000077_PR003 0.00000000
    2.77148104    -3.75156927     6.67496204
    2.77286172    -3.76949382     6.67482471
20MABNDL000077_20MABNDM000168 0.00000000
    2.81226277    -3.75944424    -2.68952632
    2.81229830    -3.75945997    -2.68952632
20MABNDL000077_PR024 0.00000000
    2.83246183    -3.68667650    -3.11710691
    2.83248687    -3.68670201    -3.11710691
20MABNDM000020_PR013 0.00000000
   -2.76372600    -3.79224682     6.48532534
20MABNDM000020_PR014 0.00000000
   -2.84679008    -3.67462182     7.43230391
20MABNDM000020_20MABNDL000196 0.00000000
   -2.78265429    -3.78332567    -2.71078563
20MABNDM000020_PR035 0.00000000
   -2.84692287    -3.68922019    -3.11707497
20MABNDM000168_PR025 0.00000000
    2.84088349    -3.78409386    -6.47897673
20MABNDM000168_PR026 0.00000000
    2.83924007    -3.68760538    -6.67493868
20MABNDM000168_20MABNDL000077 0.00000000
    2.81492829    -3.75350237     2.69822621
20MABNDM000168_PR001 0.00000000
    2.84021497    -3.68440986     3.12405849
20MABNDL000196_PR036 0.00000000
   -2.84801030    -3.69295621    -6.47909260
20MABNDL000196_PR037 0.00000000
   -2.84035516    -3.78872156    -6.67475367
20MABNDL000196_20MABNDM000020 0.00000000
   -2.81520247    -3.75150418     2.68347287
20MABNDL000196_PR012 0.00000000
   -2.83864999    -3.68313479     3.12404585
20MABNDA000134_PR004 0.00000000
    2.61449695    -4.19698763     3.83345842
20MABNDA000334_PR005 0.00000000
    2.61694598    -4.19703293     5.89743423
20MABNDB000317_PR015 0.00000000
   -2.61212730    -4.19699240     3.83312511
20MABNDB000146_PR016 0.00000000
   -2.61280680    -4.19702005     5.89913273
20MABNDB000135_PR027 0.00000000
    2.60411811    -4.19700384    -3.82571816
20MABNDB000126_PR028 0.00000000
    2.60559440    -4.19701958    -5.89341068
20MABNDA000272_PR038 0.00000000
   -2.61117983    -4.19698238    -3.82712030
20MABNDA000003_PR039 0.00000000
   -2.61603379    -4.19702864    -5.89077282
20MABNDA000196_PR006 0.00000000
    2.58949089    -4.19496918     6.54654026
20MABNDA000324_PR007 0.00000000
    2.60381889    -4.13996410     6.94291115
20MABNDB000001_PR017 0.00000000
   -2.59742379    -4.19499016     6.54803371
20MABNDB000260_PR019 0.00000000
   -2.64298892    -4.14002800     6.97364044
20MABNDB000212_PR029 0.00000000
    2.59825850    -4.19500589    -6.54710150
20MABNDB000128_PR030 0.00000000
    2.58680415    -4.14004040    -6.94600630
20MABNDA000444_PR040 0.00000000
   -2.59825063    -4.19500303    -6.54726601
20MABNDA000053_PR041 0.00000000
   -2.58506513    -4.14004135    -6.94779921
20MABNDA000188_PR008 0.00000000
    3.55893064     3.84859109     8.10764503
20MABNDA000188_PR018 0.00000000
    3.52031541    -4.07060814     7.89786386
20MABNDA000039_PR009 0.00000000
    3.87572765     3.64746952    12.93564129
20MABNDA000039_PR011 0.00000000
    3.66460800    -3.92581058    12.88342190
20MABNDB000155_PR020 0.00000000
   -3.68117094     3.84880972     7.89938307
20MABNDB000155_PR022 0.00000000
   -3.53502178    -4.07042933     7.89121151
20MABNDB000010_PR021 0.00000000
   -3.86168194     3.64768577    12.93751431
20MABNDB000010_PR023 0.00000000
   -3.68791389    -3.92547226    12.90001678
20MABNDB000069_PR031 0.00000000
    3.69177032     3.84800911    -7.77863359
20MABNDB000069_PR033 0.00000000
    3.53294110    -4.07046413    -7.87920856
20MABNDB000131_PR032 0.00000000
    3.86884451     3.64756799   -12.94123268
20MABNDB000131_PR034 0.00000000
    3.67339540    -3.92563558   -12.89177322
20MABNDA000208_PR042 0.00000000
   -3.66039658     3.84884048    -7.99969625
20MABNDA000208_PR046 0.00000000
   -3.53272271    -4.07032490    -7.87462568
20MABNDA000035_PR044 0.00000000
   -3.86784410     3.64759636   -12.93338203
20MABNDA000035_PR045 0.00000000
   -3.67582989    -3.92564583   -12.88812160


*****************************************************************Rapport********************************************************************************** 
CAM-LBA-US_EBA-US-HO-H         2024.05.22.20.24.34     2.78654540    -3.67678905     6.48584461     0.01842558     0.00968790     0.00028515 0.00000000 VRAI 
CAM-LBA-US_JDA-US-H            2024.05.22.20.24.34     2.77217138    -3.76053154     6.67489338     0.00069034     0.00896227     0.00006866 0.00000000 VRAI 
CAM-LBA-US_CAM-LBC-US          2024.05.22.20.24.34     2.81228054    -3.75945210    -2.68952632     0.00001776     0.00000787     0.00000000 0.00000000 VRAI 
CAM-LBA-US_EBC-US-IP-H         2024.05.22.20.24.34     2.83247435    -3.68668926    -3.11710691     0.00001252     0.00001276     0.00000000 0.00000000 VRAI 
CAM-LBA-USA_EBA-USA-HO-H       2024.05.22.20.24.34    -2.76372600    -3.79224682     6.48532534     0.00000000     0.00000000     0.00000000 0.00000000 VRAI 
CAM-LBA-USA_JDA-USA-H          2024.05.22.20.24.34    -2.84679008    -3.67462182     7.43230391     0.00000000     0.00000000     0.00000000 0.00000000 VRAI 
CAM-LBA-USA_CAM-LBC-USA        2024.05.22.20.24.34    -2.78265429    -3.78332567    -2.71078563     0.00000000     0.00000000     0.00000000 0.00000000 VRAI 
CAM-LBA-USA_EBC-USA-IP-H       2024.05.22.20.24.34    -2.84692287    -3.68922019    -3.11707497     0.00000000     0.00000000     0.00000000 0.00000000 VRAI 
CAM-LBC-US_EBC-US-HO-H         2024.05.22.20.24.34     2.84088349    -3.78409386    -6.47897673     0.00000000     0.00000000     0.00000000 0.00000000 VRAI 
CAM-LBC-US_JDC-US-H            2024.05.22.20.24.34     2.83924007    -3.68760538    -6.67493868     0.00000000     0.00000000     0.00000000 0.00000000 VRAI 
CAM-LBC-US_CAM-LBA-US          2024.05.22.20.24.34     2.81492829    -3.75350237     2.69822621     0.00000000     0.00000000     0.00000000 0.00000000 VRAI 
CAM-LBC-US_EBA-US-IP-H         2024.05.22.20.24.34     2.84021497    -3.68440986     3.12405849     0.00000000     0.00000000     0.00000000 0.00000000 VRAI 
CAM-LBC-USA_EBC-USA-HO-H       2024.05.22.20.24.34    -2.84801030    -3.69295621    -6.47909260     0.00000000     0.00000000     0.00000000 0.00000000 VRAI 
CAM-LBC-USA_JDC-USA-H          2024.05.22.20.24.34    -2.84035516    -3.78872156    -6.67475367     0.00000000     0.00000000     0.00000000 0.00000000 VRAI 
CAM-LBC-USA_CAM-LBA-USA        2024.05.22.20.24.34    -2.81520247    -3.75150418     2.68347287     0.00000000     0.00000000     0.00000000 0.00000000 VRAI 
CAM-LBC-USA_EBA-USA-IP-H       2024.05.22.20.24.34    -2.83864999    -3.68313479     3.12404585     0.00000000     0.00000000     0.00000000 0.00000000 VRAI 
CAM-EBA-US-IP_EBA-US-IP        2024.05.22.20.24.34     2.61449695    -4.19698763     3.83345842     0.00000000     0.00000000     0.00000000 0.00000000 VRAI 
CAM-EBA-US-HO_EBA-US-HO        2024.05.22.20.24.34     2.61694598    -4.19703293     5.89743423     0.00000000     0.00000000     0.00000000 0.00000000 VRAI 
CAM-EBA-USA-IP_EBA-USA-IP      2024.05.22.20.24.34    -2.61212730    -4.19699240     3.83312511     0.00000000     0.00000000     0.00000000 0.00000000 VRAI 
CAM-EBA-USA-HO_EBA-USA-HO      2024.05.22.20.24.34    -2.61280680    -4.19702005     5.89913273     0.00000000     0.00000000     0.00000000 0.00000000 VRAI 
CAM-EBC-US-IP_EBC-US-IP        2024.05.22.20.24.34     2.60411811    -4.19700384    -3.82571816     0.00000000     0.00000000     0.00000000 0.00000000 VRAI 
CAM-EBC-US-HO_EBC-US-HO        2024.05.22.20.24.34     2.60559440    -4.19701958    -5.89341068     0.00000000     0.00000000     0.00000000 0.00000000 VRAI 
CAM-EBC-USA-IP_EBC-USA-IP      2024.05.22.20.24.34    -2.61117983    -4.19698238    -3.82712030     0.00000000     0.00000000     0.00000000 0.00000000 VRAI 
CAM-EBC-USA-HO_EBC-USA-HO      2024.05.22.20.24.34    -2.61603379    -4.19702864    -5.89077282     0.00000000     0.00000000     0.00000000 0.00000000 VRAI 
CAM-JDA-US-IP_JDA-US-IP        2024.05.22.20.24.34     2.58949089    -4.19496918     6.54654026     0.00000000     0.00000000     0.00000000 0.00000000 VRAI 
CAM-JDA-US-HO_JDA-US-HO        2024.05.22.20.24.34     2.60381889    -4.13996410     6.94291115     0.00000000     0.00000000     0.00000000 0.00000000 VRAI 
CAM-JDA-USA-IP_JDA-USA-IP      2024.05.22.20.24.34    -2.59742379    -4.19499016     6.54803371     0.00000000     0.00000000     0.00000000 0.00000000 VRAI 
CAM-JDA-USA-HO_JDA-USA-HO      2024.05.22.20.24.34    -2.64298892    -4.14002800     6.97364044     0.00000000     0.00000000     0.00000000 0.00000000 VRAI 
CAM-JDC-US-IP_JDC-US-IP        2024.05.22.20.24.34     2.59825850    -4.19500589    -6.54710150     0.00000000     0.00000000     0.00000000 0.00000000 VRAI 
CAM-JDC-US-HO_JDC-US-HO        2024.05.22.20.24.34     2.58680415    -4.14004040    -6.94600630     0.00000000     0.00000000     0.00000000 0.00000000 VRAI 
CAM-JDC-USA-IP_JDC-USA-IP      2024.05.22.20.24.34    -2.59825063    -4.19500303    -6.54726601     0.00000000     0.00000000     0.00000000 0.00000000 VRAI 
CAM-JDC-USA-HO_JDC-USA-HO      2024.05.22.20.24.34    -2.58506513    -4.14004135    -6.94779921     0.00000000     0.00000000     0.00000000 0.00000000 VRAI 
CAM-ECTA-US-IP_ECTA-US-IP-T    2024.05.22.20.24.34     3.55893064     3.84859109     8.10764503     0.00000000     0.00000000     0.00000000 0.00000000 VRAI 
CAM-ECTA-US-IP_ECTA-US-IP      2024.05.22.20.24.34     3.52031541    -4.07060814     7.89786386     0.00000000     0.00000000     0.00000000 0.00000000 VRAI 
CAM-ECTA-US-HO_ECTA-US-HO-T    2024.05.22.20.24.34     3.87572765     3.64746952    12.93564129     0.00000000     0.00000000     0.00000000 0.00000000 VRAI 
CAM-ECTA-US-HO_ECTA-US-HO      2024.05.22.20.24.34     3.66460800    -3.92581058    12.88342190     0.00000000     0.00000000     0.00000000 0.00000000 VRAI 
CAM-ECTA-USA-IP_ECTA-USA-IP-T  2024.05.22.20.24.34    -3.68117094     3.84880972     7.89938307     0.00000000     0.00000000     0.00000000 0.00000000 VRAI 
CAM-ECTA-USA-IP_ECTA-USA-IP    2024.05.22.20.24.34    -3.53502178    -4.07042933     7.89121151     0.00000000     0.00000000     0.00000000 0.00000000 VRAI 
CAM-ECTA-USA-HO_ECTA-USA-HO-T  2024.05.22.20.24.34    -3.86168194     3.64768577    12.93751431     0.00000000     0.00000000     0.00000000 0.00000000 VRAI 
CAM-ECTA-USA-HO_ECTA-USA-HO    2024.05.22.20.24.34    -3.68791389    -3.92547226    12.90001678     0.00000000     0.00000000     0.00000000 0.00000000 VRAI 
CAM-ECTC-US-IP_ECTC-US-IP-T    2024.05.22.20.24.34     3.69177032     3.84800911    -7.77863359     0.00000000     0.00000000     0.00000000 0.00000000 VRAI 
CAM-ECTC-US-IP_ECTC-US-IP      2024.05.22.20.24.34     3.53294110    -4.07046413    -7.87920856     0.00000000     0.00000000     0.00000000 0.00000000 VRAI 
CAM-ECTC-US-HO_ECTC-US-HO-T    2024.05.22.20.24.34     3.86884451     3.64756799   -12.94123268     0.00000000     0.00000000     0.00000000 0.00000000 VRAI 
CAM-ECTC-US-HO_ECTC-US-HO      2024.05.22.20.24.34     3.67339540    -3.92563558   -12.89177322     0.00000000     0.00000000     0.00000000 0.00000000 VRAI 
CAM-ECTC-USA-IP_ECTC-USA-IP-T  2024.05.22.20.24.34    -3.66039658     3.84884048    -7.99969625     0.00000000     0.00000000     0.00000000 0.00000000 VRAI 
CAM-ECTC-USA-IP_ECTC-USA-IP    2024.05.22.20.24.34    -3.53272271    -4.07032490    -7.87462568     0.00000000     0.00000000     0.00000000 0.00000000 VRAI 
CAM-ECTC-USA-HO_ECTC-USA-HO-T  2024.05.22.20.24.34    -3.86784410     3.64759636   -12.93338203     0.00000000     0.00000000     0.00000000 0.00000000 VRAI 
CAM-ECTC-USA-HO_ECTC-USA-HO    2024.05.22.20.24.34    -3.67582989    -3.92564583   -12.88812160     0.00000000     0.00000000     0.00000000 0.00000000 VRAI 
