********** Fichier qui contient une sauvegarde des coordonnees images + coordonnees images transformees dans le repere BCAM (MOUNT) + coordonnees des prismes dans le repere MOUNT********** 
********************************************************************** Unite en metres (m)************************************************************************************************** 

*******************************************************************coordonnees images dans le repere CCD *********************************************************************************** 
20MABNDL000077_PR002
Spot 1     0.00031500     0.00109500
Spot 2     0.00031500     0.00109500
Spot 1     0.00109500     0.00008500
Spot 2     0.00109500     0.00008500
20MABNDL000077_PR003
Spot 1     0.00289500     0.00058500
Spot 2     0.00289500     0.00058500
Spot 1     0.00289500     0.00058500
Spot 2     0.00289500     0.00058500
20MABNDL000077_20MABNDM000168
Spot 1     0.00175609     0.00118249
Spot 2     0.00075500     0.00010500
Spot 1     0.00175598     0.00118305
Spot 2     0.00075500     0.00010500
20MABNDL000077_PR024
Spot 1     0.00254876     0.00147860
Spot 2     0.00265131     0.00147671
Spot 1     0.00254850     0.00147876
Spot 2     0.00265091     0.00147693
20MABNDM000020_PR013
Spot 1     0.00044500     0.00008500
Spot 2     0.00044500     0.00008500
Spot 1     0.00044500     0.00008500
Spot 2     0.00044500     0.00008500
20MABNDM000020_PR014
Spot 1     0.00265949     0.00168471
Spot 2     0.00249743     0.00168793
20MABNDM000020_20MABNDL000196
Spot 1     0.00197479     0.00118002
Spot 2     0.00190500     0.00009500
20MABNDM000020_PR035
Spot 1     0.00125852     0.00148575
Spot 2     0.00118334     0.00152500
20MABNDM000168_PR025
Spot 1     0.00075749     0.00147172
Spot 2     0.00059957     0.00147681
20MABNDM000168_PR026
Spot 1     0.00266646     0.00142871
Spot 2     0.00250517     0.00142475
20MABNDM000168_20MABNDL000077
Spot 1     0.00154183     0.00129817
Spot 2     0.00175851     0.00130295
20MABNDM000168_PR001
Spot 1     0.00080790     0.00161491
Spot 2     0.00070604     0.00161823
20MABNDL000196_PR036
Spot 1     0.00094651     0.00164700
Spot 2     0.00111139     0.00164611
20MABNDL000196_PR037
Spot 1     0.00283722     0.00146197
Spot 2     0.00299643     0.00146512
20MABNDL000196_20MABNDM000020
Spot 1     0.00192646     0.00103703
Spot 2     0.00170536     0.00104209
20MABNDL000196_PR012
Spot 1     0.00265152     0.00133789
Spot 2     0.00272423     0.00138510
20MABNDA000134_PR004
Spot 1     0.00190221     0.00177321
Spot 2     0.00168368     0.00176478
20MABNDA000334_PR005
Spot 1     0.00248073     0.00159081
Spot 2     0.00220034     0.00159104
20MABNDB000317_PR015
Spot 1     0.00168417     0.00167524
Spot 2     0.00146381     0.00168012
20MABNDB000146_PR016
Spot 1     0.00144643     0.00131313
Spot 2     0.00172238     0.00131454
20MABNDB000135_PR027
Spot 1     0.00188388     0.00091025
Spot 2     0.00210261     0.00091203
20MABNDB000126_PR028
Spot 1     0.00192711     0.00200542
Spot 2     0.00164412     0.00200391
20MABNDA000272_PR038
Spot 1     0.00192021     0.00096706
Spot 2     0.00169756     0.00096449
20MABNDA000003_PR039
Spot 1     0.00200824     0.00195250
Spot 2     0.00228750     0.00195354
20MABNDA000196_PR006
Spot 1     0.00140862     0.00066276
Spot 2     0.00177488     0.00066537
20MABNDA000324_PR007
Spot 1     0.00199112     0.00134796
Spot 2     0.00219684     0.00134270
20MABNDB000001_PR017
Spot 1     0.00186155     0.00089269
Spot 2     0.00223252     0.00089658
20MABNDB000260_PR019
Spot 1     0.00205840     0.00145404
Spot 2     0.00226314     0.00145384
20MABNDB000212_PR029
Spot 1     0.00219734     0.00068572
Spot 2     0.00183438     0.00068392
20MABNDB000128_PR030
Spot 1     0.00267996     0.00162126
Spot 2     0.00248197     0.00162465
20MABNDA000444_PR040
Spot 1     0.00107530     0.00067742
Spot 2     0.00144412     0.00067441
20MABNDA000053_PR041
Spot 1     0.00123186     0.00145076
Spot 2     0.00143717     0.00145142
20MABNDA000188_PR008
Spot 1     0.00297500     0.00011500
Spot 2     0.00297500     0.00011500
20MABNDA000188_PR018
Spot 1     0.00166187     0.00172625
Spot 2     0.00119520     0.00172294
20MABNDA000039_PR009
Spot 1     0.00066224     0.00117134
Spot 2     0.00061184     0.00117500
20MABNDA000039_PR011
Spot 1     0.00276002     0.00026093
Spot 2     0.00258337     0.00025527
20MABNDB000155_PR020
Spot 1     0.00061390     0.00111930
Spot 2     0.00068407     0.00111403
20MABNDB000155_PR022
Spot 1     0.00207610     0.00136386
Spot 2     0.00254945     0.00135936
20MABNDB000010_PR021
Spot 1     0.00286360     0.00116757
Spot 2     0.00292319     0.00116758
20MABNDB000010_PR023
Spot 1     0.00130457     0.00032425
Spot 2     0.00148177     0.00032323
20MABNDB000069_PR031
Spot 1     0.00021500     0.00240500
Spot 2     0.00021500     0.00240500
20MABNDB000069_PR033
Spot 1     0.00185610     0.00204610
Spot 2     0.00232687     0.00206612
20MABNDB000131_PR032
Spot 1     0.00277740     0.00108380
Spot 2     0.00283827     0.00108641
20MABNDB000131_PR034
Spot 1     0.00092238     0.00032916
Spot 2     0.00109872     0.00032990
20MABNDA000208_PR042
Spot 1     0.00284500     0.00011500
Spot 2     0.00284500     0.00011500
20MABNDA000208_PR046
Spot 1     0.00147381     0.00216371
Spot 2     0.00100190     0.00216530
20MABNDA000035_PR044
Spot 1     0.00074854     0.00126301
Spot 2     0.00068887     0.00125714
20MABNDA000035_PR045
Spot 1     0.00255217     0.00048384
Spot 2     0.00237378     0.00048481


****************************************************************coordonnees images transformees dans le repere MOUNT************************************************************************* 
20MABNDL000077_PR002
Spot 1     0.01138145     0.03517510    -0.07463200
Spot 2     0.01138145     0.03517510    -0.07463200
Spot 1     0.01215169     0.03415765    -0.07463200
Spot 2     0.01215169     0.03415765    -0.07463200
20MABNDL000077_PR003
Spot 1     0.01395642     0.03464030    -0.07463200
Spot 2     0.01395642     0.03464030    -0.07463200
Spot 1     0.01395642     0.03464030    -0.07463200
Spot 2     0.01395642     0.03464030    -0.07463200
20MABNDL000077_20MABNDM000168
Spot 1    -0.01259122     0.03524549    -0.00695400
Spot 2    -0.01157915     0.03417830    -0.00695400
Spot 1    -0.01259111     0.03524605    -0.00695400
Spot 2    -0.01157915     0.03417830    -0.00695400
20MABNDL000077_PR024
Spot 1    -0.01338688     0.03553347    -0.00695400
Spot 2    -0.01348940     0.03553053    -0.00695400
Spot 1    -0.01338662     0.03553363    -0.00695400
Spot 2    -0.01348900     0.03553075    -0.00695400
20MABNDM000020_PR013
Spot 1    -0.01394554    -0.03407018    -0.00523500
Spot 2    -0.01394554    -0.03407018    -0.00523500
Spot 1    -0.01394554    -0.03407018    -0.00523500
Spot 2    -0.01394554    -0.03407018    -0.00523500
20MABNDM000020_PR014
Spot 1    -0.01169621    -0.03562052    -0.00523500
Spot 2    -0.01185816    -0.03562733    -0.00523500
20MABNDM000020_20MABNDL000196
Spot 1     0.01271149    -0.03514858    -0.07583800
Spot 2     0.01278113    -0.03406355    -0.07583800
20MABNDM000020_PR035
Spot 1     0.01342780    -0.03545421    -0.07583800
Spot 2     0.01350298    -0.03549345    -0.07583800
20MABNDM000168_PR025
Spot 1    -0.01364464    -0.03581070    -0.00532900
Spot 2    -0.01380254    -0.03581647    -0.00532900
20MABNDM000168_PR026
Spot 1    -0.01173588    -0.03575949    -0.00532900
Spot 2    -0.01189718    -0.03575623    -0.00532900
20MABNDM000168_20MABNDL000077
Spot 1     0.01288366    -0.03529880    -0.07445100
Spot 2     0.01266693    -0.03530041    -0.07445100
20MABNDM000168_PR001
Spot 1     0.01361288    -0.03562624    -0.07445100
Spot 2     0.01371468    -0.03563105    -0.07445100
20MABNDL000196_PR036
Spot 1     0.01192642     0.03583570    -0.07483600
Spot 2     0.01209130     0.03583515    -0.07483600
20MABNDL000196_PR037
Spot 1     0.01381751     0.03565461    -0.07483600
Spot 2     0.01397671     0.03565809    -0.07483600
20MABNDL000196_20MABNDM000020
Spot 1    -0.01275042     0.03530822    -0.00611000
Spot 2    -0.01252947     0.03531773    -0.00611000
20MABNDL000196_PR012
Spot 1    -0.01348139     0.03559443    -0.00611000
Spot 2    -0.01355503     0.03564017    -0.00611000
20MABNDA000134_PR004
Spot 1    -0.01287329     0.01239948    -0.07608400
Spot 2    -0.01265461     0.01240185    -0.07608400
20MABNDA000334_PR005
Spot 1    -0.01312385     0.01253759    -0.07324100
Spot 2    -0.01284346     0.01253710    -0.07324100
20MABNDB000317_PR015
Spot 1    -0.01247101    -0.01242052    -0.07326100
Spot 2    -0.01269141    -0.01241821    -0.07326100
20MABNDB000146_PR016
Spot 1    -0.01276189    -0.01248048    -0.07450500
Spot 2    -0.01248594    -0.01247846    -0.07450500
20MABNDB000135_PR027
Spot 1    -0.01252085    -0.01320269    -0.07464700
Spot 2    -0.01230212    -0.01320335    -0.07464700
20MABNDB000126_PR028
Spot 1    -0.01225241    -0.01217524    -0.07500400
Spot 2    -0.01253539    -0.01217826    -0.07500400
20MABNDA000272_PR038
Spot 1    -0.01275589     0.01314440    -0.07417900
Spot 2    -0.01253324     0.01314658    -0.07417900
20MABNDA000003_PR039
Spot 1    -0.01280939     0.01209979    -0.07373400
Spot 2    -0.01308865     0.01209945    -0.07373400
20MABNDA000196_PR006
Spot 1    -0.01236252     0.01330804    -0.07967100
Spot 2    -0.01272878     0.01331014    -0.07967100
20MABNDA000324_PR007
Spot 1    -0.01259577     0.01267328    -0.07446800
Spot 2    -0.01280153     0.01267693    -0.07446800
20MABNDB000001_PR017
Spot 1    -0.01232200    -0.01309659    -0.07418400
Spot 2    -0.01195101    -0.01309663    -0.07418400
20MABNDB000260_PR019
Spot 1    -0.01227197    -0.01244571    -0.07492700
Spot 2    -0.01206727    -0.01244171    -0.07492700
20MABNDB000212_PR029
Spot 1    -0.01189067    -0.01329516    -0.07390500
Spot 2    -0.01225362    -0.01329309    -0.07390500
20MABNDB000128_PR030
Spot 1    -0.01167385    -0.01259336    -0.07353400
Spot 2    -0.01187185    -0.01259065    -0.07353400
20MABNDA000444_PR040
Spot 1    -0.01201100     0.01334823    -0.07412000
Spot 2    -0.01237982     0.01334656    -0.07412000
20MABNDA000053_PR041
Spot 1    -0.01197806     0.01265137    -0.07430100
Spot 2    -0.01218335     0.01265472    -0.07430100
20MABNDA000188_PR008
Spot 1    -0.01399107     0.01394961    -0.07502000
Spot 2    -0.01399107     0.01394961    -0.07502000
20MABNDA000188_PR018
Spot 1    -0.01269178     0.01232718    -0.07502000
Spot 2    -0.01222510     0.01232649    -0.07502000
20MABNDA000039_PR009
Spot 1    -0.01162435     0.01307279    -0.07444800
Spot 2    -0.01157397     0.01306891    -0.07444800
20MABNDA000039_PR011
Spot 1    -0.01371817     0.01399226    -0.07444800
Spot 2    -0.01354150     0.01399716    -0.07444800
20MABNDB000155_PR020
Spot 1    -0.01365212    -0.01313815    -0.07501700
Spot 2    -0.01358188    -0.01314246    -0.07501700
20MABNDB000155_PR022
Spot 1    -0.01219340    -0.01287360    -0.07501700
Spot 2    -0.01172003    -0.01287162    -0.07501700
20MABNDB000010_PR021
Spot 1    -0.01158765    -0.01291103    -0.07358200
Spot 2    -0.01152807    -0.01291001    -0.07358200
20MABNDB000010_PR023
Spot 1    -0.01313217    -0.01378064    -0.07358200
Spot 2    -0.01295498    -0.01377866    -0.07358200
20MABNDB000069_PR031
Spot 1    -0.01361993    -0.01186066    -0.07388500
Spot 2    -0.01361993    -0.01186066    -0.07388500
20MABNDB000069_PR033
Spot 1    -0.01199504    -0.01228698    -0.07388500
Spot 2    -0.01152384    -0.01228641    -0.07388500
20MABNDB000131_PR032
Spot 1    -0.01144278    -0.01303095    -0.07533000
Spot 2    -0.01138192    -0.01302804    -0.07533000
20MABNDB000131_PR034
Spot 1    -0.01329398    -0.01379492    -0.07533000
Spot 2    -0.01311764    -0.01379329    -0.07533000
20MABNDA000208_PR042
Spot 1    -0.01371645     0.01388121    -0.07273700
Spot 2    -0.01371645     0.01388121    -0.07273700
20MABNDA000208_PR046
Spot 1    -0.01234347     0.01183370    -0.07273700
Spot 2    -0.01187156     0.01183252    -0.07273700
20MABNDA000035_PR044
Spot 1    -0.01158323     0.01299431    -0.07483200
Spot 2    -0.01152352     0.01299976    -0.07483200
20MABNDA000035_PR045
Spot 1    -0.01338127     0.01378629    -0.07483200
Spot 2    -0.01320289     0.01378405    -0.07483200


*****************************************************************coordonnees du prisme dans le repere MOUNT********************************************************************************** 
20MABNDL000077_PR002
    0.07743293     0.04101737     3.70655227
    0.03938594     0.09127724     3.70661330
20MABNDL000077_PR003
   -0.05294373     0.06903453     3.89536142
   -0.05294373     0.06903453     3.89536142
20MABNDL000077_20MABNDM000168
   -0.05601596     0.07585473    -5.46843529
   -0.05601972     0.07583446    -5.46843529
20MABNDL000077_PR024
    0.04602716     0.01507641    -5.89638805
    0.04600158     0.01506134    -5.89638805
20MABNDM000020_PR013
    0.05274186    -0.08860095    -3.80153990
    0.05274186    -0.08860095    -3.80153990
20MABNDM000020_PR014
   -0.06556772    -0.00530457    -4.74841213
20MABNDM000020_20MABNDL000196
    0.01244181    -0.07153501     5.39471340
20MABNDM000020_PR035
   -0.04298791    -0.00735373     5.80095243
20MABNDM000168_PR025
    0.03875883    -0.01233297    -3.78836489
20MABNDM000168_PR026
   -0.05780185    -0.01398106    -3.98429108
20MABNDM000168_20MABNDL000077
    0.01158890    -0.03889561     5.38884640
20MABNDM000168_PR001
   -0.05738447    -0.01360971     5.81470633
20MABNDL000196_PR036
    0.05133514     0.00558675     3.68776917
20MABNDL000196_PR037
   -0.04425212     0.01323388     3.88351965
20MABNDL000196_20MABNDM000020
   -0.01565647     0.03822095    -5.47473860
20MABNDL000196_PR012
    0.05236744     0.01474283    -5.91537285
20MABNDA000134_PR004
   -0.00851066     0.03854928     2.74965811
20MABNDA000334_PR005
   -0.00405477     0.03182495     2.14976978
20MABNDB000317_PR015
   -0.01648010    -0.03692897     2.75126791
20MABNDB000146_PR016
   -0.01349613    -0.03122319     2.15201759
20MABNDB000135_PR027
   -0.02074967    -0.00964469     2.74937153
20MABNDB000126_PR028
   -0.02033189    -0.03881104     2.14679718
20MABNDA000272_PR038
   -0.01335531     0.01135037     2.74965906
20MABNDA000003_PR039
   -0.00570305     0.04199430     2.14890480
20MABNDA000196_PR006
   -0.01503630     0.00859322     1.64206028
20MABNDA000324_PR007
   -0.01549815     0.03305846     2.95548677
20MABNDB000001_PR017
   -0.02371716    -0.01270981     1.64039445
20MABNDB000260_PR019
   -0.02977673    -0.03654420     2.95626354
20MABNDB000212_PR029
   -0.02457460    -0.00811912     1.64224315
20MABNDB000128_PR030
   -0.04207195    -0.03211853     2.95495439
20MABNDA000444_PR040
   -0.02308065     0.00808116     1.64500713
20MABNDA000053_PR041
   -0.03548013     0.03010350     2.95464396
20MABNDA000188_PR008
    0.14616936    -0.09611703     9.20304298
20MABNDA000188_PR018
   -0.01677784     0.02564611     1.28358257
20MABNDA000039_PR009
   -0.17163700     0.02428932    11.00700951
20MABNDA000039_PR011
    0.03038172    -0.02552011     3.43346500
20MABNDB000155_PR020
    0.10252285    -0.00756207     9.20027733
20MABNDB000155_PR022
   -0.02499171    -0.01692554     1.28071618
20MABNDB000010_PR021
   -0.17572357    -0.03565018    11.00694847
20MABNDB000010_PR023
    0.00462164     0.01973552     3.43377495
20MABNDB000069_PR031
    0.10999375    -0.16176865     9.20229721
20MABNDB000069_PR033
   -0.02735883    -0.02653219     1.28393888
20MABNDB000131_PR032
   -0.18807212    -0.03062453    11.00641823
20MABNDB000131_PR034
    0.01440361     0.01624548     3.43338013
20MABNDA000208_PR042
    0.11037338    -0.08822197     9.20121384
20MABNDA000208_PR046
   -0.02304320     0.03397108     1.28209591
20MABNDA000035_PR044
   -0.17866237     0.02758245    11.00804138
20MABNDA000035_PR045
    0.01488768    -0.01834999     3.43484020


*****************************************************************coordonnees du prisme dans le repere ATLAS********************************************************************************** 
20MABNDL000077_PR002 0.00000000
    2.81603193    -3.66707730     6.48588610
    2.76576018    -3.70510840     6.48594952
20MABNDL000077_PR003 0.00000000
    2.78815842    -3.79767799     6.67456150
    2.78815842    -3.79767799     6.67456150
20MABNDL000077_20MABNDM000168 0.00000000
    2.77215266    -3.78919506    -2.68922043
    2.77217293    -3.78919888    -2.68922043
20MABNDL000077_PR024 0.00000000
    2.83254361    -3.68664336    -3.11710644
    2.83255887    -3.68666887    -3.11710644
20MABNDM000020_PR013 0.00000000
   -2.76372600    -3.79224682     6.48532534
   -2.76372600    -3.79224682     6.48532534
20MABNDM000020_PR014 0.00000000
   -2.84679651    -3.67463183     7.43230391
20MABNDM000020_20MABNDL000196 0.00000000
   -2.78261995    -3.74494743    -2.71089101
20MABNDM000020_PR035 0.00000000
   -2.84686542    -3.68918920    -3.11707497
20MABNDM000168_PR025 0.00000000
    2.84089828    -3.78409028    -6.47897673
20MABNDM000168_PR026 0.00000000
    2.83926392    -3.68760204    -6.67493868
20MABNDM000168_20MABNDL000077 0.00000000
    2.81489992    -3.75350094     2.69822574
20MABNDM000168_PR001 0.00000000
    2.84022999    -3.68437600     3.12405849
20MABNDL000196_PR036 0.00000000
   -2.84802079    -3.69293952    -6.47909260
20MABNDL000196_PR037 0.00000000
   -2.84033346    -3.78870535    -6.67475414
20MABNDL000196_20MABNDM000020 0.00000000
   -2.81515741    -3.75139308     2.68347287
20MABNDL000196_PR012 0.00000000
   -2.83865762    -3.68297005     3.12404418
20MABNDA000134_PR004 0.00000000
    2.61449242    -4.19698763     3.83344936
20MABNDA000334_PR005 0.00000000
    2.61694384    -4.19703293     5.89743614
20MABNDB000317_PR015 0.00000000
   -2.61212730    -4.19699240     3.83308649
20MABNDB000146_PR016 0.00000000
   -2.61279917    -4.19702005     5.89912701
20MABNDB000135_PR027 0.00000000
    2.60411358    -4.19700384    -3.82571602
20MABNDB000126_PR028 0.00000000
    2.60558534    -4.19701958    -5.89340878
20MABNDA000272_PR038 0.00000000
   -2.61118150    -4.19698238    -3.82713389
20MABNDA000003_PR039 0.00000000
   -2.61602807    -4.19702864    -5.89077234
20MABNDA000196_PR006 0.00000000
    2.58949709    -4.19496918     6.54655027
20MABNDA000324_PR007 0.00000000
    2.60381722    -4.13996506     6.94285774
20MABNDB000001_PR017 0.00000000
   -2.59742188    -4.19499016     6.54803801
20MABNDB000260_PR019 0.00000000
   -2.59898567    -4.13996553     6.94410181
20MABNDB000212_PR029 0.00000000
    2.59825230    -4.19500589    -6.54710674
20MABNDB000128_PR030 0.00000000
    2.58678961    -4.14004087    -6.94600725
20MABNDA000444_PR040 0.00000000
   -2.59825397    -4.19500303    -6.54726219
20MABNDA000053_PR041 0.00000000
   -2.58505964    -4.14004135    -6.94780922
20MABNDA000188_PR008 0.00000000
    3.55893064     3.84859109     8.10764503
20MABNDA000188_PR018 0.00000000
    3.52035666    -4.07060719     7.89779377
20MABNDA000039_PR009 0.00000000
    3.87580919     3.64746737    12.93558311
20MABNDA000039_PR011 0.00000000
    3.66464257    -3.92581105    12.88331699
20MABNDB000155_PR020 0.00000000
   -3.68117571     3.84880972     7.89930487
20MABNDB000155_PR022 0.00000000
   -3.53498912    -4.07043028     7.89113331
20MABNDB000010_PR021 0.00000000
   -3.86155915     3.64768648    12.93747902
20MABNDB000010_PR023 0.00000000
   -3.68504429    -3.92560148    12.88554001
20MABNDB000069_PR031 0.00000000
    3.69177032     3.84800911    -7.77863359
20MABNDB000069_PR033 0.00000000
    3.53294039    -4.07046461    -7.87913895
20MABNDB000131_PR032 0.00000000
    3.86887431     3.64756799   -12.94126701
20MABNDB000131_PR034 0.00000000
    3.67338562    -3.92563653   -12.89170170
20MABNDA000208_PR042 0.00000000
   -3.66039658     3.84884048    -7.99969625
20MABNDA000208_PR046 0.00000000
   -3.53272200    -4.07032585    -7.87454748
20MABNDA000035_PR044 0.00000000
   -3.86790347     3.64759636   -12.93326187
20MABNDA000035_PR045 0.00000000
   -3.67584085    -3.92564702   -12.88803482


*****************************************************************Rapport********************************************************************************** 
CAM-LBA-US_EBA-US-HO-H         2024.09.26.17.22.04     2.79089606    -3.68609285     6.48591781     0.02513587     0.01901555     0.00003171 0.00000000 VRAI 
CAM-LBA-US_JDA-US-H            2024.09.26.17.22.04     2.78815842    -3.79767799     6.67456150     0.00000000     0.00000000     0.00000000 0.00000000 VRAI 
CAM-LBA-US_CAM-LBC-US          2024.09.26.17.22.04     2.77216280    -3.78919697    -2.68922043     0.00001013     0.00000191     0.00000000 0.00000000 VRAI 
CAM-LBA-US_EBC-US-IP-H         2024.09.26.17.22.04     2.83255124    -3.68665612    -3.11710644     0.00000763     0.00001276     0.00000000 0.00000000 VRAI 
CAM-LBA-USA_EBA-USA-HO-H       2024.09.26.17.22.04    -2.76372600    -3.79224682     6.48532534     0.00000000     0.00000000     0.00000000 0.00000000 VRAI 
CAM-LBA-USA_JDA-USA-H          2024.09.26.17.22.04    -2.84679651    -3.67463183     7.43230391     0.00000000     0.00000000     0.00000000 0.00000000 VRAI 
CAM-LBA-USA_CAM-LBC-USA        2024.09.26.17.22.04    -2.78261995    -3.74494743    -2.71089101     0.00000000     0.00000000     0.00000000 0.00000000 VRAI 
CAM-LBA-USA_EBC-USA-IP-H       2024.09.26.17.22.04    -2.84686542    -3.68918920    -3.11707497     0.00000000     0.00000000     0.00000000 0.00000000 VRAI 
CAM-LBC-US_EBC-US-HO-H         2024.09.26.17.22.04     2.84089828    -3.78409028    -6.47897673     0.00000000     0.00000000     0.00000000 0.00000000 VRAI 
CAM-LBC-US_JDC-US-H            2024.09.26.17.22.04     2.83926392    -3.68760204    -6.67493868     0.00000000     0.00000000     0.00000000 0.00000000 VRAI 
CAM-LBC-US_CAM-LBA-US          2024.09.26.17.22.04     2.81489992    -3.75350094     2.69822574     0.00000000     0.00000000     0.00000000 0.00000000 VRAI 
CAM-LBC-US_EBA-US-IP-H         2024.09.26.17.22.04     2.84022999    -3.68437600     3.12405849     0.00000000     0.00000000     0.00000000 0.00000000 VRAI 
CAM-LBC-USA_EBC-USA-HO-H       2024.09.26.17.22.04    -2.84802079    -3.69293952    -6.47909260     0.00000000     0.00000000     0.00000000 0.00000000 VRAI 
CAM-LBC-USA_JDC-USA-H          2024.09.26.17.22.04    -2.84033346    -3.78870535    -6.67475414     0.00000000     0.00000000     0.00000000 0.00000000 VRAI 
CAM-LBC-USA_CAM-LBA-USA        2024.09.26.17.22.04    -2.81515741    -3.75139308     2.68347287     0.00000000     0.00000000     0.00000000 0.00000000 VRAI 
CAM-LBC-USA_EBA-USA-IP-H       2024.09.26.17.22.04    -2.83865762    -3.68297005     3.12404418     0.00000000     0.00000000     0.00000000 0.00000000 VRAI 
CAM-EBA-US-IP_EBA-US-IP        2024.09.26.17.22.04     2.61449242    -4.19698763     3.83344936     0.00000000     0.00000000     0.00000000 0.00000000 VRAI 
CAM-EBA-US-HO_EBA-US-HO        2024.09.26.17.22.04     2.61694384    -4.19703293     5.89743614     0.00000000     0.00000000     0.00000000 0.00000000 VRAI 
CAM-EBA-USA-IP_EBA-USA-IP      2024.09.26.17.22.04    -2.61212730    -4.19699240     3.83308649     0.00000000     0.00000000     0.00000000 0.00000000 VRAI 
CAM-EBA-USA-HO_EBA-USA-HO      2024.09.26.17.22.04    -2.61279917    -4.19702005     5.89912701     0.00000000     0.00000000     0.00000000 0.00000000 VRAI 
CAM-EBC-US-IP_EBC-US-IP        2024.09.26.17.22.04     2.60411358    -4.19700384    -3.82571602     0.00000000     0.00000000     0.00000000 0.00000000 VRAI 
CAM-EBC-US-HO_EBC-US-HO        2024.09.26.17.22.04     2.60558534    -4.19701958    -5.89340878     0.00000000     0.00000000     0.00000000 0.00000000 VRAI 
CAM-EBC-USA-IP_EBC-USA-IP      2024.09.26.17.22.04    -2.61118150    -4.19698238    -3.82713389     0.00000000     0.00000000     0.00000000 0.00000000 VRAI 
CAM-EBC-USA-HO_EBC-USA-HO      2024.09.26.17.22.04    -2.61602807    -4.19702864    -5.89077234     0.00000000     0.00000000     0.00000000 0.00000000 VRAI 
CAM-JDA-US-IP_JDA-US-IP        2024.09.26.17.22.04     2.58949709    -4.19496918     6.54655027     0.00000000     0.00000000     0.00000000 0.00000000 VRAI 
CAM-JDA-US-HO_JDA-US-HO        2024.09.26.17.22.04     2.60381722    -4.13996506     6.94285774     0.00000000     0.00000000     0.00000000 0.00000000 VRAI 
CAM-JDA-USA-IP_JDA-USA-IP      2024.09.26.17.22.04    -2.59742188    -4.19499016     6.54803801     0.00000000     0.00000000     0.00000000 0.00000000 VRAI 
CAM-JDA-USA-HO_JDA-USA-HO      2024.09.26.17.22.04    -2.59898567    -4.13996553     6.94410181     0.00000000     0.00000000     0.00000000 0.00000000 VRAI 
CAM-JDC-US-IP_JDC-US-IP        2024.09.26.17.22.04     2.59825230    -4.19500589    -6.54710674     0.00000000     0.00000000     0.00000000 0.00000000 VRAI 
CAM-JDC-US-HO_JDC-US-HO        2024.09.26.17.22.04     2.58678961    -4.14004087    -6.94600725     0.00000000     0.00000000     0.00000000 0.00000000 VRAI 
CAM-JDC-USA-IP_JDC-USA-IP      2024.09.26.17.22.04    -2.59825397    -4.19500303    -6.54726219     0.00000000     0.00000000     0.00000000 0.00000000 VRAI 
CAM-JDC-USA-HO_JDC-USA-HO      2024.09.26.17.22.04    -2.58505964    -4.14004135    -6.94780922     0.00000000     0.00000000     0.00000000 0.00000000 VRAI 
CAM-ECTA-US-IP_ECTA-US-IP-T    2024.09.26.17.22.04     3.55893064     3.84859109     8.10764503     0.00000000     0.00000000     0.00000000 0.00000000 VRAI 
CAM-ECTA-US-IP_ECTA-US-IP      2024.09.26.17.22.04     3.52035666    -4.07060719     7.89779377     0.00000000     0.00000000     0.00000000 0.00000000 VRAI 
CAM-ECTA-US-HO_ECTA-US-HO-T    2024.09.26.17.22.04     3.87580919     3.64746737    12.93558311     0.00000000     0.00000000     0.00000000 0.00000000 VRAI 
CAM-ECTA-US-HO_ECTA-US-HO      2024.09.26.17.22.04     3.66464257    -3.92581105    12.88331699     0.00000000     0.00000000     0.00000000 0.00000000 VRAI 
CAM-ECTA-USA-IP_ECTA-USA-IP-T  2024.09.26.17.22.04    -3.68117571     3.84880972     7.89930487     0.00000000     0.00000000     0.00000000 0.00000000 VRAI 
CAM-ECTA-USA-IP_ECTA-USA-IP    2024.09.26.17.22.04    -3.53498912    -4.07043028     7.89113331     0.00000000     0.00000000     0.00000000 0.00000000 VRAI 
CAM-ECTA-USA-HO_ECTA-USA-HO-T  2024.09.26.17.22.04    -3.86155915     3.64768648    12.93747902     0.00000000     0.00000000     0.00000000 0.00000000 VRAI 
CAM-ECTA-USA-HO_ECTA-USA-HO    2024.09.26.17.22.04    -3.68504429    -3.92560148    12.88554001     0.00000000     0.00000000     0.00000000 0.00000000 VRAI 
CAM-ECTC-US-IP_ECTC-US-IP-T    2024.09.26.17.22.04     3.69177032     3.84800911    -7.77863359     0.00000000     0.00000000     0.00000000 0.00000000 VRAI 
CAM-ECTC-US-IP_ECTC-US-IP      2024.09.26.17.22.04     3.53294039    -4.07046461    -7.87913895     0.00000000     0.00000000     0.00000000 0.00000000 VRAI 
CAM-ECTC-US-HO_ECTC-US-HO-T    2024.09.26.17.22.04     3.86887431     3.64756799   -12.94126701     0.00000000     0.00000000     0.00000000 0.00000000 VRAI 
CAM-ECTC-US-HO_ECTC-US-HO      2024.09.26.17.22.04     3.67338562    -3.92563653   -12.89170170     0.00000000     0.00000000     0.00000000 0.00000000 VRAI 
CAM-ECTC-USA-IP_ECTC-USA-IP-T  2024.09.26.17.22.04    -3.66039658     3.84884048    -7.99969625     0.00000000     0.00000000     0.00000000 0.00000000 VRAI 
CAM-ECTC-USA-IP_ECTC-USA-IP    2024.09.26.17.22.04    -3.53272200    -4.07032585    -7.87454748     0.00000000     0.00000000     0.00000000 0.00000000 VRAI 
CAM-ECTC-USA-HO_ECTC-USA-HO-T  2024.09.26.17.22.04    -3.86790347     3.64759636   -12.93326187     0.00000000     0.00000000     0.00000000 0.00000000 VRAI 
CAM-ECTC-USA-HO_ECTC-USA-HO    2024.09.26.17.22.04    -3.67584085    -3.92564702   -12.88803482     0.00000000     0.00000000     0.00000000 0.00000000 VRAI 
