********** Fichier qui contient une sauvegarde des coordonnees images + coordonnees images transformees dans le repere BCAM (MOUNT) + coordonnees des prismes dans le repere MOUNT********** 
********************************************************************** Unite en metres (m)************************************************************************************************** 

*******************************************************************coordonnees images dans le repere CCD *********************************************************************************** 
20MABNDL000077_PR002
Spot 1     0.00024500     0.00002500
Spot 2     0.00024500     0.00002500
Spot 1     0.00024500     0.00002500
Spot 2     0.00024500     0.00002500
20MABNDL000077_PR003
Spot 1     0.00166500     0.00022500
Spot 2     0.00245500     0.00005500
Spot 1     0.00149500     0.00005500
Spot 2     0.00245500     0.00005500
20MABNDL000077_20MABNDM000168
Spot 1     0.00175614     0.00118197
Spot 2     0.00075500     0.00010500
Spot 1     0.00175589     0.00118228
Spot 2     0.00075500     0.00010500
20MABNDL000077_PR024
Spot 1     0.00254960     0.00147877
Spot 2     0.00265232     0.00147671
Spot 1     0.00254910     0.00147890
Spot 2     0.00265208     0.00147722
20MABNDM000020_PR013
Spot 1     0.00044500     0.00008500
Spot 2     0.00044500     0.00008500
Spot 1     0.00044500     0.00008500
Spot 2     0.00044500     0.00008500
20MABNDM000020_PR014
Spot 1     0.00265918     0.00168600
Spot 2     0.00249624     0.00168885
20MABNDM000020_20MABNDL000196
Spot 1     0.00197729     0.00117986
Spot 2     0.00026643     0.00017357
20MABNDM000020_PR035
Spot 1     0.00126000     0.00148473
Spot 2     0.00118283     0.00152343
20MABNDM000168_PR025
Spot 1     0.00075819     0.00147369
Spot 2     0.00059994     0.00147865
20MABNDM000168_PR026
Spot 1     0.00266537     0.00142929
Spot 2     0.00250384     0.00142526
20MABNDM000168_20MABNDL000077
Spot 1     0.00154133     0.00129779
Spot 2     0.00175852     0.00130293
20MABNDM000168_PR001
Spot 1     0.00080732     0.00161418
Spot 2     0.00070547     0.00161754
20MABNDL000196_PR036
Spot 1     0.00094812     0.00164553
Spot 2     0.00111312     0.00164450
20MABNDL000196_PR037
Spot 1     0.00283724     0.00146276
Spot 2     0.00299633     0.00146537
20MABNDL000196_20MABNDM000020
Spot 1     0.00192395     0.00103764
Spot 2     0.00170285     0.00104276
20MABNDL000196_PR012
Spot 1     0.00264950     0.00133749
Spot 2     0.00272367     0.00138597
20MABNDA000134_PR004
Spot 1     0.00168070     0.00176652
Spot 2     0.00189989     0.00177493
20MABNDA000334_PR005
Spot 1     0.00219987     0.00159383
Spot 2     0.00248006     0.00159355
20MABNDB000317_PR015
Spot 1     0.00168851     0.00167515
Spot 2     0.00146784     0.00168054
20MABNDB000146_PR016
Spot 1     0.00144841     0.00131478
Spot 2     0.00172452     0.00131661
20MABNDB000135_PR027
Spot 1     0.00188519     0.00091098
Spot 2     0.00210457     0.00091339
20MABNDB000126_PR028
Spot 1     0.00192835     0.00200473
Spot 2     0.00164494     0.00200333
20MABNDA000272_PR038
Spot 1     0.00191584     0.00096853
Spot 2     0.00169320     0.00096610
20MABNDA000003_PR039
Spot 1     0.00200558     0.00195308
Spot 2     0.00228490     0.00195399
20MABNDA000196_PR006
Spot 1     0.00141114     0.00065524
Spot 2     0.00177777     0.00065741
20MABNDA000324_PR007
Spot 1     0.00198772     0.00135671
Spot 2    -0.00000100    -0.00000100
20MABNDB000001_PR017
Spot 1     0.00186154     0.00088323
Spot 2     0.00223276     0.00088687
20MABNDB000260_PR019
Spot 1     0.00206161     0.00146394
Spot 2     0.00226625     0.00146500
20MABNDB000212_PR029
Spot 1     0.00219680     0.00068539
Spot 2     0.00183340     0.00068401
20MABNDB000128_PR030
Spot 1     0.00268216     0.00162733
Spot 2     0.00248396     0.00162979
20MABNDA000444_PR040
Spot 1     0.00107415     0.00067280
Spot 2     0.00144278     0.00066976
20MABNDA000053_PR041
Spot 1     0.00123028     0.00145660
Spot 2     0.00143670     0.00145718
20MABNDA000188_PR008
Spot 1     0.00297500     0.00011500
Spot 2     0.00297500     0.00011500
20MABNDA000188_PR018
Spot 1     0.00155586     0.00149753
Spot 2     0.00108918     0.00149177
20MABNDA000039_PR009
Spot 1     0.00065875     0.00120180
Spot 2     0.00060907     0.00120557
20MABNDA000039_PR011
Spot 1     0.00275620     0.00034414
Spot 2     0.00257896     0.00033933
20MABNDB000155_PR020
Spot 1     0.00066536     0.00108732
Spot 2     0.00073559     0.00108262
20MABNDB000155_PR022
Spot 1     0.00218696     0.00113257
Spot 2     0.00266065     0.00112793
20MABNDB000010_PR021
Spot 1     0.00286215     0.00119651
Spot 2     0.00292093     0.00119705
20MABNDB000010_PR023
Spot 1     0.00130273     0.00040962
Spot 2     0.00147860     0.00040784
20MABNDB000069_PR031
Spot 1     0.00021500     0.00240500
Spot 2     0.00021500     0.00240500
20MABNDB000069_PR033
Spot 1     0.00193094     0.00183191
Spot 2     0.00240134     0.00185195
20MABNDB000131_PR032
Spot 1     0.00277714     0.00111138
Spot 2     0.00283745     0.00111496
20MABNDB000131_PR034
Spot 1     0.00092402     0.00041293
Spot 2     0.00110015     0.00041292
20MABNDA000208_PR042
Spot 1     0.00299500     0.00007500
Spot 2     0.00299500     0.00007500
20MABNDA000208_PR046
Spot 1     0.00133803     0.00194933
Spot 2     0.00086677     0.00195260
20MABNDA000035_PR044
Spot 1     0.00074875     0.00128837
Spot 2     0.00068827     0.00128262
20MABNDA000035_PR045
Spot 1     0.00255255     0.00055856
Spot 2     0.00237342     0.00056075


****************************************************************coordonnees images transformees dans le repere MOUNT************************************************************************* 
20MABNDL000077_PR002
Spot 1     0.01130116     0.03410583    -0.07463200
Spot 2     0.01130116     0.03410583    -0.07463200
Spot 1     0.01130116     0.03410583    -0.07463200
Spot 2     0.01130116     0.03410583    -0.07463200
20MABNDL000077_PR003
Spot 1     0.01272301     0.03429215    -0.07463200
Spot 2     0.01351134     0.03411456    -0.07463200
Spot 1     0.01255139     0.03412380    -0.07463200
Spot 2     0.01351134     0.03411456    -0.07463200
20MABNDL000077_20MABNDM000168
Spot 1    -0.01259126     0.03524497    -0.00695400
Spot 2    -0.01157915     0.03417830    -0.00695400
Spot 1    -0.01259101     0.03524528    -0.00695400
Spot 2    -0.01157915     0.03417830    -0.00695400
20MABNDL000077_PR024
Spot 1    -0.01338772     0.03553363    -0.00695400
Spot 2    -0.01349041     0.03553052    -0.00695400
Spot 1    -0.01338722     0.03553376    -0.00695400
Spot 2    -0.01349018     0.03553103    -0.00695400
20MABNDM000020_PR013
Spot 1    -0.01394554    -0.03407018    -0.00523500
Spot 2    -0.01394554    -0.03407018    -0.00523500
Spot 1    -0.01394554    -0.03407018    -0.00523500
Spot 2    -0.01394554    -0.03407018    -0.00523500
20MABNDM000020_PR014
Spot 1    -0.01169650    -0.03562182    -0.00523500
Spot 2    -0.01185933    -0.03562827    -0.00523500
20MABNDM000020_20MABNDL000196
Spot 1     0.01270899    -0.03514842    -0.07583800
Spot 2     0.01441971    -0.03414190    -0.07583800
20MABNDM000020_PR035
Spot 1     0.01342632    -0.03545319    -0.07583800
Spot 2     0.01350349    -0.03549188    -0.07583800
20MABNDM000168_PR025
Spot 1    -0.01364394    -0.03581267    -0.00532900
Spot 2    -0.01380216    -0.03581831    -0.00532900
20MABNDM000168_PR026
Spot 1    -0.01173696    -0.03576008    -0.00532900
Spot 2    -0.01189851    -0.03575674    -0.00532900
20MABNDM000168_20MABNDL000077
Spot 1     0.01288416    -0.03529843    -0.07445100
Spot 2     0.01266692    -0.03530039    -0.07445100
20MABNDM000168_PR001
Spot 1     0.01361347    -0.03562552    -0.07445100
Spot 2     0.01371526    -0.03563037    -0.07445100
20MABNDL000196_PR036
Spot 1     0.01192803     0.03583423    -0.07483600
Spot 2     0.01209303     0.03583355    -0.07483600
20MABNDL000196_PR037
Spot 1     0.01381753     0.03565540    -0.07483600
Spot 2     0.01397661     0.03565834    -0.07483600
20MABNDL000196_20MABNDM000020
Spot 1    -0.01274792     0.03530888    -0.00611000
Spot 2    -0.01252697     0.03531845    -0.00611000
20MABNDL000196_PR012
Spot 1    -0.01347936     0.03559407    -0.00611000
Spot 2    -0.01355449     0.03564105    -0.00611000
20MABNDA000134_PR004
Spot 1    -0.01265168     0.01240002    -0.07608400
Spot 2    -0.01287102     0.01239770    -0.07608400
20MABNDA000334_PR005
Spot 1    -0.01284299     0.01253431    -0.07324100
Spot 2    -0.01312318     0.01253485    -0.07324100
20MABNDB000317_PR015
Spot 1    -0.01246667    -0.01242056    -0.07326100
Spot 2    -0.01268739    -0.01241774    -0.07326100
20MABNDB000146_PR016
Spot 1    -0.01275991    -0.01247882    -0.07450500
Spot 2    -0.01248381    -0.01247638    -0.07450500
20MABNDB000135_PR027
Spot 1    -0.01251954    -0.01320198    -0.07464700
Spot 2    -0.01230014    -0.01320201    -0.07464700
20MABNDB000126_PR028
Spot 1    -0.01225117    -0.01217593    -0.07500400
Spot 2    -0.01253456    -0.01217884    -0.07500400
20MABNDA000272_PR038
Spot 1    -0.01275152     0.01314292    -0.07417900
Spot 2    -0.01252888     0.01314496    -0.07417900
20MABNDA000003_PR039
Spot 1    -0.01280673     0.01209920    -0.07373400
Spot 2    -0.01308605     0.01209900    -0.07373400
20MABNDA000196_PR006
Spot 1    -0.01236494     0.01331559    -0.07967100
Spot 2    -0.01273157     0.01331813    -0.07967100
20MABNDA000324_PR007
Spot 1    -0.01259230     0.01266456    -0.07446800
Spot 2    -0.01061424     0.01403775    -0.07446800
20MABNDB000001_PR017
Spot 1    -0.01232211    -0.01310605    -0.07418400
Spot 2    -0.01195088    -0.01310634    -0.07418400
20MABNDB000260_PR019
Spot 1    -0.01226896    -0.01243574    -0.07492700
Spot 2    -0.01206439    -0.01243049    -0.07492700
20MABNDB000212_PR029
Spot 1    -0.01189121    -0.01329548    -0.07390500
Spot 2    -0.01225460    -0.01329299    -0.07390500
20MABNDB000128_PR030
Spot 1    -0.01167167    -0.01258728    -0.07353400
Spot 2    -0.01186988    -0.01258551    -0.07353400
20MABNDA000444_PR040
Spot 1    -0.01200990     0.01335286    -0.07412000
Spot 2    -0.01237854     0.01335123    -0.07412000
20MABNDA000053_PR041
Spot 1    -0.01197660     0.01264550    -0.07430100
Spot 2    -0.01218299     0.01264895    -0.07430100
20MABNDA000188_PR008
Spot 1    -0.01399107     0.01394961    -0.07502000
Spot 2    -0.01399107     0.01394961    -0.07502000
20MABNDA000188_PR018
Spot 1    -0.01258382     0.01255498    -0.07502000
Spot 2    -0.01211711     0.01255674    -0.07502000
20MABNDA000039_PR009
Spot 1    -0.01162099     0.01304231    -0.07444800
Spot 2    -0.01157133     0.01303833    -0.07444800
20MABNDA000039_PR011
Spot 1    -0.01371471     0.01390904    -0.07444800
Spot 2    -0.01353745     0.01391308    -0.07444800
20MABNDB000155_PR020
Spot 1    -0.01360022    -0.01316942    -0.07501700
Spot 2    -0.01352993    -0.01317316    -0.07501700
20MABNDB000155_PR022
Spot 1    -0.01207938    -0.01310335    -0.07501700
Spot 2    -0.01160568    -0.01310150    -0.07501700
20MABNDB000010_PR021
Spot 1    -0.01158959    -0.01288212    -0.07358200
Spot 2    -0.01153083    -0.01288058    -0.07358200
20MABNDB000010_PR023
Spot 1    -0.01313546    -0.01369531    -0.07358200
Spot 2    -0.01295958    -0.01369411    -0.07358200
20MABNDB000069_PR031
Spot 1    -0.01361993    -0.01186066    -0.07388500
Spot 2    -0.01361993    -0.01186066    -0.07388500
20MABNDB000069_PR033
Spot 1    -0.01192910    -0.01250408    -0.07388500
Spot 2    -0.01145827    -0.01250347    -0.07388500
20MABNDB000131_PR032
Spot 1    -0.01144318    -0.01300337    -0.07533000
Spot 2    -0.01138289    -0.01299949    -0.07533000
20MABNDB000131_PR034
Spot 1    -0.01329276    -0.01371114    -0.07533000
Spot 2    -0.01311663    -0.01371027    -0.07533000
20MABNDA000208_PR042
Spot 1    -0.01386649     0.01392107    -0.07273700
Spot 2    -0.01386649     0.01392107    -0.07273700
20MABNDA000208_PR046
Spot 1    -0.01220788     0.01204820    -0.07273700
Spot 2    -0.01173661     0.01204534    -0.07273700
20MABNDA000035_PR044
Spot 1    -0.01158362     0.01296895    -0.07483200
Spot 2    -0.01152310     0.01297427    -0.07483200
20MABNDA000035_PR045
Spot 1    -0.01338218     0.01371158    -0.07483200
Spot 2    -0.01320307     0.01370811    -0.07483200


*****************************************************************coordonnees du prisme dans le repere MOUNT********************************************************************************** 
20MABNDL000077_PR002
    0.08138955     0.09382787     3.70603371
    0.08138955     0.09382787     3.70603371
20MABNDL000077_PR003
   -0.00937768     0.09172102     3.89559364
   -0.00492243     0.09609051     3.89555144
20MABNDL000077_20MABNDM000168
   -0.05601434     0.07587352    -5.46843529
   -0.05602325     0.07586224    -5.46843529
20MABNDL000077_PR024
    0.04609933     0.01507053    -5.89638710
    0.04607075     0.01504529    -5.89638710
20MABNDM000020_PR013
    0.05274186    -0.08860095    -3.80153990
    0.05274186    -0.08860095    -3.80153990
20MABNDM000020_PR014
   -0.06552258    -0.00523478    -4.74841213
20MABNDM000020_20MABNDL000196
   -0.04617205    -0.06873195     5.39440918
20MABNDM000020_PR035
   -0.04295053    -0.00745351     5.80095291
20MABNDM000168_PR025
    0.03873196    -0.01223890    -3.78836441
20MABNDM000168_PR026
   -0.05773899    -0.01395242    -3.98429132
20MABNDM000168_20MABNDL000077
    0.01157109    -0.03890973     5.38884640
20MABNDM000168_PR001
   -0.05742984    -0.01366410     5.81470585
20MABNDL000196_PR036
    0.05125300     0.00566218     3.68777084
20MABNDL000196_PR037
   -0.04424999     0.01320700     3.88351965
20MABNDL000196_20MABNDM000020
   -0.01583587     0.03817134    -5.47473860
20MABNDL000196_PR012
    0.05226757     0.01472255    -5.91537380
20MABNDA000134_PR004
   -0.00860582     0.03861526     2.74965715
20MABNDA000334_PR005
   -0.00407095     0.03190397     2.14976907
20MABNDB000317_PR015
   -0.01663241    -0.03693675     2.75126743
20MABNDB000146_PR016
   -0.01355525    -0.03127680     2.15201712
20MABNDB000135_PR027
   -0.02081005    -0.00968235     2.74937153
20MABNDB000126_PR028
   -0.02036135    -0.03879309     2.14679718
20MABNDA000272_PR038
   -0.01351517     0.01140709     2.74965906
20MABNDA000003_PR039
   -0.00577818     0.04200921     2.14890480
20MABNDA000196_PR006
   -0.01497938     0.00842337     1.64206004
20MABNDA000324_PR007
   -0.05860623     0.00645078     2.95519161
20MABNDB000001_PR017
   -0.02371745    -0.01250028     1.64039421
20MABNDB000260_PR019
   -0.02989263    -0.03696134     2.95625949
20MABNDB000212_PR029
   -0.02455791    -0.00811666     1.64224315
20MABNDB000128_PR030
   -0.04215354    -0.03233916     2.95495224
20MABNDA000444_PR040
   -0.02310663     0.00797929     1.64500666
20MABNDA000053_PR041
   -0.03551592     0.03033200     2.95464253
20MABNDA000188_PR008
    0.14616936    -0.09611703     9.20304298
20MABNDA000188_PR018
   -0.01862662     0.02172521     1.28360772
20MABNDA000039_PR009
   -0.17207532     0.02875440    11.00699902
20MABNDA000039_PR011
    0.03021104    -0.02170447     3.43350792
20MABNDB000155_PR020
    0.09614895    -0.00375729     9.20035172
20MABNDB000155_PR022
   -0.02694304    -0.01299786     1.28070164
20MABNDB000010_PR021
   -0.17537807    -0.03993890    11.00694466
20MABNDB000010_PR023
    0.00480271     0.01584066     3.43380904
20MABNDB000069_PR031
    0.10999375    -0.16176865     9.20229721
20MABNDB000069_PR033
   -0.02848365    -0.02281965     1.28395891
20MABNDB000131_PR032
   -0.18797246    -0.03472527    11.00641251
20MABNDB000131_PR034
    0.01435302     0.01244398     3.43341112
20MABNDA000208_PR042
    0.12878537    -0.09311214     9.20089340
20MABNDA000208_PR046
   -0.02535517     0.03032025     1.28212965
20MABNDA000035_PR044
   -0.17866436     0.03130111    11.00803566
20MABNDA000035_PR045
    0.01491283    -0.01491212     3.43486977


*****************************************************************coordonnees du prisme dans le repere ATLAS********************************************************************************** 
20MABNDL000077_PR002 0.00000000
    2.76322222    -3.66310334     6.48542404
    2.76322222    -3.66310334     6.48542404
20MABNDL000077_PR003 0.00000000
    2.76548624    -3.75410509     6.67487001
    2.76111794    -3.74964833     6.67483759
20MABNDL000077_20MABNDM000168 0.00000000
    2.77213383    -3.78919339    -2.68922043
    2.77214503    -3.78920245    -2.68922043
20MABNDL000077_PR024 0.00000000
    2.83254957    -3.68657112    -3.11710548
    2.83257484    -3.68659973    -3.11710548
20MABNDM000020_PR013 0.00000000
   -2.76372600    -3.79224682     6.48532534
   -2.76372600    -3.79224682     6.48532534
20MABNDM000020_PR014 0.00000000
   -2.84686637    -3.67467690     7.43230391
20MABNDM000020_20MABNDL000196 0.00000000
   -2.78540492    -3.68633294    -2.71054173
20MABNDM000020_PR035 0.00000000
   -2.84676576    -3.68922639    -3.11707544
20MABNDM000168_PR025 0.00000000
    2.84099245    -3.78406334    -6.47897625
20MABNDM000168_PR026 0.00000000
    2.83929253    -3.68766475    -6.67493868
20MABNDM000168_20MABNDL000077 0.00000000
    2.81488585    -3.75348306     2.69822574
20MABNDM000168_PR001 0.00000000
    2.84017539    -3.68433046     3.12405777
20MABNDL000196_PR036 0.00000000
   -2.84794521    -3.69302154    -6.47909451
20MABNDL000196_PR037 0.00000000
   -2.84036040    -3.78870320    -6.67475414
20MABNDL000196_20MABNDM000020 0.00000000
   -2.81520700    -3.75157237     2.68347311
20MABNDL000196_PR012 0.00000000
   -2.83867788    -3.68306994     3.12404513
20MABNDA000134_PR004 0.00000000
    2.61439729    -4.19698763     3.83338332
20MABNDA000334_PR005 0.00000000
    2.61692762    -4.19703388     5.89735699
20MABNDB000317_PR015 0.00000000
   -2.61197495    -4.19699240     3.83307862
20MABNDB000146_PR016 0.00000000
   -2.61274004    -4.19702053     5.89907360
20MABNDB000135_PR027 0.00000000
    2.60405326    -4.19700384    -3.82567835
20MABNDB000126_PR028 0.00000000
    2.60555577    -4.19702005    -5.89342690
20MABNDA000272_PR038 0.00000000
   -2.61102152    -4.19698238    -3.82707739
20MABNDA000003_PR039 0.00000000
   -2.61595297    -4.19702864    -5.89075756
20MABNDA000196_PR006 0.00000000
    2.58944011    -4.19496965     6.54638052
20MABNDA000324_PR007 0.00000000
    2.56070662    -4.14028645     6.96946096
20MABNDB000001_PR017 0.00000000
   -2.59742212    -4.19499111     6.54782820
20MABNDB000260_PR019 0.00000000
   -2.59886980    -4.13996935     6.94368458
20MABNDB000212_PR029 0.00000000
    2.59823561    -4.19500589    -6.54710436
20MABNDB000128_PR030 0.00000000
    2.58670807    -4.14004230    -6.94578648
20MABNDA000444_PR040 0.00000000
   -2.59827995    -4.19500351    -6.54716015
20MABNDA000053_PR041 0.00000000
   -2.58502388    -4.14004230    -6.94758081
20MABNDA000188_PR008 0.00000000
    3.55893064     3.84859109     8.10764503
20MABNDA000188_PR018 0.00000000
    3.51844931    -4.07065392     7.90168619
20MABNDA000039_PR009 0.00000000
    3.87624693     3.64745498    12.94004822
20MABNDA000039_PR011 0.00000000
    3.66481280    -3.92576957    12.88713264
20MABNDB000155_PR020 0.00000000
   -3.67480326     3.84889960     7.90311193
20MABNDB000155_PR022 0.00000000
   -3.53303909    -4.07043934     7.89506197
20MABNDB000010_PR021 0.00000000
   -3.86120987     3.64768457    12.94176769
20MABNDB000010_PR023 0.00000000
   -3.68485975    -3.92556572    12.88943481
20MABNDB000069_PR031 0.00000000
    3.69177032     3.84800911    -7.77863359
20MABNDB000069_PR033 0.00000000
    3.53181362    -4.07045794    -7.88285112
20MABNDB000131_PR032 0.00000000
    3.86877346     3.64756083   -12.94536781
20MABNDB000131_PR034 0.00000000
    3.67343497    -3.92560673   -12.89550400
20MABNDA000208_PR042 0.00000000
   -3.67880630     3.84853148    -8.00459671
20MABNDA000208_PR046 0.00000000
   -3.53040791    -4.07029533    -7.87819719
20MABNDA000035_PR044 0.00000000
   -3.86790609     3.64759111   -12.93698025
20MABNDA000035_PR045 0.00000000
   -3.67581630    -3.92561722   -12.89147186


*****************************************************************Rapport********************************************************************************** 
CAM-LBA-US_EBA-US-HO-H         2024.06.08.11.40.48     2.76322222    -3.66310334     6.48542404     0.00000000     0.00000000     0.00000000 0.00000000 VRAI 
CAM-LBA-US_JDA-US-H            2024.06.08.11.40.48     2.76330209    -3.75187671     6.67485380     0.00218415     0.00222838     0.00001621 0.00000000 VRAI 
CAM-LBA-US_CAM-LBC-US          2024.06.08.11.40.48     2.77213943    -3.78919792    -2.68922043     0.00000560     0.00000453     0.00000000 0.00000000 VRAI 
CAM-LBA-US_EBC-US-IP-H         2024.06.08.11.40.48     2.83256221    -3.68658543    -3.11710548     0.00001264     0.00001431     0.00000000 0.00000000 VRAI 
CAM-LBA-USA_EBA-USA-HO-H       2024.06.08.11.40.48    -2.76372600    -3.79224682     6.48532534     0.00000000     0.00000000     0.00000000 0.00000000 VRAI 
CAM-LBA-USA_JDA-USA-H          2024.06.08.11.40.48    -2.84686637    -3.67467690     7.43230391     0.00000000     0.00000000     0.00000000 0.00000000 VRAI 
CAM-LBA-USA_CAM-LBC-USA        2024.06.08.11.40.48    -2.78540492    -3.68633294    -2.71054173     0.00000000     0.00000000     0.00000000 0.00000000 VRAI 
CAM-LBA-USA_EBC-USA-IP-H       2024.06.08.11.40.48    -2.84676576    -3.68922639    -3.11707544     0.00000000     0.00000000     0.00000000 0.00000000 VRAI 
CAM-LBC-US_EBC-US-HO-H         2024.06.08.11.40.48     2.84099245    -3.78406334    -6.47897625     0.00000000     0.00000000     0.00000000 0.00000000 VRAI 
CAM-LBC-US_JDC-US-H            2024.06.08.11.40.48     2.83929253    -3.68766475    -6.67493868     0.00000000     0.00000000     0.00000000 0.00000000 VRAI 
CAM-LBC-US_CAM-LBA-US          2024.06.08.11.40.48     2.81488585    -3.75348306     2.69822574     0.00000000     0.00000000     0.00000000 0.00000000 VRAI 
CAM-LBC-US_EBA-US-IP-H         2024.06.08.11.40.48     2.84017539    -3.68433046     3.12405777     0.00000000     0.00000000     0.00000000 0.00000000 VRAI 
CAM-LBC-USA_EBC-USA-HO-H       2024.06.08.11.40.48    -2.84794521    -3.69302154    -6.47909451     0.00000000     0.00000000     0.00000000 0.00000000 VRAI 
CAM-LBC-USA_JDC-USA-H          2024.06.08.11.40.48    -2.84036040    -3.78870320    -6.67475414     0.00000000     0.00000000     0.00000000 0.00000000 VRAI 
CAM-LBC-USA_CAM-LBA-USA        2024.06.08.11.40.48    -2.81520700    -3.75157237     2.68347311     0.00000000     0.00000000     0.00000000 0.00000000 VRAI 
CAM-LBC-USA_EBA-USA-IP-H       2024.06.08.11.40.48    -2.83867788    -3.68306994     3.12404513     0.00000000     0.00000000     0.00000000 0.00000000 VRAI 
CAM-EBA-US-IP_EBA-US-IP        2024.06.08.11.40.48     2.61439729    -4.19698763     3.83338332     0.00000000     0.00000000     0.00000000 0.00000000 VRAI 
CAM-EBA-US-HO_EBA-US-HO        2024.06.08.11.40.48     2.61692762    -4.19703388     5.89735699     0.00000000     0.00000000     0.00000000 0.00000000 VRAI 
CAM-EBA-USA-IP_EBA-USA-IP      2024.06.08.11.40.48    -2.61197495    -4.19699240     3.83307862     0.00000000     0.00000000     0.00000000 0.00000000 VRAI 
CAM-EBA-USA-HO_EBA-USA-HO      2024.06.08.11.40.48    -2.61274004    -4.19702053     5.89907360     0.00000000     0.00000000     0.00000000 0.00000000 VRAI 
CAM-EBC-US-IP_EBC-US-IP        2024.06.08.11.40.48     2.60405326    -4.19700384    -3.82567835     0.00000000     0.00000000     0.00000000 0.00000000 VRAI 
CAM-EBC-US-HO_EBC-US-HO        2024.06.08.11.40.48     2.60555577    -4.19702005    -5.89342690     0.00000000     0.00000000     0.00000000 0.00000000 VRAI 
CAM-EBC-USA-IP_EBC-USA-IP      2024.06.08.11.40.48    -2.61102152    -4.19698238    -3.82707739     0.00000000     0.00000000     0.00000000 0.00000000 VRAI 
CAM-EBC-USA-HO_EBC-USA-HO      2024.06.08.11.40.48    -2.61595297    -4.19702864    -5.89075756     0.00000000     0.00000000     0.00000000 0.00000000 VRAI 
CAM-JDA-US-IP_JDA-US-IP        2024.06.08.11.40.48     2.58944011    -4.19496965     6.54638052     0.00000000     0.00000000     0.00000000 0.00000000 VRAI 
CAM-JDA-US-HO_JDA-US-HO        2024.06.08.11.40.48     2.56070662    -4.14028645     6.96946096     0.00000000     0.00000000     0.00000000 0.00000000 VRAI 
CAM-JDA-USA-IP_JDA-USA-IP      2024.06.08.11.40.48    -2.59742212    -4.19499111     6.54782820     0.00000000     0.00000000     0.00000000 0.00000000 VRAI 
CAM-JDA-USA-HO_JDA-USA-HO      2024.06.08.11.40.48    -2.59886980    -4.13996935     6.94368458     0.00000000     0.00000000     0.00000000 0.00000000 VRAI 
CAM-JDC-US-IP_JDC-US-IP        2024.06.08.11.40.48     2.59823561    -4.19500589    -6.54710436     0.00000000     0.00000000     0.00000000 0.00000000 VRAI 
CAM-JDC-US-HO_JDC-US-HO        2024.06.08.11.40.48     2.58670807    -4.14004230    -6.94578648     0.00000000     0.00000000     0.00000000 0.00000000 VRAI 
CAM-JDC-USA-IP_JDC-USA-IP      2024.06.08.11.40.48    -2.59827995    -4.19500351    -6.54716015     0.00000000     0.00000000     0.00000000 0.00000000 VRAI 
CAM-JDC-USA-HO_JDC-USA-HO      2024.06.08.11.40.48    -2.58502388    -4.14004230    -6.94758081     0.00000000     0.00000000     0.00000000 0.00000000 VRAI 
CAM-ECTA-US-IP_ECTA-US-IP-T    2024.06.08.11.40.48     3.55893064     3.84859109     8.10764503     0.00000000     0.00000000     0.00000000 0.00000000 VRAI 
CAM-ECTA-US-IP_ECTA-US-IP      2024.06.08.11.40.48     3.51844931    -4.07065392     7.90168619     0.00000000     0.00000000     0.00000000 0.00000000 VRAI 
CAM-ECTA-US-HO_ECTA-US-HO-T    2024.06.08.11.40.48     3.87624693     3.64745498    12.94004822     0.00000000     0.00000000     0.00000000 0.00000000 VRAI 
CAM-ECTA-US-HO_ECTA-US-HO      2024.06.08.11.40.48     3.66481280    -3.92576957    12.88713264     0.00000000     0.00000000     0.00000000 0.00000000 VRAI 
CAM-ECTA-USA-IP_ECTA-USA-IP-T  2024.06.08.11.40.48    -3.67480326     3.84889960     7.90311193     0.00000000     0.00000000     0.00000000 0.00000000 VRAI 
CAM-ECTA-USA-IP_ECTA-USA-IP    2024.06.08.11.40.48    -3.53303909    -4.07043934     7.89506197     0.00000000     0.00000000     0.00000000 0.00000000 VRAI 
CAM-ECTA-USA-HO_ECTA-USA-HO-T  2024.06.08.11.40.48    -3.86120987     3.64768457    12.94176769     0.00000000     0.00000000     0.00000000 0.00000000 VRAI 
CAM-ECTA-USA-HO_ECTA-USA-HO    2024.06.08.11.40.48    -3.68485975    -3.92556572    12.88943481     0.00000000     0.00000000     0.00000000 0.00000000 VRAI 
CAM-ECTC-US-IP_ECTC-US-IP-T    2024.06.08.11.40.48     3.69177032     3.84800911    -7.77863359     0.00000000     0.00000000     0.00000000 0.00000000 VRAI 
CAM-ECTC-US-IP_ECTC-US-IP      2024.06.08.11.40.48     3.53181362    -4.07045794    -7.88285112     0.00000000     0.00000000     0.00000000 0.00000000 VRAI 
CAM-ECTC-US-HO_ECTC-US-HO-T    2024.06.08.11.40.48     3.86877346     3.64756083   -12.94536781     0.00000000     0.00000000     0.00000000 0.00000000 VRAI 
CAM-ECTC-US-HO_ECTC-US-HO      2024.06.08.11.40.48     3.67343497    -3.92560673   -12.89550400     0.00000000     0.00000000     0.00000000 0.00000000 VRAI 
CAM-ECTC-USA-IP_ECTC-USA-IP-T  2024.06.08.11.40.48    -3.67880630     3.84853148    -8.00459671     0.00000000     0.00000000     0.00000000 0.00000000 VRAI 
CAM-ECTC-USA-IP_ECTC-USA-IP    2024.06.08.11.40.48    -3.53040791    -4.07029533    -7.87819719     0.00000000     0.00000000     0.00000000 0.00000000 VRAI 
CAM-ECTC-USA-HO_ECTC-USA-HO-T  2024.06.08.11.40.48    -3.86790609     3.64759111   -12.93698025     0.00000000     0.00000000     0.00000000 0.00000000 VRAI 
CAM-ECTC-USA-HO_ECTC-USA-HO    2024.06.08.11.40.48    -3.67581630    -3.92561722   -12.89147186     0.00000000     0.00000000     0.00000000 0.00000000 VRAI 
