********** Fichier qui contient une sauvegarde des coordonnees images + coordonnees images transformees dans le repere BCAM (MOUNT) + coordonnees des prismes dans le repere MOUNT********** 
********************************************************************** Unite en metres (m)************************************************************************************************** 

*******************************************************************coordonnees images dans le repere CCD *********************************************************************************** 
20MABNDL000077_PR002
Spot 1     0.00036500     0.00140500
Spot 2     0.00052500     0.00043500
Spot 1     0.00109500     0.00008500
Spot 2     0.00052500     0.00043500
20MABNDL000077_PR003
Spot 1     0.00235500     0.00028500
Spot 2     0.00235500     0.00028500
Spot 1     0.00235500     0.00028500
Spot 2     0.00166500     0.00022500
20MABNDL000077_20MABNDM000168
Spot 1     0.00175564     0.00118251
Spot 2     0.00075500     0.00010500
Spot 1     0.00175581     0.00118262
Spot 2     0.00075500     0.00010500
20MABNDL000077_PR024
Spot 1     0.00254748     0.00147842
Spot 2     0.00265076     0.00147660
Spot 1     0.00254762     0.00147879
Spot 2     0.00265101     0.00147685
20MABNDM000020_PR013
Spot 1     0.00044500     0.00008500
Spot 2     0.00044500     0.00008500
20MABNDM000020_PR014
Spot 1     0.00265753     0.00168378
Spot 2     0.00249527     0.00168755
20MABNDM000020_20MABNDL000196
Spot 1     0.00197841     0.00117930
Spot 2     0.00190500     0.00009500
20MABNDM000020_PR035
Spot 1     0.00126017     0.00148683
Spot 2     0.00118611     0.00152553
20MABNDM000168_PR025
Spot 1     0.00075742     0.00147181
Spot 2     0.00059950     0.00147667
20MABNDM000168_PR026
Spot 1     0.00266636     0.00142813
Spot 2     0.00250455     0.00142426
20MABNDM000168_20MABNDL000077
Spot 1     0.00154174     0.00129767
Spot 2     0.00175929     0.00130377
20MABNDM000168_PR001
Spot 1     0.00080802     0.00161430
Spot 2     0.00070626     0.00161776
20MABNDL000196_PR036
Spot 1     0.00094667     0.00164712
Spot 2     0.00111178     0.00164611
20MABNDL000196_PR037
Spot 1     0.00283723     0.00146165
Spot 2     0.00299667     0.00146431
20MABNDL000196_20MABNDM000020
Spot 1     0.00192334     0.00103692
Spot 2     0.00170228     0.00104259
20MABNDL000196_PR012
Spot 1     0.00264786     0.00133676
Spot 2     0.00272267     0.00138547
20MABNDA000134_PR004
Spot 1     0.00190288     0.00177295
Spot 2     0.00168420     0.00176500
20MABNDA000334_PR005
Spot 1     0.00220067     0.00159117
Spot 2     0.00248106     0.00159094
20MABNDB000317_PR015
Spot 1     0.00168339     0.00167529
Spot 2     0.00146328     0.00167983
20MABNDB000146_PR016
Spot 1     0.00144581     0.00131315
Spot 2     0.00172177     0.00131516
20MABNDB000135_PR027
Spot 1     0.00188365     0.00091049
Spot 2     0.00210262     0.00091187
20MABNDB000126_PR028
Spot 1     0.00192747     0.00200657
Spot 2     0.00164354     0.00200494
20MABNDA000272_PR038
Spot 1     0.00192046     0.00096664
Spot 2     0.00169791     0.00096411
20MABNDA000003_PR039
Spot 1     0.00200897     0.00195266
Spot 2     0.00228777     0.00195357
20MABNDA000196_PR006
Spot 1     0.00140775     0.00066219
Spot 2     0.00177461     0.00066422
20MABNDA000324_PR007
Spot 1     0.00199124     0.00134776
Spot 2     0.00219730     0.00134216
20MABNDB000001_PR017
Spot 1     0.00186206     0.00089294
Spot 2     0.00223275     0.00089625
20MABNDB000260_PR019
Spot 1     0.00205893     0.00145515
Spot 2     0.00226354     0.00145402
20MABNDB000212_PR029
Spot 1     0.00219821     0.00068519
Spot 2     0.00183515     0.00068306
20MABNDB000128_PR030
Spot 1     0.00267973     0.00162150
Spot 2     0.00248165     0.00162423
20MABNDA000444_PR040
Spot 1     0.00107466     0.00067710
Spot 2     0.00144308     0.00067369
20MABNDA000053_PR041
Spot 1     0.00123236     0.00145124
Spot 2     0.00143745     0.00145151
20MABNDA000188_PR008
Spot 1     0.00297500     0.00011500
Spot 2     0.00297500     0.00011500
20MABNDA000188_PR018
Spot 1     0.00166175     0.00172318
Spot 2     0.00119453     0.00171894
20MABNDA000039_PR009
Spot 1     0.00066208     0.00117212
Spot 2     0.00061112     0.00117610
20MABNDA000039_PR011
Spot 1     0.00276012     0.00026225
Spot 2     0.00258383     0.00025670
20MABNDB000155_PR020
Spot 1     0.00061402     0.00111876
Spot 2     0.00068490     0.00111423
20MABNDB000155_PR022
Spot 1     0.00207500     0.00136034
Spot 2     0.00254865     0.00135537
20MABNDB000010_PR021
Spot 1     0.00286431     0.00116795
Spot 2     0.00292331     0.00116839
20MABNDB000010_PR023
Spot 1     0.00130482     0.00032580
Spot 2     0.00148086     0.00032224
20MABNDB000069_PR031
Spot 1     0.00021500     0.00240500
Spot 2     0.00021500     0.00240500
20MABNDB000069_PR033
Spot 1     0.00185606     0.00204270
Spot 2     0.00232644     0.00206346
20MABNDB000131_PR032
Spot 1     0.00277689     0.00108402
Spot 2     0.00283750     0.00108669
20MABNDB000131_PR034
Spot 1     0.00092259     0.00032961
Spot 2     0.00109866     0.00033101
20MABNDA000208_PR042
Spot 1     0.00304500     0.00138500
Spot 2     0.00284500     0.00011500
20MABNDA000208_PR046
Spot 1     0.00147433     0.00216098
Spot 2     0.00100244     0.00216313
20MABNDA000035_PR044
Spot 1     0.00074873     0.00126373
Spot 2     0.00068824     0.00125786
20MABNDA000035_PR045
Spot 1     0.00255184     0.00048496
Spot 2     0.00237341     0.00048541


****************************************************************coordonnees images transformees dans le repere MOUNT************************************************************************* 
20MABNDL000077_PR002
Spot 1     0.01143443     0.03548461    -0.07463200
Spot 2     0.01158509     0.03451311    -0.07463200
Spot 1     0.01215169     0.03415765    -0.07463200
Spot 2     0.01158509     0.03451311    -0.07463200
20MABNDL000077_PR003
Spot 1     0.01341356     0.03434551    -0.07463200
Spot 2     0.01341356     0.03434551    -0.07463200
Spot 1     0.01341356     0.03434551    -0.07463200
Spot 2     0.01272301     0.03429215    -0.07463200
20MABNDL000077_20MABNDM000168
Spot 1    -0.01259077     0.03524551    -0.00695400
Spot 2    -0.01157915     0.03417830    -0.00695400
Spot 1    -0.01259094     0.03524562    -0.00695400
Spot 2    -0.01157915     0.03417830    -0.00695400
20MABNDL000077_PR024
Spot 1    -0.01338559     0.03553330    -0.00695400
Spot 2    -0.01348885     0.03553042    -0.00695400
Spot 1    -0.01338574     0.03553367    -0.00695400
Spot 2    -0.01348910     0.03553067    -0.00695400
20MABNDM000020_PR013
Spot 1    -0.01394554    -0.03407018    -0.00523500
Spot 2    -0.01394554    -0.03407018    -0.00523500
20MABNDM000020_PR014
Spot 1    -0.01169819    -0.03561964    -0.00523500
Spot 2    -0.01186033    -0.03562700    -0.00523500
20MABNDM000020_20MABNDL000196
Spot 1     0.01270787    -0.03514786    -0.07583800
Spot 2     0.01278113    -0.03406355    -0.07583800
20MABNDM000020_PR035
Spot 1     0.01342615    -0.03545529    -0.07583800
Spot 2     0.01350021    -0.03549398    -0.07583800
20MABNDM000168_PR025
Spot 1    -0.01364471    -0.03581079    -0.00532900
Spot 2    -0.01380261    -0.03581633    -0.00532900
20MABNDM000168_PR026
Spot 1    -0.01173598    -0.03575891    -0.00532900
Spot 2    -0.01189780    -0.03575574    -0.00532900
20MABNDM000168_20MABNDL000077
Spot 1     0.01288376    -0.03529830    -0.07445100
Spot 2     0.01266614    -0.03530122    -0.07445100
20MABNDM000168_PR001
Spot 1     0.01361277    -0.03562563    -0.07445100
Spot 2     0.01371446    -0.03563058    -0.07445100
20MABNDL000196_PR036
Spot 1     0.01192658     0.03583582    -0.07483600
Spot 2     0.01209169     0.03583515    -0.07483600
20MABNDL000196_PR037
Spot 1     0.01381752     0.03565429    -0.07483600
Spot 2     0.01397696     0.03565729    -0.07483600
20MABNDL000196_20MABNDM000020
Spot 1    -0.01274730     0.03530817    -0.00611000
Spot 2    -0.01252640     0.03531829    -0.00611000
20MABNDL000196_PR012
Spot 1    -0.01347770     0.03559338    -0.00611000
Spot 2    -0.01355348     0.03564057    -0.00611000
20MABNDA000134_PR004
Spot 1    -0.01287395     0.01239976    -0.07608400
Spot 2    -0.01265513     0.01240164    -0.07608400
20MABNDA000334_PR005
Spot 1    -0.01284379     0.01253697    -0.07324100
Spot 2    -0.01312418     0.01253746    -0.07324100
20MABNDB000317_PR015
Spot 1    -0.01247179    -0.01242048    -0.07326100
Spot 2    -0.01269194    -0.01241851    -0.07326100
20MABNDB000146_PR016
Spot 1    -0.01276251    -0.01248046    -0.07450500
Spot 2    -0.01248655    -0.01247784    -0.07450500
20MABNDB000135_PR027
Spot 1    -0.01252108    -0.01320245    -0.07464700
Spot 2    -0.01230211    -0.01320351    -0.07464700
20MABNDB000126_PR028
Spot 1    -0.01225206    -0.01217409    -0.07500400
Spot 2    -0.01253597    -0.01217724    -0.07500400
20MABNDA000272_PR038
Spot 1    -0.01275614     0.01314482    -0.07417900
Spot 2    -0.01253359     0.01314696    -0.07417900
20MABNDA000003_PR039
Spot 1    -0.01281012     0.01209963    -0.07373400
Spot 2    -0.01308892     0.01209943    -0.07373400
20MABNDA000196_PR006
Spot 1    -0.01236164     0.01330860    -0.07967100
Spot 2    -0.01272850     0.01331128    -0.07967100
20MABNDA000324_PR007
Spot 1    -0.01259589     0.01267348    -0.07446800
Spot 2    -0.01280199     0.01267747    -0.07446800
20MABNDB000001_PR017
Spot 1    -0.01232149    -0.01309635    -0.07418400
Spot 2    -0.01195079    -0.01309696    -0.07418400
20MABNDB000260_PR019
Spot 1    -0.01227146    -0.01244459    -0.07492700
Spot 2    -0.01206687    -0.01244152    -0.07492700
20MABNDB000212_PR029
Spot 1    -0.01188980    -0.01329570    -0.07390500
Spot 2    -0.01225286    -0.01329395    -0.07390500
20MABNDB000128_PR030
Spot 1    -0.01167408    -0.01259312    -0.07353400
Spot 2    -0.01187217    -0.01259107    -0.07353400
20MABNDA000444_PR040
Spot 1    -0.01201036     0.01334856    -0.07412000
Spot 2    -0.01237879     0.01334729    -0.07412000
20MABNDA000053_PR041
Spot 1    -0.01197857     0.01265090    -0.07430100
Spot 2    -0.01218363     0.01265464    -0.07430100
20MABNDA000188_PR008
Spot 1    -0.01399107     0.01394961    -0.07502000
Spot 2    -0.01399107     0.01394961    -0.07502000
20MABNDA000188_PR018
Spot 1    -0.01269164     0.01233025    -0.07502000
Spot 2    -0.01222440     0.01233048    -0.07502000
20MABNDA000039_PR009
Spot 1    -0.01162420     0.01307201    -0.07444800
Spot 2    -0.01157325     0.01306781    -0.07444800
20MABNDA000039_PR011
Spot 1    -0.01371828     0.01399095    -0.07444800
Spot 2    -0.01354197     0.01399573    -0.07444800
20MABNDB000155_PR020
Spot 1    -0.01365199    -0.01313869    -0.07501700
Spot 2    -0.01358105    -0.01314225    -0.07501700
20MABNDB000155_PR022
Spot 1    -0.01219445    -0.01287713    -0.07501700
Spot 2    -0.01172078    -0.01287562    -0.07501700
20MABNDB000010_PR021
Spot 1    -0.01158695    -0.01291064    -0.07358200
Spot 2    -0.01152796    -0.01290920    -0.07358200
20MABNDB000010_PR023
Spot 1    -0.01313195    -0.01377909    -0.07358200
Spot 2    -0.01295587    -0.01377966    -0.07358200
20MABNDB000069_PR031
Spot 1    -0.01361993    -0.01186066    -0.07388500
Spot 2    -0.01361993    -0.01186066    -0.07388500
20MABNDB000069_PR033
Spot 1    -0.01199522    -0.01229038    -0.07388500
Spot 2    -0.01152438    -0.01228905    -0.07388500
20MABNDB000131_PR032
Spot 1    -0.01144329    -0.01303073    -0.07533000
Spot 2    -0.01138270    -0.01302776    -0.07533000
20MABNDB000131_PR034
Spot 1    -0.01329377    -0.01379447    -0.07533000
Spot 2    -0.01311771    -0.01379218    -0.07533000
20MABNDA000208_PR042
Spot 1    -0.01391534     0.01261103    -0.07273700
Spot 2    -0.01371645     0.01388121    -0.07273700
20MABNDA000208_PR046
Spot 1    -0.01234399     0.01183643    -0.07273700
Spot 2    -0.01187210     0.01183469    -0.07273700
20MABNDA000035_PR044
Spot 1    -0.01158343     0.01299359    -0.07483200
Spot 2    -0.01152289     0.01299903    -0.07483200
20MABNDA000035_PR045
Spot 1    -0.01338095     0.01378517    -0.07483200
Spot 2    -0.01320253     0.01378345    -0.07483200


*****************************************************************coordonnees du prisme dans le repere MOUNT********************************************************************************** 
20MABNDL000077_PR002
    0.07109624     0.04972310     3.70663595
    0.05338007     0.08249768     3.70660663
20MABNDL000077_PR003
   -0.02476418     0.08434060     3.89557457
   -0.00683934     0.08572713     3.89568853
20MABNDL000077_20MABNDM000168
   -0.05603220     0.07585384    -5.46843529
   -0.05602602     0.07584993    -5.46843529
20MABNDL000077_PR024
    0.04595572     0.01508699    -5.89638853
    0.04597116     0.01506297    -5.89638853
20MABNDM000020_PR013
    0.05274186    -0.08860095    -3.80153990
20MABNDM000020_PR014
   -0.06543866    -0.00534249    -4.74841404
20MABNDM000020_20MABNDL000196
    0.01257151    -0.07156079     5.39471292
20MABNDM000020_PR035
   -0.04281764    -0.00729168     5.80095387
20MABNDM000168_PR025
    0.03876229    -0.01233419    -3.78836489
20MABNDM000168_PR026
   -0.05778299    -0.01400883    -3.98429132
20MABNDM000168_20MABNDL000077
    0.01161385    -0.03888448     5.38884687
20MABNDM000168_PR001
   -0.05737190    -0.01365176     5.81470633
20MABNDL000196_PR036
    0.05132164     0.00558378     3.68776917
20MABNDL000196_PR037
   -0.04425864     0.01326308     3.88352013
20MABNDL000196_20MABNDM000020
   -0.01587890     0.03820246    -5.47473860
20MABNDL000196_PR012
    0.05216404     0.01476827    -5.91537476
20MABNDA000134_PR004
   -0.00848891     0.03854795     2.74965811
20MABNDA000334_PR005
   -0.00404530     0.03182866     2.14976978
20MABNDB000317_PR015
   -0.01645631    -0.03692432     2.75126791
20MABNDB000146_PR016
   -0.01347843    -0.03123235     2.15201759
20MABNDB000135_PR027
   -0.02074565    -0.00964621     2.74937153
20MABNDB000126_PR028
   -0.02032859    -0.03884209     2.14679670
20MABNDA000272_PR038
   -0.01334434     0.01133569     2.74965906
20MABNDA000003_PR039
   -0.00568875     0.04199698     2.14890480
20MABNDA000196_PR006
   -0.01504899     0.00857460     1.64206028
20MABNDA000324_PR007
   -0.01548662     0.03304400     2.95548677
20MABNDB000001_PR017
   -0.02372523    -0.01270885     1.64039421
20MABNDB000260_PR019
   -0.02979452    -0.03656997     2.95626330
20MABNDB000212_PR029
   -0.02459242    -0.00810369     1.64224291
20MABNDB000128_PR030
   -0.04206116    -0.03211496     2.95495462
20MABNDA000444_PR040
   -0.02309891     0.00806954     1.64500690
20MABNDA000053_PR041
   -0.03546461     0.03011440     2.95464420
20MABNDA000188_PR008
    0.14616936    -0.09611703     9.20304298
20MABNDA000188_PR018
   -0.01678512     0.02558565     1.28358305
20MABNDA000039_PR009
   -0.17170073     0.02442708    11.00700951
20MABNDA000039_PR011
    0.03039477    -0.02545745     3.43346548
20MABNDB000155_PR020
    0.10246426    -0.00754199     9.20027733
20MABNDB000155_PR022
   -0.02497636    -0.01686115     1.28071666
20MABNDB000010_PR021
   -0.17578308    -0.03573868    11.00694847
20MABNDB000010_PR023
    0.00463699     0.01972294     3.43377495
20MABNDB000069_PR031
    0.10999375    -0.16176865     9.20229721
20MABNDB000069_PR033
   -0.02735269    -0.02648059     1.28393948
20MABNDB000131_PR032
   -0.18797842    -0.03066059    11.00641918
20MABNDB000131_PR034
    0.01440038     0.01620992     3.43338060
20MABNDA000208_PR042
    0.12258545    -0.01026462     9.20157051
20MABNDA000208_PR046
   -0.02303411     0.03392923     1.28209686
20MABNDA000035_PR044
   -0.17869380     0.02768799    11.00804043
20MABNDA000035_PR045
    0.01487199    -0.01831063     3.43484092


*****************************************************************coordonnees du prisme dans le repere ATLAS********************************************************************************** 
20MABNDL000077_PR002 0.00000000
    2.80732441    -3.67341137     6.48597050
    2.77454424    -3.69111705     6.48595142
20MABNDL000077_PR003 0.00000000
    2.77286172    -3.76949382     6.67482471
    2.77148104    -3.75156879     6.67496204
20MABNDL000077_20MABNDM000168 0.00000000
    2.77215362    -3.78921127    -2.68922043
    2.77215743    -3.78920507    -2.68922043
20MABNDL000077_PR024 0.00000000
    2.83253312    -3.68671489    -3.11710691
    2.83255720    -3.68669939    -3.11710691
20MABNDM000020_PR013 0.00000000
   -2.76372600    -3.79224682     6.48532534
20MABNDM000020_PR014 0.00000000
   -2.84675860    -3.67476082     7.43230581
20MABNDM000020_20MABNDL000196 0.00000000
   -2.78259420    -3.74507713    -2.71089053
20MABNDM000020_PR035 0.00000000
   -2.84692764    -3.68935943    -3.11707640
20MABNDM000168_PR025 0.00000000
    2.84089708    -3.78409362    -6.47897673
20MABNDM000168_PR026 0.00000000
    2.83923626    -3.68762088    -6.67493868
20MABNDM000168_20MABNDL000077 0.00000000
    2.81491113    -3.75352597     2.69822621
20MABNDM000168_PR001 0.00000000
    2.84018779    -3.68438840     3.12405849
20MABNDL000196_PR036 0.00000000
   -2.84802365    -3.69295311    -6.47909260
20MABNDL000196_PR037 0.00000000
   -2.84030414    -3.78871179    -6.67475462
20MABNDL000196_20MABNDM000020 0.00000000
   -2.81517577    -3.75161552     2.68347311
20MABNDL000196_PR012 0.00000000
   -2.83863211    -3.68317342     3.12404633
20MABNDA000134_PR004 0.00000000
    2.61451435    -4.19698763     3.83345079
20MABNDA000334_PR005 0.00000000
    2.61695337    -4.19703293     5.89743233
20MABNDB000317_PR015 0.00000000
   -2.61215091    -4.19699240     3.83309102
20MABNDB000146_PR016 0.00000000
   -2.61281681    -4.19702005     5.89911795
20MABNDB000135_PR027 0.00000000
    2.60411763    -4.19700384    -3.82571459
20MABNDB000126_PR028 0.00000000
    2.60558867    -4.19702005    -5.89337778
20MABNDA000272_PR038 0.00000000
   -2.61119246    -4.19698238    -3.82714868
20MABNDA000003_PR039 0.00000000
   -2.61604238    -4.19702864    -5.89076948
20MABNDA000196_PR006 0.00000000
    2.58950973    -4.19496918     6.54653168
20MABNDA000324_PR007 0.00000000
    2.60382867    -4.13996506     6.94287205
20MABNDB000001_PR017 0.00000000
   -2.59742999    -4.19499063     6.54803705
20MABNDB000260_PR019 0.00000000
   -2.59896803    -4.13996601     6.94407606
20MABNDB000212_PR029 0.00000000
    2.59827018    -4.19500589    -6.54709148
20MABNDB000128_PR030 0.00000000
    2.58680058    -4.14004040    -6.94601059
20MABNDA000444_PR040 0.00000000
   -2.59827232    -4.19500351    -6.54725075
20MABNDA000053_PR041 0.00000000
   -2.58507514    -4.14004135    -6.94779825
20MABNDA000188_PR008 0.00000000
    3.55893064     3.84859109     8.10764503
20MABNDA000188_PR018 0.00000000
    3.52034831    -4.07060766     7.89785385
20MABNDA000039_PR009 0.00000000
    3.87587285     3.64746737    12.93572140
20MABNDA000039_PR011 0.00000000
    3.66462946    -3.92581058    12.88337898
20MABNDB000155_PR020 0.00000000
   -3.68111706     3.84880972     7.89932489
20MABNDB000155_PR022 0.00000000
   -3.53500438    -4.07042980     7.89119768
20MABNDB000010_PR021 0.00000000
   -3.86161852     3.64768672    12.93756771
20MABNDB000010_PR023 0.00000000
   -3.68502903    -3.92560148    12.88555241
20MABNDB000069_PR031 0.00000000
    3.69177032     3.84800911    -7.77863359
20MABNDB000069_PR033 0.00000000
    3.53294659    -4.07046413    -7.87919044
20MABNDB000131_PR032 0.00000000
    3.86878061     3.64756894   -12.94130325
20MABNDB000131_PR034 0.00000000
    3.67338896    -3.92563605   -12.89173794
20MABNDA000208_PR042 0.00000000
   -3.67265010     3.84923434    -7.92174578
20MABNDA000208_PR046 0.00000000
   -3.53273106    -4.07032490    -7.87458944
20MABNDA000035_PR044 0.00000000
   -3.86793494     3.64759541   -12.93336773
20MABNDA000035_PR045 0.00000000
   -3.67585659    -3.92564631   -12.88807392


*****************************************************************Rapport********************************************************************************** 
CAM-LBA-US_EBA-US-HO-H         2024.07.10.17.35.08     2.79093432    -3.68226421     6.48596096     0.01639009     0.00885284     0.00000954 0.00000000 VRAI 
CAM-LBA-US_JDA-US-H            2024.07.10.17.35.08     2.77217138    -3.76053131     6.67489338     0.00069034     0.00896251     0.00006866 0.00000000 VRAI 
CAM-LBA-US_CAM-LBC-US          2024.07.10.17.35.08     2.77215552    -3.78920817    -2.68922043     0.00000191     0.00000310     0.00000000 0.00000000 VRAI 
CAM-LBA-US_EBC-US-IP-H         2024.07.10.17.35.08     2.83254516    -3.68670714    -3.11710691     0.00001204     0.00000775     0.00000000 0.00000000 VRAI 
CAM-LBA-USA_EBA-USA-HO-H       2024.07.10.17.35.08    -2.76372600    -3.79224682     6.48532534     0.00000000     0.00000000     0.00000000 0.00000000 VRAI 
CAM-LBA-USA_JDA-USA-H          2024.07.10.17.35.08    -2.84675860    -3.67476082     7.43230581     0.00000000     0.00000000     0.00000000 0.00000000 VRAI 
CAM-LBA-USA_CAM-LBC-USA        2024.07.10.17.35.08    -2.78259420    -3.74507713    -2.71089053     0.00000000     0.00000000     0.00000000 0.00000000 VRAI 
CAM-LBA-USA_EBC-USA-IP-H       2024.07.10.17.35.08    -2.84692764    -3.68935943    -3.11707640     0.00000000     0.00000000     0.00000000 0.00000000 VRAI 
CAM-LBC-US_EBC-US-HO-H         2024.07.10.17.35.08     2.84089708    -3.78409362    -6.47897673     0.00000000     0.00000000     0.00000000 0.00000000 VRAI 
CAM-LBC-US_JDC-US-H            2024.07.10.17.35.08     2.83923626    -3.68762088    -6.67493868     0.00000000     0.00000000     0.00000000 0.00000000 VRAI 
CAM-LBC-US_CAM-LBA-US          2024.07.10.17.35.08     2.81491113    -3.75352597     2.69822621     0.00000000     0.00000000     0.00000000 0.00000000 VRAI 
CAM-LBC-US_EBA-US-IP-H         2024.07.10.17.35.08     2.84018779    -3.68438840     3.12405849     0.00000000     0.00000000     0.00000000 0.00000000 VRAI 
CAM-LBC-USA_EBC-USA-HO-H       2024.07.10.17.35.08    -2.84802365    -3.69295311    -6.47909260     0.00000000     0.00000000     0.00000000 0.00000000 VRAI 
CAM-LBC-USA_JDC-USA-H          2024.07.10.17.35.08    -2.84030414    -3.78871179    -6.67475462     0.00000000     0.00000000     0.00000000 0.00000000 VRAI 
CAM-LBC-USA_CAM-LBA-USA        2024.07.10.17.35.08    -2.81517577    -3.75161552     2.68347311     0.00000000     0.00000000     0.00000000 0.00000000 VRAI 
CAM-LBC-USA_EBA-USA-IP-H       2024.07.10.17.35.08    -2.83863211    -3.68317342     3.12404633     0.00000000     0.00000000     0.00000000 0.00000000 VRAI 
CAM-EBA-US-IP_EBA-US-IP        2024.07.10.17.35.08     2.61451435    -4.19698763     3.83345079     0.00000000     0.00000000     0.00000000 0.00000000 VRAI 
CAM-EBA-US-HO_EBA-US-HO        2024.07.10.17.35.08     2.61695337    -4.19703293     5.89743233     0.00000000     0.00000000     0.00000000 0.00000000 VRAI 
CAM-EBA-USA-IP_EBA-USA-IP      2024.07.10.17.35.08    -2.61215091    -4.19699240     3.83309102     0.00000000     0.00000000     0.00000000 0.00000000 VRAI 
CAM-EBA-USA-HO_EBA-USA-HO      2024.07.10.17.35.08    -2.61281681    -4.19702005     5.89911795     0.00000000     0.00000000     0.00000000 0.00000000 VRAI 
CAM-EBC-US-IP_EBC-US-IP        2024.07.10.17.35.08     2.60411763    -4.19700384    -3.82571459     0.00000000     0.00000000     0.00000000 0.00000000 VRAI 
CAM-EBC-US-HO_EBC-US-HO        2024.07.10.17.35.08     2.60558867    -4.19702005    -5.89337778     0.00000000     0.00000000     0.00000000 0.00000000 VRAI 
CAM-EBC-USA-IP_EBC-USA-IP      2024.07.10.17.35.08    -2.61119246    -4.19698238    -3.82714868     0.00000000     0.00000000     0.00000000 0.00000000 VRAI 
CAM-EBC-USA-HO_EBC-USA-HO      2024.07.10.17.35.08    -2.61604238    -4.19702864    -5.89076948     0.00000000     0.00000000     0.00000000 0.00000000 VRAI 
CAM-JDA-US-IP_JDA-US-IP        2024.07.10.17.35.08     2.58950973    -4.19496918     6.54653168     0.00000000     0.00000000     0.00000000 0.00000000 VRAI 
CAM-JDA-US-HO_JDA-US-HO        2024.07.10.17.35.08     2.60382867    -4.13996506     6.94287205     0.00000000     0.00000000     0.00000000 0.00000000 VRAI 
CAM-JDA-USA-IP_JDA-USA-IP      2024.07.10.17.35.08    -2.59742999    -4.19499063     6.54803705     0.00000000     0.00000000     0.00000000 0.00000000 VRAI 
CAM-JDA-USA-HO_JDA-USA-HO      2024.07.10.17.35.08    -2.59896803    -4.13996601     6.94407606     0.00000000     0.00000000     0.00000000 0.00000000 VRAI 
CAM-JDC-US-IP_JDC-US-IP        2024.07.10.17.35.08     2.59827018    -4.19500589    -6.54709148     0.00000000     0.00000000     0.00000000 0.00000000 VRAI 
CAM-JDC-US-HO_JDC-US-HO        2024.07.10.17.35.08     2.58680058    -4.14004040    -6.94601059     0.00000000     0.00000000     0.00000000 0.00000000 VRAI 
CAM-JDC-USA-IP_JDC-USA-IP      2024.07.10.17.35.08    -2.59827232    -4.19500351    -6.54725075     0.00000000     0.00000000     0.00000000 0.00000000 VRAI 
CAM-JDC-USA-HO_JDC-USA-HO      2024.07.10.17.35.08    -2.58507514    -4.14004135    -6.94779825     0.00000000     0.00000000     0.00000000 0.00000000 VRAI 
CAM-ECTA-US-IP_ECTA-US-IP-T    2024.07.10.17.35.08     3.55893064     3.84859109     8.10764503     0.00000000     0.00000000     0.00000000 0.00000000 VRAI 
CAM-ECTA-US-IP_ECTA-US-IP      2024.07.10.17.35.08     3.52034831    -4.07060766     7.89785385     0.00000000     0.00000000     0.00000000 0.00000000 VRAI 
CAM-ECTA-US-HO_ECTA-US-HO-T    2024.07.10.17.35.08     3.87587285     3.64746737    12.93572140     0.00000000     0.00000000     0.00000000 0.00000000 VRAI 
CAM-ECTA-US-HO_ECTA-US-HO      2024.07.10.17.35.08     3.66462946    -3.92581058    12.88337898     0.00000000     0.00000000     0.00000000 0.00000000 VRAI 
CAM-ECTA-USA-IP_ECTA-USA-IP-T  2024.07.10.17.35.08    -3.68111706     3.84880972     7.89932489     0.00000000     0.00000000     0.00000000 0.00000000 VRAI 
CAM-ECTA-USA-IP_ECTA-USA-IP    2024.07.10.17.35.08    -3.53500438    -4.07042980     7.89119768     0.00000000     0.00000000     0.00000000 0.00000000 VRAI 
CAM-ECTA-USA-HO_ECTA-USA-HO-T  2024.07.10.17.35.08    -3.86161852     3.64768672    12.93756771     0.00000000     0.00000000     0.00000000 0.00000000 VRAI 
CAM-ECTA-USA-HO_ECTA-USA-HO    2024.07.10.17.35.08    -3.68502903    -3.92560148    12.88555241     0.00000000     0.00000000     0.00000000 0.00000000 VRAI 
CAM-ECTC-US-IP_ECTC-US-IP-T    2024.07.10.17.35.08     3.69177032     3.84800911    -7.77863359     0.00000000     0.00000000     0.00000000 0.00000000 VRAI 
CAM-ECTC-US-IP_ECTC-US-IP      2024.07.10.17.35.08     3.53294659    -4.07046413    -7.87919044     0.00000000     0.00000000     0.00000000 0.00000000 VRAI 
CAM-ECTC-US-HO_ECTC-US-HO-T    2024.07.10.17.35.08     3.86878061     3.64756894   -12.94130325     0.00000000     0.00000000     0.00000000 0.00000000 VRAI 
CAM-ECTC-US-HO_ECTC-US-HO      2024.07.10.17.35.08     3.67338896    -3.92563605   -12.89173794     0.00000000     0.00000000     0.00000000 0.00000000 VRAI 
CAM-ECTC-USA-IP_ECTC-USA-IP-T  2024.07.10.17.35.08    -3.67265010     3.84923434    -7.92174578     0.00000000     0.00000000     0.00000000 0.00000000 VRAI 
CAM-ECTC-USA-IP_ECTC-USA-IP    2024.07.10.17.35.08    -3.53273106    -4.07032490    -7.87458944     0.00000000     0.00000000     0.00000000 0.00000000 VRAI 
CAM-ECTC-USA-HO_ECTC-USA-HO-T  2024.07.10.17.35.08    -3.86793494     3.64759541   -12.93336773     0.00000000     0.00000000     0.00000000 0.00000000 VRAI 
CAM-ECTC-USA-HO_ECTC-USA-HO    2024.07.10.17.35.08    -3.67585659    -3.92564631   -12.88807392     0.00000000     0.00000000     0.00000000 0.00000000 VRAI 
