********** Fichier qui contient une sauvegarde des coordonnees images + coordonnees images transformees dans le repere BCAM (MOUNT) + coordonnees des prismes dans le repere MOUNT********** 
********************************************************************** Unite en metres (m)************************************************************************************************** 

*******************************************************************coordonnees images dans le repere CCD *********************************************************************************** 
20MABNDL000077_PR002
Spot 1     0.00086500     0.00006500
Spot 2     0.00086500     0.00006500
Spot 1     0.00119500     0.00004500
Spot 2     0.00119500     0.00004500
20MABNDL000077_PR003
Spot 1     0.00235500     0.00028500
Spot 2     0.00235500     0.00028500
Spot 1     0.00235500     0.00028500
Spot 2     0.00235500     0.00028500
20MABNDL000077_20MABNDM000168
Spot 1     0.00175654     0.00118234
Spot 2     0.00075500     0.00010500
Spot 1     0.00175649     0.00118265
Spot 2     0.00075500     0.00010500
20MABNDL000077_PR024
Spot 1     0.00254883     0.00147852
Spot 2     0.00265105     0.00147628
Spot 1     0.00254807     0.00147854
Spot 2     0.00265084     0.00147644
20MABNDM000020_PR013
Spot 1     0.00044500     0.00008500
Spot 2     0.00044500     0.00008500
Spot 1     0.00044500     0.00008500
Spot 2     0.00044500     0.00008500
20MABNDM000020_PR014
Spot 1     0.00265953     0.00168424
Spot 2     0.00249759     0.00168762
Spot 1     0.00265965     0.00168479
Spot 2     0.00249681     0.00168900
20MABNDM000020_20MABNDL000196
Spot 1     0.00197484     0.00117990
Spot 2     0.00190500     0.00009500
Spot 1     0.00197452     0.00117985
Spot 2     0.00082500     0.00014500
20MABNDM000020_PR035
Spot 1     0.00125783     0.00148589
Spot 2     0.00118315     0.00152500
20MABNDM000168_PR025
Spot 1     0.00075740     0.00147195
Spot 2     0.00059948     0.00147672
20MABNDM000168_PR026
Spot 1     0.00266615     0.00142878
Spot 2     0.00250494     0.00142463
20MABNDM000168_20MABNDL000077
Spot 1     0.00154193     0.00129774
Spot 2     0.00175820     0.00130253
20MABNDM000168_PR001
Spot 1     0.00080791     0.00161452
Spot 2     0.00070655     0.00161786
20MABNDL000196_PR036
Spot 1     0.00094644     0.00164730
Spot 2     0.00111136     0.00164603
20MABNDL000196_PR037
Spot 1     0.00283742     0.00146253
Spot 2     0.00299678     0.00146509
20MABNDL000196_20MABNDM000020
Spot 1     0.00192697     0.00103686
Spot 2     0.00170569     0.00104215
20MABNDL000196_PR012
Spot 1     0.00265160     0.00133755
Spot 2     0.00272469     0.00138515
20MABNDA000134_PR004
Spot 1     0.00168373     0.00176504
Spot 2     0.00190219     0.00177286
20MABNDA000334_PR005
Spot 1     0.00248049     0.00159074
Spot 2     0.00220020     0.00159126
20MABNDB000317_PR015
Spot 1     0.00168438     0.00167461
Spot 2     0.00146445     0.00168027
20MABNDB000146_PR016
Spot 1     0.00144649     0.00131267
Spot 2     0.00172229     0.00131458
20MABNDB000135_PR027
Spot 1     0.00188384     0.00091028
Spot 2     0.00210267     0.00091229
20MABNDB000126_PR028
Spot 1     0.00192735     0.00200520
Spot 2     0.00164400     0.00200365
20MABNDA000272_PR038
Spot 1     0.00191998     0.00096702
Spot 2     0.00169745     0.00096489
20MABNDA000003_PR039
Spot 1     0.00200833     0.00195257
Spot 2     0.00228729     0.00195365
20MABNDA000196_PR006
Spot 1     0.00140857     0.00066312
Spot 2     0.00177486     0.00066550
20MABNDA000324_PR007
Spot 1     0.00199103     0.00134792
Spot 2     0.00219687     0.00134247
20MABNDB000001_PR017
Spot 1     0.00186131     0.00089299
Spot 2     0.00223242     0.00089672
20MABNDB000260_PR019
Spot 1     0.00205850     0.00145407
Spot 2     0.00226214     0.00145214
20MABNDB000212_PR029
Spot 1     0.00219700     0.00068567
Spot 2     0.00183419     0.00068371
20MABNDB000128_PR030
Spot 1     0.00267998     0.00162122
Spot 2     0.00248181     0.00162451
20MABNDA000444_PR040
Spot 1     0.00107559     0.00067773
Spot 2     0.00144392     0.00067422
20MABNDA000053_PR041
Spot 1     0.00123175     0.00145080
Spot 2     0.00143705     0.00145147
20MABNDA000188_PR008
Spot 1     0.00297500     0.00011500
Spot 2     0.00297500     0.00011500
20MABNDA000188_PR018
Spot 1     0.00166209     0.00172654
Spot 2     0.00119650     0.00172228
20MABNDA000039_PR009
Spot 1     0.00066210     0.00117161
Spot 2     0.00061178     0.00117508
20MABNDA000039_PR011
Spot 1     0.00276038     0.00026093
Spot 2     0.00258374     0.00025529
20MABNDB000155_PR020
Spot 1     0.00061390     0.00111888
Spot 2     0.00068454     0.00111481
20MABNDB000155_PR022
Spot 1     0.00207610     0.00136440
Spot 2     0.00254941     0.00135964
20MABNDB000010_PR021
Spot 1     0.00286406     0.00116767
Spot 2     0.00292277     0.00116728
20MABNDB000010_PR023
Spot 1     0.00130469     0.00032421
Spot 2     0.00148193     0.00032316
20MABNDB000069_PR031
Spot 1     0.00052870     0.00169217
Spot 2     0.00021500     0.00240500
20MABNDB000069_PR033
Spot 1     0.00185630     0.00204632
Spot 2     0.00232701     0.00206613
20MABNDB000131_PR032
Spot 1     0.00277714     0.00108335
Spot 2     0.00283854     0.00108600
20MABNDB000131_PR034
Spot 1     0.00092218     0.00032859
Spot 2     0.00109866     0.00032951
20MABNDA000208_PR042
Spot 1     0.00284500     0.00011500
Spot 2     0.00284500     0.00011500
20MABNDA000208_PR046
Spot 1     0.00147394     0.00216434
Spot 2     0.00100216     0.00216565
20MABNDA000035_PR044
Spot 1     0.00074875     0.00126325
Spot 2     0.00068939     0.00125715
20MABNDA000035_PR045
Spot 1     0.00255202     0.00048366
Spot 2     0.00237352     0.00048449


****************************************************************coordonnees images transformees dans le repere MOUNT************************************************************************* 
20MABNDL000077_PR002
Spot 1     0.01192151     0.03413986    -0.07463200
Spot 2     0.01192151     0.03413986    -0.07463200
Spot 1     0.01225130     0.03411669    -0.07463200
Spot 2     0.01225130     0.03411669    -0.07463200
20MABNDL000077_PR003
Spot 1     0.01341356     0.03434551    -0.07463200
Spot 2     0.01341356     0.03434551    -0.07463200
Spot 1     0.01341356     0.03434551    -0.07463200
Spot 2     0.01341356     0.03434551    -0.07463200
20MABNDL000077_20MABNDM000168
Spot 1    -0.01259166     0.03524533    -0.00695400
Spot 2    -0.01157915     0.03417830    -0.00695400
Spot 1    -0.01259162     0.03524564    -0.00695400
Spot 2    -0.01157915     0.03417830    -0.00695400
20MABNDL000077_PR024
Spot 1    -0.01338694     0.03553339    -0.00695400
Spot 2    -0.01348914     0.03553010    -0.00695400
Spot 1    -0.01338618     0.03553341    -0.00695400
Spot 2    -0.01348893     0.03553026    -0.00695400
20MABNDM000020_PR013
Spot 1    -0.01394554    -0.03407018    -0.00523500
Spot 2    -0.01394554    -0.03407018    -0.00523500
Spot 1    -0.01394554    -0.03407018    -0.00523500
Spot 2    -0.01394554    -0.03407018    -0.00523500
20MABNDM000020_PR014
Spot 1    -0.01169619    -0.03562005    -0.00523500
Spot 2    -0.01185801    -0.03562701    -0.00523500
Spot 1    -0.01169605    -0.03562060    -0.00523500
Spot 2    -0.01185876    -0.03562841    -0.00523500
20MABNDM000020_20MABNDL000196
Spot 1     0.01271144    -0.03514846    -0.07583800
Spot 2     0.01278113    -0.03406355    -0.07583800
Spot 1     0.01271176    -0.03514841    -0.07583800
Spot 2     0.01386114    -0.03411340    -0.07583800
20MABNDM000020_PR035
Spot 1     0.01342849    -0.03545435    -0.07583800
Spot 2     0.01350317    -0.03549345    -0.07583800
20MABNDM000168_PR025
Spot 1    -0.01364473    -0.03581093    -0.00532900
Spot 2    -0.01380263    -0.03581638    -0.00532900
20MABNDM000168_PR026
Spot 1    -0.01173619    -0.03575957    -0.00532900
Spot 2    -0.01189741    -0.03575611    -0.00532900
20MABNDM000168_20MABNDL000077
Spot 1     0.01288357    -0.03529837    -0.07445100
Spot 2     0.01266725    -0.03529999    -0.07445100
20MABNDM000168_PR001
Spot 1     0.01361287    -0.03562585    -0.07445100
Spot 2     0.01371417    -0.03563067    -0.07445100
20MABNDL000196_PR036
Spot 1     0.01192635     0.03583600    -0.07483600
Spot 2     0.01209127     0.03583507    -0.07483600
20MABNDL000196_PR037
Spot 1     0.01381771     0.03565517    -0.07483600
Spot 2     0.01397706     0.03565807    -0.07483600
20MABNDL000196_20MABNDM000020
Spot 1    -0.01275093     0.03530804    -0.00611000
Spot 2    -0.01252980     0.03531778    -0.00611000
20MABNDL000196_PR012
Spot 1    -0.01348146     0.03559409    -0.00611000
Spot 2    -0.01355549     0.03564021    -0.00611000
20MABNDA000134_PR004
Spot 1    -0.01265466     0.01240159    -0.07608400
Spot 2    -0.01287326     0.01239983    -0.07608400
20MABNDA000334_PR005
Spot 1    -0.01312361     0.01253766    -0.07324100
Spot 2    -0.01284332     0.01253688    -0.07324100
20MABNDB000317_PR015
Spot 1    -0.01247079    -0.01242115    -0.07326100
Spot 2    -0.01269077    -0.01241805    -0.07326100
20MABNDB000146_PR016
Spot 1    -0.01276183    -0.01248094    -0.07450500
Spot 2    -0.01248603    -0.01247842    -0.07450500
20MABNDB000135_PR027
Spot 1    -0.01252089    -0.01320266    -0.07464700
Spot 2    -0.01230206    -0.01320309    -0.07464700
20MABNDB000126_PR028
Spot 1    -0.01225217    -0.01217546    -0.07500400
Spot 2    -0.01253551    -0.01217852    -0.07500400
20MABNDA000272_PR038
Spot 1    -0.01275566     0.01314444    -0.07417900
Spot 2    -0.01253313     0.01314618    -0.07417900
20MABNDA000003_PR039
Spot 1    -0.01280948     0.01209972    -0.07373400
Spot 2    -0.01308844     0.01209934    -0.07373400
20MABNDA000196_PR006
Spot 1    -0.01236247     0.01330768    -0.07967100
Spot 2    -0.01272876     0.01331000    -0.07967100
20MABNDA000324_PR007
Spot 1    -0.01259568     0.01267332    -0.07446800
Spot 2    -0.01280156     0.01267716    -0.07446800
20MABNDB000001_PR017
Spot 1    -0.01232224    -0.01309629    -0.07418400
Spot 2    -0.01195111    -0.01309649    -0.07418400
20MABNDB000260_PR019
Spot 1    -0.01227187    -0.01244568    -0.07492700
Spot 2    -0.01206823    -0.01244343    -0.07492700
20MABNDB000212_PR029
Spot 1    -0.01189101    -0.01329521    -0.07390500
Spot 2    -0.01225382    -0.01329329    -0.07390500
20MABNDB000128_PR030
Spot 1    -0.01167383    -0.01259340    -0.07353400
Spot 2    -0.01187201    -0.01259079    -0.07353400
20MABNDA000444_PR040
Spot 1    -0.01201128     0.01334792    -0.07412000
Spot 2    -0.01237963     0.01334675    -0.07412000
20MABNDA000053_PR041
Spot 1    -0.01197795     0.01265133    -0.07430100
Spot 2    -0.01218323     0.01265467    -0.07430100
20MABNDA000188_PR008
Spot 1    -0.01399107     0.01394961    -0.07502000
Spot 2    -0.01399107     0.01394961    -0.07502000
20MABNDA000188_PR018
Spot 1    -0.01269201     0.01232689    -0.07502000
Spot 2    -0.01222640     0.01232716    -0.07502000
20MABNDA000039_PR009
Spot 1    -0.01162421     0.01307252    -0.07444800
Spot 2    -0.01157391     0.01306883    -0.07444800
20MABNDA000039_PR011
Spot 1    -0.01371853     0.01399227    -0.07444800
Spot 2    -0.01354187     0.01399714    -0.07444800
20MABNDB000155_PR020
Spot 1    -0.01365211    -0.01313857    -0.07501700
Spot 2    -0.01358142    -0.01314167    -0.07501700
20MABNDB000155_PR022
Spot 1    -0.01219341    -0.01287306    -0.07501700
Spot 2    -0.01172008    -0.01287134    -0.07501700
20MABNDB000010_PR021
Spot 1    -0.01158719    -0.01291092    -0.07358200
Spot 2    -0.01152849    -0.01291032    -0.07358200
20MABNDB000010_PR023
Spot 1    -0.01313205    -0.01378068    -0.07358200
Spot 2    -0.01295482    -0.01377872    -0.07358200
20MABNDB000069_PR031
Spot 1    -0.01333591    -0.01258583    -0.07388500
Spot 2    -0.01361993    -0.01186066    -0.07388500
20MABNDB000069_PR033
Spot 1    -0.01199483    -0.01228677    -0.07388500
Spot 2    -0.01152370    -0.01228640    -0.07388500
20MABNDB000131_PR032
Spot 1    -0.01144304    -0.01303140    -0.07533000
Spot 2    -0.01138165    -0.01302844    -0.07533000
20MABNDB000131_PR034
Spot 1    -0.01329417    -0.01379549    -0.07533000
Spot 2    -0.01311770    -0.01379368    -0.07533000
20MABNDA000208_PR042
Spot 1    -0.01371645     0.01388121    -0.07273700
Spot 2    -0.01371645     0.01388121    -0.07273700
20MABNDA000208_PR046
Spot 1    -0.01234360     0.01183307    -0.07273700
Spot 2    -0.01187182     0.01183217    -0.07273700
20MABNDA000035_PR044
Spot 1    -0.01158344     0.01299407    -0.07483200
Spot 2    -0.01152404     0.01299975    -0.07483200
20MABNDA000035_PR045
Spot 1    -0.01338112     0.01378647    -0.07483200
Spot 2    -0.01320263     0.01378437    -0.07483200


*****************************************************************coordonnees du prisme dans le repere MOUNT********************************************************************************** 
20MABNDL000077_PR002
    0.05075517     0.09215411     3.70650077
    0.03446545     0.09330060     3.70661497
20MABNDL000077_PR003
   -0.02476418     0.08434060     3.89557457
   -0.02476418     0.08434060     3.89557457
20MABNDL000077_20MABNDM000168
   -0.05599976     0.07586031    -5.46843529
   -0.05600145     0.07584910    -5.46843529
20MABNDL000077_PR024
    0.04601955     0.01509622    -5.89638805
    0.04598182     0.01508881    -5.89638853
20MABNDM000020_PR013
    0.05274186    -0.08860095    -3.80153990
    0.05274186    -0.08860095    -3.80153990
20MABNDM000020_PR014
   -0.06557339    -0.00532898    -4.74841213
   -0.06555421    -0.00526850    -4.74841213
20MABNDM000020_20MABNDL000196
    0.01244360    -0.07153931     5.39471340
   -0.02626120    -0.06975421     5.39458370
20MABNDM000020_PR035
   -0.04302181    -0.00734835     5.80095196
20MABNDM000168_PR025
    0.03876326    -0.01232949    -3.78836489
20MABNDM000168_PR026
   -0.05778779    -0.01398231    -3.98429108
20MABNDM000168_20MABNDL000077
    0.01158091    -0.03892604     5.38884640
20MABNDM000168_PR001
   -0.05736475    -0.01363946     5.81470633
20MABNDL000196_PR036
    0.05133760     0.00558136     3.68776894
20MABNDL000196_PR037
   -0.04426631     0.01322015     3.88351965
20MABNDL000196_20MABNDM000020
   -0.01562638     0.03822551    -5.47473860
20MABNDL000196_PR012
    0.05238819     0.01475452    -5.91537285
20MABNDA000134_PR004
   -0.00851013     0.03854762     2.74965811
20MABNDA000334_PR005
   -0.00406020     0.03182710     2.14976978
20MABNDB000317_PR015
   -0.01649568    -0.03692042     2.75126791
20MABNDB000146_PR016
   -0.01349571    -0.03121715     2.15201759
20MABNDB000135_PR027
   -0.02075009    -0.00965001     2.74937153
20MABNDB000126_PR028
   -0.02033364    -0.03880421     2.14679718
20MABNDA000272_PR038
   -0.01336153     0.01135698     2.74965906
20MABNDA000003_PR039
   -0.00570476     0.04199688     2.14890480
20MABNDA000196_PR006
   -0.01503699     0.00859859     1.64206028
20MABNDA000324_PR007
   -0.01549929     0.03305314     2.95548677
20MABNDB000001_PR017
   -0.02371349    -0.01271466     1.64039445
20MABNDB000260_PR019
   -0.02975969    -0.03651096     2.95626402
20MABNDB000212_PR029
   -0.02456876    -0.00811633     1.64224315
20MABNDB000128_PR030
   -0.04206922    -0.03211499     2.95495439
20MABNDA000444_PR040
   -0.02307968     0.00808249     1.64500713
20MABNDA000053_PR041
   -0.03548461     0.03010536     2.95464396
20MABNDA000188_PR008
    0.14616936    -0.09611703     9.20304298
20MABNDA000188_PR018
   -0.01676486     0.02564283     1.28358257
20MABNDA000039_PR009
   -0.17165151     0.02431498    11.00700951
20MABNDA000039_PR011
    0.03039837    -0.02551972     3.43346453
20MABNDB000155_PR020
    0.10249431    -0.00758456     9.20027733
20MABNDB000155_PR022
   -0.02499127    -0.01693254     1.28071618
20MABNDB000010_PR021
   -0.17572676    -0.03563553    11.00694847
20MABNDB000010_PR023
    0.00461518     0.01973794     3.43377495
20MABNDB000069_PR031
    0.09258679    -0.11730932     9.20312309
20MABNDB000069_PR033
   -0.02736182    -0.02653404     1.28393888
20MABNDB000131_PR032
   -0.18807316    -0.03056169    11.00641823
20MABNDB000131_PR034
    0.01440942     0.01626739     3.43338013
20MABNDA000208_PR042
    0.11037338    -0.08822197     9.20121384
20MABNDA000208_PR046
   -0.02303988     0.03397945     1.28209591
20MABNDA000035_PR044
   -0.17860886     0.02760035    11.00804138
20MABNDA000035_PR045
    0.01487824    -0.01836133     3.43484020


*****************************************************************coordonnees du prisme dans le repere ATLAS********************************************************************************** 
20MABNDL000077_PR002 0.00000000
    2.76488686    -3.69373894     6.48585176
    2.76373529    -3.71002841     6.48594713
20MABNDL000077_PR003 0.00000000
    2.77286172    -3.76949382     6.67482471
    2.77286172    -3.76949382     6.67482471
20MABNDL000077_20MABNDM000168 0.00000000
    2.77214718    -3.78917885    -2.68922043
    2.77215838    -3.78918052    -2.68922043
20MABNDL000077_PR024 0.00000000
    2.83252382    -3.68665099    -3.11710644
    2.83253121    -3.68668866    -3.11710691
20MABNDM000020_PR013 0.00000000
   -2.76372600    -3.79224682     6.48532534
   -2.76372600    -3.79224682     6.48532534
20MABNDM000020_PR014 0.00000000
   -2.84677219    -3.67462611     7.43230391
   -2.84683251    -3.67464542     7.43230391
20MABNDM000020_20MABNDL000196 0.00000000
   -2.78261566    -3.74494910    -2.71089101
   -2.78438878    -3.70624399    -2.71073151
20MABNDM000020_PR035 0.00000000
   -2.84687090    -3.68915510    -3.11707449
20MABNDM000168_PR025 0.00000000
    2.84090185    -3.78409457    -6.47897673
20MABNDM000168_PR026 0.00000000
    2.83926272    -3.68761611    -6.67493868
20MABNDM000168_20MABNDL000077 0.00000000
    2.81486940    -3.75349307     2.69822574
20MABNDM000168_PR001 0.00000000
    2.84020019    -3.68439555     3.12405849
20MABNDL000196_PR036 0.00000000
   -2.84802604    -3.69293714    -6.47909260
20MABNDL000196_PR037 0.00000000
   -2.84034705    -3.78871942    -6.67475414
20MABNDL000196_20MABNDM000020 0.00000000
   -2.81515288    -3.75136280     2.68347287
20MABNDL000196_PR012 0.00000000
   -2.83864594    -3.68294930     3.12404418
20MABNDA000134_PR004 0.00000000
    2.61449313    -4.19698763     3.83345103
20MABNDA000334_PR005 0.00000000
    2.61693835    -4.19703293     5.89743376
20MABNDB000317_PR015 0.00000000
   -2.61211157    -4.19699240     3.83309507
20MABNDB000146_PR016 0.00000000
   -2.61279964    -4.19702005     5.89913321
20MABNDB000135_PR027 0.00000000
    2.60411334    -4.19700384    -3.82571077
20MABNDB000126_PR028 0.00000000
    2.60558343    -4.19702005    -5.89341545
20MABNDA000272_PR038 0.00000000
   -2.61117530    -4.19698238    -3.82712746
20MABNDA000003_PR039 0.00000000
   -2.61602640    -4.19702864    -5.89076996
20MABNDA000196_PR006 0.00000000
    2.58949757    -4.19496918     6.54655552
20MABNDA000324_PR007 0.00000000
    2.60381603    -4.13996506     6.94286299
20MABNDB000001_PR017 0.00000000
   -2.59741831    -4.19499016     6.54804277
20MABNDB000260_PR019 0.00000000
   -2.59900284    -4.13996553     6.94413471
20MABNDB000212_PR029 0.00000000
    2.59824657    -4.19500589    -6.54710436
20MABNDB000128_PR030 0.00000000
    2.58679247    -4.14004087    -6.94601059
20MABNDA000444_PR040 0.00000000
   -2.59825301    -4.19500303    -6.54726362
20MABNDA000053_PR041 0.00000000
   -2.58505511    -4.14004135    -6.94780731
20MABNDA000188_PR008 0.00000000
    3.55893064     3.84859109     8.10764503
20MABNDA000188_PR018 0.00000000
    3.52036953    -4.07060719     7.89779711
20MABNDA000039_PR009 0.00000000
    3.87582350     3.64746737    12.93560886
20MABNDA000039_PR011 0.00000000
    3.66462588    -3.92581153    12.88331699
20MABNDB000155_PR020 0.00000000
   -3.68114710     3.84880972     7.89928246
20MABNDB000155_PR022 0.00000000
   -3.53498960    -4.07043028     7.89112663
20MABNDB000010_PR021 0.00000000
   -3.86156225     3.64768648    12.93746471
20MABNDB000010_PR023 0.00000000
   -3.68505073    -3.92560148    12.88553715
20MABNDB000069_PR031 0.00000000
    3.67434287     3.84868765    -7.82308722
20MABNDB000069_PR033 0.00000000
    3.53293753    -4.07046461    -7.87913704
20MABNDB000131_PR032 0.00000000
    3.86887527     3.64756823   -12.94120407
20MABNDB000131_PR034 0.00000000
    3.67337990    -3.92563653   -12.89167976
20MABNDA000208_PR042 0.00000000
   -3.66039658     3.84884048    -7.99969625
20MABNDA000208_PR046 0.00000000
   -3.53272533    -4.07032585    -7.87453890
20MABNDA000035_PR044 0.00000000
   -3.86785007     3.64759636   -12.93327999
20MABNDA000035_PR045 0.00000000
   -3.67585015    -3.92564702   -12.88802338


*****************************************************************Rapport********************************************************************************** 
CAM-LBA-US_EBA-US-HO-H         2024.10.07.15.06.01     2.76431108    -3.70188367     6.48589945     0.00057578     0.00814474     0.00004768 0.00000000 VRAI 
CAM-LBA-US_JDA-US-H            2024.10.07.15.06.01     2.77286172    -3.76949382     6.67482471     0.00000000     0.00000000     0.00000000 0.00000000 VRAI 
CAM-LBA-US_CAM-LBC-US          2024.10.07.15.06.01     2.77215278    -3.78917968    -2.68922043     0.00000560     0.00000083     0.00000000 0.00000000 VRAI 
CAM-LBA-US_EBC-US-IP-H         2024.10.07.15.06.01     2.83252752    -3.68666983    -3.11710668     0.00000370     0.00001884     0.00000024 0.00000000 VRAI 
CAM-LBA-USA_EBA-USA-HO-H       2024.10.07.15.06.01    -2.76372600    -3.79224682     6.48532534     0.00000000     0.00000000     0.00000000 0.00000000 VRAI 
CAM-LBA-USA_JDA-USA-H          2024.10.07.15.06.01    -2.84680235    -3.67463577     7.43230391     0.00003016     0.00000966     0.00000000 0.00000000 VRAI 
CAM-LBA-USA_CAM-LBC-USA        2024.10.07.15.06.01    -2.78350222    -3.72559655    -2.71081126     0.00088656     0.01935256     0.00007975 0.00000000 VRAI 
CAM-LBA-USA_EBC-USA-IP-H       2024.10.07.15.06.01    -2.84687090    -3.68915510    -3.11707449     0.00000000     0.00000000     0.00000000 0.00000000 VRAI 
CAM-LBC-US_EBC-US-HO-H         2024.10.07.15.06.01     2.84090185    -3.78409457    -6.47897673     0.00000000     0.00000000     0.00000000 0.00000000 VRAI 
CAM-LBC-US_JDC-US-H            2024.10.07.15.06.01     2.83926272    -3.68761611    -6.67493868     0.00000000     0.00000000     0.00000000 0.00000000 VRAI 
CAM-LBC-US_CAM-LBA-US          2024.10.07.15.06.01     2.81486940    -3.75349307     2.69822574     0.00000000     0.00000000     0.00000000 0.00000000 VRAI 
CAM-LBC-US_EBA-US-IP-H         2024.10.07.15.06.01     2.84020019    -3.68439555     3.12405849     0.00000000     0.00000000     0.00000000 0.00000000 VRAI 
CAM-LBC-USA_EBC-USA-HO-H       2024.10.07.15.06.01    -2.84802604    -3.69293714    -6.47909260     0.00000000     0.00000000     0.00000000 0.00000000 VRAI 
CAM-LBC-USA_JDC-USA-H          2024.10.07.15.06.01    -2.84034705    -3.78871942    -6.67475414     0.00000000     0.00000000     0.00000000 0.00000000 VRAI 
CAM-LBC-USA_CAM-LBA-USA        2024.10.07.15.06.01    -2.81515288    -3.75136280     2.68347287     0.00000000     0.00000000     0.00000000 0.00000000 VRAI 
CAM-LBC-USA_EBA-USA-IP-H       2024.10.07.15.06.01    -2.83864594    -3.68294930     3.12404418     0.00000000     0.00000000     0.00000000 0.00000000 VRAI 
CAM-EBA-US-IP_EBA-US-IP        2024.10.07.15.06.01     2.61449313    -4.19698763     3.83345103     0.00000000     0.00000000     0.00000000 0.00000000 VRAI 
CAM-EBA-US-HO_EBA-US-HO        2024.10.07.15.06.01     2.61693835    -4.19703293     5.89743376     0.00000000     0.00000000     0.00000000 0.00000000 VRAI 
CAM-EBA-USA-IP_EBA-USA-IP      2024.10.07.15.06.01    -2.61211157    -4.19699240     3.83309507     0.00000000     0.00000000     0.00000000 0.00000000 VRAI 
CAM-EBA-USA-HO_EBA-USA-HO      2024.10.07.15.06.01    -2.61279964    -4.19702005     5.89913321     0.00000000     0.00000000     0.00000000 0.00000000 VRAI 
CAM-EBC-US-IP_EBC-US-IP        2024.10.07.15.06.01     2.60411334    -4.19700384    -3.82571077     0.00000000     0.00000000     0.00000000 0.00000000 VRAI 
CAM-EBC-US-HO_EBC-US-HO        2024.10.07.15.06.01     2.60558343    -4.19702005    -5.89341545     0.00000000     0.00000000     0.00000000 0.00000000 VRAI 
CAM-EBC-USA-IP_EBC-USA-IP      2024.10.07.15.06.01    -2.61117530    -4.19698238    -3.82712746     0.00000000     0.00000000     0.00000000 0.00000000 VRAI 
CAM-EBC-USA-HO_EBC-USA-HO      2024.10.07.15.06.01    -2.61602640    -4.19702864    -5.89076996     0.00000000     0.00000000     0.00000000 0.00000000 VRAI 
CAM-JDA-US-IP_JDA-US-IP        2024.10.07.15.06.01     2.58949757    -4.19496918     6.54655552     0.00000000     0.00000000     0.00000000 0.00000000 VRAI 
CAM-JDA-US-HO_JDA-US-HO        2024.10.07.15.06.01     2.60381603    -4.13996506     6.94286299     0.00000000     0.00000000     0.00000000 0.00000000 VRAI 
CAM-JDA-USA-IP_JDA-USA-IP      2024.10.07.15.06.01    -2.59741831    -4.19499016     6.54804277     0.00000000     0.00000000     0.00000000 0.00000000 VRAI 
CAM-JDA-USA-HO_JDA-USA-HO      2024.10.07.15.06.01    -2.59900284    -4.13996553     6.94413471     0.00000000     0.00000000     0.00000000 0.00000000 VRAI 
CAM-JDC-US-IP_JDC-US-IP        2024.10.07.15.06.01     2.59824657    -4.19500589    -6.54710436     0.00000000     0.00000000     0.00000000 0.00000000 VRAI 
CAM-JDC-US-HO_JDC-US-HO        2024.10.07.15.06.01     2.58679247    -4.14004087    -6.94601059     0.00000000     0.00000000     0.00000000 0.00000000 VRAI 
CAM-JDC-USA-IP_JDC-USA-IP      2024.10.07.15.06.01    -2.59825301    -4.19500303    -6.54726362     0.00000000     0.00000000     0.00000000 0.00000000 VRAI 
CAM-JDC-USA-HO_JDC-USA-HO      2024.10.07.15.06.01    -2.58505511    -4.14004135    -6.94780731     0.00000000     0.00000000     0.00000000 0.00000000 VRAI 
CAM-ECTA-US-IP_ECTA-US-IP-T    2024.10.07.15.06.01     3.55893064     3.84859109     8.10764503     0.00000000     0.00000000     0.00000000 0.00000000 VRAI 
CAM-ECTA-US-IP_ECTA-US-IP      2024.10.07.15.06.01     3.52036953    -4.07060719     7.89779711     0.00000000     0.00000000     0.00000000 0.00000000 VRAI 
CAM-ECTA-US-HO_ECTA-US-HO-T    2024.10.07.15.06.01     3.87582350     3.64746737    12.93560886     0.00000000     0.00000000     0.00000000 0.00000000 VRAI 
CAM-ECTA-US-HO_ECTA-US-HO      2024.10.07.15.06.01     3.66462588    -3.92581153    12.88331699     0.00000000     0.00000000     0.00000000 0.00000000 VRAI 
CAM-ECTA-USA-IP_ECTA-USA-IP-T  2024.10.07.15.06.01    -3.68114710     3.84880972     7.89928246     0.00000000     0.00000000     0.00000000 0.00000000 VRAI 
CAM-ECTA-USA-IP_ECTA-USA-IP    2024.10.07.15.06.01    -3.53498960    -4.07043028     7.89112663     0.00000000     0.00000000     0.00000000 0.00000000 VRAI 
CAM-ECTA-USA-HO_ECTA-USA-HO-T  2024.10.07.15.06.01    -3.86156225     3.64768648    12.93746471     0.00000000     0.00000000     0.00000000 0.00000000 VRAI 
CAM-ECTA-USA-HO_ECTA-USA-HO    2024.10.07.15.06.01    -3.68505073    -3.92560148    12.88553715     0.00000000     0.00000000     0.00000000 0.00000000 VRAI 
CAM-ECTC-US-IP_ECTC-US-IP-T    2024.10.07.15.06.01     3.67434287     3.84868765    -7.82308722     0.00000000     0.00000000     0.00000000 0.00000000 VRAI 
CAM-ECTC-US-IP_ECTC-US-IP      2024.10.07.15.06.01     3.53293753    -4.07046461    -7.87913704     0.00000000     0.00000000     0.00000000 0.00000000 VRAI 
CAM-ECTC-US-HO_ECTC-US-HO-T    2024.10.07.15.06.01     3.86887527     3.64756823   -12.94120407     0.00000000     0.00000000     0.00000000 0.00000000 VRAI 
CAM-ECTC-US-HO_ECTC-US-HO      2024.10.07.15.06.01     3.67337990    -3.92563653   -12.89167976     0.00000000     0.00000000     0.00000000 0.00000000 VRAI 
CAM-ECTC-USA-IP_ECTC-USA-IP-T  2024.10.07.15.06.01    -3.66039658     3.84884048    -7.99969625     0.00000000     0.00000000     0.00000000 0.00000000 VRAI 
CAM-ECTC-USA-IP_ECTC-USA-IP    2024.10.07.15.06.01    -3.53272533    -4.07032585    -7.87453890     0.00000000     0.00000000     0.00000000 0.00000000 VRAI 
CAM-ECTC-USA-HO_ECTC-USA-HO-T  2024.10.07.15.06.01    -3.86785007     3.64759636   -12.93327999     0.00000000     0.00000000     0.00000000 0.00000000 VRAI 
CAM-ECTC-USA-HO_ECTC-USA-HO    2024.10.07.15.06.01    -3.67585015    -3.92564702   -12.88802338     0.00000000     0.00000000     0.00000000 0.00000000 VRAI 
