********** Fichier qui contient une sauvegarde des coordonnees images + coordonnees images transformees dans le repere BCAM (MOUNT) + coordonnees des prismes dans le repere MOUNT********** 
********************************************************************** Unite en metres (m)************************************************************************************************** 

*******************************************************************coordonnees images dans le repere CCD *********************************************************************************** 
20MABNDL000077_PR002
Spot 1     0.00032500     0.00012500
Spot 2     0.00024500     0.00002500
Spot 1     0.00036500     0.00140500
Spot 2     0.00032500     0.00012500
20MABNDL000077_PR003
Spot 1     0.00166500     0.00022500
Spot 2     0.00245500     0.00005500
Spot 1     0.00166500     0.00022500
Spot 2     0.00166500     0.00022500
20MABNDL000077_20MABNDM000168
Spot 1     0.00175616     0.00118202
Spot 2     0.00156711     0.00122465
Spot 1     0.00175589     0.00118257
Spot 2     0.00156705     0.00122477
20MABNDL000077_PR024
Spot 1     0.00254913     0.00147816
Spot 2     0.00265114     0.00147545
20MABNDM000020_PR013
Spot 1     0.00044500     0.00008500
Spot 2     0.00044500     0.00008500
20MABNDM000020_PR014
Spot 1     0.00265975     0.00168377
Spot 2     0.00249819     0.00168778
20MABNDM000020_20MABNDL000196
Spot 1     0.00197562     0.00118062
Spot 2     0.00112500     0.00001500
20MABNDM000020_PR035
Spot 1     0.00125803     0.00148616
Spot 2     0.00118351     0.00152580
20MABNDM000168_PR025
Spot 1     0.00075742     0.00147145
Spot 2     0.00059961     0.00147647
20MABNDM000168_PR026
Spot 1     0.00266604     0.00142816
Spot 2     0.00250506     0.00142405
20MABNDM000168_20MABNDL000077
Spot 1     0.00154176     0.00129813
Spot 2     0.00175901     0.00130285
20MABNDM000168_PR001
Spot 1     0.00080835     0.00161496
Spot 2     0.00070655     0.00161820
20MABNDL000196_PR036
Spot 1     0.00094679     0.00164685
Spot 2     0.00111115     0.00164577
20MABNDL000196_PR037
Spot 1     0.00283714     0.00146231
Spot 2     0.00299595     0.00146472
20MABNDL000196_20MABNDM000020
Spot 1     0.00192567     0.00103749
Spot 2     0.00170455     0.00104271
20MABNDL000196_PR012
Spot 1     0.00264967     0.00133774
Spot 2     0.00272245     0.00138515
20MABNDA000134_PR004
Spot 1     0.00190223     0.00177289
Spot 2     0.00168412     0.00176532
20MABNDA000334_PR005
Spot 1     0.00248061     0.00159080
Spot 2     0.00220055     0.00159107
20MABNDB000317_PR015
Spot 1     0.00168383     0.00167319
Spot 2     0.00146321     0.00168030
20MABNDB000146_PR016
Spot 1     0.00144599     0.00131257
Spot 2     0.00172167     0.00131518
20MABNDB000135_PR027
Spot 1     0.00188344     0.00091025
Spot 2     0.00210270     0.00091189
20MABNDB000126_PR028
Spot 1     0.00164384     0.00200384
Spot 2     0.00192667     0.00200565
20MABNDA000272_PR038
Spot 1     0.00191997     0.00096679
Spot 2     0.00169773     0.00096500
20MABNDA000003_PR039
Spot 1     0.00200871     0.00195263
Spot 2     0.00228742     0.00195351
20MABNDA000196_PR006
Spot 1     0.00140881     0.00066290
Spot 2     0.00177564     0.00066518
20MABNDA000324_PR007
Spot 1     0.00199111     0.00134606
Spot 2     0.00219714     0.00134071
20MABNDB000001_PR017
Spot 1     0.00186204     0.00089259
Spot 2     0.00223283     0.00089642
20MABNDB000260_PR019
Spot 1     0.00205810     0.00145379
Spot 2     0.00226286     0.00145393
20MABNDB000212_PR029
Spot 1     0.00219745     0.00068539
Spot 2     0.00183464     0.00068357
20MABNDB000128_PR030
Spot 1     0.00267954     0.00162153
Spot 2     0.00248157     0.00162431
20MABNDA000444_PR040
Spot 1     0.00107632     0.00067833
Spot 2     0.00144400     0.00067444
20MABNDA000053_PR041
Spot 1     0.00123249     0.00145080
Spot 2     0.00143717     0.00145116
20MABNDA000188_PR008
Spot 1     0.00297500     0.00011500
Spot 2     0.00297500     0.00011500
20MABNDA000188_PR018
Spot 1     0.00165600     0.00172305
Spot 2     0.00118944     0.00171810
20MABNDA000039_PR009
Spot 1     0.00066216     0.00117260
Spot 2     0.00061365     0.00117643
20MABNDA000039_PR011
Spot 1     0.00276164     0.00026353
Spot 2     0.00258576     0.00025833
20MABNDB000155_PR020
Spot 1     0.00061443     0.00111832
Spot 2     0.00068222     0.00111335
20MABNDB000155_PR022
Spot 1     0.00207023     0.00135970
Spot 2     0.00254300     0.00135495
20MABNDB000010_PR021
Spot 1     0.00286532     0.00116753
Spot 2     0.00292412     0.00116801
20MABNDB000010_PR023
Spot 1     0.00127685     0.00033276
Spot 2     0.00061500     0.00005500
20MABNDB000069_PR031
Spot 1     0.00021500     0.00240500
Spot 2     0.00021500     0.00240500
20MABNDB000069_PR033
Spot 1     0.00185675     0.00204248
Spot 2     0.00232630     0.00206268
20MABNDB000131_PR032
Spot 1     0.00277775     0.00108330
Spot 2     0.00283763     0.00108634
20MABNDB000131_PR034
Spot 1     0.00092266     0.00033059
Spot 2     0.00109902     0.00033094
20MABNDA000208_PR042
Spot 1     0.00284500     0.00011500
Spot 2     0.00284500     0.00011500
20MABNDA000208_PR046
Spot 1     0.00147341     0.00215956
Spot 2     0.00100265     0.00216099
20MABNDA000035_PR044
Spot 1     0.00074805     0.00126482
Spot 2     0.00069035     0.00125800
20MABNDA000035_PR045
Spot 1     0.00255273     0.00048554
Spot 2     0.00237401     0.00048671


****************************************************************coordonnees images transformees dans le repere MOUNT************************************************************************* 
20MABNDL000077_PR002
Spot 1     0.01138211     0.03420505    -0.07463200
Spot 2     0.01130116     0.03410583    -0.07463200
Spot 1     0.01143443     0.03548461    -0.07463200
Spot 2     0.01138211     0.03420505    -0.07463200
20MABNDL000077_PR003
Spot 1     0.01272301     0.03429215    -0.07463200
Spot 2     0.01351134     0.03411456    -0.07463200
Spot 1     0.01272301     0.03429215    -0.07463200
Spot 2     0.01272301     0.03429215    -0.07463200
20MABNDL000077_20MABNDM000168
Spot 1    -0.01259128     0.03524501    -0.00695400
Spot 2    -0.01240268     0.03528958    -0.00695400
Spot 1    -0.01259102     0.03524557    -0.00695400
Spot 2    -0.01240262     0.03528970    -0.00695400
20MABNDL000077_PR024
Spot 1    -0.01338724     0.03553302    -0.00695400
Spot 2    -0.01348922     0.03552927    -0.00695400
20MABNDM000020_PR013
Spot 1    -0.01394554    -0.03407018    -0.00523500
Spot 2    -0.01394554    -0.03407018    -0.00523500
20MABNDM000020_PR014
Spot 1    -0.01169598    -0.03561958    -0.00523500
Spot 2    -0.01185741    -0.03562716    -0.00523500
20MABNDM000020_20MABNDL000196
Spot 1     0.01271066    -0.03514918    -0.07583800
Spot 2     0.01356112    -0.03398345    -0.07583800
20MABNDM000020_PR035
Spot 1     0.01342829    -0.03545462    -0.07583800
Spot 2     0.01350281    -0.03549425    -0.07583800
20MABNDM000168_PR025
Spot 1    -0.01364472    -0.03581043    -0.00532900
Spot 2    -0.01380250    -0.03581613    -0.00532900
20MABNDM000168_PR026
Spot 1    -0.01173630    -0.03575895    -0.00532900
Spot 2    -0.01189730    -0.03575553    -0.00532900
20MABNDM000168_20MABNDL000077
Spot 1     0.01288373    -0.03529876    -0.07445100
Spot 2     0.01266643    -0.03530030    -0.07445100
20MABNDM000168_PR001
Spot 1     0.01361243    -0.03562629    -0.07445100
Spot 2     0.01371417    -0.03563101    -0.07445100
20MABNDL000196_PR036
Spot 1     0.01192670     0.03583555    -0.07483600
Spot 2     0.01209106     0.03583481    -0.07483600
20MABNDL000196_PR037
Spot 1     0.01381743     0.03565495    -0.07483600
Spot 2     0.01397624     0.03565769    -0.07483600
20MABNDL000196_20MABNDM000020
Spot 1    -0.01274964     0.03530870    -0.00611000
Spot 2    -0.01252867     0.03531837    -0.00611000
20MABNDL000196_PR012
Spot 1    -0.01347953     0.03559432    -0.00611000
Spot 2    -0.01355325     0.03564026    -0.00611000
20MABNDA000134_PR004
Spot 1    -0.01287330     0.01239980    -0.07608400
Spot 2    -0.01265506     0.01240132    -0.07608400
20MABNDA000334_PR005
Spot 1    -0.01312373     0.01253760    -0.07324100
Spot 2    -0.01284367     0.01253707    -0.07324100
20MABNDB000317_PR015
Spot 1    -0.01247133    -0.01242258    -0.07326100
Spot 2    -0.01269201    -0.01241804    -0.07326100
20MABNDB000146_PR016
Spot 1    -0.01276233    -0.01248104    -0.07450500
Spot 2    -0.01248665    -0.01247782    -0.07450500
20MABNDB000135_PR027
Spot 1    -0.01252129    -0.01320269    -0.07464700
Spot 2    -0.01230203    -0.01320349    -0.07464700
20MABNDB000126_PR028
Spot 1    -0.01253567    -0.01217834    -0.07500400
Spot 2    -0.01225285    -0.01217502    -0.07500400
20MABNDA000272_PR038
Spot 1    -0.01275565     0.01314467    -0.07417900
Spot 2    -0.01253341     0.01314607    -0.07417900
20MABNDA000003_PR039
Spot 1    -0.01280986     0.01209966    -0.07373400
Spot 2    -0.01308857     0.01209948    -0.07373400
20MABNDA000196_PR006
Spot 1    -0.01236271     0.01330790    -0.07967100
Spot 2    -0.01272954     0.01331033    -0.07967100
20MABNDA000324_PR007
Spot 1    -0.01259578     0.01267518    -0.07446800
Spot 2    -0.01280184     0.01267892    -0.07446800
20MABNDB000001_PR017
Spot 1    -0.01232152    -0.01309670    -0.07418400
Spot 2    -0.01195071    -0.01309679    -0.07418400
20MABNDB000260_PR019
Spot 1    -0.01227227    -0.01244596    -0.07492700
Spot 2    -0.01206755    -0.01244163    -0.07492700
20MABNDB000212_PR029
Spot 1    -0.01189056    -0.01329549    -0.07390500
Spot 2    -0.01225337    -0.01329344    -0.07390500
20MABNDB000128_PR030
Spot 1    -0.01167427    -0.01259309    -0.07353400
Spot 2    -0.01187225    -0.01259099    -0.07353400
20MABNDA000444_PR040
Spot 1    -0.01201200     0.01334731    -0.07412000
Spot 2    -0.01237970     0.01334653    -0.07412000
20MABNDA000053_PR041
Spot 1    -0.01197869     0.01265135    -0.07430100
Spot 2    -0.01218334     0.01265498    -0.07430100
20MABNDA000188_PR008
Spot 1    -0.01399107     0.01394961    -0.07502000
Spot 2    -0.01399107     0.01394961    -0.07502000
20MABNDA000188_PR018
Spot 1    -0.01268589     0.01233033    -0.07502000
Spot 2    -0.01221930     0.01233128    -0.07502000
20MABNDA000039_PR009
Spot 1    -0.01162428     0.01307153    -0.07444800
Spot 2    -0.01157578     0.01306749    -0.07444800
20MABNDA000039_PR011
Spot 1    -0.01371980     0.01398967    -0.07444800
Spot 2    -0.01354390     0.01399411    -0.07444800
20MABNDB000155_PR020
Spot 1    -0.01365157    -0.01313912    -0.07501700
Spot 2    -0.01358372    -0.01314316    -0.07501700
20MABNDB000155_PR022
Spot 1    -0.01219921    -0.01287784    -0.07501700
Spot 2    -0.01172642    -0.01287611    -0.07501700
20MABNDB000010_PR021
Spot 1    -0.01158593    -0.01291104    -0.07358200
Spot 2    -0.01152715    -0.01290956    -0.07358200
20MABNDB000010_PR023
Spot 1    -0.01316003    -0.01377260    -0.07358200
Spot 2    -0.01381708    -0.01406153    -0.07358200
20MABNDB000069_PR031
Spot 1    -0.01361993    -0.01186066    -0.07388500
Spot 2    -0.01361993    -0.01186066    -0.07388500
20MABNDB000069_PR033
Spot 1    -0.01199454    -0.01229063    -0.07388500
Spot 2    -0.01152455    -0.01228982    -0.07388500
20MABNDB000131_PR032
Spot 1    -0.01144243    -0.01303145    -0.07533000
Spot 2    -0.01138256    -0.01302811    -0.07533000
20MABNDB000131_PR034
Spot 1    -0.01329370    -0.01379349    -0.07533000
Spot 2    -0.01311735    -0.01379225    -0.07533000
20MABNDA000208_PR042
Spot 1    -0.01371645     0.01388121    -0.07273700
Spot 2    -0.01371645     0.01388121    -0.07273700
20MABNDA000208_PR046
Spot 1    -0.01234307     0.01183785    -0.07273700
Spot 2    -0.01187231     0.01183683    -0.07273700
20MABNDA000035_PR044
Spot 1    -0.01158275     0.01299250    -0.07483200
Spot 2    -0.01152501     0.01299891    -0.07483200
20MABNDA000035_PR045
Spot 1    -0.01338184     0.01378459    -0.07483200
Spot 2    -0.01320314     0.01378215    -0.07483200


*****************************************************************coordonnees du prisme dans le repere MOUNT********************************************************************************** 
20MABNDL000077_PR002
    0.07939158     0.09137858     3.70610785
    0.07610735     0.05733106     3.70651746
20MABNDL000077_PR003
   -0.00937768     0.09172102     3.89559364
    0.01108603     0.08711259     3.89571905
20MABNDL000077_20MABNDM000168
   -0.02627324     0.03573866    -5.46873856
   -0.02628491     0.03571434    -5.46873856
20MABNDL000077_PR024
    0.04603428     0.01514276    -5.89638805
20MABNDM000020_PR013
    0.05274186    -0.08860095    -3.80153990
20MABNDM000020_PR014
   -0.06559868    -0.00533920    -4.74841213
20MABNDM000020_20MABNDL000196
   -0.01547326    -0.07438290     5.39461994
20MABNDM000020_PR035
   -0.04300024    -0.00730712     5.80095196
20MABNDM000168_PR025
    0.03875963    -0.01234805    -3.78836489
20MABNDM000168_PR026
   -0.05778792    -0.01401354    -3.98429132
20MABNDM000168_20MABNDL000077
    0.01160427    -0.03890087     5.38884640
20MABNDM000168_PR001
   -0.05734725    -0.01360948     5.81470633
20MABNDL000196_PR036
    0.05133413     0.00559878     3.68776917
20MABNDL000196_PR037
   -0.04423764     0.01323546     3.88352013
20MABNDL000196_20MABNDM000020
   -0.01571317     0.03818100    -5.47473860
20MABNDL000196_PR012
    0.05222633     0.01474388    -5.91537428
20MABNDA000134_PR004
   -0.00850214     0.03855307     2.74965763
20MABNDA000334_PR005
   -0.00405349     0.03182524     2.14976978
20MABNDB000317_PR015
   -0.01646339    -0.03689473     2.75126815
20MABNDB000146_PR016
   -0.01347959    -0.03122430     2.15201759
20MABNDB000135_PR027
   -0.02074322    -0.00964220     2.74937153
20MABNDB000126_PR028
   -0.02032165    -0.03881326     2.14679718
20MABNDA000272_PR038
   -0.01335659     0.01135477     2.74965906
20MABNDA000003_PR039
   -0.00569747     0.04199572     2.14890480
20MABNDA000196_PR006
   -0.01502593     0.00859255     1.64206028
20MABNDA000324_PR007
   -0.01549185     0.03298196     2.95548725
20MABNDB000001_PR017
   -0.02372587    -0.01270688     1.64039421
20MABNDB000260_PR019
   -0.02976538    -0.03654081     2.95626378
20MABNDB000212_PR029
   -0.02457858    -0.00811162     1.64224315
20MABNDB000128_PR030
   -0.04205585    -0.03211711     2.95495462
20MABNDA000444_PR040
   -0.02307093     0.00809158     1.64500713
20MABNDA000053_PR041
   -0.03546785     0.03009894     2.95464420
20MABNDA000188_PR008
    0.14616936    -0.09611703     9.20304298
20MABNDA000188_PR018
   -0.01687798     0.02557814     1.28358293
20MABNDA000039_PR009
   -0.17150965     0.02448549    11.00701141
20MABNDA000039_PR011
    0.03047375    -0.02539141     3.43346548
20MABNDB000155_PR020
    0.10260248    -0.00745906     9.20027542
20MABNDB000155_PR022
   -0.02488746    -0.01685087     1.28071749
20MABNDB000010_PR021
   -0.17591783    -0.03568214    11.00694656
20MABNDB000010_PR023
    0.02502588     0.02603486     3.43354559
20MABNDB000069_PR031
    0.10999375    -0.16176865     9.20229721
20MABNDB000069_PR033
   -0.02735703    -0.02647185     1.28393948
20MABNDB000131_PR032
   -0.18805113    -0.03058277    11.00641823
20MABNDB000131_PR034
    0.01439068     0.01618913     3.43338108
20MABNDA000208_PR042
    0.11037338    -0.08822197     9.20121384
20MABNDA000208_PR046
   -0.02304016     0.03389882     1.28209734
20MABNDA000035_PR044
   -0.17858860     0.02777722    11.00804138
20MABNDA000035_PR045
    0.01490630    -0.01826797     3.43484092


*****************************************************************coordonnees du prisme dans le repere ATLAS********************************************************************************** 
20MABNDL000077_PR002 0.00000000
    2.76567101    -3.66510224     6.48549366
    2.79971790    -3.66839767     6.48586559
20MABNDL000077_PR003 0.00000000
    2.76548624    -3.75410509     6.67487001
    2.77010131    -3.73364305     6.67501593
20MABNDL000077_20MABNDM000168 0.00000000
    2.81227779    -3.75946474    -2.68952632
    2.81230211    -3.75947642    -2.68952632
20MABNDL000077_PR024 0.00000000
    2.83247733    -3.68663621    -3.11710644
20MABNDM000020_PR013 0.00000000
   -2.76372600    -3.79224682     6.48532534
20MABNDM000020_PR014 0.00000000
   -2.84676194    -3.67460084     7.43230391
20MABNDM000020_20MABNDL000196 0.00000000
   -2.77976346    -3.71703339    -2.71077681
20MABNDM000020_PR035 0.00000000
   -2.84691215    -3.68917680    -3.11707449
20MABNDM000168_PR025 0.00000000
    2.84088326    -3.78409100    -6.47897673
20MABNDM000168_PR026 0.00000000
    2.83923149    -3.68761587    -6.67493868
20MABNDM000168_20MABNDL000077 0.00000000
    2.81489468    -3.75351644     2.69822574
20MABNDM000168_PR001 0.00000000
    2.84022999    -3.68441319     3.12405849
20MABNDL000196_PR036 0.00000000
   -2.84800863    -3.69294047    -6.47909260
20MABNDL000196_PR037 0.00000000
   -2.84033179    -3.78869081    -6.67475462
20MABNDL000196_20MABNDM000020 0.00000000
   -2.81519723    -3.75144958     2.68347287
20MABNDL000196_PR012 0.00000000
   -2.83865643    -3.68311119     3.12404585
20MABNDA000134_PR004 0.00000000
    2.61450100    -4.19698811     3.83344555
20MABNDA000334_PR005 0.00000000
    2.61694503    -4.19703293     5.89743567
20MABNDB000317_PR015 0.00000000
   -2.61214399    -4.19699240     3.83312082
20MABNDB000146_PR016 0.00000000
   -2.61281562    -4.19702005     5.89912605
20MABNDB000135_PR027 0.00000000
    2.60412025    -4.19700384    -3.82571864
20MABNDB000126_PR028 0.00000000
    2.60559559    -4.19701958    -5.89340639
20MABNDA000272_PR038 0.00000000
   -2.61118031    -4.19698238    -3.82712960
20MABNDA000003_PR039 0.00000000
   -2.61603379    -4.19702864    -5.89077091
20MABNDA000196_PR006 0.00000000
    2.58948660    -4.19496918     6.54654980
20MABNDA000324_PR007 0.00000000
    2.60382342    -4.13996410     6.94293404
20MABNDB000001_PR017 0.00000000
   -2.59743047    -4.19499063     6.54803514
20MABNDB000260_PR019 0.00000000
   -2.59899712    -4.13996553     6.94410515
20MABNDB000212_PR029 0.00000000
    2.59825635    -4.19500589    -6.54709959
20MABNDB000128_PR030 0.00000000
    2.58680582    -4.14004040    -6.94600868
20MABNDA000444_PR040 0.00000000
   -2.59824419    -4.19500303    -6.54727268
20MABNDA000053_PR041 0.00000000
   -2.58507180    -4.14004135    -6.94781399
20MABNDA000188_PR008 0.00000000
    3.55893064     3.84859109     8.10764503
20MABNDA000188_PR018 0.00000000
    3.52025533    -4.07060909     7.89786005
20MABNDA000039_PR009 0.00000000
    3.87568164     3.64746952    12.93577957
20MABNDA000039_PR011 0.00000000
    3.66455054    -3.92581034    12.88344479
20MABNDB000155_PR020 0.00000000
   -3.68125534     3.84880757     7.89940786
20MABNDB000155_PR022 0.00000000
   -3.53509331    -4.07042885     7.89120817
20MABNDB000010_PR021 0.00000000
   -3.86175323     3.64768481    12.93751144
20MABNDB000010_PR023 0.00000000
   -3.66464567    -3.92584419    12.87922287
20MABNDB000069_PR031 0.00000000
    3.69177032     3.84800911    -7.77863359
20MABNDB000069_PR033 0.00000000
    3.53294230    -4.07046413    -7.87919903
20MABNDB000131_PR032 0.00000000
    3.86885333     3.64756799   -12.94122601
20MABNDB000131_PR034 0.00000000
    3.67339849    -3.92563558   -12.89175797
20MABNDA000208_PR042 0.00000000
   -3.66039658     3.84884048    -7.99969625
20MABNDA000208_PR046 0.00000000
   -3.53272486    -4.07032490    -7.87461948
20MABNDA000035_PR044 0.00000000
   -3.86782980     3.64759636   -12.93345642
20MABNDA000035_PR045 0.00000000
   -3.67582226    -3.92564631   -12.88811684


*****************************************************************Rapport********************************************************************************** 
CAM-LBA-US_EBA-US-HO-H         2024.05.11.17.32.23     2.78269446    -3.66674995     6.48567963     0.01702344     0.00164771     0.00018597 0.00000000 VRAI 
CAM-LBA-US_JDA-US-H            2024.05.11.17.32.23     2.76779377    -3.74387407     6.67494297     0.00230753     0.01023102     0.00007296 0.00000000 VRAI 
CAM-LBA-US_CAM-LBC-US          2024.05.11.17.32.23     2.81228995    -3.75947058    -2.68952632     0.00001216     0.00000584     0.00000000 0.00000000 VRAI 
CAM-LBA-US_EBC-US-IP-H         2024.05.11.17.32.23     2.83247733    -3.68663621    -3.11710644     0.00000000     0.00000000     0.00000000 0.00000000 VRAI 
CAM-LBA-USA_EBA-USA-HO-H       2024.05.11.17.32.23    -2.76372600    -3.79224682     6.48532534     0.00000000     0.00000000     0.00000000 0.00000000 VRAI 
CAM-LBA-USA_JDA-USA-H          2024.05.11.17.32.23    -2.84676194    -3.67460084     7.43230391     0.00000000     0.00000000     0.00000000 0.00000000 VRAI 
CAM-LBA-USA_CAM-LBC-USA        2024.05.11.17.32.23    -2.77976346    -3.71703339    -2.71077681     0.00000000     0.00000000     0.00000000 0.00000000 VRAI 
CAM-LBA-USA_EBC-USA-IP-H       2024.05.11.17.32.23    -2.84691215    -3.68917680    -3.11707449     0.00000000     0.00000000     0.00000000 0.00000000 VRAI 
CAM-LBC-US_EBC-US-HO-H         2024.05.11.17.32.23     2.84088326    -3.78409100    -6.47897673     0.00000000     0.00000000     0.00000000 0.00000000 VRAI 
CAM-LBC-US_JDC-US-H            2024.05.11.17.32.23     2.83923149    -3.68761587    -6.67493868     0.00000000     0.00000000     0.00000000 0.00000000 VRAI 
CAM-LBC-US_CAM-LBA-US          2024.05.11.17.32.23     2.81489468    -3.75351644     2.69822574     0.00000000     0.00000000     0.00000000 0.00000000 VRAI 
CAM-LBC-US_EBA-US-IP-H         2024.05.11.17.32.23     2.84022999    -3.68441319     3.12405849     0.00000000     0.00000000     0.00000000 0.00000000 VRAI 
CAM-LBC-USA_EBC-USA-HO-H       2024.05.11.17.32.23    -2.84800863    -3.69294047    -6.47909260     0.00000000     0.00000000     0.00000000 0.00000000 VRAI 
CAM-LBC-USA_JDC-USA-H          2024.05.11.17.32.23    -2.84033179    -3.78869081    -6.67475462     0.00000000     0.00000000     0.00000000 0.00000000 VRAI 
CAM-LBC-USA_CAM-LBA-USA        2024.05.11.17.32.23    -2.81519723    -3.75144958     2.68347287     0.00000000     0.00000000     0.00000000 0.00000000 VRAI 
CAM-LBC-USA_EBA-USA-IP-H       2024.05.11.17.32.23    -2.83865643    -3.68311119     3.12404585     0.00000000     0.00000000     0.00000000 0.00000000 VRAI 
CAM-EBA-US-IP_EBA-US-IP        2024.05.11.17.32.23     2.61450100    -4.19698811     3.83344555     0.00000000     0.00000000     0.00000000 0.00000000 VRAI 
CAM-EBA-US-HO_EBA-US-HO        2024.05.11.17.32.23     2.61694503    -4.19703293     5.89743567     0.00000000     0.00000000     0.00000000 0.00000000 VRAI 
CAM-EBA-USA-IP_EBA-USA-IP      2024.05.11.17.32.23    -2.61214399    -4.19699240     3.83312082     0.00000000     0.00000000     0.00000000 0.00000000 VRAI 
CAM-EBA-USA-HO_EBA-USA-HO      2024.05.11.17.32.23    -2.61281562    -4.19702005     5.89912605     0.00000000     0.00000000     0.00000000 0.00000000 VRAI 
CAM-EBC-US-IP_EBC-US-IP        2024.05.11.17.32.23     2.60412025    -4.19700384    -3.82571864     0.00000000     0.00000000     0.00000000 0.00000000 VRAI 
CAM-EBC-US-HO_EBC-US-HO        2024.05.11.17.32.23     2.60559559    -4.19701958    -5.89340639     0.00000000     0.00000000     0.00000000 0.00000000 VRAI 
CAM-EBC-USA-IP_EBC-USA-IP      2024.05.11.17.32.23    -2.61118031    -4.19698238    -3.82712960     0.00000000     0.00000000     0.00000000 0.00000000 VRAI 
CAM-EBC-USA-HO_EBC-USA-HO      2024.05.11.17.32.23    -2.61603379    -4.19702864    -5.89077091     0.00000000     0.00000000     0.00000000 0.00000000 VRAI 
CAM-JDA-US-IP_JDA-US-IP        2024.05.11.17.32.23     2.58948660    -4.19496918     6.54654980     0.00000000     0.00000000     0.00000000 0.00000000 VRAI 
CAM-JDA-US-HO_JDA-US-HO        2024.05.11.17.32.23     2.60382342    -4.13996410     6.94293404     0.00000000     0.00000000     0.00000000 0.00000000 VRAI 
CAM-JDA-USA-IP_JDA-USA-IP      2024.05.11.17.32.23    -2.59743047    -4.19499063     6.54803514     0.00000000     0.00000000     0.00000000 0.00000000 VRAI 
CAM-JDA-USA-HO_JDA-USA-HO      2024.05.11.17.32.23    -2.59899712    -4.13996553     6.94410515     0.00000000     0.00000000     0.00000000 0.00000000 VRAI 
CAM-JDC-US-IP_JDC-US-IP        2024.05.11.17.32.23     2.59825635    -4.19500589    -6.54709959     0.00000000     0.00000000     0.00000000 0.00000000 VRAI 
CAM-JDC-US-HO_JDC-US-HO        2024.05.11.17.32.23     2.58680582    -4.14004040    -6.94600868     0.00000000     0.00000000     0.00000000 0.00000000 VRAI 
CAM-JDC-USA-IP_JDC-USA-IP      2024.05.11.17.32.23    -2.59824419    -4.19500303    -6.54727268     0.00000000     0.00000000     0.00000000 0.00000000 VRAI 
CAM-JDC-USA-HO_JDC-USA-HO      2024.05.11.17.32.23    -2.58507180    -4.14004135    -6.94781399     0.00000000     0.00000000     0.00000000 0.00000000 VRAI 
CAM-ECTA-US-IP_ECTA-US-IP-T    2024.05.11.17.32.23     3.55893064     3.84859109     8.10764503     0.00000000     0.00000000     0.00000000 0.00000000 VRAI 
CAM-ECTA-US-IP_ECTA-US-IP      2024.05.11.17.32.23     3.52025533    -4.07060909     7.89786005     0.00000000     0.00000000     0.00000000 0.00000000 VRAI 
CAM-ECTA-US-HO_ECTA-US-HO-T    2024.05.11.17.32.23     3.87568164     3.64746952    12.93577957     0.00000000     0.00000000     0.00000000 0.00000000 VRAI 
CAM-ECTA-US-HO_ECTA-US-HO      2024.05.11.17.32.23     3.66455054    -3.92581034    12.88344479     0.00000000     0.00000000     0.00000000 0.00000000 VRAI 
CAM-ECTA-USA-IP_ECTA-USA-IP-T  2024.05.11.17.32.23    -3.68125534     3.84880757     7.89940786     0.00000000     0.00000000     0.00000000 0.00000000 VRAI 
CAM-ECTA-USA-IP_ECTA-USA-IP    2024.05.11.17.32.23    -3.53509331    -4.07042885     7.89120817     0.00000000     0.00000000     0.00000000 0.00000000 VRAI 
CAM-ECTA-USA-HO_ECTA-USA-HO-T  2024.05.11.17.32.23    -3.86175323     3.64768481    12.93751144     0.00000000     0.00000000     0.00000000 0.00000000 VRAI 
CAM-ECTA-USA-HO_ECTA-USA-HO    2024.05.11.17.32.23    -3.66464567    -3.92584419    12.87922287     0.00000000     0.00000000     0.00000000 0.00000000 VRAI 
CAM-ECTC-US-IP_ECTC-US-IP-T    2024.05.11.17.32.23     3.69177032     3.84800911    -7.77863359     0.00000000     0.00000000     0.00000000 0.00000000 VRAI 
CAM-ECTC-US-IP_ECTC-US-IP      2024.05.11.17.32.23     3.53294230    -4.07046413    -7.87919903     0.00000000     0.00000000     0.00000000 0.00000000 VRAI 
CAM-ECTC-US-HO_ECTC-US-HO-T    2024.05.11.17.32.23     3.86885333     3.64756799   -12.94122601     0.00000000     0.00000000     0.00000000 0.00000000 VRAI 
CAM-ECTC-US-HO_ECTC-US-HO      2024.05.11.17.32.23     3.67339849    -3.92563558   -12.89175797     0.00000000     0.00000000     0.00000000 0.00000000 VRAI 
CAM-ECTC-USA-IP_ECTC-USA-IP-T  2024.05.11.17.32.23    -3.66039658     3.84884048    -7.99969625     0.00000000     0.00000000     0.00000000 0.00000000 VRAI 
CAM-ECTC-USA-IP_ECTC-USA-IP    2024.05.11.17.32.23    -3.53272486    -4.07032490    -7.87461948     0.00000000     0.00000000     0.00000000 0.00000000 VRAI 
CAM-ECTC-USA-HO_ECTC-USA-HO-T  2024.05.11.17.32.23    -3.86782980     3.64759636   -12.93345642     0.00000000     0.00000000     0.00000000 0.00000000 VRAI 
CAM-ECTC-USA-HO_ECTC-USA-HO    2024.05.11.17.32.23    -3.67582226    -3.92564631   -12.88811684     0.00000000     0.00000000     0.00000000 0.00000000 VRAI 
