********** Fichier qui contient une sauvegarde des coordonnees images + coordonnees images transformees dans le repere BCAM (MOUNT) + coordonnees des prismes dans le repere MOUNT********** 
********************************************************************** Unite en metres (m)************************************************************************************************** 

*******************************************************************coordonnees images dans le repere CCD *********************************************************************************** 
20MABNDL000077_PR002
Spot 1     0.00066106     0.00181309
Spot 2     0.00082242     0.00181422
Spot 1     0.00066092     0.00181349
Spot 2     0.00082229     0.00181496
20MABNDL000077_PR003
Spot 1     0.00235500     0.00028500
Spot 2     0.00235500     0.00028500
Spot 1     0.00235367     0.00028500
Spot 2     0.00235500     0.00028500
20MABNDL000077_20MABNDM000168
Spot 1     0.00175656     0.00118177
Spot 2     0.00157406     0.00121144
Spot 1     0.00175598     0.00118216
Spot 2     0.00157442     0.00121184
20MABNDL000077_PR024
Spot 1     0.00255002     0.00147854
Spot 2     0.00265192     0.00147601
Spot 1     0.00254954     0.00147871
Spot 2     0.00265204     0.00147650
20MABNDM000020_PR013
Spot 1     0.00044500     0.00008500
Spot 2     0.00044500     0.00008500
20MABNDM000020_PR014
Spot 1     0.00265906     0.00168451
Spot 2     0.00249702     0.00168837
20MABNDM000020_20MABNDL000196
Spot 1     0.00197606     0.00117961
Spot 2     0.00245500     0.00029500
20MABNDM000020_PR035
Spot 1     0.00125941     0.00148513
Spot 2     0.00118149     0.00152374
20MABNDM000168_PR025
Spot 1     0.00075869     0.00147401
Spot 2     0.00060050     0.00147897
20MABNDM000168_PR026
Spot 1     0.00266487     0.00142916
Spot 2     0.00250424     0.00142586
20MABNDM000168_20MABNDL000077
Spot 1     0.00154146     0.00129764
Spot 2     0.00175927     0.00130429
20MABNDM000168_PR001
Spot 1     0.00080659     0.00161410
Spot 2     0.00070589     0.00161865
20MABNDL000196_PR036
Spot 1     0.00094887     0.00164567
Spot 2     0.00111303     0.00164529
20MABNDL000196_PR037
Spot 1     0.00283751     0.00146302
Spot 2     0.00299702     0.00146574
20MABNDL000196_20MABNDM000020
Spot 1     0.00192576     0.00103897
Spot 2     0.00170450     0.00104369
20MABNDL000196_PR012
Spot 1     0.00265088     0.00133894
Spot 2     0.00272505     0.00138682
20MABNDA000134_PR004
Spot 1     0.00189913     0.00177442
Spot 2     0.00168093     0.00176687
20MABNDA000334_PR005
Spot 1     0.00247949     0.00159297
Spot 2     0.00219942     0.00159356
20MABNDB000317_PR015
Spot 1     0.00168859     0.00167438
Spot 2     0.00146763     0.00168026
20MABNDB000146_PR016
Spot 1     0.00144942     0.00131405
Spot 2     0.00172500     0.00131529
20MABNDB000135_PR027
Spot 1     0.00188574     0.00091160
Spot 2     0.00210441     0.00091347
20MABNDB000126_PR028
Spot 1     0.00192798     0.00200292
Spot 2     0.00164548     0.00200166
20MABNDA000272_PR038
Spot 1     0.00191545     0.00096734
Spot 2     0.00169406     0.00096484
20MABNDA000003_PR039
Spot 1     0.00200546     0.00195088
Spot 2     0.00228484     0.00195192
20MABNDA000196_PR006
Spot 1     0.00177888     0.00065682
Spot 2     0.00141239     0.00065500
20MABNDA000324_PR007
Spot 1     0.00198778     0.00135556
Spot 2     0.00219373     0.00135024
20MABNDB000001_PR017
Spot 1     0.00186121     0.00088156
Spot 2     0.00223161     0.00088653
20MABNDB000260_PR019
Spot 1     0.00206173     0.00146372
Spot 2     0.00226631     0.00146418
20MABNDB000212_PR029
Spot 1     0.00219641     0.00068625
Spot 2     0.00183390     0.00068445
20MABNDB000128_PR030
Spot 1     0.00268229     0.00162737
Spot 2     0.00248338     0.00162974
20MABNDA000444_PR040
Spot 1     0.00107648     0.00067346
Spot 2     0.00144452     0.00067008
20MABNDA000053_PR041
Spot 1     0.00123025     0.00145621
Spot 2     0.00143553     0.00145756
20MABNDA000188_PR008
Spot 1     0.00297500     0.00011500
Spot 2     0.00297500     0.00011500
20MABNDA000188_PR018
Spot 1     0.00154440     0.00148711
Spot 2     0.00107694     0.00148134
20MABNDA000039_PR009
Spot 1     0.00065867     0.00120327
Spot 2     0.00061004     0.00120634
20MABNDA000039_PR011
Spot 1     0.00275868     0.00034812
Spot 2     0.00258164     0.00034342
20MABNDB000155_PR020
Spot 1     0.00066656     0.00108460
Spot 2     0.00073452     0.00108117
20MABNDB000155_PR022
Spot 1     0.00217904     0.00111969
Spot 2     0.00265257     0.00111433
20MABNDB000010_PR021
Spot 1     0.00286322     0.00119651
Spot 2     0.00292188     0.00119731
20MABNDB000010_PR023
Spot 1     0.00130583     0.00041387
Spot 2     0.00148124     0.00041167
20MABNDB000069_PR031
Spot 1     0.00021500     0.00240500
Spot 2     0.00021500     0.00240500
20MABNDB000069_PR033
Spot 1     0.00193089     0.00180462
Spot 2     0.00240107     0.00182528
20MABNDB000131_PR032
Spot 1     0.00277773     0.00111619
Spot 2     0.00283796     0.00112054
20MABNDB000131_PR034
Spot 1     0.00092509     0.00042862
Spot 2     0.00110109     0.00042750
20MABNDA000208_PR042
Spot 1     0.00284500     0.00011500
Spot 2     0.00313500     0.00120500
20MABNDA000208_PR046
Spot 1     0.00133041     0.00192539
Spot 2     0.00085910     0.00192850
20MABNDA000035_PR044
Spot 1     0.00074755     0.00129358
Spot 2     0.00068811     0.00128734
20MABNDA000035_PR045
Spot 1     0.00255040     0.00057143
Spot 2     0.00237280     0.00057287


****************************************************************coordonnees images transformees dans le repere MOUNT************************************************************************* 
20MABNDL000077_PR002
Spot 1     0.01173440     0.03588983    -0.07463200
Spot 2     0.01189577     0.03588941    -0.07463200
Spot 1     0.01173427     0.03589023    -0.07463200
Spot 2     0.01189564     0.03589015    -0.07463200
20MABNDL000077_PR003
Spot 1     0.01341356     0.03434551    -0.07463200
Spot 2     0.01341356     0.03434551    -0.07463200
Spot 1     0.01341223     0.03434552    -0.07463200
Spot 2     0.01341356     0.03434551    -0.07463200
20MABNDL000077_20MABNDM000168
Spot 1    -0.01259168     0.03524476    -0.00695400
Spot 2    -0.01240949     0.03527630    -0.00695400
Spot 1    -0.01259110     0.03524516    -0.00695400
Spot 2    -0.01240986     0.03527669    -0.00695400
20MABNDL000077_PR024
Spot 1    -0.01338813     0.03553339    -0.00695400
Spot 2    -0.01349000     0.03552982    -0.00695400
Spot 1    -0.01338766     0.03553357    -0.00695400
Spot 2    -0.01349013     0.03553031    -0.00695400
20MABNDM000020_PR013
Spot 1    -0.01394554    -0.03407018    -0.00523500
Spot 2    -0.01394554    -0.03407018    -0.00523500
20MABNDM000020_PR014
Spot 1    -0.01169665    -0.03562033    -0.00523500
Spot 2    -0.01185856    -0.03562778    -0.00523500
20MABNDM000020_20MABNDL000196
Spot 1     0.01271022    -0.03514817    -0.07583800
Spot 2     0.01223116    -0.03426363    -0.07583800
20MABNDM000020_PR035
Spot 1     0.01342691    -0.03545359    -0.07583800
Spot 2     0.01350483    -0.03549219    -0.07583800
20MABNDM000168_PR025
Spot 1    -0.01364344    -0.03581299    -0.00532900
Spot 2    -0.01380160    -0.03581863    -0.00532900
20MABNDM000168_PR026
Spot 1    -0.01173747    -0.03575995    -0.00532900
Spot 2    -0.01189811    -0.03575734    -0.00532900
20MABNDM000168_20MABNDL000077
Spot 1     0.01288404    -0.03529827    -0.07445100
Spot 2     0.01266615    -0.03530174    -0.07445100
20MABNDM000168_PR001
Spot 1     0.01361420    -0.03562545    -0.07445100
Spot 2     0.01371482    -0.03563147    -0.07445100
20MABNDL000196_PR036
Spot 1     0.01192878     0.03583437    -0.07483600
Spot 2     0.01209294     0.03583434    -0.07483600
20MABNDL000196_PR037
Spot 1     0.01381780     0.03565566    -0.07483600
Spot 2     0.01397730     0.03565872    -0.07483600
20MABNDL000196_20MABNDM000020
Spot 1    -0.01274976     0.03531018    -0.00611000
Spot 2    -0.01252864     0.03531935    -0.00611000
20MABNDL000196_PR012
Spot 1    -0.01348077     0.03559550    -0.00611000
Spot 2    -0.01355589     0.03564187    -0.00611000
20MABNDA000134_PR004
Spot 1    -0.01287024     0.01239819    -0.07608400
Spot 2    -0.01265192     0.01239968    -0.07608400
20MABNDA000334_PR005
Spot 1    -0.01312261     0.01253543    -0.07324100
Spot 2    -0.01284254     0.01253457    -0.07324100
20MABNDB000317_PR015
Spot 1    -0.01246658    -0.01242133    -0.07326100
Spot 2    -0.01268759    -0.01241803    -0.07326100
20MABNDB000146_PR016
Spot 1    -0.01275890    -0.01247955    -0.07450500
Spot 2    -0.01248332    -0.01247770    -0.07450500
20MABNDB000135_PR027
Spot 1    -0.01251898    -0.01320136    -0.07464700
Spot 2    -0.01230030    -0.01320193    -0.07464700
20MABNDB000126_PR028
Spot 1    -0.01225153    -0.01217774    -0.07500400
Spot 2    -0.01253401    -0.01218051    -0.07500400
20MABNDA000272_PR038
Spot 1    -0.01275113     0.01314411    -0.07417900
Spot 2    -0.01252974     0.01314622    -0.07417900
20MABNDA000003_PR039
Spot 1    -0.01280661     0.01210140    -0.07373400
Spot 2    -0.01308599     0.01210107    -0.07373400
20MABNDA000196_PR006
Spot 1    -0.01273267     0.01331874    -0.07967100
Spot 2    -0.01236619     0.01331584    -0.07967100
20MABNDA000324_PR007
Spot 1    -0.01259237     0.01266571    -0.07446800
Spot 2    -0.01279836     0.01266942    -0.07446800
20MABNDB000001_PR017
Spot 1    -0.01232246    -0.01310772    -0.07418400
Spot 2    -0.01195203    -0.01310667    -0.07418400
20MABNDB000260_PR019
Spot 1    -0.01226884    -0.01243596    -0.07492700
Spot 2    -0.01206431    -0.01243131    -0.07492700
20MABNDB000212_PR029
Spot 1    -0.01189159    -0.01329462    -0.07390500
Spot 2    -0.01225410    -0.01329255    -0.07390500
20MABNDB000128_PR030
Spot 1    -0.01167154    -0.01258724    -0.07353400
Spot 2    -0.01187046    -0.01258556    -0.07353400
20MABNDA000444_PR040
Spot 1    -0.01201223     0.01335218    -0.07412000
Spot 2    -0.01238028     0.01335088    -0.07412000
20MABNDA000053_PR041
Spot 1    -0.01197656     0.01264589    -0.07430100
Spot 2    -0.01218183     0.01264855    -0.07430100
20MABNDA000188_PR008
Spot 1    -0.01399107     0.01394961    -0.07502000
Spot 2    -0.01399107     0.01394961    -0.07502000
20MABNDA000188_PR018
Spot 1    -0.01257227     0.01256530    -0.07502000
Spot 2    -0.01210478     0.01256707    -0.07502000
20MABNDA000039_PR009
Spot 1    -0.01162092     0.01304084    -0.07444800
Spot 2    -0.01157230     0.01303756    -0.07444800
20MABNDA000039_PR011
Spot 1    -0.01371721     0.01390507    -0.07444800
Spot 2    -0.01354015     0.01390900    -0.07444800
20MABNDB000155_PR020
Spot 1    -0.01359899    -0.01317213    -0.07501700
Spot 2    -0.01353098    -0.01317463    -0.07501700
20MABNDB000155_PR022
Spot 1    -0.01208713    -0.01311633    -0.07501700
Spot 2    -0.01161357    -0.01311521    -0.07501700
20MABNDB000010_PR021
Spot 1    -0.01158852    -0.01288210    -0.07358200
Spot 2    -0.01152988    -0.01288031    -0.07358200
20MABNDB000010_PR023
Spot 1    -0.01313243    -0.01369101    -0.07358200
Spot 2    -0.01295701    -0.01369024    -0.07358200
20MABNDB000069_PR031
Spot 1    -0.01361993    -0.01186066    -0.07388500
Spot 2    -0.01361993    -0.01186066    -0.07388500
20MABNDB000069_PR033
Spot 1    -0.01193028    -0.01253134    -0.07388500
Spot 2    -0.01145964    -0.01253010    -0.07388500
20MABNDB000131_PR032
Spot 1    -0.01144261    -0.01299856    -0.07533000
Spot 2    -0.01138241    -0.01299391    -0.07533000
20MABNDB000131_PR034
Spot 1    -0.01329177    -0.01369545    -0.07533000
Spot 2    -0.01311576    -0.01369568    -0.07533000
20MABNDA000208_PR042
Spot 1    -0.01371645     0.01388121    -0.07273700
Spot 2    -0.01400550     0.01279095    -0.07273700
20MABNDA000208_PR046
Spot 1    -0.01220028     0.01207215    -0.07273700
Spot 2    -0.01172896     0.01206945    -0.07273700
20MABNDA000035_PR044
Spot 1    -0.01158246     0.01296373    -0.07483200
Spot 2    -0.01152297     0.01296955    -0.07483200
20MABNDA000035_PR045
Spot 1    -0.01338012     0.01369869    -0.07483200
Spot 2    -0.01320254     0.01369599    -0.07483200


*****************************************************************coordonnees du prisme dans le repere MOUNT********************************************************************************** 
20MABNDL000077_PR002
    0.05601513     0.00572121     3.70674419
    0.05602153     0.00569299     3.70674372
20MABNDL000077_PR003
   -0.02476418     0.08434060     3.89557457
   -0.02472966     0.08434027     3.89557457
20MABNDL000077_20MABNDM000168
   -0.02601277     0.03622748    -5.46874046
   -0.02602043     0.03619887    -5.46874046
20MABNDL000077_PR024
    0.04609974     0.01510679    -5.89638710
    0.04608598     0.01508092    -5.89638710
20MABNDM000020_PR013
    0.05274186    -0.08860095    -3.80153990
20MABNDM000020_PR014
   -0.06554174    -0.00529654    -4.74841213
20MABNDM000020_20MABNDL000196
    0.03219165    -0.06438147     5.39472103
20MABNDM000020_PR035
   -0.04302489    -0.00742617     5.80095243
20MABNDM000168_PR025
    0.03870569    -0.01222318    -3.78836489
20MABNDM000168_PR026
   -0.05773644    -0.01394018    -3.98429132
20MABNDM000168_20MABNDL000077
    0.01160333    -0.03886672     5.38884687
20MABNDM000168_PR001
   -0.05744126    -0.01362400     5.81470490
20MABNDL000196_PR036
    0.05123685     0.00563932     3.68777084
20MABNDL000196_PR037
   -0.04427477     0.01319066     3.88351917
20MABNDL000196_20MABNDM000020
   -0.01570995     0.03809266    -5.47473860
20MABNDL000196_PR012
    0.05237659     0.01463535    -5.91537189
20MABNDA000134_PR004
   -0.00861563     0.03861260     2.74965715
20MABNDA000334_PR005
   -0.00408557     0.03189185     2.14976931
20MABNDB000317_PR015
   -0.01663026    -0.03691761     2.75126743
20MABNDB000146_PR016
   -0.01357674    -0.03124738     2.15201735
20MABNDB000135_PR027
   -0.02081734    -0.00969510     2.74937153
20MABNDB000126_PR028
   -0.02036404    -0.03874352     2.14679766
20MABNDA000272_PR038
   -0.01350664     0.01136218     2.74965882
20MABNDA000003_PR039
   -0.00578090     0.04194821     2.14890575
20MABNDA000196_PR006
   -0.01495376     0.00841398     1.64206004
20MABNDA000324_PR007
   -0.01562740     0.03335539     2.95548439
20MABNDB000001_PR017
   -0.02370105    -0.01247848     1.64039445
20MABNDB000260_PR019
   -0.02989660    -0.03694094     2.95625949
20MABNDB000212_PR029
   -0.02455927    -0.00813091     1.64224315
20MABNDB000128_PR030
   -0.04214469    -0.03233894     2.95495224
20MABNDA000444_PR040
   -0.02306220     0.00799059     1.64500690
20MABNDA000053_PR041
   -0.03553948     0.03033226     2.95464230
20MABNDA000188_PR008
    0.14616936    -0.09611703     9.20304298
20MABNDA000188_PR018
   -0.01883102     0.02154848     1.28360796
20MABNDA000039_PR009
   -0.17200953     0.02891793    11.00699902
20MABNDA000039_PR011
    0.03032954    -0.02152091     3.43350792
20MABNDB000155_PR020
    0.09613746    -0.00350142     9.20035172
20MABNDB000155_PR022
   -0.02680944    -0.01276974     1.28070307
20MABNDB000010_PR021
   -0.17552617    -0.03996053    11.00694180
20MABNDB000010_PR023
    0.00467425     0.01565320     3.43381119
20MABNDB000069_PR031
    0.10999375    -0.16176865     9.20229721
20MABNDB000069_PR033
   -0.02846192    -0.02235874     1.28396273
20MABNDB000131_PR032
   -0.18804896    -0.03548482    11.00640965
20MABNDB000131_PR034
    0.01431073     0.01175389     3.43341660
20MABNDA000208_PR042
    0.12811702    -0.02130871     9.20145226
20MABNDA000208_PR046
   -0.02548550     0.02990970     1.28213382
20MABNDA000035_PR044
   -0.17875862     0.03202809    11.00803185
20MABNDA000035_PR045
    0.01485372    -0.01434143     3.43487501


*****************************************************************coordonnees du prisme dans le repere ATLAS********************************************************************************** 
20MABNDL000077_PR002 0.00000000
    2.85132146    -3.68850660     6.48601675
    2.85134983    -3.68850017     6.48601627
20MABNDL000077_PR003 0.00000000
    2.77286172    -3.76949382     6.67482471
    2.77286196    -3.76945925     6.67482471
20MABNDL000077_20MABNDM000168 0.00000000
    2.81178904    -3.75920415    -2.68952751
    2.81181765    -3.75921178    -2.68952751
20MABNDL000077_PR024 0.00000000
    2.83251333    -3.68657088    -3.11710525
    2.83253932    -3.68658447    -3.11710548
20MABNDM000020_PR013 0.00000000
   -2.76372600    -3.79224682     6.48532534
20MABNDM000020_PR014 0.00000000
   -2.84680462    -3.67465782     7.43230391
20MABNDM000020_20MABNDL000196 0.00000000
   -2.78977942    -3.76469493    -2.71091223
20MABNDM000020_PR035 0.00000000
   -2.84679294    -3.68915224    -3.11707497
20MABNDM000168_PR025 0.00000000
    2.84100819    -3.78403711    -6.47897673
20MABNDM000168_PR026 0.00000000
    2.83930492    -3.68766737    -6.67493868
20MABNDM000168_20MABNDL000077 0.00000000
    2.81492877    -3.75351548     2.69822621
20MABNDM000168_PR001 0.00000000
    2.84021568    -3.68431902     3.12405682
20MABNDL000196_PR036 0.00000000
   -2.84796810    -3.69303775    -6.47909403
20MABNDL000196_PR037 0.00000000
   -2.84037662    -3.78872800    -6.67475367
20MABNDL000196_20MABNDM000020 0.00000000
   -2.81528568    -3.75144649     2.68347287
20MABNDL000196_PR012 0.00000000
   -2.83876514    -3.68296099     3.12404323
20MABNDA000134_PR004 0.00000000
    2.61438751    -4.19698763     3.83338618
20MABNDA000334_PR005 0.00000000
    2.61691308    -4.19703341     5.89736891
20MABNDB000317_PR015 0.00000000
   -2.61197710    -4.19699287     3.83309793
20MABNDB000146_PR016 0.00000000
   -2.61271858    -4.19702053     5.89910269
20MABNDB000135_PR027 0.00000000
    2.60404611    -4.19700384    -3.82566571
20MABNDB000126_PR028 0.00000000
    2.60555315    -4.19701958    -5.89347649
20MABNDA000272_PR038 0.00000000
   -2.61103010    -4.19698238    -3.82712221
20MABNDA000003_PR039 0.00000000
   -2.61595035    -4.19702768    -5.89081860
20MABNDA000196_PR006 0.00000000
    2.58941436    -4.19496965     6.54637098
20MABNDA000324_PR007 0.00000000
    2.60368800    -4.13996744     6.94256067
20MABNDB000001_PR017 0.00000000
   -2.59740567    -4.19499111     6.54780674
20MABNDB000260_PR019 0.00000000
   -2.59886575    -4.13996935     6.94370508
20MABNDB000212_PR029 0.00000000
    2.59823704    -4.19500589    -6.54711866
20MABNDB000128_PR030 0.00000000
    2.58671689    -4.14004230    -6.94578648
20MABNDA000444_PR040 0.00000000
   -2.59823561    -4.19500351    -6.54717159
20MABNDA000053_PR041 0.00000000
   -2.58500028    -4.14004278    -6.94758081
20MABNDA000188_PR008 0.00000000
    3.55893064     3.84859109     8.10764503
20MABNDA000188_PR018 0.00000000
    3.51824212    -4.07065868     7.90185976
20MABNDA000039_PR009 0.00000000
    3.87618113     3.64745498    12.94021225
20MABNDA000039_PR011 0.00000000
    3.66469431    -3.92576933    12.88731575
20MABNDB000155_PR020 0.00000000
   -3.67479181     3.84889960     7.90336752
20MABNDB000155_PR022 0.00000000
   -3.53317261    -4.07043839     7.89528990
20MABNDB000010_PR021 0.00000000
   -3.86135793     3.64768195    12.94178963
20MABNDB000010_PR023 0.00000000
   -3.68498802    -3.92556334    12.88962269
20MABNDB000069_PR031 0.00000000
    3.69177032     3.84800911    -7.77863359
20MABNDB000069_PR033 0.00000000
    3.53183532    -4.07045603    -7.88331175
20MABNDB000131_PR032 0.00000000
    3.86884975     3.64755774   -12.94612789
20MABNDB000131_PR034 0.00000000
    3.67347717    -3.92560148   -12.89619350
20MABNDA000208_PR042 0.00000000
   -3.67817593     3.84911609    -7.93279266
20MABNDA000208_PR046 0.00000000
   -3.53027749    -4.07029152    -7.87860775
20MABNDA000035_PR044 0.00000000
   -3.86800051     3.64758730   -12.93770695
20MABNDA000035_PR045 0.00000000
   -3.67587543    -3.92561197   -12.89204311


*****************************************************************Rapport********************************************************************************** 
CAM-LBA-US_EBA-US-HO-H         2024.03.24.06.39.39     2.85133564    -3.68850338     6.48601651     0.00001419     0.00000322     0.00000024 0.00000000 VRAI 
CAM-LBA-US_JDA-US-H            2024.03.24.06.39.39     2.77286184    -3.76947653     6.67482471     0.00000012     0.00001729     0.00000000 0.00000000 VRAI 
CAM-LBA-US_CAM-LBC-US          2024.03.24.06.39.39     2.81180334    -3.75920796    -2.68952751     0.00001431     0.00000381     0.00000000 0.00000000 VRAI 
CAM-LBA-US_EBC-US-IP-H         2024.03.24.06.39.39     2.83252633    -3.68657768    -3.11710536     0.00001299     0.00000679     0.00000012 0.00000000 VRAI 
CAM-LBA-USA_EBA-USA-HO-H       2024.03.24.06.39.39    -2.76372600    -3.79224682     6.48532534     0.00000000     0.00000000     0.00000000 0.00000000 VRAI 
CAM-LBA-USA_JDA-USA-H          2024.03.24.06.39.39    -2.84680462    -3.67465782     7.43230391     0.00000000     0.00000000     0.00000000 0.00000000 VRAI 
CAM-LBA-USA_CAM-LBC-USA        2024.03.24.06.39.39    -2.78977942    -3.76469493    -2.71091223     0.00000000     0.00000000     0.00000000 0.00000000 VRAI 
CAM-LBA-USA_EBC-USA-IP-H       2024.03.24.06.39.39    -2.84679294    -3.68915224    -3.11707497     0.00000000     0.00000000     0.00000000 0.00000000 VRAI 
CAM-LBC-US_EBC-US-HO-H         2024.03.24.06.39.39     2.84100819    -3.78403711    -6.47897673     0.00000000     0.00000000     0.00000000 0.00000000 VRAI 
CAM-LBC-US_JDC-US-H            2024.03.24.06.39.39     2.83930492    -3.68766737    -6.67493868     0.00000000     0.00000000     0.00000000 0.00000000 VRAI 
CAM-LBC-US_CAM-LBA-US          2024.03.24.06.39.39     2.81492877    -3.75351548     2.69822621     0.00000000     0.00000000     0.00000000 0.00000000 VRAI 
CAM-LBC-US_EBA-US-IP-H         2024.03.24.06.39.39     2.84021568    -3.68431902     3.12405682     0.00000000     0.00000000     0.00000000 0.00000000 VRAI 
CAM-LBC-USA_EBC-USA-HO-H       2024.03.24.06.39.39    -2.84796810    -3.69303775    -6.47909403     0.00000000     0.00000000     0.00000000 0.00000000 VRAI 
CAM-LBC-USA_JDC-USA-H          2024.03.24.06.39.39    -2.84037662    -3.78872800    -6.67475367     0.00000000     0.00000000     0.00000000 0.00000000 VRAI 
CAM-LBC-USA_CAM-LBA-USA        2024.03.24.06.39.39    -2.81528568    -3.75144649     2.68347287     0.00000000     0.00000000     0.00000000 0.00000000 VRAI 
CAM-LBC-USA_EBA-USA-IP-H       2024.03.24.06.39.39    -2.83876514    -3.68296099     3.12404323     0.00000000     0.00000000     0.00000000 0.00000000 VRAI 
CAM-EBA-US-IP_EBA-US-IP        2024.03.24.06.39.39     2.61438751    -4.19698763     3.83338618     0.00000000     0.00000000     0.00000000 0.00000000 VRAI 
CAM-EBA-US-HO_EBA-US-HO        2024.03.24.06.39.39     2.61691308    -4.19703341     5.89736891     0.00000000     0.00000000     0.00000000 0.00000000 VRAI 
CAM-EBA-USA-IP_EBA-USA-IP      2024.03.24.06.39.39    -2.61197710    -4.19699287     3.83309793     0.00000000     0.00000000     0.00000000 0.00000000 VRAI 
CAM-EBA-USA-HO_EBA-USA-HO      2024.03.24.06.39.39    -2.61271858    -4.19702053     5.89910269     0.00000000     0.00000000     0.00000000 0.00000000 VRAI 
CAM-EBC-US-IP_EBC-US-IP        2024.03.24.06.39.39     2.60404611    -4.19700384    -3.82566571     0.00000000     0.00000000     0.00000000 0.00000000 VRAI 
CAM-EBC-US-HO_EBC-US-HO        2024.03.24.06.39.39     2.60555315    -4.19701958    -5.89347649     0.00000000     0.00000000     0.00000000 0.00000000 VRAI 
CAM-EBC-USA-IP_EBC-USA-IP      2024.03.24.06.39.39    -2.61103010    -4.19698238    -3.82712221     0.00000000     0.00000000     0.00000000 0.00000000 VRAI 
CAM-EBC-USA-HO_EBC-USA-HO      2024.03.24.06.39.39    -2.61595035    -4.19702768    -5.89081860     0.00000000     0.00000000     0.00000000 0.00000000 VRAI 
CAM-JDA-US-IP_JDA-US-IP        2024.03.24.06.39.39     2.58941436    -4.19496965     6.54637098     0.00000000     0.00000000     0.00000000 0.00000000 VRAI 
CAM-JDA-US-HO_JDA-US-HO        2024.03.24.06.39.39     2.60368800    -4.13996744     6.94256067     0.00000000     0.00000000     0.00000000 0.00000000 VRAI 
CAM-JDA-USA-IP_JDA-USA-IP      2024.03.24.06.39.39    -2.59740567    -4.19499111     6.54780674     0.00000000     0.00000000     0.00000000 0.00000000 VRAI 
CAM-JDA-USA-HO_JDA-USA-HO      2024.03.24.06.39.39    -2.59886575    -4.13996935     6.94370508     0.00000000     0.00000000     0.00000000 0.00000000 VRAI 
CAM-JDC-US-IP_JDC-US-IP        2024.03.24.06.39.39     2.59823704    -4.19500589    -6.54711866     0.00000000     0.00000000     0.00000000 0.00000000 VRAI 
CAM-JDC-US-HO_JDC-US-HO        2024.03.24.06.39.39     2.58671689    -4.14004230    -6.94578648     0.00000000     0.00000000     0.00000000 0.00000000 VRAI 
CAM-JDC-USA-IP_JDC-USA-IP      2024.03.24.06.39.39    -2.59823561    -4.19500351    -6.54717159     0.00000000     0.00000000     0.00000000 0.00000000 VRAI 
CAM-JDC-USA-HO_JDC-USA-HO      2024.03.24.06.39.39    -2.58500028    -4.14004278    -6.94758081     0.00000000     0.00000000     0.00000000 0.00000000 VRAI 
CAM-ECTA-US-IP_ECTA-US-IP-T    2024.03.24.06.39.39     3.55893064     3.84859109     8.10764503     0.00000000     0.00000000     0.00000000 0.00000000 VRAI 
CAM-ECTA-US-IP_ECTA-US-IP      2024.03.24.06.39.39     3.51824212    -4.07065868     7.90185976     0.00000000     0.00000000     0.00000000 0.00000000 VRAI 
CAM-ECTA-US-HO_ECTA-US-HO-T    2024.03.24.06.39.39     3.87618113     3.64745498    12.94021225     0.00000000     0.00000000     0.00000000 0.00000000 VRAI 
CAM-ECTA-US-HO_ECTA-US-HO      2024.03.24.06.39.39     3.66469431    -3.92576933    12.88731575     0.00000000     0.00000000     0.00000000 0.00000000 VRAI 
CAM-ECTA-USA-IP_ECTA-USA-IP-T  2024.03.24.06.39.39    -3.67479181     3.84889960     7.90336752     0.00000000     0.00000000     0.00000000 0.00000000 VRAI 
CAM-ECTA-USA-IP_ECTA-USA-IP    2024.03.24.06.39.39    -3.53317261    -4.07043839     7.89528990     0.00000000     0.00000000     0.00000000 0.00000000 VRAI 
CAM-ECTA-USA-HO_ECTA-USA-HO-T  2024.03.24.06.39.39    -3.86135793     3.64768195    12.94178963     0.00000000     0.00000000     0.00000000 0.00000000 VRAI 
CAM-ECTA-USA-HO_ECTA-USA-HO    2024.03.24.06.39.39    -3.68498802    -3.92556334    12.88962269     0.00000000     0.00000000     0.00000000 0.00000000 VRAI 
CAM-ECTC-US-IP_ECTC-US-IP-T    2024.03.24.06.39.39     3.69177032     3.84800911    -7.77863359     0.00000000     0.00000000     0.00000000 0.00000000 VRAI 
CAM-ECTC-US-IP_ECTC-US-IP      2024.03.24.06.39.39     3.53183532    -4.07045603    -7.88331175     0.00000000     0.00000000     0.00000000 0.00000000 VRAI 
CAM-ECTC-US-HO_ECTC-US-HO-T    2024.03.24.06.39.39     3.86884975     3.64755774   -12.94612789     0.00000000     0.00000000     0.00000000 0.00000000 VRAI 
CAM-ECTC-US-HO_ECTC-US-HO      2024.03.24.06.39.39     3.67347717    -3.92560148   -12.89619350     0.00000000     0.00000000     0.00000000 0.00000000 VRAI 
CAM-ECTC-USA-IP_ECTC-USA-IP-T  2024.03.24.06.39.39    -3.67817593     3.84911609    -7.93279266     0.00000000     0.00000000     0.00000000 0.00000000 VRAI 
CAM-ECTC-USA-IP_ECTC-USA-IP    2024.03.24.06.39.39    -3.53027749    -4.07029152    -7.87860775     0.00000000     0.00000000     0.00000000 0.00000000 VRAI 
CAM-ECTC-USA-HO_ECTC-USA-HO-T  2024.03.24.06.39.39    -3.86800051     3.64758730   -12.93770695     0.00000000     0.00000000     0.00000000 0.00000000 VRAI 
CAM-ECTC-USA-HO_ECTC-USA-HO    2024.03.24.06.39.39    -3.67587543    -3.92561197   -12.89204311     0.00000000     0.00000000     0.00000000 0.00000000 VRAI 
