********** Fichier qui contient une sauvegarde des coordonnees images + coordonnees images transformees dans le repere BCAM (MOUNT) + coordonnees des prismes dans le repere MOUNT********** 
********************************************************************** Unite en metres (m)************************************************************************************************** 

*******************************************************************coordonnees images dans le repere CCD *********************************************************************************** 
20MABNDL000077_PR002
Spot 1     0.00031500     0.00109500
Spot 2     0.00031500     0.00109500
Spot 1     0.00031500     0.00087500
Spot 2     0.00024500     0.00002500
20MABNDL000077_PR003
Spot 1     0.00132500     0.00010500
Spot 2     0.00166500     0.00022500
Spot 1     0.00166500     0.00022500
Spot 2     0.00166500     0.00022500
20MABNDL000077_20MABNDM000168
Spot 1     0.00175586     0.00118201
Spot 2     0.00075500     0.00010500
Spot 1     0.00175584     0.00118229
Spot 2     0.00075500     0.00010500
20MABNDL000077_PR024
Spot 1     0.00254803     0.00147817
Spot 2     0.00265069     0.00147569
Spot 1     0.00254775     0.00147850
Spot 2     0.00265066     0.00147586
20MABNDM000020_PR013
Spot 1     0.00044500     0.00008500
Spot 2     0.00044500     0.00008500
Spot 1     0.00044500     0.00008500
Spot 2     0.00044500     0.00008500
20MABNDM000020_PR014
Spot 1     0.00265928     0.00168370
Spot 2     0.00249761     0.00168742
20MABNDM000020_20MABNDL000196
Spot 1     0.00197713     0.00118057
Spot 2     0.00230500     0.00010500
20MABNDM000020_PR035
Spot 1     0.00125890     0.00148649
Spot 2     0.00118516     0.00152574
20MABNDM000168_PR025
Spot 1     0.00075750     0.00147156
Spot 2     0.00059945     0.00147656
20MABNDM000168_PR026
Spot 1     0.00266628     0.00142830
Spot 2     0.00250483     0.00142423
20MABNDM000168_20MABNDL000077
Spot 1     0.00154170     0.00129792
Spot 2     0.00175955     0.00130418
20MABNDM000168_PR001
Spot 1     0.00080835     0.00161461
Spot 2     0.00070641     0.00161766
20MABNDL000196_PR036
Spot 1     0.00094711     0.00164675
Spot 2     0.00111188     0.00164549
20MABNDL000196_PR037
Spot 1     0.00283796     0.00146183
Spot 2     0.00299695     0.00146459
20MABNDL000196_20MABNDM000020
Spot 1     0.00192427     0.00103765
Spot 2     0.00170292     0.00104281
20MABNDL000196_PR012
Spot 1     0.00264903     0.00133767
Spot 2     0.00272182     0.00138510
20MABNDA000134_PR004
Spot 1     0.00190267     0.00177284
Spot 2     0.00168403     0.00176521
20MABNDA000334_PR005
Spot 1     0.00248092     0.00159089
Spot 2     0.00220058     0.00159132
20MABNDB000317_PR015
Spot 1     0.00168443     0.00167405
Spot 2     0.00146384     0.00168049
20MABNDB000146_PR016
Spot 1     0.00144575     0.00131287
Spot 2     0.00172160     0.00131462
20MABNDB000135_PR027
Spot 1     0.00188342     0.00090981
Spot 2     0.00210224     0.00091199
20MABNDB000126_PR028
Spot 1     0.00192680     0.00200576
Spot 2     0.00164384     0.00200433
20MABNDA000272_PR038
Spot 1     0.00191997     0.00096716
Spot 2     0.00169784     0.00096532
20MABNDA000003_PR039
Spot 1     0.00200868     0.00195282
Spot 2     0.00228798     0.00195356
20MABNDA000196_PR006
Spot 1     0.00140841     0.00066211
Spot 2     0.00177490     0.00066433
20MABNDA000324_PR007
Spot 1     0.00199118     0.00134736
Spot 2     0.00219686     0.00134186
20MABNDB000001_PR017
Spot 1     0.00186215     0.00089257
Spot 2     0.00223315     0.00089589
20MABNDB000260_PR019
Spot 1     0.00205800     0.00145428
Spot 2    -0.00000100    -0.00000100
20MABNDB000212_PR029
Spot 1     0.00219811     0.00068522
Spot 2     0.00183469     0.00068344
20MABNDB000128_PR030
Spot 1     0.00267966     0.00162156
Spot 2     0.00248118     0.00162425
20MABNDA000444_PR040
Spot 1     0.00107516     0.00067730
Spot 2     0.00144343     0.00067429
20MABNDA000053_PR041
Spot 1     0.00123262     0.00145102
Spot 2     0.00143743     0.00145145
20MABNDA000188_PR008
Spot 1     0.00297500     0.00011500
Spot 2     0.00297500     0.00011500
20MABNDA000188_PR018
Spot 1     0.00166011     0.00172416
Spot 2     0.00119371     0.00171888
20MABNDA000039_PR009
Spot 1     0.00066229     0.00117210
Spot 2     0.00061197     0.00117517
20MABNDA000039_PR011
Spot 1     0.00276060     0.00026248
Spot 2     0.00258433     0.00025708
20MABNDB000155_PR020
Spot 1     0.00061348     0.00111854
Spot 2     0.00068284     0.00111378
20MABNDB000155_PR022
Spot 1     0.00207338     0.00136064
Spot 2     0.00254696     0.00135560
20MABNDB000010_PR021
Spot 1     0.00286492     0.00116794
Spot 2     0.00292393     0.00116787
20MABNDB000010_PR023
Spot 1     0.00127865     0.00033412
Spot 2     0.00161500     0.00009500
20MABNDB000069_PR031
Spot 1     0.00021500     0.00240500
Spot 2     0.00021500     0.00240500
20MABNDB000069_PR033
Spot 1     0.00185613     0.00204254
Spot 2     0.00232614     0.00206296
20MABNDB000131_PR032
Spot 1     0.00277732     0.00108358
Spot 2     0.00283823     0.00108606
20MABNDB000131_PR034
Spot 1     0.00092216     0.00033026
Spot 2     0.00109882     0.00033114
20MABNDA000208_PR042
Spot 1     0.00284500     0.00011500
Spot 2     0.00284500     0.00011500
20MABNDA000208_PR046
Spot 1     0.00147381     0.00215997
Spot 2     0.00100257     0.00216156
20MABNDA000035_PR044
Spot 1     0.00074782     0.00126395
Spot 2     0.00068944     0.00125736
20MABNDA000035_PR045
Spot 1     0.00255235     0.00048553
Spot 2     0.00237377     0.00048616


****************************************************************coordonnees images transformees dans le repere MOUNT************************************************************************* 
20MABNDL000077_PR002
Spot 1     0.01138145     0.03517510    -0.07463200
Spot 2     0.01138145     0.03517510    -0.07463200
Spot 1     0.01137933     0.03495512    -0.07463200
Spot 2     0.01130116     0.03410583    -0.07463200
20MABNDL000077_PR003
Spot 1     0.01238188     0.03417543    -0.07463200
Spot 2     0.01272301     0.03429215    -0.07463200
Spot 1     0.01272301     0.03429215    -0.07463200
Spot 2     0.01272301     0.03429215    -0.07463200
20MABNDL000077_20MABNDM000168
Spot 1    -0.01259098     0.03524501    -0.00695400
Spot 2    -0.01157915     0.03417830    -0.00695400
Spot 1    -0.01259096     0.03524529    -0.00695400
Spot 2    -0.01157915     0.03417830    -0.00695400
20MABNDL000077_PR024
Spot 1    -0.01338614     0.03553304    -0.00695400
Spot 2    -0.01348877     0.03552951    -0.00695400
Spot 1    -0.01338586     0.03553338    -0.00695400
Spot 2    -0.01348874     0.03552968    -0.00695400
20MABNDM000020_PR013
Spot 1    -0.01394554    -0.03407018    -0.00523500
Spot 2    -0.01394554    -0.03407018    -0.00523500
Spot 1    -0.01394554    -0.03407018    -0.00523500
Spot 2    -0.01394554    -0.03407018    -0.00523500
20MABNDM000020_PR014
Spot 1    -0.01169645    -0.03561952    -0.00523500
Spot 2    -0.01185800    -0.03562681    -0.00523500
20MABNDM000020_20MABNDL000196
Spot 1     0.01270915    -0.03514913    -0.07583800
Spot 2     0.01238113    -0.03407361    -0.07583800
20MABNDM000020_PR035
Spot 1     0.01342742    -0.03545495    -0.07583800
Spot 2     0.01350116    -0.03549419    -0.07583800
20MABNDM000168_PR025
Spot 1    -0.01364464    -0.03581054    -0.00532900
Spot 2    -0.01380266    -0.03581622    -0.00532900
20MABNDM000168_PR026
Spot 1    -0.01173606    -0.03575908    -0.00532900
Spot 2    -0.01189752    -0.03575571    -0.00532900
20MABNDM000168_20MABNDL000077
Spot 1     0.01288379    -0.03529855    -0.07445100
Spot 2     0.01266587    -0.03530162    -0.07445100
20MABNDM000168_PR001
Spot 1     0.01361243    -0.03562594    -0.07445100
Spot 2     0.01371432    -0.03563048    -0.07445100
20MABNDL000196_PR036
Spot 1     0.01192702     0.03583545    -0.07483600
Spot 2     0.01209179     0.03583453    -0.07483600
20MABNDL000196_PR037
Spot 1     0.01381825     0.03565447    -0.07483600
Spot 2     0.01397724     0.03565757    -0.07483600
20MABNDL000196_20MABNDM000020
Spot 1    -0.01274824     0.03530889    -0.00611000
Spot 2    -0.01252704     0.03531850    -0.00611000
20MABNDL000196_PR012
Spot 1    -0.01347889     0.03559426    -0.00611000
Spot 2    -0.01355262     0.03564022    -0.00611000
20MABNDA000134_PR004
Spot 1    -0.01287374     0.01239987    -0.07608400
Spot 2    -0.01265497     0.01240143    -0.07608400
20MABNDA000334_PR005
Spot 1    -0.01312404     0.01253751    -0.07324100
Spot 2    -0.01284370     0.01253682    -0.07324100
20MABNDB000317_PR015
Spot 1    -0.01247074    -0.01242171    -0.07326100
Spot 2    -0.01269139    -0.01241784    -0.07326100
20MABNDB000146_PR016
Spot 1    -0.01276257    -0.01248074    -0.07450500
Spot 2    -0.01248672    -0.01247838    -0.07450500
20MABNDB000135_PR027
Spot 1    -0.01252132    -0.01320313    -0.07464700
Spot 2    -0.01230249    -0.01320338    -0.07464700
20MABNDB000126_PR028
Spot 1    -0.01225272    -0.01217490    -0.07500400
Spot 2    -0.01253567    -0.01217785    -0.07500400
20MABNDA000272_PR038
Spot 1    -0.01275565     0.01314430    -0.07417900
Spot 2    -0.01253352     0.01314575    -0.07417900
20MABNDA000003_PR039
Spot 1    -0.01280983     0.01209947    -0.07373400
Spot 2    -0.01308913     0.01209944    -0.07373400
20MABNDA000196_PR006
Spot 1    -0.01236230     0.01330868    -0.07967100
Spot 2    -0.01272879     0.01331118    -0.07967100
20MABNDA000324_PR007
Spot 1    -0.01259584     0.01267388    -0.07446800
Spot 2    -0.01280155     0.01267777    -0.07446800
20MABNDB000001_PR017
Spot 1    -0.01232141    -0.01309672    -0.07418400
Spot 2    -0.01195039    -0.01309732    -0.07418400
20MABNDB000260_PR019
Spot 1    -0.01227238    -0.01244548    -0.07492700
Spot 2    -0.01430111    -0.01394266    -0.07492700
20MABNDB000212_PR029
Spot 1    -0.01188990    -0.01329567    -0.07390500
Spot 2    -0.01225332    -0.01329357    -0.07390500
20MABNDB000128_PR030
Spot 1    -0.01167415    -0.01259306    -0.07353400
Spot 2    -0.01187264    -0.01259105    -0.07353400
20MABNDA000444_PR040
Spot 1    -0.01201086     0.01334835    -0.07412000
Spot 2    -0.01237914     0.01334669    -0.07412000
20MABNDA000053_PR041
Spot 1    -0.01197883     0.01265113    -0.07430100
Spot 2    -0.01218361     0.01265470    -0.07430100
20MABNDA000188_PR008
Spot 1    -0.01399107     0.01394961    -0.07502000
Spot 2    -0.01399107     0.01394961    -0.07502000
20MABNDA000188_PR018
Spot 1    -0.01269001     0.01232925    -0.07502000
Spot 2    -0.01222358     0.01233054    -0.07502000
20MABNDA000039_PR009
Spot 1    -0.01162441     0.01307203    -0.07444800
Spot 2    -0.01157410     0.01306874    -0.07444800
20MABNDA000039_PR011
Spot 1    -0.01371876     0.01399072    -0.07444800
Spot 2    -0.01354247     0.01399535    -0.07444800
20MABNDB000155_PR020
Spot 1    -0.01365253    -0.01313892    -0.07501700
Spot 2    -0.01358311    -0.01314273    -0.07501700
20MABNDB000155_PR022
Spot 1    -0.01219608    -0.01287685    -0.07501700
Spot 2    -0.01172247    -0.01287541    -0.07501700
20MABNDB000010_PR021
Spot 1    -0.01158634    -0.01291064    -0.07358200
Spot 2    -0.01152734    -0.01290971    -0.07358200
20MABNDB000010_PR023
Spot 1    -0.01315826    -0.01377121    -0.07358200
Spot 2    -0.01281790    -0.01400460    -0.07358200
20MABNDB000069_PR031
Spot 1    -0.01361993    -0.01186066    -0.07388500
Spot 2    -0.01361993    -0.01186066    -0.07388500
20MABNDB000069_PR033
Spot 1    -0.01199515    -0.01229054    -0.07388500
Spot 2    -0.01152470    -0.01228953    -0.07388500
20MABNDB000131_PR032
Spot 1    -0.01144286    -0.01303117    -0.07533000
Spot 2    -0.01138196    -0.01302839    -0.07533000
20MABNDB000131_PR034
Spot 1    -0.01329420    -0.01379382    -0.07533000
Spot 2    -0.01311755    -0.01379205    -0.07533000
20MABNDA000208_PR042
Spot 1    -0.01371645     0.01388121    -0.07273700
Spot 2    -0.01371645     0.01388121    -0.07273700
20MABNDA000208_PR046
Spot 1    -0.01234347     0.01183744    -0.07273700
Spot 2    -0.01187223     0.01183626    -0.07273700
20MABNDA000035_PR044
Spot 1    -0.01158252     0.01299336    -0.07483200
Spot 2    -0.01152409     0.01299954    -0.07483200
20MABNDA000035_PR045
Spot 1    -0.01338146     0.01378460    -0.07483200
Spot 2    -0.01320289     0.01378270    -0.07483200


*****************************************************************coordonnees du prisme dans le repere MOUNT********************************************************************************** 
20MABNDL000077_PR002
    0.07743293     0.04101737     3.70655227
    0.07946441     0.07285757     3.70633650
20MABNDL000077_PR003
    0.01994140     0.09014188     3.89567184
    0.01108603     0.08711259     3.89571905
20MABNDL000077_20MABNDM000168
   -0.05602444     0.07587197    -5.46843529
   -0.05602506     0.07586186    -5.46843529
20MABNDL000077_PR024
    0.04597396     0.01513240    -5.89638853
    0.04596208     0.01511278    -5.89638853
20MABNDM000020_PR013
    0.05274186    -0.08860095    -3.80153990
    0.05274186    -0.08860095    -3.80153990
20MABNDM000020_PR014
   -0.06556574    -0.00535185    -4.74841213
20MABNDM000020_20MABNDL000196
    0.02685667    -0.07115494     5.39469719
20MABNDM000020_PR035
   -0.04290317    -0.00729670     5.80095291
20MABNDM000168_PR025
    0.03876159    -0.01234310    -3.78836489
20MABNDM000168_PR026
   -0.05778822    -0.01400521    -3.98429132
20MABNDM000168_20MABNDL000077
    0.01162210    -0.03886089     5.38884687
20MABNDM000168_PR001
   -0.05735318    -0.01364389     5.81470633
20MABNDL000196_PR036
    0.05130834     0.00560805     3.68776965
20MABNDL000196_PR037
   -0.04428472     0.01325114     3.88351917
20MABNDL000196_20MABNDM000020
   -0.01582182     0.03816947    -5.47473860
20MABNDL000196_PR012
    0.05217690     0.01474754    -5.91537476
20MABNDA000134_PR004
   -0.00849582     0.03854997     2.74965763
20MABNDA000334_PR005
   -0.00404862     0.03183009     2.14976978
20MABNDB000317_PR015
   -0.01648556    -0.03691411     2.75126791
20MABNDB000146_PR016
   -0.01347514    -0.03122055     2.15201759
20MABNDB000135_PR027
   -0.02073435    -0.00963606     2.74937201
20MABNDB000126_PR028
   -0.02032343    -0.03882182     2.14679694
20MABNDA000272_PR038
   -0.01335455     0.01136741     2.74965906
20MABNDA000003_PR039
   -0.00568989     0.04199912     2.14890432
20MABNDA000196_PR006
   -0.01503861     0.00857479     1.64206028
20MABNDA000324_PR007
   -0.01549636     0.03303014     2.95548677
20MABNDB000001_PR017
   -0.02373051    -0.01270082     1.64039421
20MABNDB000260_PR019
    0.01422069    -0.00699151     2.95627785
20MABNDB000212_PR029
   -0.02458633    -0.00810825     1.64224291
20MABNDB000128_PR030
   -0.04205054    -0.03211650     2.95495462
20MABNDA000444_PR040
   -0.02308971     0.00807842     1.64500690
20MABNDA000053_PR041
   -0.03546000     0.03010881     2.95464420
20MABNDA000188_PR008
    0.14616936    -0.09611703     9.20304298
20MABNDA000188_PR018
   -0.01680611     0.02559371     1.28358293
20MABNDA000039_PR009
   -0.17162354     0.02435727    11.00701141
20MABNDA000039_PR011
    0.03041718    -0.02544363     3.43346548
20MABNDB000155_PR020
    0.10262328    -0.00749868     9.20027542
20MABNDB000155_PR022
   -0.02494802    -0.01686529     1.28071690
20MABNDB000010_PR021
   -0.17587413    -0.03570125    11.00694656
20MABNDB000010_PR023
    0.00207641     0.02469966     3.43373585
20MABNDB000069_PR031
    0.10999375    -0.16176865     9.20229721
20MABNDB000069_PR033
   -0.02735049    -0.02647503     1.28393948
20MABNDB000131_PR032
   -0.18806355    -0.03058283    11.00641823
20MABNDB000131_PR034
    0.01440662     0.01619217     3.43338060
20MABNDA000208_PR042
    0.11037338    -0.08822197     9.20121384
20MABNDA000208_PR046
   -0.02303743     0.03390719     1.28209710
20MABNDA000035_PR044
   -0.17867273     0.02766736    11.00804043
20MABNDA000035_PR045
    0.01489206    -0.01828064     3.43484092


*****************************************************************coordonnees du prisme dans le repere ATLAS********************************************************************************** 
20MABNDL000077_PR002 0.00000000
    2.81603193    -3.66707730     6.48588610
    2.78419232    -3.66503549     6.48570395
20MABNDL000077_PR003 0.00000000
    2.76707482    -3.72478652     6.67498255
    2.77010131    -3.73364305     6.67501593
20MABNDL000077_20MABNDM000168 0.00000000
    2.77213550    -3.78920364    -2.68922043
    2.77214551    -3.78920412    -2.68922043
20MABNDL000077_PR024 0.00000000
    2.83248758    -3.68669653    -3.11710691
    2.83250737    -3.68670845    -3.11710691
20MABNDM000020_PR013 0.00000000
   -2.76372600    -3.79224682     6.48532534
   -2.76372600    -3.79224682     6.48532534
20MABNDM000020_PR014 0.00000000
   -2.84674931    -3.67463374     7.43230391
20MABNDM000020_20MABNDL000196 0.00000000
   -2.78300428    -3.75936222    -2.71088576
20MABNDM000020_PR035 0.00000000
   -2.84692240    -3.68927383    -3.11707544
20MABNDM000168_PR025 0.00000000
    2.84088826    -3.78409290    -6.47897673
20MABNDM000168_PR026 0.00000000
    2.83923984    -3.68761563    -6.67493868
20MABNDM000168_20MABNDL000077 0.00000000
    2.81493449    -3.75353408     2.69822621
20MABNDM000168_PR001 0.00000000
    2.84019566    -3.68440723     3.12405849
20MABNDL000196_PR036 0.00000000
   -2.84799933    -3.69296622    -6.47909307
20MABNDL000196_PR037 0.00000000
   -2.84031606    -3.78873777    -6.67475367
20MABNDL000196_20MABNDM000020 0.00000000
   -2.81520891    -3.75155830     2.68347311
20MABNDL000196_PR012 0.00000000
   -2.83865285    -3.68316078     3.12404633
20MABNDA000134_PR004 0.00000000
    2.61450744    -4.19698811     3.83344865
20MABNDA000334_PR005 0.00000000
    2.61695004    -4.19703293     5.89743090
20MABNDB000317_PR015 0.00000000
   -2.61212182    -4.19699240     3.83310127
20MABNDB000146_PR016 0.00000000
   -2.61282015    -4.19702005     5.89912987
20MABNDB000135_PR027 0.00000000
    2.60412908    -4.19700336    -3.82572484
20MABNDB000126_PR028 0.00000000
    2.60559368    -4.19702005    -5.89339828
20MABNDA000272_PR038 0.00000000
   -2.61118221    -4.19698238    -3.82711697
20MABNDA000003_PR039 0.00000000
   -2.61604142    -4.19702911    -5.89076757
20MABNDA000196_PR006 0.00000000
    2.58949924    -4.19496918     6.54653168
20MABNDA000324_PR007 0.00000000
    2.60381913    -4.13996506     6.94288588
20MABNDB000001_PR017 0.00000000
   -2.59743524    -4.19499063     6.54802895
20MABNDB000260_PR019 0.00000000
   -2.64299321    -4.14002800     6.97363949
20MABNDB000212_PR029 0.00000000
    2.59826398    -4.19500589    -6.54709625
20MABNDB000128_PR030 0.00000000
    2.58681107    -4.14004040    -6.94600916
20MABNDA000444_PR040 0.00000000
   -2.59826303    -4.19500351    -6.54725933
20MABNDA000053_PR041 0.00000000
   -2.58507967    -4.14004135    -6.94780397
20MABNDA000188_PR008 0.00000000
    3.55893064     3.84859109     8.10764503
20MABNDA000188_PR018 0.00000000
    3.52032757    -4.07060814     7.89784575
20MABNDA000039_PR009 0.00000000
    3.87579560     3.64746928    12.93565178
20MABNDA000039_PR011 0.00000000
    3.66460705    -3.92581058    12.88339329
20MABNDB000155_PR020 0.00000000
   -3.68127608     3.84880757     7.89936829
20MABNDB000155_PR022 0.00000000
   -3.53503275    -4.07042933     7.89119387
20MABNDB000010_PR021 0.00000000
   -3.86170959     3.64768481    12.93753052
20MABNDB000010_PR023 0.00000000
   -3.68759394    -3.92564178    12.88057804
20MABNDB000069_PR031 0.00000000
    3.69177032     3.84800911    -7.77863359
20MABNDB000069_PR033 0.00000000
    3.53294873    -4.07046413    -7.87919617
20MABNDB000131_PR032 0.00000000
    3.86886573     3.64756823   -12.94122601
20MABNDB000131_PR034 0.00000000
    3.67338252    -3.92563605   -12.89175510
20MABNDA000208_PR042 0.00000000
   -3.66039658     3.84884048    -7.99969625
20MABNDA000208_PR046 0.00000000
   -3.53272772    -4.07032490    -7.87461138
20MABNDA000035_PR044 0.00000000
   -3.86791396     3.64759541   -12.93334675
20MABNDA000035_PR045 0.00000000
   -3.67583632    -3.92564631   -12.88810349


*****************************************************************Rapport********************************************************************************** 
CAM-LBA-US_EBA-US-HO-H         2024.06.03.05.25.55     2.80011213    -3.66605639     6.48579502     0.01591980     0.00102091     0.00009108 0.00000000 VRAI 
CAM-LBA-US_JDA-US-H            2024.06.03.05.25.55     2.76858807    -3.72921479     6.67499924     0.00151324     0.00442827     0.00001669 0.00000000 VRAI 
CAM-LBA-US_CAM-LBC-US          2024.06.03.05.25.55     2.77214050    -3.78920388    -2.68922043     0.00000501     0.00000024     0.00000000 0.00000000 VRAI 
CAM-LBA-US_EBC-US-IP-H         2024.06.03.05.25.55     2.83249748    -3.68670249    -3.11710691     0.00000989     0.00000596     0.00000000 0.00000000 VRAI 
CAM-LBA-USA_EBA-USA-HO-H       2024.06.03.05.25.55    -2.76372600    -3.79224682     6.48532534     0.00000000     0.00000000     0.00000000 0.00000000 VRAI 
CAM-LBA-USA_JDA-USA-H          2024.06.03.05.25.55    -2.84674931    -3.67463374     7.43230391     0.00000000     0.00000000     0.00000000 0.00000000 VRAI 
CAM-LBA-USA_CAM-LBC-USA        2024.06.03.05.25.55    -2.78300428    -3.75936222    -2.71088576     0.00000000     0.00000000     0.00000000 0.00000000 VRAI 
CAM-LBA-USA_EBC-USA-IP-H       2024.06.03.05.25.55    -2.84692240    -3.68927383    -3.11707544     0.00000000     0.00000000     0.00000000 0.00000000 VRAI 
CAM-LBC-US_EBC-US-HO-H         2024.06.03.05.25.55     2.84088826    -3.78409290    -6.47897673     0.00000000     0.00000000     0.00000000 0.00000000 VRAI 
CAM-LBC-US_JDC-US-H            2024.06.03.05.25.55     2.83923984    -3.68761563    -6.67493868     0.00000000     0.00000000     0.00000000 0.00000000 VRAI 
CAM-LBC-US_CAM-LBA-US          2024.06.03.05.25.55     2.81493449    -3.75353408     2.69822621     0.00000000     0.00000000     0.00000000 0.00000000 VRAI 
CAM-LBC-US_EBA-US-IP-H         2024.06.03.05.25.55     2.84019566    -3.68440723     3.12405849     0.00000000     0.00000000     0.00000000 0.00000000 VRAI 
CAM-LBC-USA_EBC-USA-HO-H       2024.06.03.05.25.55    -2.84799933    -3.69296622    -6.47909307     0.00000000     0.00000000     0.00000000 0.00000000 VRAI 
CAM-LBC-USA_JDC-USA-H          2024.06.03.05.25.55    -2.84031606    -3.78873777    -6.67475367     0.00000000     0.00000000     0.00000000 0.00000000 VRAI 
CAM-LBC-USA_CAM-LBA-USA        2024.06.03.05.25.55    -2.81520891    -3.75155830     2.68347311     0.00000000     0.00000000     0.00000000 0.00000000 VRAI 
CAM-LBC-USA_EBA-USA-IP-H       2024.06.03.05.25.55    -2.83865285    -3.68316078     3.12404633     0.00000000     0.00000000     0.00000000 0.00000000 VRAI 
CAM-EBA-US-IP_EBA-US-IP        2024.06.03.05.25.55     2.61450744    -4.19698811     3.83344865     0.00000000     0.00000000     0.00000000 0.00000000 VRAI 
CAM-EBA-US-HO_EBA-US-HO        2024.06.03.05.25.55     2.61695004    -4.19703293     5.89743090     0.00000000     0.00000000     0.00000000 0.00000000 VRAI 
CAM-EBA-USA-IP_EBA-USA-IP      2024.06.03.05.25.55    -2.61212182    -4.19699240     3.83310127     0.00000000     0.00000000     0.00000000 0.00000000 VRAI 
CAM-EBA-USA-HO_EBA-USA-HO      2024.06.03.05.25.55    -2.61282015    -4.19702005     5.89912987     0.00000000     0.00000000     0.00000000 0.00000000 VRAI 
CAM-EBC-US-IP_EBC-US-IP        2024.06.03.05.25.55     2.60412908    -4.19700336    -3.82572484     0.00000000     0.00000000     0.00000000 0.00000000 VRAI 
CAM-EBC-US-HO_EBC-US-HO        2024.06.03.05.25.55     2.60559368    -4.19702005    -5.89339828     0.00000000     0.00000000     0.00000000 0.00000000 VRAI 
CAM-EBC-USA-IP_EBC-USA-IP      2024.06.03.05.25.55    -2.61118221    -4.19698238    -3.82711697     0.00000000     0.00000000     0.00000000 0.00000000 VRAI 
CAM-EBC-USA-HO_EBC-USA-HO      2024.06.03.05.25.55    -2.61604142    -4.19702911    -5.89076757     0.00000000     0.00000000     0.00000000 0.00000000 VRAI 
CAM-JDA-US-IP_JDA-US-IP        2024.06.03.05.25.55     2.58949924    -4.19496918     6.54653168     0.00000000     0.00000000     0.00000000 0.00000000 VRAI 
CAM-JDA-US-HO_JDA-US-HO        2024.06.03.05.25.55     2.60381913    -4.13996506     6.94288588     0.00000000     0.00000000     0.00000000 0.00000000 VRAI 
CAM-JDA-USA-IP_JDA-USA-IP      2024.06.03.05.25.55    -2.59743524    -4.19499063     6.54802895     0.00000000     0.00000000     0.00000000 0.00000000 VRAI 
CAM-JDA-USA-HO_JDA-USA-HO      2024.06.03.05.25.55    -2.64299321    -4.14002800     6.97363949     0.00000000     0.00000000     0.00000000 0.00000000 VRAI 
CAM-JDC-US-IP_JDC-US-IP        2024.06.03.05.25.55     2.59826398    -4.19500589    -6.54709625     0.00000000     0.00000000     0.00000000 0.00000000 VRAI 
CAM-JDC-US-HO_JDC-US-HO        2024.06.03.05.25.55     2.58681107    -4.14004040    -6.94600916     0.00000000     0.00000000     0.00000000 0.00000000 VRAI 
CAM-JDC-USA-IP_JDC-USA-IP      2024.06.03.05.25.55    -2.59826303    -4.19500351    -6.54725933     0.00000000     0.00000000     0.00000000 0.00000000 VRAI 
CAM-JDC-USA-HO_JDC-USA-HO      2024.06.03.05.25.55    -2.58507967    -4.14004135    -6.94780397     0.00000000     0.00000000     0.00000000 0.00000000 VRAI 
CAM-ECTA-US-IP_ECTA-US-IP-T    2024.06.03.05.25.55     3.55893064     3.84859109     8.10764503     0.00000000     0.00000000     0.00000000 0.00000000 VRAI 
CAM-ECTA-US-IP_ECTA-US-IP      2024.06.03.05.25.55     3.52032757    -4.07060814     7.89784575     0.00000000     0.00000000     0.00000000 0.00000000 VRAI 
CAM-ECTA-US-HO_ECTA-US-HO-T    2024.06.03.05.25.55     3.87579560     3.64746928    12.93565178     0.00000000     0.00000000     0.00000000 0.00000000 VRAI 
CAM-ECTA-US-HO_ECTA-US-HO      2024.06.03.05.25.55     3.66460705    -3.92581058    12.88339329     0.00000000     0.00000000     0.00000000 0.00000000 VRAI 
CAM-ECTA-USA-IP_ECTA-USA-IP-T  2024.06.03.05.25.55    -3.68127608     3.84880757     7.89936829     0.00000000     0.00000000     0.00000000 0.00000000 VRAI 
CAM-ECTA-USA-IP_ECTA-USA-IP    2024.06.03.05.25.55    -3.53503275    -4.07042933     7.89119387     0.00000000     0.00000000     0.00000000 0.00000000 VRAI 
CAM-ECTA-USA-HO_ECTA-USA-HO-T  2024.06.03.05.25.55    -3.86170959     3.64768481    12.93753052     0.00000000     0.00000000     0.00000000 0.00000000 VRAI 
CAM-ECTA-USA-HO_ECTA-USA-HO    2024.06.03.05.25.55    -3.68759394    -3.92564178    12.88057804     0.00000000     0.00000000     0.00000000 0.00000000 VRAI 
CAM-ECTC-US-IP_ECTC-US-IP-T    2024.06.03.05.25.55     3.69177032     3.84800911    -7.77863359     0.00000000     0.00000000     0.00000000 0.00000000 VRAI 
CAM-ECTC-US-IP_ECTC-US-IP      2024.06.03.05.25.55     3.53294873    -4.07046413    -7.87919617     0.00000000     0.00000000     0.00000000 0.00000000 VRAI 
CAM-ECTC-US-HO_ECTC-US-HO-T    2024.06.03.05.25.55     3.86886573     3.64756823   -12.94122601     0.00000000     0.00000000     0.00000000 0.00000000 VRAI 
CAM-ECTC-US-HO_ECTC-US-HO      2024.06.03.05.25.55     3.67338252    -3.92563605   -12.89175510     0.00000000     0.00000000     0.00000000 0.00000000 VRAI 
CAM-ECTC-USA-IP_ECTC-USA-IP-T  2024.06.03.05.25.55    -3.66039658     3.84884048    -7.99969625     0.00000000     0.00000000     0.00000000 0.00000000 VRAI 
CAM-ECTC-USA-IP_ECTC-USA-IP    2024.06.03.05.25.55    -3.53272772    -4.07032490    -7.87461138     0.00000000     0.00000000     0.00000000 0.00000000 VRAI 
CAM-ECTC-USA-HO_ECTC-USA-HO-T  2024.06.03.05.25.55    -3.86791396     3.64759541   -12.93334675     0.00000000     0.00000000     0.00000000 0.00000000 VRAI 
CAM-ECTC-USA-HO_ECTC-USA-HO    2024.06.03.05.25.55    -3.67583632    -3.92564631   -12.88810349     0.00000000     0.00000000     0.00000000 0.00000000 VRAI 
