********** Fichier qui contient une sauvegarde des coordonnees images + coordonnees images transformees dans le repere BCAM (MOUNT) + coordonnees des prismes dans le repere MOUNT********** 
********************************************************************** Unite en metres (m)************************************************************************************************** 

*******************************************************************coordonnees images dans le repere CCD *********************************************************************************** 
20MABNDL000077_PR002
Spot 1     0.00052500     0.00043500
Spot 2     0.00086500     0.00006500
Spot 1     0.00121490     0.00150083
Spot 2     0.00052500     0.00043500
Spot 1     0.00121484     0.00150063
Spot 2     0.00052500     0.00043500
20MABNDL000077_PR003
Spot 1     0.00138740     0.00148722
Spot 2     0.00153694     0.00148870
Spot 1     0.00138748     0.00148689
Spot 2     0.00153710     0.00148856
Spot 1     0.00138750     0.00148700
Spot 2     0.00153720     0.00148853
20MABNDL000077_20MABNDM000168
Spot 1     0.00175672     0.00118493
Spot 2     0.00075500     0.00010500
Spot 1     0.00175672     0.00118467
Spot 2     0.00075500     0.00010500
Spot 1     0.00175679     0.00118454
Spot 2     0.00075500     0.00010500
20MABNDL000077_PR024
Spot 1     0.00254609     0.00144780
Spot 2     0.00264563     0.00145559
Spot 1     0.00254617     0.00144769
Spot 2     0.00264537     0.00145511
Spot 1     0.00254613     0.00144756
Spot 2     0.00264521     0.00145527
20MABNDM000020_PR013
Spot 1     0.00162798     0.00152708
Spot 2     0.00147355     0.00153328
Spot 1     0.00162672     0.00152656
Spot 2     0.00147357     0.00153364
Spot 1     0.00162630     0.00152702
Spot 2     0.00147329     0.00153315
20MABNDM000020_PR014
Spot 1     0.00265895     0.00169052
Spot 2     0.00249655     0.00169500
Spot 1     0.00265932     0.00168952
Spot 2     0.00249795     0.00169356
Spot 1     0.00265852     0.00168941
Spot 2     0.00249805     0.00169418
20MABNDM000020_20MABNDL000196
Spot 1     0.00197666     0.00117823
Spot 2     0.00230500     0.00010500
Spot 1     0.00197679     0.00117816
Spot 2     0.00230500     0.00010500
Spot 1     0.00197679     0.00117817
Spot 2     0.00230500     0.00010500
20MABNDM000020_PR035
Spot 1     0.00126923     0.00149629
Spot 2     0.00118690     0.00153139
Spot 1     0.00126889     0.00149674
Spot 2     0.00118678     0.00153109
Spot 1     0.00126952     0.00149637
Spot 2     0.00118676     0.00153131
20MABNDM000168_PR025
Spot 1     0.00116500     0.00032500
Spot 2     0.00116500     0.00032500
Spot 1     0.00074333     0.00035500
Spot 2     0.00074500     0.00035500
Spot 1     0.00116500     0.00032500
Spot 2     0.00116500     0.00032500
20MABNDM000168_PR026
Spot 1     0.00266671     0.00143018
Spot 2     0.00250546     0.00142633
Spot 1     0.00266662     0.00143027
Spot 2     0.00250553     0.00142635
Spot 1     0.00266677     0.00143033
Spot 2     0.00250541     0.00142672
20MABNDM000168_20MABNDL000077
Spot 1     0.00154165     0.00130044
Spot 2     0.00175782     0.00130500
Spot 1     0.00154164     0.00130047
Spot 2     0.00175786     0.00130491
Spot 1     0.00154144     0.00130056
Spot 2     0.00175746     0.00130443
20MABNDM000168_PR001
Spot 1     0.00080821     0.00161882
Spot 2     0.00070641     0.00162089
Spot 1     0.00080831     0.00161876
Spot 2     0.00070614     0.00162073
Spot 1     0.00080843     0.00161870
Spot 2     0.00070616     0.00162058
20MABNDL000196_PR036
Spot 1     0.00094613     0.00163635
Spot 2     0.00111056     0.00163532
Spot 1     0.00094599     0.00163664
Spot 2     0.00111053     0.00163563
Spot 1     0.00094616     0.00163622
Spot 2     0.00111042     0.00163519
20MABNDL000196_PR037
Spot 1     0.00246734     0.00117167
Spot 2     0.00262228     0.00116999
Spot 1     0.00246764     0.00117177
Spot 2     0.00262212     0.00117010
Spot 1     0.00246753     0.00117152
Spot 2     0.00262238     0.00116988
20MABNDL000196_20MABNDM000020
Spot 1     0.00192570     0.00104155
Spot 2     0.00170447     0.00104676
Spot 1     0.00192571     0.00104175
Spot 2     0.00170438     0.00104691
Spot 1     0.00192599     0.00104161
Spot 2     0.00170438     0.00104708
20MABNDL000196_PR012
Spot 1     0.00265174     0.00134263
Spot 2     0.00272316     0.00138803
Spot 1     0.00265163     0.00134241
Spot 2     0.00272283     0.00138802
Spot 1     0.00265168     0.00134254
Spot 2     0.00272309     0.00138804
20MABNDA000318_PR004
Spot 1     0.00192519     0.00162736
Spot 2     0.00214315     0.00162694
Spot 1     0.00192517     0.00162713
Spot 2     0.00214315     0.00162664
Spot 1     0.00192514     0.00162741
Spot 2     0.00214296     0.00162636
20MABNDA000334_PR005
Spot 1     0.00247216     0.00158789
Spot 2     0.00219185     0.00158846
Spot 1     0.00247228     0.00158777
Spot 2     0.00219161     0.00158831
Spot 1     0.00247234     0.00158792
Spot 2     0.00219169     0.00158846
20MABNDB000317_PR015
Spot 1     0.00170430     0.00158773
Spot 2     0.00148503     0.00159471
Spot 1     0.00170441     0.00158779
Spot 2     0.00148484     0.00159445
Spot 1     0.00170420     0.00158786
Spot 2     0.00148508     0.00159465
20MABNDB000146_PR016
Spot 1     0.00144351     0.00132440
Spot 2     0.00172010     0.00132706
Spot 1     0.00144350     0.00132441
Spot 2     0.00171993     0.00132689
Spot 1     0.00144370     0.00132447
Spot 2     0.00171990     0.00132703
20MABNDB000135_PR027
Spot 1     0.00189006     0.00091437
Spot 2     0.00210824     0.00091621
Spot 1     0.00188994     0.00091452
Spot 2     0.00210839     0.00091605
Spot 1     0.00189002     0.00091437
Spot 2     0.00210831     0.00091618
20MABNDB000126_PR028
Spot 1     0.00164355     0.00200916
Spot 2     0.00192582     0.00201076
Spot 1     0.00164353     0.00200921
Spot 2     0.00192591     0.00201075
Spot 1     0.00164350     0.00200919
Spot 2     0.00192586     0.00201080
20MABNDA000272_PR038
Spot 1     0.00192178     0.00094978
Spot 2     0.00170042     0.00094949
Spot 1     0.00192175     0.00094983
Spot 2     0.00170046     0.00095000
Spot 1     0.00192167     0.00095024
Spot 2     0.00170051     0.00094967
20MABNDA000003_PR039
Spot 1     0.00199912     0.00192547
Spot 2     0.00227786     0.00192681
Spot 1     0.00199924     0.00192571
Spot 2     0.00227772     0.00192684
Spot 1     0.00199923     0.00192548
Spot 2     0.00227775     0.00192686
20MABNDA000196_PR006
Spot 1     0.00199899     0.00072685
Spot 2     0.00163258     0.00072455
Spot 1     0.00199894     0.00072694
Spot 2     0.00163275     0.00072453
Spot 1     0.00199875     0.00072699
Spot 2     0.00163254     0.00072454
20MABNDA000324_PR007
Spot 1     0.00194133     0.00121470
Spot 2     0.00173537     0.00122031
Spot 1     0.00194135     0.00121453
Spot 2     0.00173556     0.00122013
Spot 1     0.00194127     0.00121441
Spot 2     0.00173532     0.00122035
20MABNDB000001_PR017
Spot 1     0.00190290     0.00043912
Spot 2     0.00227141     0.00044766
Spot 1     0.00190288     0.00043916
Spot 2     0.00227135     0.00044754
Spot 1     0.00190279     0.00043910
Spot 2     0.00227135     0.00044754
20MABNDB000260_PR019
Spot 1     0.00191418     0.00150582
Spot 2     0.00211827     0.00150718
Spot 1     0.00191415     0.00150590
Spot 2     0.00211827     0.00150692
Spot 1     0.00191423     0.00150593
Spot 2     0.00211815     0.00150630
20MABNDB000212_PR029
Spot 1     0.00222844     0.00070085
Spot 2     0.00186804     0.00070152
Spot 1     0.00222862     0.00070090
Spot 2     0.00186886     0.00070114
Spot 1     0.00222849     0.00070079
Spot 2     0.00186866     0.00070183
20MABNDB000128_PR030
Spot 1     0.00190462     0.00199948
Spot 2     0.00211054     0.00199441
Spot 1     0.00190482     0.00199950
Spot 2     0.00211059     0.00199446
Spot 1     0.00190467     0.00199939
Spot 2     0.00211067     0.00199425
20MABNDA000444_PR040
Spot 1     0.00074532     0.00035460
Spot 2     0.00111250     0.00035172
Spot 1     0.00074556     0.00035452
Spot 2     0.00111246     0.00035183
Spot 1     0.00074539     0.00035476
Spot 2     0.00111274     0.00035194
20MABNDA000053_PR041
Spot 1     0.00166011     0.00199004
Spot 2     0.00144491     0.00199113
Spot 1     0.00166043     0.00199004
Spot 2     0.00144538     0.00199029
Spot 1     0.00165959     0.00199023
Spot 2     0.00144360     0.00199187
20MABNDA000188_PR008
Spot 1     0.00289500     0.00025500
Spot 2     0.00289500     0.00025500
Spot 1     0.00289500     0.00025500
Spot 2     0.00289500     0.00025500
Spot 1     0.00289500     0.00025500
Spot 2     0.00289500     0.00025500
20MABNDA000188_PR018
Spot 1     0.00169724     0.00173740
Spot 2     0.00123017     0.00173352
Spot 1     0.00169720     0.00173731
Spot 2     0.00123006     0.00173366
Spot 1     0.00169753     0.00173742
Spot 2     0.00123012     0.00173357
20MABNDA000039_PR009
Spot 1     0.00066354     0.00117961
Spot 2     0.00061637     0.00118417
Spot 1     0.00066366     0.00117996
Spot 2     0.00061626     0.00118418
Spot 1     0.00066344     0.00118004
Spot 2     0.00061631     0.00118432
20MABNDA000039_PR011
Spot 1     0.00276967     0.00029159
Spot 2     0.00259406     0.00028641
Spot 1     0.00276974     0.00029144
Spot 2     0.00259393     0.00028655
Spot 1     0.00276965     0.00029169
Spot 2     0.00259392     0.00028664
20MABNDB000155_PR020
Spot 1     0.00062310     0.00113542
Spot 2     0.00068911     0.00113136
Spot 1     0.00062300     0.00113568
Spot 2     0.00068881     0.00113144
Spot 1     0.00062349     0.00113607
Spot 2     0.00068892     0.00113130
20MABNDB000155_PR022
Spot 1     0.00213764     0.00142699
Spot 2     0.00261034     0.00142233
Spot 1     0.00213788     0.00142701
Spot 2     0.00261039     0.00142227
Spot 1     0.00213772     0.00142692
Spot 2     0.00261034     0.00142214
20MABNDB000010_PR021
Spot 1     0.00287214     0.00114957
Spot 2     0.00324167     0.00006500
Spot 1     0.00287232     0.00114928
Spot 2     0.00312500     0.00003500
20MABNDB000010_PR023
Spot 1     0.00131724     0.00030245
Spot 2     0.00149241     0.00030052
Spot 1     0.00131731     0.00030238
Spot 2     0.00149227     0.00030045
20MABNDB000069_PR031
Spot 1     0.00028296     0.00140590
Spot 2     0.00035545     0.00140495
Spot 1     0.00028273     0.00140598
Spot 2     0.00035539     0.00140465
20MABNDB000069_PR033
Spot 1     0.00182597     0.00206591
Spot 2     0.00229649     0.00208626
Spot 1     0.00182602     0.00206619
Spot 2     0.00229655     0.00208632
20MABNDB000131_PR032
Spot 1     0.00277464     0.00107576
Spot 2     0.00283483     0.00107877
Spot 1     0.00277468     0.00107572
Spot 2     0.00283470     0.00107874
20MABNDB000131_PR034
Spot 1     0.00091406     0.00032451
Spot 2     0.00109050     0.00032440
Spot 1     0.00091396     0.00032440
Spot 2     0.00109050     0.00032428
20MABNDA000208_PR042
Spot 1     0.00263536     0.00044929
Spot 2     0.00326500     0.00029500
Spot 1     0.00262665     0.00042665
Spot 2     0.00326500     0.00029500
20MABNDA000208_PR046
Spot 1     0.00145926     0.00222167
Spot 2     0.00096853     0.00203147
Spot 1     0.00145951     0.00222025
Spot 2     0.00096938     0.00203063
20MABNDA000035_PR044
Spot 1     0.00073742     0.00125056
Spot 2     0.00067919     0.00124451
Spot 1     0.00073706     0.00125044
Spot 2     0.00067922     0.00124469
20MABNDA000035_PR045
Spot 1     0.00253682     0.00045891
Spot 2     0.00235951     0.00045764
Spot 1     0.00253673     0.00045903
Spot 2     0.00235944     0.00045748


****************************************************************coordonnees images transformees dans le repere MOUNT************************************************************************* 
20MABNDL000077_PR002
Spot 1     0.01158509     0.03451311    -0.07463200
Spot 2     0.01192151     0.03413986    -0.07463200
Spot 1     0.01228521     0.03557226    -0.07463200
Spot 2     0.01158509     0.03451311    -0.07463200
Spot 1     0.01228515     0.03557206    -0.07463200
Spot 2     0.01158509     0.03451311    -0.07463200
20MABNDL000077_PR003
Spot 1     0.01245757     0.03555699    -0.07463200
Spot 2     0.01260712     0.03555703    -0.07463200
Spot 1     0.01245765     0.03555666    -0.07463200
Spot 2     0.01260728     0.03555689    -0.07463200
Spot 1     0.01245767     0.03555677    -0.07463200
Spot 2     0.01260738     0.03555686    -0.07463200
20MABNDL000077_20MABNDM000168
Spot 1    -0.01259187     0.03524792    -0.00695400
Spot 2    -0.01157915     0.03417830    -0.00695400
Spot 1    -0.01259187     0.03524766    -0.00695400
Spot 2    -0.01157915     0.03417830    -0.00695400
Spot 1    -0.01259194     0.03524753    -0.00695400
Spot 2    -0.01157915     0.03417830    -0.00695400
20MABNDL000077_PR024
Spot 1    -0.01338389     0.03550270    -0.00695400
Spot 2    -0.01348350     0.03550947    -0.00695400
Spot 1    -0.01338397     0.03550258    -0.00695400
Spot 2    -0.01348324     0.03550899    -0.00695400
Spot 1    -0.01338393     0.03550246    -0.00695400
Spot 2    -0.01348308     0.03550915    -0.00695400
20MABNDM000020_PR013
Spot 1    -0.01273096    -0.03548574    -0.00523500
Spot 2    -0.01288521    -0.03549536    -0.00523500
Spot 1    -0.01273223    -0.03548525    -0.00523500
Spot 2    -0.01288519    -0.03549572    -0.00523500
Spot 1    -0.01273264    -0.03548572    -0.00523500
Spot 2    -0.01288548    -0.03549523    -0.00523500
20MABNDM000020_PR014
Spot 1    -0.01169663    -0.03562634    -0.00523500
Spot 2    -0.01185889    -0.03563442    -0.00523500
Spot 1    -0.01169628    -0.03562534    -0.00523500
Spot 2    -0.01185752    -0.03563294    -0.00523500
Spot 1    -0.01169708    -0.03562524    -0.00523500
Spot 2    -0.01185741    -0.03563356    -0.00523500
20MABNDM000020_20MABNDL000196
Spot 1     0.01270962    -0.03514679    -0.07583800
Spot 2     0.01238113    -0.03407361    -0.07583800
Spot 1     0.01270949    -0.03514672    -0.07583800
Spot 2     0.01238113    -0.03407361    -0.07583800
Spot 1     0.01270949    -0.03514673    -0.07583800
Spot 2     0.01238113    -0.03407361    -0.07583800
20MABNDM000020_PR035
Spot 1     0.01341709    -0.03546476    -0.07583800
Spot 2     0.01349943    -0.03549984    -0.07583800
Spot 1     0.01341743    -0.03546521    -0.07583800
Spot 2     0.01349955    -0.03549954    -0.07583800
Spot 1     0.01341680    -0.03546484    -0.07583800
Spot 2     0.01349957    -0.03549976    -0.07583800
20MABNDM000168_PR025
Spot 1    -0.01324206    -0.03466224    -0.00532900
Spot 2    -0.01324206    -0.03466224    -0.00532900
Spot 1    -0.01366360    -0.03469405    -0.00532900
Spot 2    -0.01366193    -0.03469405    -0.00532900
Spot 1    -0.01324206    -0.03466224    -0.00532900
Spot 2    -0.01324206    -0.03466224    -0.00532900
20MABNDM000168_PR026
Spot 1    -0.01173562    -0.03576096    -0.00532900
Spot 2    -0.01189689    -0.03575781    -0.00532900
Spot 1    -0.01173571    -0.03576105    -0.00532900
Spot 2    -0.01189682    -0.03575783    -0.00532900
Spot 1    -0.01173556    -0.03576111    -0.00532900
Spot 2    -0.01189693    -0.03575820    -0.00532900
20MABNDM000168_20MABNDL000077
Spot 1     0.01288381    -0.03530107    -0.07445100
Spot 2     0.01266759    -0.03530247    -0.07445100
Spot 1     0.01288382    -0.03530110    -0.07445100
Spot 2     0.01266755    -0.03530238    -0.07445100
Spot 1     0.01288401    -0.03530119    -0.07445100
Spot 2     0.01266796    -0.03530190    -0.07445100
20MABNDM000168_PR001
Spot 1     0.01361251    -0.03563015    -0.07445100
Spot 2     0.01371427    -0.03563371    -0.07445100
Spot 1     0.01361241    -0.03563009    -0.07445100
Spot 2     0.01371454    -0.03563355    -0.07445100
Spot 1     0.01361229    -0.03563002    -0.07445100
Spot 2     0.01371452    -0.03563340    -0.07445100
20MABNDL000196_PR036
Spot 1     0.01192606     0.03582505    -0.07483600
Spot 2     0.01209049     0.03582436    -0.07483600
Spot 1     0.01192592     0.03582534    -0.07483600
Spot 2     0.01209046     0.03582467    -0.07483600
Spot 1     0.01192609     0.03582492    -0.07483600
Spot 2     0.01209035     0.03582423    -0.07483600
20MABNDL000196_PR037
Spot 1     0.01344824     0.03536354    -0.07483600
Spot 2     0.01360318     0.03536218    -0.07483600
Spot 1     0.01344854     0.03536364    -0.07483600
Spot 2     0.01360302     0.03536229    -0.07483600
Spot 1     0.01344843     0.03536339    -0.07483600
Spot 2     0.01360328     0.03536208    -0.07483600
20MABNDL000196_20MABNDM000020
Spot 1    -0.01274975     0.03531276    -0.00611000
Spot 2    -0.01252867     0.03532242    -0.00611000
Spot 1    -0.01274976     0.03531296    -0.00611000
Spot 2    -0.01252858     0.03532257    -0.00611000
Spot 1    -0.01275004     0.03531281    -0.00611000
Spot 2    -0.01252859     0.03532274    -0.00611000
20MABNDL000196_PR012
Spot 1    -0.01348170     0.03559917    -0.00611000
Spot 2    -0.01355402     0.03564312    -0.00611000
Spot 1    -0.01348159     0.03559895    -0.00611000
Spot 2    -0.01355369     0.03564312    -0.00611000
Spot 1    -0.01348164     0.03559908    -0.00611000
Spot 2    -0.01355395     0.03564313    -0.00611000
20MABNDA000318_PR004
Spot 1    -0.01264501     0.01246852    -0.07310600
Spot 2    -0.01286297     0.01246830    -0.07310600
Spot 1    -0.01264499     0.01246875    -0.07310600
Spot 2    -0.01286297     0.01246860    -0.07310600
Spot 1    -0.01264496     0.01246847    -0.07310600
Spot 2    -0.01286278     0.01246888    -0.07310600
20MABNDA000334_PR005
Spot 1    -0.01311527     0.01254050    -0.07324100
Spot 2    -0.01283496     0.01253967    -0.07324100
Spot 1    -0.01311539     0.01254062    -0.07324100
Spot 2    -0.01283472     0.01253982    -0.07324100
Spot 1    -0.01311545     0.01254047    -0.07324100
Spot 2    -0.01283480     0.01253967    -0.07324100
20MABNDB000317_PR015
Spot 1    -0.01244986    -0.01250779    -0.07326100
Spot 2    -0.01266920    -0.01250337    -0.07326100
Spot 1    -0.01244975    -0.01250773    -0.07326100
Spot 2    -0.01266939    -0.01250363    -0.07326100
Spot 1    -0.01244996    -0.01250766    -0.07326100
Spot 2    -0.01266915    -0.01250343    -0.07326100
20MABNDB000146_PR016
Spot 1    -0.01276483    -0.01246921    -0.07450500
Spot 2    -0.01248825    -0.01246594    -0.07450500
Spot 1    -0.01276484    -0.01246920    -0.07450500
Spot 2    -0.01248842    -0.01246611    -0.07450500
Spot 1    -0.01276464    -0.01246914    -0.07450500
Spot 2    -0.01248845    -0.01246597    -0.07450500
20MABNDB000135_PR027
Spot 1    -0.01251463    -0.01319864    -0.07464700
Spot 2    -0.01229644    -0.01319923    -0.07464700
Spot 1    -0.01251475    -0.01319849    -0.07464700
Spot 2    -0.01229629    -0.01319939    -0.07464700
Spot 1    -0.01251467    -0.01319864    -0.07464700
Spot 2    -0.01229637    -0.01319926    -0.07464700
20MABNDB000126_PR028
Spot 1    -0.01253598    -0.01217302    -0.07500400
Spot 2    -0.01225373    -0.01216991    -0.07500400
Spot 1    -0.01253601    -0.01217297    -0.07500400
Spot 2    -0.01225364    -0.01216992    -0.07500400
Spot 1    -0.01253603    -0.01217299    -0.07500400
Spot 2    -0.01225369    -0.01216987    -0.07500400
20MABNDA000272_PR038
Spot 1    -0.01275743     0.01316169    -0.07417900
Spot 2    -0.01253607     0.01316158    -0.07417900
Spot 1    -0.01275740     0.01316164    -0.07417900
Spot 2    -0.01253611     0.01316107    -0.07417900
Spot 1    -0.01275732     0.01316123    -0.07417900
Spot 2    -0.01253616     0.01316140    -0.07417900
20MABNDA000003_PR039
Spot 1    -0.01280020     0.01212679    -0.07373400
Spot 2    -0.01307895     0.01212616    -0.07373400
Spot 1    -0.01280032     0.01212655    -0.07373400
Spot 2    -0.01307881     0.01212613    -0.07373400
Spot 1    -0.01280031     0.01212678    -0.07373400
Spot 2    -0.01307884     0.01212611    -0.07373400
20MABNDA000196_PR006
Spot 1    -0.01295366     0.01325154    -0.07967100
Spot 2    -0.01258725     0.01324913    -0.07967100
Spot 1    -0.01295362     0.01325145    -0.07967100
Spot 2    -0.01258742     0.01324915    -0.07967100
Spot 1    -0.01295343     0.01325140    -0.07967100
Spot 2    -0.01258721     0.01324914    -0.07967100
20MABNDA000324_PR007
Spot 1    -0.01254702     0.01280692    -0.07446800
Spot 2    -0.01234103     0.01280292    -0.07446800
Spot 1    -0.01254704     0.01280709    -0.07446800
Spot 2    -0.01234122     0.01280310    -0.07446800
Spot 1    -0.01254697     0.01280722    -0.07446800
Spot 2    -0.01234098     0.01280288    -0.07446800
20MABNDB000001_PR017
Spot 1    -0.01228546    -0.01355057    -0.07418400
Spot 2    -0.01191688    -0.01354593    -0.07418400
Spot 1    -0.01228548    -0.01355053    -0.07418400
Spot 2    -0.01191694    -0.01354605    -0.07418400
Spot 1    -0.01228557    -0.01355059    -0.07418400
Spot 2    -0.01191694    -0.01354605    -0.07418400
20MABNDB000260_PR019
Spot 1    -0.01241722    -0.01239690    -0.07492700
Spot 2    -0.01221320    -0.01239135    -0.07492700
Spot 1    -0.01241725    -0.01239682    -0.07492700
Spot 2    -0.01221320    -0.01239161    -0.07492700
Spot 1    -0.01241717    -0.01239678    -0.07492700
Spot 2    -0.01221330    -0.01239223    -0.07492700
20MABNDB000212_PR029
Spot 1    -0.01185941    -0.01328036    -0.07390500
Spot 2    -0.01221978    -0.01327585    -0.07390500
Spot 1    -0.01185923    -0.01328031    -0.07390500
Spot 2    -0.01221896    -0.01327623    -0.07390500
Spot 1    -0.01185936    -0.01328042    -0.07390500
Spot 2    -0.01221916    -0.01327554    -0.07390500
20MABNDB000128_PR030
Spot 1    -0.01245050    -0.01221782    -0.07353400
Spot 2    -0.01224456    -0.01222218    -0.07353400
Spot 1    -0.01245030    -0.01221780    -0.07353400
Spot 2    -0.01224451    -0.01222213    -0.07353400
Spot 1    -0.01245045    -0.01221791    -0.07353400
Spot 2    -0.01224443    -0.01222234    -0.07353400
20MABNDA000444_PR040
Spot 1    -0.01168514     0.01367521    -0.07412000
Spot 2    -0.01205233     0.01367343    -0.07412000
Spot 1    -0.01168538     0.01367529    -0.07412000
Spot 2    -0.01205229     0.01367332    -0.07412000
Spot 1    -0.01168521     0.01367505    -0.07412000
Spot 2    -0.01205256     0.01367321    -0.07412000
20MABNDA000053_PR041
Spot 1    -0.01241676     0.01212056    -0.07430100
Spot 2    -0.01220162     0.01211527    -0.07430100
Spot 1    -0.01241708     0.01212056    -0.07430100
Spot 2    -0.01220208     0.01211612    -0.07430100
Spot 1    -0.01241624     0.01212036    -0.07430100
Spot 2    -0.01220033     0.01211450    -0.07430100
20MABNDA000188_PR008
Spot 1    -0.01391227     0.01380893    -0.07502000
Spot 2    -0.01391227     0.01380893    -0.07502000
Spot 1    -0.01391227     0.01380893    -0.07502000
Spot 2    -0.01391227     0.01380893    -0.07502000
Spot 1    -0.01391227     0.01380893    -0.07502000
Spot 2    -0.01391227     0.01380893    -0.07502000
20MABNDA000188_PR018
Spot 1    -0.01272725     0.01231633    -0.07502000
Spot 2    -0.01226016     0.01231621    -0.07502000
Spot 1    -0.01272721     0.01231642    -0.07502000
Spot 2    -0.01226005     0.01231607    -0.07502000
Spot 1    -0.01272754     0.01231631    -0.07502000
Spot 2    -0.01226011     0.01231616    -0.07502000
20MABNDA000039_PR009
Spot 1    -0.01162569     0.01306452    -0.07444800
Spot 2    -0.01157854     0.01305976    -0.07444800
Spot 1    -0.01162581     0.01306417    -0.07444800
Spot 2    -0.01157843     0.01305975    -0.07444800
Spot 1    -0.01162559     0.01306409    -0.07444800
Spot 2    -0.01157848     0.01305961    -0.07444800
20MABNDA000039_PR011
Spot 1    -0.01372796     0.01396165    -0.07444800
Spot 2    -0.01355233     0.01396607    -0.07444800
Spot 1    -0.01372803     0.01396180    -0.07444800
Spot 2    -0.01355220     0.01396593    -0.07444800
Spot 1    -0.01372794     0.01396155    -0.07444800
Spot 2    -0.01355219     0.01396584    -0.07444800
20MABNDB000155_PR020
Spot 1    -0.01364314    -0.01312191    -0.07501700
Spot 2    -0.01357708    -0.01312506    -0.07501700
Spot 1    -0.01364324    -0.01312165    -0.07501700
Spot 2    -0.01357738    -0.01312499    -0.07501700
Spot 1    -0.01364276    -0.01312125    -0.07501700
Spot 2    -0.01357727    -0.01312512    -0.07501700
20MABNDB000155_PR022
Spot 1    -0.01213273    -0.01280963    -0.07501700
Spot 2    -0.01166001    -0.01280782    -0.07501700
Spot 1    -0.01213249    -0.01280961    -0.07501700
Spot 2    -0.01165996    -0.01280788    -0.07501700
Spot 1    -0.01213265    -0.01280970    -0.07501700
Spot 2    -0.01166001    -0.01280801    -0.07501700
20MABNDB000010_PR021
Spot 1    -0.01157881    -0.01292888    -0.07358200
Spot 2    -0.01119096    -0.01400704    -0.07358200
Spot 1    -0.01157862    -0.01292917    -0.07358200
Spot 2    -0.01130710    -0.01403901    -0.07358200
20MABNDB000010_PR023
Spot 1    -0.01311913    -0.01380222    -0.07358200
Spot 2    -0.01294396    -0.01380118    -0.07358200
Spot 1    -0.01311906    -0.01380229    -0.07358200
Spot 2    -0.01294410    -0.01380126    -0.07358200
20MABNDB000069_PR031
Spot 1    -0.01359326    -0.01286172    -0.07388500
Spot 2    -0.01352087    -0.01286566    -0.07388500
Spot 1    -0.01359348    -0.01286163    -0.07388500
Spot 2    -0.01352094    -0.01286596    -0.07388500
20MABNDB000069_PR033
Spot 1    -0.01202432    -0.01226595    -0.07388500
Spot 2    -0.01155336    -0.01226503    -0.07388500
Spot 1    -0.01202426    -0.01226567    -0.07388500
Spot 2    -0.01155330    -0.01226497    -0.07388500
20MABNDB000131_PR032
Spot 1    -0.01144550    -0.01303901    -0.07533000
Spot 2    -0.01138533    -0.01303569    -0.07533000
Spot 1    -0.01144546    -0.01303905    -0.07533000
Spot 2    -0.01138546    -0.01303572    -0.07533000
20MABNDB000131_PR034
Spot 1    -0.01330227    -0.01379961    -0.07533000
Spot 2    -0.01312584    -0.01379884    -0.07533000
Spot 1    -0.01330237    -0.01379972    -0.07533000
Spot 2    -0.01312584    -0.01379896    -0.07533000
20MABNDA000208_PR042
Spot 1    -0.01350652     0.01354710    -0.07273700
Spot 2    -0.01413630     0.01370084    -0.07273700
Spot 1    -0.01349783     0.01356975    -0.07273700
Spot 2    -0.01413630     0.01370084    -0.07273700
20MABNDA000208_PR046
Spot 1    -0.01232887     0.01177575    -0.07273700
Spot 2    -0.01183830     0.01196638    -0.07273700
Spot 1    -0.01232912     0.01177717    -0.07273700
Spot 2    -0.01183915     0.01196722    -0.07273700
20MABNDA000035_PR044
Spot 1    -0.01157202     0.01300668    -0.07483200
Spot 2    -0.01151375     0.01301232    -0.07483200
Spot 1    -0.01157166     0.01300680    -0.07483200
Spot 2    -0.01151378     0.01301214    -0.07483200
20MABNDA000035_PR045
Spot 1    -0.01336574     0.01381111    -0.07483200
Spot 2    -0.01318843     0.01381112    -0.07483200
Spot 1    -0.01336566     0.01381099    -0.07483200
Spot 2    -0.01318836     0.01381128    -0.07483200


*****************************************************************coordonnees du prisme dans le repere MOUNT********************************************************************************** 
20MABNDL000077_PR002
    0.05906468     0.08293577     3.70653439
    0.05008540     0.04755916     3.70691466
    0.05008692     0.04756408     3.70691442
20MABNDL000077_PR003
    0.02098564     0.02144308     3.89601803
    0.02097952     0.02145534     3.89601803
    0.02097639     0.02145329     3.89601803
20MABNDL000077_20MABNDM000168
   -0.05599231     0.07576685    -5.46843624
   -0.05599241     0.07577624    -5.46843624
   -0.05598993     0.07578097    -5.46843624
20MABNDL000077_PR024
    0.04568106     0.01709694    -5.89639854
    0.04567380     0.01711986    -5.89639854
    0.04566602     0.01711861    -5.89639854
20MABNDM000020_PR013
   -0.00368865    -0.01812742    -3.80243397
   -0.00365780    -0.01813071    -3.80243397
   -0.00364042    -0.01813107    -3.80243397
20MABNDM000020_PR014
   -0.06553238    -0.00490293    -4.74840975
   -0.06558575    -0.00498004    -4.74840975
   -0.06556430    -0.00496371    -4.74840975
20MABNDM000020_20MABNDL000196
    0.02683985    -0.07123877     5.39469719
    0.02684451    -0.07124128     5.39469719
    0.02684451    -0.07124092     5.39469719
20MABNDM000020_PR035
   -0.04243825    -0.00670141     5.80095387
   -0.04245598    -0.00669563     5.80095387
   -0.04243248    -0.00670141     5.80095387
20MABNDM000168_PR025
    0.01495045    -0.06926418    -3.78854561
    0.03575099    -0.06768964    -3.78834629
    0.01495045    -0.06926418    -3.78854561
20MABNDM000168_PR026
   -0.05781624    -0.01390174    -3.98429012
   -0.05781573    -0.01389887    -3.98429012
   -0.05781656    -0.01388769    -3.98429012
20MABNDM000168_20MABNDL000077
    0.01155992    -0.03873998     5.38884687
    0.01156097    -0.03874215     5.38884687
    0.01153921    -0.03875585     5.38884687
20MABNDM000168_PR001
   -0.05735438    -0.01335545     5.81470490
   -0.05736108    -0.01336388     5.81470490
   -0.05735578    -0.01337210     5.81470585
20MABNDL000196_PR036
    0.05136378     0.00611313     3.68777275
    0.05136798     0.00609841     3.68777275
    0.05136647     0.00611951     3.68777323
20MABNDL000196_PR037
   -0.02505127     0.02840846     3.88381386
   -0.02505488     0.02840302     3.88381386
   -0.02505878     0.02841517     3.88381386
20MABNDL000196_20MABNDM000020
   -0.01570910     0.03788964    -5.47473907
   -0.01571172     0.03787701    -5.47473907
   -0.01570164     0.03787614    -5.47473907
20MABNDL000196_PR012
    0.05234040     0.01444415    -5.91537189
    0.05232313     0.01445274    -5.91537189
    0.05233528     0.01444716    -5.91537189
20MABNDA000318_PR004
   -0.00855711     0.03843299     2.74965906
   -0.00855745     0.03842327     2.74965906
   -0.00856149     0.03842326     2.74965906
20MABNDA000334_PR005
   -0.00429861     0.03174661     2.14977145
   -0.00430033     0.03174275     2.14977145
   -0.00429832     0.03174704     2.14977145
20MABNDB000317_PR015
   -0.01726958    -0.03378998     2.75129199
   -0.01726816    -0.03378633     2.75129199
   -0.01726865    -0.03379125     2.75129199
20MABNDB000146_PR016
   -0.01342061    -0.03156505     2.15201473
   -0.01341802    -0.03156275     2.15201473
   -0.01342046    -0.03156563     2.15201473
20MABNDB000135_PR027
   -0.02096790    -0.00979446     2.74937153
   -0.02096845    -0.00979427     2.74937153
   -0.02096844    -0.00979391     2.74937153
20MABNDB000126_PR028
   -0.02030460    -0.03896181     2.14679527
   -0.02030560    -0.03896238     2.14679527
   -0.02030445    -0.03896280     2.14679527
20MABNDA000272_PR038
   -0.01327518     0.01075875     2.74965858
   -0.01327498     0.01076901     2.74965858
   -0.01327553     0.01077048     2.74965858
20MABNDA000003_PR039
   -0.00597305     0.04122687     2.14891577
   -0.00597333     0.04123073     2.14891577
   -0.00597305     0.04122773     2.14891577
20MABNDA000196_PR006
   -0.01012470     0.00987679     1.64206338
   -0.01012338     0.00987754     1.64206338
   -0.01012774     0.00987825     1.64206338
20MABNDA000324_PR007
   -0.02551986     0.02794909     2.95549011
   -0.02551567     0.02794223     2.95549011
   -0.02552199     0.02794416     2.95549011
20MABNDB000001_PR017
   -0.02448939    -0.00283767     1.64035702
   -0.02448850    -0.00283681     1.64035702
   -0.02448751    -0.00283616     1.64035702
20MABNDB000260_PR019
   -0.02404275    -0.03849718     2.95627499
   -0.02404223    -0.03849362     2.95627499
   -0.02404168    -0.03848199     2.95627522
20MABNDB000212_PR029
   -0.02528848    -0.00847043     1.64223862
   -0.02529940    -0.00846669     1.64223862
   -0.02529585    -0.00847309     1.64223862
20MABNDB000128_PR030
   -0.01947840    -0.04674421     2.95496345
   -0.01948331    -0.04674561     2.95496345
   -0.01948195    -0.04673931     2.95496345
20MABNDA000444_PR040
   -0.03023599     0.00092001     1.64490855
   -0.03023381     0.00092037     1.64490855
   -0.03023265     0.00092422     1.64490867
20MABNDA000053_PR041
   -0.02650696     0.05111617     2.95450401
   -0.02649178     0.05109938     2.95450425
   -0.02654253     0.05113512     2.95450354
20MABNDA000188_PR008
    0.13650158    -0.07885031     9.20339394
    0.13650158    -0.07885031     9.20339394
    0.13650158    -0.07885031     9.20339394
20MABNDA000188_PR018
   -0.01617415     0.02582696     1.28358257
   -0.01617542     0.02582739     1.28358257
   -0.01617208     0.02582754     1.28358257
20MABNDA000039_PR009
   -0.17120519     0.02556287    11.00701523
   -0.17120436     0.02558919    11.00701523
   -0.17121673     0.02560533    11.00701523
20MABNDA000039_PR011
    0.03085187    -0.02411263     3.43347454
    0.03085050    -0.02411285     3.43347454
    0.03084826    -0.02410509     3.43347478
20MABNDB000155_PR020
    0.10167697    -0.00962739     9.20028877
    0.10170180    -0.00964792     9.20028782
    0.10166520    -0.00966377     9.20028877
20MABNDB000155_PR022
   -0.02602290    -0.01801725     1.28070211
   -0.02602538    -0.01801694     1.28070211
   -0.02602361    -0.01801504     1.28070211
20MABNDB000010_PR021
   -0.20114715     0.04630702    11.00640678
   -0.19262490     0.04867914    11.00653553
20MABNDB000010_PR023
    0.00406989     0.02074687     3.43376780
    0.00407144     0.02075011     3.43376780
20MABNDB000069_PR031
    0.10229942    -0.03875820     9.20356178
    0.10231775    -0.03874545     9.20356178
20MABNDB000069_PR033
   -0.02685594    -0.02689491     1.28394055
   -0.02685700    -0.02689777     1.28394055
20MABNDB000131_PR032
   -0.18762502    -0.02947660    11.00642776
   -0.18761846    -0.02947145    11.00642776
20MABNDB000131_PR034
    0.01477938     0.01647867     3.43337536
    0.01478163     0.01648393     3.43337536
20MABNDA000208_PR042
    0.12325791    -0.05664665     9.20132637
    0.12272450    -0.05803667     9.20132351
20MABNDA000208_PR046
   -0.02345215     0.03332256     1.28210306
   -0.02344274     0.03330326     1.28210354
20MABNDA000035_PR044
   -0.18019643     0.02575888    11.00801945
   -0.18022053     0.02576344    11.00801945
20MABNDA000035_PR045
    0.01420324    -0.01953406     3.43483472
    0.01419958    -0.01953495     3.43483472


*****************************************************************coordonnees du prisme dans le repere ATLAS********************************************************************************** 
20MABNDL000077_PR002 0.00000000
    2.77410769    -3.68543220     6.48588657
    2.80948186    -3.69442320     6.48622131
    2.80947685    -3.69442177     6.48622084
20MABNDL000077_PR003 0.00000000
    2.83577418    -3.72376466     6.67526293
    2.83576179    -3.72377062     6.67526293
    2.83576393    -3.72377396     6.67526293
20MABNDL000077_20MABNDM000168 0.00000000
    2.77224064    -3.78917146    -2.68922138
    2.77223110    -3.78917146    -2.68922138
    2.77222633    -3.78916907    -2.68922138
20MABNDL000077_PR024 0.00000000
    2.83052301    -3.68698883    -3.11711526
    2.83050013    -3.68699598    -3.11711526
    2.83050132    -3.68700385    -3.11711526
20MABNDM000020_PR013 0.00000000
   -2.83418202    -3.73579526     6.48627663
   -2.83417869    -3.73582625     6.48627663
   -2.83417821    -3.73584366     6.48627663
20MABNDM000020_PR014 0.00000000
   -2.84719825    -3.67466712     7.43230152
   -2.84712100    -3.67461371     7.43230200
   -2.84713745    -3.67463517     7.43230200
20MABNDM000020_20MABNDL000196 0.00000000
   -2.78292060    -3.75934529    -2.71088576
   -2.78291798    -3.75935006    -2.71088576
   -2.78291845    -3.75935006    -2.71088576
20MABNDM000020_PR035 0.00000000
   -2.84751797    -3.68973851    -3.11707664
   -2.84752369    -3.68972087    -3.11707664
   -2.84751797    -3.68974423    -3.11707664
20MABNDM000168_PR025 0.00000000
    2.78397346    -3.76026678    -6.47916269
    2.78554249    -3.78106761    -6.47895575
    2.78397346    -3.76026678    -6.47916269
20MABNDM000168_PR026 0.00000000
    2.83934331    -3.68758750    -6.67493773
    2.83934617    -3.68758821    -6.67493773
    2.83935738    -3.68758726    -6.67493773
20MABNDM000168_20MABNDL000077 0.00000000
    2.81505561    -3.75347209     2.69822621
    2.81505346    -3.75347304     2.69822621
    2.81503963    -3.75345135     2.69822598
20MABNDM000168_PR001 0.00000000
    2.84048414    -3.68440604     3.12405682
    2.84047580    -3.68439937     3.12405682
    2.84046745    -3.68440461     3.12405777
20MABNDL000196_PR036 0.00000000
   -2.84749436    -3.69291067    -6.47909641
   -2.84750915    -3.69290638    -6.47909641
   -2.84748793    -3.69290805    -6.47909689
20MABNDL000196_PR037 0.00000000
   -2.82516766    -3.76949763    -6.67506695
   -2.82517314    -3.76950121    -6.67506695
   -2.82516098    -3.76950502    -6.67506695
20MABNDL000196_20MABNDM000020 0.00000000
   -2.81548858    -3.75144577     2.68347335
   -2.81550121    -3.75144839     2.68347335
   -2.81550217    -3.75143838     2.68347335
20MABNDL000196_PR012 0.00000000
   -2.83895636    -3.68299723     3.12404323
   -2.83894777    -3.68301463     3.12404323
   -2.83895326    -3.68300247     3.12404323
20MABNDA000318_PR004 0.00000000
    2.61444616    -4.19698811     3.83356571
    2.61444569    -4.19698811     3.83357549
    2.61444163    -4.19698811     3.83357549
20MABNDA000334_PR005 0.00000000
    2.61669993    -4.19703150     5.89751434
    2.61669827    -4.19703150     5.89751816
    2.61670017    -4.19703150     5.89751387
20MABNDB000317_PR015 0.00000000
   -2.61133766    -4.19700623     3.83622551
   -2.61133909    -4.19700623     3.83622909
   -2.61133862    -4.19700623     3.83622432
20MABNDB000146_PR016 0.00000000
   -2.61287475    -4.19702291     5.89878511
   -2.61287713    -4.19702291     5.89878750
   -2.61287475    -4.19702291     5.89878464
20MABNDB000135_PR027 0.00000000
    2.60389543    -4.19700384    -3.82556629
    2.60389495    -4.19700384    -3.82556653
    2.60389495    -4.19700384    -3.82556701
20MABNDB000126_PR028 0.00000000
    2.60561275    -4.19702101    -5.89325809
    2.60561156    -4.19702101    -5.89325762
    2.60561275    -4.19702101    -5.89325714
20MABNDA000272_PR038 0.00000000
   -2.61126161    -4.19698286    -3.82772565
   -2.61126184    -4.19698286    -3.82771540
   -2.61126137    -4.19698286    -3.82771397
20MABNDA000003_PR039 0.00000000
   -2.61575818    -4.19702101    -5.89153957
   -2.61575770    -4.19702101    -5.89153576
   -2.61575818    -4.19702101    -5.89153910
20MABNDA000196_PR006 0.00000000
    2.58458519    -4.19496536     6.54783344
    2.58458400    -4.19496536     6.54783392
    2.58458829    -4.19496536     6.54783487
20MABNDA000324_PR007 0.00000000
    2.59379506    -4.13996840     6.94796610
    2.59379911    -4.13996840     6.94797277
    2.59379292    -4.13996840     6.94797087
20MABNDB000001_PR017 0.00000000
   -2.59819078    -4.19506073     6.53816557
   -2.59818983    -4.19506073     6.53816462
   -2.59818888    -4.19506073     6.53816414
20MABNDB000260_PR019 0.00000000
   -2.60471916    -4.13995981     6.94214678
   -2.60471964    -4.13995981     6.94215012
   -2.60472012    -4.13995934     6.94216204
20MABNDB000212_PR029 0.00000000
    2.59896612    -4.19501019    -6.54745817
    2.59897709    -4.19501019    -6.54745436
    2.59897351    -4.19501019    -6.54746103
20MABNDB000128_PR030 0.00000000
    2.60938025    -4.14002657    -6.93137693
    2.60937548    -4.14002657    -6.93137550
    2.60937691    -4.14002657    -6.93138170
20MABNDA000444_PR040 0.00000000
   -2.60540843    -4.19510078    -6.54010010
   -2.60540628    -4.19510078    -6.54010057
   -2.60540509    -4.19510078    -6.54010439
20MABNDA000053_PR041 0.00000000
   -2.59403491    -4.14012671    -6.92679739
   -2.59405017    -4.14012671    -6.92681408
   -2.59399939    -4.14012718    -6.92677832
20MABNDA000188_PR008 0.00000000
    3.54951787     3.84898496     8.09023857
    3.54951787     3.84898496     8.09023857
    3.54951787     3.84898496     8.09023857
20MABNDA000188_PR018 0.00000000
    3.52096295    -4.07059622     7.89762211
    3.52096152    -4.07059622     7.89762163
    3.52096486    -4.07059622     7.89762163
20MABNDA000039_PR009 0.00000000
    3.87537718     3.64747334    12.93685722
    3.87537622     3.64747334    12.93688297
    3.87538862     3.64747334    12.93689919
20MABNDA000039_PR011 0.00000000
    3.66417217    -3.92580128    12.88472366
    3.66417360    -3.92580128    12.88472366
    3.66417575    -3.92580104    12.88473129
20MABNDB000155_PR020 0.00000000
   -3.68032908     3.84882283     7.89723969
   -3.68035388     3.84882164     7.89721918
   -3.68031740     3.84882283     7.89720345
20MABNDB000155_PR022 0.00000000
   -3.53395748    -4.07044172     7.89004230
   -3.53395510    -4.07044172     7.89004230
   -3.53395677    -4.07044172     7.89004421
20MABNDB000010_PR021 0.00000000
   -3.88705468     3.64711857    12.85554504
   -3.87853456     3.64724207    12.85316467
20MABNDB000010_PR023 0.00000000
   -3.68559694    -3.92560887    12.88452911
   -3.68559527    -3.92560887    12.88452625
20MABNDB000069_PR031 0.00000000
    3.68401623     3.84875631    -7.90164471
    3.68403459     3.84875607    -7.90165710
20MABNDB000069_PR033 0.00000000
    3.53344345    -4.07046270    -7.87877655
    3.53344250    -4.07046270    -7.87877369
20MABNDB000131_PR032 0.00000000
    3.86842752     3.64757752   -12.94011879
    3.86842108     3.64757752   -12.94011402
20MABNDB000131_PR034 0.00000000
    3.67300987    -3.92564154   -12.89146900
    3.67300773    -3.92564154   -12.89146328
20MABNDA000208_PR042 0.00000000
   -3.67329788     3.84897375    -7.96812820
   -3.67276382     3.84897017    -7.96951771
20MABNDA000208_PR046 0.00000000
   -3.53231263    -4.07031965    -7.87519598
   -3.53232193    -4.07031918    -7.87521505
20MABNDA000035_PR044 0.00000000
   -3.86943722     3.64757466   -12.93143749
   -3.86946130     3.64757466   -12.93144226
20MABNDA000035_PR045 0.00000000
   -3.67652512    -3.92565250   -12.88685036
   -3.67652869    -3.92565250   -12.88684940


*****************************************************************Rapport********************************************************************************** 
CAM-LBA-US_EBA-US-HO-H         2018.07.19.13.35.11     2.79768880    -3.69142572     6.48610957     0.01667436     0.00423806     0.00015769 0.00000000 VRAI 
CAM-LBA-US_JDA-US-H            2018.07.19.13.35.11     2.83576663    -3.72376974     6.67526293     0.00000541     0.00000385     0.00000000 0.00000000 VRAI 
CAM-LBA-US_CAM-LBC-US          2018.07.19.13.35.11     2.77223269    -3.78917066    -2.68922138     0.00000595     0.00000112     0.00000000 0.00000000 VRAI 
CAM-LBA-US_EBC-US-IP-H         2018.07.19.13.35.11     2.83050815    -3.68699622    -3.11711526     0.00001052     0.00000613     0.00000000 0.00000000 VRAI 
CAM-LBA-USA_EBA-USA-HO-H       2018.07.19.13.35.11    -2.83417964    -3.73582172     6.48627663     0.00000170     0.00002002     0.00000000 0.00000000 VRAI 
CAM-LBA-USA_JDA-USA-H          2018.07.19.13.35.11    -2.84715223    -3.67463867     7.43230184     0.00003322     0.00002194     0.00000022 0.00000000 VRAI 
CAM-LBA-USA_CAM-LBC-USA        2018.07.19.13.35.11    -2.78291901    -3.75934847    -2.71088576     0.00000114     0.00000225     0.00000000 0.00000000 VRAI 
CAM-LBA-USA_EBC-USA-IP-H       2018.07.19.13.35.11    -2.84751987    -3.68973454    -3.11707664     0.00000270     0.00000994     0.00000000 0.00000000 VRAI 
CAM-LBC-US_EBC-US-HO-H         2018.07.19.13.35.11     2.78449647    -3.76720039    -6.47909371     0.00073965     0.00980560     0.00009756 0.00000000 VRAI 
CAM-LBC-US_JDC-US-H            2018.07.19.13.35.11     2.83934895    -3.68758766    -6.67493773     0.00000607     0.00000041     0.00000000 0.00000000 VRAI 
CAM-LBC-US_CAM-LBA-US          2018.07.19.13.35.11     2.81504957    -3.75346549     2.69822613     0.00000708     0.00001001     0.00000011 0.00000000 VRAI 
CAM-LBC-US_EBA-US-IP-H         2018.07.19.13.35.11     2.84047580    -3.68440334     3.12405713     0.00000681     0.00000287     0.00000045 0.00000000 VRAI 
CAM-LBC-USA_EBC-USA-HO-H       2018.07.19.13.35.11    -2.84749715    -3.69290837    -6.47909657     0.00000888     0.00000177     0.00000022 0.00000000 VRAI 
CAM-LBC-USA_JDC-USA-H          2018.07.19.13.35.11    -2.82516726    -3.76950129    -6.67506695     0.00000497     0.00000302     0.00000000 0.00000000 VRAI 
CAM-LBC-USA_CAM-LBA-USA        2018.07.19.13.35.11    -2.81549732    -3.75144418     2.68347335     0.00000619     0.00000424     0.00000000 0.00000000 VRAI 
CAM-LBC-USA_EBA-USA-IP-H       2018.07.19.13.35.11    -2.83895246    -3.68300478     3.12404323     0.00000355     0.00000729     0.00000000 0.00000000 VRAI 
CAM-EBA-US-IP_EBA-US-IP        2018.07.19.13.35.11     2.61444449    -4.19698811     3.83357223     0.00000203     0.00000000     0.00000461 0.00000000 VRAI 
CAM-EBA-US-HO_EBA-US-HO        2018.07.19.13.35.11     2.61669946    -4.19703150     5.89751546     0.00000085     0.00000000     0.00000192 0.00000000 VRAI 
CAM-EBA-USA-IP_EBA-USA-IP      2018.07.19.13.35.11    -2.61133846    -4.19700623     3.83622630     0.00000059     0.00000000     0.00000203 0.00000000 VRAI 
CAM-EBA-USA-HO_EBA-USA-HO      2018.07.19.13.35.11    -2.61287554    -4.19702291     5.89878575     0.00000112     0.00000000     0.00000125 0.00000000 VRAI 
CAM-EBC-US-IP_EBC-US-IP        2018.07.19.13.35.11     2.60389511    -4.19700384    -3.82556661     0.00000022     0.00000000     0.00000030 0.00000000 VRAI 
CAM-EBC-US-HO_EBC-US-HO        2018.07.19.13.35.11     2.60561236    -4.19702101    -5.89325762     0.00000056     0.00000000     0.00000039 0.00000000 VRAI 
CAM-EBC-USA-IP_EBC-USA-IP      2018.07.19.13.35.11    -2.61126161    -4.19698286    -3.82771834     0.00000019     0.00000000     0.00000520 0.00000000 VRAI 
CAM-EBC-USA-HO_EBC-USA-HO      2018.07.19.13.35.11    -2.61575802    -4.19702101    -5.89153814     0.00000022     0.00000000     0.00000170 0.00000000 VRAI 
CAM-JDA-US-IP_JDA-US-IP        2018.07.19.13.35.11     2.58458583    -4.19496536     6.54783408     0.00000181     0.00000000     0.00000059 0.00000000 VRAI 
CAM-JDA-US-HO_JDA-US-HO        2018.07.19.13.35.11     2.59379570    -4.13996840     6.94796991     0.00000257     0.00000000     0.00000281 0.00000000 VRAI 
CAM-JDA-USA-IP_JDA-USA-IP      2018.07.19.13.35.11    -2.59818983    -4.19506073     6.53816477     0.00000078     0.00000000     0.00000059 0.00000000 VRAI 
CAM-JDA-USA-HO_JDA-USA-HO      2018.07.19.13.35.11    -2.60471964    -4.13995965     6.94215298     0.00000039     0.00000022     0.00000655 0.00000000 VRAI 
CAM-JDC-US-IP_JDC-US-IP        2018.07.19.13.35.11     2.59897224    -4.19501019    -6.54745785     0.00000457     0.00000000     0.00000273 0.00000000 VRAI 
CAM-JDC-US-HO_JDC-US-HO        2018.07.19.13.35.11     2.60937754    -4.14002657    -6.93137805     0.00000200     0.00000000     0.00000265 0.00000000 VRAI 
CAM-JDC-USA-IP_JDC-USA-IP      2018.07.19.13.35.11    -2.60540660    -4.19510078    -6.54010169     0.00000138     0.00000000     0.00000192 0.00000000 VRAI 
CAM-JDC-USA-HO_JDC-USA-HO      2018.07.19.13.35.11    -2.59402816    -4.14012686    -6.92679660     0.00002128     0.00000022     0.00001461 0.00000000 VRAI 
CAM-ECTA-US-IP_ECTA-US-IP-T    2018.07.19.13.35.11     3.54951787     3.84898496     8.09023857     0.00000000     0.00000000     0.00000000 0.00000000 VRAI 
CAM-ECTA-US-IP_ECTA-US-IP      2018.07.19.13.35.11     3.52096311    -4.07059622     7.89762179     0.00000137     0.00000000     0.00000022 0.00000000 VRAI 
CAM-ECTA-US-HO_ECTA-US-HO-T    2018.07.19.13.35.11     3.87538067     3.64747334    12.93687979     0.00000563     0.00000000     0.00001728 0.00000000 VRAI 
CAM-ECTA-US-HO_ECTA-US-HO      2018.07.19.13.35.11     3.66417384    -3.92580120    12.88472621     0.00000147     0.00000011     0.00000360 0.00000000 VRAI 
CAM-ECTA-USA-IP_ECTA-USA-IP-T  2018.07.19.13.35.11    -3.68033346     3.84882243     7.89722077     0.00001521     0.00000056     0.00001484 0.00000000 VRAI 
CAM-ECTA-USA-IP_ECTA-USA-IP    2018.07.19.13.35.11    -3.53395645    -4.07044172     7.89004294     0.00000100     0.00000000     0.00000090 0.00000000 VRAI 
CAM-ECTA-USA-HO_ECTA-USA-HO-T  2018.07.19.13.35.11    -3.88279462     3.64718032    12.85435486     0.00426006     0.00006175     0.00119019 0.00000000 VRAI 
CAM-ECTA-USA-HO_ECTA-USA-HO    2018.07.19.13.35.11    -3.68559611    -3.92560887    12.88452768     0.00000083     0.00000000     0.00000143 0.00000000 VRAI 
CAM-ECTC-US-IP_ECTC-US-IP-T    2018.07.19.13.35.11     3.68402541     3.84875619    -7.90165091     0.00000918     0.00000012     0.00000620 0.00000000 VRAI 
CAM-ECTC-US-IP_ECTC-US-IP      2018.07.19.13.35.11     3.53344297    -4.07046270    -7.87877512     0.00000048     0.00000000     0.00000143 0.00000000 VRAI 
CAM-ECTC-US-HO_ECTC-US-HO-T    2018.07.19.13.35.11     3.86842430     3.64757752   -12.94011641     0.00000322     0.00000000     0.00000238 0.00000000 VRAI 
CAM-ECTC-US-HO_ECTC-US-HO      2018.07.19.13.35.11     3.67300880    -3.92564154   -12.89146614     0.00000107     0.00000000     0.00000286 0.00000000 VRAI 
CAM-ECTC-USA-IP_ECTC-USA-IP-T  2018.07.19.13.35.11    -3.67303085     3.84897196    -7.96882296     0.00026703     0.00000179     0.00069475 0.00000000 VRAI 
CAM-ECTC-USA-IP_ECTC-USA-IP    2018.07.19.13.35.11    -3.53231728    -4.07031941    -7.87520552     0.00000465     0.00000024     0.00000954 0.00000000 VRAI 
CAM-ECTC-USA-HO_ECTC-USA-HO-T  2018.07.19.13.35.11    -3.86944926     3.64757466   -12.93143988     0.00001204     0.00000000     0.00000238 0.00000000 VRAI 
CAM-ECTC-USA-HO_ECTC-USA-HO    2018.07.19.13.35.11    -3.67652690    -3.92565250   -12.88684988     0.00000179     0.00000000     0.00000048 0.00000000 VRAI 
