********** Fichier qui contient une sauvegarde des coordonnees images + coordonnees images transformees dans le repere BCAM (MOUNT) + coordonnees des prismes dans le repere MOUNT********** 
********************************************************************** Unite en metres (m)************************************************************************************************** 

*******************************************************************coordonnees images dans le repere CCD *********************************************************************************** 
20MABNDL000077_PR002
Spot 1     0.00052500     0.00043500
Spot 2     0.00052500     0.00043500
Spot 1     0.00052500     0.00043500
Spot 2     0.00086500     0.00006500
Spot 1     0.00121528     0.00149841
Spot 2     0.00052500     0.00043500
20MABNDL000077_PR003
Spot 1     0.00138634     0.00148734
Spot 2     0.00153581     0.00148926
Spot 1     0.00138673     0.00148728
Spot 2     0.00153580     0.00148904
Spot 1     0.00138648     0.00148745
Spot 2     0.00153597     0.00148923
20MABNDL000077_20MABNDM000168
Spot 1     0.00175716     0.00118382
Spot 2     0.00075500     0.00010500
Spot 1     0.00175721     0.00118372
Spot 2     0.00075500     0.00010500
Spot 1     0.00175709     0.00118402
Spot 2     0.00075500     0.00010500
20MABNDL000077_PR024
Spot 1     0.00254840     0.00144718
Spot 2     0.00264733     0.00145511
Spot 1     0.00254846     0.00144729
Spot 2     0.00264732     0.00145506
Spot 1     0.00254846     0.00144720
Spot 2     0.00264747     0.00145494
20MABNDM000020_PR013
Spot 1     0.00162683     0.00152648
Spot 2     0.00147378     0.00153251
Spot 1     0.00162694     0.00152631
Spot 2     0.00147287     0.00153271
Spot 1     0.00162724     0.00152572
Spot 2     0.00147368     0.00153380
20MABNDM000020_PR014
Spot 1     0.00265763     0.00168907
Spot 2     0.00249549     0.00169390
Spot 1     0.00265771     0.00168877
Spot 2     0.00249540     0.00169334
Spot 1     0.00265619     0.00168966
Spot 2     0.00249586     0.00169411
20MABNDM000020_20MABNDL000196
Spot 1     0.00197721     0.00117869
Spot 2     0.00230500     0.00010500
Spot 1     0.00197725     0.00117856
Spot 2     0.00230500     0.00010500
Spot 1     0.00197701     0.00117848
Spot 2     0.00320500     0.00025500
20MABNDM000020_PR035
Spot 1     0.00125920     0.00149952
Spot 2     0.00118409     0.00152943
Spot 1     0.00125937     0.00149942
Spot 2     0.00118397     0.00152939
Spot 1     0.00125916     0.00149941
Spot 2     0.00118394     0.00152968
20MABNDM000168_PR025
Spot 1     0.00170500     0.00021500
Spot 2     0.00049500     0.00004500
Spot 1     0.00170500     0.00021500
Spot 2     0.00170500     0.00021500
Spot 1     0.00170500     0.00021500
Spot 2     0.00170500     0.00021500
20MABNDM000168_PR026
Spot 1     0.00266042     0.00143071
Spot 2     0.00249935     0.00142699
Spot 1     0.00266046     0.00143092
Spot 2     0.00249943     0.00142703
Spot 1     0.00266034     0.00143087
Spot 2     0.00249943     0.00142697
20MABNDM000168_20MABNDL000077
Spot 1     0.00154094     0.00129942
Spot 2     0.00175608     0.00130273
Spot 1     0.00154090     0.00129954
Spot 2     0.00175608     0.00130273
Spot 1     0.00154096     0.00129942
Spot 2     0.00175585     0.00130231
20MABNDM000168_PR001
Spot 1     0.00080598     0.00161676
Spot 2     0.00070530     0.00161990
Spot 1     0.00080586     0.00161677
Spot 2     0.00070505     0.00161985
Spot 1     0.00080576     0.00161690
Spot 2     0.00070519     0.00161964
20MABNDL000196_PR036
Spot 1     0.00095166     0.00163578
Spot 2     0.00111628     0.00163553
Spot 1     0.00095166     0.00163589
Spot 2     0.00111606     0.00163563
Spot 1     0.00095165     0.00163588
Spot 2     0.00111603     0.00163576
20MABNDL000196_PR037
Spot 1     0.00246983     0.00117127
Spot 2     0.00262503     0.00116921
Spot 1     0.00247010     0.00117132
Spot 2     0.00262497     0.00116916
Spot 1     0.00246983     0.00117121
Spot 2     0.00262505     0.00116917
20MABNDL000196_20MABNDM000020
Spot 1     0.00192564     0.00104154
Spot 2     0.00170408     0.00104660
Spot 1     0.00192534     0.00104182
Spot 2     0.00170433     0.00104672
Spot 1     0.00192551     0.00104153
Spot 2     0.00170414     0.00104677
20MABNDL000196_PR012
Spot 1     0.00265253     0.00134264
Spot 2     0.00272543     0.00138853
Spot 1     0.00265256     0.00134244
Spot 2     0.00272581     0.00138838
Spot 1     0.00265244     0.00134286
Spot 2     0.00272567     0.00138830
20MABNDA000318_PR004
Spot 1     0.00192566     0.00162691
Spot 2     0.00214336     0.00162595
Spot 1     0.00192547     0.00162681
Spot 2     0.00214329     0.00162604
Spot 1     0.00192550     0.00162674
Spot 2     0.00214344     0.00162606
20MABNDA000334_PR005
Spot 1     0.00247255     0.00158885
Spot 2     0.00219220     0.00158941
Spot 1     0.00247247     0.00158892
Spot 2     0.00219236     0.00158956
Spot 1     0.00247249     0.00158891
Spot 2     0.00219228     0.00158947
20MABNDB000317_PR015
Spot 1     0.00170523     0.00158551
Spot 2     0.00148486     0.00159264
Spot 1     0.00170518     0.00158543
Spot 2     0.00148514     0.00159264
Spot 1     0.00170547     0.00158559
Spot 2     0.00148491     0.00159237
20MABNDB000146_PR016
Spot 1     0.00144457     0.00132533
Spot 2     0.00172065     0.00132801
Spot 1     0.00144444     0.00132546
Spot 2     0.00172074     0.00132799
Spot 1     0.00144452     0.00132539
Spot 2     0.00172095     0.00132810
20MABNDB000135_PR027
Spot 1     0.00189123     0.00091185
Spot 2     0.00210941     0.00091382
Spot 1     0.00189122     0.00091184
Spot 2     0.00210966     0.00091382
Spot 1     0.00189145     0.00091184
Spot 2     0.00210928     0.00091404
20MABNDB000126_PR028
Spot 1     0.00164413     0.00201025
Spot 2     0.00192682     0.00201182
Spot 1     0.00164429     0.00201037
Spot 2     0.00192671     0.00201181
Spot 1     0.00164411     0.00201028
Spot 2     0.00192683     0.00201179
20MABNDA000272_PR038
Spot 1     0.00192174     0.00094972
Spot 2     0.00170066     0.00094861
Spot 1     0.00192170     0.00094967
Spot 2     0.00170073     0.00094863
Spot 1     0.00192148     0.00095003
Spot 2     0.00170066     0.00094868
20MABNDA000003_PR039
Spot 1     0.00199970     0.00192740
Spot 2     0.00227790     0.00192827
Spot 1     0.00199965     0.00192750
Spot 2     0.00227804     0.00192804
Spot 1     0.00199986     0.00192763
Spot 2     0.00227796     0.00192843
20MABNDA000196_PR006
Spot 1     0.00199933     0.00072412
Spot 2     0.00163279     0.00072202
Spot 1     0.00199929     0.00072420
Spot 2     0.00163274     0.00072193
Spot 1     0.00199906     0.00072435
Spot 2     0.00163275     0.00072205
20MABNDA000324_PR007
Spot 1     0.00194201     0.00121572
Spot 2     0.00173576     0.00122139
Spot 1     0.00194209     0.00121579
Spot 2     0.00173588     0.00122131
Spot 1     0.00194181     0.00121561
Spot 2     0.00173584     0.00122110
20MABNDB000001_PR017
Spot 1     0.00190082     0.00043626
Spot 2     0.00226882     0.00044513
Spot 1     0.00190087     0.00043635
Spot 2     0.00226882     0.00044513
Spot 1     0.00190080     0.00043634
Spot 2     0.00226908     0.00044500
20MABNDB000260_PR019
Spot 1     0.00191579     0.00150897
Spot 2     0.00211895     0.00150756
Spot 1     0.00191587     0.00150861
Spot 2     0.00211880     0.00150820
Spot 1     0.00191553     0.00150872
Spot 2     0.00211875     0.00150792
20MABNDB000212_PR029
Spot 1     0.00222729     0.00069936
Spot 2     0.00186702     0.00069911
Spot 1     0.00222738     0.00069921
Spot 2     0.00186722     0.00069907
Spot 1     0.00222732     0.00069935
Spot 2     0.00186702     0.00069903
20MABNDB000128_PR030
Spot 1     0.00190500     0.00200053
Spot 2     0.00211044     0.00199478
Spot 1     0.00190505     0.00200056
Spot 2     0.00211063     0.00199469
Spot 1     0.00190500     0.00200052
Spot 2     0.00211063     0.00199514
20MABNDA000444_PR040
Spot 1     0.00074655     0.00035289
Spot 2     0.00111361     0.00035000
Spot 1     0.00074661     0.00035306
Spot 2     0.00111379     0.00034914
Spot 1     0.00074677     0.00035266
Spot 2     0.00111345     0.00034979
20MABNDA000053_PR041
Spot 1     0.00165712     0.00199443
Spot 2     0.00144620     0.00199231
Spot 1     0.00165753     0.00199417
Spot 2     0.00144740     0.00199125
Spot 1     0.00165730     0.00199424
Spot 2     0.00144650     0.00199266
20MABNDA000188_PR008
Spot 1     0.00297500     0.00011500
Spot 2     0.00297500     0.00011500
Spot 1     0.00266500     0.00126500
Spot 2     0.00266500     0.00126500
Spot 1     0.00297500     0.00011500
Spot 2     0.00297500     0.00011500
20MABNDA000188_PR018
Spot 1     0.00169415     0.00173676
Spot 2     0.00122641     0.00173324
Spot 1     0.00169417     0.00173673
Spot 2     0.00122652     0.00173311
Spot 1     0.00169409     0.00173688
Spot 2     0.00122657     0.00173313
20MABNDA000039_PR009
Spot 1     0.00066335     0.00117985
Spot 2     0.00061589     0.00118369
Spot 1     0.00066358     0.00117900
Spot 2     0.00061600     0.00118377
Spot 1     0.00066348     0.00117970
Spot 2     0.00061597     0.00118398
20MABNDA000039_PR011
Spot 1     0.00276895     0.00029008
Spot 2     0.00259312     0.00028449
Spot 1     0.00276889     0.00029005
Spot 2     0.00259304     0.00028470
Spot 1     0.00276905     0.00028995
Spot 2     0.00259297     0.00028483
20MABNDB000155_PR020
Spot 1     0.00062159     0.00113490
Spot 2     0.00068740     0.00113090
Spot 1     0.00062178     0.00113558
Spot 2     0.00068715     0.00113124
Spot 1     0.00062231     0.00113495
Spot 2     0.00068726     0.00113106
20MABNDB000155_PR022
Spot 1     0.00213535     0.00142694
Spot 2     0.00260872     0.00142163
Spot 1     0.00213525     0.00142689
Spot 2     0.00260870     0.00142164
Spot 1     0.00213540     0.00142680
Spot 2     0.00260868     0.00142170
20MABNDB000010_PR021
Spot 1     0.00287024     0.00114824
Spot 2     0.00329500     0.00013500
Spot 1     0.00287056     0.00114838
Spot 2     0.00329500     0.00013500
20MABNDB000010_PR023
Spot 1     0.00131606     0.00030121
Spot 2     0.00149153     0.00029911
Spot 1     0.00131633     0.00030133
Spot 2     0.00149143     0.00029898
20MABNDB000069_PR031
Spot 1     0.00028200     0.00140160
Spot 2     0.00035477     0.00140159
Spot 1     0.00028225     0.00140196
Spot 2     0.00035343     0.00140145
20MABNDB000069_PR033
Spot 1     0.00182507     0.00206553
Spot 2     0.00229539     0.00208584
Spot 1     0.00182506     0.00206550
Spot 2     0.00229540     0.00208581
20MABNDB000131_PR032
Spot 1     0.00277383     0.00107486
Spot 2     0.00283357     0.00107818
Spot 1     0.00277391     0.00107483
Spot 2     0.00283341     0.00107876
20MABNDB000131_PR034
Spot 1     0.00091370     0.00032337
Spot 2     0.00108972     0.00032346
Spot 1     0.00091358     0.00032358
Spot 2     0.00108985     0.00032334
20MABNDA000208_PR042
Spot 1     0.00263722     0.00044889
Spot 2     0.00289500     0.00053500
Spot 1     0.00263674     0.00045022
Spot 2     0.00279300     0.00056100
20MABNDA000208_PR046
Spot 1     0.00145582     0.00224049
Spot 2     0.00098535     0.00223326
Spot 1     0.00145602     0.00223990
Spot 2     0.00101606     0.00220413
20MABNDA000035_PR044
Spot 1     0.00073725     0.00124984
Spot 2     0.00067918     0.00124440
Spot 1     0.00073715     0.00124967
Spot 2     0.00067866     0.00124453
20MABNDA000035_PR045
Spot 1     0.00253642     0.00045735
Spot 2     0.00235956     0.00045596
Spot 1     0.00253607     0.00045768
Spot 2     0.00235936     0.00045589


****************************************************************coordonnees images transformees dans le repere MOUNT************************************************************************* 
20MABNDL000077_PR002
Spot 1     0.01158509     0.03451311    -0.07463200
Spot 2     0.01158509     0.03451311    -0.07463200
Spot 1     0.01158509     0.03451311    -0.07463200
Spot 2     0.01192151     0.03413986    -0.07463200
Spot 1     0.01228557     0.03556983    -0.07463200
Spot 2     0.01158509     0.03451311    -0.07463200
20MABNDL000077_PR003
Spot 1     0.01245651     0.03555712    -0.07463200
Spot 2     0.01260600     0.03555760    -0.07463200
Spot 1     0.01245690     0.03555705    -0.07463200
Spot 2     0.01260598     0.03555738    -0.07463200
Spot 1     0.01245666     0.03555723    -0.07463200
Spot 2     0.01260616     0.03555757    -0.07463200
20MABNDL000077_20MABNDM000168
Spot 1    -0.01259230     0.03524680    -0.00695400
Spot 2    -0.01157915     0.03417830    -0.00695400
Spot 1    -0.01259235     0.03524670    -0.00695400
Spot 2    -0.01157915     0.03417830    -0.00695400
Spot 1    -0.01259223     0.03524701    -0.00695400
Spot 2    -0.01157915     0.03417830    -0.00695400
20MABNDL000077_PR024
Spot 1    -0.01338619     0.03550205    -0.00695400
Spot 2    -0.01348520     0.03550897    -0.00695400
Spot 1    -0.01338625     0.03550216    -0.00695400
Spot 2    -0.01348519     0.03550892    -0.00695400
Spot 1    -0.01338625     0.03550207    -0.00695400
Spot 2    -0.01348534     0.03550880    -0.00695400
20MABNDM000020_PR013
Spot 1    -0.01273212    -0.03548517    -0.00523500
Spot 2    -0.01288500    -0.03549458    -0.00523500
Spot 1    -0.01273202    -0.03548500    -0.00523500
Spot 2    -0.01288591    -0.03549480    -0.00523500
Spot 1    -0.01273173    -0.03548440    -0.00523500
Spot 2    -0.01288507    -0.03549587    -0.00523500
20MABNDM000020_PR014
Spot 1    -0.01169798    -0.03562492    -0.00523500
Spot 2    -0.01185997    -0.03563334    -0.00523500
Spot 1    -0.01169790    -0.03562462    -0.00523500
Spot 2    -0.01186007    -0.03563278    -0.00523500
Spot 1    -0.01169940    -0.03562555    -0.00523500
Spot 2    -0.01185960    -0.03563354    -0.00523500
20MABNDM000020_20MABNDL000196
Spot 1     0.01270907    -0.03514725    -0.07583800
Spot 2     0.01238113    -0.03407361    -0.07583800
Spot 1     0.01270903    -0.03514712    -0.07583800
Spot 2     0.01238113    -0.03407361    -0.07583800
Spot 1     0.01270927    -0.03514704    -0.07583800
Spot 2     0.01148115    -0.03422373    -0.07583800
20MABNDM000020_PR035
Spot 1     0.01342712    -0.03546798    -0.07583800
Spot 2     0.01350224    -0.03549788    -0.07583800
Spot 1     0.01342695    -0.03546788    -0.07583800
Spot 2     0.01350236    -0.03549784    -0.07583800
Spot 1     0.01342716    -0.03546787    -0.07583800
Spot 2     0.01350239    -0.03549813    -0.07583800
20MABNDM000168_PR025
Spot 1    -0.01270254    -0.03454993    -0.00532900
Spot 2    -0.01391326    -0.03438512    -0.00532900
Spot 1    -0.01270254    -0.03454993    -0.00532900
Spot 2    -0.01270254    -0.03454993    -0.00532900
Spot 1    -0.01270254    -0.03454993    -0.00532900
Spot 2    -0.01270254    -0.03454993    -0.00532900
20MABNDM000168_PR026
Spot 1    -0.01174191    -0.03576152    -0.00532900
Spot 2    -0.01190299    -0.03575849    -0.00532900
Spot 1    -0.01174187    -0.03576173    -0.00532900
Spot 2    -0.01190291    -0.03575853    -0.00532900
Spot 1    -0.01174199    -0.03576168    -0.00532900
Spot 2    -0.01190291    -0.03575847    -0.00532900
20MABNDM000168_20MABNDL000077
Spot 1     0.01288453    -0.03530006    -0.07445100
Spot 2     0.01266937    -0.03530022    -0.07445100
Spot 1     0.01288457    -0.03530018    -0.07445100
Spot 2     0.01266937    -0.03530022    -0.07445100
Spot 1     0.01288451    -0.03530006    -0.07445100
Spot 2     0.01266960    -0.03529981    -0.07445100
20MABNDM000168_PR001
Spot 1     0.01361477    -0.03562812    -0.07445100
Spot 2     0.01371539    -0.03563273    -0.07445100
Spot 1     0.01361489    -0.03562813    -0.07445100
Spot 2     0.01371564    -0.03563269    -0.07445100
Spot 1     0.01361499    -0.03562826    -0.07445100
Spot 2     0.01371551    -0.03563247    -0.07445100
20MABNDL000196_PR036
Spot 1     0.01193159     0.03582449    -0.07483600
Spot 2     0.01209621     0.03582458    -0.07483600
Spot 1     0.01193159     0.03582460    -0.07483600
Spot 2     0.01209599     0.03582468    -0.07483600
Spot 1     0.01193158     0.03582459    -0.07483600
Spot 2     0.01209596     0.03582481    -0.07483600
20MABNDL000196_PR037
Spot 1     0.01345073     0.03536315    -0.07483600
Spot 2     0.01360593     0.03536141    -0.07483600
Spot 1     0.01345100     0.03536320    -0.07483600
Spot 2     0.01360587     0.03536136    -0.07483600
Spot 1     0.01345073     0.03536309    -0.07483600
Spot 2     0.01360595     0.03536137    -0.07483600
20MABNDL000196_20MABNDM000020
Spot 1    -0.01274969     0.03531275    -0.00611000
Spot 2    -0.01252828     0.03532226    -0.00611000
Spot 1    -0.01274940     0.03531303    -0.00611000
Spot 2    -0.01252853     0.03532238    -0.00611000
Spot 1    -0.01274956     0.03531274    -0.00611000
Spot 2    -0.01252834     0.03532243    -0.00611000
20MABNDL000196_PR012
Spot 1    -0.01348249     0.03559916    -0.00611000
Spot 2    -0.01355630     0.03564358    -0.00611000
Spot 1    -0.01348252     0.03559896    -0.00611000
Spot 2    -0.01355668     0.03564342    -0.00611000
Spot 1    -0.01348241     0.03559938    -0.00611000
Spot 2    -0.01355654     0.03564334    -0.00611000
20MABNDA000318_PR004
Spot 1    -0.01264548     0.01246897    -0.07310600
Spot 2    -0.01286318     0.01246929    -0.07310600
Spot 1    -0.01264529     0.01246907    -0.07310600
Spot 2    -0.01286311     0.01246920    -0.07310600
Spot 1    -0.01264532     0.01246914    -0.07310600
Spot 2    -0.01286326     0.01246918    -0.07310600
20MABNDA000334_PR005
Spot 1    -0.01311566     0.01253954    -0.07324100
Spot 2    -0.01283531     0.01253872    -0.07324100
Spot 1    -0.01311558     0.01253947    -0.07324100
Spot 2    -0.01283547     0.01253857    -0.07324100
Spot 1    -0.01311560     0.01253948    -0.07324100
Spot 2    -0.01283539     0.01253866    -0.07324100
20MABNDB000317_PR015
Spot 1    -0.01244891    -0.01251000    -0.07326100
Spot 2    -0.01266934    -0.01250544    -0.07326100
Spot 1    -0.01244896    -0.01251008    -0.07326100
Spot 2    -0.01266906    -0.01250544    -0.07326100
Spot 1    -0.01244867    -0.01250992    -0.07326100
Spot 2    -0.01266929    -0.01250571    -0.07326100
20MABNDB000146_PR016
Spot 1    -0.01276378    -0.01246828    -0.07450500
Spot 2    -0.01248770    -0.01246499    -0.07450500
Spot 1    -0.01276391    -0.01246815    -0.07450500
Spot 2    -0.01248761    -0.01246501    -0.07450500
Spot 1    -0.01276383    -0.01246822    -0.07450500
Spot 2    -0.01248740    -0.01246490    -0.07450500
20MABNDB000135_PR027
Spot 1    -0.01251349    -0.01320117    -0.07464700
Spot 2    -0.01229530    -0.01320163    -0.07464700
Spot 1    -0.01251350    -0.01320118    -0.07464700
Spot 2    -0.01229505    -0.01320164    -0.07464700
Spot 1    -0.01251327    -0.01320119    -0.07464700
Spot 2    -0.01229543    -0.01320141    -0.07464700
20MABNDB000126_PR028
Spot 1    -0.01253541    -0.01217192    -0.07500400
Spot 2    -0.01225273    -0.01216884    -0.07500400
Spot 1    -0.01253525    -0.01217180    -0.07500400
Spot 2    -0.01225284    -0.01216886    -0.07500400
Spot 1    -0.01253543    -0.01217189    -0.07500400
Spot 2    -0.01225272    -0.01216887    -0.07500400
20MABNDA000272_PR038
Spot 1    -0.01275739     0.01316175    -0.07417900
Spot 2    -0.01253631     0.01316246    -0.07417900
Spot 1    -0.01275735     0.01316180    -0.07417900
Spot 2    -0.01253638     0.01316244    -0.07417900
Spot 1    -0.01275713     0.01316143    -0.07417900
Spot 2    -0.01253631     0.01316239    -0.07417900
20MABNDA000003_PR039
Spot 1    -0.01280079     0.01212486    -0.07373400
Spot 2    -0.01307899     0.01212470    -0.07373400
Spot 1    -0.01280074     0.01212476    -0.07373400
Spot 2    -0.01307913     0.01212493    -0.07373400
Spot 1    -0.01280095     0.01212463    -0.07373400
Spot 2    -0.01307905     0.01212454    -0.07373400
20MABNDA000196_PR006
Spot 1    -0.01295397     0.01325428    -0.07967100
Spot 2    -0.01258743     0.01325166    -0.07967100
Spot 1    -0.01295393     0.01325419    -0.07967100
Spot 2    -0.01258738     0.01325175    -0.07967100
Spot 1    -0.01295370     0.01325404    -0.07967100
Spot 2    -0.01258739     0.01325163    -0.07967100
20MABNDA000324_PR007
Spot 1    -0.01254770     0.01280590    -0.07446800
Spot 2    -0.01234141     0.01280184    -0.07446800
Spot 1    -0.01254777     0.01280583    -0.07446800
Spot 2    -0.01234153     0.01280192    -0.07446800
Spot 1    -0.01254750     0.01280601    -0.07446800
Spot 2    -0.01234149     0.01280213    -0.07446800
20MABNDB000001_PR017
Spot 1    -0.01228757    -0.01355341    -0.07418400
Spot 2    -0.01191950    -0.01354844    -0.07418400
Spot 1    -0.01228752    -0.01355332    -0.07418400
Spot 2    -0.01191950    -0.01354844    -0.07418400
Spot 1    -0.01228759    -0.01355333    -0.07418400
Spot 2    -0.01191924    -0.01354857    -0.07418400
20MABNDB000260_PR019
Spot 1    -0.01241568    -0.01239371    -0.07492700
Spot 2    -0.01221253    -0.01239096    -0.07492700
Spot 1    -0.01241559    -0.01239407    -0.07492700
Spot 2    -0.01221269    -0.01239032    -0.07492700
Spot 1    -0.01241593    -0.01239397    -0.07492700
Spot 2    -0.01221274    -0.01239060    -0.07492700
20MABNDB000212_PR029
Spot 1    -0.01186057    -0.01328184    -0.07390500
Spot 2    -0.01222082    -0.01327824    -0.07390500
Spot 1    -0.01186048    -0.01328199    -0.07390500
Spot 2    -0.01222062    -0.01327829    -0.07390500
Spot 1    -0.01186054    -0.01328185    -0.07390500
Spot 2    -0.01222082    -0.01327832    -0.07390500
20MABNDB000128_PR030
Spot 1    -0.01245012    -0.01221677    -0.07353400
Spot 2    -0.01224466    -0.01222181    -0.07353400
Spot 1    -0.01245007    -0.01221674    -0.07353400
Spot 2    -0.01224447    -0.01222190    -0.07353400
Spot 1    -0.01245012    -0.01221678    -0.07353400
Spot 2    -0.01224447    -0.01222145    -0.07353400
20MABNDA000444_PR040
Spot 1    -0.01168639     0.01367691    -0.07412000
Spot 2    -0.01205346     0.01367514    -0.07412000
Spot 1    -0.01168645     0.01367674    -0.07412000
Spot 2    -0.01205365     0.01367600    -0.07412000
Spot 1    -0.01168661     0.01367713    -0.07412000
Spot 2    -0.01205330     0.01367535    -0.07412000
20MABNDA000053_PR041
Spot 1    -0.01241386     0.01211611    -0.07430100
Spot 2    -0.01220294     0.01211411    -0.07430100
Spot 1    -0.01241426     0.01211638    -0.07430100
Spot 2    -0.01220411     0.01211520    -0.07430100
Spot 1    -0.01241403     0.01211630    -0.07430100
Spot 2    -0.01220324     0.01211377    -0.07430100
20MABNDA000188_PR008
Spot 1    -0.01399107     0.01394961    -0.07502000
Spot 2    -0.01399107     0.01394961    -0.07502000
Spot 1    -0.01369093     0.01279700    -0.07502000
Spot 2    -0.01369093     0.01279700    -0.07502000
Spot 1    -0.01399107     0.01394961    -0.07502000
Spot 2    -0.01399107     0.01394961    -0.07502000
20MABNDA000188_PR018
Spot 1    -0.01272415     0.01231694    -0.07502000
Spot 2    -0.01225640     0.01231646    -0.07502000
Spot 1    -0.01272417     0.01231697    -0.07502000
Spot 2    -0.01225651     0.01231659    -0.07502000
Spot 1    -0.01272409     0.01231682    -0.07502000
Spot 2    -0.01225656     0.01231657    -0.07502000
20MABNDA000039_PR009
Spot 1    -0.01162550     0.01306428    -0.07444800
Spot 2    -0.01157806     0.01306024    -0.07444800
Spot 1    -0.01162573     0.01306513    -0.07444800
Spot 2    -0.01157817     0.01306016    -0.07444800
Spot 1    -0.01162563     0.01306443    -0.07444800
Spot 2    -0.01157814     0.01305995    -0.07444800
20MABNDA000039_PR011
Spot 1    -0.01372723     0.01396315    -0.07444800
Spot 2    -0.01355138     0.01396798    -0.07444800
Spot 1    -0.01372717     0.01396318    -0.07444800
Spot 2    -0.01355130     0.01396777    -0.07444800
Spot 1    -0.01372733     0.01396328    -0.07444800
Spot 2    -0.01355123     0.01396764    -0.07444800
20MABNDB000155_PR020
Spot 1    -0.01364464    -0.01312245    -0.07501700
Spot 2    -0.01357878    -0.01312555    -0.07501700
Spot 1    -0.01364446    -0.01312176    -0.07501700
Spot 2    -0.01357904    -0.01312521    -0.07501700
Spot 1    -0.01364392    -0.01312239    -0.07501700
Spot 2    -0.01357892    -0.01312539    -0.07501700
20MABNDB000155_PR022
Spot 1    -0.01213502    -0.01280971    -0.07501700
Spot 2    -0.01166162    -0.01280854    -0.07501700
Spot 1    -0.01213512    -0.01280976    -0.07501700
Spot 2    -0.01166164    -0.01280853    -0.07501700
Spot 1    -0.01213497    -0.01280985    -0.07501700
Spot 2    -0.01166166    -0.01280847    -0.07501700
20MABNDB000010_PR021
Spot 1    -0.01158069    -0.01293024    -0.07358200
Spot 2    -0.01113882    -0.01393614    -0.07358200
Spot 1    -0.01158037    -0.01293010    -0.07358200
Spot 2    -0.01113882    -0.01393614    -0.07358200
20MABNDB000010_PR023
Spot 1    -0.01312029    -0.01380348    -0.07358200
Spot 2    -0.01294481    -0.01380261    -0.07358200
Spot 1    -0.01312003    -0.01380336    -0.07358200
Spot 2    -0.01294491    -0.01380274    -0.07358200
20MABNDB000069_PR031
Spot 1    -0.01359439    -0.01286597    -0.07388500
Spot 2    -0.01352168    -0.01286899    -0.07388500
Spot 1    -0.01359413    -0.01286563    -0.07388500
Spot 2    -0.01352303    -0.01286907    -0.07388500
20MABNDB000069_PR033
Spot 1    -0.01202524    -0.01226629    -0.07388500
Spot 2    -0.01155448    -0.01226540    -0.07388500
Spot 1    -0.01202525    -0.01226632    -0.07388500
Spot 2    -0.01155447    -0.01226543    -0.07388500
20MABNDB000131_PR032
Spot 1    -0.01144631    -0.01303991    -0.07533000
Spot 2    -0.01138658    -0.01303629    -0.07533000
Spot 1    -0.01144623    -0.01303994    -0.07533000
Spot 2    -0.01138675    -0.01303571    -0.07533000
20MABNDB000131_PR034
Spot 1    -0.01330263    -0.01380076    -0.07533000
Spot 2    -0.01312661    -0.01379978    -0.07533000
Spot 1    -0.01330275    -0.01380055    -0.07533000
Spot 2    -0.01312648    -0.01379990    -0.07533000
20MABNDA000208_PR042
Spot 1    -0.01350838     0.01354750    -0.07273700
Spot 2    -0.01376609     0.01346116    -0.07273700
Spot 1    -0.01350790     0.01354617    -0.07273700
Spot 2    -0.01366406     0.01343525    -0.07273700
20MABNDA000208_PR046
Spot 1    -0.01232541     0.01175694    -0.07273700
Spot 2    -0.01185495     0.01176458    -0.07273700
Spot 1    -0.01232561     0.01175753    -0.07273700
Spot 2    -0.01188568     0.01179368    -0.07273700
20MABNDA000035_PR044
Spot 1    -0.01157185     0.01300740    -0.07483200
Spot 2    -0.01151374     0.01301243    -0.07483200
Spot 1    -0.01157175     0.01300757    -0.07483200
Spot 2    -0.01151322     0.01301229    -0.07483200
20MABNDA000035_PR045
Spot 1    -0.01336533     0.01381267    -0.07483200
Spot 2    -0.01318847     0.01381280    -0.07483200
Spot 1    -0.01336499     0.01381234    -0.07483200
Spot 2    -0.01318827     0.01381287    -0.07483200


*****************************************************************coordonnees du prisme dans le repere MOUNT********************************************************************************** 
20MABNDL000077_PR002
    0.06737348     0.07371713     3.70652628
    0.05906468     0.08293577     3.70653439
    0.05007658     0.04761902     3.70691442
20MABNDL000077_PR003
    0.02104232     0.02142488     3.89601803
    0.02103252     0.02143224     3.89601803
    0.02103451     0.02142288     3.89601803
20MABNDL000077_20MABNDM000168
   -0.05597682     0.07580709    -5.46843529
   -0.05597506     0.07581073    -5.46843529
   -0.05597929     0.07579985    -5.46843624
20MABNDL000077_PR024
    0.04583692     0.01714142    -5.89639664
    0.04583889     0.01713910    -5.89639664
    0.04584465     0.01714735    -5.89639664
20MABNDM000020_PR013
   -0.00366507    -0.01816091    -3.80243397
   -0.00364524    -0.01815972    -3.80243397
   -0.00367305    -0.01814793    -3.80243397
20MABNDM000020_PR014
   -0.06545659    -0.00498062    -4.74841118
   -0.06545569    -0.00500736    -4.74841118
   -0.06542382    -0.00495498    -4.74841118
20MABNDM000020_20MABNDL000196
    0.02685955    -0.07122229     5.39469719
    0.02686098    -0.07122695     5.39469719
    0.05909530    -0.06585041     5.39454842
20MABNDM000020_PR035
   -0.04293289    -0.00665257     5.80094957
   -0.04293096    -0.00665797     5.80094957
   -0.04294020    -0.00664718     5.80094910
20MABNDM000168_PR025
    0.01820450    -0.07889126    -3.78842115
   -0.01172818    -0.07481869    -3.78859472
   -0.01172818    -0.07481869    -3.78859472
20MABNDM000168_PR026
   -0.05749365    -0.01386936    -3.98429394
   -0.05749680    -0.01386286    -3.98429394
   -0.05749367    -0.01386571    -3.98429394
20MABNDM000168_20MABNDL000077
    0.01147019    -0.03885687     5.38884640
    0.01146881    -0.03885254     5.38884640
    0.01146242    -0.03887185     5.38884640
20MABNDM000168_PR001
   -0.05748554    -0.01347177     5.81470490
   -0.05749991    -0.01347312     5.81470394
   -0.05749840    -0.01347624     5.81470394
20MABNDL000196_PR036
    0.05108761     0.00612136     3.68777633
    0.05109302     0.00611622     3.68777585
    0.05109401     0.00611328     3.68777585
20MABNDL000196_PR037
   -0.02518680     0.02843869     3.88381219
   -0.02519222     0.02843868     3.88381219
   -0.02518732     0.02844127     3.88381219
20MABNDL000196_20MABNDM000020
   -0.01572539     0.03789542    -5.47473907
   -0.01572690     0.03788102    -5.47473907
   -0.01572779     0.03788963    -5.47473907
20MABNDL000196_PR012
    0.05245968     0.01442673    -5.91537046
    0.05247533     0.01444065    -5.91537046
    0.05246550     0.01442724    -5.91537046
20MABNDA000318_PR004
   -0.00854456     0.03840661     2.74965906
   -0.00854933     0.03840642     2.74965906
   -0.00854602     0.03840551     2.74965906
20MABNDA000334_PR005
   -0.00428801     0.03177389     2.14977121
   -0.00428686     0.03177703     2.14977121
   -0.00428772     0.03177560     2.14977121
20MABNDB000317_PR015
   -0.01728432    -0.03371205     2.75129247
   -0.01728853    -0.03371064     2.75129247
   -0.01728964    -0.03370865     2.75129247
20MABNDB000146_PR016
   -0.01344370    -0.03159213     2.15201473
   -0.01344312    -0.03159371     2.15201473
   -0.01344729    -0.03159430     2.15201473
20MABNDB000135_PR027
   -0.02100980    -0.00970396     2.74937105
   -0.02101420    -0.00970373     2.74937105
   -0.02101149    -0.00970779     2.74937105
20MABNDB000126_PR028
   -0.02032695    -0.03899257     2.14679480
   -0.02032766    -0.03899414     2.14679480
   -0.02032681    -0.03899257     2.14679480
20MABNDA000272_PR038
   -0.01327155     0.01074152     2.74965858
   -0.01327100     0.01074097     2.74965858
   -0.01327630     0.01074849     2.74965858
20MABNDA000003_PR039
   -0.00596407     0.04127528     2.14891529
   -0.00596279     0.04127342     2.14891529
   -0.00596092     0.04128085     2.14891481
20MABNDA000196_PR006
   -0.01011943     0.00981926     1.64206314
   -0.01012041     0.00981916     1.64206314
   -0.01012278     0.00982214     1.64206314
20MABNDA000324_PR007
   -0.02549913     0.02799058     2.95549011
   -0.02549519     0.02799041     2.95549011
   -0.02550143     0.02798269     2.95549011
20MABNDB000001_PR017
   -0.02443773    -0.00277931     1.64035726
   -0.02443829    -0.00278029     1.64035726
   -0.02444034    -0.00277874     1.64035702
20MABNDB000260_PR019
   -0.02408640    -0.03856760     2.95627451
   -0.02408491    -0.03857308     2.95627451
   -0.02407730    -0.03856957     2.95627451
20MABNDB000212_PR029
   -0.02526423    -0.00842792     1.64223886
   -0.02526739    -0.00842580     1.64223886
   -0.02526455    -0.00842693     1.64223886
20MABNDB000128_PR030
   -0.01948380    -0.04677214     2.95496297
   -0.01948853    -0.04677098     2.95496297
   -0.01948752    -0.04677904     2.95496297
20MABNDA000444_PR040
   -0.03020989     0.00088277     1.64490855
   -0.03020717     0.00087525     1.64490855
   -0.03020917     0.00087796     1.64490855
20MABNDA000053_PR041
   -0.02653819     0.05122614     2.95450258
   -0.02650709     0.05119962     2.95450282
   -0.02652871     0.05122910     2.95450258
20MABNDA000188_PR008
    0.14616936    -0.09611703     9.20304298
    0.10933864     0.04538462     9.20419693
    0.14616936    -0.09611703     9.20304298
20MABNDA000188_PR018
   -0.01623285     0.02581958     1.28358245
   -0.01623175     0.02581820     1.28358245
   -0.01623199     0.02581966     1.28358245
20MABNDA000039_PR009
   -0.17125425     0.02554553    11.00701427
   -0.17122966     0.02548911    11.00701523
   -0.17123885     0.02555570    11.00701427
20MABNDA000039_PR011
    0.03081367    -0.02419070     3.43347406
    0.03081049    -0.02418658     3.43347406
    0.03081255    -0.02418590     3.43347406
20MABNDB000155_PR020
    0.10187379    -0.00956452     9.20028687
    0.10187832    -0.00962709     9.20028687
    0.10183837    -0.00957790     9.20028687
20MABNDB000155_PR022
   -0.02598958    -0.01801039     1.28070259
   -0.02598856    -0.01801003     1.28070259
   -0.02598968    -0.01800979     1.28070259
20MABNDB000010_PR021
   -0.20484109     0.04119549    11.00636768
   -0.20486444     0.04118480    11.00636768
20MABNDB000010_PR023
    0.00411609     0.02080842     3.43376708
    0.00411219     0.02080858     3.43376708
20MABNDB000069_PR031
    0.10241930    -0.03829296     9.20356178
    0.10248552    -0.03830920     9.20356083
20MABNDB000069_PR033
   -0.02683857    -0.02688878     1.28394091
   -0.02683855    -0.02688827     1.28394091
20MABNDB000131_PR032
   -0.18747434    -0.02936697    11.00642967
   -0.18746831    -0.02940713    11.00642967
20MABNDB000131_PR034
    0.01480511     0.01652620     3.43337440
    0.01480490     0.01652415     3.43337440
20MABNDA000208_PR042
    0.10065521    -0.04196332     9.20173168
    0.09436470    -0.04029187     9.20181751
20MABNDA000208_PR046
   -0.02333923     0.03520717     1.28207278
   -0.02307495     0.03495358     1.28207946
20MABNDA000035_PR044
   -0.18021002     0.02569826    11.00801945
   -0.18025538     0.02569566    11.00801945
20MABNDA000035_PR045
    0.01419473    -0.01960794     3.43483400
    0.01418222    -0.01960191     3.43483400


*****************************************************************coordonnees du prisme dans le repere ATLAS********************************************************************************** 
20MABNDL000077_PR002 0.00000000
    2.78332901    -3.67712641     6.48587990
    2.77410769    -3.68543220     6.48588657
    2.80942202    -3.69443202     6.48622084
20MABNDL000077_PR003 0.00000000
    2.83579230    -3.72370791     6.67526293
    2.83578491    -3.72371769     6.67526293
    2.83579445    -3.72371578     6.67526293
20MABNDL000077_20MABNDM000168 0.00000000
    2.77220035    -3.78915596    -2.68922043
    2.77219653    -3.78915429    -2.68922043
    2.77220750    -3.78915834    -2.68922138
20MABNDL000077_PR024 0.00000000
    2.83047867    -3.68683290    -3.11711311
    2.83048105    -3.68683100    -3.11711311
    2.83047271    -3.68682528    -3.11711311
20MABNDM000020_PR013 0.00000000
   -2.83414841    -3.73581886     6.48627663
   -2.83414960    -3.73583889     6.48627663
   -2.83416152    -3.73581100     6.48627663
20MABNDM000020_PR014 0.00000000
   -2.84712052    -3.67474294     7.43230295
   -2.84709382    -3.67474389     7.43230295
   -2.84714627    -3.67477560     7.43230295
20MABNDM000020_20MABNDL000196 0.00000000
   -2.78293705    -3.75936508    -2.71088576
   -2.78293228    -3.75936651    -2.71088576
   -2.78831863    -3.79159927    -2.71076035
20MABNDM000020_PR035 0.00000000
   -2.84756660    -3.68924379    -3.11707187
   -2.84756112    -3.68924594    -3.11707187
   -2.84757209    -3.68923664    -3.11707139
20MABNDM000168_PR025 0.00000000
    2.77434564    -3.76351833    -6.47903633
    2.77842593    -3.73358679    -6.47922134
    2.77842593    -3.73358679    -6.47922134
20MABNDM000168_PR026 0.00000000
    2.83937550    -3.68791008    -6.67494154
    2.83938217    -3.68790698    -6.67494154
    2.83937931    -3.68791008    -6.67494154
20MABNDM000168_20MABNDL000077 0.00000000
    2.81493855    -3.75338221     2.69822550
    2.81494308    -3.75338078     2.69822550
    2.81492376    -3.75337458     2.69822550
20MABNDM000168_PR001 0.00000000
    2.84036779    -3.68427491     3.12405682
    2.84036660    -3.68426061     3.12405586
    2.84036326    -3.68426204     3.12405586
20MABNDL000196_PR036 0.00000000
   -2.84748602    -3.69318676    -6.47909975
   -2.84749126    -3.69318151    -6.47909927
   -2.84749413    -3.69318032    -6.47909927
20MABNDL000196_PR037 0.00000000
   -2.82513738    -3.76963305    -6.67506504
   -2.82513738    -3.76963854    -6.67506504
   -2.82513499    -3.76963377    -6.67506504
20MABNDL000196_20MABNDM000020 0.00000000
   -2.81548285    -3.75146198     2.68347335
   -2.81549740    -3.75146365     2.68347335
   -2.81548882    -3.75146437     2.68347335
20MABNDL000196_PR012 0.00000000
   -2.83897376    -3.68287802     3.12404180
   -2.83895993    -3.68286228     3.12404180
   -2.83897328    -3.68287230     3.12404180
20MABNDA000318_PR004 0.00000000
    2.61445856    -4.19698858     3.83359194
    2.61445379    -4.19698858     3.83359218
    2.61445713    -4.19698858     3.83359313
20MABNDA000334_PR005 0.00000000
    2.61671066    -4.19703197     5.89748716
    2.61671162    -4.19703197     5.89748383
    2.61671090    -4.19703197     5.89748526
20MABNDB000317_PR015 0.00000000
   -2.61132288    -4.19700670     3.83630347
   -2.61131859    -4.19700670     3.83630490
   -2.61131740    -4.19700670     3.83630681
20MABNDB000146_PR016 0.00000000
   -2.61285162    -4.19702291     5.89875793
   -2.61285210    -4.19702291     5.89875650
   -2.61284804    -4.19702291     5.89875603
20MABNDB000135_PR027 0.00000000
    2.60385346    -4.19700432    -3.82565689
    2.60384917    -4.19700432    -3.82565713
    2.60385180    -4.19700432    -3.82565308
20MABNDB000126_PR028 0.00000000
    2.60559034    -4.19702148    -5.89322710
    2.60558963    -4.19702148    -5.89322567
    2.60559058    -4.19702148    -5.89322710
20MABNDA000272_PR038 0.00000000
   -2.61126542    -4.19698286    -3.82774282
   -2.61126590    -4.19698286    -3.82774329
   -2.61126065    -4.19698286    -3.82773590
20MABNDA000003_PR039 0.00000000
   -2.61576700    -4.19702148    -5.89149141
   -2.61576843    -4.19702148    -5.89149332
   -2.61577034    -4.19702196    -5.89148569
20MABNDA000196_PR006 0.00000000
    2.58457994    -4.19496584     6.54777575
    2.58458090    -4.19496584     6.54777575
    2.58458328    -4.19496584     6.54777861
20MABNDA000324_PR007 0.00000000
    2.59381580    -4.13996840     6.94792461
    2.59381962    -4.13996840     6.94792461
    2.59381342    -4.13996840     6.94793224
20MABNDB000001_PR017 0.00000000
   -2.59813905    -4.19506073     6.53810740
   -2.59813952    -4.19506073     6.53810835
   -2.59814167    -4.19506121     6.53810692
20MABNDB000260_PR019 0.00000000
   -2.60467553    -4.13995981     6.94207621
   -2.60467696    -4.13995981     6.94207096
   -2.60468459    -4.13995981     6.94207430
20MABNDB000212_PR029 0.00000000
    2.59894204    -4.19500971    -6.54741573
    2.59894514    -4.19500971    -6.54741383
    2.59894228    -4.19500971    -6.54741478
20MABNDB000128_PR030 0.00000000
    2.60937500    -4.14002705    -6.93134880
    2.60937023    -4.14002705    -6.93135023
    2.60937119    -4.14002705    -6.93134212
20MABNDA000444_PR040 0.00000000
   -2.60538244    -4.19510078    -6.54006290
   -2.60537958    -4.19510078    -6.54005527
   -2.60538173    -4.19510078    -6.54005814
20MABNDA000053_PR041 0.00000000
   -2.59400368    -4.14012814    -6.92668724
   -2.59403491    -4.14012766    -6.92671394
   -2.59401321    -4.14012766    -6.92668438
20MABNDA000188_PR008 0.00000000
    3.55893064     3.84859109     8.10764503
    3.52420664     3.85074425     7.96562338
    3.55893064     3.84859109     8.10764503
20MABNDA000188_PR018 0.00000000
    3.52090406    -4.07059717     7.89762831
    3.52090502    -4.07059717     7.89762974
    3.52090478    -4.07059717     7.89762831
20MABNDA000039_PR009 0.00000000
    3.87542629     3.64747238    12.93683910
    3.87540174     3.64747334    12.93678284
    3.87541080     3.64747238    12.93684959
20MABNDA000039_PR011 0.00000000
    3.66421032    -3.92580175    12.88464642
    3.66421366    -3.92580175    12.88465023
    3.66421151    -3.92580175    12.88465118
20MABNDB000155_PR020 0.00000000
   -3.68052602     3.84882045     7.89730263
   -3.68053055     3.84882045     7.89724016
   -3.68049049     3.84882045     7.89728928
20MABNDB000155_PR022 0.00000000
   -3.53399086    -4.07044125     7.89004898
   -3.53399181    -4.07044125     7.89004946
   -3.53399062    -4.07044125     7.89004946
20MABNDB000010_PR021 0.00000000
   -3.89074421     3.64708376    12.86065960
   -3.89076757     3.64708376    12.86067009
20MABNDB000010_PR023 0.00000000
   -3.68555069    -3.92560983    12.88446712
   -3.68555474    -3.92560983    12.88446712
20MABNDB000069_PR031 0.00000000
    3.68413568     3.84875393    -7.90210962
    3.68420196     3.84875274    -7.90209341
20MABNDB000069_PR033 0.00000000
    3.53346086    -4.07046223    -7.87878275
    3.53346086    -4.07046223    -7.87878323
20MABNDB000131_PR032 0.00000000
    3.86827683     3.64757943   -12.94000912
    3.86827087     3.64757943   -12.94005013
20MABNDB000131_PR034 0.00000000
    3.67298412    -3.92564249   -12.89142132
    3.67298436    -3.92564249   -12.89142323
20MABNDA000208_PR042 0.00000000
   -3.65070295     3.84936833    -7.95343256
   -3.64441323     3.84945035    -7.95175791
20MABNDA000208_PR046 0.00000000
   -3.53242660    -4.07034874    -7.87331104
   -3.53269076    -4.07034206    -7.87356472
20MABNDA000035_PR044 0.00000000
   -3.86945081     3.64757466   -12.93137741
   -3.86949611     3.64757466   -12.93137455
20MABNDA000035_PR045 0.00000000
   -3.67653346    -3.92565322   -12.88677597
   -3.67654610    -3.92565322   -12.88678265


*****************************************************************Rapport********************************************************************************** 
CAM-LBA-US_EBA-US-HO-H         2018.10.31.14.41.33     2.78895291    -3.68566354     6.48599577     0.01495541     0.00706688     0.00015917 0.00000000 VRAI 
CAM-LBA-US_JDA-US-H            2018.10.31.14.41.33     2.83579055    -3.72371380     6.67526293     0.00000408     0.00000423     0.00000000 0.00000000 VRAI 
CAM-LBA-US_CAM-LBC-US          2018.10.31.14.41.33     2.77220146    -3.78915620    -2.68922075     0.00000455     0.00000166     0.00000045 0.00000000 VRAI 
CAM-LBA-US_EBC-US-IP-H         2018.10.31.14.41.33     2.83047748    -3.68682973    -3.11711311     0.00000351     0.00000324     0.00000000 0.00000000 VRAI 
CAM-LBA-USA_EBA-USA-HO-H       2018.10.31.14.41.33    -2.83415318    -3.73582292     6.48627663     0.00000592     0.00001174     0.00000000 0.00000000 VRAI 
CAM-LBA-USA_JDA-USA-H          2018.10.31.14.41.33    -2.84712021    -3.67475414     7.43230295     0.00002141     0.00001518     0.00000000 0.00000000 VRAI 
CAM-LBA-USA_CAM-LBC-USA        2018.10.31.14.41.33    -2.78472932    -3.77011029    -2.71084396     0.00253803     0.01519501     0.00005912 0.00000000 VRAI 
CAM-LBA-USA_EBC-USA-IP-H       2018.10.31.14.41.33    -2.84756660    -3.68924212    -3.11707171     0.00000448     0.00000398     0.00000022 0.00000000 VRAI 
CAM-LBC-US_EBC-US-HO-H         2018.10.31.14.41.33     2.77706583    -3.74356397    -6.47915967     0.00192347     0.01410987     0.00008722 0.00000000 VRAI 
CAM-LBC-US_JDC-US-H            2018.10.31.14.41.33     2.83937899    -3.68790905    -6.67494154     0.00000273     0.00000146     0.00000000 0.00000000 VRAI 
CAM-LBC-US_CAM-LBA-US          2018.10.31.14.41.33     2.81493513    -3.75337919     2.69822550     0.00000825     0.00000331     0.00000000 0.00000000 VRAI 
CAM-LBC-US_EBA-US-IP-H         2018.10.31.14.41.33     2.84036589    -3.68426585     3.12405618     0.00000192     0.00000643     0.00000045 0.00000000 VRAI 
CAM-LBC-USA_EBC-USA-HO-H       2018.10.31.14.41.33    -2.84749047    -3.69318287    -6.47909943     0.00000336     0.00000280     0.00000022 0.00000000 VRAI 
CAM-LBC-USA_JDC-USA-H          2018.10.31.14.41.33    -2.82513658    -3.76963512    -6.67506504     0.00000112     0.00000243     0.00000000 0.00000000 VRAI 
CAM-LBC-USA_CAM-LBA-USA        2018.10.31.14.41.33    -2.81548969    -3.75146333     2.68347335     0.00000597     0.00000100     0.00000000 0.00000000 VRAI 
CAM-LBC-USA_EBA-USA-IP-H       2018.10.31.14.41.33    -2.83896899    -3.68287086     3.12404180     0.00000641     0.00000650     0.00000000 0.00000000 VRAI 
CAM-EBA-US-IP_EBA-US-IP        2018.10.31.14.41.33     2.61445649    -4.19698858     3.83359241     0.00000200     0.00000000     0.00000052 0.00000000 VRAI 
CAM-EBA-US-HO_EBA-US-HO        2018.10.31.14.41.33     2.61671106    -4.19703197     5.89748542     0.00000041     0.00000000     0.00000137 0.00000000 VRAI 
CAM-EBA-USA-IP_EBA-USA-IP      2018.10.31.14.41.33    -2.61131962    -4.19700670     3.83630506     0.00000235     0.00000000     0.00000137 0.00000000 VRAI 
CAM-EBA-USA-HO_EBA-USA-HO      2018.10.31.14.41.33    -2.61285059    -4.19702291     5.89875682     0.00000181     0.00000000     0.00000081 0.00000000 VRAI 
CAM-EBC-US-IP_EBC-US-IP        2018.10.31.14.41.33     2.60385148    -4.19700432    -3.82565570     0.00000177     0.00000000     0.00000186 0.00000000 VRAI 
CAM-EBC-US-HO_EBC-US-HO        2018.10.31.14.41.33     2.60559018    -4.19702148    -5.89322662     0.00000041     0.00000000     0.00000067 0.00000000 VRAI 
CAM-EBC-USA-IP_EBC-USA-IP      2018.10.31.14.41.33    -2.61126399    -4.19698286    -3.82774067     0.00000237     0.00000000     0.00000338 0.00000000 VRAI 
CAM-EBC-USA-HO_EBC-USA-HO      2018.10.31.14.41.33    -2.61576859    -4.19702164    -5.89149014     0.00000137     0.00000022     0.00000324 0.00000000 VRAI 
CAM-JDA-US-IP_JDA-US-IP        2018.10.31.14.41.33     2.58458138    -4.19496584     6.54777670     0.00000140     0.00000000     0.00000135 0.00000000 VRAI 
CAM-JDA-US-HO_JDA-US-HO        2018.10.31.14.41.33     2.59381628    -4.13996840     6.94792716     0.00000255     0.00000000     0.00000360 0.00000000 VRAI 
CAM-JDA-USA-IP_JDA-USA-IP      2018.10.31.14.41.33    -2.59814008    -4.19506089     6.53810755     0.00000114     0.00000022     0.00000059 0.00000000 VRAI 
CAM-JDA-USA-HO_JDA-USA-HO      2018.10.31.14.41.33    -2.60467903    -4.13995981     6.94207382     0.00000398     0.00000000     0.00000217 0.00000000 VRAI 
CAM-JDC-US-IP_JDC-US-IP        2018.10.31.14.41.33     2.59894315    -4.19500971    -6.54741478     0.00000141     0.00000000     0.00000078 0.00000000 VRAI 
CAM-JDC-US-HO_JDC-US-HO        2018.10.31.14.41.33     2.60937214    -4.14002705    -6.93134705     0.00000206     0.00000000     0.00000353 0.00000000 VRAI 
CAM-JDC-USA-IP_JDC-USA-IP      2018.10.31.14.41.33    -2.60538125    -4.19510078    -6.54005877     0.00000122     0.00000000     0.00000315 0.00000000 VRAI 
CAM-JDC-USA-HO_JDC-USA-HO      2018.10.31.14.41.33    -2.59401727    -4.14012782    -6.92669519     0.00001307     0.00000022     0.00001331 0.00000000 VRAI 
CAM-ECTA-US-IP_ECTA-US-IP-T    2018.10.31.14.41.33     3.54735597     3.84930881     8.06030448     0.01636905     0.00101501     0.06694965 0.00000000 VRAI 
CAM-ECTA-US-IP_ECTA-US-IP      2018.10.31.14.41.33     3.52090462    -4.07059717     7.89762878     0.00000041     0.00000000     0.00000067 0.00000000 VRAI 
CAM-ECTA-US-HO_ECTA-US-HO-T    2018.10.31.14.41.33     3.87541294     3.64747270    12.93682384     0.00001014     0.00000045     0.00002931 0.00000000 VRAI 
CAM-ECTA-US-HO_ECTA-US-HO      2018.10.31.14.41.33     3.66421183    -3.92580175    12.88464928     0.00000138     0.00000000     0.00000206 0.00000000 VRAI 
CAM-ECTA-USA-IP_ECTA-USA-IP-T  2018.10.31.14.41.33    -3.68051569     3.84882045     7.89727736     0.00001791     0.00000000     0.00002686 0.00000000 VRAI 
CAM-ECTA-USA-IP_ECTA-USA-IP    2018.10.31.14.41.33    -3.53399110    -4.07044125     7.89004930     0.00000052     0.00000000     0.00000022 0.00000000 VRAI 
CAM-ECTA-USA-HO_ECTA-USA-HO-T  2018.10.31.14.41.33    -3.89075589     3.64708376    12.86066484     0.00001168     0.00000000     0.00000525 0.00000000 VRAI 
CAM-ECTA-USA-HO_ECTA-USA-HO    2018.10.31.14.41.33    -3.68555272    -3.92560983    12.88446712     0.00000203     0.00000000     0.00000000 0.00000000 VRAI 
CAM-ECTC-US-IP_ECTC-US-IP-T    2018.10.31.14.41.33     3.68416882     3.84875333    -7.90210152     0.00003314     0.00000060     0.00000811 0.00000000 VRAI 
CAM-ECTC-US-IP_ECTC-US-IP      2018.10.31.14.41.33     3.53346086    -4.07046223    -7.87878299     0.00000000     0.00000000     0.00000024 0.00000000 VRAI 
CAM-ECTC-US-HO_ECTC-US-HO-T    2018.10.31.14.41.33     3.86827385     3.64757943   -12.94002962     0.00000298     0.00000000     0.00002050 0.00000000 VRAI 
CAM-ECTC-US-HO_ECTC-US-HO      2018.10.31.14.41.33     3.67298424    -3.92564249   -12.89142227     0.00000012     0.00000000     0.00000095 0.00000000 VRAI 
CAM-ECTC-USA-IP_ECTC-USA-IP-T  2018.10.31.14.41.33    -3.64755809     3.84940934    -7.95259523     0.00314486     0.00004101     0.00083733 0.00000000 VRAI 
CAM-ECTC-USA-IP_ECTC-USA-IP    2018.10.31.14.41.33    -3.53255868    -4.07034540    -7.87343788     0.00013208     0.00000334     0.00012684 0.00000000 VRAI 
CAM-ECTC-USA-HO_ECTC-USA-HO-T  2018.10.31.14.41.33    -3.86947346     3.64757466   -12.93137598     0.00002265     0.00000000     0.00000143 0.00000000 VRAI 
CAM-ECTC-USA-HO_ECTC-USA-HO    2018.10.31.14.41.33    -3.67653978    -3.92565322   -12.88677931     0.00000632     0.00000000     0.00000334 0.00000000 VRAI 
