********** Fichier qui contient une sauvegarde des coordonnees images + coordonnees images transformees dans le repere BCAM (MOUNT) + coordonnees des prismes dans le repere MOUNT********** 
********************************************************************** Unite en metres (m)************************************************************************************************** 

*******************************************************************coordonnees images dans le repere CCD *********************************************************************************** 
20MABNDL000077_PR002
Spot 1     0.00052500     0.00043500
Spot 2     0.00052500     0.00043500
Spot 1     0.00121490     0.00150025
Spot 2     0.00086500     0.00006500
Spot 1     0.00121469     0.00149915
Spot 2     0.00052500     0.00043500
20MABNDL000077_PR003
Spot 1     0.00138764     0.00148705
Spot 2     0.00153716     0.00148869
Spot 1     0.00138750     0.00148705
Spot 2     0.00153722     0.00148871
Spot 1     0.00138771     0.00148679
Spot 2     0.00153729     0.00148877
20MABNDL000077_20MABNDM000168
Spot 1     0.00175699     0.00118468
Spot 2     0.00075500     0.00010500
Spot 1     0.00175683     0.00118448
Spot 2     0.00075500     0.00010500
Spot 1     0.00175687     0.00118455
Spot 2     0.00075500     0.00010500
20MABNDL000077_PR024
Spot 1     0.00254622     0.00144785
Spot 2     0.00264579     0.00145528
Spot 1     0.00254666     0.00144769
Spot 2     0.00264526     0.00145542
Spot 1     0.00254618     0.00144782
Spot 2     0.00264581     0.00145529
20MABNDM000020_PR013
Spot 1     0.00162706     0.00152665
Spot 2     0.00147286     0.00153377
Spot 1     0.00162713     0.00152860
Spot 2     0.00147357     0.00153430
Spot 1     0.00162722     0.00152804
Spot 2     0.00147318     0.00153346
20MABNDM000020_PR014
Spot 1     0.00265893     0.00168958
Spot 2     0.00249663     0.00169408
Spot 1     0.00265935     0.00168874
Spot 2     0.00249727     0.00169357
Spot 1     0.00265895     0.00168898
Spot 2     0.00249705     0.00169387
20MABNDM000020_20MABNDL000196
Spot 1     0.00197660     0.00117816
Spot 2     0.00230500     0.00010500
Spot 1     0.00197655     0.00117824
Spot 2     0.00230500     0.00010500
Spot 1     0.00197666     0.00117816
Spot 2     0.00230500     0.00010500
20MABNDM000020_PR035
Spot 1     0.00126899     0.00149655
Spot 2     0.00118688     0.00153140
Spot 1     0.00126900     0.00149647
Spot 2     0.00118684     0.00153121
Spot 1     0.00126891     0.00149649
Spot 2     0.00118666     0.00153125
20MABNDM000168_PR025
Spot 1     0.00148500     0.00050500
Spot 2     0.00061500     0.00028500
Spot 1     0.00116500     0.00032500
Spot 2     0.00148500     0.00050500
Spot 1     0.00148500     0.00050500
Spot 2     0.00061500     0.00028500
20MABNDM000168_PR026
Spot 1     0.00266691     0.00143010
Spot 2     0.00250534     0.00142626
Spot 1     0.00266676     0.00143025
Spot 2     0.00250553     0.00142659
Spot 1     0.00266690     0.00143013
Spot 2     0.00250518     0.00142678
20MABNDM000168_20MABNDL000077
Spot 1     0.00154161     0.00130065
Spot 2     0.00175826     0.00130606
Spot 1     0.00154146     0.00130056
Spot 2     0.00175765     0.00130535
Spot 1     0.00154146     0.00130079
Spot 2     0.00175788     0.00130527
20MABNDM000168_PR001
Spot 1     0.00080840     0.00161875
Spot 2     0.00070603     0.00162061
Spot 1     0.00080850     0.00161855
Spot 2     0.00070593     0.00162063
Spot 1     0.00080797     0.00161867
Spot 2     0.00070630     0.00162071
20MABNDL000196_PR036
Spot 1     0.00094581     0.00163652
Spot 2     0.00111016     0.00163604
Spot 1     0.00094576     0.00163655
Spot 2     0.00111015     0.00163584
Spot 1     0.00094565     0.00163675
Spot 2     0.00111042     0.00163618
20MABNDL000196_PR037
Spot 1     0.00246700     0.00117156
Spot 2     0.00262209     0.00116989
Spot 1     0.00246715     0.00117157
Spot 2     0.00262229     0.00117015
Spot 1     0.00246700     0.00117160
Spot 2     0.00262227     0.00117022
20MABNDL000196_20MABNDM000020
Spot 1     0.00192549     0.00104164
Spot 2     0.00170438     0.00104713
Spot 1     0.00192553     0.00104163
Spot 2     0.00170436     0.00104705
Spot 1     0.00192547     0.00104184
Spot 2     0.00170446     0.00104711
20MABNDL000196_PR012
Spot 1     0.00265124     0.00134225
Spot 2     0.00272265     0.00138791
Spot 1     0.00265161     0.00134260
Spot 2     0.00272256     0.00138811
Spot 1     0.00265129     0.00134242
Spot 2     0.00272274     0.00138808
20MABNDA000318_PR004
Spot 1     0.00192500     0.00162746
Spot 2     0.00214310     0.00162683
Spot 1     0.00192519     0.00162741
Spot 2     0.00214315     0.00162708
Spot 1     0.00192515     0.00162751
Spot 2     0.00214301     0.00162684
20MABNDA000334_PR005
Spot 1     0.00247220     0.00158796
Spot 2     0.00219196     0.00158852
Spot 1     0.00247228     0.00158814
Spot 2     0.00219236     0.00158828
Spot 1     0.00247233     0.00158809
Spot 2     0.00219169     0.00158839
20MABNDB000317_PR015
Spot 1     0.00170414     0.00158767
Spot 2     0.00148460     0.00159438
Spot 1     0.00170393     0.00158782
Spot 2     0.00148492     0.00159424
Spot 1     0.00170413     0.00158797
Spot 2     0.00148468     0.00159392
20MABNDB000146_PR016
Spot 1     0.00144355     0.00132480
Spot 2     0.00171965     0.00132676
Spot 1     0.00144347     0.00132474
Spot 2     0.00171946     0.00132669
Spot 1     0.00144347     0.00132475
Spot 2     0.00171959     0.00132676
20MABNDB000135_PR027
Spot 1     0.00188984     0.00091444
Spot 2     0.00210810     0.00091580
Spot 1     0.00188974     0.00091460
Spot 2     0.00210813     0.00091614
Spot 1     0.00188984     0.00091460
Spot 2     0.00210814     0.00091616
20MABNDB000126_PR028
Spot 1     0.00164337     0.00200900
Spot 2     0.00192600     0.00201084
Spot 1     0.00164345     0.00200904
Spot 2     0.00192575     0.00201069
Spot 1     0.00164344     0.00200903
Spot 2     0.00192577     0.00201077
20MABNDA000272_PR038
Spot 1     0.00192162     0.00095071
Spot 2     0.00170065     0.00094981
Spot 1     0.00192149     0.00095012
Spot 2     0.00170019     0.00094972
Spot 1     0.00192163     0.00094970
Spot 2     0.00170051     0.00094967
20MABNDA000003_PR039
Spot 1     0.00199925     0.00192572
Spot 2     0.00227806     0.00192640
Spot 1     0.00199926     0.00192553
Spot 2     0.00227783     0.00192726
Spot 1     0.00199927     0.00192556
Spot 2     0.00227784     0.00192716
20MABNDA000196_PR006
Spot 1     0.00199886     0.00072647
Spot 2     0.00163210     0.00072431
Spot 1     0.00199861     0.00072658
Spot 2     0.00163240     0.00072431
Spot 1     0.00199885     0.00072649
Spot 2     0.00163228     0.00072412
20MABNDA000324_PR007
Spot 1     0.00194151     0.00121470
Spot 2     0.00173578     0.00122058
Spot 1     0.00194153     0.00121482
Spot 2     0.00173558     0.00122048
Spot 1     0.00194129     0.00121470
Spot 2     0.00173552     0.00122042
20MABNDB000001_PR017
Spot 1     0.00190281     0.00043887
Spot 2     0.00227145     0.00044726
Spot 1     0.00190272     0.00043889
Spot 2     0.00227156     0.00044766
Spot 1     0.00190284     0.00043894
Spot 2     0.00227178     0.00044737
20MABNDB000260_PR019
Spot 1     0.00191414     0.00150631
Spot 2     0.00211840     0.00150628
Spot 1     0.00191402     0.00150619
Spot 2     0.00211771     0.00150686
Spot 1     0.00191370     0.00150602
Spot 2     0.00211731     0.00150635
20MABNDB000212_PR029
Spot 1     0.00222879     0.00070058
Spot 2     0.00186868     0.00070096
Spot 1     0.00222888     0.00070067
Spot 2     0.00186845     0.00070100
Spot 1     0.00222903     0.00070066
Spot 2     0.00186882     0.00070118
20MABNDB000128_PR030
Spot 1     0.00190482     0.00199962
Spot 2     0.00211080     0.00199445
Spot 1     0.00190500     0.00199957
Spot 2     0.00211040     0.00199445
Spot 1     0.00190495     0.00199959
Spot 2     0.00211050     0.00199445
20MABNDA000444_PR040
Spot 1     0.00074523     0.00035462
Spot 2     0.00111278     0.00035183
Spot 1     0.00074539     0.00035446
Spot 2     0.00111262     0.00035167
Spot 1     0.00074567     0.00035455
Spot 2     0.00111254     0.00035162
20MABNDA000053_PR041
Spot 1     0.00166115     0.00199006
Spot 2     0.00144482     0.00199173
Spot 1     0.00166032     0.00199070
Spot 2     0.00144402     0.00199108
Spot 1     0.00165995     0.00199082
Spot 2     0.00144398     0.00199207
20MABNDA000188_PR008
Spot 1     0.00289500     0.00025500
Spot 2     0.00289500     0.00025500
Spot 1     0.00289500     0.00025500
Spot 2     0.00289500     0.00025500
Spot 1     0.00289500     0.00025500
Spot 2     0.00289500     0.00025500
20MABNDA000188_PR018
Spot 1     0.00169703     0.00173775
Spot 2     0.00123011     0.00173392
Spot 1     0.00169703     0.00173753
Spot 2     0.00123006     0.00173408
Spot 1     0.00169697     0.00173768
Spot 2     0.00123014     0.00173391
20MABNDA000039_PR009
Spot 1     0.00066367     0.00117986
Spot 2     0.00061586     0.00118405
Spot 1     0.00066432     0.00118016
Spot 2     0.00061584     0.00118412
Spot 1     0.00066384     0.00118000
Spot 2     0.00061634     0.00118389
20MABNDA000039_PR011
Spot 1     0.00276998     0.00029131
Spot 2     0.00259416     0.00028584
Spot 1     0.00276966     0.00029132
Spot 2     0.00259415     0.00028568
Spot 1     0.00276991     0.00029151
Spot 2     0.00259421     0.00028608
20MABNDB000155_PR020
Spot 1     0.00062363     0.00113603
Spot 2     0.00068902     0.00113103
Spot 1     0.00062419     0.00113581
Spot 2     0.00068820     0.00113148
Spot 1     0.00062311     0.00113611
Spot 2     0.00068911     0.00113156
20MABNDB000155_PR022
Spot 1     0.00213780     0.00142720
Spot 2     0.00261046     0.00142266
Spot 1     0.00213800     0.00142724
Spot 2     0.00261041     0.00142272
Spot 1     0.00213788     0.00142714
Spot 2     0.00261042     0.00142255
20MABNDB000010_PR021
Spot 1     0.00287260     0.00114927
Spot 2     0.00268750     0.00037750
Spot 1     0.00287292     0.00114912
Spot 2     0.00268750     0.00037750
20MABNDB000010_PR023
Spot 1     0.00131764     0.00030236
Spot 2     0.00149382     0.00030102
Spot 1     0.00131744     0.00030195
Spot 2     0.00149360     0.00030108
20MABNDB000069_PR031
Spot 1     0.00028255     0.00140582
Spot 2     0.00035510     0.00140515
Spot 1     0.00028324     0.00140615
Spot 2     0.00035530     0.00140515
20MABNDB000069_PR033
Spot 1     0.00182586     0.00206638
Spot 2     0.00229626     0.00208670
Spot 1     0.00182556     0.00206605
Spot 2     0.00229627     0.00208671
20MABNDB000131_PR032
Spot 1     0.00277436     0.00107545
Spot 2     0.00283500     0.00107857
Spot 1     0.00277460     0.00107531
Spot 2     0.00283500     0.00107861
20MABNDB000131_PR034
Spot 1     0.00091399     0.00032390
Spot 2     0.00109075     0.00032411
Spot 1     0.00091406     0.00032402
Spot 2     0.00109061     0.00032425
20MABNDA000208_PR042
Spot 1     0.00263833     0.00045292
Spot 2     0.00282833     0.00063000
Spot 1     0.00263717     0.00045239
Spot 2     0.00282833     0.00063000
20MABNDA000208_PR046
Spot 1     0.00143911     0.00225634
Spot 2     0.00096917     0.00203125
Spot 1     0.00143893     0.00225809
Spot 2     0.00097065     0.00203109
20MABNDA000035_PR044
Spot 1     0.00073742     0.00125035
Spot 2     0.00067941     0.00124460
Spot 1     0.00073734     0.00125055
Spot 2     0.00067922     0.00124458
20MABNDA000035_PR045
Spot 1     0.00253686     0.00045872
Spot 2     0.00235955     0.00045748
Spot 1     0.00253679     0.00045874
Spot 2     0.00235946     0.00045731


****************************************************************coordonnees images transformees dans le repere MOUNT************************************************************************* 
20MABNDL000077_PR002
Spot 1     0.01158509     0.03451311    -0.07463200
Spot 2     0.01158509     0.03451311    -0.07463200
Spot 1     0.01228521     0.03557168    -0.07463200
Spot 2     0.01192151     0.03413986    -0.07463200
Spot 1     0.01228499     0.03557058    -0.07463200
Spot 2     0.01158509     0.03451311    -0.07463200
20MABNDL000077_PR003
Spot 1     0.01245781     0.03555681    -0.07463200
Spot 2     0.01260734     0.03555702    -0.07463200
Spot 1     0.01245767     0.03555682    -0.07463200
Spot 2     0.01260740     0.03555704    -0.07463200
Spot 1     0.01245788     0.03555655    -0.07463200
Spot 2     0.01260747     0.03555709    -0.07463200
20MABNDL000077_20MABNDM000168
Spot 1    -0.01259214     0.03524767    -0.00695400
Spot 2    -0.01157915     0.03417830    -0.00695400
Spot 1    -0.01259198     0.03524747    -0.00695400
Spot 2    -0.01157915     0.03417830    -0.00695400
Spot 1    -0.01259202     0.03524754    -0.00695400
Spot 2    -0.01157915     0.03417830    -0.00695400
20MABNDL000077_PR024
Spot 1    -0.01338402     0.03550274    -0.00695400
Spot 2    -0.01348366     0.03550915    -0.00695400
Spot 1    -0.01338446     0.03550258    -0.00695400
Spot 2    -0.01348313     0.03550930    -0.00695400
Spot 1    -0.01338398     0.03550271    -0.00695400
Spot 2    -0.01348368     0.03550916    -0.00695400
20MABNDM000020_PR013
Spot 1    -0.01273189    -0.03548533    -0.00523500
Spot 2    -0.01288589    -0.03549586    -0.00523500
Spot 1    -0.01273177    -0.03548728    -0.00523500
Spot 2    -0.01288517    -0.03549638    -0.00523500
Spot 1    -0.01273170    -0.03548672    -0.00523500
Spot 2    -0.01288558    -0.03549554    -0.00523500
20MABNDM000020_PR014
Spot 1    -0.01169667    -0.03562541    -0.00523500
Spot 2    -0.01185883    -0.03563349    -0.00523500
Spot 1    -0.01169627    -0.03562456    -0.00523500
Spot 2    -0.01185820    -0.03563297    -0.00523500
Spot 1    -0.01169666    -0.03562481    -0.00523500
Spot 2    -0.01185841    -0.03563327    -0.00523500
20MABNDM000020_20MABNDL000196
Spot 1     0.01270968    -0.03514672    -0.07583800
Spot 2     0.01238113    -0.03407361    -0.07583800
Spot 1     0.01270973    -0.03514680    -0.07583800
Spot 2     0.01238113    -0.03407361    -0.07583800
Spot 1     0.01270962    -0.03514672    -0.07583800
Spot 2     0.01238113    -0.03407361    -0.07583800
20MABNDM000020_PR035
Spot 1     0.01341733    -0.03546502    -0.07583800
Spot 2     0.01349945    -0.03549985    -0.07583800
Spot 1     0.01341732    -0.03546494    -0.07583800
Spot 2     0.01349949    -0.03549966    -0.07583800
Spot 1     0.01341741    -0.03546496    -0.07583800
Spot 2     0.01349967    -0.03549970    -0.07583800
20MABNDM000168_PR025
Spot 1    -0.01292129    -0.03484087    -0.00532900
Spot 2    -0.01379223    -0.03462461    -0.00532900
Spot 1    -0.01324206    -0.03466224    -0.00532900
Spot 2    -0.01292129    -0.03484087    -0.00532900
Spot 1    -0.01292129    -0.03484087    -0.00532900
Spot 2    -0.01379223    -0.03462461    -0.00532900
20MABNDM000168_PR026
Spot 1    -0.01173542    -0.03576088    -0.00532900
Spot 2    -0.01189701    -0.03575774    -0.00532900
Spot 1    -0.01173557    -0.03576103    -0.00532900
Spot 2    -0.01189681    -0.03575807    -0.00532900
Spot 1    -0.01173543    -0.03576091    -0.00532900
Spot 2    -0.01189716    -0.03575826    -0.00532900
20MABNDM000168_20MABNDL000077
Spot 1     0.01288384    -0.03530128    -0.07445100
Spot 2     0.01266714    -0.03530352    -0.07445100
Spot 1     0.01288399    -0.03530119    -0.07445100
Spot 2     0.01266776    -0.03530282    -0.07445100
Spot 1     0.01288399    -0.03530142    -0.07445100
Spot 2     0.01266753    -0.03530274    -0.07445100
20MABNDM000168_PR001
Spot 1     0.01361232    -0.03563007    -0.07445100
Spot 2     0.01371465    -0.03563343    -0.07445100
Spot 1     0.01361222    -0.03562987    -0.07445100
Spot 2     0.01371475    -0.03563345    -0.07445100
Spot 1     0.01361275    -0.03563000    -0.07445100
Spot 2     0.01371438    -0.03563353    -0.07445100
20MABNDL000196_PR036
Spot 1     0.01192574     0.03582522    -0.07483600
Spot 2     0.01209009     0.03582508    -0.07483600
Spot 1     0.01192569     0.03582525    -0.07483600
Spot 2     0.01209008     0.03582488    -0.07483600
Spot 1     0.01192558     0.03582545    -0.07483600
Spot 2     0.01209035     0.03582522    -0.07483600
20MABNDL000196_PR037
Spot 1     0.01344790     0.03536343    -0.07483600
Spot 2     0.01360299     0.03536208    -0.07483600
Spot 1     0.01344805     0.03536344    -0.07483600
Spot 2     0.01360319     0.03536234    -0.07483600
Spot 1     0.01344790     0.03536347    -0.07483600
Spot 2     0.01360317     0.03536241    -0.07483600
20MABNDL000196_20MABNDM000020
Spot 1    -0.01274954     0.03531285    -0.00611000
Spot 2    -0.01252859     0.03532279    -0.00611000
Spot 1    -0.01274958     0.03531284    -0.00611000
Spot 2    -0.01252857     0.03532271    -0.00611000
Spot 1    -0.01274953     0.03531305    -0.00611000
Spot 2    -0.01252867     0.03532277    -0.00611000
20MABNDL000196_PR012
Spot 1    -0.01348119     0.03559880    -0.00611000
Spot 2    -0.01355351     0.03564301    -0.00611000
Spot 1    -0.01348157     0.03559914    -0.00611000
Spot 2    -0.01355342     0.03564321    -0.00611000
Spot 1    -0.01348125     0.03559897    -0.00611000
Spot 2    -0.01355360     0.03564318    -0.00611000
20MABNDA000318_PR004
Spot 1    -0.01264482     0.01246842    -0.07310600
Spot 2    -0.01286292     0.01246841    -0.07310600
Spot 1    -0.01264501     0.01246847    -0.07310600
Spot 2    -0.01286297     0.01246816    -0.07310600
Spot 1    -0.01264497     0.01246837    -0.07310600
Spot 2    -0.01286283     0.01246840    -0.07310600
20MABNDA000334_PR005
Spot 1    -0.01311531     0.01254043    -0.07324100
Spot 2    -0.01283507     0.01253961    -0.07324100
Spot 1    -0.01311539     0.01254025    -0.07324100
Spot 2    -0.01283547     0.01253985    -0.07324100
Spot 1    -0.01311544     0.01254030    -0.07324100
Spot 2    -0.01283480     0.01253974    -0.07324100
20MABNDB000317_PR015
Spot 1    -0.01245002    -0.01250785    -0.07326100
Spot 2    -0.01266963    -0.01250370    -0.07326100
Spot 1    -0.01245023    -0.01250771    -0.07326100
Spot 2    -0.01266930    -0.01250384    -0.07326100
Spot 1    -0.01245004    -0.01250755    -0.07326100
Spot 2    -0.01266954    -0.01250416    -0.07326100
20MABNDB000146_PR016
Spot 1    -0.01276479    -0.01246881    -0.07450500
Spot 2    -0.01248870    -0.01246624    -0.07450500
Spot 1    -0.01276487    -0.01246887    -0.07450500
Spot 2    -0.01248889    -0.01246631    -0.07450500
Spot 1    -0.01276487    -0.01246886    -0.07450500
Spot 2    -0.01248876    -0.01246624    -0.07450500
20MABNDB000135_PR027
Spot 1    -0.01251485    -0.01319857    -0.07464700
Spot 2    -0.01229659    -0.01319964    -0.07464700
Spot 1    -0.01251495    -0.01319841    -0.07464700
Spot 2    -0.01229655    -0.01319930    -0.07464700
Spot 1    -0.01251485    -0.01319841    -0.07464700
Spot 2    -0.01229654    -0.01319928    -0.07464700
20MABNDB000126_PR028
Spot 1    -0.01253616    -0.01217318    -0.07500400
Spot 2    -0.01225355    -0.01216983    -0.07500400
Spot 1    -0.01253608    -0.01217314    -0.07500400
Spot 2    -0.01225380    -0.01216998    -0.07500400
Spot 1    -0.01253609    -0.01217315    -0.07500400
Spot 2    -0.01225378    -0.01216990    -0.07500400
20MABNDA000272_PR038
Spot 1    -0.01275727     0.01316076    -0.07417900
Spot 2    -0.01253630     0.01316126    -0.07417900
Spot 1    -0.01275714     0.01316134    -0.07417900
Spot 2    -0.01253584     0.01316135    -0.07417900
Spot 1    -0.01275728     0.01316177    -0.07417900
Spot 2    -0.01253616     0.01316140    -0.07417900
20MABNDA000003_PR039
Spot 1    -0.01280033     0.01212654    -0.07373400
Spot 2    -0.01307914     0.01212657    -0.07373400
Spot 1    -0.01280034     0.01212673    -0.07373400
Spot 2    -0.01307892     0.01212571    -0.07373400
Spot 1    -0.01280035     0.01212670    -0.07373400
Spot 2    -0.01307893     0.01212581    -0.07373400
20MABNDA000196_PR006
Spot 1    -0.01295353     0.01325192    -0.07967100
Spot 2    -0.01258677     0.01324936    -0.07967100
Spot 1    -0.01295328     0.01325181    -0.07967100
Spot 2    -0.01258707     0.01324937    -0.07967100
Spot 1    -0.01295352     0.01325190    -0.07967100
Spot 2    -0.01258695     0.01324956    -0.07967100
20MABNDA000324_PR007
Spot 1    -0.01254720     0.01280692    -0.07446800
Spot 2    -0.01234143     0.01280265    -0.07446800
Spot 1    -0.01254722     0.01280680    -0.07446800
Spot 2    -0.01234123     0.01280275    -0.07446800
Spot 1    -0.01254698     0.01280693    -0.07446800
Spot 2    -0.01234117     0.01280281    -0.07446800
20MABNDB000001_PR017
Spot 1    -0.01228555    -0.01355082    -0.07418400
Spot 2    -0.01191684    -0.01354633    -0.07418400
Spot 1    -0.01228564    -0.01355080    -0.07418400
Spot 2    -0.01191673    -0.01354594    -0.07418400
Spot 1    -0.01228552    -0.01355075    -0.07418400
Spot 2    -0.01191651    -0.01354623    -0.07418400
20MABNDB000260_PR019
Spot 1    -0.01241727    -0.01239641    -0.07492700
Spot 2    -0.01221305    -0.01239225    -0.07492700
Spot 1    -0.01241739    -0.01239653    -0.07492700
Spot 2    -0.01221376    -0.01239168    -0.07492700
Spot 1    -0.01241771    -0.01239671    -0.07492700
Spot 2    -0.01221415    -0.01239220    -0.07492700
20MABNDB000212_PR029
Spot 1    -0.01185906    -0.01328064    -0.07390500
Spot 2    -0.01221914    -0.01327641    -0.07390500
Spot 1    -0.01185897    -0.01328055    -0.07390500
Spot 2    -0.01221937    -0.01327637    -0.07390500
Spot 1    -0.01185882    -0.01328056    -0.07390500
Spot 2    -0.01221900    -0.01327619    -0.07390500
20MABNDB000128_PR030
Spot 1    -0.01245030    -0.01221768    -0.07353400
Spot 2    -0.01224430    -0.01222214    -0.07353400
Spot 1    -0.01245012    -0.01221773    -0.07353400
Spot 2    -0.01224470    -0.01222214    -0.07353400
Spot 1    -0.01245017    -0.01221771    -0.07353400
Spot 2    -0.01224460    -0.01222214    -0.07353400
20MABNDA000444_PR040
Spot 1    -0.01168505     0.01367519    -0.07412000
Spot 2    -0.01205261     0.01367332    -0.07412000
Spot 1    -0.01168521     0.01367535    -0.07412000
Spot 2    -0.01205245     0.01367348    -0.07412000
Spot 1    -0.01168549     0.01367526    -0.07412000
Spot 2    -0.01205237     0.01367353    -0.07412000
20MABNDA000053_PR041
Spot 1    -0.01241780     0.01212056    -0.07430100
Spot 2    -0.01220154     0.01211467    -0.07430100
Spot 1    -0.01241698     0.01211990    -0.07430100
Spot 2    -0.01220073     0.01211530    -0.07430100
Spot 1    -0.01241662     0.01211978    -0.07430100
Spot 2    -0.01220071     0.01211431    -0.07430100
20MABNDA000188_PR008
Spot 1    -0.01391227     0.01380893    -0.07502000
Spot 2    -0.01391227     0.01380893    -0.07502000
Spot 1    -0.01391227     0.01380893    -0.07502000
Spot 2    -0.01391227     0.01380893    -0.07502000
Spot 1    -0.01391227     0.01380893    -0.07502000
Spot 2    -0.01391227     0.01380893    -0.07502000
20MABNDA000188_PR018
Spot 1    -0.01272704     0.01231598    -0.07502000
Spot 2    -0.01226011     0.01231581    -0.07502000
Spot 1    -0.01272704     0.01231620    -0.07502000
Spot 2    -0.01226006     0.01231565    -0.07502000
Spot 1    -0.01272698     0.01231605    -0.07502000
Spot 2    -0.01226014     0.01231582    -0.07502000
20MABNDA000039_PR009
Spot 1    -0.01162582     0.01306427    -0.07444800
Spot 2    -0.01157803     0.01305988    -0.07444800
Spot 1    -0.01162647     0.01306398    -0.07444800
Spot 2    -0.01157801     0.01305981    -0.07444800
Spot 1    -0.01162599     0.01306413    -0.07444800
Spot 2    -0.01157851     0.01306004    -0.07444800
20MABNDA000039_PR011
Spot 1    -0.01372826     0.01396193    -0.07444800
Spot 2    -0.01355242     0.01396664    -0.07444800
Spot 1    -0.01372794     0.01396192    -0.07444800
Spot 2    -0.01355241     0.01396680    -0.07444800
Spot 1    -0.01372820     0.01396173    -0.07444800
Spot 2    -0.01355247     0.01396640    -0.07444800
20MABNDB000155_PR020
Spot 1    -0.01364262    -0.01312129    -0.07501700
Spot 2    -0.01357716    -0.01312539    -0.07501700
Spot 1    -0.01364205    -0.01312150    -0.07501700
Spot 2    -0.01357799    -0.01312495    -0.07501700
Spot 1    -0.01364314    -0.01312122    -0.07501700
Spot 2    -0.01357708    -0.01312486    -0.07501700
20MABNDB000155_PR022
Spot 1    -0.01213257    -0.01280942    -0.07501700
Spot 2    -0.01165990    -0.01280749    -0.07501700
Spot 1    -0.01213237    -0.01280938    -0.07501700
Spot 2    -0.01165995    -0.01280743    -0.07501700
Spot 1    -0.01213249    -0.01280948    -0.07501700
Spot 2    -0.01165993    -0.01280760    -0.07501700
20MABNDB000010_PR021
Spot 1    -0.01157834    -0.01292917    -0.07358200
Spot 2    -0.01175034    -0.01370397    -0.07358200
Spot 1    -0.01157802    -0.01292932    -0.07358200
Spot 2    -0.01175034    -0.01370397    -0.07358200
20MABNDB000010_PR023
Spot 1    -0.01311873    -0.01380230    -0.07358200
Spot 2    -0.01294256    -0.01380066    -0.07358200
Spot 1    -0.01311893    -0.01380272    -0.07358200
Spot 2    -0.01294278    -0.01380060    -0.07358200
20MABNDB000069_PR031
Spot 1    -0.01359367    -0.01286178    -0.07388500
Spot 2    -0.01352121    -0.01286544    -0.07388500
Spot 1    -0.01359297    -0.01286148    -0.07388500
Spot 2    -0.01352101    -0.01286545    -0.07388500
20MABNDB000069_PR033
Spot 1    -0.01202441    -0.01226547    -0.07388500
Spot 2    -0.01155358    -0.01226458    -0.07388500
Spot 1    -0.01202473    -0.01226579    -0.07388500
Spot 2    -0.01155357    -0.01226457    -0.07388500
20MABNDB000131_PR032
Spot 1    -0.01144578    -0.01303932    -0.07533000
Spot 2    -0.01138516    -0.01303589    -0.07533000
Spot 1    -0.01144554    -0.01303946    -0.07533000
Spot 2    -0.01138516    -0.01303585    -0.07533000
20MABNDB000131_PR034
Spot 1    -0.01330234    -0.01380022    -0.07533000
Spot 2    -0.01312558    -0.01379912    -0.07533000
Spot 1    -0.01330227    -0.01380010    -0.07533000
Spot 2    -0.01312572    -0.01379898    -0.07533000
20MABNDA000208_PR042
Spot 1    -0.01350949     0.01354347    -0.07273700
Spot 2    -0.01369933     0.01336622    -0.07273700
Spot 1    -0.01350833     0.01354400    -0.07273700
Spot 2    -0.01369933     0.01336622    -0.07273700
20MABNDA000208_PR046
Spot 1    -0.01230869     0.01174110    -0.07273700
Spot 2    -0.01183894     0.01196660    -0.07273700
Spot 1    -0.01230851     0.01173935    -0.07273700
Spot 2    -0.01184042     0.01196676    -0.07273700
20MABNDA000035_PR044
Spot 1    -0.01157202     0.01300689    -0.07483200
Spot 2    -0.01151397     0.01301223    -0.07483200
Spot 1    -0.01157194     0.01300669    -0.07483200
Spot 2    -0.01151378     0.01301225    -0.07483200
20MABNDA000035_PR045
Spot 1    -0.01336578     0.01381130    -0.07483200
Spot 2    -0.01318847     0.01381128    -0.07483200
Spot 1    -0.01336571     0.01381128    -0.07483200
Spot 2    -0.01318838     0.01381145    -0.07483200


*****************************************************************coordonnees du prisme dans le repere MOUNT********************************************************************************** 
20MABNDL000077_PR002
    0.06737348     0.07371713     3.70652628
    0.04177603     0.05679318     3.70694900
    0.05009098     0.04760060     3.70691442
20MABNDL000077_PR003
    0.02097374     0.02144787     3.89601803
    0.02097581     0.02144733     3.89601803
    0.02096859     0.02145259     3.89601803
20MABNDL000077_20MABNDM000168
   -0.05598265     0.07577598    -5.46843624
   -0.05598851     0.07578315    -5.46843624
   -0.05598704     0.07578063    -5.46843624
20MABNDL000077_PR024
    0.04569226     0.01710719    -5.89639854
    0.04568874     0.01710793    -5.89639854
    0.04569147     0.01710796    -5.89639854
20MABNDM000020_PR013
   -0.00364874    -0.01812505    -3.80243397
   -0.00366945    -0.01806396    -3.80243373
   -0.00366124    -0.01809853    -3.80243397
20MABNDM000020_PR014
   -0.06553297    -0.00496083    -4.74841022
   -0.06556501    -0.00500356    -4.74841022
   -0.06554610    -0.00498634    -4.74841022
20MABNDM000020_20MABNDL000196
    0.02683770    -0.07124128     5.39469719
    0.02683591    -0.07123841     5.39469719
    0.02683985    -0.07124128     5.39469719
20MABNDM000020_PR035
   -0.04244827    -0.00669101     5.80095387
   -0.04244943    -0.00670141     5.80095387
   -0.04245983    -0.00669910     5.80095387
20MABNDM000168_PR025
    0.02062164    -0.06577817    -3.78852868
    0.00702021    -0.06484857    -3.78863335
    0.02062164    -0.06577817    -3.78852868
20MABNDM000168_PR026
   -0.05781830    -0.01390565    -3.98429012
   -0.05781940    -0.01389316    -3.98429012
   -0.05781394    -0.01389132    -3.98429012
20MABNDM000168_20MABNDL000077
    0.01157496    -0.03869457     5.38884687
    0.01154724    -0.03872291     5.38884687
    0.01155558    -0.03871764     5.38884687
20MABNDM000168_PR001
   -0.05736193    -0.01336891     5.81470490
   -0.05736203    -0.01337589     5.81470490
   -0.05736812    -0.01336804     5.81470490
20MABNDL000196_PR036
    0.05138150     0.00609132     3.68777251
    0.05138297     0.00609549     3.68777275
    0.05137907     0.00608223     3.68777251
20MABNDL000196_PR037
   -0.02503758     0.02841392     3.88381386
   -0.02504661     0.02840692     3.88381386
   -0.02504221     0.02840434     3.88381386
20MABNDL000196_20MABNDM000020
   -0.01571954     0.03787290    -5.47473907
   -0.01571889     0.03787615    -5.47473907
   -0.01571726     0.03786648    -5.47473907
20MABNDL000196_PR012
    0.05230077     0.01446279    -5.91537189
    0.05231207     0.01444164    -5.91537189
    0.05230647     0.01444969    -5.91537189
20MABNDA000318_PR004
   -0.00856151     0.03843280     2.74965906
   -0.00855712     0.03843648     2.74965858
   -0.00856042     0.03843390     2.74965906
20MABNDA000334_PR005
   -0.00429646     0.03174846     2.14977145
   -0.00428961     0.03174759     2.14977145
   -0.00429846     0.03174846     2.14977145
20MABNDB000317_PR015
   -0.01725892    -0.03378276     2.75129199
   -0.01726092    -0.03378297     2.75129199
   -0.01726023    -0.03377987     2.75129223
20MABNDB000146_PR016
   -0.01341471    -0.03156647     2.15201473
   -0.01341083    -0.03156460     2.15201473
   -0.01341270    -0.03156575     2.15201473
20MABNDB000135_PR027
   -0.02096123    -0.00978830     2.74937153
   -0.02096005    -0.00979748     2.74937153
   -0.02096207    -0.00979783     2.74937153
20MABNDB000126_PR028
   -0.02030461    -0.03896067     2.14679527
   -0.02030219    -0.03895909     2.14679527
   -0.02030233    -0.03896009     2.14679527
20MABNDA000272_PR038
   -0.01327386     0.01078165     2.74965858
   -0.01328469     0.01076921     2.74965858
   -0.01327628     0.01076058     2.74965858
20MABNDA000003_PR039
   -0.00596834     0.04122457     2.14891577
   -0.00597146     0.04123415     2.14891529
   -0.00597118     0.04123315     2.14891529
20MABNDA000196_PR006
   -0.01013145     0.00987010     1.64206338
   -0.01013089     0.00987130     1.64206338
   -0.01012961     0.00986822     1.64206338
20MABNDA000324_PR007
   -0.02550829     0.02795449     2.95549011
   -0.02551184     0.02795486     2.95549011
   -0.02551771     0.02795127     2.95549011
20MABNDB000001_PR017
   -0.02448877    -0.00283058     1.64035702
   -0.02448903    -0.00283516     1.64035702
   -0.02449272    -0.00283250     1.64035702
20MABNDB000260_PR019
   -0.02404469    -0.03848914     2.95627522
   -0.02402855    -0.03849787     2.95627522
   -0.02401465    -0.03848419     2.95627522
20MABNDB000212_PR029
   -0.02529923    -0.00846121     1.64223862
   -0.02529772    -0.00846265     1.64223862
   -0.02530344    -0.00846446     1.64223862
20MABNDB000128_PR030
   -0.01948743    -0.04674778     2.95496345
   -0.01948311    -0.04674678     2.95496345
   -0.01948409    -0.04674718     2.95496345
20MABNDA000444_PR040
   -0.03023393     0.00092146     1.64490855
   -0.03023389     0.00091796     1.64490855
   -0.03023170     0.00091842     1.64490855
20MABNDA000053_PR041
   -0.02648808     0.05112797     2.95450401
   -0.02652008     0.05112840     2.95450354
   -0.02652770     0.05115034     2.95450330
20MABNDA000188_PR008
    0.13650158    -0.07885031     9.20339394
    0.13650158    -0.07885031     9.20339394
    0.13650158    -0.07885031     9.20339394
20MABNDA000188_PR018
   -0.01617640     0.02583339     1.28358245
   -0.01617683     0.02583288     1.28358245
   -0.01617666     0.02583271     1.28358245
20MABNDA000039_PR009
   -0.17123295     0.02557249    11.00701523
   -0.17118676     0.02559935    11.00701523
   -0.17118542     0.02557082    11.00701523
20MABNDA000039_PR011
    0.03086114    -0.02413205     3.43347406
    0.03085360    -0.02413544     3.43347406
    0.03086073    -0.02412201     3.43347406
20MABNDB000155_PR020
    0.10165021    -0.00964494     9.20028877
    0.10166635    -0.00965884     9.20028877
    0.10167710    -0.00968203     9.20028877
20MABNDB000155_PR022
   -0.02602523    -0.01802190     1.28070211
   -0.02602650    -0.01802277     1.28070211
   -0.02602559    -0.01802045     1.28070211
20MABNDB000010_PR021
   -0.16007003     0.02405209    11.00713062
   -0.16009374     0.02406272    11.00713062
20MABNDB000010_PR023
    0.00402856     0.02073677     3.43376780
    0.00403805     0.02074496     3.43376780
20MABNDB000069_PR031
    0.10234568    -0.03876747     9.20356083
    0.10229032    -0.03878544     9.20356178
20MABNDB000069_PR033
   -0.02685336    -0.02690280     1.28394055
   -0.02685077    -0.02690017     1.28394055
20MABNDB000131_PR032
   -0.18761717    -0.02943929    11.00642776
   -0.18763474    -0.02943207    11.00642776
20MABNDB000131_PR034
    0.01477517     0.01649916     3.43337536
    0.01477680     0.01649325     3.43337536
20MABNDA000208_PR042
    0.09662691    -0.03588900     9.20181465
    0.09655575    -0.03592160     9.20181561
20MABNDA000208_PR046
   -0.02361907     0.03361668     1.28209698
   -0.02360797     0.03363027     1.28209686
20MABNDA000035_PR044
   -0.18018042     0.02574999    11.00802040
   -0.18020007     0.02576329    11.00801945
20MABNDA000035_PR045
    0.01420501    -0.01954206     3.43483472
    0.01420134    -0.01954546     3.43483472


*****************************************************************coordonnees du prisme dans le repere ATLAS********************************************************************************** 
20MABNDL000077_PR002 0.00000000
    2.78332901    -3.67712641     6.48587990
    2.80024529    -3.70272970     6.48625422
    2.80944037    -3.69441772     6.48622084
20MABNDL000077_PR003 0.00000000
    2.83576941    -3.72377658     6.67526293
    2.83576989    -3.72377443     6.67526293
    2.83576465    -3.72378159     6.67526293
20MABNDL000077_20MABNDM000168 0.00000000
    2.77223134    -3.78916192    -2.68922138
    2.77222419    -3.78916764    -2.68922138
    2.77222681    -3.78916621    -2.68922138
20MABNDL000077_PR024 0.00000000
    2.83051276    -3.68697762    -3.11711526
    2.83051205    -3.68698120    -3.11711526
    2.83051205    -3.68697834    -3.11711526
20MABNDM000020_PR013 0.00000000
   -2.83418441    -3.73583531     6.48627663
   -2.83424544    -3.73581457     6.48627615
   -2.83421087    -3.73582268     6.48627663
20MABNDM000020_PR014 0.00000000
   -2.84714031    -3.67466640     7.43230200
   -2.84709764    -3.67463446     7.43230200
   -2.84711480    -3.67465329     7.43230200
20MABNDM000020_20MABNDL000196 0.00000000
   -2.78291798    -3.75934315    -2.71088576
   -2.78292084    -3.75934148    -2.71088576
   -2.78291798    -3.75934529    -2.71088576
20MABNDM000020_PR035 0.00000000
   -2.84752822    -3.68972850    -3.11707664
   -2.84751797    -3.68972731    -3.11707664
   -2.84752035    -3.68971705    -3.11707664
20MABNDM000168_PR025 0.00000000
    2.78745794    -3.76593900    -6.47914410
    2.78839111    -3.75233793    -6.47925377
    2.78745794    -3.76593900    -6.47914410
20MABNDM000168_PR026 0.00000000
    2.83933926    -3.68758559    -6.67493773
    2.83935189    -3.68758440    -6.67493773
    2.83935380    -3.68758988    -6.67493773
20MABNDM000168_20MABNDL000077 0.00000000
    2.81510091    -3.75348711     2.69822621
    2.81507254    -3.75345945     2.69822621
    2.81507778    -3.75346756     2.69822621
20MABNDM000168_PR001 0.00000000
    2.84047055    -3.68439865     3.12405682
    2.84046364    -3.68439841     3.12405682
    2.84047151    -3.68439245     3.12405682
20MABNDL000196_PR036 0.00000000
   -2.84751630    -3.69289303    -6.47909594
   -2.84751201    -3.69289136    -6.47909641
   -2.84752536    -3.69289541    -6.47909594
20MABNDL000196_PR037 0.00000000
   -2.82516241    -3.76948404    -6.67506695
   -2.82516932    -3.76949286    -6.67506695
   -2.82517195    -3.76948857    -6.67506695
20MABNDL000196_20MABNDM000020 0.00000000
   -2.81550550    -3.75145626     2.68347335
   -2.81550217    -3.75145555     2.68347335
   -2.81551194    -3.75145388     2.68347335
20MABNDL000196_PR012 0.00000000
   -2.83893776    -3.68303704     3.12404323
   -2.83895874    -3.68302560     3.12404323
   -2.83895087    -3.68303132     3.12404323
20MABNDA000318_PR004 0.00000000
    2.61444163    -4.19698811     3.83356595
    2.61444616    -4.19698858     3.83356214
    2.61444283    -4.19698811     3.83356476
20MABNDA000334_PR005 0.00000000
    2.61670208    -4.19703150     5.89751244
    2.61670899    -4.19703150     5.89751339
    2.61670017    -4.19703150     5.89751244
20MABNDB000317_PR015 0.00000000
   -2.61134815    -4.19700623     3.83623266
   -2.61134624    -4.19700623     3.83623242
   -2.61134696    -4.19700623     3.83623552
20MABNDB000146_PR016 0.00000000
   -2.61288047    -4.19702291     5.89878368
   -2.61288452    -4.19702291     5.89878559
   -2.61288261    -4.19702291     5.89878464
20MABNDB000135_PR027 0.00000000
    2.60390210    -4.19700384    -3.82557249
    2.60390329    -4.19700384    -3.82556343
    2.60390115    -4.19700384    -3.82556295
20MABNDB000126_PR028 0.00000000
    2.60561275    -4.19702101    -5.89325905
    2.60561514    -4.19702101    -5.89326096
    2.60561490    -4.19702101    -5.89326000
20MABNDA000272_PR038 0.00000000
   -2.61126304    -4.19698286    -3.82770276
   -2.61125231    -4.19698286    -3.82771516
   -2.61126065    -4.19698286    -3.82772374
20MABNDA000003_PR039 0.00000000
   -2.61576271    -4.19702101    -5.89154196
   -2.61575961    -4.19702148    -5.89153242
   -2.61575985    -4.19702148    -5.89153337
20MABNDA000196_PR006 0.00000000
    2.58459210    -4.19496536     6.54782677
    2.58459139    -4.19496536     6.54782772
    2.58459020    -4.19496536     6.54782486
20MABNDA000324_PR007 0.00000000
    2.59380651    -4.13996840     6.94796085
    2.59380293    -4.13996840     6.94796038
    2.59379721    -4.13996840     6.94796371
20MABNDB000001_PR017 0.00000000
   -2.59819007    -4.19506073     6.53815842
   -2.59819031    -4.19506073     6.53816319
   -2.59819412    -4.19506073     6.53816032
20MABNDB000260_PR019 0.00000000
   -2.60471725    -4.13995934     6.94215488
   -2.60473323    -4.13995934     6.94214582
   -2.60474730    -4.13995934     6.94215965
20MABNDB000212_PR029 0.00000000
    2.59897709    -4.19501019    -6.54744911
    2.59897542    -4.19501019    -6.54745054
    2.59898114    -4.19501019    -6.54745245
20MABNDB000128_PR030 0.00000000
    2.60937142    -4.14002657    -6.93137312
    2.60937572    -4.14002657    -6.93137455
    2.60937476    -4.14002657    -6.93137407
20MABNDA000444_PR040 0.00000000
   -2.60540652    -4.19510078    -6.54010153
   -2.60540652    -4.19510078    -6.54009819
   -2.60540414    -4.19510078    -6.54009867
20MABNDA000053_PR041 0.00000000
   -2.59405398    -4.14012671    -6.92678547
   -2.59402180    -4.14012718    -6.92678499
   -2.59401417    -4.14012718    -6.92676306
20MABNDA000188_PR008 0.00000000
    3.54951787     3.84898496     8.09023857
    3.54951787     3.84898496     8.09023857
    3.54951787     3.84898496     8.09023857
20MABNDA000188_PR018 0.00000000
    3.52096057    -4.07059622     7.89761543
    3.52096033    -4.07059622     7.89761591
    3.52096033    -4.07059622     7.89761639
20MABNDA000039_PR009 0.00000000
    3.87540483     3.64747334    12.93686676
    3.87535882     3.64747334    12.93689346
    3.87535739     3.64747334    12.93686485
20MABNDA000039_PR011 0.00000000
    3.66416287    -3.92580175    12.88470459
    3.66417050    -3.92580175    12.88470078
    3.66416335    -3.92580175    12.88471508
20MABNDB000155_PR020 0.00000000
   -3.68030238     3.84882283     7.89722252
   -3.68031859     3.84882283     7.89720821
   -3.68032932     3.84882283     7.89718533
20MABNDB000155_PR022 0.00000000
   -3.53395510    -4.07044172     7.89003754
   -3.53395391    -4.07044172     7.89003658
   -3.53395486    -4.07044172     7.89003897
20MABNDB000010_PR021 0.00000000
   -3.84595776     3.64783263    12.87776375
   -3.84598160     3.64783263    12.87775230
20MABNDB000010_PR023 0.00000000
   -3.68563819    -3.92560887    12.88453960
   -3.68562865    -3.92560887    12.88453102
20MABNDB000069_PR031 0.00000000
    3.68406248     3.84875512    -7.90163517
    3.68400717     3.84875631    -7.90161705
20MABNDB000069_PR033 0.00000000
    3.53344607    -4.07046270    -7.87876844
    3.53344870    -4.07046270    -7.87877131
20MABNDB000131_PR032 0.00000000
    3.86841965     3.64757752   -12.94008160
    3.86843729     3.64757776   -12.94007492
20MABNDB000131_PR034 0.00000000
    3.67301416    -3.92564154   -12.89144802
    3.67301250    -3.92564154   -12.89145374
20MABNDA000208_PR042 0.00000000
   -3.64667773     3.84945059    -7.94735622
   -3.64660668     3.84945154    -7.94738865
20MABNDA000208_PR046 0.00000000
   -3.53214598    -4.07032537    -7.87490129
   -3.53215694    -4.07032585    -7.87488794
20MABNDA000035_PR044 0.00000000
   -3.86942124     3.64757562   -12.93142891
   -3.86944079     3.64757466   -12.93144226
20MABNDA000035_PR045 0.00000000
   -3.67652321    -3.92565250   -12.88684177
   -3.67652702    -3.92565250   -12.88683891


*****************************************************************Rapport********************************************************************************** 
CAM-LBA-US_EBA-US-HO-H         2018.08.06.19.32.56     2.79767156    -3.69142461     6.48611832     0.01081415     0.01066462     0.00016914 0.00000000 VRAI 
CAM-LBA-US_JDA-US-H            2018.08.06.19.32.56     2.83576798    -3.72377753     6.67526293     0.00000237     0.00000300     0.00000000 0.00000000 VRAI 
CAM-LBA-US_CAM-LBC-US          2018.08.06.19.32.56     2.77222745    -3.78916526    -2.68922138     0.00000295     0.00000243     0.00000000 0.00000000 VRAI 
CAM-LBA-US_EBC-US-IP-H         2018.08.06.19.32.56     2.83051229    -3.68697906    -3.11711526     0.00000034     0.00000155     0.00000000 0.00000000 VRAI 
CAM-LBA-USA_EBA-USA-HO-H       2018.08.06.19.32.56    -2.83421357    -3.73582419     6.48627647     0.00002499     0.00000854     0.00000022 0.00000000 VRAI 
CAM-LBA-USA_JDA-USA-H          2018.08.06.19.32.56    -2.84711758    -3.67465138     7.43230200     0.00001753     0.00001311     0.00000000 0.00000000 VRAI 
CAM-LBA-USA_CAM-LBC-USA        2018.08.06.19.32.56    -2.78291893    -3.75934331    -2.71088576     0.00000135     0.00000156     0.00000000 0.00000000 VRAI 
CAM-LBA-USA_EBC-USA-IP-H       2018.08.06.19.32.56    -2.84752218    -3.68972429    -3.11707664     0.00000438     0.00000514     0.00000000 0.00000000 VRAI 
CAM-LBC-US_EBC-US-HO-H         2018.08.06.19.32.56     2.78776900    -3.76140531    -6.47918065     0.00043990     0.00641160     0.00005170 0.00000000 VRAI 
CAM-LBC-US_JDC-US-H            2018.08.06.19.32.56     2.83934832    -3.68758663    -6.67493773     0.00000645     0.00000235     0.00000000 0.00000000 VRAI 
CAM-LBC-US_CAM-LBA-US          2018.08.06.19.32.56     2.81508374    -3.75347137     2.69822621     0.00001233     0.00001161     0.00000000 0.00000000 VRAI 
CAM-LBC-US_EBA-US-IP-H         2018.08.06.19.32.56     2.84046857    -3.68439651     3.12405682     0.00000351     0.00000287     0.00000000 0.00000000 VRAI 
CAM-LBC-USA_EBC-USA-HO-H       2018.08.06.19.32.56    -2.84751789    -3.69289327    -6.47909609     0.00000557     0.00000166     0.00000022 0.00000000 VRAI 
CAM-LBC-USA_JDC-USA-H          2018.08.06.19.32.56    -2.82516789    -3.76948849    -6.67506695     0.00000402     0.00000360     0.00000000 0.00000000 VRAI 
CAM-LBC-USA_CAM-LBA-USA        2018.08.06.19.32.56    -2.81550654    -3.75145523     2.68347335     0.00000406     0.00000100     0.00000000 0.00000000 VRAI 
CAM-LBC-USA_EBA-USA-IP-H       2018.08.06.19.32.56    -2.83894912    -3.68303132     3.12404323     0.00000865     0.00000467     0.00000000 0.00000000 VRAI 
CAM-EBA-US-IP_EBA-US-IP        2018.08.06.19.32.56     2.61444354    -4.19698826     3.83356428     0.00000192     0.00000022     0.00000159 0.00000000 VRAI 
CAM-EBA-US-HO_EBA-US-HO        2018.08.06.19.32.56     2.61670375    -4.19703150     5.89751275     0.00000379     0.00000000     0.00000045 0.00000000 VRAI 
CAM-EBA-USA-IP_EBA-USA-IP      2018.08.06.19.32.56    -2.61134712    -4.19700623     3.83623354     0.00000079     0.00000000     0.00000141 0.00000000 VRAI 
CAM-EBA-USA-HO_EBA-USA-HO      2018.08.06.19.32.56    -2.61288253    -4.19702291     5.89878464     0.00000166     0.00000000     0.00000078 0.00000000 VRAI 
CAM-EBC-US-IP_EBC-US-IP        2018.08.06.19.32.56     2.60390218    -4.19700384    -3.82556629     0.00000088     0.00000000     0.00000439 0.00000000 VRAI 
CAM-EBC-US-HO_EBC-US-HO        2018.08.06.19.32.56     2.60561426    -4.19702101    -5.89326000     0.00000107     0.00000000     0.00000078 0.00000000 VRAI 
CAM-EBC-USA-IP_EBC-USA-IP      2018.08.06.19.32.56    -2.61125867    -4.19698286    -3.82771389     0.00000460     0.00000000     0.00000861 0.00000000 VRAI 
CAM-EBC-USA-HO_EBC-USA-HO      2018.08.06.19.32.56    -2.61576072    -4.19702133    -5.89153592     0.00000141     0.00000022     0.00000429 0.00000000 VRAI 
CAM-JDA-US-IP_JDA-US-IP        2018.08.06.19.32.56     2.58459123    -4.19496536     6.54782645     0.00000079     0.00000000     0.00000119 0.00000000 VRAI 
CAM-JDA-US-HO_JDA-US-HO        2018.08.06.19.32.56     2.59380221    -4.13996840     6.94796165     0.00000383     0.00000000     0.00000147 0.00000000 VRAI 
CAM-JDA-USA-IP_JDA-USA-IP      2018.08.06.19.32.56    -2.59819150    -4.19506073     6.53816064     0.00000186     0.00000000     0.00000196 0.00000000 VRAI 
CAM-JDA-USA-HO_JDA-USA-HO      2018.08.06.19.32.56    -2.60473259    -4.13995934     6.94215345     0.00001227     0.00000000     0.00000574 0.00000000 VRAI 
CAM-JDC-US-IP_JDC-US-IP        2018.08.06.19.32.56     2.59897788    -4.19501019    -6.54745070     0.00000240     0.00000000     0.00000137 0.00000000 VRAI 
CAM-JDC-US-HO_JDC-US-HO        2018.08.06.19.32.56     2.60937397    -4.14002657    -6.93137391     0.00000184     0.00000000     0.00000059 0.00000000 VRAI 
CAM-JDC-USA-IP_JDC-USA-IP      2018.08.06.19.32.56    -2.60540573    -4.19510078    -6.54009946     0.00000112     0.00000000     0.00000147 0.00000000 VRAI 
CAM-JDC-USA-HO_JDC-USA-HO      2018.08.06.19.32.56    -2.59402998    -4.14012702    -6.92677784     0.00001725     0.00000022     0.00001045 0.00000000 VRAI 
CAM-ECTA-US-IP_ECTA-US-IP-T    2018.08.06.19.32.56     3.54951787     3.84898496     8.09023857     0.00000000     0.00000000     0.00000000 0.00000000 VRAI 
CAM-ECTA-US-IP_ECTA-US-IP      2018.08.06.19.32.56     3.52096041    -4.07059622     7.89761591     0.00000011     0.00000000     0.00000039 0.00000000 VRAI 
CAM-ECTA-US-HO_ECTA-US-HO-T    2018.08.06.19.32.56     3.87537368     3.64747334    12.93687503     0.00002204     0.00000000     0.00001306 0.00000000 VRAI 
CAM-ECTA-US-HO_ECTA-US-HO      2018.08.06.19.32.56     3.66416558    -3.92580175    12.88470682     0.00000349     0.00000000     0.00000605 0.00000000 VRAI 
CAM-ECTA-USA-IP_ECTA-USA-IP-T  2018.08.06.19.32.56    -3.68031677     3.84882283     7.89720535     0.00001107     0.00000000     0.00001532 0.00000000 VRAI 
CAM-ECTA-USA-IP_ECTA-USA-IP    2018.08.06.19.32.56    -3.53395462    -4.07044172     7.89003770     0.00000052     0.00000000     0.00000098 0.00000000 VRAI 
CAM-ECTA-USA-HO_ECTA-USA-HO-T  2018.08.06.19.32.56    -3.84596968     3.64783263    12.87775803     0.00001192     0.00000000     0.00000572 0.00000000 VRAI 
CAM-ECTA-USA-HO_ECTA-USA-HO    2018.08.06.19.32.56    -3.68563342    -3.92560887    12.88453531     0.00000477     0.00000000     0.00000429 0.00000000 VRAI 
CAM-ECTC-US-IP_ECTC-US-IP-T    2018.08.06.19.32.56     3.68403482     3.84875572    -7.90162611     0.00002766     0.00000060     0.00000906 0.00000000 VRAI 
CAM-ECTC-US-IP_ECTC-US-IP      2018.08.06.19.32.56     3.53344738    -4.07046270    -7.87876987     0.00000131     0.00000000     0.00000143 0.00000000 VRAI 
CAM-ECTC-US-HO_ECTC-US-HO-T    2018.08.06.19.32.56     3.86842847     3.64757764   -12.94007826     0.00000882     0.00000012     0.00000334 0.00000000 VRAI 
CAM-ECTC-US-HO_ECTC-US-HO      2018.08.06.19.32.56     3.67301333    -3.92564154   -12.89145088     0.00000083     0.00000000     0.00000286 0.00000000 VRAI 
CAM-ECTC-USA-IP_ECTC-USA-IP-T  2018.08.06.19.32.56    -3.64664221     3.84945107    -7.94737244     0.00003552     0.00000048     0.00001621 0.00000000 VRAI 
CAM-ECTC-USA-IP_ECTC-USA-IP    2018.08.06.19.32.56    -3.53215146    -4.07032561    -7.87489462     0.00000548     0.00000024     0.00000668 0.00000000 VRAI 
CAM-ECTC-USA-HO_ECTC-USA-HO-T  2018.08.06.19.32.56    -3.86943102     3.64757514   -12.93143559     0.00000978     0.00000048     0.00000668 0.00000000 VRAI 
CAM-ECTC-USA-HO_ECTC-USA-HO    2018.08.06.19.32.56    -3.67652512    -3.92565250   -12.88684034     0.00000191     0.00000000     0.00000143 0.00000000 VRAI 
