********** Fichier qui contient une sauvegarde des coordonnees images + coordonnees images transformees dans le repere BCAM (MOUNT) + coordonnees des prismes dans le repere MOUNT********** 
********************************************************************** Unite en metres (m)************************************************************************************************** 

*******************************************************************coordonnees images dans le repere CCD *********************************************************************************** 
20MABNDL000077_PR002
Spot 1     0.00086500     0.00006500
Spot 2     0.00086500     0.00006500
Spot 1     0.00121517     0.00150121
Spot 2     0.00052500     0.00043500
Spot 1     0.00121516     0.00150090
Spot 2     0.00052500     0.00043500
20MABNDL000077_PR003
Spot 1     0.00138754     0.00148744
Spot 2     0.00153736     0.00148926
Spot 1     0.00138775     0.00148732
Spot 2     0.00153703     0.00148906
Spot 1     0.00138778     0.00148741
Spot 2     0.00153710     0.00148929
20MABNDL000077_20MABNDM000168
Spot 1     0.00175701     0.00118442
Spot 2     0.00075500     0.00010500
Spot 1     0.00175759     0.00118455
Spot 2     0.00304500     0.00031500
Spot 1     0.00175703     0.00118441
Spot 2     0.00075500     0.00010500
20MABNDL000077_PR024
Spot 1     0.00254644     0.00144781
Spot 2     0.00264669     0.00145526
Spot 1     0.00254621     0.00144783
Spot 2     0.00264597     0.00145523
Spot 1     0.00254687     0.00144798
Spot 2     0.00264617     0.00145509
20MABNDM000020_PR013
Spot 1     0.00162654     0.00152776
Spot 2     0.00147230     0.00153281
Spot 1     0.00162692     0.00152676
Spot 2     0.00147275     0.00153315
Spot 1     0.00162682     0.00152671
Spot 2     0.00147293     0.00153334
20MABNDM000020_PR014
Spot 1     0.00265902     0.00168902
Spot 2     0.00249535     0.00169381
Spot 1     0.00265909     0.00168912
Spot 2     0.00249751     0.00169412
Spot 1     0.00265891     0.00168895
Spot 2     0.00249743     0.00169493
20MABNDM000020_20MABNDL000196
Spot 1     0.00197662     0.00117852
Spot 2     0.00230500     0.00010500
Spot 1     0.00197666     0.00117850
Spot 2     0.00230500     0.00010500
Spot 1     0.00197654     0.00117857
Spot 2     0.00230500     0.00010500
20MABNDM000020_PR035
Spot 1     0.00126920     0.00149594
Spot 2     0.00118677     0.00153135
Spot 1     0.00126896     0.00149605
Spot 2     0.00118659     0.00153127
Spot 1     0.00126904     0.00149597
Spot 2     0.00118660     0.00153144
20MABNDM000168_PR025
Spot 1     0.00024500     0.00014500
Spot 2     0.00024500     0.00014500
Spot 1     0.00024500     0.00014500
Spot 2     0.00024500     0.00014500
Spot 1     0.00024500     0.00014500
Spot 2     0.00024500     0.00014500
20MABNDM000168_PR026
Spot 1     0.00266691     0.00143031
Spot 2     0.00250588     0.00142675
Spot 1     0.00266692     0.00143022
Spot 2     0.00250570     0.00142678
Spot 1     0.00266698     0.00143052
Spot 2     0.00250588     0.00142675
20MABNDM000168_20MABNDL000077
Spot 1     0.00154163     0.00130005
Spot 2     0.00175833     0.00130692
Spot 1     0.00154159     0.00130013
Spot 2     0.00175808     0.00130638
Spot 1     0.00154152     0.00130019
Spot 2     0.00175807     0.00130630
20MABNDM000168_PR001
Spot 1     0.00080838     0.00161890
Spot 2     0.00070684     0.00162121
Spot 1     0.00080847     0.00161908
Spot 2     0.00070689     0.00162107
Spot 1     0.00080838     0.00161890
Spot 2     0.00070678     0.00162119
20MABNDL000196_PR036
Spot 1     0.00094614     0.00163677
Spot 2     0.00111052     0.00163608
Spot 1     0.00094617     0.00163669
Spot 2     0.00111061     0.00163583
Spot 1     0.00094608     0.00163669
Spot 2     0.00111043     0.00163621
20MABNDL000196_PR037
Spot 1     0.00246838     0.00117217
Spot 2     0.00262317     0.00117045
Spot 1     0.00246828     0.00117208
Spot 2     0.00262333     0.00117065
Spot 1     0.00246797     0.00117231
Spot 2     0.00262326     0.00117060
20MABNDL000196_20MABNDM000020
Spot 1     0.00192617     0.00104096
Spot 2     0.00170473     0.00104628
Spot 1     0.00192645     0.00104106
Spot 2     0.00170484     0.00104627
Spot 1     0.00192625     0.00104083
Spot 2     0.00170489     0.00104631
20MABNDL000196_PR012
Spot 1     0.00265223     0.00134189
Spot 2     0.00272474     0.00138783
Spot 1     0.00265242     0.00134198
Spot 2     0.00272470     0.00138779
Spot 1     0.00265226     0.00134203
Spot 2     0.00272510     0.00138780
20MABNDA000318_PR004
Spot 1     0.00192515     0.00162675
Spot 2     0.00214347     0.00162637
Spot 1     0.00192525     0.00162674
Spot 2     0.00214357     0.00162651
Spot 1     0.00192532     0.00162698
Spot 2     0.00214349     0.00162643
20MABNDA000334_PR005
Spot 1     0.00247125     0.00158750
Spot 2     0.00219107     0.00158820
Spot 1     0.00247135     0.00158765
Spot 2     0.00219143     0.00158804
Spot 1     0.00247131     0.00158771
Spot 2     0.00219107     0.00158811
20MABNDB000317_PR015
Spot 1     0.00148459     0.00159405
Spot 2     0.00170495     0.00158706
Spot 1     0.00148457     0.00159393
Spot 2     0.00170487     0.00158734
Spot 1     0.00148474     0.00159390
Spot 2     0.00170500     0.00158716
20MABNDB000146_PR016
Spot 1     0.00144415     0.00132477
Spot 2     0.00172026     0.00132720
Spot 1     0.00144424     0.00132469
Spot 2     0.00172000     0.00132753
Spot 1     0.00144428     0.00132471
Spot 2     0.00172023     0.00132733
20MABNDB000135_PR027
Spot 1     0.00189058     0.00091398
Spot 2     0.00210840     0.00091563
Spot 1     0.00189058     0.00091398
Spot 2     0.00210844     0.00091552
Spot 1     0.00189043     0.00091422
Spot 2     0.00210835     0.00091559
20MABNDB000126_PR028
Spot 1     0.00164389     0.00200902
Spot 2     0.00192639     0.00201082
Spot 1     0.00164397     0.00200917
Spot 2     0.00192631     0.00201082
Spot 1     0.00164397     0.00200910
Spot 2     0.00192638     0.00201087
20MABNDA000272_PR038
Spot 1     0.00192111     0.00095078
Spot 2     0.00170024     0.00094967
Spot 1     0.00192114     0.00095091
Spot 2     0.00170029     0.00094933
Spot 1     0.00192115     0.00095106
Spot 2     0.00170020     0.00094931
20MABNDA000003_PR039
Spot 1     0.00199895     0.00192584
Spot 2     0.00227673     0.00192673
Spot 1     0.00199892     0.00192580
Spot 2     0.00227686     0.00192642
Spot 1     0.00199883     0.00192563
Spot 2     0.00227693     0.00192649
20MABNDA000196_PR006
Spot 1     0.00199978     0.00072691
Spot 2     0.00163337     0.00072436
Spot 1     0.00199963     0.00072686
Spot 2     0.00163318     0.00072449
Spot 1     0.00199958     0.00072673
Spot 2     0.00163343     0.00072443
20MABNDA000324_PR007
Spot 1     0.00194119     0.00121482
Spot 2     0.00173481     0.00122050
Spot 1     0.00194125     0.00121464
Spot 2     0.00173477     0.00122046
Spot 1     0.00194107     0.00121474
Spot 2     0.00173472     0.00122047
20MABNDB000001_PR017
Spot 1     0.00190197     0.00043833
Spot 2     0.00227017     0.00044700
Spot 1     0.00190192     0.00043835
Spot 2     0.00227007     0.00044705
Spot 1     0.00190190     0.00043835
Spot 2     0.00227007     0.00044719
20MABNDB000260_PR019
Spot 1     0.00191538     0.00150812
Spot 2     0.00211818     0.00150727
Spot 1     0.00191543     0.00150832
Spot 2     0.00211833     0.00150767
Spot 1     0.00191565     0.00150808
Spot 2     0.00211818     0.00150773
20MABNDB000212_PR029
Spot 1     0.00222872     0.00070157
Spot 2     0.00186828     0.00070109
Spot 1     0.00222870     0.00070160
Spot 2     0.00186830     0.00070123
Spot 1     0.00222864     0.00070162
Spot 2     0.00186811     0.00070151
20MABNDB000128_PR030
Spot 1     0.00190509     0.00199967
Spot 2     0.00211027     0.00199434
Spot 1     0.00190500     0.00199988
Spot 2     0.00211036     0.00199385
Spot 1     0.00190510     0.00199968
Spot 2     0.00211073     0.00199410
20MABNDA000444_PR040
Spot 1     0.00074731     0.00035626
Spot 2     0.00111404     0.00035322
Spot 1     0.00074746     0.00035635
Spot 2     0.00111435     0.00035323
Spot 1     0.00074733     0.00035624
Spot 2     0.00111452     0.00035323
20MABNDA000053_PR041
Spot 1     0.00165679     0.00199166
Spot 2     0.00144555     0.00199032
Spot 1     0.00165562     0.00199229
Spot 2     0.00144593     0.00199050
Spot 1     0.00165667     0.00199154
Spot 2     0.00144628     0.00198915
20MABNDA000188_PR008
Spot 1     0.00297500     0.00011500
Spot 2     0.00297500     0.00011500
Spot 1     0.00289500     0.00025500
Spot 2     0.00266500     0.00126500
Spot 1     0.00297500     0.00011500
Spot 2     0.00297500     0.00011643
20MABNDA000188_PR018
Spot 1     0.00169654     0.00173867
Spot 2     0.00122888     0.00173535
Spot 1     0.00169643     0.00173857
Spot 2     0.00122894     0.00173515
Spot 1     0.00169638     0.00173859
Spot 2     0.00122887     0.00173505
20MABNDA000039_PR009
Spot 1     0.00066402     0.00117945
Spot 2     0.00061700     0.00118373
Spot 1     0.00066430     0.00117953
Spot 2     0.00061716     0.00118369
Spot 1     0.00066419     0.00117950
Spot 2     0.00061717     0.00118400
20MABNDA000039_PR011
Spot 1     0.00276966     0.00029069
Spot 2     0.00259396     0.00028523
Spot 1     0.00276981     0.00029053
Spot 2     0.00259403     0.00028540
Spot 1     0.00276975     0.00029063
Spot 2     0.00259394     0.00028544
20MABNDB000155_PR020
Spot 1     0.00062243     0.00113568
Spot 2     0.00068920     0.00113149
Spot 1     0.00062368     0.00113569
Spot 2     0.00068990     0.00113182
Spot 1     0.00062302     0.00113566
Spot 2     0.00068937     0.00113156
20MABNDB000155_PR022
Spot 1     0.00213865     0.00142875
Spot 2     0.00261142     0.00142392
Spot 1     0.00213854     0.00142869
Spot 2     0.00261142     0.00142388
Spot 1     0.00213872     0.00142846
Spot 2     0.00261138     0.00142378
20MABNDB000010_PR021
Spot 1     0.00287153     0.00114879
Spot 2     0.00268800     0.00037600
Spot 1     0.00287151     0.00114904
Spot 2     0.00292750     0.00114438
20MABNDB000010_PR023
Spot 1     0.00131703     0.00030120
Spot 2     0.00149236     0.00029856
Spot 1     0.00131681     0.00030130
Spot 2     0.00149223     0.00029875
20MABNDB000069_PR031
Spot 1     0.00028458     0.00140595
Spot 2     0.00035489     0.00140460
Spot 1     0.00028361     0.00140580
Spot 2     0.00035495     0.00140490
20MABNDB000069_PR033
Spot 1     0.00182705     0.00206807
Spot 2     0.00229747     0.00208839
Spot 1     0.00182726     0.00206828
Spot 2     0.00229745     0.00208843
20MABNDB000131_PR032
Spot 1     0.00277500     0.00107505
Spot 2     0.00283464     0.00107833
Spot 1     0.00277518     0.00107505
Spot 2     0.00283446     0.00107813
20MABNDB000131_PR034
Spot 1     0.00091396     0.00032342
Spot 2     0.00109024     0.00032319
Spot 1     0.00091405     0.00032334
Spot 2     0.00109056     0.00032324
20MABNDA000208_PR042
Spot 1     0.00263955     0.00045318
Spot 2     0.00303125     0.00047500
Spot 1     0.00263950     0.00045300
Spot 2     0.00302786     0.00047643
20MABNDA000208_PR046
Spot 1     0.00145852     0.00223554
Spot 2     0.00102435     0.00208071
Spot 1     0.00145877     0.00223593
Spot 2     0.00102421     0.00208053
20MABNDA000035_PR044
Spot 1     0.00073731     0.00124983
Spot 2     0.00068041     0.00124439
Spot 1     0.00073761     0.00124973
Spot 2     0.00068006     0.00124447
20MABNDA000035_PR045
Spot 1     0.00253672     0.00045736
Spot 2     0.00235993     0.00045628
Spot 1     0.00253667     0.00045760
Spot 2     0.00235979     0.00045580


****************************************************************coordonnees images transformees dans le repere MOUNT************************************************************************* 
20MABNDL000077_PR002
Spot 1     0.01192151     0.03413986    -0.07463200
Spot 2     0.01192151     0.03413986    -0.07463200
Spot 1     0.01228549     0.03557263    -0.07463200
Spot 2     0.01158509     0.03451311    -0.07463200
Spot 1     0.01228547     0.03557232    -0.07463200
Spot 2     0.01158509     0.03451311    -0.07463200
20MABNDL000077_PR003
Spot 1     0.01245772     0.03555721    -0.07463200
Spot 2     0.01260755     0.03555758    -0.07463200
Spot 1     0.01245792     0.03555708    -0.07463200
Spot 2     0.01260721     0.03555739    -0.07463200
Spot 1     0.01245796     0.03555717    -0.07463200
Spot 2     0.01260729     0.03555762    -0.07463200
20MABNDL000077_20MABNDM000168
Spot 1    -0.01259216     0.03524741    -0.00695400
Spot 2    -0.01157915     0.03417830    -0.00695400
Spot 1    -0.01259274     0.03524753    -0.00695400
Spot 2    -0.01387118     0.03436485    -0.00695400
Spot 1    -0.01259218     0.03524740    -0.00695400
Spot 2    -0.01157915     0.03417830    -0.00695400
20MABNDL000077_PR024
Spot 1    -0.01338424     0.03550270    -0.00695400
Spot 2    -0.01348456     0.03550913    -0.00695400
Spot 1    -0.01338401     0.03550272    -0.00695400
Spot 2    -0.01348384     0.03550910    -0.00695400
Spot 1    -0.01338467     0.03550287    -0.00695400
Spot 2    -0.01348404     0.03550896    -0.00695400
20MABNDM000020_PR013
Spot 1    -0.01273238    -0.03548646    -0.00523500
Spot 2    -0.01288647    -0.03549491    -0.00523500
Spot 1    -0.01273203    -0.03548545    -0.00523500
Spot 2    -0.01288602    -0.03549524    -0.00523500
Spot 1    -0.01273213    -0.03548540    -0.00523500
Spot 2    -0.01288583    -0.03549543    -0.00523500
20MABNDM000020_PR014
Spot 1    -0.01169659    -0.03562484    -0.00523500
Spot 2    -0.01186011    -0.03563325    -0.00523500
Spot 1    -0.01169652    -0.03562494    -0.00523500
Spot 2    -0.01185795    -0.03563351    -0.00523500
Spot 1    -0.01169670    -0.03562478    -0.00523500
Spot 2    -0.01185801    -0.03563433    -0.00523500
20MABNDM000020_20MABNDL000196
Spot 1     0.01270966    -0.03514708    -0.07583800
Spot 2     0.01238113    -0.03407361    -0.07583800
Spot 1     0.01270962    -0.03514706    -0.07583800
Spot 2     0.01238113    -0.03407361    -0.07583800
Spot 1     0.01270974    -0.03514713    -0.07583800
Spot 2     0.01238113    -0.03407361    -0.07583800
20MABNDM000020_PR035
Spot 1     0.01341712    -0.03546441    -0.07583800
Spot 2     0.01349956    -0.03549980    -0.07583800
Spot 1     0.01341736    -0.03546452    -0.07583800
Spot 2     0.01349974    -0.03549972    -0.07583800
Spot 1     0.01341728    -0.03546444    -0.07583800
Spot 2     0.01349973    -0.03549989    -0.07583800
20MABNDM000168_PR025
Spot 1    -0.01416283    -0.03448620    -0.00532900
Spot 2    -0.01416283    -0.03448620    -0.00532900
Spot 1    -0.01416283    -0.03448620    -0.00532900
Spot 2    -0.01416283    -0.03448620    -0.00532900
Spot 1    -0.01416283    -0.03448620    -0.00532900
Spot 2    -0.01416283    -0.03448620    -0.00532900
20MABNDM000168_PR026
Spot 1    -0.01173542    -0.03576109    -0.00532900
Spot 2    -0.01189646    -0.03575822    -0.00532900
Spot 1    -0.01173541    -0.03576100    -0.00532900
Spot 2    -0.01189664    -0.03575825    -0.00532900
Spot 1    -0.01173535    -0.03576130    -0.00532900
Spot 2    -0.01189646    -0.03575822    -0.00532900
20MABNDM000168_20MABNDL000077
Spot 1     0.01288383    -0.03530068    -0.07445100
Spot 2     0.01266705    -0.03530438    -0.07445100
Spot 1     0.01288387    -0.03530076    -0.07445100
Spot 2     0.01266731    -0.03530384    -0.07445100
Spot 1     0.01288394    -0.03530082    -0.07445100
Spot 2     0.01266732    -0.03530376    -0.07445100
20MABNDM000168_PR001
Spot 1     0.01361234    -0.03563022    -0.07445100
Spot 2     0.01371383    -0.03563402    -0.07445100
Spot 1     0.01361225    -0.03563040    -0.07445100
Spot 2     0.01371379    -0.03563388    -0.07445100
Spot 1     0.01361234    -0.03563022    -0.07445100
Spot 2     0.01371389    -0.03563400    -0.07445100
20MABNDL000196_PR036
Spot 1     0.01192607     0.03582547    -0.07483600
Spot 2     0.01209045     0.03582512    -0.07483600
Spot 1     0.01192610     0.03582539    -0.07483600
Spot 2     0.01209054     0.03582487    -0.07483600
Spot 1     0.01192601     0.03582539    -0.07483600
Spot 2     0.01209036     0.03582525    -0.07483600
20MABNDL000196_PR037
Spot 1     0.01344928     0.03536404    -0.07483600
Spot 2     0.01360407     0.03536265    -0.07483600
Spot 1     0.01344918     0.03536395    -0.07483600
Spot 2     0.01360423     0.03536285    -0.07483600
Spot 1     0.01344887     0.03536418    -0.07483600
Spot 2     0.01360416     0.03536280    -0.07483600
20MABNDL000196_20MABNDM000020
Spot 1    -0.01275021     0.03531216    -0.00611000
Spot 2    -0.01252892     0.03532193    -0.00611000
Spot 1    -0.01275049     0.03531225    -0.00611000
Spot 2    -0.01252903     0.03532192    -0.00611000
Spot 1    -0.01275029     0.03531203    -0.00611000
Spot 2    -0.01252908     0.03532196    -0.00611000
20MABNDL000196_PR012
Spot 1    -0.01348218     0.03559842    -0.00611000
Spot 2    -0.01355560     0.03564289    -0.00611000
Spot 1    -0.01348237     0.03559850    -0.00611000
Spot 2    -0.01355556     0.03564285    -0.00611000
Spot 1    -0.01348221     0.03559856    -0.00611000
Spot 2    -0.01355596     0.03564285    -0.00611000
20MABNDA000318_PR004
Spot 1    -0.01264497     0.01246913    -0.07310600
Spot 2    -0.01286329     0.01246887    -0.07310600
Spot 1    -0.01264507     0.01246914    -0.07310600
Spot 2    -0.01286339     0.01246873    -0.07310600
Spot 1    -0.01264514     0.01246890    -0.07310600
Spot 2    -0.01286331     0.01246881    -0.07310600
20MABNDA000334_PR005
Spot 1    -0.01311436     0.01254089    -0.07324100
Spot 2    -0.01283418     0.01253993    -0.07324100
Spot 1    -0.01311446     0.01254074    -0.07324100
Spot 2    -0.01283454     0.01254009    -0.07324100
Spot 1    -0.01311442     0.01254068    -0.07324100
Spot 2    -0.01283418     0.01254002    -0.07324100
20MABNDB000317_PR015
Spot 1    -0.01266963    -0.01250403    -0.07326100
Spot 2    -0.01244920    -0.01250845    -0.07326100
Spot 1    -0.01266965    -0.01250415    -0.07326100
Spot 2    -0.01244929    -0.01250818    -0.07326100
Spot 1    -0.01266948    -0.01250418    -0.07326100
Spot 2    -0.01244916    -0.01250835    -0.07326100
20MABNDB000146_PR016
Spot 1    -0.01276419    -0.01246884    -0.07450500
Spot 2    -0.01248809    -0.01246580    -0.07450500
Spot 1    -0.01276410    -0.01246892    -0.07450500
Spot 2    -0.01248835    -0.01246547    -0.07450500
Spot 1    -0.01276406    -0.01246890    -0.07450500
Spot 2    -0.01248812    -0.01246567    -0.07450500
20MABNDB000135_PR027
Spot 1    -0.01251411    -0.01319904    -0.07464700
Spot 2    -0.01229629    -0.01319981    -0.07464700
Spot 1    -0.01251411    -0.01319904    -0.07464700
Spot 2    -0.01229625    -0.01319992    -0.07464700
Spot 1    -0.01251426    -0.01319879    -0.07464700
Spot 2    -0.01229634    -0.01319985    -0.07464700
20MABNDB000126_PR028
Spot 1    -0.01253564    -0.01217316    -0.07500400
Spot 2    -0.01225316    -0.01216985    -0.07500400
Spot 1    -0.01253556    -0.01217301    -0.07500400
Spot 2    -0.01225324    -0.01216985    -0.07500400
Spot 1    -0.01253556    -0.01217308    -0.07500400
Spot 2    -0.01225317    -0.01216980    -0.07500400
20MABNDA000272_PR038
Spot 1    -0.01275676     0.01316068    -0.07417900
Spot 2    -0.01253589     0.01316140    -0.07417900
Spot 1    -0.01275679     0.01316055    -0.07417900
Spot 2    -0.01253594     0.01316174    -0.07417900
Spot 1    -0.01275680     0.01316040    -0.07417900
Spot 2    -0.01253585     0.01316176    -0.07417900
20MABNDA000003_PR039
Spot 1    -0.01280003     0.01212642    -0.07373400
Spot 2    -0.01307782     0.01212624    -0.07373400
Spot 1    -0.01280000     0.01212646    -0.07373400
Spot 2    -0.01307794     0.01212655    -0.07373400
Spot 1    -0.01279991     0.01212663    -0.07373400
Spot 2    -0.01307801     0.01212648    -0.07373400
20MABNDA000196_PR006
Spot 1    -0.01295445     0.01325149    -0.07967100
Spot 2    -0.01258804     0.01324933    -0.07967100
Spot 1    -0.01295430     0.01325154    -0.07967100
Spot 2    -0.01258785     0.01324920    -0.07967100
Spot 1    -0.01295425     0.01325167    -0.07967100
Spot 2    -0.01258810     0.01324926    -0.07967100
20MABNDA000324_PR007
Spot 1    -0.01254688     0.01280681    -0.07446800
Spot 2    -0.01234046     0.01280274    -0.07446800
Spot 1    -0.01254694     0.01280699    -0.07446800
Spot 2    -0.01234042     0.01280278    -0.07446800
Spot 1    -0.01254676     0.01280689    -0.07446800
Spot 2    -0.01234037     0.01280277    -0.07446800
20MABNDB000001_PR017
Spot 1    -0.01228640    -0.01355135    -0.07418400
Spot 2    -0.01191813    -0.01354658    -0.07418400
Spot 1    -0.01228645    -0.01355133    -0.07418400
Spot 2    -0.01191823    -0.01354653    -0.07418400
Spot 1    -0.01228647    -0.01355133    -0.07418400
Spot 2    -0.01191822    -0.01354639    -0.07418400
20MABNDB000260_PR019
Spot 1    -0.01241607    -0.01239457    -0.07492700
Spot 2    -0.01221329    -0.01239126    -0.07492700
Spot 1    -0.01241602    -0.01239437    -0.07492700
Spot 2    -0.01221315    -0.01239086    -0.07492700
Spot 1    -0.01241580    -0.01239461    -0.07492700
Spot 2    -0.01221330    -0.01239080    -0.07492700
20MABNDB000212_PR029
Spot 1    -0.01185912    -0.01327965    -0.07390500
Spot 2    -0.01221954    -0.01327628    -0.07390500
Spot 1    -0.01185914    -0.01327962    -0.07390500
Spot 2    -0.01221952    -0.01327614    -0.07390500
Spot 1    -0.01185920    -0.01327960    -0.07390500
Spot 2    -0.01221971    -0.01327586    -0.07390500
20MABNDB000128_PR030
Spot 1    -0.01245003    -0.01221763    -0.07353400
Spot 2    -0.01224483    -0.01222225    -0.07353400
Spot 1    -0.01245012    -0.01221742    -0.07353400
Spot 2    -0.01224474    -0.01222274    -0.07353400
Spot 1    -0.01245002    -0.01221762    -0.07353400
Spot 2    -0.01224437    -0.01222249    -0.07353400
20MABNDA000444_PR040
Spot 1    -0.01168711     0.01367353    -0.07412000
Spot 2    -0.01205385     0.01367191    -0.07412000
Spot 1    -0.01168726     0.01367344    -0.07412000
Spot 2    -0.01205416     0.01367190    -0.07412000
Spot 1    -0.01168713     0.01367355    -0.07412000
Spot 2    -0.01205433     0.01367190    -0.07412000
20MABNDA000053_PR041
Spot 1    -0.01241347     0.01211887    -0.07430100
Spot 2    -0.01220225     0.01211609    -0.07430100
Spot 1    -0.01241231     0.01211822    -0.07430100
Spot 2    -0.01220263     0.01211592    -0.07430100
Spot 1    -0.01241335     0.01211899    -0.07430100
Spot 2    -0.01220295     0.01211727    -0.07430100
20MABNDA000188_PR008
Spot 1    -0.01399107     0.01394961    -0.07502000
Spot 2    -0.01399107     0.01394961    -0.07502000
Spot 1    -0.01391227     0.01380893    -0.07502000
Spot 2    -0.01369093     0.01279700    -0.07502000
Spot 1    -0.01399107     0.01394961    -0.07502000
Spot 2    -0.01399108     0.01394818    -0.07502000
20MABNDA000188_PR018
Spot 1    -0.01272656     0.01231505    -0.07502000
Spot 2    -0.01225889     0.01231437    -0.07502000
Spot 1    -0.01272645     0.01231515    -0.07502000
Spot 2    -0.01225895     0.01231457    -0.07502000
Spot 1    -0.01272640     0.01231513    -0.07502000
Spot 2    -0.01225888     0.01231467    -0.07502000
20MABNDA000039_PR009
Spot 1    -0.01162617     0.01306468    -0.07444800
Spot 2    -0.01157917     0.01306020    -0.07444800
Spot 1    -0.01162645     0.01306461    -0.07444800
Spot 2    -0.01157933     0.01306024    -0.07444800
Spot 1    -0.01162634     0.01306464    -0.07444800
Spot 2    -0.01157934     0.01305993    -0.07444800
20MABNDA000039_PR011
Spot 1    -0.01372794     0.01396255    -0.07444800
Spot 2    -0.01355222     0.01396725    -0.07444800
Spot 1    -0.01372809     0.01396271    -0.07444800
Spot 2    -0.01355229     0.01396708    -0.07444800
Spot 1    -0.01372803     0.01396261    -0.07444800
Spot 2    -0.01355220     0.01396704    -0.07444800
20MABNDB000155_PR020
Spot 1    -0.01364381    -0.01312166    -0.07501700
Spot 2    -0.01357699    -0.01312493    -0.07501700
Spot 1    -0.01364256    -0.01312163    -0.07501700
Spot 2    -0.01357629    -0.01312459    -0.07501700
Spot 1    -0.01364322    -0.01312167    -0.07501700
Spot 2    -0.01357682    -0.01312486    -0.07501700
20MABNDB000155_PR022
Spot 1    -0.01213174    -0.01280786    -0.07501700
Spot 2    -0.01165895    -0.01280621    -0.07501700
Spot 1    -0.01213185    -0.01280792    -0.07501700
Spot 2    -0.01165895    -0.01280625    -0.07501700
Spot 1    -0.01213167    -0.01280815    -0.07501700
Spot 2    -0.01165899    -0.01280635    -0.07501700
20MABNDB000010_PR021
Spot 1    -0.01157940    -0.01292967    -0.07358200
Spot 2    -0.01174982    -0.01370546    -0.07358200
Spot 1    -0.01157943    -0.01292942    -0.07358200
Spot 2    -0.01152337    -0.01293313    -0.07358200
20MABNDB000010_PR023
Spot 1    -0.01311932    -0.01380347    -0.07358200
Spot 2    -0.01294397    -0.01380314    -0.07358200
Spot 1    -0.01311955    -0.01380338    -0.07358200
Spot 2    -0.01294411    -0.01380296    -0.07358200
20MABNDB000069_PR031
Spot 1    -0.01359163    -0.01286173    -0.07388500
Spot 2    -0.01352144    -0.01286599    -0.07388500
Spot 1    -0.01359261    -0.01286184    -0.07388500
Spot 2    -0.01352137    -0.01286569    -0.07388500
20MABNDB000069_PR033
Spot 1    -0.01202315    -0.01226383    -0.07388500
Spot 2    -0.01155230    -0.01226294    -0.07388500
Spot 1    -0.01202294    -0.01226363    -0.07388500
Spot 2    -0.01155232    -0.01226290    -0.07388500
20MABNDB000131_PR032
Spot 1    -0.01144514    -0.01303971    -0.07533000
Spot 2    -0.01138551    -0.01303613    -0.07533000
Spot 1    -0.01144496    -0.01303971    -0.07533000
Spot 2    -0.01138569    -0.01303633    -0.07533000
20MABNDB000131_PR034
Spot 1    -0.01330237    -0.01380070    -0.07533000
Spot 2    -0.01312609    -0.01380005    -0.07533000
Spot 1    -0.01330228    -0.01380078    -0.07533000
Spot 2    -0.01312577    -0.01380000    -0.07533000
20MABNDA000208_PR042
Spot 1    -0.01351071     0.01354321    -0.07273700
Spot 2    -0.01390239     0.01352104    -0.07273700
Spot 1    -0.01351066     0.01354339    -0.07273700
Spot 2    -0.01389900     0.01351962    -0.07273700
20MABNDA000208_PR046
Spot 1    -0.01232811     0.01176188    -0.07273700
Spot 2    -0.01189408     0.01191709    -0.07273700
Spot 1    -0.01232836     0.01176149    -0.07273700
Spot 2    -0.01189394     0.01191727    -0.07273700
20MABNDA000035_PR044
Spot 1    -0.01157191     0.01300741    -0.07483200
Spot 2    -0.01151497     0.01301244    -0.07483200
Spot 1    -0.01157221     0.01300751    -0.07483200
Spot 2    -0.01151462     0.01301236    -0.07483200
20MABNDA000035_PR045
Spot 1    -0.01336563     0.01381266    -0.07483200
Spot 2    -0.01318884     0.01381248    -0.07483200
Spot 1    -0.01336559     0.01381242    -0.07483200
Spot 2    -0.01318870     0.01381296    -0.07483200


*****************************************************************coordonnees du prisme dans le repere MOUNT********************************************************************************** 
20MABNDL000077_PR002
    0.05075517     0.09215411     3.70650077
    0.05007864     0.04754983     3.70691466
    0.05007896     0.04755749     3.70691466
20MABNDL000077_PR003
    0.02097090     0.02142297     3.89601803
    0.02097410     0.02143125     3.89601803
    0.02097142     0.02142296     3.89601803
20MABNDL000077_20MABNDM000168
   -0.05598203     0.07578538    -5.46843624
    0.02681455     0.06904426    -5.46851063
   -0.05598131     0.07578575    -5.46843624
20MABNDL000077_PR024
    0.04573589     0.01710998    -5.89639807
    0.04569885     0.01710999    -5.89639807
    0.04573238     0.01710994    -5.89639807
20MABNDM000020_PR013
   -0.00362203    -0.01812074    -3.80243397
   -0.00364226    -0.01813757    -3.80243397
   -0.00364432    -0.01813414    -3.80243397
20MABNDM000020_PR014
   -0.06549540    -0.00498584    -4.74841070
   -0.06556502    -0.00497462    -4.74840975
   -0.06555736    -0.00495455    -4.74840975
20MABNDM000020_20MABNDL000196
    0.02683841    -0.07122838     5.39469719
    0.02683984    -0.07122910     5.39469719
    0.02683555    -0.07122660     5.39469719
20MABNDM000020_PR035
   -0.04244442    -0.00671643     5.80095387
   -0.04246060    -0.00671528     5.80095387
   -0.04245713    -0.00671181     5.80095387
20MABNDM000168_PR025
    0.06046704    -0.07796145    -3.78783894
    0.06046704    -0.07796145    -3.78783894
    0.06046704    -0.07796145    -3.78783894
20MABNDM000168_PR026
   -0.05783244    -0.01388749    -3.98429012
   -0.05782801    -0.01388904    -3.98429012
   -0.05783428    -0.01388204    -3.98429012
20MABNDM000168_20MABNDL000077
    0.01157833    -0.03868528     5.38884687
    0.01156767    -0.03870165     5.38884687
    0.01156478    -0.03870233     5.38884687
20MABNDM000168_PR001
   -0.05733089    -0.01334029     5.81470585
   -0.05732545    -0.01333882     5.81470585
   -0.05733323    -0.01334103     5.81470585
20MABNDL000196_PR036
    0.05136458     0.00608416     3.68777275
    0.05136162     0.00609226     3.68777275
    0.05136826     0.00608294     3.68777275
20MABNDL000196_PR037
   -0.02510111     0.02838354     3.88381290
   -0.02510265     0.02838069     3.88381290
   -0.02509282     0.02837606     3.88381290
20MABNDL000196_20MABNDM000020
   -0.01568365     0.03792860    -5.47473907
   -0.01566958     0.03792565    -5.47473907
   -0.01567510     0.03793237    -5.47473907
20MABNDL000196_PR012
    0.05242008     0.01448230    -5.91537094
    0.05242595     0.01448047    -5.91537094
    0.05243532     0.01447833    -5.91537094
20MABNDA000318_PR004
   -0.00855191     0.03841136     2.74965906
   -0.00854825     0.03841376     2.74965906
   -0.00854844     0.03841669     2.74965906
20MABNDA000334_PR005
   -0.00432276     0.03173734     2.14977169
   -0.00431619     0.03173719     2.14977169
   -0.00432191     0.03173906     2.14977169
20MABNDB000317_PR015
   -0.01727371    -0.03376582     2.75129223
   -0.01727185    -0.03376871     2.75129223
   -0.01727736    -0.03376495     2.75129223
20MABNDB000146_PR016
   -0.01343209    -0.03157241     2.15201473
   -0.01342964    -0.03157600     2.15201473
   -0.01343353    -0.03157342     2.15201473
20MABNDB000135_PR027
   -0.02098017    -0.00977654     2.74937105
   -0.02098088    -0.00977452     2.74937105
   -0.02097654    -0.00978025     2.74937153
20MABNDB000126_PR028
   -0.02031757    -0.03896074     2.14679527
   -0.02031757    -0.03896287     2.14679527
   -0.02031856    -0.03896260     2.14679527
20MABNDA000272_PR038
   -0.01329072     0.01078040     2.74965858
   -0.01328926     0.01077655     2.74965858
   -0.01329072     0.01077893     2.74965858
20MABNDA000003_PR039
   -0.00599162     0.04123106     2.14891577
   -0.00599020     0.04122606     2.14891577
   -0.00599049     0.04122463     2.14891577
20MABNDA000196_PR006
   -0.01010746     0.00987515     1.64206314
   -0.01011116     0.00987607     1.64206314
   -0.01010900     0.00987397     1.64206314
20MABNDA000324_PR007
   -0.02553368     0.02795508     2.95549011
   -0.02553326     0.02795076     2.95549011
   -0.02553780     0.02795289     2.95549011
20MABNDB000001_PR017
   -0.02446551    -0.00282208     1.64035726
   -0.02446388    -0.00282286     1.64035726
   -0.02446367    -0.00282439     1.64035726
20MABNDB000260_PR019
   -0.02406363    -0.03854468     2.95627475
   -0.02406733    -0.03855657     2.95627451
   -0.02406878    -0.03855305     2.95627451
20MABNDB000212_PR029
   -0.02529421    -0.00847355     1.64223862
   -0.02529423    -0.00847541     1.64223862
   -0.02529153    -0.00847873     1.64223862
20MABNDB000128_PR030
   -0.01948232    -0.04674659     2.95496345
   -0.01948234    -0.04674108     2.95496345
   -0.01949158    -0.04674210     2.95496345
20MABNDA000444_PR040
   -0.03019778     0.00095511     1.64490914
   -0.03019276     0.00095626     1.64490938
   -0.03019230     0.00095506     1.64490938
20MABNDA000053_PR041
   -0.02655926     0.05113309     2.95450330
   -0.02657445     0.05114929     2.95450306
   -0.02654778     0.05110754     2.95450401
20MABNDA000188_PR008
    0.14616936    -0.09611703     9.20304298
    0.12292409    -0.01673691     9.20401478
    0.14617012    -0.09602927     9.20304394
20MABNDA000188_PR018
   -0.01619095     0.02585363     1.28358221
   -0.01619140     0.02585107     1.28358221
   -0.01619243     0.02585039     1.28358221
20MABNDA000039_PR009
   -0.17112422     0.02551864    11.00701618
   -0.17109203     0.02552142    11.00701618
   -0.17109928     0.02554193    11.00701618
20MABNDA000039_PR011
    0.03084916    -0.02416005     3.43347406
    0.03085418    -0.02415985     3.43347406
    0.03085077    -0.02415664     3.43347406
20MABNDB000155_PR020
    0.10171290    -0.00965084     9.20028782
    0.10159351    -0.00967335     9.20029068
    0.10166630    -0.00965455     9.20028877
20MABNDB000155_PR022
   -0.02604036    -0.01804612     1.28070188
   -0.02603944    -0.01804525     1.28070188
   -0.02604067    -0.01804245     1.28070188
20MABNDB000010_PR021
   -0.16003060     0.02419834    11.00713062
   -0.17667362    -0.03259807    11.00694084
20MABNDB000010_PR023
    0.00407461     0.02082056     3.43376708
    0.00408274     0.02081405     3.43376708
20MABNDB000069_PR031
    0.10223524    -0.03873713     9.20356369
    0.10229062    -0.03874863     9.20356178
20MABNDB000069_PR033
   -0.02687505    -0.02693083     1.28394008
   -0.02687676    -0.02693290     1.28393996
20MABNDB000131_PR032
   -0.18763787    -0.02939263    11.00642776
   -0.18763794    -0.02937802    11.00642776
20MABNDB000131_PR034
    0.01478731     0.01653113     3.43337488
    0.01477797     0.01653177     3.43337488
20MABNDA000208_PR042
    0.10916230    -0.04537442     9.20160294
    0.10895113    -0.04529790     9.20160484
20MABNDA000208_PR046
   -0.02298195     0.03386214     1.28209829
   -0.02298101     0.03386394     1.28209829
20MABNDA000035_PR044
   -0.18011573     0.02569613    11.00802231
   -0.18011938     0.02569469    11.00802231
20MABNDA000035_PR045
    0.01421007    -0.01960052     3.43483400
    0.01420569    -0.01960596     3.43483400


*****************************************************************coordonnees du prisme dans le repere ATLAS********************************************************************************** 
20MABNDL000077_PR002 0.00000000
    2.76488686    -3.69373894     6.48585176
    2.80949116    -3.69443011     6.48622131
    2.80948353    -3.69442964     6.48622131
20MABNDL000077_PR003 0.00000000
    2.83579421    -3.72377944     6.67526293
    2.83578587    -3.72377610     6.67526293
    2.83579421    -3.72377872     6.67526293
20MABNDL000077_20MABNDM000168 0.00000000
    2.77222204    -3.78916121    -2.68922138
    2.77898955    -3.70636678    -2.68920016
    2.77222157    -3.78916049    -2.68922138
20MABNDL000077_PR024 0.00000000
    2.83051014    -3.68693399    -3.11711478
    2.83050990    -3.68697095    -3.11711478
    2.83051014    -3.68693757    -3.11711478
20MABNDM000020_PR013 0.00000000
   -2.83418870    -3.73586202     6.48627663
   -2.83417177    -3.73584175     6.48627663
   -2.83417535    -3.73583961     6.48627663
20MABNDM000020_PR014 0.00000000
   -2.84711528    -3.67470407     7.43230247
   -2.84712648    -3.67463446     7.43230200
   -2.84714651    -3.67464209     7.43230200
20MABNDM000020_20MABNDL000196 0.00000000
   -2.78293085    -3.75934386    -2.71088576
   -2.78293014    -3.75934529    -2.71088576
   -2.78293276    -3.75934100    -2.71088576
20MABNDM000020_PR035 0.00000000
   -2.84750295    -3.68973231    -3.11707664
   -2.84750414    -3.68971610    -3.11707664
   -2.84750748    -3.68971968    -3.11707664
20MABNDM000168_PR025 0.00000000
    2.77526426    -3.80578089    -6.47843838
    2.77526426    -3.80578089    -6.47843838
    2.77526426    -3.80578089    -6.47843838
20MABNDM000168_PR026 0.00000000
    2.83935761    -3.68757129    -6.67493773
    2.83935595    -3.68757582    -6.67493773
    2.83936286    -3.68756962    -6.67493773
20MABNDM000168_20MABNDL000077 0.00000000
    2.81511021    -3.75349045     2.69822621
    2.81509376    -3.75347972     2.69822621
    2.81509328    -3.75347686     2.69822621
20MABNDM000168_PR001 0.00000000
    2.84049940    -3.68442965     3.12405801
    2.84050083    -3.68443513     3.12405801
    2.84049845    -3.68442726     3.12405801
20MABNDL000196_PR036 0.00000000
   -2.84752345    -3.69290996    -6.47909641
   -2.84751534    -3.69291282    -6.47909641
   -2.84752464    -3.69290614    -6.47909641
20MABNDL000196_PR037 0.00000000
   -2.82519269    -3.76954746    -6.67506552
   -2.82519555    -3.76954913    -6.67506552
   -2.82520008    -3.76953912    -6.67506552
20MABNDL000196_20MABNDM000020 0.00000000
   -2.81544971    -3.75142026     2.68347335
   -2.81545281    -3.75140619     2.68347335
   -2.81544590    -3.75141168     2.68347335
20MABNDL000196_PR012 0.00000000
   -2.83891821    -3.68291759     3.12404227
   -2.83892012    -3.68291187     3.12404227
   -2.83892226    -3.68290234     3.12404227
20MABNDA000318_PR004 0.00000000
    2.61445141    -4.19698811     3.83358741
    2.61445498    -4.19698811     3.83358502
    2.61445475    -4.19698811     3.83358192
20MABNDA000334_PR005 0.00000000
    2.61667585    -4.19703150     5.89752340
    2.61668229    -4.19703150     5.89752388
    2.61667657    -4.19703150     5.89752197
20MABNDB000317_PR015 0.00000000
   -2.61133337    -4.19700623     3.83624959
   -2.61133528    -4.19700623     3.83624673
   -2.61132979    -4.19700623     3.83625054
20MABNDB000146_PR016 0.00000000
   -2.61286306    -4.19702291     5.89877796
   -2.61286569    -4.19702291     5.89877415
   -2.61286163    -4.19702291     5.89877701
20MABNDB000135_PR027 0.00000000
    2.60388327    -4.19700432    -3.82558441
    2.60388255    -4.19700432    -3.82558632
    2.60388684    -4.19700384    -3.82558060
20MABNDB000126_PR028 0.00000000
    2.60559964    -4.19702101    -5.89325905
    2.60559964    -4.19702101    -5.89325714
    2.60559869    -4.19702101    -5.89325714
20MABNDA000272_PR038 0.00000000
   -2.61124611    -4.19698286    -3.82770395
   -2.61124754    -4.19698286    -3.82770777
   -2.61124611    -4.19698286    -3.82770538
20MABNDA000003_PR039 0.00000000
   -2.61573958    -4.19702101    -5.89153576
   -2.61574101    -4.19702101    -5.89154053
   -2.61574054    -4.19702101    -5.89154196
20MABNDA000196_PR006 0.00000000
    2.58456802    -4.19496584     6.54783154
    2.58457160    -4.19496584     6.54783249
    2.58456945    -4.19496584     6.54783058
20MABNDA000324_PR007 0.00000000
    2.59378123    -4.13996840     6.94795990
    2.59378147    -4.13996840     6.94796419
    2.59377694    -4.13996840     6.94796228
20MABNDB000001_PR017 0.00000000
   -2.59816670    -4.19506073     6.53815031
   -2.59816527    -4.19506073     6.53815079
   -2.59816504    -4.19506073     6.53815222
20MABNDB000260_PR019 0.00000000
   -2.60469818    -4.13995981     6.94209909
   -2.60469460    -4.13995981     6.94208717
   -2.60469317    -4.13995981     6.94209099
20MABNDB000212_PR029 0.00000000
    2.59897184    -4.19501019    -6.54746151
    2.59897208    -4.19501019    -6.54746342
    2.59896922    -4.19501019    -6.54746675
20MABNDB000128_PR030 0.00000000
    2.60937643    -4.14002657    -6.93137455
    2.60937643    -4.14002657    -6.93137980
    2.60936713    -4.14002657    -6.93137884
20MABNDA000444_PR040 0.00000000
   -2.60537028    -4.19510031    -6.54013538
   -2.60536528    -4.19509983    -6.54013634
   -2.60536480    -4.19509983    -6.54013538
20MABNDA000053_PR041 0.00000000
   -2.59398270    -4.14012766    -6.92678022
   -2.59396744    -4.14012766    -6.92676401
   -2.59399414    -4.14012671    -6.92680597
20MABNDA000188_PR008 0.00000000
    3.55893064     3.84859109     8.10764503
    3.53686285     3.85008383     8.02793789
    3.55893278     3.84859324     8.10755730
20MABNDA000188_PR018 0.00000000
    3.52094650    -4.07059622     7.89759493
    3.52094603    -4.07059622     7.89759779
    3.52094483    -4.07059669     7.89759827
20MABNDA000039_PR009 0.00000000
    3.87529612     3.64747429    12.93681240
    3.87526393     3.64747429    12.93681526
    3.87527132     3.64747429    12.93683624
20MABNDA000039_PR011 0.00000000
    3.66417503    -3.92580175    12.88467693
    3.66416979    -3.92580175    12.88467693
    3.66417336    -3.92580175    12.88467979
20MABNDB000155_PR020 0.00000000
   -3.68036509     3.84882164     7.89721632
   -3.68024564     3.84882498     7.89719391
   -3.68031836     3.84882283     7.89721298
20MABNDB000155_PR022 0.00000000
   -3.53394008    -4.07044220     7.89001322
   -3.53394103    -4.07044220     7.89001417
   -3.53393960    -4.07044220     7.89001703
20MABNDB000010_PR021 0.00000000
   -3.84591842     3.64783239    12.87761688
   -3.86251187     3.64767790    12.93442822
20MABNDB000010_PR023 0.00000000
   -3.68559217    -3.92560959    12.88445568
   -3.68558407    -3.92560983    12.88446236
20MABNDB000069_PR031 0.00000000
    3.68395185     3.84875822    -7.90166569
    3.68400741     3.84875607    -7.90165424
20MABNDB000069_PR033 0.00000000
    3.53342438    -4.07046270    -7.87874031
    3.53342271    -4.07046318    -7.87873840
20MABNDB000131_PR032 0.00000000
    3.86844039     3.64757776   -12.94003487
    3.86844039     3.64757776   -12.94002056
20MABNDB000131_PR034 0.00000000
    3.67300200    -3.92564201   -12.89141655
    3.67301130    -3.92564201   -12.89141560
20MABNDA000208_PR042 0.00000000
   -3.65920830     3.84924436    -7.95684814
   -3.65899706     3.84924626    -7.95677185
20MABNDA000208_PR046 0.00000000
   -3.53278303    -4.07032347    -7.87465620
   -3.53278399    -4.07032347    -7.87465477
20MABNDA000035_PR044 0.00000000
   -3.86935639     3.64757752   -12.93137550
   -3.86936021     3.64757752   -12.93137360
20MABNDA000035_PR045 0.00000000
   -3.67651820    -3.92565322   -12.88678360
   -3.67652249    -3.92565322   -12.88677788


*****************************************************************Rapport********************************************************************************** 
CAM-LBA-US_EBA-US-HO-H         2018.11.04.13.57.04     2.79462051    -3.69419956     6.48609813     0.02102487     0.00032571     0.00017421 0.00000000 VRAI 
CAM-LBA-US_JDA-US-H            2018.11.04.13.57.04     2.83579143    -3.72377809     6.67526293     0.00000393     0.00000143     0.00000000 0.00000000 VRAI 
CAM-LBA-US_CAM-LBC-US          2018.11.04.13.57.04     2.77447772    -3.76156282    -2.68921431     0.00319035     0.03902950     0.00001000 0.00000000 VRAI 
CAM-LBA-US_EBC-US-IP-H         2018.11.04.13.57.04     2.83051006    -3.68694750    -3.11711478     0.00000011     0.00001664     0.00000000 0.00000000 VRAI 
CAM-LBA-USA_EBA-USA-HO-H       2018.11.04.13.57.04    -2.83417861    -3.73584779     6.48627663     0.00000728     0.00001010     0.00000000 0.00000000 VRAI 
CAM-LBA-USA_JDA-USA-H          2018.11.04.13.57.04    -2.84712942    -3.67466021     7.43230216     0.00001292     0.00003118     0.00000022 0.00000000 VRAI 
CAM-LBA-USA_CAM-LBC-USA        2018.11.04.13.57.04    -2.78293125    -3.75934339    -2.71088576     0.00000111     0.00000178     0.00000000 0.00000000 VRAI 
CAM-LBA-USA_EBC-USA-IP-H       2018.11.04.13.57.04    -2.84750485    -3.68972270    -3.11707664     0.00000192     0.00000695     0.00000000 0.00000000 VRAI 
CAM-LBC-US_EBC-US-HO-H         2018.11.04.13.57.04     2.77526426    -3.80578089    -6.47843838     0.00000000     0.00000000     0.00000000 0.00000000 VRAI 
CAM-LBC-US_JDC-US-H            2018.11.04.13.57.04     2.83935881    -3.68757224    -6.67493773     0.00000295     0.00000262     0.00000000 0.00000000 VRAI 
CAM-LBC-US_CAM-LBA-US          2018.11.04.13.57.04     2.81509908    -3.75348234     2.69822621     0.00000787     0.00000585     0.00000000 0.00000000 VRAI 
CAM-LBC-US_EBA-US-IP-H         2018.11.04.13.57.04     2.84049956    -3.68443068     3.12405801     0.00000098     0.00000329     0.00000000 0.00000000 VRAI 
CAM-LBC-USA_EBC-USA-HO-H       2018.11.04.13.57.04    -2.84752115    -3.69290964    -6.47909641     0.00000413     0.00000273     0.00000000 0.00000000 VRAI 
CAM-LBC-USA_JDC-USA-H          2018.11.04.13.57.04    -2.82519611    -3.76954524    -6.67506552     0.00000304     0.00000438     0.00000000 0.00000000 VRAI 
CAM-LBC-USA_CAM-LBA-USA        2018.11.04.13.57.04    -2.81544948    -3.75141271     2.68347335     0.00000283     0.00000579     0.00000000 0.00000000 VRAI 
CAM-LBC-USA_EBA-USA-IP-H       2018.11.04.13.57.04    -2.83892020    -3.68291060     3.12404227     0.00000166     0.00000629     0.00000000 0.00000000 VRAI 
CAM-EBA-US-IP_EBA-US-IP        2018.11.04.13.57.04     2.61445371    -4.19698811     3.83358479     0.00000163     0.00000000     0.00000225 0.00000000 VRAI 
CAM-EBA-US-HO_EBA-US-HO        2018.11.04.13.57.04     2.61667824    -4.19703150     5.89752309     0.00000288     0.00000000     0.00000081 0.00000000 VRAI 
CAM-EBA-USA-IP_EBA-USA-IP      2018.11.04.13.57.04    -2.61133281    -4.19700623     3.83624895     0.00000227     0.00000000     0.00000162 0.00000000 VRAI 
CAM-EBA-USA-HO_EBA-USA-HO      2018.11.04.13.57.04    -2.61286346    -4.19702291     5.89877637     0.00000168     0.00000000     0.00000162 0.00000000 VRAI 
CAM-EBC-US-IP_EBC-US-IP        2018.11.04.13.57.04     2.60388422    -4.19700416    -3.82558378     0.00000188     0.00000022     0.00000238 0.00000000 VRAI 
CAM-EBC-US-HO_EBC-US-HO        2018.11.04.13.57.04     2.60559932    -4.19702101    -5.89325778     0.00000045     0.00000000     0.00000090 0.00000000 VRAI 
CAM-EBC-USA-IP_EBC-USA-IP      2018.11.04.13.57.04    -2.61124659    -4.19698286    -3.82770570     0.00000067     0.00000000     0.00000157 0.00000000 VRAI 
CAM-EBC-USA-HO_EBC-USA-HO      2018.11.04.13.57.04    -2.61574038    -4.19702101    -5.89153941     0.00000059     0.00000000     0.00000265 0.00000000 VRAI 
CAM-JDA-US-IP_JDA-US-IP        2018.11.04.13.57.04     2.58456969    -4.19496584     6.54783154     0.00000147     0.00000000     0.00000078 0.00000000 VRAI 
CAM-JDA-US-HO_JDA-US-HO        2018.11.04.13.57.04     2.59377988    -4.13996840     6.94796213     0.00000208     0.00000000     0.00000176 0.00000000 VRAI 
CAM-JDA-USA-IP_JDA-USA-IP      2018.11.04.13.57.04    -2.59816567    -4.19506073     6.53815111     0.00000074     0.00000000     0.00000081 0.00000000 VRAI 
CAM-JDA-USA-HO_JDA-USA-HO      2018.11.04.13.57.04    -2.60469532    -4.13995981     6.94209242     0.00000211     0.00000000     0.00000497 0.00000000 VRAI 
CAM-JDC-US-IP_JDC-US-IP        2018.11.04.13.57.04     2.59897105    -4.19501019    -6.54746389     0.00000130     0.00000000     0.00000217 0.00000000 VRAI 
CAM-JDC-US-HO_JDC-US-HO        2018.11.04.13.57.04     2.60937333    -4.14002657    -6.93137773     0.00000438     0.00000000     0.00000228 0.00000000 VRAI 
CAM-JDC-USA-IP_JDC-USA-IP      2018.11.04.13.57.04    -2.60536679    -4.19509999    -6.54013570     0.00000248     0.00000022     0.00000045 0.00000000 VRAI 
CAM-JDC-USA-HO_JDC-USA-HO      2018.11.04.13.57.04    -2.59398142    -4.14012734    -6.92678340     0.00001094     0.00000045     0.00001728 0.00000000 VRAI 
CAM-ECTA-US-IP_ECTA-US-IP-T    2018.11.04.13.57.04     3.55157542     3.84908938     8.08104674     0.01040336     0.00070318     0.03755365 0.00000000 VRAI 
CAM-ECTA-US-IP_ECTA-US-IP      2018.11.04.13.57.04     3.52094579    -4.07059638     7.89759700     0.00000070     0.00000022     0.00000147 0.00000000 VRAI 
CAM-ECTA-US-HO_ECTA-US-HO-T    2018.11.04.13.57.04     3.87527712     3.64747429    12.93682130     0.00001377     0.00000000     0.00001063 0.00000000 VRAI 
CAM-ECTA-US-HO_ECTA-US-HO      2018.11.04.13.57.04     3.66417273    -3.92580175    12.88467789     0.00000219     0.00000000     0.00000135 0.00000000 VRAI 
CAM-ECTA-USA-IP_ECTA-USA-IP-T  2018.11.04.13.57.04    -3.68030969     3.84882315     7.89720774     0.00004915     0.00000138     0.00000987 0.00000000 VRAI 
CAM-ECTA-USA-IP_ECTA-USA-IP    2018.11.04.13.57.04    -3.53394024    -4.07044220     7.89001481     0.00000059     0.00000000     0.00000162 0.00000000 VRAI 
CAM-ECTA-USA-HO_ECTA-USA-HO-T  2018.11.04.13.57.04    -3.85421515     3.64775515    12.90602255     0.00829673     0.00007725     0.02840567 0.00000000 VRAI 
CAM-ECTA-USA-HO_ECTA-USA-HO    2018.11.04.13.57.04    -3.68558812    -3.92560971    12.88445902     0.00000405     0.00000012     0.00000334 0.00000000 VRAI 
CAM-ECTC-US-IP_ECTC-US-IP-T    2018.11.04.13.57.04     3.68397963     3.84875715    -7.90165997     0.00002778     0.00000107     0.00000572 0.00000000 VRAI 
CAM-ECTC-US-IP_ECTC-US-IP      2018.11.04.13.57.04     3.53342354    -4.07046294    -7.87873936     0.00000083     0.00000024     0.00000095 0.00000000 VRAI 
CAM-ECTC-US-HO_ECTC-US-HO-T    2018.11.04.13.57.04     3.86844039     3.64757776   -12.94002771     0.00000000     0.00000000     0.00000715 0.00000000 VRAI 
CAM-ECTC-US-HO_ECTC-US-HO      2018.11.04.13.57.04     3.67300665    -3.92564201   -12.89141607     0.00000465     0.00000000     0.00000048 0.00000000 VRAI 
CAM-ECTC-USA-IP_ECTC-USA-IP-T  2018.11.04.13.57.04    -3.65910268     3.84924531    -7.95681000     0.00010562     0.00000095     0.00003815 0.00000000 VRAI 
CAM-ECTC-USA-IP_ECTC-USA-IP    2018.11.04.13.57.04    -3.53278351    -4.07032347    -7.87465549     0.00000048     0.00000000     0.00000072 0.00000000 VRAI 
CAM-ECTC-USA-HO_ECTC-USA-HO-T  2018.11.04.13.57.04    -3.86935830     3.64757752   -12.93137455     0.00000191     0.00000000     0.00000095 0.00000000 VRAI 
CAM-ECTC-USA-HO_ECTC-USA-HO    2018.11.04.13.57.04    -3.67652035    -3.92565322   -12.88678074     0.00000215     0.00000000     0.00000286 0.00000000 VRAI 
