********** Fichier qui contient une sauvegarde des coordonnees images + coordonnees images transformees dans le repere BCAM (MOUNT) + coordonnees des prismes dans le repere MOUNT********** 
********************************************************************** Unite en metres (m)************************************************************************************************** 

*******************************************************************coordonnees images dans le repere CCD *********************************************************************************** 
20MABNDL000077_PR002
Spot 1     0.00052500     0.00043500
Spot 2     0.00052500     0.00043500
Spot 1     0.00121438     0.00150248
Spot 2     0.00052500     0.00043500
Spot 1     0.00121459     0.00150042
Spot 2     0.00086500     0.00006500
20MABNDL000077_PR003
Spot 1     0.00138773     0.00148736
Spot 2     0.00153717     0.00148929
Spot 1     0.00138773     0.00148722
Spot 2     0.00153742     0.00148917
Spot 1     0.00138780     0.00148724
Spot 2     0.00153724     0.00148911
20MABNDL000077_20MABNDM000168
Spot 1     0.00175704     0.00118430
Spot 2     0.00075500     0.00010500
Spot 1     0.00175717     0.00118449
Spot 2     0.00075500     0.00010500
Spot 1     0.00175709     0.00118430
Spot 2     0.00075500     0.00010500
20MABNDL000077_PR024
Spot 1     0.00254671     0.00144795
Spot 2     0.00264620     0.00145579
Spot 1     0.00254623     0.00144804
Spot 2     0.00264675     0.00145582
Spot 1     0.00254625     0.00144804
Spot 2     0.00264599     0.00145573
20MABNDM000020_PR013
Spot 1     0.00162641     0.00152738
Spot 2     0.00147373     0.00153310
Spot 1     0.00162632     0.00152736
Spot 2     0.00147362     0.00153388
Spot 1     0.00162717     0.00152737
Spot 2     0.00147307     0.00153344
20MABNDM000020_PR014
Spot 1     0.00265956     0.00168881
Spot 2     0.00249818     0.00169453
Spot 1     0.00265951     0.00168912
Spot 2     0.00249727     0.00169421
Spot 1     0.00265937     0.00168924
Spot 2     0.00249745     0.00169406
20MABNDM000020_20MABNDL000196
Spot 1     0.00197663     0.00117833
Spot 2     0.00230500     0.00010500
Spot 1     0.00197689     0.00117865
Spot 2     0.00230500     0.00010500
Spot 1     0.00197658     0.00117853
Spot 2     0.00230500     0.00010500
20MABNDM000020_PR035
Spot 1     0.00126926     0.00149619
Spot 2     0.00118720     0.00153120
Spot 1     0.00126971     0.00149621
Spot 2     0.00118727     0.00153144
Spot 1     0.00126955     0.00149601
Spot 2     0.00118720     0.00153120
20MABNDM000168_PR025
Spot 1     0.00024500     0.00014500
Spot 2     0.00024500     0.00014500
Spot 1     0.00125500     0.00012500
Spot 2     0.00125500     0.00012500
Spot 1     0.00024500     0.00014500
Spot 2     0.00024500     0.00014500
20MABNDM000168_PR026
Spot 1     0.00266654     0.00143036
Spot 2     0.00250569     0.00142690
Spot 1     0.00266684     0.00143053
Spot 2     0.00250577     0.00142707
Spot 1     0.00266669     0.00143031
Spot 2     0.00250564     0.00142705
20MABNDM000168_20MABNDL000077
Spot 1     0.00154146     0.00129996
Spot 2     0.00175760     0.00130541
Spot 1     0.00154141     0.00129998
Spot 2     0.00175746     0.00130508
Spot 1     0.00154147     0.00130009
Spot 2     0.00175775     0.00130548
20MABNDM000168_PR001
Spot 1     0.00080855     0.00161893
Spot 2     0.00070698     0.00162080
Spot 1     0.00080840     0.00161881
Spot 2     0.00070692     0.00162091
Spot 1     0.00080849     0.00161888
Spot 2     0.00070711     0.00162088
20MABNDL000196_PR036
Spot 1     0.00094608     0.00163689
Spot 2     0.00111024     0.00163628
Spot 1     0.00094612     0.00163680
Spot 2     0.00111062     0.00163624
Spot 1     0.00094592     0.00163686
Spot 2     0.00111053     0.00163563
20MABNDL000196_PR037
Spot 1     0.00246808     0.00117187
Spot 2     0.00262320     0.00117039
Spot 1     0.00246828     0.00117177
Spot 2     0.00262324     0.00117036
Spot 1     0.00246830     0.00117201
Spot 2     0.00262317     0.00117037
20MABNDL000196_20MABNDM000020
Spot 1     0.00192612     0.00104101
Spot 2     0.00170468     0.00104607
Spot 1     0.00192633     0.00104128
Spot 2     0.00170457     0.00104644
Spot 1     0.00192603     0.00104126
Spot 2     0.00170478     0.00104600
20MABNDL000196_PR012
Spot 1     0.00265189     0.00134194
Spot 2     0.00272457     0.00138803
Spot 1     0.00265215     0.00134194
Spot 2     0.00272448     0.00138809
Spot 1     0.00265174     0.00134213
Spot 2     0.00272454     0.00138808
20MABNDA000318_PR004
Spot 1     0.00192538     0.00162676
Spot 2     0.00214360     0.00162640
Spot 1     0.00192544     0.00162697
Spot 2     0.00214342     0.00162658
Spot 1     0.00192556     0.00162694
Spot 2     0.00214333     0.00162611
20MABNDA000334_PR005
Spot 1     0.00247141     0.00158755
Spot 2     0.00219123     0.00158851
Spot 1     0.00247148     0.00158776
Spot 2     0.00219117     0.00158808
Spot 1     0.00247140     0.00158745
Spot 2     0.00219126     0.00158822
20MABNDB000317_PR015
Spot 1     0.00170479     0.00158704
Spot 2     0.00148454     0.00159373
Spot 1     0.00170495     0.00158713
Spot 2     0.00148453     0.00159365
Spot 1     0.00170482     0.00158712
Spot 2     0.00148455     0.00159371
20MABNDB000146_PR016
Spot 1     0.00144407     0.00132462
Spot 2     0.00172014     0.00132718
Spot 1     0.00144415     0.00132474
Spot 2     0.00172040     0.00132746
Spot 1     0.00144415     0.00132474
Spot 2     0.00172030     0.00132738
20MABNDB000135_PR027
Spot 1     0.00189051     0.00091426
Spot 2     0.00210853     0.00091612
Spot 1     0.00189038     0.00091417
Spot 2     0.00210846     0.00091617
Spot 1     0.00189043     0.00091409
Spot 2     0.00210853     0.00091600
20MABNDB000126_PR028
Spot 1     0.00164393     0.00200927
Spot 2     0.00192654     0.00201090
Spot 1     0.00164394     0.00200929
Spot 2     0.00192653     0.00201080
Spot 1     0.00164392     0.00200927
Spot 2     0.00192660     0.00201089
20MABNDA000272_PR038
Spot 1     0.00192123     0.00095080
Spot 2     0.00170018     0.00094955
Spot 1     0.00192129     0.00095101
Spot 2     0.00170017     0.00094941
Spot 1     0.00192136     0.00095099
Spot 2     0.00170043     0.00094957
20MABNDA000003_PR039
Spot 1     0.00199887     0.00192555
Spot 2     0.00227689     0.00192642
Spot 1     0.00199891     0.00192559
Spot 2     0.00227691     0.00192628
Spot 1     0.00199880     0.00192543
Spot 2     0.00227735     0.00192637
20MABNDA000196_PR006
Spot 1     0.00199949     0.00072699
Spot 2     0.00163300     0.00072448
Spot 1     0.00199960     0.00072688
Spot 2     0.00163322     0.00072448
Spot 1     0.00199967     0.00072687
Spot 2     0.00163330     0.00072415
20MABNDA000324_PR007
Spot 1     0.00194124     0.00121465
Spot 2     0.00173531     0.00122059
Spot 1     0.00194115     0.00121470
Spot 2     0.00173524     0.00122049
Spot 1     0.00194118     0.00121459
Spot 2     0.00173531     0.00122035
20MABNDB000001_PR017
Spot 1     0.00190195     0.00043839
Spot 2     0.00227013     0.00044711
Spot 1     0.00190198     0.00043857
Spot 2     0.00227007     0.00044692
Spot 1     0.00190203     0.00043854
Spot 2     0.00227013     0.00044684
20MABNDB000260_PR019
Spot 1     0.00191579     0.00150816
Spot 2     0.00211881     0.00150643
Spot 1     0.00191552     0.00150832
Spot 2     0.00211840     0.00150708
Spot 1     0.00191567     0.00150826
Spot 2     0.00211845     0.00150700
20MABNDB000212_PR029
Spot 1     0.00222864     0.00070136
Spot 2     0.00186846     0.00070144
Spot 1     0.00222888     0.00070117
Spot 2     0.00186843     0.00070138
Spot 1     0.00222884     0.00070149
Spot 2     0.00186862     0.00070129
20MABNDB000128_PR030
Spot 1     0.00190500     0.00199969
Spot 2     0.00211032     0.00199378
Spot 1     0.00190479     0.00199990
Spot 2     0.00211024     0.00199421
Spot 1     0.00190505     0.00199951
Spot 2     0.00211053     0.00199433
20MABNDA000444_PR040
Spot 1     0.00074690     0.00035616
Spot 2     0.00111323     0.00035258
Spot 1     0.00074710     0.00035621
Spot 2     0.00111389     0.00035278
Spot 1     0.00074682     0.00035607
Spot 2     0.00111412     0.00035289
20MABNDA000053_PR041
Spot 1     0.00165689     0.00199220
Spot 2     0.00144588     0.00198931
Spot 1     0.00165561     0.00199302
Spot 2     0.00144588     0.00198963
Spot 1     0.00165504     0.00199279
Spot 2     0.00144479     0.00199120
20MABNDA000188_PR008
Spot 1     0.00266500     0.00126500
Spot 2     0.00266500     0.00126500
Spot 1     0.00266500     0.00126500
Spot 2     0.00266500     0.00126500
Spot 1     0.00266500     0.00126500
Spot 2     0.00266500     0.00126500
20MABNDA000188_PR018
Spot 1     0.00169694     0.00173677
Spot 2     0.00122917     0.00173313
Spot 1     0.00169685     0.00173685
Spot 2     0.00122919     0.00173301
Spot 1     0.00169689     0.00173695
Spot 2     0.00122915     0.00173324
20MABNDA000039_PR009
Spot 1     0.00066422     0.00117981
Spot 2     0.00061691     0.00118409
Spot 1     0.00066429     0.00117967
Spot 2     0.00061712     0.00118381
Spot 1     0.00066435     0.00117958
Spot 2     0.00061686     0.00118395
20MABNDA000039_PR011
Spot 1     0.00276990     0.00029107
Spot 2     0.00259422     0.00028578
Spot 1     0.00277000     0.00029105
Spot 2     0.00259412     0.00028571
Spot 1     0.00276997     0.00029119
Spot 2     0.00259432     0.00028594
20MABNDB000155_PR020
Spot 1     0.00062414     0.00113500
Spot 2     0.00069021     0.00113116
Spot 1     0.00062375     0.00113560
Spot 2     0.00068993     0.00113106
Spot 1     0.00062471     0.00113587
Spot 2     0.00068934     0.00113131
20MABNDB000155_PR022
Spot 1     0.00213852     0.00142827
Spot 2     0.00261170     0.00142288
Spot 1     0.00213860     0.00142825
Spot 2     0.00261169     0.00142303
20MABNDB000010_PR021
Spot 1     0.00287133     0.00114899
Spot 2     0.00329500     0.00013500
Spot 1     0.00287160     0.00114907
Spot 2     0.00329500     0.00013500
20MABNDB000010_PR023
Spot 1     0.00131721     0.00030138
Spot 2     0.00149203     0.00029936
Spot 1     0.00131727     0.00030146
Spot 2     0.00149197     0.00029927
20MABNDB000069_PR031
Spot 1     0.00028306     0.00140597
Spot 2     0.00035526     0.00140456
Spot 1     0.00028414     0.00140574
Spot 2     0.00035518     0.00140464
20MABNDB000069_PR033
Spot 1     0.00182601     0.00206682
Spot 2     0.00229654     0.00208750
Spot 1     0.00182591     0.00206683
Spot 2     0.00229647     0.00208723
20MABNDB000131_PR032
Spot 1     0.00277469     0.00107505
Spot 2     0.00283467     0.00107850
Spot 1     0.00277500     0.00107509
Spot 2     0.00283453     0.00107855
20MABNDB000131_PR034
Spot 1     0.00091422     0.00032378
Spot 2     0.00109068     0.00032377
Spot 1     0.00091406     0.00032381
Spot 2     0.00109055     0.00032373
20MABNDA000208_PR042
Spot 1     0.00281500     0.00060370
Spot 2     0.00303000     0.00047500
Spot 1     0.00263940     0.00045060
Spot 2     0.00302750     0.00047500
20MABNDA000208_PR046
Spot 1     0.00145816     0.00223357
Spot 2     0.00102281     0.00207844
Spot 1     0.00145815     0.00223359
Spot 2     0.00102273     0.00207864
20MABNDA000035_PR044
Spot 1     0.00073816     0.00124984
Spot 2     0.00067990     0.00124462
Spot 1     0.00073831     0.00124988
Spot 2     0.00067954     0.00124436
20MABNDA000035_PR045
Spot 1     0.00253667     0.00045823
Spot 2     0.00236002     0.00045680
Spot 1     0.00253694     0.00045820
Spot 2     0.00236011     0.00045665


****************************************************************coordonnees images transformees dans le repere MOUNT************************************************************************* 
20MABNDL000077_PR002
Spot 1     0.01158509     0.03451311    -0.07463200
Spot 2     0.01158509     0.03451311    -0.07463200
Spot 1     0.01228471     0.03557391    -0.07463200
Spot 2     0.01158509     0.03451311    -0.07463200
Spot 1     0.01228490     0.03557185    -0.07463200
Spot 2     0.01192151     0.03413986    -0.07463200
20MABNDL000077_PR003
Spot 1     0.01245791     0.03555712    -0.07463200
Spot 2     0.01260736     0.03555762    -0.07463200
Spot 1     0.01245790     0.03555698    -0.07463200
Spot 2     0.01260761     0.03555749    -0.07463200
Spot 1     0.01245797     0.03555700    -0.07463200
Spot 2     0.01260743     0.03555744    -0.07463200
20MABNDL000077_20MABNDM000168
Spot 1    -0.01259218     0.03524729    -0.00695400
Spot 2    -0.01157915     0.03417830    -0.00695400
Spot 1    -0.01259232     0.03524747    -0.00695400
Spot 2    -0.01157915     0.03417830    -0.00695400
Spot 1    -0.01259223     0.03524729    -0.00695400
Spot 2    -0.01157915     0.03417830    -0.00695400
20MABNDL000077_PR024
Spot 1    -0.01338451     0.03550284    -0.00695400
Spot 2    -0.01348408     0.03550966    -0.00695400
Spot 1    -0.01338403     0.03550293    -0.00695400
Spot 2    -0.01348463     0.03550968    -0.00695400
Spot 1    -0.01338405     0.03550293    -0.00695400
Spot 2    -0.01348387     0.03550960    -0.00695400
20MABNDM000020_PR013
Spot 1    -0.01273252    -0.03548608    -0.00523500
Spot 2    -0.01288504    -0.03549517    -0.00523500
Spot 1    -0.01273261    -0.03548606    -0.00523500
Spot 2    -0.01288513    -0.03549596    -0.00523500
Spot 1    -0.01273176    -0.03548605    -0.00523500
Spot 2    -0.01288569    -0.03549553    -0.00523500
20MABNDM000020_PR014
Spot 1    -0.01169605    -0.03562462    -0.00523500
Spot 2    -0.01185727    -0.03563391    -0.00523500
Spot 1    -0.01169610    -0.03562493    -0.00523500
Spot 2    -0.01185819    -0.03563361    -0.00523500
Spot 1    -0.01169623    -0.03562506    -0.00523500
Spot 2    -0.01185801    -0.03563346    -0.00523500
20MABNDM000020_20MABNDL000196
Spot 1     0.01270965    -0.03514689    -0.07583800
Spot 2     0.01238113    -0.03407361    -0.07583800
Spot 1     0.01270939    -0.03514721    -0.07583800
Spot 2     0.01238113    -0.03407361    -0.07583800
Spot 1     0.01270970    -0.03514709    -0.07583800
Spot 2     0.01238113    -0.03407361    -0.07583800
20MABNDM000020_PR035
Spot 1     0.01341706    -0.03546466    -0.07583800
Spot 2     0.01349913    -0.03549965    -0.07583800
Spot 1     0.01341661    -0.03546468    -0.07583800
Spot 2     0.01349906    -0.03549989    -0.07583800
Spot 1     0.01341677    -0.03546448    -0.07583800
Spot 2     0.01349913    -0.03549965    -0.07583800
20MABNDM000168_PR025
Spot 1    -0.01416283    -0.03448620    -0.00532900
Spot 2    -0.01416283    -0.03448620    -0.00532900
Spot 1    -0.01315292    -0.03446186    -0.00532900
Spot 2    -0.01315292    -0.03446186    -0.00532900
Spot 1    -0.01416283    -0.03448620    -0.00532900
Spot 2    -0.01416283    -0.03448620    -0.00532900
20MABNDM000168_PR026
Spot 1    -0.01173579    -0.03576114    -0.00532900
Spot 2    -0.01189665    -0.03575837    -0.00532900
Spot 1    -0.01173549    -0.03576131    -0.00532900
Spot 2    -0.01189657    -0.03575854    -0.00532900
Spot 1    -0.01173564    -0.03576109    -0.00532900
Spot 2    -0.01189670    -0.03575852    -0.00532900
20MABNDM000168_20MABNDL000077
Spot 1     0.01288400    -0.03530059    -0.07445100
Spot 2     0.01266781    -0.03530288    -0.07445100
Spot 1     0.01288405    -0.03530061    -0.07445100
Spot 2     0.01266795    -0.03530255    -0.07445100
Spot 1     0.01288399    -0.03530072    -0.07445100
Spot 2     0.01266766    -0.03530295    -0.07445100
20MABNDM000168_PR001
Spot 1     0.01361217    -0.03563025    -0.07445100
Spot 2     0.01371370    -0.03563361    -0.07445100
Spot 1     0.01361232    -0.03563013    -0.07445100
Spot 2     0.01371376    -0.03563372    -0.07445100
Spot 1     0.01361223    -0.03563020    -0.07445100
Spot 2     0.01371357    -0.03563369    -0.07445100
20MABNDL000196_PR036
Spot 1     0.01192601     0.03582559    -0.07483600
Spot 2     0.01209017     0.03582532    -0.07483600
Spot 1     0.01192605     0.03582550    -0.07483600
Spot 2     0.01209055     0.03582528    -0.07483600
Spot 1     0.01192585     0.03582556    -0.07483600
Spot 2     0.01209046     0.03582467    -0.07483600
20MABNDL000196_PR037
Spot 1     0.01344898     0.03536374    -0.07483600
Spot 2     0.01360410     0.03536259    -0.07483600
Spot 1     0.01344918     0.03536364    -0.07483600
Spot 2     0.01360414     0.03536256    -0.07483600
Spot 1     0.01344920     0.03536388    -0.07483600
Spot 2     0.01360407     0.03536257    -0.07483600
20MABNDL000196_20MABNDM000020
Spot 1    -0.01275016     0.03531221    -0.00611000
Spot 2    -0.01252887     0.03532172    -0.00611000
Spot 1    -0.01275038     0.03531247    -0.00611000
Spot 2    -0.01252876     0.03532209    -0.00611000
Spot 1    -0.01275007     0.03531246    -0.00611000
Spot 2    -0.01252897     0.03532165    -0.00611000
20MABNDL000196_PR012
Spot 1    -0.01348184     0.03559847    -0.00611000
Spot 2    -0.01355543     0.03564309    -0.00611000
Spot 1    -0.01348210     0.03559847    -0.00611000
Spot 2    -0.01355534     0.03564316    -0.00611000
Spot 1    -0.01348169     0.03559867    -0.00611000
Spot 2    -0.01355540     0.03564314    -0.00611000
20MABNDA000318_PR004
Spot 1    -0.01264520     0.01246912    -0.07310600
Spot 2    -0.01286342     0.01246884    -0.07310600
Spot 1    -0.01264526     0.01246891    -0.07310600
Spot 2    -0.01286324     0.01246866    -0.07310600
Spot 1    -0.01264538     0.01246894    -0.07310600
Spot 2    -0.01286315     0.01246913    -0.07310600
20MABNDA000334_PR005
Spot 1    -0.01311452     0.01254084    -0.07324100
Spot 2    -0.01283434     0.01253962    -0.07324100
Spot 1    -0.01311459     0.01254063    -0.07324100
Spot 2    -0.01283428     0.01254005    -0.07324100
Spot 1    -0.01311451     0.01254094    -0.07324100
Spot 2    -0.01283437     0.01253991    -0.07324100
20MABNDB000317_PR015
Spot 1    -0.01244936    -0.01250848    -0.07326100
Spot 2    -0.01266968    -0.01250435    -0.07326100
Spot 1    -0.01244921    -0.01250838    -0.07326100
Spot 2    -0.01266969    -0.01250443    -0.07326100
Spot 1    -0.01244934    -0.01250840    -0.07326100
Spot 2    -0.01266967    -0.01250437    -0.07326100
20MABNDB000146_PR016
Spot 1    -0.01276427    -0.01246899    -0.07450500
Spot 2    -0.01248821    -0.01246582    -0.07450500
Spot 1    -0.01276419    -0.01246887    -0.07450500
Spot 2    -0.01248795    -0.01246554    -0.07450500
Spot 1    -0.01276419    -0.01246887    -0.07450500
Spot 2    -0.01248805    -0.01246562    -0.07450500
20MABNDB000135_PR027
Spot 1    -0.01251418    -0.01319875    -0.07464700
Spot 2    -0.01229615    -0.01319932    -0.07464700
Spot 1    -0.01251431    -0.01319884    -0.07464700
Spot 2    -0.01229622    -0.01319927    -0.07464700
Spot 1    -0.01251426    -0.01319892    -0.07464700
Spot 2    -0.01229615    -0.01319944    -0.07464700
20MABNDB000126_PR028
Spot 1    -0.01253561    -0.01217291    -0.07500400
Spot 2    -0.01225301    -0.01216977    -0.07500400
Spot 1    -0.01253560    -0.01217289    -0.07500400
Spot 2    -0.01225302    -0.01216987    -0.07500400
Spot 1    -0.01253562    -0.01217291    -0.07500400
Spot 2    -0.01225295    -0.01216978    -0.07500400
20MABNDA000272_PR038
Spot 1    -0.01275688     0.01316066    -0.07417900
Spot 2    -0.01253583     0.01316152    -0.07417900
Spot 1    -0.01275694     0.01316045    -0.07417900
Spot 2    -0.01253582     0.01316166    -0.07417900
Spot 1    -0.01275701     0.01316047    -0.07417900
Spot 2    -0.01253608     0.01316150    -0.07417900
20MABNDA000003_PR039
Spot 1    -0.01279995     0.01212671    -0.07373400
Spot 2    -0.01307797     0.01212655    -0.07373400
Spot 1    -0.01279999     0.01212667    -0.07373400
Spot 2    -0.01307799     0.01212669    -0.07373400
Spot 1    -0.01279988     0.01212683    -0.07373400
Spot 2    -0.01307843     0.01212660    -0.07373400
20MABNDA000196_PR006
Spot 1    -0.01295417     0.01325141    -0.07967100
Spot 2    -0.01258767     0.01324921    -0.07967100
Spot 1    -0.01295427     0.01325152    -0.07967100
Spot 2    -0.01258789     0.01324921    -0.07967100
Spot 1    -0.01295434     0.01325153    -0.07967100
Spot 2    -0.01258797     0.01324954    -0.07967100
20MABNDA000324_PR007
Spot 1    -0.01254693     0.01280698    -0.07446800
Spot 2    -0.01234096     0.01280264    -0.07446800
Spot 1    -0.01254684     0.01280693    -0.07446800
Spot 2    -0.01234089     0.01280274    -0.07446800
Spot 1    -0.01254687     0.01280704    -0.07446800
Spot 2    -0.01234097     0.01280288    -0.07446800
20MABNDB000001_PR017
Spot 1    -0.01228642    -0.01355129    -0.07418400
Spot 2    -0.01191816    -0.01354647    -0.07418400
Spot 1    -0.01228638    -0.01355111    -0.07418400
Spot 2    -0.01191823    -0.01354666    -0.07418400
Spot 1    -0.01228633    -0.01355114    -0.07418400
Spot 2    -0.01191817    -0.01354674    -0.07418400
20MABNDB000260_PR019
Spot 1    -0.01241566    -0.01239452    -0.07492700
Spot 2    -0.01221265    -0.01239209    -0.07492700
Spot 1    -0.01241593    -0.01239437    -0.07492700
Spot 2    -0.01221307    -0.01239145    -0.07492700
Spot 1    -0.01241578    -0.01239443    -0.07492700
Spot 2    -0.01221302    -0.01239153    -0.07492700
20MABNDB000212_PR029
Spot 1    -0.01185920    -0.01327986    -0.07390500
Spot 2    -0.01221936    -0.01327593    -0.07390500
Spot 1    -0.01185896    -0.01328005    -0.07390500
Spot 2    -0.01221939    -0.01327599    -0.07390500
Spot 1    -0.01185900    -0.01327973    -0.07390500
Spot 2    -0.01221920    -0.01327608    -0.07390500
20MABNDB000128_PR030
Spot 1    -0.01245012    -0.01221761    -0.07353400
Spot 2    -0.01224478    -0.01222281    -0.07353400
Spot 1    -0.01245033    -0.01221740    -0.07353400
Spot 2    -0.01224486    -0.01222238    -0.07353400
Spot 1    -0.01245007    -0.01221779    -0.07353400
Spot 2    -0.01224457    -0.01222226    -0.07353400
20MABNDA000444_PR040
Spot 1    -0.01168670     0.01367363    -0.07412000
Spot 2    -0.01205305     0.01367256    -0.07412000
Spot 1    -0.01168690     0.01367358    -0.07412000
Spot 2    -0.01205370     0.01367235    -0.07412000
Spot 1    -0.01168662     0.01367372    -0.07412000
Spot 2    -0.01205393     0.01367224    -0.07412000
20MABNDA000053_PR041
Spot 1    -0.01241358     0.01211834    -0.07430100
Spot 2    -0.01220256     0.01211711    -0.07430100
Spot 1    -0.01241232     0.01211749    -0.07430100
Spot 2    -0.01220256     0.01211679    -0.07430100
Spot 1    -0.01241174     0.01211771    -0.07430100
Spot 2    -0.01220150     0.01211519    -0.07430100
20MABNDA000188_PR008
Spot 1    -0.01369093     0.01279700    -0.07502000
Spot 2    -0.01369093     0.01279700    -0.07502000
Spot 1    -0.01369093     0.01279700    -0.07502000
Spot 2    -0.01369093     0.01279700    -0.07502000
Spot 1    -0.01369093     0.01279700    -0.07502000
Spot 2    -0.01369093     0.01279700    -0.07502000
20MABNDA000188_PR018
Spot 1    -0.01272694     0.01231696    -0.07502000
Spot 2    -0.01225916     0.01231659    -0.07502000
Spot 1    -0.01272685     0.01231688    -0.07502000
Spot 2    -0.01225918     0.01231671    -0.07502000
Spot 1    -0.01272690     0.01231678    -0.07502000
Spot 2    -0.01225914     0.01231648    -0.07502000
20MABNDA000039_PR009
Spot 1    -0.01162637     0.01306433    -0.07444800
Spot 2    -0.01157908     0.01305984    -0.07444800
Spot 1    -0.01162644     0.01306447    -0.07444800
Spot 2    -0.01157929     0.01306012    -0.07444800
Spot 1    -0.01162650     0.01306456    -0.07444800
Spot 2    -0.01157903     0.01305998    -0.07444800
20MABNDA000039_PR011
Spot 1    -0.01372818     0.01396217    -0.07444800
Spot 2    -0.01355248     0.01396670    -0.07444800
Spot 1    -0.01372828     0.01396219    -0.07444800
Spot 2    -0.01355238     0.01396677    -0.07444800
Spot 1    -0.01372825     0.01396205    -0.07444800
Spot 2    -0.01355258     0.01396654    -0.07444800
20MABNDB000155_PR020
Spot 1    -0.01364209    -0.01312231    -0.07501700
Spot 2    -0.01357598    -0.01312525    -0.07501700
Spot 1    -0.01364249    -0.01312172    -0.07501700
Spot 2    -0.01357625    -0.01312535    -0.07501700
Spot 1    -0.01364153    -0.01312143    -0.07501700
Spot 2    -0.01357685    -0.01312511    -0.07501700
20MABNDB000155_PR022
Spot 1    -0.01213187    -0.01280834    -0.07501700
Spot 2    -0.01165866    -0.01280725    -0.07501700
Spot 1    -0.01213179    -0.01280836    -0.07501700
Spot 2    -0.01165867    -0.01280710    -0.07501700
20MABNDB000010_PR021
Spot 1    -0.01157961    -0.01292948    -0.07358200
Spot 2    -0.01113882    -0.01393614    -0.07358200
Spot 1    -0.01157934    -0.01292939    -0.07358200
Spot 2    -0.01113882    -0.01393614    -0.07358200
20MABNDB000010_PR023
Spot 1    -0.01311915    -0.01380329    -0.07358200
Spot 2    -0.01294432    -0.01380235    -0.07358200
Spot 1    -0.01311909    -0.01380321    -0.07358200
Spot 2    -0.01294438    -0.01380244    -0.07358200
20MABNDB000069_PR031
Spot 1    -0.01359315    -0.01286165    -0.07388500
Spot 2    -0.01352107    -0.01286604    -0.07388500
Spot 1    -0.01359208    -0.01286193    -0.07388500
Spot 2    -0.01352115    -0.01286596    -0.07388500
20MABNDB000069_PR033
Spot 1    -0.01202425    -0.01226504    -0.07388500
Spot 2    -0.01155326    -0.01226379    -0.07388500
Spot 1    -0.01202435    -0.01226502    -0.07388500
Spot 2    -0.01155334    -0.01226406    -0.07388500
20MABNDB000131_PR032
Spot 1    -0.01144545    -0.01303972    -0.07533000
Spot 2    -0.01138548    -0.01303596    -0.07533000
Spot 1    -0.01144514    -0.01303967    -0.07533000
Spot 2    -0.01138562    -0.01303591    -0.07533000
20MABNDB000131_PR034
Spot 1    -0.01330211    -0.01380034    -0.07533000
Spot 2    -0.01312565    -0.01379946    -0.07533000
Spot 1    -0.01330227    -0.01380031    -0.07533000
Spot 2    -0.01312578    -0.01379951    -0.07533000
20MABNDA000208_PR042
Spot 1    -0.01368603     0.01339253    -0.07273700
Spot 2    -0.01390114     0.01352104    -0.07273700
Spot 1    -0.01351056     0.01354579    -0.07273700
Spot 2    -0.01389864     0.01352105    -0.07273700
20MABNDA000208_PR046
Spot 1    -0.01232776     0.01176385    -0.07273700
Spot 2    -0.01189254     0.01191937    -0.07273700
Spot 1    -0.01232775     0.01176383    -0.07273700
Spot 2    -0.01189246     0.01191917    -0.07273700
20MABNDA000035_PR044
Spot 1    -0.01157276     0.01300741    -0.07483200
Spot 2    -0.01151446     0.01301221    -0.07483200
Spot 1    -0.01157291     0.01300737    -0.07483200
Spot 2    -0.01151410     0.01301247    -0.07483200
20MABNDA000035_PR045
Spot 1    -0.01336559     0.01381179    -0.07483200
Spot 2    -0.01318893     0.01381196    -0.07483200
Spot 1    -0.01336586     0.01381182    -0.07483200
Spot 2    -0.01318902     0.01381211    -0.07483200


*****************************************************************coordonnees du prisme dans le repere MOUNT********************************************************************************** 
20MABNDL000077_PR002
    0.06737348     0.07371713     3.70652628
    0.05009785     0.04751828     3.70691466
    0.04178365     0.05678891     3.70694900
20MABNDL000077_PR003
    0.02097092     0.02142427     3.89601803
    0.02096449     0.02143108     3.89601803
    0.02096736     0.02143209     3.89601803
20MABNDL000077_20MABNDM000168
   -0.05598099     0.07578972    -5.46843624
   -0.05597622     0.07578291    -5.46843624
   -0.05597918     0.07578974    -5.46843624
20MABNDL000077_PR024
    0.04572758     0.01708377    -5.89639807
    0.04573036     0.01707912    -5.89639807
    0.04570147     0.01708233    -5.89639807
20MABNDM000020_PR013
   -0.00365423    -0.01812368    -3.80243397
   -0.00364969    -0.01810472    -3.80243397
   -0.00365689    -0.01811555    -3.80243397
20MABNDM000020_PR014
   -0.06560054    -0.00497231    -4.74840927
   -0.06557068    -0.00497195    -4.74840975
   -0.06557190    -0.00497291    -4.74840975
20MABNDM000020_20MABNDL000196
    0.02683877    -0.07123519     5.39469719
    0.02684809    -0.07122373     5.39469719
    0.02683698    -0.07122803     5.39469719
20MABNDM000020_PR035
   -0.04242555    -0.00671258     5.80095482
   -0.04240552    -0.00670256     5.80095482
   -0.04241437    -0.00671951     5.80095482
20MABNDM000168_PR025
    0.06046704    -0.07796145    -3.78783894
    0.01054214    -0.07917209    -3.78847384
    0.06046704    -0.07796145    -3.78783894
20MABNDM000168_PR026
   -0.05781788    -0.01388223    -3.98429012
   -0.05782782    -0.01387342    -3.98429012
   -0.05782050    -0.01387963    -3.98429012
20MABNDM000168_20MABNDL000077
    0.01154516    -0.03874228     5.38884687
    0.01153817    -0.03875332     5.38884687
    0.01155101    -0.03873518     5.38884687
20MABNDM000168_PR001
   -0.05731910    -0.01335519     5.81470585
   -0.05732724    -0.01335546     5.81470585
   -0.05731636    -0.01335407     5.81470585
20MABNDL000196_PR036
    0.05137294     0.00607633     3.68777251
    0.05136263     0.00607949     3.68777275
    0.05136971     0.00609301     3.68777275
20MABNDL000196_PR037
   -0.02509415     0.02839286     3.88381338
   -0.02510036     0.02839621     3.88381290
   -0.02509905     0.02838975     3.88381290
20MABNDL000196_20MABNDM000020
   -0.01568736     0.03793428    -5.47473907
   -0.01568331     0.03791136    -5.47473907
   -0.01568687     0.03792782    -5.47473907
20MABNDL000196_PR012
    0.05240047     0.01447218    -5.91537142
    0.05240712     0.01446999    -5.91537094
    0.05239366     0.01446272    -5.91537142
20MABNDA000318_PR004
   -0.00854531     0.03841212     2.74965906
   -0.00854753     0.03841926     2.74965906
   -0.00854695     0.03841009     2.74965906
20MABNDA000334_PR005
   -0.00431819     0.03174248     2.14977169
   -0.00431805     0.03173934     2.14977169
   -0.00431791     0.03173691     2.14977169
20MABNDB000317_PR015
   -0.01726993    -0.03375958     2.75129223
   -0.01727266    -0.03375980     2.75129223
   -0.01727065    -0.03376069     2.75129223
20MABNDB000146_PR016
   -0.01342922    -0.03156996     2.15201473
   -0.01343410    -0.03157572     2.15201473
   -0.01343266    -0.03157457     2.15201473
20MABNDB000135_PR027
   -0.02098143    -0.00979064     2.74937153
   -0.02097775    -0.00978995     2.74937153
   -0.02097990    -0.00978534     2.74937153
20MABNDB000126_PR028
   -0.02032026    -0.03896546     2.14679527
   -0.02032027    -0.03896432     2.14679527
   -0.02032097    -0.03896532     2.14679527
20MABNDA000272_PR038
   -0.01328962     0.01077857     2.74965858
   -0.01328870     0.01077985     2.74965858
   -0.01328265     0.01078240     2.74965858
20MABNDA000003_PR039
   -0.00599050     0.04122248     2.14891577
   -0.00598965     0.04122105     2.14891577
   -0.00598493     0.04122004     2.14891577
20MABNDA000196_PR006
   -0.01011464     0.00987743     1.64206314
   -0.01011105     0.00987618     1.64206314
   -0.01010946     0.00987244     1.64206314
20MABNDA000324_PR007
   -0.02552285     0.02795359     2.95549011
   -0.02552599     0.02795259     2.95549011
   -0.02552398     0.02794768     2.95549011
20MABNDB000001_PR017
   -0.02446487    -0.00282394     1.64035726
   -0.02446454    -0.00282384     1.64035726
   -0.02446573    -0.00282262     1.64035726
20MABNDB000260_PR019
   -0.02408443    -0.03852934     2.95627475
   -0.02407072    -0.03854502     2.95627475
   -0.02407471    -0.03854235     2.95627475
20MABNDB000212_PR029
   -0.02529532    -0.00847507     1.64223862
   -0.02529760    -0.00847230     1.64223862
   -0.02529927    -0.00847481     1.64223862
20MABNDB000128_PR030
   -0.01948157    -0.04673597     2.95496345
   -0.01947583    -0.04674853     2.95496345
   -0.01948666    -0.04674326     2.95496345
20MABNDA000444_PR040
   -0.03021104     0.00094683     1.64490914
   -0.03020166     0.00094969     1.64490914
   -0.03020220     0.00094935     1.64490914
20MABNDA000053_PR041
   -0.02655100     0.05112370     2.95450354
   -0.02657568     0.05114657     2.95450330
   -0.02660776     0.05117350     2.95450282
20MABNDA000188_PR008
    0.10933864     0.04538462     9.20419693
    0.10933864     0.04538462     9.20419693
    0.10933864     0.04538462     9.20419693
20MABNDA000188_PR018
   -0.01618535     0.02581832     1.28358257
   -0.01618595     0.02581798     1.28358257
   -0.01618593     0.02582081     1.28358257
20MABNDA000039_PR009
   -0.17111596     0.02557126    11.00701618
   -0.17109561     0.02554045    11.00701618
   -0.17111024     0.02554417    11.00701618
20MABNDA000039_PR011
    0.03086066    -0.02413889     3.43347406
    0.03086065    -0.02414094     3.43347406
    0.03086456    -0.02413252     3.43347406
20MABNDB000155_PR020
    0.10154511    -0.00959112     9.20029068
    0.10158665    -0.00962125     9.20029068
    0.10156438    -0.00965349     9.20029068
20MABNDB000155_PR022
   -0.02604182    -0.01803315     1.28070188
   -0.02604241    -0.01803426     1.28070188
20MABNDB000010_PR021
   -0.20492026     0.04113900    11.00636673
   -0.20493999     0.04113279    11.00636673
20MABNDB000010_PR023
    0.00407843     0.02079815     3.43376732
    0.00407842     0.02079839     3.43376732
20MABNDB000069_PR031
    0.10230576    -0.03873882     9.20356178
    0.10224486    -0.03872709     9.20356369
20MABNDB000069_PR033
   -0.02685747    -0.02691324     1.28394055
   -0.02685592    -0.02691108     1.28394055
20MABNDB000131_PR032
   -0.18761733    -0.02940495    11.00642776
   -0.18762973    -0.02941159    11.00642776
20MABNDB000131_PR034
    0.01477147     0.01650963     3.43337536
    0.01477808     0.01650989     3.43337488
20MABNDA000208_PR042
    0.11984499    -0.03612583     9.20150852
    0.10892309    -0.04553300     9.20160389
20MABNDA000208_PR046
   -0.02299815     0.03382591     1.28209877
   -0.02299892     0.03382779     1.28209877
20MABNDA000035_PR044
   -0.18009073     0.02571351    11.00802231
   -0.18010619     0.02569753    11.00802231
20MABNDA000035_PR045
    0.01421121    -0.01956880     3.43483448
    0.01421939    -0.01957297     3.43483400


*****************************************************************coordonnees du prisme dans le repere ATLAS********************************************************************************** 
20MABNDL000077_PR002 0.00000000
    2.78332901    -3.67712641     6.48587990
    2.80952287    -3.69441080     6.48622131
    2.80024958    -3.70272207     6.48625422
20MABNDL000077_PR003 0.00000000
    2.83579302    -3.72377944     6.67526293
    2.83578610    -3.72378588     6.67526293
    2.83578515    -3.72378302     6.67526293
20MABNDL000077_20MABNDM000168 0.00000000
    2.77221775    -3.78916025    -2.68922138
    2.77222443    -3.78915548    -2.68922138
    2.77221775    -3.78915834    -2.68922138
20MABNDL000077_PR024 0.00000000
    2.83053613    -3.68694234    -3.11711478
    2.83054090    -3.68693948    -3.11711478
    2.83053756    -3.68696833    -3.11711478
20MABNDM000020_PR013 0.00000000
   -2.83418560    -3.73582983     6.48627663
   -2.83420467    -3.73583436     6.48627663
   -2.83419394    -3.73582721     6.48627663
20MABNDM000020_PR014 0.00000000
   -2.84712887    -3.67459893     7.43230152
   -2.84712911    -3.67462873     7.43230200
   -2.84712815    -3.67462754     7.43230200
20MABNDM000020_20MABNDL000196 0.00000000
   -2.78292418    -3.75934434    -2.71088576
   -2.78293562    -3.75935364    -2.71088576
   -2.78293133    -3.75934243    -2.71088576
20MABNDM000020_PR035 0.00000000
   -2.84750676    -3.68975115    -3.11707759
   -2.84751678    -3.68977118    -3.11707759
   -2.84749985    -3.68976235    -3.11707759
20MABNDM000168_PR025 0.00000000
    2.77526426    -3.80578089    -6.47843838
    2.77406669    -3.75585580    -6.47909212
    2.77526426    -3.80578089    -6.47843838
20MABNDM000168_PR026 0.00000000
    2.83936286    -3.68758607    -6.67493773
    2.83937168    -3.68757606    -6.67493773
    2.83936548    -3.68758345    -6.67493773
20MABNDM000168_20MABNDL000077 0.00000000
    2.81505322    -3.75345731     2.69822621
    2.81504226    -3.75345016     2.69822598
    2.81506038    -3.75346303     2.69822621
20MABNDM000168_PR001 0.00000000
    2.84048438    -3.68444133     3.12405801
    2.84048414    -3.68443322     3.12405801
    2.84048557    -3.68444419     3.12405801
20MABNDL000196_PR036 0.00000000
   -2.84753108    -3.69290161    -6.47909594
   -2.84752798    -3.69291186    -6.47909641
   -2.84751439    -3.69290471    -6.47909641
20MABNDL000196_PR037 0.00000000
   -2.82518339    -3.76954055    -6.67506599
   -2.82518005    -3.76954675    -6.67506552
   -2.82518649    -3.76954532    -6.67506552
20MABNDL000196_20MABNDM000020 0.00000000
   -2.81544399    -3.75142407     2.68347335
   -2.81546688    -3.75142002     2.68347335
   -2.81545043    -3.75142360     2.68347335
20MABNDL000196_PR012 0.00000000
   -2.83892822    -3.68293715     3.12404275
   -2.83893061    -3.68293071     3.12404227
   -2.83893776    -3.68294406     3.12404275
20MABNDA000318_PR004 0.00000000
    2.61445785    -4.19698811     3.83358645
    2.61445570    -4.19698811     3.83357930
    2.61445618    -4.19698811     3.83358860
20MABNDA000334_PR005 0.00000000
    2.61668038    -4.19703150     5.89751863
    2.61668062    -4.19703150     5.89752150
    2.61668062    -4.19703150     5.89752388
20MABNDB000317_PR015 0.00000000
   -2.61133718    -4.19700670     3.83625579
   -2.61133456    -4.19700670     3.83625579
   -2.61133647    -4.19700670     3.83625484
20MABNDB000146_PR016 0.00000000
   -2.61286592    -4.19702291     5.89878035
   -2.61286116    -4.19702291     5.89877462
   -2.61286259    -4.19702291     5.89877558
20MABNDB000135_PR027 0.00000000
    2.60388184    -4.19700384    -3.82557011
    2.60388565    -4.19700384    -3.82557082
    2.60388350    -4.19700384    -3.82557559
20MABNDB000126_PR028 0.00000000
    2.60559702    -4.19702101    -5.89325428
    2.60559702    -4.19702101    -5.89325571
    2.60559630    -4.19702101    -5.89325476
20MABNDA000272_PR038 0.00000000
   -2.61124730    -4.19698286    -3.82770586
   -2.61124825    -4.19698286    -3.82770443
   -2.61125422    -4.19698286    -3.82770205
20MABNDA000003_PR039 0.00000000
   -2.61574054    -4.19702101    -5.89154434
   -2.61574149    -4.19702101    -5.89154577
   -2.61574626    -4.19702101    -5.89154673
20MABNDA000196_PR006 0.00000000
    2.58457518    -4.19496584     6.54783392
    2.58457160    -4.19496584     6.54783249
    2.58456993    -4.19496584     6.54782915
20MABNDA000324_PR007 0.00000000
    2.59379196    -4.13996840     6.94796133
    2.59378886    -4.13996840     6.94796276
    2.59379077    -4.13996840     6.94796753
20MABNDB000001_PR017 0.00000000
   -2.59816623    -4.19506073     6.53815174
   -2.59816575    -4.19506073     6.53815174
   -2.59816694    -4.19506073     6.53815079
20MABNDB000260_PR019 0.00000000
   -2.60467744    -4.13995981     6.94211435
   -2.60469103    -4.13995981     6.94209909
   -2.60468721    -4.13995981     6.94210148
20MABNDB000212_PR029 0.00000000
    2.59897304    -4.19501019    -6.54746294
    2.59897542    -4.19501019    -6.54746008
    2.59897709    -4.19501019    -6.54746246
20MABNDB000128_PR030 0.00000000
    2.60937715    -4.14002657    -6.93138504
    2.60938287    -4.14002657    -6.93137264
    2.60937214    -4.14002657    -6.93137789
20MABNDA000444_PR040 0.00000000
   -2.60538363    -4.19510031    -6.54012728
   -2.60537410    -4.19510031    -6.54013014
   -2.60537481    -4.19510031    -6.54012966
20MABNDA000053_PR041 0.00000000
   -2.59399104    -4.14012718    -6.92678976
   -2.59396625    -4.14012718    -6.92676687
   -2.59393430    -4.14012766    -6.92674017
20MABNDA000188_PR008 0.00000000
    3.52420664     3.85074425     7.96562338
    3.52420664     3.85074425     7.96562338
    3.52420664     3.85074425     7.96562338
20MABNDA000188_PR018 0.00000000
    3.52095151    -4.07059622     7.89763021
    3.52095079    -4.07059622     7.89763069
    3.52095103    -4.07059622     7.89762783
20MABNDA000039_PR009 0.00000000
    3.87528801     3.64747429    12.93686485
    3.87526751     3.64747429    12.93683434
    3.87528229     3.64747429    12.93683815
20MABNDA000039_PR011 0.00000000
    3.66416335    -3.92580175    12.88469791
    3.66416335    -3.92580175    12.88469601
    3.66415954    -3.92580175    12.88470364
20MABNDB000155_PR020 0.00000000
   -3.68019724     3.84882498     7.89727640
   -3.68023872     3.84882498     7.89724588
   -3.68021655     3.84882498     7.89721394
20MABNDB000155_PR022 0.00000000
   -3.53393865    -4.07044220     7.89002609
   -3.53393793    -4.07044220     7.89002514
20MABNDB000010_PR021 0.00000000
   -3.89082336     3.64708304    12.86071587
   -3.89084315     3.64708304    12.86072254
20MABNDB000010_PR023 0.00000000
   -3.68558836    -3.92560935    12.88447762
   -3.68558836    -3.92560935    12.88447762
20MABNDB000069_PR031 0.00000000
    3.68402243     3.84875607    -7.90166378
    3.68396163     3.84875822    -7.90167570
20MABNDB000069_PR033 0.00000000
    3.53344202    -4.07046270    -7.87875795
    3.53344345    -4.07046270    -7.87876034
20MABNDB000131_PR032 0.00000000
    3.86841989     3.64757776   -12.94004726
    3.86843228     3.64757776   -12.94005394
20MABNDB000131_PR034 0.00000000
    3.67301798    -3.92564154   -12.89143753
    3.67301130    -3.92564201   -12.89143753
20MABNDA000208_PR042 0.00000000
   -3.66989589     3.84916091    -7.94760561
   -3.65896893     3.84924507    -7.95700693
20MABNDA000208_PR046 0.00000000
   -3.53276682    -4.07032299    -7.87469244
   -3.53276610    -4.07032299    -7.87469053
20MABNDA000035_PR044 0.00000000
   -3.86933160     3.64757752   -12.93139267
   -3.86934686     3.64757752   -12.93137646
20MABNDA000035_PR045 0.00000000
   -3.67651701    -3.92565274   -12.88681507
   -3.67650890    -3.92565322   -12.88681126


*****************************************************************Rapport********************************************************************************** 
CAM-LBA-US_EBA-US-HO-H         2018.10.24.11.35.02     2.79770048    -3.69141976     6.48611848     0.01084444     0.01066128     0.00016923 0.00000000 VRAI 
CAM-LBA-US_JDA-US-H            2018.10.24.11.35.02     2.83578809    -3.72378278     6.67526293     0.00000351     0.00000263     0.00000000 0.00000000 VRAI 
CAM-LBA-US_CAM-LBC-US          2018.10.24.11.35.02     2.77221998    -3.78915803    -2.68922138     0.00000315     0.00000196     0.00000000 0.00000000 VRAI 
CAM-LBA-US_EBC-US-IP-H         2018.10.24.11.35.02     2.83053819    -3.68695005    -3.11711478     0.00000200     0.00001298     0.00000000 0.00000000 VRAI 
CAM-LBA-USA_EBA-USA-HO-H       2018.10.24.11.35.02    -2.83419474    -3.73583047     6.48627663     0.00000781     0.00000295     0.00000000 0.00000000 VRAI 
CAM-LBA-USA_JDA-USA-H          2018.10.24.11.35.02    -2.84712871    -3.67461840     7.43230184     0.00000041     0.00001378     0.00000022 0.00000000 VRAI 
CAM-LBA-USA_CAM-LBC-USA        2018.10.24.11.35.02    -2.78293037    -3.75934680    -2.71088576     0.00000472     0.00000490     0.00000000 0.00000000 VRAI 
CAM-LBA-USA_EBC-USA-IP-H       2018.10.24.11.35.02    -2.84750779    -3.68976156    -3.11707759     0.00000695     0.00000820     0.00000000 0.00000000 VRAI 
CAM-LBC-US_EBC-US-HO-H         2018.10.24.11.35.02     2.77486507    -3.78913919    -6.47865629     0.00056454     0.02353491     0.00030818 0.00000000 VRAI 
CAM-LBC-US_JDC-US-H            2018.10.24.11.35.02     2.83936667    -3.68758186    -6.67493773     0.00000370     0.00000424     0.00000000 0.00000000 VRAI 
CAM-LBC-US_CAM-LBA-US          2018.10.24.11.35.02     2.81505195    -3.75345683     2.69822613     0.00000745     0.00000527     0.00000011 0.00000000 VRAI 
CAM-LBC-US_EBA-US-IP-H         2018.10.24.11.35.02     2.84048470    -3.68443958     3.12405801     0.00000063     0.00000464     0.00000000 0.00000000 VRAI 
CAM-LBC-USA_EBC-USA-HO-H       2018.10.24.11.35.02    -2.84752448    -3.69290606    -6.47909625     0.00000725     0.00000429     0.00000022 0.00000000 VRAI 
CAM-LBC-USA_JDC-USA-H          2018.10.24.11.35.02    -2.82518331    -3.76954420    -6.67506568     0.00000263     0.00000265     0.00000022 0.00000000 VRAI 
CAM-LBC-USA_CAM-LBA-USA        2018.10.24.11.35.02    -2.81545377    -3.75142256     2.68347335     0.00000964     0.00000181     0.00000000 0.00000000 VRAI 
CAM-LBC-USA_EBA-USA-IP-H       2018.10.24.11.35.02    -2.83893220    -3.68293730     3.12404259     0.00000405     0.00000545     0.00000022 0.00000000 VRAI 
CAM-EBA-US-IP_EBA-US-IP        2018.10.24.11.35.02     2.61445657    -4.19698811     3.83358479     0.00000092     0.00000000     0.00000398 0.00000000 VRAI 
CAM-EBA-US-HO_EBA-US-HO        2018.10.24.11.35.02     2.61668054    -4.19703150     5.89752134     0.00000011     0.00000000     0.00000214 0.00000000 VRAI 
CAM-EBA-USA-IP_EBA-USA-IP      2018.10.24.11.35.02    -2.61133607    -4.19700670     3.83625547     0.00000111     0.00000000     0.00000045 0.00000000 VRAI 
CAM-EBA-USA-HO_EBA-USA-HO      2018.10.24.11.35.02    -2.61286322    -4.19702291     5.89877685     0.00000200     0.00000000     0.00000250 0.00000000 VRAI 
CAM-EBC-US-IP_EBC-US-IP        2018.10.24.11.35.02     2.60388366    -4.19700384    -3.82557217     0.00000156     0.00000000     0.00000243 0.00000000 VRAI 
CAM-EBC-US-HO_EBC-US-HO        2018.10.24.11.35.02     2.60559678    -4.19702101    -5.89325492     0.00000034     0.00000000     0.00000059 0.00000000 VRAI 
CAM-EBC-USA-IP_EBC-USA-IP      2018.10.24.11.35.02    -2.61124992    -4.19698286    -3.82770411     0.00000306     0.00000000     0.00000157 0.00000000 VRAI 
CAM-EBC-USA-HO_EBC-USA-HO      2018.10.24.11.35.02    -2.61574276    -4.19702101    -5.89154561     0.00000250     0.00000000     0.00000098 0.00000000 VRAI 
CAM-JDA-US-IP_JDA-US-IP        2018.10.24.11.35.02     2.58457224    -4.19496584     6.54783185     0.00000219     0.00000000     0.00000200 0.00000000 VRAI 
CAM-JDA-US-HO_JDA-US-HO        2018.10.24.11.35.02     2.59379053    -4.13996840     6.94796387     0.00000128     0.00000000     0.00000265 0.00000000 VRAI 
CAM-JDA-USA-IP_JDA-USA-IP      2018.10.24.11.35.02    -2.59816631    -4.19506073     6.53815142     0.00000049     0.00000000     0.00000045 0.00000000 VRAI 
CAM-JDA-USA-HO_JDA-USA-HO      2018.10.24.11.35.02    -2.60468523    -4.13995981     6.94210498     0.00000572     0.00000000     0.00000670 0.00000000 VRAI 
CAM-JDC-US-IP_JDC-US-IP        2018.10.24.11.35.02     2.59897518    -4.19501019    -6.54746183     0.00000166     0.00000000     0.00000125 0.00000000 VRAI 
CAM-JDC-US-HO_JDC-US-HO        2018.10.24.11.35.02     2.60937738    -4.14002657    -6.93137852     0.00000438     0.00000000     0.00000508 0.00000000 VRAI 
CAM-JDC-USA-IP_JDC-USA-IP      2018.10.24.11.35.02    -2.60537752    -4.19510031    -6.54012903     0.00000434     0.00000000     0.00000125 0.00000000 VRAI 
CAM-JDC-USA-HO_JDC-USA-HO      2018.10.24.11.35.02    -2.59396386    -4.14012734    -6.92676560     0.00002323     0.00000022     0.00002027 0.00000000 VRAI 
CAM-ECTA-US-IP_ECTA-US-IP-T    2018.10.24.11.35.02     3.52420664     3.85074425     7.96562338     0.00000000     0.00000000     0.00000000 0.00000000 VRAI 
CAM-ECTA-US-IP_ECTA-US-IP      2018.10.24.11.35.02     3.52095111    -4.07059622     7.89762958     0.00000030     0.00000000     0.00000125 0.00000000 VRAI 
CAM-ECTA-US-HO_ECTA-US-HO-T    2018.10.24.11.35.02     3.87527927     3.64747429    12.93684578     0.00000864     0.00000000     0.00001358 0.00000000 VRAI 
CAM-ECTA-US-HO_ECTA-US-HO      2018.10.24.11.35.02     3.66416208    -3.92580175    12.88469919     0.00000180     0.00000000     0.00000324 0.00000000 VRAI 
CAM-ECTA-USA-IP_ECTA-USA-IP-T  2018.10.24.11.35.02    -3.68021750     3.84882498     7.89724541     0.00001695     0.00000000     0.00002550 0.00000000 VRAI 
CAM-ECTA-USA-IP_ECTA-USA-IP    2018.10.24.11.35.02    -3.53393829    -4.07044220     7.89002562     0.00000036     0.00000000     0.00000048 0.00000000 VRAI 
CAM-ECTA-USA-HO_ECTA-USA-HO-T  2018.10.24.11.35.02    -3.89083326     3.64708304    12.86071920     0.00000989     0.00000000     0.00000334 0.00000000 VRAI 
CAM-ECTA-USA-HO_ECTA-USA-HO    2018.10.24.11.35.02    -3.68558836    -3.92560935    12.88447762     0.00000000     0.00000000     0.00000000 0.00000000 VRAI 
CAM-ECTC-US-IP_ECTC-US-IP-T    2018.10.24.11.35.02     3.68399203     3.84875715    -7.90166974     0.00003040     0.00000107     0.00000596 0.00000000 VRAI 
CAM-ECTC-US-IP_ECTC-US-IP      2018.10.24.11.35.02     3.53344274    -4.07046270    -7.87875915     0.00000072     0.00000000     0.00000119 0.00000000 VRAI 
CAM-ECTC-US-HO_ECTC-US-HO-T    2018.10.24.11.35.02     3.86842608     3.64757776   -12.94005060     0.00000620     0.00000000     0.00000334 0.00000000 VRAI 
CAM-ECTC-US-HO_ECTC-US-HO      2018.10.24.11.35.02     3.67301464    -3.92564178   -12.89143753     0.00000334     0.00000024     0.00000000 0.00000000 VRAI 
CAM-ECTC-USA-IP_ECTC-USA-IP-T  2018.10.24.11.35.02    -3.66443241     3.84920299    -7.95230627     0.00546348     0.00004208     0.00470066 0.00000000 VRAI 
CAM-ECTC-USA-IP_ECTC-USA-IP    2018.10.24.11.35.02    -3.53276646    -4.07032299    -7.87469149     0.00000036     0.00000000     0.00000095 0.00000000 VRAI 
CAM-ECTC-USA-HO_ECTC-USA-HO-T  2018.10.24.11.35.02    -3.86933923     3.64757752   -12.93138456     0.00000763     0.00000000     0.00000811 0.00000000 VRAI 
CAM-ECTC-USA-HO_ECTC-USA-HO    2018.10.24.11.35.02    -3.67651296    -3.92565298   -12.88681316     0.00000405     0.00000024     0.00000191 0.00000000 VRAI 
