********** Fichier qui contient une sauvegarde des coordonnees images + coordonnees images transformees dans le repere BCAM (MOUNT) + coordonnees des prismes dans le repere MOUNT********** 
********************************************************************** Unite en metres (m)************************************************************************************************** 

*******************************************************************coordonnees images dans le repere CCD *********************************************************************************** 
20MABNDL000077_PR002
Spot 1     0.00121493     0.00150139
Spot 2     0.00052500     0.00043500
Spot 1     0.00121455     0.00150376
Spot 2     0.00052500     0.00043500
Spot 1     0.00121560     0.00150214
Spot 2     0.00052500     0.00043500
20MABNDL000077_PR003
Spot 1     0.00138647     0.00148723
Spot 2     0.00153593     0.00148902
Spot 1     0.00138655     0.00148707
Spot 2     0.00153597     0.00148906
Spot 1     0.00138675     0.00148737
Spot 2     0.00153553     0.00148888
20MABNDL000077_20MABNDM000168
Spot 1     0.00175782     0.00118408
Spot 2     0.00075500     0.00010500
Spot 1     0.00175780     0.00118399
Spot 2     0.00075500     0.00010500
Spot 1     0.00175816     0.00118426
Spot 2     0.00075500     0.00010500
20MABNDL000077_PR024
Spot 1     0.00254670     0.00144899
Spot 2     0.00264703     0.00145601
Spot 1     0.00254642     0.00144895
Spot 2     0.00264649     0.00145592
Spot 1     0.00254679     0.00144889
Spot 2     0.00264636     0.00145598
20MABNDM000020_PR013
Spot 1     0.00162876     0.00152924
Spot 2     0.00147551     0.00153487
Spot 1     0.00162902     0.00152906
Spot 2     0.00147553     0.00153507
Spot 1     0.00162883     0.00152901
Spot 2     0.00147553     0.00153468
20MABNDM000020_PR014
Spot 1     0.00266067     0.00169099
Spot 2     0.00249927     0.00169513
Spot 1     0.00266073     0.00169082
Spot 2     0.00249949     0.00169523
Spot 1     0.00266053     0.00169085
Spot 2     0.00249939     0.00169515
20MABNDM000020_20MABNDL000196
Spot 1     0.00197822     0.00117878
Spot 2     0.00230500     0.00010500
Spot 1     0.00197837     0.00117873
Spot 2     0.00230500     0.00010500
Spot 1     0.00197825     0.00117881
Spot 2     0.00230500     0.00010500
20MABNDM000020_PR035
Spot 1     0.00127033     0.00149600
Spot 2     0.00118680     0.00153163
Spot 1     0.00127049     0.00149614
Spot 2     0.00118684     0.00153163
Spot 1     0.00127022     0.00149611
Spot 2     0.00118688     0.00153169
20MABNDM000168_PR025
Spot 1     0.00117511     0.00130079
Spot 2     0.00102171     0.00130114
Spot 1     0.00117506     0.00130067
Spot 2     0.00102163     0.00130094
Spot 1     0.00117489     0.00130095
Spot 2     0.00102175     0.00130104
20MABNDM000168_PR026
Spot 1     0.00266862     0.00143111
Spot 2     0.00250823     0.00142764
Spot 1     0.00266862     0.00143133
Spot 2     0.00250811     0.00142788
Spot 1     0.00266860     0.00143140
Spot 2     0.00250806     0.00142782
20MABNDM000168_20MABNDL000077
Spot 1     0.00154162     0.00130054
Spot 2     0.00175635     0.00130267
Spot 1     0.00154156     0.00130054
Spot 2     0.00175633     0.00130264
Spot 1     0.00154151     0.00130055
Spot 2     0.00175625     0.00130266
20MABNDM000168_PR001
Spot 1     0.00080892     0.00161866
Spot 2     0.00070763     0.00162069
Spot 1     0.00080890     0.00161851
Spot 2     0.00070759     0.00162080
Spot 1     0.00080912     0.00161827
Spot 2     0.00070749     0.00162084
20MABNDL000196_PR036
Spot 1     0.00094558     0.00163525
Spot 2     0.00110880     0.00163456
Spot 1     0.00094559     0.00163527
Spot 2     0.00110895     0.00163417
Spot 1     0.00094545     0.00163529
Spot 2     0.00110887     0.00163441
20MABNDL000196_PR037
Spot 1     0.00246720     0.00117159
Spot 2     0.00262134     0.00117003
Spot 1     0.00246689     0.00117194
Spot 2     0.00262129     0.00117004
Spot 1     0.00246695     0.00117204
Spot 2     0.00262127     0.00117015
20MABNDL000196_20MABNDM000020
Spot 1     0.00192423     0.00104201
Spot 2     0.00170327     0.00104720
Spot 1     0.00192416     0.00104207
Spot 2     0.00170316     0.00104701
Spot 1     0.00192413     0.00104211
Spot 2     0.00170331     0.00104741
20MABNDL000196_PR012
Spot 1     0.00264829     0.00134184
Spot 2     0.00272263     0.00139022
Spot 1     0.00264836     0.00134181
Spot 2     0.00272265     0.00139035
Spot 1     0.00264832     0.00134172
Spot 2     0.00272253     0.00139019
20MABNDA000318_PR004
Spot 1     0.00192323     0.00163117
Spot 2     0.00214125     0.00163029
Spot 1     0.00192312     0.00163116
Spot 2     0.00214123     0.00163000
Spot 1     0.00192330     0.00163099
Spot 2     0.00214157     0.00162980
20MABNDA000334_PR005
Spot 1     0.00247089     0.00159049
Spot 2     0.00219067     0.00159157
Spot 1     0.00247070     0.00159056
Spot 2     0.00219067     0.00159157
Spot 1     0.00247089     0.00159045
Spot 2     0.00219059     0.00159147
20MABNDB000317_PR015
Spot 1     0.00170752     0.00159067
Spot 2     0.00148801     0.00159661
Spot 1     0.00170747     0.00159062
Spot 2     0.00148795     0.00159674
Spot 1     0.00170737     0.00159074
Spot 2     0.00148796     0.00159685
20MABNDB000146_PR016
Spot 1     0.00144708     0.00132700
Spot 2     0.00172329     0.00132896
Spot 1     0.00144718     0.00132703
Spot 2     0.00172314     0.00132885
Spot 1     0.00144709     0.00132697
Spot 2     0.00172326     0.00132874
20MABNDB000135_PR027
Spot 1     0.00189157     0.00091884
Spot 2     0.00210958     0.00092098
Spot 1     0.00189144     0.00091879
Spot 2     0.00210962     0.00092094
Spot 1     0.00189157     0.00091887
Spot 2     0.00210962     0.00092094
20MABNDB000126_PR028
Spot 1     0.00164582     0.00200781
Spot 2     0.00192742     0.00200980
Spot 1     0.00164575     0.00200772
Spot 2     0.00192732     0.00200976
Spot 1     0.00164588     0.00200779
Spot 2     0.00192735     0.00200968
20MABNDA000272_PR038
Spot 1     0.00191779     0.00095398
Spot 2     0.00169726     0.00095288
Spot 1     0.00191797     0.00095360
Spot 2     0.00169693     0.00095279
Spot 1     0.00191791     0.00095383
Spot 2     0.00169722     0.00095293
20MABNDA000003_PR039
Spot 1     0.00199691     0.00192379
Spot 2     0.00227380     0.00192460
Spot 1     0.00199679     0.00192363
Spot 2     0.00227394     0.00192423
Spot 1     0.00199655     0.00192387
Spot 2     0.00227389     0.00192435
20MABNDA000196_PR006
Spot 1     0.00200273     0.00072580
Spot 2     0.00163680     0.00072357
Spot 1     0.00200268     0.00072585
Spot 2     0.00163663     0.00072387
Spot 1     0.00200257     0.00072596
Spot 2     0.00163680     0.00072392
20MABNDA000324_PR007
Spot 1     0.00193821     0.00121784
Spot 2     0.00173202     0.00122331
Spot 1     0.00193807     0.00121780
Spot 2     0.00173195     0.00122325
Spot 1     0.00193786     0.00121770
Spot 2     0.00173183     0.00122344
20MABNDB000001_PR017
Spot 1     0.00189396     0.00043907
Spot 2     0.00226171     0.00044760
Spot 1     0.00189396     0.00043910
Spot 2     0.00226171     0.00044776
Spot 1     0.00189388     0.00043907
Spot 2     0.00226176     0.00044743
20MABNDB000260_PR019
Spot 1     0.00192023     0.00151082
Spot 2     0.00212380     0.00151066
Spot 1     0.00192046     0.00151078
Spot 2     0.00212439     0.00151024
Spot 1     0.00192064     0.00151105
Spot 2     0.00212394     0.00151088
20MABNDB000212_PR029
Spot 1     0.00222343     0.00070538
Spot 2     0.00186457     0.00070543
Spot 1     0.00222322     0.00070531
Spot 2     0.00186457     0.00070585
Spot 1     0.00222338     0.00070542
Spot 2     0.00186500     0.00070568
20MABNDB000128_PR030
Spot 1     0.00190891     0.00200421
Spot 2     0.00211313     0.00199815
Spot 1     0.00190892     0.00200429
Spot 2     0.00211306     0.00199818
Spot 1     0.00190886     0.00200435
Spot 2     0.00211319     0.00199827
20MABNDA000444_PR040
Spot 1     0.00074663     0.00035989
Spot 2     0.00111331     0.00035617
Spot 1     0.00074656     0.00036025
Spot 2     0.00111368     0.00035658
Spot 1     0.00074684     0.00035996
Spot 2     0.00111329     0.00035671
20MABNDA000053_PR041
Spot 1     0.00165219     0.00199621
Spot 2     0.00144435     0.00199430
Spot 1     0.00165247     0.00199598
Spot 2     0.00144413     0.00199428
Spot 1     0.00165288     0.00199599
Spot 2     0.00144495     0.00199379
20MABNDA000188_PR008
Spot 1     0.00289500     0.00025500
Spot 2     0.00289611     0.00025611
Spot 1     0.00289500     0.00025500
Spot 2     0.00289500     0.00025500
Spot 1     0.00289500     0.00025500
Spot 2     0.00289500     0.00025500
20MABNDA000188_PR018
Spot 1     0.00159124     0.00151833
Spot 2     0.00112468     0.00151468
Spot 1     0.00159117     0.00151832
Spot 2     0.00112474     0.00151480
Spot 1     0.00159133     0.00151840
Spot 2     0.00112453     0.00151500
20MABNDA000039_PR009
Spot 1     0.00065847     0.00121140
Spot 2     0.00061125     0.00121504
Spot 1     0.00065847     0.00121141
Spot 2     0.00061134     0.00121504
Spot 1     0.00065817     0.00121143
Spot 2     0.00061105     0.00121500
20MABNDA000039_PR011
Spot 1     0.00275795     0.00037172
Spot 2     0.00258243     0.00036678
Spot 1     0.00275814     0.00037170
Spot 2     0.00258247     0.00036680
Spot 1     0.00275818     0.00037172
Spot 2     0.00258255     0.00036676
20MABNDB000155_PR020
Spot 1     0.00067656     0.00109954
Spot 2     0.00073978     0.00109527
Spot 1     0.00067652     0.00109978
Spot 2     0.00073986     0.00109561
Spot 1     0.00067605     0.00109967
Spot 2     0.00073955     0.00109545
20MABNDB000155_PR022
Spot 1     0.00225161     0.00118375
Spot 2     0.00272381     0.00118022
Spot 1     0.00225166     0.00118370
Spot 2     0.00272400     0.00117995
Spot 1     0.00225168     0.00118374
Spot 2     0.00272371     0.00118012
20MABNDB000010_PR021
Spot 1     0.00286706     0.00118184
Spot 2     0.00291981     0.00118171
Spot 1     0.00286722     0.00118209
Spot 2     0.00268722     0.00037722
Spot 1     0.00286712     0.00118167
Spot 2     0.00268833     0.00037833
20MABNDB000010_PR023
Spot 1     0.00130889     0.00039077
Spot 2     0.00148377     0.00038879
Spot 1     0.00130901     0.00039080
Spot 2     0.00148368     0.00038861
Spot 1     0.00130875     0.00039077
Spot 2     0.00148396     0.00038874
20MABNDB000069_PR031
Spot 1     0.00032304     0.00138002
Spot 2     0.00038692     0.00137960
Spot 1     0.00032121     0.00137926
Spot 2     0.00038912     0.00137962
Spot 1     0.00032104     0.00137865
Spot 2     0.00038884     0.00137986
20MABNDB000069_PR033
Spot 1     0.00190377     0.00181482
Spot 2     0.00237306     0.00183368
Spot 1     0.00190392     0.00181486
Spot 2     0.00237306     0.00183383
20MABNDB000131_PR032
Spot 1     0.00277491     0.00111314
Spot 2     0.00283427     0.00111757
Spot 1     0.00277469     0.00111320
Spot 2     0.00283405     0.00111767
20MABNDB000131_PR034
Spot 1     0.00091697     0.00042835
Spot 2     0.00109318     0.00042738
Spot 1     0.00091698     0.00042840
Spot 2     0.00109304     0.00042734
20MABNDA000208_PR042
Spot 1     0.00266722     0.00052093
Spot 2     0.00294667     0.00092333
Spot 1     0.00266740     0.00052100
Spot 2     0.00294773     0.00092409
20MABNDA000208_PR046
Spot 1     0.00132223     0.00197741
Spot 2     0.00084811     0.00197714
Spot 1     0.00132172     0.00197776
Spot 2     0.00084934     0.00197650
20MABNDA000035_PR044
Spot 1     0.00073578     0.00128760
Spot 2     0.00068072     0.00128223
Spot 1     0.00073628     0.00128756
Spot 2     0.00068026     0.00128242
20MABNDA000035_PR045
Spot 1     0.00253529     0.00055696
Spot 2     0.00235819     0.00055561
Spot 1     0.00253525     0.00055693
Spot 2     0.00235811     0.00055575


****************************************************************coordonnees images transformees dans le repere MOUNT************************************************************************* 
20MABNDL000077_PR002
Spot 1     0.01228525     0.03557282    -0.07463200
Spot 2     0.01158509     0.03451311    -0.07463200
Spot 1     0.01228489     0.03557519    -0.07463200
Spot 2     0.01158509     0.03451311    -0.07463200
Spot 1     0.01228593     0.03557356    -0.07463200
Spot 2     0.01158509     0.03451311    -0.07463200
20MABNDL000077_PR003
Spot 1     0.01245664     0.03555701    -0.07463200
Spot 2     0.01260611     0.03555736    -0.07463200
Spot 1     0.01245672     0.03555685    -0.07463200
Spot 2     0.01260615     0.03555740    -0.07463200
Spot 1     0.01245693     0.03555714    -0.07463200
Spot 2     0.01260571     0.03555722    -0.07463200
20MABNDL000077_20MABNDM000168
Spot 1    -0.01259296     0.03524706    -0.00695400
Spot 2    -0.01157915     0.03417830    -0.00695400
Spot 1    -0.01259294     0.03524697    -0.00695400
Spot 2    -0.01157915     0.03417830    -0.00695400
Spot 1    -0.01259330     0.03524723    -0.00695400
Spot 2    -0.01157915     0.03417830    -0.00695400
20MABNDL000077_PR024
Spot 1    -0.01338451     0.03550388    -0.00695400
Spot 2    -0.01348491     0.03550987    -0.00695400
Spot 1    -0.01338423     0.03550384    -0.00695400
Spot 2    -0.01348437     0.03550979    -0.00695400
Spot 1    -0.01338460     0.03550378    -0.00695400
Spot 2    -0.01348424     0.03550985    -0.00695400
20MABNDM000020_PR013
Spot 1    -0.01273013    -0.03548789    -0.00523500
Spot 2    -0.01288322    -0.03549690    -0.00523500
Spot 1    -0.01272987    -0.03548770    -0.00523500
Spot 2    -0.01288319    -0.03549710    -0.00523500
Spot 1    -0.01273007    -0.03548765    -0.00523500
Spot 2    -0.01288320    -0.03549671    -0.00523500
20MABNDM000020_PR014
Spot 1    -0.01169490    -0.03562678    -0.00523500
Spot 2    -0.01185617    -0.03563448    -0.00523500
Spot 1    -0.01169484    -0.03562661    -0.00523500
Spot 2    -0.01185594    -0.03563458    -0.00523500
Spot 1    -0.01169504    -0.03562664    -0.00523500
Spot 2    -0.01185604    -0.03563450    -0.00523500
20MABNDM000020_20MABNDL000196
Spot 1     0.01270806    -0.03514734    -0.07583800
Spot 2     0.01238113    -0.03407361    -0.07583800
Spot 1     0.01270791    -0.03514729    -0.07583800
Spot 2     0.01238113    -0.03407361    -0.07583800
Spot 1     0.01270803    -0.03514737    -0.07583800
Spot 2     0.01238113    -0.03407361    -0.07583800
20MABNDM000020_PR035
Spot 1     0.01341599    -0.03546447    -0.07583800
Spot 2     0.01349953    -0.03550008    -0.07583800
Spot 1     0.01341583    -0.03546461    -0.07583800
Spot 2     0.01349949    -0.03550008    -0.07583800
Spot 1     0.01341610    -0.03546458    -0.07583800
Spot 2     0.01349945    -0.03550014    -0.07583800
20MABNDM000168_PR025
Spot 1    -0.01322776    -0.03563798    -0.00532900
Spot 2    -0.01338116    -0.03563899    -0.00532900
Spot 1    -0.01322781    -0.03563786    -0.00532900
Spot 2    -0.01338124    -0.03563879    -0.00532900
Spot 1    -0.01322798    -0.03563814    -0.00532900
Spot 2    -0.01338112    -0.03563889    -0.00532900
20MABNDM000168_PR026
Spot 1    -0.01173371    -0.03576188    -0.00532900
Spot 2    -0.01189411    -0.03575910    -0.00532900
Spot 1    -0.01173371    -0.03576210    -0.00532900
Spot 2    -0.01189423    -0.03575934    -0.00532900
Spot 1    -0.01173373    -0.03576217    -0.00532900
Spot 2    -0.01189428    -0.03575928    -0.00532900
20MABNDM000168_20MABNDL000077
Spot 1     0.01288383    -0.03530117    -0.07445100
Spot 2     0.01266910    -0.03530016    -0.07445100
Spot 1     0.01288389    -0.03530117    -0.07445100
Spot 2     0.01266912    -0.03530013    -0.07445100
Spot 1     0.01288394    -0.03530118    -0.07445100
Spot 2     0.01266920    -0.03530015    -0.07445100
20MABNDM000168_PR001
Spot 1     0.01361180    -0.03562998    -0.07445100
Spot 2     0.01371305    -0.03563349    -0.07445100
Spot 1     0.01361182    -0.03562983    -0.07445100
Spot 2     0.01371309    -0.03563360    -0.07445100
Spot 1     0.01361161    -0.03562958    -0.07445100
Spot 2     0.01371319    -0.03563364    -0.07445100
20MABNDL000196_PR036
Spot 1     0.01192551     0.03582395    -0.07483600
Spot 2     0.01208873     0.03582360    -0.07483600
Spot 1     0.01192552     0.03582397    -0.07483600
Spot 2     0.01208889     0.03582321    -0.07483600
Spot 1     0.01192538     0.03582399    -0.07483600
Spot 2     0.01208881     0.03582345    -0.07483600
20MABNDL000196_PR037
Spot 1     0.01344810     0.03536346    -0.07483600
Spot 2     0.01360224     0.03536222    -0.07483600
Spot 1     0.01344779     0.03536381    -0.07483600
Spot 2     0.01360219     0.03536223    -0.07483600
Spot 1     0.01344785     0.03536391    -0.07483600
Spot 2     0.01360217     0.03536234    -0.07483600
20MABNDL000196_20MABNDM000020
Spot 1    -0.01274829     0.03531325    -0.00611000
Spot 2    -0.01252748     0.03532288    -0.00611000
Spot 1    -0.01274822     0.03531331    -0.00611000
Spot 2    -0.01252737     0.03532269    -0.00611000
Spot 1    -0.01274819     0.03531335    -0.00611000
Spot 2    -0.01252752     0.03532309    -0.00611000
20MABNDL000196_PR012
Spot 1    -0.01347824     0.03559845    -0.00611000
Spot 2    -0.01355353     0.03564532    -0.00611000
Spot 1    -0.01347831     0.03559842    -0.00611000
Spot 2    -0.01355356     0.03564545    -0.00611000
Spot 1    -0.01347826     0.03559833    -0.00611000
Spot 2    -0.01355343     0.03564529    -0.00611000
20MABNDA000318_PR004
Spot 1    -0.01264304     0.01246472    -0.07310600
Spot 2    -0.01286106     0.01246496    -0.07310600
Spot 1    -0.01264293     0.01246473    -0.07310600
Spot 2    -0.01286104     0.01246525    -0.07310600
Spot 1    -0.01264311     0.01246490    -0.07310600
Spot 2    -0.01286138     0.01246545    -0.07310600
20MABNDA000334_PR005
Spot 1    -0.01311401     0.01253790    -0.07324100
Spot 2    -0.01283379     0.01253656    -0.07324100
Spot 1    -0.01311382     0.01253783    -0.07324100
Spot 2    -0.01283379     0.01253656    -0.07324100
Spot 1    -0.01311401     0.01253794    -0.07324100
Spot 2    -0.01283371     0.01253666    -0.07324100
20MABNDB000317_PR015
Spot 1    -0.01244668    -0.01250482    -0.07326100
Spot 2    -0.01266624    -0.01250143    -0.07326100
Spot 1    -0.01244673    -0.01250487    -0.07326100
Spot 2    -0.01266630    -0.01250130    -0.07326100
Spot 1    -0.01244683    -0.01250475    -0.07326100
Spot 2    -0.01266629    -0.01250119    -0.07326100
20MABNDB000146_PR016
Spot 1    -0.01276127    -0.01246661    -0.07450500
Spot 2    -0.01248506    -0.01246403    -0.07450500
Spot 1    -0.01276117    -0.01246658    -0.07450500
Spot 2    -0.01248521    -0.01246414    -0.07450500
Spot 1    -0.01276126    -0.01246664    -0.07450500
Spot 2    -0.01248509    -0.01246425    -0.07450500
20MABNDB000135_PR027
Spot 1    -0.01251307    -0.01319419    -0.07464700
Spot 2    -0.01229505    -0.01319447    -0.07464700
Spot 1    -0.01251320    -0.01319424    -0.07464700
Spot 2    -0.01229501    -0.01319452    -0.07464700
Spot 1    -0.01251307    -0.01319416    -0.07464700
Spot 2    -0.01229501    -0.01319452    -0.07464700
20MABNDB000126_PR028
Spot 1    -0.01253371    -0.01217436    -0.07500400
Spot 2    -0.01225212    -0.01217086    -0.07500400
Spot 1    -0.01253378    -0.01217445    -0.07500400
Spot 2    -0.01225222    -0.01217090    -0.07500400
Spot 1    -0.01253365    -0.01217437    -0.07500400
Spot 2    -0.01225219    -0.01217098    -0.07500400
20MABNDA000272_PR038
Spot 1    -0.01275345     0.01315748    -0.07417900
Spot 2    -0.01253292     0.01315819    -0.07417900
Spot 1    -0.01275363     0.01315786    -0.07417900
Spot 2    -0.01253259     0.01315828    -0.07417900
Spot 1    -0.01275357     0.01315763    -0.07417900
Spot 2    -0.01253288     0.01315814    -0.07417900
20MABNDA000003_PR039
Spot 1    -0.01279799     0.01212847    -0.07373400
Spot 2    -0.01307488     0.01212836    -0.07373400
Spot 1    -0.01279787     0.01212863    -0.07373400
Spot 2    -0.01307502     0.01212873    -0.07373400
Spot 1    -0.01279763     0.01212839    -0.07373400
Spot 2    -0.01307497     0.01212861    -0.07373400
20MABNDA000196_PR006
Spot 1    -0.01295739     0.01325264    -0.07967100
Spot 2    -0.01259146     0.01325016    -0.07967100
Spot 1    -0.01295734     0.01325259    -0.07967100
Spot 2    -0.01259130     0.01324986    -0.07967100
Spot 1    -0.01295723     0.01325248    -0.07967100
Spot 2    -0.01259147     0.01324981    -0.07967100
20MABNDA000324_PR007
Spot 1    -0.01254388     0.01280381    -0.07446800
Spot 2    -0.01233765     0.01279995    -0.07446800
Spot 1    -0.01254374     0.01280385    -0.07446800
Spot 2    -0.01233758     0.01280001    -0.07446800
Spot 1    -0.01254353     0.01280395    -0.07446800
Spot 2    -0.01233746     0.01279982    -0.07446800
20MABNDB000001_PR017
Spot 1    -0.01229440    -0.01355053    -0.07418400
Spot 2    -0.01192658    -0.01354589    -0.07418400
Spot 1    -0.01229440    -0.01355050    -0.07418400
Spot 2    -0.01192658    -0.01354573    -0.07418400
Spot 1    -0.01229448    -0.01355053    -0.07418400
Spot 2    -0.01192653    -0.01354606    -0.07418400
20MABNDB000260_PR019
Spot 1    -0.01241128    -0.01239177    -0.07492700
Spot 2    -0.01220775    -0.01238776    -0.07492700
Spot 1    -0.01241104    -0.01239181    -0.07492700
Spot 2    -0.01220715    -0.01238817    -0.07492700
Spot 1    -0.01241087    -0.01239153    -0.07492700
Spot 2    -0.01220761    -0.01238754    -0.07492700
20MABNDB000212_PR029
Spot 1    -0.01186437    -0.01327578    -0.07390500
Spot 2    -0.01222321    -0.01327190    -0.07390500
Spot 1    -0.01186458    -0.01327585    -0.07390500
Spot 2    -0.01222320    -0.01327148    -0.07390500
Spot 1    -0.01186442    -0.01327574    -0.07390500
Spot 2    -0.01222277    -0.01327165    -0.07390500
20MABNDB000128_PR030
Spot 1    -0.01244622    -0.01221308    -0.07353400
Spot 2    -0.01224198    -0.01221843    -0.07353400
Spot 1    -0.01244621    -0.01221300    -0.07353400
Spot 2    -0.01224205    -0.01221840    -0.07353400
Spot 1    -0.01244627    -0.01221294    -0.07353400
Spot 2    -0.01224192    -0.01221831    -0.07353400
20MABNDA000444_PR040
Spot 1    -0.01168638     0.01366991    -0.07412000
Spot 2    -0.01205308     0.01366897    -0.07412000
Spot 1    -0.01168631     0.01366955    -0.07412000
Spot 2    -0.01205344     0.01366856    -0.07412000
Spot 1    -0.01168659     0.01366983    -0.07412000
Spot 2    -0.01205305     0.01366843    -0.07412000
20MABNDA000053_PR041
Spot 1    -0.01240896     0.01211424    -0.07430100
Spot 2    -0.01220112     0.01211209    -0.07430100
Spot 1    -0.01240924     0.01211447    -0.07430100
Spot 2    -0.01220090     0.01211210    -0.07430100
Spot 1    -0.01240965     0.01211447    -0.07430100
Spot 2    -0.01220171     0.01211261    -0.07430100
20MABNDA000188_PR008
Spot 1    -0.01391227     0.01380893    -0.07502000
Spot 2    -0.01391339     0.01380783    -0.07502000
Spot 1    -0.01391227     0.01380893    -0.07502000
Spot 2    -0.01391227     0.01380893    -0.07502000
Spot 1    -0.01391227     0.01380893    -0.07502000
Spot 2    -0.01391227     0.01380893    -0.07502000
20MABNDA000188_PR018
Spot 1    -0.01261938     0.01253448    -0.07502000
Spot 2    -0.01215280     0.01253414    -0.07502000
Spot 1    -0.01261931     0.01253449    -0.07502000
Spot 2    -0.01215286     0.01253402    -0.07502000
Spot 1    -0.01261947     0.01253441    -0.07502000
Spot 2    -0.01215266     0.01253382    -0.07502000
20MABNDA000039_PR009
Spot 1    -0.01162076     0.01303271    -0.07444800
Spot 2    -0.01157355     0.01302887    -0.07444800
Spot 1    -0.01162076     0.01303270    -0.07444800
Spot 2    -0.01157364     0.01302887    -0.07444800
Spot 1    -0.01162046     0.01303268    -0.07444800
Spot 2    -0.01157335     0.01302891    -0.07444800
20MABNDA000039_PR011
Spot 1    -0.01371658     0.01388147    -0.07444800
Spot 2    -0.01354104     0.01388565    -0.07444800
Spot 1    -0.01371677     0.01388149    -0.07444800
Spot 2    -0.01354108     0.01388563    -0.07444800
Spot 1    -0.01371681     0.01388147    -0.07444800
Spot 2    -0.01354116     0.01388567    -0.07444800
20MABNDB000155_PR020
Spot 1    -0.01358919    -0.01315705    -0.07501700
Spot 2    -0.01352592    -0.01316046    -0.07501700
Spot 1    -0.01358923    -0.01315681    -0.07501700
Spot 2    -0.01352584    -0.01316011    -0.07501700
Spot 1    -0.01358970    -0.01315693    -0.07501700
Spot 2    -0.01352615    -0.01316028    -0.07501700
20MABNDB000155_PR022
Spot 1    -0.01201544    -0.01305129    -0.07501700
Spot 2    -0.01154324    -0.01304835    -0.07501700
Spot 1    -0.01201539    -0.01305134    -0.07501700
Spot 2    -0.01154304    -0.01304862    -0.07501700
Spot 1    -0.01201537    -0.01305130    -0.07501700
Spot 2    -0.01154334    -0.01304845    -0.07501700
20MABNDB000010_PR021
Spot 1    -0.01158443    -0.01289670    -0.07358200
Spot 2    -0.01153169    -0.01289594    -0.07358200
Spot 1    -0.01158428    -0.01289645    -0.07358200
Spot 2    -0.01175062    -0.01370425    -0.07358200
Spot 1    -0.01158437    -0.01289687    -0.07358200
Spot 2    -0.01174953    -0.01370313    -0.07358200
20MABNDB000010_PR023
Spot 1    -0.01312898    -0.01371406    -0.07358200
Spot 2    -0.01295409    -0.01371307    -0.07358200
Spot 1    -0.01312886    -0.01371402    -0.07358200
Spot 2    -0.01295418    -0.01371325    -0.07358200
Spot 1    -0.01312912    -0.01371406    -0.07358200
Spot 2    -0.01295390    -0.01371312    -0.07358200
20MABNDB000069_PR031
Spot 1    -0.01355428    -0.01288923    -0.07388500
Spot 2    -0.01349047    -0.01289229    -0.07388500
Spot 1    -0.01355614    -0.01288991    -0.07388500
Spot 2    -0.01348827    -0.01289236    -0.07388500
Spot 1    -0.01355633    -0.01289052    -0.07388500
Spot 2    -0.01348854    -0.01289210    -0.07388500
20MABNDB000069_PR033
Spot 1    -0.01195695    -0.01252003    -0.07388500
Spot 2    -0.01148728    -0.01252055    -0.07388500
Spot 1    -0.01195680    -0.01252000    -0.07388500
Spot 2    -0.01148728    -0.01252041    -0.07388500
20MABNDB000131_PR032
Spot 1    -0.01144542    -0.01300162    -0.07533000
Spot 2    -0.01138608    -0.01299690    -0.07533000
Spot 1    -0.01144564    -0.01300157    -0.07533000
Spot 2    -0.01138630    -0.01299680    -0.07533000
20MABNDB000131_PR034
Spot 1    -0.01329989    -0.01369576    -0.07533000
Spot 2    -0.01312367    -0.01369584    -0.07533000
Spot 1    -0.01329988    -0.01369571    -0.07533000
Spot 2    -0.01312381    -0.01369588    -0.07533000
20MABNDA000208_PR042
Spot 1    -0.01353832     0.01347543    -0.07273700
Spot 2    -0.01381742     0.01307279    -0.07273700
Spot 1    -0.01353850     0.01347536    -0.07273700
Spot 2    -0.01381847     0.01307203    -0.07273700
20MABNDA000208_PR046
Spot 1    -0.01219205     0.01202013    -0.07273700
Spot 2    -0.01171793     0.01202082    -0.07273700
Spot 1    -0.01219154     0.01201978    -0.07273700
Spot 2    -0.01171916     0.01202146    -0.07273700
20MABNDA000035_PR044
Spot 1    -0.01157065     0.01296963    -0.07483200
Spot 2    -0.01151555     0.01297461    -0.07483200
Spot 1    -0.01157115     0.01296967    -0.07483200
Spot 2    -0.01151509     0.01297441    -0.07483200
20MABNDA000035_PR045
Spot 1    -0.01336491     0.01371305    -0.07483200
Spot 2    -0.01318781     0.01371314    -0.07483200
Spot 1    -0.01336487     0.01371308    -0.07483200
Spot 2    -0.01318773     0.01371300    -0.07483200


*****************************************************************coordonnees du prisme dans le repere MOUNT********************************************************************************** 
20MABNDL000077_PR002
    0.05008452     0.04754533     3.70691466
    0.05009335     0.04748670     3.70691466
    0.05006780     0.04752696     3.70691466
20MABNDL000077_PR003
    0.02103592     0.02143403     3.89601803
    0.02103283     0.02143717     3.89601803
    0.02103903     0.02143400     3.89601803
20MABNDL000077_20MABNDM000168
   -0.05595290     0.07579796    -5.46843624
   -0.05595366     0.07580120    -5.46843624
   -0.05594056     0.07579158    -5.46843624
20MABNDL000077_PR024
    0.04576004     0.01703498    -5.89639759
    0.04572803     0.01703972    -5.89639807
    0.04573738     0.01703982    -5.89639759
20MABNDM000020_PR013
   -0.00375867    -0.01803590    -3.80243373
   -0.00376563    -0.01803556    -3.80243373
   -0.00376068    -0.01804637    -3.80243397
20MABNDM000020_PR014
   -0.06567089    -0.00488732    -4.74840832
   -0.06567955    -0.00488969    -4.74840832
   -0.06567018    -0.00489104    -4.74840832
20MABNDM000020_20MABNDL000196
    0.02689574    -0.07121906     5.39469719
    0.02690111    -0.07122085     5.39469719
    0.02689681    -0.07121798     5.39469719
20MABNDM000020_PR035
   -0.04239973    -0.00670333     5.80095482
   -0.04239203    -0.00669793     5.80095482
   -0.04240089    -0.00669678     5.80095482
20MABNDM000168_PR025
    0.01803663    -0.02098998    -3.78863955
    0.01803988    -0.02099788    -3.78863955
    0.01804107    -0.02098848    -3.78863955
20MABNDM000168_PR026
   -0.05793829    -0.01384397    -3.98428869
   -0.05793522    -0.01383198    -3.98428869
   -0.05793340    -0.01383171    -3.98428869
20MABNDM000168_20MABNDL000077
    0.01150487    -0.03881929     5.38884687
    0.01150198    -0.03882033     5.38884687
    0.01149733    -0.03881918     5.38884687
20MABNDM000168_PR001
   -0.05727979    -0.01337050     5.81470633
   -0.05728213    -0.01337201     5.81470633
   -0.05727760    -0.01337983     5.81470633
20MABNDL000196_PR036
    0.05142040     0.00615891     3.68777275
    0.05141645     0.00616799     3.68777275
    0.05142187     0.00616161     3.68777275
20MABNDL000196_PR037
   -0.02502334     0.02840955     3.88381386
   -0.02501402     0.02840026     3.88381386
   -0.02501504     0.02839483     3.88381386
20MABNDL000196_20MABNDM000020
   -0.01580436     0.03785538    -5.47473907
   -0.01581092     0.03785992    -5.47473907
   -0.01580629     0.03784420    -5.47473907
20MABNDL000196_PR012
    0.05218686     0.01438663    -5.91537333
    0.05219044     0.01438282    -5.91537333
    0.05218403     0.01439241    -5.91537333
20MABNDA000318_PR004
   -0.00862831     0.03856413     2.74965763
   -0.00863068     0.03855862     2.74965763
   -0.00862112     0.03855186     2.74965763
20MABNDA000334_PR005
   -0.00433354     0.03182822     2.14977074
   -0.00433626     0.03182922     2.14977074
   -0.00433469     0.03182622     2.14977074
20MABNDB000317_PR015
   -0.01738142    -0.03387941     2.75129128
   -0.01737940    -0.03388084     2.75129128
   -0.01737771    -0.03388501     2.75129128
20MABNDB000146_PR016
   -0.01351766    -0.03162996     2.15201426
   -0.01351694    -0.03162881     2.15201426
   -0.01351738    -0.03162637     2.15201426
20MABNDB000135_PR027
   -0.02102204    -0.00996330     2.74937153
   -0.02102037    -0.00996167     2.74937153
   -0.02102277    -0.00996311     2.74937153
20MABNDB000126_PR028
   -0.02035993    -0.03892918     2.14679527
   -0.02035752    -0.03892732     2.14679575
   -0.02035980    -0.03892719     2.14679575
20MABNDA000272_PR038
   -0.01340595     0.01089806     2.74965858
   -0.01340871     0.01088945     2.74965858
   -0.01340449     0.01089622     2.74965858
20MABNDA000003_PR039
   -0.00606279     0.04117152     2.14891672
   -0.00606253     0.04116394     2.14891672
   -0.00606666     0.04116910     2.14891672
20MABNDA000196_PR006
   -0.01003803     0.00985350     1.64206314
   -0.01004039     0.00985735     1.64206314
   -0.01003971     0.00985909     1.64206314
20MABNDA000324_PR007
   -0.02564812     0.02806892     2.95548916
   -0.02565224     0.02806692     2.95548916
   -0.02565875     0.02806864     2.95548916
20MABNDB000001_PR017
   -0.02428568    -0.00283862     1.64035857
   -0.02428570    -0.00284069     1.64035869
   -0.02428533    -0.00283676     1.64035857
20MABNDB000260_PR019
   -0.02426730    -0.03866878     2.95627236
   -0.02428363    -0.03866006     2.95627236
   -0.02427795    -0.03867786     2.95627236
20MABNDB000212_PR029
   -0.02519649    -0.00856396     1.64223969
   -0.02519423    -0.00856782     1.64223981
   -0.02520069    -0.00856710     1.64223969
20MABNDB000128_PR030
   -0.01961306    -0.04691116     2.95496130
   -0.01961187    -0.04691331     2.95496106
   -0.01961324    -0.04691627     2.95496106
20MABNDA000444_PR040
   -0.03021414     0.00102697     1.64490962
   -0.03021096     0.00103544     1.64490962
   -0.03021215     0.00103368     1.64490962
20MABNDA000053_PR041
   -0.02666983     0.05130272     2.95450068
   -0.02666875     0.05129779     2.95450068
   -0.02664479     0.05128790     2.95450115
20MABNDA000188_PR008
    0.13657027    -0.07878275     9.20339298
    0.13650158    -0.07885031     9.20339394
    0.13650158    -0.07885031     9.20339394
20MABNDA000188_PR018
   -0.01801668     0.02209418     1.28360796
   -0.01801676     0.02209512     1.28360796
   -0.01801717     0.02209752     1.28360796
20MABNDA000039_PR009
   -0.17193034     0.03014838    11.00699902
   -0.17192376     0.03014908    11.00699902
   -0.17196688     0.03014781    11.00699806
20MABNDA000039_PR011
    0.03033568    -0.02044990     3.43351889
    0.03034092    -0.02044992     3.43351889
    0.03034366    -0.02045039     3.43351889
20MABNDB000155_PR020
    0.09522526    -0.00529689     9.20036316
    0.09522329    -0.00533253     9.20036316
    0.09527093    -0.00531530     9.20036316
20MABNDB000155_PR022
   -0.02802283    -0.01389688     1.28068888
   -0.02802492    -0.01389418     1.28068888
   -0.02802258    -0.01389594     1.28068888
20MABNDB000010_PR021
   -0.17569403    -0.03773778    11.00694561
   -0.15961367     0.02166735    11.00714397
   -0.15968701     0.02161536    11.00714302
20MABNDB000010_PR023
    0.00452819     0.01670514     3.43380284
    0.00452744     0.01670857     3.43380284
    0.00452702     0.01670627     3.43380284
20MABNDB000069_PR031
    0.09804538    -0.03543799     9.20362282
    0.09802459    -0.03539171     9.20362377
    0.09805309    -0.03537018     9.20362282
20MABNDB000069_PR033
   -0.02799749    -0.02253715     1.28396702
   -0.02799883    -0.02253872     1.28396702
20MABNDB000131_PR032
   -0.18757567    -0.03504258    11.00641823
   -0.18754345    -0.03505411    11.00641823
20MABNDB000131_PR034
    0.01467601     0.01176459     3.43341351
    0.01467897     0.01176438     3.43341351
20MABNDA000208_PR042
    0.10564402    -0.01370231     9.20179462
    0.10572008    -0.01365130     9.20179367
20MABNDA000208_PR046
   -0.02564993     0.03076950     1.28212047
   -0.02564377     0.03076703     1.28212047
20MABNDA000035_PR044
   -0.18016547     0.03122691    11.00801277
   -0.18016246     0.03123786    11.00801277
20MABNDA000035_PR045
    0.01417034    -0.01506070     3.43487453
    0.01416762    -0.01505817     3.43487453


*****************************************************************coordonnees du prisme dans le repere ATLAS********************************************************************************** 
20MABNDL000077_PR002 0.00000000
    2.80949569    -3.69442415     6.48622131
    2.80955434    -3.69441533     6.48622131
    2.80951405    -3.69444084     6.48622131
20MABNDL000077_PR003 0.00000000
    2.83578324    -3.72371435     6.67526293
    2.83578014    -3.72371745     6.67526293
    2.83578324    -3.72371125     6.67526293
20MABNDL000077_20MABNDM000168 0.00000000
    2.77220941    -3.78913212    -2.68922138
    2.77220607    -3.78913283    -2.68922138
    2.77221584    -3.78911972    -2.68922138
20MABNDL000077_PR024 0.00000000
    2.83058500    -3.68690991    -3.11711431
    2.83058023    -3.68694186    -3.11711478
    2.83058023    -3.68693256    -3.11711431
20MABNDM000020_PR013 0.00000000
   -2.83427334    -3.73572540     6.48627663
   -2.83427382    -3.73571825     6.48627663
   -2.83426309    -3.73572326     6.48627663
20MABNDM000020_PR014 0.00000000
   -2.84721375    -3.67452860     7.43230057
   -2.84721136    -3.67451978     7.43230057
   -2.84721017    -3.67452931     7.43230057
20MABNDM000020_20MABNDL000196 0.00000000
   -2.78294015    -3.75940132    -2.71088576
   -2.78293848    -3.75940657    -2.71088576
   -2.78294134    -3.75940228    -2.71088576
20MABNDM000020_PR035 0.00000000
   -2.84751606    -3.68977714    -3.11707759
   -2.84752154    -3.68978477    -3.11707759
   -2.84752250    -3.68977594    -3.11707759
20MABNDM000168_PR025 0.00000000
    2.83224678    -3.76336575    -6.47925854
    2.83223891    -3.76336908    -6.47925854
    2.83224845    -3.76337028    -6.47925854
20MABNDM000168_PR026 0.00000000
    2.83940101    -3.68746567    -6.67493629
    2.83941317    -3.68746853    -6.67493629
    2.83941340    -3.68747044    -6.67493629
20MABNDM000168_20MABNDL000077 0.00000000
    2.81497622    -3.75341702     2.69822598
    2.81497526    -3.75341415     2.69822598
    2.81497645    -3.75340939     2.69822598
20MABNDM000168_PR001 0.00000000
    2.84046912    -3.68448067     3.12405849
    2.84046745    -3.68447828     3.12405849
    2.84045982    -3.68448281     3.12405849
20MABNDL000196_PR036 0.00000000
   -2.84744859    -3.69285393    -6.47909641
   -2.84743953    -3.69285798    -6.47909641
   -2.84744596    -3.69285250    -6.47909641
20MABNDL000196_PR037 0.00000000
   -2.82516670    -3.76946974    -6.67506695
   -2.82517600    -3.76946044    -6.67506695
   -2.82518148    -3.76946139    -6.67506695
20MABNDL000196_20MABNDM000020 0.00000000
   -2.81552291    -3.75154114     2.68347359
   -2.81551838    -3.75154757     2.68347359
   -2.81553411    -3.75154305     2.68347359
20MABNDL000196_PR012 0.00000000
   -2.83901381    -3.68315077     3.12404490
   -2.83901763    -3.68314719     3.12404490
   -2.83900809    -3.68315363     3.12404490
20MABNDA000318_PR004 0.00000000
    2.61437488    -4.19698811     3.83343458
    2.61437249    -4.19698811     3.83344007
    2.61438203    -4.19698811     3.83344674
20MABNDA000334_PR005 0.00000000
    2.61666512    -4.19703245     5.89743280
    2.61666226    -4.19703245     5.89743185
    2.61666393    -4.19703245     5.89743471
20MABNDB000317_PR015 0.00000000
   -2.61122584    -4.19700575     3.83613610
   -2.61122775    -4.19700575     3.83613467
   -2.61122942    -4.19700575     3.83613038
20MABNDB000146_PR016 0.00000000
   -2.61277747    -4.19702339     5.89872026
   -2.61277819    -4.19702339     5.89872122
   -2.61277795    -4.19702339     5.89872408
20MABNDB000135_PR027 0.00000000
    2.60384130    -4.19700384    -3.82539749
    2.60384297    -4.19700384    -3.82539916
    2.60384059    -4.19700384    -3.82539773
20MABNDB000126_PR028 0.00000000
    2.60555720    -4.19702101    -5.89329052
    2.60555983    -4.19702053    -5.89329243
    2.60555744    -4.19702053    -5.89329290
20MABNDA000272_PR038 0.00000000
   -2.61113095    -4.19698286    -3.82758641
   -2.61112809    -4.19698286    -3.82759500
   -2.61113238    -4.19698286    -3.82758808
20MABNDA000003_PR039 0.00000000
   -2.61566830    -4.19702053    -5.89159536
   -2.61566854    -4.19702053    -5.89160252
   -2.61566448    -4.19702053    -5.89159775
20MABNDA000196_PR006 0.00000000
    2.58449864    -4.19496584     6.54781008
    2.58450103    -4.19496584     6.54781389
    2.58450031    -4.19496584     6.54781580
20MABNDA000324_PR007 0.00000000
    2.59366679    -4.13996983     6.94784641
    2.59366250    -4.13996983     6.94784832
    2.59365606    -4.13996983     6.94784641
20MABNDB000001_PR017 0.00000000
   -2.59798694    -4.19505930     6.53816652
   -2.59798694    -4.19505930     6.53816891
   -2.59798670    -4.19505930     6.53816462
20MABNDB000260_PR019 0.00000000
   -2.60449457    -4.13996172     6.94197512
   -2.60447812    -4.13996172     6.94198370
   -2.60448384    -4.13996172     6.94196606
20MABNDB000212_PR029 0.00000000
    2.59887433    -4.19500875    -6.54755163
    2.59887195    -4.19500875    -6.54755545
    2.59887838    -4.19500875    -6.54755497
20MABNDB000128_PR030 0.00000000
    2.60924554    -4.14002800    -6.93121004
    2.60924673    -4.14002848    -6.93120766
    2.60924554    -4.14002848    -6.93120480
20MABNDA000444_PR040 0.00000000
   -2.60538673    -4.19509983    -6.54020739
   -2.60538340    -4.19509983    -6.54021549
   -2.60538459    -4.19509983    -6.54021406
20MABNDA000053_PR041 0.00000000
   -2.59387207    -4.14012957    -6.92661095
   -2.59387326    -4.14012957    -6.92661572
   -2.59389710    -4.14012909    -6.92662573
20MABNDA000188_PR008 0.00000000
    3.54958773     3.84898567     8.09017277
    3.54951787     3.84898496     8.09023857
    3.54951787     3.84898496     8.09023857
20MABNDA000188_PR018 0.00000000
    3.51906443    -4.07064009     7.90132666
    3.51906443    -4.07064009     7.90132570
    3.51906419    -4.07064009     7.90132332
20MABNDA000039_PR009 0.00000000
    3.87610173     3.64745474    12.94144249
    3.87609529     3.64745474    12.94144344
    3.87613821     3.64745378    12.94144154
20MABNDA000039_PR011 0.00000000
    3.66468811    -3.92575884    12.88838673
    3.66468287    -3.92575884    12.88838673
    3.66468000    -3.92575884    12.88838673
20MABNDB000155_PR020 0.00000000
   -3.67387915     3.84891295     7.90157270
   -3.67387700     3.84891295     7.90153694
   -3.67392468     3.84891295     7.90155411
20MABNDB000155_PR022 0.00000000
   -3.53195882    -4.07044983     7.89416313
   -3.53195691    -4.07044983     7.89416599
   -3.53195906    -4.07044983     7.89416409
20MABNDB000010_PR021 0.00000000
   -3.86152768     3.64768481    12.93956661
   -3.84549928     3.64784670    12.88014793
   -3.84557271     3.64784598    12.88019943
20MABNDB000010_PR023 0.00000000
   -3.68513513    -3.92557216    12.88857079
   -3.68513584    -3.92557216    12.88856697
   -3.68513632    -3.92557216    12.88856888
20MABNDB000069_PR031 0.00000000
    3.67976069     3.84881425    -7.90496254
    3.67973971     3.84881496    -7.90500927
    3.67976832     3.84881401    -7.90503073
20MABNDB000069_PR033 0.00000000
    3.53229976    -4.07045221    -7.88313389
    3.53229833    -4.07045221    -7.88313198
20MABNDB000131_PR032 0.00000000
    3.86837649     3.64756608   -12.94568539
    3.86834431     3.64756608   -12.94569683
20MABNDB000131_PR034 0.00000000
    3.67311192    -3.92560482   -12.89618301
    3.67310882    -3.92560482   -12.89618301
20MABNDA000208_PR042 0.00000000
   -3.65570688     3.84944510    -7.92517424
   -3.65578294     3.84944415    -7.92512321
20MABNDA000208_PR046 0.00000000
   -3.53011346    -4.07030439    -7.87774754
   -3.53011966    -4.07030439    -7.87774992
20MABNDA000035_PR044 0.00000000
   -3.86940718     3.64756846   -12.93690586
   -3.86940432     3.64756846   -12.93691730
20MABNDA000035_PR045 0.00000000
   -3.67655873    -3.92561221   -12.89132404
   -3.67656136    -3.92561221   -12.89132595


*****************************************************************Rapport********************************************************************************** 
CAM-LBA-US_EBA-US-HO-H         2018.04.01.09.19.00     2.80952136    -3.69442677     6.48622131     0.00002450     0.00001058     0.00000000 0.00000000 VRAI 
CAM-LBA-US_JDA-US-H            2018.04.01.09.19.00     2.83578221    -3.72371435     6.67526293     0.00000146     0.00000253     0.00000000 0.00000000 VRAI 
CAM-LBA-US_CAM-LBC-US          2018.04.01.09.19.00     2.77221044    -3.78912822    -2.68922138     0.00000406     0.00000602     0.00000000 0.00000000 VRAI 
CAM-LBA-US_EBC-US-IP-H         2018.04.01.09.19.00     2.83058182    -3.68692811    -3.11711446     0.00000225     0.00001342     0.00000022 0.00000000 VRAI 
CAM-LBA-USA_EBA-USA-HO-H       2018.04.01.09.19.00    -2.83427008    -3.73572230     6.48627663     0.00000495     0.00000300     0.00000000 0.00000000 VRAI 
CAM-LBA-USA_JDA-USA-H          2018.04.01.09.19.00    -2.84721176    -3.67452590     7.43230057     0.00000149     0.00000434     0.00000000 0.00000000 VRAI 
CAM-LBA-USA_CAM-LBC-USA        2018.04.01.09.19.00    -2.78293999    -3.75940339    -2.71088576     0.00000117     0.00000228     0.00000000 0.00000000 VRAI 
CAM-LBA-USA_EBC-USA-IP-H       2018.04.01.09.19.00    -2.84752003    -3.68977928    -3.11707759     0.00000284     0.00000391     0.00000000 0.00000000 VRAI 
CAM-LBC-US_EBC-US-HO-H         2018.04.01.09.19.00     2.83224471    -3.76336837    -6.47925854     0.00000416     0.00000192     0.00000000 0.00000000 VRAI 
CAM-LBC-US_JDC-US-H            2018.04.01.09.19.00     2.83940919    -3.68746821    -6.67493629     0.00000579     0.00000196     0.00000000 0.00000000 VRAI 
CAM-LBC-US_CAM-LBA-US          2018.04.01.09.19.00     2.81497598    -3.75341352     2.69822598     0.00000052     0.00000315     0.00000000 0.00000000 VRAI 
CAM-LBC-US_EBA-US-IP-H         2018.04.01.09.19.00     2.84046547    -3.68448059     3.12405849     0.00000405     0.00000185     0.00000000 0.00000000 VRAI 
CAM-LBC-USA_EBC-USA-HO-H       2018.04.01.09.19.00    -2.84744469    -3.69285480    -6.47909641     0.00000381     0.00000232     0.00000000 0.00000000 VRAI 
CAM-LBC-USA_JDC-USA-H          2018.04.01.09.19.00    -2.82517473    -3.76946386    -6.67506695     0.00000610     0.00000418     0.00000000 0.00000000 VRAI 
CAM-LBC-USA_CAM-LBA-USA        2018.04.01.09.19.00    -2.81552513    -3.75154392     2.68347359     0.00000661     0.00000270     0.00000000 0.00000000 VRAI 
CAM-LBC-USA_EBA-USA-IP-H       2018.04.01.09.19.00    -2.83901318    -3.68315053     3.12404490     0.00000392     0.00000263     0.00000000 0.00000000 VRAI 
CAM-EBA-US-IP_EBA-US-IP        2018.04.01.09.19.00     2.61437647    -4.19698811     3.83344046     0.00000405     0.00000000     0.00000497 0.00000000 VRAI 
CAM-EBA-US-HO_EBA-US-HO        2018.04.01.09.19.00     2.61666377    -4.19703245     5.89743312     0.00000117     0.00000000     0.00000119 0.00000000 VRAI 
CAM-EBA-USA-IP_EBA-USA-IP      2018.04.01.09.19.00    -2.61122767    -4.19700575     3.83613372     0.00000146     0.00000000     0.00000243 0.00000000 VRAI 
CAM-EBA-USA-HO_EBA-USA-HO      2018.04.01.09.19.00    -2.61277787    -4.19702339     5.89872185     0.00000030     0.00000000     0.00000162 0.00000000 VRAI 
CAM-EBC-US-IP_EBC-US-IP        2018.04.01.09.19.00     2.60384162    -4.19700384    -3.82539813     0.00000100     0.00000000     0.00000074 0.00000000 VRAI 
CAM-EBC-US-HO_EBC-US-HO        2018.04.01.09.19.00     2.60555816    -4.19702069    -5.89329195     0.00000118     0.00000022     0.00000103 0.00000000 VRAI 
CAM-EBC-USA-IP_EBC-USA-IP      2018.04.01.09.19.00    -2.61113048    -4.19698286    -3.82758983     0.00000178     0.00000000     0.00000372 0.00000000 VRAI 
CAM-EBC-USA-HO_EBC-USA-HO      2018.04.01.09.19.00    -2.61566710    -4.19702053    -5.89159854     0.00000186     0.00000000     0.00000297 0.00000000 VRAI 
CAM-JDA-US-IP_JDA-US-IP        2018.04.01.09.19.00     2.58449999    -4.19496584     6.54781326     0.00000100     0.00000000     0.00000238 0.00000000 VRAI 
CAM-JDA-US-HO_JDA-US-HO        2018.04.01.09.19.00     2.59366179    -4.13996983     6.94784705     0.00000441     0.00000000     0.00000090 0.00000000 VRAI 
CAM-JDA-USA-IP_JDA-USA-IP      2018.04.01.09.19.00    -2.59798686    -4.19505930     6.53816668     0.00000011     0.00000000     0.00000176 0.00000000 VRAI 
CAM-JDA-USA-HO_JDA-USA-HO      2018.04.01.09.19.00    -2.60448551    -4.13996172     6.94197496     0.00000682     0.00000000     0.00000720 0.00000000 VRAI 
CAM-JDC-US-IP_JDC-US-IP        2018.04.01.09.19.00     2.59887489    -4.19500875    -6.54755402     0.00000266     0.00000000     0.00000170 0.00000000 VRAI 
CAM-JDC-US-HO_JDC-US-HO        2018.04.01.09.19.00     2.60924594    -4.14002832    -6.93120750     0.00000056     0.00000022     0.00000214 0.00000000 VRAI 
CAM-JDC-USA-IP_JDC-USA-IP      2018.04.01.09.19.00    -2.60538491    -4.19509983    -6.54021231     0.00000138     0.00000000     0.00000353 0.00000000 VRAI 
CAM-JDC-USA-HO_JDC-USA-HO      2018.04.01.09.19.00    -2.59388081    -4.14012941    -6.92661746     0.00001153     0.00000022     0.00000616 0.00000000 VRAI 
CAM-ECTA-US-IP_ECTA-US-IP-T    2018.04.01.09.19.00     3.54954116     3.84898520     8.09021664     0.00003293     0.00000034     0.00003102 0.00000000 VRAI 
CAM-ECTA-US-IP_ECTA-US-IP      2018.04.01.09.19.00     3.51906435    -4.07064009     7.90132523     0.00000011     0.00000000     0.00000140 0.00000000 VRAI 
CAM-ECTA-US-HO_ECTA-US-HO-T    2018.04.01.09.19.00     3.87611175     3.64745442    12.94144249     0.00001890     0.00000045     0.00000078 0.00000000 VRAI 
CAM-ECTA-US-HO_ECTA-US-HO      2018.04.01.09.19.00     3.66468366    -3.92575884    12.88838673     0.00000336     0.00000000     0.00000000 0.00000000 VRAI 
CAM-ECTA-USA-IP_ECTA-USA-IP-T  2018.04.01.09.19.00    -3.67389361     3.84891295     7.90155458     0.00002199     0.00000000     0.00001460 0.00000000 VRAI 
CAM-ECTA-USA-IP_ECTA-USA-IP    2018.04.01.09.19.00    -3.53195826    -4.07044983     7.89416440     0.00000096     0.00000000     0.00000119 0.00000000 VRAI 
CAM-ECTA-USA-HO_ECTA-USA-HO-T  2018.04.01.09.19.00    -3.85086656     3.64779250    12.89997133     0.00753861     0.00007615     0.02799810 0.00000000 VRAI 
CAM-ECTA-USA-HO_ECTA-USA-HO    2018.04.01.09.19.00    -3.68513576    -3.92557216    12.88856888     0.00000049     0.00000000     0.00000156 0.00000000 VRAI 
CAM-ECTC-US-IP_ECTC-US-IP-T    2018.04.01.09.19.00     3.67975624     3.84881441    -7.90500085     0.00001210     0.00000041     0.00002847 0.00000000 VRAI 
CAM-ECTC-US-IP_ECTC-US-IP      2018.04.01.09.19.00     3.53229904    -4.07045221    -7.88313293     0.00000072     0.00000000     0.00000095 0.00000000 VRAI 
CAM-ECTC-US-HO_ECTC-US-HO-T    2018.04.01.09.19.00     3.86836040     3.64756608   -12.94569111     0.00001609     0.00000000     0.00000572 0.00000000 VRAI 
CAM-ECTC-US-HO_ECTC-US-HO      2018.04.01.09.19.00     3.67311037    -3.92560482   -12.89618301     0.00000155     0.00000000     0.00000000 0.00000000 VRAI 
CAM-ECTC-USA-IP_ECTC-USA-IP-T  2018.04.01.09.19.00    -3.65574491     3.84944463    -7.92514873     0.00003803     0.00000048     0.00002551 0.00000000 VRAI 
CAM-ECTC-USA-IP_ECTC-USA-IP    2018.04.01.09.19.00    -3.53011656    -4.07030439    -7.87774873     0.00000310     0.00000000     0.00000119 0.00000000 VRAI 
CAM-ECTC-USA-HO_ECTC-USA-HO-T  2018.04.01.09.19.00    -3.86940575     3.64756846   -12.93691158     0.00000143     0.00000000     0.00000572 0.00000000 VRAI 
CAM-ECTC-USA-HO_ECTC-USA-HO    2018.04.01.09.19.00    -3.67656004    -3.92561221   -12.89132500     0.00000131     0.00000000     0.00000095 0.00000000 VRAI 
