********** Fichier qui contient une sauvegarde des coordonnees images + coordonnees images transformees dans le repere BCAM (MOUNT) + coordonnees des prismes dans le repere MOUNT********** 
********************************************************************** Unite en metres (m)************************************************************************************************** 

*******************************************************************coordonnees images dans le repere CCD *********************************************************************************** 
20MABNDL000077_PR002
Spot 1     0.00052500     0.00043500
Spot 2     0.00052500     0.00043500
Spot 1     0.00121442     0.00150088
Spot 2     0.00052500     0.00043500
Spot 1     0.00121496     0.00150104
Spot 2     0.00052500     0.00043500
20MABNDL000077_PR003
Spot 1     0.00138762     0.00148673
Spot 2     0.00153736     0.00148880
Spot 1     0.00138755     0.00148700
Spot 2     0.00153703     0.00148873
Spot 1     0.00138803     0.00148696
Spot 2     0.00153683     0.00148881
20MABNDL000077_20MABNDM000168
Spot 1     0.00175762     0.00118485
Spot 2     0.00075500     0.00010500
Spot 1     0.00175691     0.00118447
Spot 2     0.00075500     0.00010500
Spot 1     0.00175687     0.00118474
Spot 2     0.00075500     0.00010500
20MABNDL000077_PR024
Spot 1     0.00254616     0.00144760
Spot 2     0.00264526     0.00145536
Spot 1     0.00254667     0.00144800
Spot 2     0.00264520     0.00145534
Spot 1     0.00254660     0.00144763
Spot 2     0.00264579     0.00145494
20MABNDM000020_PR013
Spot 1     0.00162694     0.00152726
Spot 2     0.00147342     0.00153376
Spot 1     0.00162726     0.00152745
Spot 2     0.00147316     0.00153561
Spot 1     0.00162749     0.00152758
Spot 2     0.00147377     0.00153338
20MABNDM000020_PR014
Spot 1     0.00265898     0.00169006
Spot 2     0.00249795     0.00169361
Spot 1     0.00265903     0.00168952
Spot 2     0.00249877     0.00169276
Spot 1     0.00265925     0.00168893
Spot 2     0.00249771     0.00169498
20MABNDM000020_20MABNDL000196
Spot 1     0.00197666     0.00117823
Spot 2     0.00230500     0.00010500
Spot 1     0.00197670     0.00117828
Spot 2     0.00230500     0.00010500
Spot 1     0.00197653     0.00117818
Spot 2     0.00230500     0.00010500
20MABNDM000020_PR035
Spot 1     0.00126882     0.00149649
Spot 2     0.00118693     0.00153137
Spot 1     0.00126903     0.00149660
Spot 2     0.00118676     0.00153121
Spot 1     0.00126916     0.00149667
Spot 2     0.00118673     0.00153130
20MABNDM000168_PR025
Spot 1     0.00125500     0.00012500
Spot 2     0.00125500     0.00012500
Spot 1     0.00125500     0.00012500
Spot 2     0.00125500     0.00012500
Spot 1     0.00125500     0.00012500
Spot 2     0.00125500     0.00012500
20MABNDM000168_PR026
Spot 1     0.00266673     0.00142997
Spot 2     0.00250547     0.00142641
Spot 1     0.00266677     0.00143012
Spot 2     0.00250534     0.00142621
Spot 1     0.00266669     0.00143020
Spot 2     0.00250529     0.00142653
20MABNDM000168_20MABNDL000077
Spot 1     0.00154168     0.00130043
Spot 2     0.00175786     0.00130509
Spot 1     0.00154168     0.00130057
Spot 2     0.00175766     0.00130472
Spot 1     0.00154159     0.00130060
Spot 2     0.00175750     0.00130483
20MABNDM000168_PR001
Spot 1     0.00080828     0.00161874
Spot 2     0.00070620     0.00162076
Spot 1     0.00080818     0.00161883
Spot 2     0.00070624     0.00162084
Spot 1     0.00080812     0.00161877
Spot 2     0.00070624     0.00162095
20MABNDL000196_PR036
Spot 1     0.00094607     0.00163646
Spot 2     0.00111049     0.00163528
Spot 1     0.00094592     0.00163608
Spot 2     0.00111038     0.00163538
Spot 1     0.00094601     0.00163626
Spot 2     0.00111014     0.00163528
20MABNDL000196_PR037
Spot 1     0.00246739     0.00117175
Spot 2     0.00262232     0.00116995
Spot 1     0.00246737     0.00117174
Spot 2     0.00262228     0.00117004
Spot 1     0.00246747     0.00117162
Spot 2     0.00262233     0.00116998
20MABNDL000196_20MABNDM000020
Spot 1     0.00192586     0.00104138
Spot 2     0.00170452     0.00104672
Spot 1     0.00192578     0.00104183
Spot 2     0.00170444     0.00104680
Spot 1     0.00192570     0.00104161
Spot 2     0.00170437     0.00104695
20MABNDL000196_PR012
Spot 1     0.00265181     0.00134255
Spot 2     0.00272295     0.00138800
Spot 1     0.00265181     0.00134266
Spot 2     0.00272291     0.00138798
Spot 1     0.00265137     0.00134284
Spot 2     0.00272258     0.00138794
20MABNDA000318_PR004
Spot 1     0.00192524     0.00162750
Spot 2     0.00214305     0.00162674
Spot 1     0.00192517     0.00162723
Spot 2     0.00214296     0.00162677
Spot 1     0.00192512     0.00162748
Spot 2     0.00214346     0.00162662
20MABNDA000334_PR005
Spot 1     0.00247225     0.00158780
Spot 2     0.00219156     0.00158820
Spot 1     0.00247214     0.00158796
Spot 2     0.00219169     0.00158847
Spot 1     0.00247225     0.00158790
Spot 2     0.00219182     0.00158841
20MABNDB000317_PR015
Spot 1     0.00170461     0.00158774
Spot 2     0.00148471     0.00159479
Spot 1     0.00170417     0.00158792
Spot 2     0.00148505     0.00159465
Spot 1     0.00170453     0.00158796
Spot 2     0.00148479     0.00159450
20MABNDB000146_PR016
Spot 1     0.00144347     0.00132437
Spot 2     0.00171984     0.00132716
Spot 1     0.00144349     0.00132449
Spot 2     0.00171970     0.00132708
Spot 1     0.00144354     0.00132448
Spot 2     0.00171994     0.00132703
20MABNDB000135_PR027
Spot 1     0.00189020     0.00091449
Spot 2     0.00210814     0.00091622
Spot 1     0.00189014     0.00091428
Spot 2     0.00210822     0.00091611
Spot 1     0.00189010     0.00091447
Spot 2     0.00210820     0.00091612
20MABNDB000126_PR028
Spot 1     0.00164356     0.00200926
Spot 2     0.00192599     0.00201105
Spot 1     0.00164358     0.00200931
Spot 2     0.00192584     0.00201090
Spot 1     0.00164346     0.00200926
Spot 2     0.00192604     0.00201096
20MABNDA000272_PR038
Spot 1     0.00192146     0.00095031
Spot 2     0.00169986     0.00094977
Spot 1     0.00192126     0.00095027
Spot 2     0.00170070     0.00094986
Spot 1     0.00192171     0.00094995
Spot 2     0.00170069     0.00094959
20MABNDA000003_PR039
Spot 1     0.00199924     0.00192555
Spot 2     0.00227762     0.00192684
Spot 1     0.00199919     0.00192566
Spot 2     0.00227777     0.00192698
Spot 1     0.00199931     0.00192566
Spot 2     0.00227782     0.00192675
20MABNDA000196_PR006
Spot 1     0.00199910     0.00072680
Spot 2     0.00163258     0.00072447
Spot 1     0.00199904     0.00072708
Spot 2     0.00163269     0.00072469
Spot 1     0.00199901     0.00072686
Spot 2     0.00163262     0.00072462
20MABNDA000324_PR007
Spot 1     0.00194134     0.00121453
Spot 2     0.00173542     0.00122030
Spot 1     0.00194137     0.00121477
Spot 2     0.00173536     0.00122030
Spot 1     0.00173542     0.00122036
Spot 2     0.00194133     0.00121434
20MABNDB000001_PR017
Spot 1     0.00190289     0.00043910
Spot 2     0.00227125     0.00044750
Spot 1     0.00190281     0.00043916
Spot 2     0.00227141     0.00044750
Spot 1     0.00190296     0.00043915
Spot 2     0.00227177     0.00044746
20MABNDB000260_PR019
Spot 1     0.00191376     0.00150607
Spot 2     0.00211845     0.00150707
Spot 1     0.00191433     0.00150606
Spot 2     0.00211853     0.00150696
Spot 1     0.00191418     0.00150639
Spot 2     0.00211877     0.00150713
20MABNDB000212_PR029
Spot 1     0.00222840     0.00070093
Spot 2     0.00186864     0.00070091
Spot 1     0.00222848     0.00070081
Spot 2     0.00186802     0.00070128
Spot 1     0.00222846     0.00070064
Spot 2     0.00186795     0.00070136
20MABNDB000128_PR030
Spot 1     0.00190486     0.00199936
Spot 2     0.00211062     0.00199455
Spot 1     0.00190468     0.00199944
Spot 2     0.00211052     0.00199440
Spot 1     0.00190482     0.00199954
Spot 2     0.00211075     0.00199437
20MABNDA000444_PR040
Spot 1     0.00074547     0.00035422
Spot 2     0.00111238     0.00035162
Spot 1     0.00074524     0.00035461
Spot 2     0.00111250     0.00035188
Spot 1     0.00074554     0.00035415
Spot 2     0.00111254     0.00035177
20MABNDA000053_PR041
Spot 1     0.00166057     0.00198958
Spot 2     0.00144481     0.00199131
Spot 1     0.00165947     0.00199049
Spot 2     0.00144464     0.00199100
Spot 1     0.00165946     0.00199006
Spot 2     0.00144390     0.00199219
20MABNDA000188_PR008
Spot 1     0.00289500     0.00025500
Spot 2     0.00289500     0.00025500
Spot 1     0.00289500     0.00025500
Spot 2     0.00289500     0.00025500
Spot 1     0.00289500     0.00025500
Spot 2     0.00289500     0.00025500
20MABNDA000188_PR018
Spot 1     0.00169725     0.00173743
Spot 2     0.00123009     0.00173380
Spot 1     0.00169750     0.00173750
Spot 2     0.00123020     0.00173356
Spot 1     0.00169738     0.00173727
Spot 2     0.00123008     0.00173347
20MABNDA000039_PR009
Spot 1     0.00066322     0.00118004
Spot 2     0.00061618     0.00118416
Spot 1     0.00066335     0.00118012
Spot 2     0.00061653     0.00118431
Spot 1     0.00066379     0.00117973
Spot 2     0.00061609     0.00118427
20MABNDA000039_PR011
Spot 1     0.00276972     0.00029173
Spot 2     0.00259385     0.00028619
Spot 1     0.00276972     0.00029150
Spot 2     0.00259398     0.00028653
Spot 1     0.00276963     0.00029163
Spot 2     0.00259389     0.00028641
20MABNDB000155_PR020
Spot 1     0.00062384     0.00113577
Spot 2     0.00068915     0.00113134
Spot 1     0.00062378     0.00113588
Spot 2     0.00068972     0.00113119
Spot 1     0.00062300     0.00113572
Spot 2     0.00068889     0.00113117
20MABNDB000155_PR022
Spot 1     0.00213788     0.00142694
Spot 2     0.00261046     0.00142216
Spot 1     0.00213782     0.00142690
Spot 2     0.00261033     0.00142219
Spot 1     0.00213770     0.00142702
Spot 2     0.00261039     0.00142217
20MABNDB000010_PR021
Spot 1     0.00287221     0.00114928
Spot 2     0.00268643     0.00037643
Spot 1     0.00287210     0.00114927
Spot 2     0.00268643     0.00037643
20MABNDB000010_PR023
Spot 1     0.00131732     0.00030227
Spot 2     0.00149252     0.00030021
Spot 1     0.00131737     0.00030247
Spot 2     0.00149255     0.00030037
20MABNDB000069_PR031
Spot 1     0.00028296     0.00140580
Spot 2     0.00035625     0.00140443
Spot 1     0.00028269     0.00140568
Spot 2     0.00035495     0.00140460
20MABNDB000069_PR033
Spot 1     0.00182602     0.00206596
Spot 2     0.00229636     0.00208631
Spot 1     0.00182609     0.00206615
Spot 2     0.00229631     0.00208619
20MABNDB000131_PR032
Spot 1     0.00277473     0.00107540
Spot 2     0.00283462     0.00107860
Spot 1     0.00277468     0.00107559
Spot 2     0.00283496     0.00107874
20MABNDB000131_PR034
Spot 1     0.00091434     0.00032438
Spot 2     0.00109071     0.00032432
Spot 1     0.00091414     0.00032451
Spot 2     0.00109053     0.00032440
20MABNDA000208_PR042
Spot 1     0.00262814     0.00043029
Spot 2     0.00326500     0.00029500
Spot 1     0.00262700     0.00042820
Spot 2     0.00282833     0.00063167
20MABNDA000208_PR046
Spot 1     0.00145988     0.00221963
Spot 2     0.00058729     0.00209243
Spot 1     0.00145968     0.00222021
Spot 2     0.00077713     0.00214011
20MABNDA000035_PR044
Spot 1     0.00073742     0.00125044
Spot 2     0.00067868     0.00124478
Spot 1     0.00073721     0.00125050
Spot 2     0.00067915     0.00124438
20MABNDA000035_PR045
Spot 1     0.00253679     0.00045885
Spot 2     0.00235955     0.00045776
Spot 1     0.00253684     0.00045884
Spot 2     0.00235960     0.00045764


****************************************************************coordonnees images transformees dans le repere MOUNT************************************************************************* 
20MABNDL000077_PR002
Spot 1     0.01158509     0.03451311    -0.07463200
Spot 2     0.01158509     0.03451311    -0.07463200
Spot 1     0.01228473     0.03557231    -0.07463200
Spot 2     0.01158509     0.03451311    -0.07463200
Spot 1     0.01228527     0.03557247    -0.07463200
Spot 2     0.01158509     0.03451311    -0.07463200
20MABNDL000077_PR003
Spot 1     0.01245779     0.03555650    -0.07463200
Spot 2     0.01260754     0.03555712    -0.07463200
Spot 1     0.01245772     0.03555677    -0.07463200
Spot 2     0.01260721     0.03555706    -0.07463200
Spot 1     0.01245820     0.03555672    -0.07463200
Spot 2     0.01260701     0.03555714    -0.07463200
20MABNDL000077_20MABNDM000168
Spot 1    -0.01259277     0.03524783    -0.00695400
Spot 2    -0.01157915     0.03417830    -0.00695400
Spot 1    -0.01259206     0.03524746    -0.00695400
Spot 2    -0.01157915     0.03417830    -0.00695400
Spot 1    -0.01259202     0.03524773    -0.00695400
Spot 2    -0.01157915     0.03417830    -0.00695400
20MABNDL000077_PR024
Spot 1    -0.01338396     0.03550249    -0.00695400
Spot 2    -0.01348313     0.03550924    -0.00695400
Spot 1    -0.01338447     0.03550289    -0.00695400
Spot 2    -0.01348307     0.03550922    -0.00695400
Spot 1    -0.01338440     0.03550252    -0.00695400
Spot 2    -0.01348366     0.03550881    -0.00695400
20MABNDM000020_PR013
Spot 1    -0.01273199    -0.03548595    -0.00523500
Spot 2    -0.01288533    -0.03549584    -0.00523500
Spot 1    -0.01273167    -0.03548613    -0.00523500
Spot 2    -0.01288555    -0.03549769    -0.00523500
Spot 1    -0.01273144    -0.03548625    -0.00523500
Spot 2    -0.01288499    -0.03549545    -0.00523500
20MABNDM000020_PR014
Spot 1    -0.01169661    -0.03562588    -0.00523500
Spot 2    -0.01185752    -0.03563299    -0.00523500
Spot 1    -0.01169657    -0.03562534    -0.00523500
Spot 2    -0.01185672    -0.03563213    -0.00523500
Spot 1    -0.01169636    -0.03562475    -0.00523500
Spot 2    -0.01185773    -0.03563437    -0.00523500
20MABNDM000020_20MABNDL000196
Spot 1     0.01270962    -0.03514679    -0.07583800
Spot 2     0.01238113    -0.03407361    -0.07583800
Spot 1     0.01270958    -0.03514684    -0.07583800
Spot 2     0.01238113    -0.03407361    -0.07583800
Spot 1     0.01270975    -0.03514674    -0.07583800
Spot 2     0.01238113    -0.03407361    -0.07583800
20MABNDM000020_PR035
Spot 1     0.01341750    -0.03546496    -0.07583800
Spot 2     0.01349940    -0.03549982    -0.07583800
Spot 1     0.01341729    -0.03546507    -0.07583800
Spot 2     0.01349957    -0.03549966    -0.07583800
Spot 1     0.01341716    -0.03546514    -0.07583800
Spot 2     0.01349960    -0.03549975    -0.07583800
20MABNDM000168_PR025
Spot 1    -0.01315292    -0.03446186    -0.00532900
Spot 2    -0.01315292    -0.03446186    -0.00532900
Spot 1    -0.01315292    -0.03446186    -0.00532900
Spot 2    -0.01315292    -0.03446186    -0.00532900
Spot 1    -0.01315292    -0.03446186    -0.00532900
Spot 2    -0.01315292    -0.03446186    -0.00532900
20MABNDM000168_PR026
Spot 1    -0.01173560    -0.03576075    -0.00532900
Spot 2    -0.01189688    -0.03575789    -0.00532900
Spot 1    -0.01173556    -0.03576090    -0.00532900
Spot 2    -0.01189701    -0.03575769    -0.00532900
Spot 1    -0.01173564    -0.03576098    -0.00532900
Spot 2    -0.01189706    -0.03575801    -0.00532900
20MABNDM000168_20MABNDL000077
Spot 1     0.01288378    -0.03530106    -0.07445100
Spot 2     0.01266755    -0.03530256    -0.07445100
Spot 1     0.01288377    -0.03530120    -0.07445100
Spot 2     0.01266776    -0.03530219    -0.07445100
Spot 1     0.01288386    -0.03530123    -0.07445100
Spot 2     0.01266792    -0.03530230    -0.07445100
20MABNDM000168_PR001
Spot 1     0.01361244    -0.03563007    -0.07445100
Spot 2     0.01371448    -0.03563358    -0.07445100
Spot 1     0.01361254    -0.03563016    -0.07445100
Spot 2     0.01371444    -0.03563366    -0.07445100
Spot 1     0.01361260    -0.03563010    -0.07445100
Spot 2     0.01371444    -0.03563377    -0.07445100
20MABNDL000196_PR036
Spot 1     0.01192600     0.03582516    -0.07483600
Spot 2     0.01209042     0.03582432    -0.07483600
Spot 1     0.01192585     0.03582478    -0.07483600
Spot 2     0.01209031     0.03582442    -0.07483600
Spot 1     0.01192594     0.03582496    -0.07483600
Spot 2     0.01209007     0.03582432    -0.07483600
20MABNDL000196_PR037
Spot 1     0.01344829     0.03536362    -0.07483600
Spot 2     0.01360322     0.03536214    -0.07483600
Spot 1     0.01344827     0.03536361    -0.07483600
Spot 2     0.01360318     0.03536223    -0.07483600
Spot 1     0.01344837     0.03536349    -0.07483600
Spot 2     0.01360323     0.03536217    -0.07483600
20MABNDL000196_20MABNDM000020
Spot 1    -0.01274991     0.03531258    -0.00611000
Spot 2    -0.01252872     0.03532238    -0.00611000
Spot 1    -0.01274984     0.03531303    -0.00611000
Spot 2    -0.01252864     0.03532246    -0.00611000
Spot 1    -0.01274975     0.03531282    -0.00611000
Spot 2    -0.01252857     0.03532261    -0.00611000
20MABNDL000196_PR012
Spot 1    -0.01348177     0.03559909    -0.00611000
Spot 2    -0.01355381     0.03564310    -0.00611000
Spot 1    -0.01348177     0.03559920    -0.00611000
Spot 2    -0.01355377     0.03564308    -0.00611000
Spot 1    -0.01348134     0.03559939    -0.00611000
Spot 2    -0.01355344     0.03564304    -0.00611000
20MABNDA000318_PR004
Spot 1    -0.01264506     0.01246838    -0.07310600
Spot 2    -0.01286287     0.01246850    -0.07310600
Spot 1    -0.01264499     0.01246865    -0.07310600
Spot 2    -0.01286278     0.01246847    -0.07310600
Spot 1    -0.01264494     0.01246840    -0.07310600
Spot 2    -0.01286328     0.01246862    -0.07310600
20MABNDA000334_PR005
Spot 1    -0.01311536     0.01254059    -0.07324100
Spot 2    -0.01283467     0.01253993    -0.07324100
Spot 1    -0.01311525     0.01254043    -0.07324100
Spot 2    -0.01283480     0.01253966    -0.07324100
Spot 1    -0.01311536     0.01254049    -0.07324100
Spot 2    -0.01283493     0.01253972    -0.07324100
20MABNDB000317_PR015
Spot 1    -0.01244955    -0.01250778    -0.07326100
Spot 2    -0.01266952    -0.01250329    -0.07326100
Spot 1    -0.01244999    -0.01250760    -0.07326100
Spot 2    -0.01266918    -0.01250343    -0.07326100
Spot 1    -0.01244964    -0.01250756    -0.07326100
Spot 2    -0.01266944    -0.01250358    -0.07326100
20MABNDB000146_PR016
Spot 1    -0.01276487    -0.01246924    -0.07450500
Spot 2    -0.01248851    -0.01246584    -0.07450500
Spot 1    -0.01276485    -0.01246912    -0.07450500
Spot 2    -0.01248865    -0.01246592    -0.07450500
Spot 1    -0.01276480    -0.01246913    -0.07450500
Spot 2    -0.01248841    -0.01246597    -0.07450500
20MABNDB000135_PR027
Spot 1    -0.01251449    -0.01319852    -0.07464700
Spot 2    -0.01229654    -0.01319922    -0.07464700
Spot 1    -0.01251455    -0.01319873    -0.07464700
Spot 2    -0.01229646    -0.01319933    -0.07464700
Spot 1    -0.01251459    -0.01319854    -0.07464700
Spot 2    -0.01229648    -0.01319932    -0.07464700
20MABNDB000126_PR028
Spot 1    -0.01253598    -0.01217292    -0.07500400
Spot 2    -0.01225356    -0.01216962    -0.07500400
Spot 1    -0.01253596    -0.01217287    -0.07500400
Spot 2    -0.01225371    -0.01216977    -0.07500400
Spot 1    -0.01253608    -0.01217292    -0.07500400
Spot 2    -0.01225351    -0.01216971    -0.07500400
20MABNDA000272_PR038
Spot 1    -0.01275711     0.01316115    -0.07417900
Spot 2    -0.01253551     0.01316130    -0.07417900
Spot 1    -0.01275691     0.01316119    -0.07417900
Spot 2    -0.01253635     0.01316121    -0.07417900
Spot 1    -0.01275736     0.01316152    -0.07417900
Spot 2    -0.01253634     0.01316148    -0.07417900
20MABNDA000003_PR039
Spot 1    -0.01280032     0.01212671    -0.07373400
Spot 2    -0.01307871     0.01212613    -0.07373400
Spot 1    -0.01280027     0.01212660    -0.07373400
Spot 2    -0.01307886     0.01212599    -0.07373400
Spot 1    -0.01280039     0.01212660    -0.07373400
Spot 2    -0.01307891     0.01212622    -0.07373400
20MABNDA000196_PR006
Spot 1    -0.01295377     0.01325159    -0.07967100
Spot 2    -0.01258725     0.01324921    -0.07967100
Spot 1    -0.01295372     0.01325131    -0.07967100
Spot 2    -0.01258737     0.01324899    -0.07967100
Spot 1    -0.01295368     0.01325153    -0.07967100
Spot 2    -0.01258730     0.01324906    -0.07967100
20MABNDA000324_PR007
Spot 1    -0.01254703     0.01280709    -0.07446800
Spot 2    -0.01234108     0.01280293    -0.07446800
Spot 1    -0.01254706     0.01280685    -0.07446800
Spot 2    -0.01234102     0.01280293    -0.07446800
Spot 1    -0.01234108     0.01280287    -0.07446800
Spot 2    -0.01254703     0.01280728    -0.07446800
20MABNDB000001_PR017
Spot 1    -0.01228547    -0.01355059    -0.07418400
Spot 2    -0.01191704    -0.01354609    -0.07418400
Spot 1    -0.01228555    -0.01355053    -0.07418400
Spot 2    -0.01191688    -0.01354609    -0.07418400
Spot 1    -0.01228540    -0.01355054    -0.07418400
Spot 2    -0.01191652    -0.01354614    -0.07418400
20MABNDB000260_PR019
Spot 1    -0.01241765    -0.01239665    -0.07492700
Spot 2    -0.01221302    -0.01239146    -0.07492700
Spot 1    -0.01241708    -0.01239665    -0.07492700
Spot 2    -0.01221294    -0.01239157    -0.07492700
Spot 1    -0.01241723    -0.01239633    -0.07492700
Spot 2    -0.01221270    -0.01239139    -0.07492700
20MABNDB000212_PR029
Spot 1    -0.01185945    -0.01328028    -0.07390500
Spot 2    -0.01221918    -0.01327646    -0.07390500
Spot 1    -0.01185937    -0.01328040    -0.07390500
Spot 2    -0.01221980    -0.01327609    -0.07390500
Spot 1    -0.01185939    -0.01328057    -0.07390500
Spot 2    -0.01221987    -0.01327600    -0.07390500
20MABNDB000128_PR030
Spot 1    -0.01245026    -0.01221794    -0.07353400
Spot 2    -0.01224448    -0.01222204    -0.07353400
Spot 1    -0.01245044    -0.01221786    -0.07353400
Spot 2    -0.01224458    -0.01222219    -0.07353400
Spot 1    -0.01245030    -0.01221776    -0.07353400
Spot 2    -0.01224435    -0.01222222    -0.07353400
20MABNDA000444_PR040
Spot 1    -0.01168529     0.01367559    -0.07412000
Spot 2    -0.01205221     0.01367353    -0.07412000
Spot 1    -0.01168506     0.01367520    -0.07412000
Spot 2    -0.01205232     0.01367327    -0.07412000
Spot 1    -0.01168537     0.01367566    -0.07412000
Spot 2    -0.01205237     0.01367338    -0.07412000
20MABNDA000053_PR041
Spot 1    -0.01241721     0.01212103    -0.07430100
Spot 2    -0.01220153     0.01211509    -0.07430100
Spot 1    -0.01241613     0.01212010    -0.07430100
Spot 2    -0.01220135     0.01211539    -0.07430100
Spot 1    -0.01241611     0.01212053    -0.07430100
Spot 2    -0.01220063     0.01211419    -0.07430100
20MABNDA000188_PR008
Spot 1    -0.01391227     0.01380893    -0.07502000
Spot 2    -0.01391227     0.01380893    -0.07502000
Spot 1    -0.01391227     0.01380893    -0.07502000
Spot 2    -0.01391227     0.01380893    -0.07502000
Spot 1    -0.01391227     0.01380893    -0.07502000
Spot 2    -0.01391227     0.01380893    -0.07502000
20MABNDA000188_PR018
Spot 1    -0.01272726     0.01231630    -0.07502000
Spot 2    -0.01226009     0.01231593    -0.07502000
Spot 1    -0.01272751     0.01231623    -0.07502000
Spot 2    -0.01226019     0.01231617    -0.07502000
Spot 1    -0.01272739     0.01231646    -0.07502000
Spot 2    -0.01226007     0.01231626    -0.07502000
20MABNDA000039_PR009
Spot 1    -0.01162537     0.01306409    -0.07444800
Spot 2    -0.01157835     0.01305977    -0.07444800
Spot 1    -0.01162550     0.01306401    -0.07444800
Spot 2    -0.01157870     0.01305962    -0.07444800
Spot 1    -0.01162594     0.01306440    -0.07444800
Spot 2    -0.01157826     0.01305966    -0.07444800
20MABNDA000039_PR011
Spot 1    -0.01372801     0.01396151    -0.07444800
Spot 2    -0.01355211     0.01396629    -0.07444800
Spot 1    -0.01372801     0.01396174    -0.07444800
Spot 2    -0.01355225     0.01396595    -0.07444800
Spot 1    -0.01372792     0.01396161    -0.07444800
Spot 2    -0.01355216     0.01396607    -0.07444800
20MABNDB000155_PR020
Spot 1    -0.01364240    -0.01312155    -0.07501700
Spot 2    -0.01357704    -0.01312508    -0.07501700
Spot 1    -0.01364246    -0.01312144    -0.07501700
Spot 2    -0.01357647    -0.01312522    -0.07501700
Spot 1    -0.01364324    -0.01312161    -0.07501700
Spot 2    -0.01357730    -0.01312526    -0.07501700
20MABNDB000155_PR022
Spot 1    -0.01213249    -0.01280968    -0.07501700
Spot 2    -0.01165989    -0.01280799    -0.07501700
Spot 1    -0.01213255    -0.01280972    -0.07501700
Spot 2    -0.01166002    -0.01280796    -0.07501700
Spot 1    -0.01213267    -0.01280960    -0.07501700
Spot 2    -0.01165996    -0.01280798    -0.07501700
20MABNDB000010_PR021
Spot 1    -0.01157873    -0.01292917    -0.07358200
Spot 2    -0.01175139    -0.01370506    -0.07358200
Spot 1    -0.01157884    -0.01292918    -0.07358200
Spot 2    -0.01175139    -0.01370506    -0.07358200
20MABNDB000010_PR023
Spot 1    -0.01311905    -0.01380240    -0.07358200
Spot 2    -0.01294384    -0.01380149    -0.07358200
Spot 1    -0.01311900    -0.01380220    -0.07358200
Spot 2    -0.01294381    -0.01380133    -0.07358200
20MABNDB000069_PR031
Spot 1    -0.01359326    -0.01286182    -0.07388500
Spot 2    -0.01352009    -0.01286621    -0.07388500
Spot 1    -0.01359353    -0.01286193    -0.07388500
Spot 2    -0.01352138    -0.01286599    -0.07388500
20MABNDB000069_PR033
Spot 1    -0.01202427    -0.01226590    -0.07388500
Spot 2    -0.01155349    -0.01226497    -0.07388500
Spot 1    -0.01202419    -0.01226571    -0.07388500
Spot 2    -0.01155355    -0.01226509    -0.07388500
20MABNDB000131_PR032
Spot 1    -0.01144541    -0.01303936    -0.07533000
Spot 2    -0.01138554    -0.01303586    -0.07533000
Spot 1    -0.01144546    -0.01303918    -0.07533000
Spot 2    -0.01138520    -0.01303572    -0.07533000
20MABNDB000131_PR034
Spot 1    -0.01330199    -0.01379974    -0.07533000
Spot 2    -0.01312563    -0.01379891    -0.07533000
Spot 1    -0.01330219    -0.01379961    -0.07533000
Spot 2    -0.01312581    -0.01379884    -0.07533000
20MABNDA000208_PR042
Spot 1    -0.01349932     0.01356611    -0.07273700
Spot 2    -0.01413630     0.01370084    -0.07273700
Spot 1    -0.01349818     0.01356820    -0.07273700
Spot 2    -0.01369933     0.01336455    -0.07273700
20MABNDA000208_PR046
Spot 1    -0.01232949     0.01177779    -0.07273700
Spot 2    -0.01145701     0.01190576    -0.07273700
Spot 1    -0.01232929     0.01177721    -0.07273700
Spot 2    -0.01164681     0.01185791    -0.07273700
20MABNDA000035_PR044
Spot 1    -0.01157202     0.01300680    -0.07483200
Spot 2    -0.01151324     0.01301204    -0.07483200
Spot 1    -0.01157181     0.01300674    -0.07483200
Spot 2    -0.01151371     0.01301245    -0.07483200
20MABNDA000035_PR045
Spot 1    -0.01336571     0.01381117    -0.07483200
Spot 2    -0.01318847     0.01381100    -0.07483200
Spot 1    -0.01336576     0.01381118    -0.07483200
Spot 2    -0.01318852     0.01381112    -0.07483200


*****************************************************************coordonnees du prisme dans le repere MOUNT********************************************************************************** 
20MABNDL000077_PR002
    0.06737348     0.07371713     3.70652628
    0.05009723     0.04755781     3.70691442
    0.05008387     0.04755398     3.70691466
20MABNDL000077_PR003
    0.02096912     0.02145336     3.89601803
    0.02097945     0.02144807     3.89601803
    0.02097218     0.02144710     3.89601803
20MABNDL000077_20MABNDM000168
   -0.05595984     0.07577008    -5.46843624
   -0.05598562     0.07578354    -5.46843624
   -0.05598696     0.07577378    -5.46843624
20MABNDL000077_PR024
    0.04566919     0.01711358    -5.89639854
    0.04568688     0.01709894    -5.89639854
    0.04570684     0.01712917    -5.89639807
20MABNDM000020_PR013
   -0.00365999    -0.01811041    -3.80243397
   -0.00366259    -0.01805984    -3.80243373
   -0.00368228    -0.01811239    -3.80243397
20MABNDM000020_PR014
   -0.06557557    -0.00496145    -4.74840975
   -0.06560167    -0.00500528    -4.74840975
   -0.06557667    -0.00495405    -4.74840975
20MABNDM000020_20MABNDL000196
    0.02683985    -0.07123877     5.39469719
    0.02684128    -0.07123698     5.39469719
    0.02683519    -0.07124057     5.39469719
20MABNDM000020_PR035
   -0.04245289    -0.00669448     5.80095387
   -0.04245135    -0.00669640     5.80095387
   -0.04244751    -0.00669024     5.80095387
20MABNDM000168_PR025
    0.01054214    -0.07917209    -3.78847384
    0.01054214    -0.07917209    -3.78847384
    0.01054214    -0.07917209    -3.78847384
20MABNDM000168_PR026
   -0.05781700    -0.01390513    -3.98429012
   -0.05781466    -0.01390642    -3.98429012
   -0.05781132    -0.01389599    -3.98429012
20MABNDM000168_20MABNDL000077
    0.01156248    -0.03873714     5.38884687
    0.01155517    -0.03874530     5.38884687
    0.01154627    -0.03874014     5.38884687
20MABNDM000168_PR001
   -0.05735992    -0.01336351     5.81470490
   -0.05736215    -0.01335689     5.81470490
   -0.05736444    -0.01335492     5.81470490
20MABNDL000196_PR036
    0.05136698     0.00611142     3.68777275
    0.05137334     0.00611830     3.68777275
    0.05137704     0.00611635     3.68777275
20MABNDL000196_PR037
   -0.02505359     0.02840742     3.88381386
   -0.02505204     0.02840536     3.88381386
   -0.02505592     0.02841000     3.88381386
20MABNDL000196_20MABNDM000020
   -0.01570171     0.03789734    -5.47473907
   -0.01570707     0.03787819    -5.47473907
   -0.01571251     0.03788059    -5.47473907
20MABNDL000196_PR012
    0.05233487     0.01444831    -5.91537189
    0.05233339     0.01444479    -5.91537189
    0.05230358     0.01443874    -5.91537189
20MABNDA000318_PR004
   -0.00855802     0.03843189     2.74965906
   -0.00856095     0.03842748     2.74965906
   -0.00855270     0.03842933     2.74965906
20MABNDA000334_PR005
   -0.00430147     0.03174161     2.14977145
   -0.00430118     0.03174775     2.14977145
   -0.00429775     0.03174603     2.14977145
20MABNDB000317_PR015
   -0.01726938    -0.03379162     2.75129199
   -0.01726755    -0.03379233     2.75129199
   -0.01726939    -0.03379035     2.75129199
20MABNDB000146_PR016
   -0.01341629    -0.03156605     2.15201473
   -0.01341456    -0.03156662     2.15201473
   -0.01341874    -0.03156577     2.15201473
20MABNDB000135_PR027
   -0.02096866    -0.00979684     2.74937153
   -0.02096896    -0.00979097     2.74937153
   -0.02096790    -0.00979465     2.74937153
20MABNDB000126_PR028
   -0.02030713    -0.03896738     2.14679527
   -0.02030529    -0.03896595     2.14679527
   -0.02030643    -0.03896609     2.14679527
20MABNDA000272_PR038
   -0.01329128     0.01077362     2.74965858
   -0.01327955     0.01077452     2.74965858
   -0.01327151     0.01076369     2.74965858
20MABNDA000003_PR039
   -0.00597476     0.04122845     2.14891577
   -0.00597333     0.04123201     2.14891529
   -0.00597091     0.04122872     2.14891577
20MABNDA000196_PR006
   -0.01012351     0.00987536     1.64206338
   -0.01012290     0.00988081     1.64206338
   -0.01012403     0.00987766     1.64206338
20MABNDA000324_PR007
   -0.02551865     0.02794556     2.95549011
   -0.02551928     0.02795028     2.95549011
   -0.02551878     0.02794300     2.95549011
20MABNDB000001_PR017
   -0.02448751    -0.00283573     1.64035702
   -0.02448839    -0.00283637     1.64035702
   -0.02449396    -0.00283577     1.64035702
20MABNDB000260_PR019
   -0.02403796    -0.03849983     2.95627499
   -0.02405081    -0.03849773     2.95627499
   -0.02405238    -0.03850762     2.95627499
20MABNDB000212_PR029
   -0.02529456    -0.00846455     1.64223862
   -0.02528866    -0.00846736     1.64223862
   -0.02528767    -0.00846638     1.64223862
20MABNDB000128_PR030
   -0.01948469    -0.04674463     2.95496345
   -0.01947919    -0.04674324     2.95496345
   -0.01948646    -0.04674463     2.95496345
20MABNDA000444_PR040
   -0.03023560     0.00091476     1.64490855
   -0.03023689     0.00092186     1.64490855
   -0.03023309     0.00091567     1.64490855
20MABNDA000053_PR041
   -0.02650000     0.05111054     2.95450401
   -0.02652470     0.05112279     2.95450354
   -0.02653913     0.05113800     2.95450330
20MABNDA000188_PR008
    0.13650158    -0.07885031     9.20339394
    0.13650158    -0.07885031     9.20339394
    0.13650158    -0.07885031     9.20339394
20MABNDA000188_PR018
   -0.01617472     0.02582961     1.28358257
   -0.01617165     0.02582813     1.28358257
   -0.01617373     0.02582541     1.28358257
20MABNDA000039_PR009
   -0.17124236     0.02559374    11.00701427
   -0.17120719     0.02561041    11.00701523
   -0.17120734     0.02557896    11.00701523
20MABNDA000039_PR011
    0.03084822    -0.02411443     3.43347454
    0.03085119    -0.02411194     3.43347454
    0.03084709    -0.02411169     3.43347454
20MABNDB000155_PR020
    0.10162938    -0.00964830     9.20028877
    0.10159804    -0.00964627     9.20029068
    0.10169671    -0.00963387     9.20028877
20MABNDB000155_PR022
   -0.02602600    -0.01801541     1.28070211
   -0.02602438    -0.01801530     1.28070211
   -0.02602386    -0.01801615     1.28070211
20MABNDB000010_PR021
   -0.15996405     0.02413183    11.00713158
   -0.15995598     0.02413270    11.00713158
20MABNDB000010_PR023
    0.00406535     0.02075803     3.43376780
    0.00406365     0.02074975     3.43376780
20MABNDB000069_PR031
    0.10225198    -0.03871818     9.20356369
    0.10234804    -0.03872521     9.20356083
20MABNDB000069_PR033
   -0.02685529    -0.02689579     1.28394055
   -0.02685549    -0.02689638     1.28394055
20MABNDB000131_PR032
   -0.18761644    -0.02943783    11.00642776
   -0.18763752    -0.02946205    11.00642776
20MABNDB000131_PR034
    0.01476818     0.01648340     3.43337536
    0.01477687     0.01647866     3.43337536
20MABNDA000208_PR042
    0.12281576    -0.05781318     9.20132351
    0.09593272    -0.03730442     9.20181561
20MABNDA000208_PR046
   -0.02670444     0.03382251     1.28206348
   -0.02508453     0.03423645     1.28207374
20MABNDA000035_PR044
   -0.18023366     0.02577011    11.00801945
   -0.18021481     0.02574511    11.00801945
20MABNDA000035_PR045
    0.01420348    -0.01953269     3.43483472
    0.01420574    -0.01953568     3.43483472


*****************************************************************coordonnees du prisme dans le repere ATLAS********************************************************************************** 
20MABNDL000077_PR002 0.00000000
    2.78332901    -3.67712641     6.48587990
    2.80948329    -3.69441152     6.48622084
    2.80948710    -3.69442487     6.48622131
20MABNDL000077_PR003 0.00000000
    2.83576393    -3.72378111     6.67526293
    2.83576918    -3.72377086     6.67526293
    2.83577013    -3.72377801     6.67526293
20MABNDL000077_20MABNDM000168 0.00000000
    2.77223730    -3.78913903    -2.68922138
    2.77222395    -3.78916478    -2.68922138
    2.77223349    -3.78916621    -2.68922138
20MABNDL000077_PR024 0.00000000
    2.83050632    -3.68700075    -3.11711526
    2.83052111    -3.68698287    -3.11711526
    2.83049083    -3.68696308    -3.11711478
20MABNDM000020_PR013 0.00000000
   -2.83419895    -3.73582411     6.48627663
   -2.83424950    -3.73582149     6.48627615
   -2.83419704    -3.73580170     6.48627663
20MABNDM000020_PR014 0.00000000
   -2.84713960    -3.67462397     7.43230200
   -2.84709573    -3.67459774     7.43230200
   -2.84714699    -3.67462277     7.43230200
20MABNDM000020_20MABNDL000196 0.00000000
   -2.78292060    -3.75934529    -2.71088576
   -2.78292227    -3.75934672    -2.71088576
   -2.78291869    -3.75934076    -2.71088576
20MABNDM000020_PR035 0.00000000
   -2.84752488    -3.68972397    -3.11707664
   -2.84752297    -3.68972540    -3.11707664
   -2.84752917    -3.68972921    -3.11707664
20MABNDM000168_PR025 0.00000000
    2.77406669    -3.75585580    -6.47909212
    2.77406669    -3.75585580    -6.47909212
    2.77406669    -3.75585580    -6.47909212
20MABNDM000168_PR026 0.00000000
    2.83933997    -3.68758678    -6.67493773
    2.83933854    -3.68758917    -6.67493773
    2.83934903    -3.68759251    -6.67493773
20MABNDM000168_20MABNDL000077 0.00000000
    2.81505847    -3.75347447     2.69822621
    2.81505013    -3.75346732     2.69822621
    2.81505537    -3.75345826     2.69822621
20MABNDM000168_PR001 0.00000000
    2.84047604    -3.68440056     3.12405682
    2.84048271    -3.68439841     3.12405682
    2.84048462    -3.68439603     3.12405682
20MABNDL000196_PR036 0.00000000
   -2.84749603    -3.69290733    -6.47909641
   -2.84748912    -3.69290113    -6.47909641
   -2.84749126    -3.69289732    -6.47909641
20MABNDL000196_PR037 0.00000000
   -2.82516885    -3.76950002    -6.67506695
   -2.82517076    -3.76949835    -6.67506695
   -2.82516623    -3.76950240    -6.67506695
20MABNDL000196_20MABNDM000020 0.00000000
   -2.81548095    -3.75143838     2.68347335
   -2.81550026    -3.75144362     2.68347335
   -2.81549764    -3.75144911     2.68347335
20MABNDL000196_PR012 0.00000000
   -2.83895206    -3.68300295     3.12404323
   -2.83895564    -3.68300438     3.12404323
   -2.83896160    -3.68303418     3.12404323
20MABNDA000318_PR004 0.00000000
    2.61444521    -4.19698811     3.83356690
    2.61444235    -4.19698811     3.83357120
    2.61445045    -4.19698811     3.83356929
20MABNDA000334_PR005 0.00000000
    2.61669707    -4.19703150     5.89751911
    2.61669731    -4.19703150     5.89751291
    2.61670089    -4.19703150     5.89751482
20MABNDB000317_PR015 0.00000000
   -2.61133766    -4.19700623     3.83622384
   -2.61133957    -4.19700623     3.83622313
   -2.61133766    -4.19700623     3.83622503
20MABNDB000146_PR016 0.00000000
   -2.61287904    -4.19702291     5.89878416
   -2.61288071    -4.19702291     5.89878368
   -2.61287642    -4.19702291     5.89878464
20MABNDB000135_PR027 0.00000000
    2.60389471    -4.19700384    -3.82556391
    2.60389447    -4.19700384    -3.82556987
    2.60389543    -4.19700384    -3.82556629
20MABNDB000126_PR028 0.00000000
    2.60561013    -4.19702101    -5.89325237
    2.60561204    -4.19702101    -5.89325380
    2.60561085    -4.19702101    -5.89325380
20MABNDA000272_PR038 0.00000000
   -2.61124563    -4.19698286    -3.82771063
   -2.61125731    -4.19698286    -3.82770991
   -2.61126542    -4.19698286    -3.82772064
20MABNDA000003_PR039 0.00000000
   -2.61575627    -4.19702101    -5.89153814
   -2.61575770    -4.19702148    -5.89153481
   -2.61576033    -4.19702101    -5.89153814
20MABNDA000196_PR006 0.00000000
    2.58458400    -4.19496536     6.54783201
    2.58458352    -4.19496536     6.54783726
    2.58458447    -4.19496536     6.54783392
20MABNDA000324_PR007 0.00000000
    2.59379625    -4.13996840     6.94796944
    2.59379554    -4.13996840     6.94796467
    2.59379601    -4.13996840     6.94797230
20MABNDB000001_PR017 0.00000000
   -2.59818888    -4.19506073     6.53816366
   -2.59818959    -4.19506073     6.53816462
   -2.59819531    -4.19506073     6.53816366
20MABNDB000260_PR019 0.00000000
   -2.60472393    -4.13995981     6.94214392
   -2.60471106    -4.13995934     6.94214630
   -2.60470939    -4.13995934     6.94213629
20MABNDB000212_PR029 0.00000000
    2.59897232    -4.19501019    -6.54745245
    2.59896636    -4.19501019    -6.54745531
    2.59896541    -4.19501019    -6.54745436
20MABNDB000128_PR030 0.00000000
    2.60937405    -4.14002657    -6.93137646
    2.60937953    -4.14002657    -6.93137789
    2.60937238    -4.14002657    -6.93137646
20MABNDA000444_PR040 0.00000000
   -2.60540819    -4.19510078    -6.54009485
   -2.60540938    -4.19510078    -6.54010201
   -2.60540557    -4.19510078    -6.54009581
20MABNDA000053_PR041 0.00000000
   -2.59404206    -4.14012671    -6.92680311
   -2.59401727    -4.14012718    -6.92679071
   -2.59400272    -4.14012718    -6.92677546
20MABNDA000188_PR008 0.00000000
    3.54951787     3.84898496     8.09023857
    3.54951787     3.84898496     8.09023857
    3.54951787     3.84898496     8.09023857
20MABNDA000188_PR018 0.00000000
    3.52096224    -4.07059622     7.89761925
    3.52096534    -4.07059622     7.89762068
    3.52096319    -4.07059622     7.89762354
20MABNDA000039_PR009 0.00000000
    3.87541437     3.64747238    12.93688774
    3.87537909     3.64747334    12.93690491
    3.87537932     3.64747334    12.93687344
20MABNDA000039_PR011 0.00000000
    3.66417575    -3.92580128    12.88472176
    3.66417289    -3.92580128    12.88472462
    3.66417694    -3.92580128    12.88472462
20MABNDB000155_PR020 0.00000000
   -3.68028140     3.84882283     7.89721918
   -3.68025017     3.84882474     7.89722109
   -3.68034887     3.84882283     7.89723349
20MABNDB000155_PR022 0.00000000
   -3.53395438    -4.07044172     7.89004374
   -3.53395605    -4.07044172     7.89004421
   -3.53395653    -4.07044172     7.89004326
20MABNDB000010_PR021 0.00000000
   -3.84585190     3.64783335    12.87768364
   -3.84584379     3.64783335    12.87768269
20MABNDB000010_PR023 0.00000000
   -3.68560147    -3.92560887    12.88451767
   -3.68560314    -3.92560887    12.88452625
20MABNDB000069_PR031 0.00000000
    3.68396878     3.84875798    -7.90168428
    3.68406463     3.84875488    -7.90167761
20MABNDB000069_PR033 0.00000000
    3.53344417    -4.07046270    -7.87877560
    3.53344393    -4.07046270    -7.87877512
20MABNDB000131_PR032 0.00000000
    3.86841893     3.64757752   -12.94008064
    3.86844015     3.64757776   -12.94010448
20MABNDB000131_PR034 0.00000000
    3.67302108    -3.92564154   -12.89146423
    3.67301250    -3.92564154   -12.89146900
20MABNDA000208_PR042 0.00000000
   -3.67285514     3.84897017    -7.96929407
   -3.64598274     3.84945059    -7.94877148
20MABNDA000208_PR046 0.00000000
   -3.52906060    -4.07036114    -7.87469387
   -3.53068066    -4.07034969    -7.87428093
20MABNDA000035_PR044 0.00000000
   -3.86947441     3.64757466   -12.93144894
   -3.86945558     3.64757466   -12.93142414
20MABNDA000035_PR045 0.00000000
   -3.67652488    -3.92565250   -12.88685131
   -3.67652249    -3.92565250   -12.88684845


*****************************************************************Rapport********************************************************************************** 
CAM-LBA-US_EBA-US-HO-H         2018.07.19.10.13.55     2.80076647    -3.68865426     6.48610735     0.01233014     0.00815143     0.00016083 0.00000000 VRAI 
CAM-LBA-US_JDA-US-H            2018.07.19.10.13.55     2.83576775    -3.72377666     6.67526293     0.00000273     0.00000429     0.00000000 0.00000000 VRAI 
CAM-LBA-US_CAM-LBC-US          2018.07.19.10.13.55     2.77223158    -3.78915668    -2.68922138     0.00000562     0.00001249     0.00000000 0.00000000 VRAI 
CAM-LBA-US_EBC-US-IP-H         2018.07.19.10.13.55     2.83050609    -3.68698223    -3.11711510     0.00001236     0.00001539     0.00000022 0.00000000 VRAI 
CAM-LBA-USA_EBA-USA-HO-H       2018.07.19.10.13.55    -2.83421516    -3.73581576     6.48627647     0.00002429     0.00001000     0.00000022 0.00000000 VRAI 
CAM-LBA-USA_JDA-USA-H          2018.07.19.10.13.55    -2.84712744    -3.67461483     7.43230200     0.00002262     0.00001209     0.00000000 0.00000000 VRAI 
CAM-LBA-USA_CAM-LBC-USA        2018.07.19.10.13.55    -2.78292052    -3.75934426    -2.71088576     0.00000146     0.00000254     0.00000000 0.00000000 VRAI 
CAM-LBA-USA_EBC-USA-IP-H       2018.07.19.10.13.55    -2.84752568    -3.68972619    -3.11707664     0.00000259     0.00000221     0.00000000 0.00000000 VRAI 
CAM-LBC-US_EBC-US-HO-H         2018.07.19.10.13.55     2.77406669    -3.75585580    -6.47909212     0.00000000     0.00000000     0.00000000 0.00000000 VRAI 
CAM-LBC-US_JDC-US-H            2018.07.19.10.13.55     2.83934251    -3.68758949    -6.67493773     0.00000464     0.00000235     0.00000000 0.00000000 VRAI 
CAM-LBC-US_CAM-LBA-US          2018.07.19.10.13.55     2.81505466    -3.75346669     2.69822621     0.00000344     0.00000663     0.00000000 0.00000000 VRAI 
CAM-LBC-US_EBA-US-IP-H         2018.07.19.10.13.55     2.84048112    -3.68439833     3.12405682     0.00000368     0.00000185     0.00000000 0.00000000 VRAI 
CAM-LBC-USA_EBC-USA-HO-H       2018.07.19.10.13.55    -2.84749214    -3.69290193    -6.47909641     0.00000289     0.00000413     0.00000000 0.00000000 VRAI 
CAM-LBC-USA_JDC-USA-H          2018.07.19.10.13.55    -2.82516861    -3.76950026    -6.67506695     0.00000186     0.00000166     0.00000000 0.00000000 VRAI 
CAM-LBC-USA_CAM-LBA-USA        2018.07.19.10.13.55    -2.81549295    -3.75144370     2.68347335     0.00000855     0.00000438     0.00000000 0.00000000 VRAI 
CAM-LBC-USA_EBA-USA-IP-H       2018.07.19.10.13.55    -2.83895644    -3.68301384     3.12404323     0.00000393     0.00001440     0.00000000 0.00000000 VRAI 
CAM-EBA-US-IP_EBA-US-IP        2018.07.19.10.13.55     2.61444600    -4.19698811     3.83356913     0.00000336     0.00000000     0.00000176 0.00000000 VRAI 
CAM-EBA-US-HO_EBA-US-HO        2018.07.19.10.13.55     2.61669842    -4.19703150     5.89751561     0.00000174     0.00000000     0.00000259 0.00000000 VRAI 
CAM-EBA-USA-IP_EBA-USA-IP      2018.07.19.10.13.55    -2.61133830    -4.19700623     3.83622400     0.00000090     0.00000000     0.00000079 0.00000000 VRAI 
CAM-EBA-USA-HO_EBA-USA-HO      2018.07.19.10.13.55    -2.61287872    -4.19702291     5.89878416     0.00000177     0.00000000     0.00000039 0.00000000 VRAI 
CAM-EBC-US-IP_EBC-US-IP        2018.07.19.10.13.55     2.60389487    -4.19700384    -3.82556669     0.00000041     0.00000000     0.00000245 0.00000000 VRAI 
CAM-EBC-US-HO_EBC-US-HO        2018.07.19.10.13.55     2.60561101    -4.19702101    -5.89325333     0.00000079     0.00000000     0.00000067 0.00000000 VRAI 
CAM-EBC-USA-IP_EBC-USA-IP      2018.07.19.10.13.55    -2.61125612    -4.19698286    -3.82771373     0.00000812     0.00000000     0.00000490 0.00000000 VRAI 
CAM-EBC-USA-HO_EBC-USA-HO      2018.07.19.10.13.55    -2.61575810    -4.19702117    -5.89153703     0.00000168     0.00000022     0.00000157 0.00000000 VRAI 
CAM-JDA-US-IP_JDA-US-IP        2018.07.19.10.13.55     2.58458400    -4.19496536     6.54783440     0.00000039     0.00000000     0.00000217 0.00000000 VRAI 
CAM-JDA-US-HO_JDA-US-HO        2018.07.19.10.13.55     2.59379594    -4.13996840     6.94796880     0.00000030     0.00000000     0.00000315 0.00000000 VRAI 
CAM-JDA-USA-IP_JDA-USA-IP      2018.07.19.10.13.55    -2.59819126    -4.19506073     6.53816398     0.00000288     0.00000000     0.00000045 0.00000000 VRAI 
CAM-JDA-USA-HO_JDA-USA-HO      2018.07.19.10.13.55    -2.60471479    -4.13995949     6.94214217     0.00000650     0.00000022     0.00000427 0.00000000 VRAI 
CAM-JDC-US-IP_JDC-US-IP        2018.07.19.10.13.55     2.59896803    -4.19501019    -6.54745404     0.00000306     0.00000000     0.00000119 0.00000000 VRAI 
CAM-JDC-US-HO_JDC-US-HO        2018.07.19.10.13.55     2.60937532    -4.14002657    -6.93137693     0.00000306     0.00000000     0.00000067 0.00000000 VRAI 
CAM-JDC-USA-IP_JDC-USA-IP      2018.07.19.10.13.55    -2.60540771    -4.19510078    -6.54009755     0.00000159     0.00000000     0.00000317 0.00000000 VRAI 
CAM-JDC-USA-HO_JDC-USA-HO      2018.07.19.10.13.55    -2.59402068    -4.14012702    -6.92678976     0.00001624     0.00000022     0.00001131 0.00000000 VRAI 
CAM-ECTA-US-IP_ECTA-US-IP-T    2018.07.19.10.13.55     3.54951787     3.84898496     8.09023857     0.00000000     0.00000000     0.00000000 0.00000000 VRAI 
CAM-ECTA-US-IP_ECTA-US-IP      2018.07.19.10.13.55     3.52096359    -4.07059622     7.89762115     0.00000130     0.00000000     0.00000178 0.00000000 VRAI 
CAM-ECTA-US-HO_ECTA-US-HO-T    2018.07.19.10.13.55     3.87539093     3.64747302    12.93688869     0.00001658     0.00000045     0.00001287 0.00000000 VRAI 
CAM-ECTA-US-HO_ECTA-US-HO      2018.07.19.10.13.55     3.66417519    -3.92580128    12.88472366     0.00000170     0.00000000     0.00000135 0.00000000 VRAI 
CAM-ECTA-USA-IP_ECTA-USA-IP-T  2018.07.19.10.13.55    -3.68029348     3.84882347     7.89722459     0.00004119     0.00000090     0.00000634 0.00000000 VRAI 
CAM-ECTA-USA-IP_ECTA-USA-IP    2018.07.19.10.13.55    -3.53395565    -4.07044172     7.89004374     0.00000092     0.00000000     0.00000039 0.00000000 VRAI 
CAM-ECTA-USA-HO_ECTA-USA-HO-T  2018.07.19.10.13.55    -3.84584785     3.64783335    12.87768316     0.00000405     0.00000000     0.00000048 0.00000000 VRAI 
CAM-ECTA-USA-HO_ECTA-USA-HO    2018.07.19.10.13.55    -3.68560231    -3.92560887    12.88452196     0.00000083     0.00000000     0.00000429 0.00000000 VRAI 
CAM-ECTC-US-IP_ECTC-US-IP-T    2018.07.19.10.13.55     3.68401670     3.84875643    -7.90168095     0.00004792     0.00000155     0.00000334 0.00000000 VRAI 
CAM-ECTC-US-IP_ECTC-US-IP      2018.07.19.10.13.55     3.53344405    -4.07046270    -7.87877536     0.00000012     0.00000000     0.00000024 0.00000000 VRAI 
CAM-ECTC-US-HO_ECTC-US-HO-T    2018.07.19.10.13.55     3.86842954     3.64757764   -12.94009256     0.00001061     0.00000012     0.00001192 0.00000000 VRAI 
CAM-ECTC-US-HO_ECTC-US-HO      2018.07.19.10.13.55     3.67301679    -3.92564154   -12.89146662     0.00000429     0.00000000     0.00000238 0.00000000 VRAI 
CAM-ECTC-USA-IP_ECTC-USA-IP-T  2018.07.19.10.13.55    -3.65941894     3.84921038    -7.95903277     0.01343620     0.00024021     0.01026130 0.00000000 VRAI 
CAM-ECTC-USA-IP_ECTC-USA-IP    2018.07.19.10.13.55    -3.52987063    -4.07035542    -7.87448740     0.00081003     0.00000572     0.00020647 0.00000000 VRAI 
CAM-ECTC-USA-HO_ECTC-USA-HO-T  2018.07.19.10.13.55    -3.86946499     3.64757466   -12.93143654     0.00000942     0.00000000     0.00001240 0.00000000 VRAI 
CAM-ECTC-USA-HO_ECTC-USA-HO    2018.07.19.10.13.55    -3.67652369    -3.92565250   -12.88684988     0.00000119     0.00000000     0.00000143 0.00000000 VRAI 
