********** Fichier qui contient une sauvegarde des coordonnees images + coordonnees images transformees dans le repere BCAM (MOUNT) + coordonnees des prismes dans le repere MOUNT********** 
********************************************************************** Unite en metres (m)************************************************************************************************** 

*******************************************************************coordonnees images dans le repere CCD *********************************************************************************** 
20MABNDL000077_PR002
Spot 1     0.00121496     0.00150037
Spot 2     0.00052500     0.00043500
Spot 1     0.00121521     0.00150037
Spot 2     0.00052500     0.00043500
Spot 1     0.00121562     0.00150129
Spot 2     0.00052500     0.00043500
20MABNDL000077_PR003
Spot 1     0.00138840     0.00148768
Spot 2     0.00153730     0.00148936
Spot 1     0.00138841     0.00148768
Spot 2     0.00153746     0.00148955
Spot 1     0.00138838     0.00148769
Spot 2     0.00153744     0.00148957
20MABNDL000077_20MABNDM000168
Spot 1     0.00175848     0.00118466
Spot 2     0.00075500     0.00010500
Spot 1     0.00175791     0.00118460
Spot 2     0.00075500     0.00010500
Spot 1     0.00175815     0.00118458
Spot 2     0.00075500     0.00010500
20MABNDL000077_PR024
Spot 1     0.00254758     0.00144784
Spot 2     0.00264649     0.00145494
Spot 1     0.00254771     0.00144762
Spot 2     0.00264629     0.00145453
Spot 1     0.00254761     0.00144770
Spot 2     0.00264605     0.00145482
20MABNDM000020_PR013
Spot 1     0.00162634     0.00152756
Spot 2     0.00147308     0.00153382
Spot 1     0.00162585     0.00152746
Spot 2     0.00147271     0.00153415
Spot 1     0.00162616     0.00152761
Spot 2     0.00147258     0.00153435
20MABNDM000020_PR014
Spot 1     0.00265835     0.00168962
Spot 2     0.00249730     0.00169421
Spot 1     0.00265857     0.00168994
Spot 2     0.00249811     0.00169456
Spot 1     0.00265823     0.00168943
Spot 2     0.00249723     0.00169439
20MABNDM000020_20MABNDL000196
Spot 1     0.00197628     0.00117819
Spot 2     0.00320500     0.00025500
Spot 1     0.00197645     0.00117815
Spot 2     0.00320500     0.00025500
Spot 1     0.00197639     0.00117808
Spot 2     0.00320500     0.00025500
20MABNDM000020_PR035
Spot 1     0.00126909     0.00149545
Spot 2     0.00118636     0.00153147
Spot 1     0.00126935     0.00149539
Spot 2     0.00118631     0.00153137
Spot 1     0.00126911     0.00149557
Spot 2     0.00118632     0.00153132
20MABNDM000168_PR025
Spot 1     0.00140500     0.00124500
Spot 2     0.00148500     0.00050500
Spot 1     0.00148500     0.00050500
Spot 2     0.00148500     0.00050500
Spot 1     0.00148500     0.00050500
Spot 2     0.00148500     0.00050500
20MABNDM000168_PR026
Spot 1     0.00266687     0.00142995
Spot 2     0.00250598     0.00142632
Spot 1     0.00266674     0.00143005
Spot 2     0.00250558     0.00142656
Spot 1     0.00266685     0.00143017
Spot 2     0.00250581     0.00142634
20MABNDM000168_20MABNDL000077
Spot 1     0.00154123     0.00130107
Spot 2     0.00175705     0.00130370
Spot 1     0.00154122     0.00130102
Spot 2     0.00175694     0.00130340
Spot 1     0.00154114     0.00130106
Spot 2     0.00175671     0.00130380
20MABNDM000168_PR001
Spot 1     0.00080795     0.00161858
Spot 2     0.00070693     0.00162145
Spot 1     0.00080804     0.00161860
Spot 2     0.00070665     0.00162156
Spot 1     0.00080801     0.00161889
Spot 2     0.00070677     0.00162159
20MABNDL000196_PR036
Spot 1     0.00094688     0.00163708
Spot 2     0.00111051     0.00163694
Spot 1     0.00094692     0.00163711
Spot 2     0.00111060     0.00163650
Spot 1     0.00094696     0.00163722
Spot 2     0.00111071     0.00163705
20MABNDL000196_PR037
Spot 1     0.00246821     0.00117270
Spot 2     0.00262257     0.00117086
Spot 1     0.00246833     0.00117244
Spot 2     0.00262259     0.00117075
Spot 1     0.00246799     0.00117240
Spot 2     0.00262250     0.00117075
20MABNDL000196_20MABNDM000020
Spot 1     0.00192614     0.00104163
Spot 2     0.00170477     0.00104690
Spot 1     0.00192616     0.00104140
Spot 2     0.00170513     0.00104722
Spot 1     0.00192616     0.00104152
Spot 2     0.00170487     0.00104689
20MABNDL000196_PR012
Spot 1     0.00265201     0.00134258
Spot 2     0.00272339     0.00138786
Spot 1     0.00265229     0.00134276
Spot 2     0.00272302     0.00138824
Spot 1     0.00265212     0.00134280
Spot 2     0.00272319     0.00138847
20MABNDA000318_PR004
Spot 1     0.00192488     0.00162762
Spot 2     0.00214266     0.00162617
Spot 1     0.00192515     0.00162762
Spot 2     0.00214279     0.00162617
Spot 1     0.00192500     0.00162752
Spot 2     0.00214291     0.00162608
20MABNDA000334_PR005
Spot 1     0.00247188     0.00158762
Spot 2     0.00219122     0.00158828
Spot 1     0.00247172     0.00158763
Spot 2     0.00219132     0.00158821
Spot 1     0.00247180     0.00158746
Spot 2     0.00219139     0.00158828
20MABNDB000317_PR015
Spot 1     0.00170428     0.00158783
Spot 2     0.00148467     0.00159333
Spot 1     0.00170448     0.00158774
Spot 2     0.00148443     0.00159327
Spot 1     0.00170442     0.00158771
Spot 2     0.00148460     0.00159328
20MABNDB000146_PR016
Spot 1     0.00144449     0.00132500
Spot 2     0.00172037     0.00132649
Spot 1     0.00144451     0.00132474
Spot 2     0.00172024     0.00132641
Spot 1     0.00144448     0.00132490
Spot 2     0.00172027     0.00132636
20MABNDB000135_PR027
Spot 1     0.00188992     0.00091475
Spot 2     0.00210822     0.00091647
Spot 1     0.00189004     0.00091475
Spot 2     0.00210828     0.00091636
Spot 1     0.00188994     0.00091479
Spot 2     0.00210810     0.00091644
20MABNDB000126_PR028
Spot 1     0.00164442     0.00200901
Spot 2     0.00192620     0.00201064
Spot 1     0.00164456     0.00200892
Spot 2     0.00192628     0.00201056
Spot 1     0.00164442     0.00200896
Spot 2     0.00192627     0.00201062
20MABNDA000272_PR038
Spot 1     0.00192140     0.00095063
Spot 2     0.00170073     0.00094955
Spot 1     0.00192161     0.00095031
Spot 2     0.00170087     0.00094959
Spot 1     0.00192143     0.00095051
Spot 2     0.00170056     0.00094963
20MABNDA000003_PR039
Spot 1     0.00199950     0.00192500
Spot 2     0.00227712     0.00192627
Spot 1     0.00199935     0.00192482
Spot 2     0.00227727     0.00192609
Spot 1     0.00199951     0.00192489
Spot 2     0.00227713     0.00192626
20MABNDA000196_PR006
Spot 1     0.00199951     0.00072744
Spot 2     0.00163349     0.00072507
Spot 1     0.00199956     0.00072736
Spot 2     0.00163352     0.00072531
Spot 1     0.00199966     0.00072744
Spot 2     0.00163358     0.00072521
20MABNDA000324_PR007
Spot 1     0.00194105     0.00121308
Spot 2     0.00173531     0.00121914
Spot 1     0.00194083     0.00121329
Spot 2     0.00173525     0.00121932
Spot 1     0.00194086     0.00121336
Spot 2     0.00173524     0.00121906
20MABNDB000001_PR017
Spot 1     0.00190479     0.00044066
Spot 2     0.00227273     0.00044985
Spot 1     0.00190471     0.00044078
Spot 2     0.00227250     0.00044984
Spot 1     0.00190474     0.00044074
Spot 2     0.00227250     0.00044984
20MABNDB000260_PR019
Spot 1     0.00191563     0.00150700
Spot 2     0.00211786     0.00150602
Spot 1     0.00191537     0.00150675
Spot 2     0.00211864     0.00150609
Spot 1     0.00191527     0.00150704
Spot 2     0.00211764     0.00150538
20MABNDB000212_PR029
Spot 1     0.00222705     0.00070189
Spot 2     0.00186742     0.00070288
Spot 1     0.00222690     0.00070202
Spot 2     0.00186737     0.00070289
Spot 1     0.00222691     0.00070197
Spot 2     0.00186770     0.00070284
20MABNDB000128_PR030
Spot 1     0.00190583     0.00199903
Spot 2     0.00211046     0.00199326
Spot 1     0.00190587     0.00199891
Spot 2     0.00211049     0.00199341
Spot 1     0.00190597     0.00199891
Spot 2     0.00211036     0.00199327
20MABNDA000444_PR040
Spot 1     0.00074476     0.00035571
Spot 2     0.00111143     0.00035257
Spot 1     0.00074483     0.00035542
Spot 2     0.00111156     0.00035238
Spot 1     0.00074500     0.00035550
Spot 2     0.00111167     0.00035273
20MABNDA000053_PR041
Spot 1     0.00165527     0.00199366
Spot 2     0.00144713     0.00199140
Spot 1     0.00165531     0.00199381
Spot 2     0.00144696     0.00199141
Spot 1     0.00165537     0.00199353
Spot 2     0.00144781     0.00199099
20MABNDA000188_PR008
Spot 1     0.00289500     0.00025500
Spot 2     0.00289500     0.00025500
Spot 1     0.00289500     0.00025500
Spot 2     0.00289500     0.00025500
Spot 1     0.00289500     0.00025500
Spot 2     0.00289500     0.00025500
20MABNDA000188_PR018
Spot 1     0.00169639     0.00173609
Spot 2     0.00122920     0.00173229
Spot 1     0.00169608     0.00173614
Spot 2     0.00122914     0.00173246
Spot 1     0.00169636     0.00173605
Spot 2     0.00122914     0.00173246
20MABNDA000039_PR009
Spot 1     0.00066369     0.00118128
Spot 2     0.00061719     0.00118540
Spot 1     0.00066412     0.00118145
Spot 2     0.00061682     0.00118549
Spot 1     0.00066459     0.00118146
Spot 2     0.00061687     0.00118549
20MABNDA000039_PR011
Spot 1     0.00276947     0.00029324
Spot 2     0.00259424     0.00028854
Spot 1     0.00276942     0.00029342
Spot 2     0.00259416     0.00028893
Spot 1     0.00276939     0.00029334
Spot 2     0.00259416     0.00028886
20MABNDB000155_PR020
Spot 1     0.00062435     0.00113430
Spot 2     0.00068839     0.00113011
Spot 1     0.00062433     0.00113402
Spot 2     0.00068709     0.00113033
Spot 1     0.00062410     0.00113419
Spot 2     0.00068741     0.00113070
20MABNDB000155_PR022
Spot 1     0.00213788     0.00142779
Spot 2     0.00261016     0.00141895
Spot 1     0.00213793     0.00142773
Spot 2     0.00261023     0.00141899
Spot 1     0.00213766     0.00142771
Spot 2     0.00261015     0.00141906
20MABNDB000010_PR021
Spot 1     0.00287242     0.00114950
Spot 2     0.00268750     0.00037750
Spot 1     0.00287228     0.00114970
Spot 2     0.00324167     0.00006500
20MABNDB000010_PR023
Spot 1     0.00131715     0.00030315
Spot 2     0.00149289     0.00030101
Spot 1     0.00131724     0.00030337
Spot 2     0.00149311     0.00030099
20MABNDB000069_PR031
Spot 1     0.00028438     0.00140725
Spot 2     0.00035559     0.00140479
Spot 1     0.00028460     0.00140720
Spot 2     0.00035531     0.00140483
20MABNDB000069_PR033
Spot 1     0.00182769     0.00206267
Spot 2     0.00229745     0.00208245
Spot 1     0.00182793     0.00206249
Spot 2     0.00229746     0.00208254
20MABNDB000131_PR032
Spot 1     0.00277462     0.00107674
Spot 2     0.00283480     0.00107965
Spot 1     0.00277472     0.00107688
Spot 2     0.00283475     0.00107979
20MABNDB000131_PR034
Spot 1     0.00091488     0.00032741
Spot 2     0.00109088     0.00032676
Spot 1     0.00091492     0.00032726
Spot 2     0.00109093     0.00032682
20MABNDA000208_PR042
Spot 1     0.00261117     0.00037777
Spot 2     0.00313000     0.00031000
Spot 1     0.00261114     0.00037818
Spot 2     0.00326500     0.00029500
20MABNDA000208_PR046
Spot 1     0.00146009     0.00221962
Spot 2     0.00099077     0.00220396
Spot 1     0.00146108     0.00221950
Spot 2     0.00099992     0.00220384
20MABNDA000035_PR044
Spot 1     0.00073696     0.00125259
Spot 2     0.00068048     0.00124736
Spot 1     0.00073660     0.00125277
Spot 2     0.00068118     0.00124701
20MABNDA000035_PR045
Spot 1     0.00253717     0.00046288
Spot 2     0.00236029     0.00046170
Spot 1     0.00253715     0.00046306
Spot 2     0.00236017     0.00046160


****************************************************************coordonnees images transformees dans le repere MOUNT************************************************************************* 
20MABNDL000077_PR002
Spot 1     0.01228527     0.03557180    -0.07463200
Spot 2     0.01158509     0.03451311    -0.07463200
Spot 1     0.01228552     0.03557179    -0.07463200
Spot 2     0.01158509     0.03451311    -0.07463200
Spot 1     0.01228594     0.03557271    -0.07463200
Spot 2     0.01158509     0.03451311    -0.07463200
20MABNDL000077_PR003
Spot 1     0.01245858     0.03555744    -0.07463200
Spot 2     0.01260749     0.03555768    -0.07463200
Spot 1     0.01245859     0.03555744    -0.07463200
Spot 2     0.01260765     0.03555787    -0.07463200
Spot 1     0.01245856     0.03555745    -0.07463200
Spot 2     0.01260763     0.03555789    -0.07463200
20MABNDL000077_20MABNDM000168
Spot 1    -0.01259363     0.03524763    -0.00695400
Spot 2    -0.01157915     0.03417830    -0.00695400
Spot 1    -0.01259306     0.03524758    -0.00695400
Spot 2    -0.01157915     0.03417830    -0.00695400
Spot 1    -0.01259330     0.03524755    -0.00695400
Spot 2    -0.01157915     0.03417830    -0.00695400
20MABNDL000077_PR024
Spot 1    -0.01338538     0.03550272    -0.00695400
Spot 2    -0.01348436     0.03550881    -0.00695400
Spot 1    -0.01338551     0.03550250    -0.00695400
Spot 2    -0.01348415     0.03550840    -0.00695400
Spot 1    -0.01338541     0.03550258    -0.00695400
Spot 2    -0.01348392     0.03550869    -0.00695400
20MABNDM000020_PR013
Spot 1    -0.01273259    -0.03548626    -0.00523500
Spot 2    -0.01288567    -0.03549591    -0.00523500
Spot 1    -0.01273308    -0.03548617    -0.00523500
Spot 2    -0.01288603    -0.03549625    -0.00523500
Spot 1    -0.01273277    -0.03548631    -0.00523500
Spot 2    -0.01288616    -0.03549645    -0.00523500
20MABNDM000020_PR014
Spot 1    -0.01169725    -0.03562546    -0.00523500
Spot 2    -0.01185816    -0.03563361    -0.00523500
Spot 1    -0.01169702    -0.03562577    -0.00523500
Spot 2    -0.01185734    -0.03563394    -0.00523500
Spot 1    -0.01169737    -0.03562527    -0.00523500
Spot 2    -0.01185822    -0.03563379    -0.00523500
20MABNDM000020_20MABNDL000196
Spot 1     0.01271000    -0.03514675    -0.07583800
Spot 2     0.01148115    -0.03422373    -0.07583800
Spot 1     0.01270983    -0.03514671    -0.07583800
Spot 2     0.01148115    -0.03422373    -0.07583800
Spot 1     0.01270989    -0.03514664    -0.07583800
Spot 2     0.01148115    -0.03422373    -0.07583800
20MABNDM000020_PR035
Spot 1     0.01341723    -0.03546392    -0.07583800
Spot 2     0.01349997    -0.03549992    -0.07583800
Spot 1     0.01341697    -0.03546386    -0.07583800
Spot 2     0.01350002    -0.03549982    -0.07583800
Spot 1     0.01341721    -0.03546404    -0.07583800
Spot 2     0.01350001    -0.03549977    -0.07583800
20MABNDM000168_PR025
Spot 1    -0.01299811    -0.03558120    -0.00532900
Spot 2    -0.01292129    -0.03484087    -0.00532900
Spot 1    -0.01292129    -0.03484087    -0.00532900
Spot 2    -0.01292129    -0.03484087    -0.00532900
Spot 1    -0.01292129    -0.03484087    -0.00532900
Spot 2    -0.01292129    -0.03484087    -0.00532900
20MABNDM000168_PR026
Spot 1    -0.01173546    -0.03576073    -0.00532900
Spot 2    -0.01189637    -0.03575779    -0.00532900
Spot 1    -0.01173559    -0.03576083    -0.00532900
Spot 2    -0.01189676    -0.03575804    -0.00532900
Spot 1    -0.01173548    -0.03576095    -0.00532900
Spot 2    -0.01189654    -0.03575781    -0.00532900
20MABNDM000168_20MABNDL000077
Spot 1     0.01288422    -0.03530171    -0.07445100
Spot 2     0.01266838    -0.03530118    -0.07445100
Spot 1     0.01288423    -0.03530166    -0.07445100
Spot 2     0.01266850    -0.03530088    -0.07445100
Spot 1     0.01288431    -0.03530170    -0.07445100
Spot 2     0.01266872    -0.03530128    -0.07445100
20MABNDM000168_PR001
Spot 1     0.01361277    -0.03562991    -0.07445100
Spot 2     0.01371374    -0.03563426    -0.07445100
Spot 1     0.01361268    -0.03562993    -0.07445100
Spot 2     0.01371402    -0.03563437    -0.07445100
Spot 1     0.01361271    -0.03563022    -0.07445100
Spot 2     0.01371390    -0.03563440    -0.07445100
20MABNDL000196_PR036
Spot 1     0.01192681     0.03582578    -0.07483600
Spot 2     0.01209044     0.03582598    -0.07483600
Spot 1     0.01192685     0.03582581    -0.07483600
Spot 2     0.01209053     0.03582554    -0.07483600
Spot 1     0.01192689     0.03582592    -0.07483600
Spot 2     0.01209064     0.03582609    -0.07483600
20MABNDL000196_PR037
Spot 1     0.01344911     0.03536457    -0.07483600
Spot 2     0.01360347     0.03536306    -0.07483600
Spot 1     0.01344923     0.03536431    -0.07483600
Spot 2     0.01360349     0.03536295    -0.07483600
Spot 1     0.01344889     0.03536427    -0.07483600
Spot 2     0.01360340     0.03536295    -0.07483600
20MABNDL000196_20MABNDM000020
Spot 1    -0.01275019     0.03531283    -0.00611000
Spot 2    -0.01252897     0.03532255    -0.00611000
Spot 1    -0.01275021     0.03531260    -0.00611000
Spot 2    -0.01252934     0.03532286    -0.00611000
Spot 1    -0.01275021     0.03531272    -0.00611000
Spot 2    -0.01252907     0.03532254    -0.00611000
20MABNDL000196_PR012
Spot 1    -0.01348197     0.03559911    -0.00611000
Spot 2    -0.01355425     0.03564295    -0.00611000
Spot 1    -0.01348225     0.03559929    -0.00611000
Spot 2    -0.01355388     0.03564333    -0.00611000
Spot 1    -0.01348208     0.03559933    -0.00611000
Spot 2    -0.01355406     0.03564356    -0.00611000
20MABNDA000318_PR004
Spot 1    -0.01264470     0.01246826    -0.07310600
Spot 2    -0.01286248     0.01246907    -0.07310600
Spot 1    -0.01264497     0.01246826    -0.07310600
Spot 2    -0.01286261     0.01246907    -0.07310600
Spot 1    -0.01264482     0.01246836    -0.07310600
Spot 2    -0.01286273     0.01246916    -0.07310600
20MABNDA000334_PR005
Spot 1    -0.01311499     0.01254077    -0.07324100
Spot 2    -0.01283433     0.01253985    -0.07324100
Spot 1    -0.01311483     0.01254076    -0.07324100
Spot 2    -0.01283443     0.01253992    -0.07324100
Spot 1    -0.01311491     0.01254093    -0.07324100
Spot 2    -0.01283450     0.01253985    -0.07324100
20MABNDB000317_PR015
Spot 1    -0.01244988    -0.01250769    -0.07326100
Spot 2    -0.01266954    -0.01250475    -0.07326100
Spot 1    -0.01244968    -0.01250778    -0.07326100
Spot 2    -0.01266978    -0.01250481    -0.07326100
Spot 1    -0.01244974    -0.01250781    -0.07326100
Spot 2    -0.01266961    -0.01250480    -0.07326100
20MABNDB000146_PR016
Spot 1    -0.01276385    -0.01246861    -0.07450500
Spot 2    -0.01248798    -0.01246651    -0.07450500
Spot 1    -0.01276383    -0.01246887    -0.07450500
Spot 2    -0.01248811    -0.01246659    -0.07450500
Spot 1    -0.01276386    -0.01246871    -0.07450500
Spot 2    -0.01248808    -0.01246664    -0.07450500
20MABNDB000135_PR027
Spot 1    -0.01251477    -0.01319826    -0.07464700
Spot 2    -0.01229646    -0.01319897    -0.07464700
Spot 1    -0.01251465    -0.01319826    -0.07464700
Spot 2    -0.01229640    -0.01319908    -0.07464700
Spot 1    -0.01251474    -0.01319822    -0.07464700
Spot 2    -0.01229658    -0.01319900    -0.07464700
20MABNDB000126_PR028
Spot 1    -0.01253511    -0.01217316    -0.07500400
Spot 2    -0.01225335    -0.01217003    -0.07500400
Spot 1    -0.01253497    -0.01217325    -0.07500400
Spot 2    -0.01225327    -0.01217011    -0.07500400
Spot 1    -0.01253511    -0.01217321    -0.07500400
Spot 2    -0.01225328    -0.01217005    -0.07500400
20MABNDA000272_PR038
Spot 1    -0.01275705     0.01316083    -0.07417900
Spot 2    -0.01253638     0.01316152    -0.07417900
Spot 1    -0.01275726     0.01316115    -0.07417900
Spot 2    -0.01253652     0.01316148    -0.07417900
Spot 1    -0.01275708     0.01316095    -0.07417900
Spot 2    -0.01253621     0.01316144    -0.07417900
20MABNDA000003_PR039
Spot 1    -0.01280058     0.01212726    -0.07373400
Spot 2    -0.01307820     0.01212670    -0.07373400
Spot 1    -0.01280043     0.01212744    -0.07373400
Spot 2    -0.01307835     0.01212688    -0.07373400
Spot 1    -0.01280059     0.01212737    -0.07373400
Spot 2    -0.01307821     0.01212671    -0.07373400
20MABNDA000196_PR006
Spot 1    -0.01295419     0.01325096    -0.07967100
Spot 2    -0.01258817     0.01324862    -0.07967100
Spot 1    -0.01295424     0.01325104    -0.07967100
Spot 2    -0.01258820     0.01324838    -0.07967100
Spot 1    -0.01295434     0.01325096    -0.07967100
Spot 2    -0.01258826     0.01324848    -0.07967100
20MABNDA000324_PR007
Spot 1    -0.01254676     0.01280855    -0.07446800
Spot 2    -0.01234097     0.01280409    -0.07446800
Spot 1    -0.01254653     0.01280834    -0.07446800
Spot 2    -0.01234091     0.01280391    -0.07446800
Spot 1    -0.01254656     0.01280827    -0.07446800
Spot 2    -0.01234091     0.01280417    -0.07446800
20MABNDB000001_PR017
Spot 1    -0.01228355    -0.01354905    -0.07418400
Spot 2    -0.01191554    -0.01354376    -0.07418400
Spot 1    -0.01228363    -0.01354893    -0.07418400
Spot 2    -0.01191577    -0.01354377    -0.07418400
Spot 1    -0.01228360    -0.01354897    -0.07418400
Spot 2    -0.01191577    -0.01354377    -0.07418400
20MABNDB000260_PR019
Spot 1    -0.01241580    -0.01239569    -0.07492700
Spot 2    -0.01221359    -0.01239252    -0.07492700
Spot 1    -0.01241605    -0.01239594    -0.07492700
Spot 2    -0.01221281    -0.01239243    -0.07492700
Spot 1    -0.01241616    -0.01239565    -0.07492700
Spot 2    -0.01221380    -0.01239316    -0.07492700
20MABNDB000212_PR029
Spot 1    -0.01186078    -0.01327931    -0.07390500
Spot 2    -0.01222038    -0.01327448    -0.07390500
Spot 1    -0.01186093    -0.01327918    -0.07390500
Spot 2    -0.01222043    -0.01327447    -0.07390500
Spot 1    -0.01186092    -0.01327923    -0.07390500
Spot 2    -0.01222010    -0.01327452    -0.07390500
20MABNDB000128_PR030
Spot 1    -0.01244928    -0.01221827    -0.07353400
Spot 2    -0.01224464    -0.01222333    -0.07353400
Spot 1    -0.01244924    -0.01221839    -0.07353400
Spot 2    -0.01224461    -0.01222318    -0.07353400
Spot 1    -0.01244914    -0.01221839    -0.07353400
Spot 2    -0.01224474    -0.01222332    -0.07353400
20MABNDA000444_PR040
Spot 1    -0.01168457     0.01367411    -0.07412000
Spot 2    -0.01205125     0.01367260    -0.07412000
Spot 1    -0.01168464     0.01367440    -0.07412000
Spot 2    -0.01205138     0.01367278    -0.07412000
Spot 1    -0.01168481     0.01367432    -0.07412000
Spot 2    -0.01205148     0.01367243    -0.07412000
20MABNDA000053_PR041
Spot 1    -0.01241199     0.01211684    -0.07430100
Spot 2    -0.01220385     0.01211504    -0.07430100
Spot 1    -0.01241203     0.01211670    -0.07430100
Spot 2    -0.01220368     0.01211503    -0.07430100
Spot 1    -0.01241209     0.01211698    -0.07430100
Spot 2    -0.01220452     0.01211546    -0.07430100
20MABNDA000188_PR008
Spot 1    -0.01391227     0.01380893    -0.07502000
Spot 2    -0.01391227     0.01380893    -0.07502000
Spot 1    -0.01391227     0.01380893    -0.07502000
Spot 2    -0.01391227     0.01380893    -0.07502000
Spot 1    -0.01391227     0.01380893    -0.07502000
Spot 2    -0.01391227     0.01380893    -0.07502000
20MABNDA000188_PR018
Spot 1    -0.01272639     0.01231763    -0.07502000
Spot 2    -0.01225918     0.01231743    -0.07502000
Spot 1    -0.01272608     0.01231758    -0.07502000
Spot 2    -0.01225912     0.01231726    -0.07502000
Spot 1    -0.01272636     0.01231767    -0.07502000
Spot 2    -0.01225912     0.01231726    -0.07502000
20MABNDA000039_PR009
Spot 1    -0.01162585     0.01306285    -0.07444800
Spot 2    -0.01157936     0.01305853    -0.07444800
Spot 1    -0.01162628     0.01306269    -0.07444800
Spot 2    -0.01157899     0.01305844    -0.07444800
Spot 1    -0.01162675     0.01306268    -0.07444800
Spot 2    -0.01157904     0.01305844    -0.07444800
20MABNDA000039_PR011
Spot 1    -0.01372776     0.01396000    -0.07444800
Spot 2    -0.01355251     0.01396394    -0.07444800
Spot 1    -0.01372771     0.01395982    -0.07444800
Spot 2    -0.01355244     0.01396355    -0.07444800
Spot 1    -0.01372768     0.01395990    -0.07444800
Spot 2    -0.01355244     0.01396362    -0.07444800
20MABNDB000155_PR020
Spot 1    -0.01364187    -0.01312301    -0.07501700
Spot 2    -0.01357778    -0.01312632    -0.07501700
Spot 1    -0.01364189    -0.01312329    -0.07501700
Spot 2    -0.01357908    -0.01312612    -0.07501700
Spot 1    -0.01364212    -0.01312312    -0.07501700
Spot 2    -0.01357877    -0.01312575    -0.07501700
20MABNDB000155_PR022
Spot 1    -0.01213250    -0.01280883    -0.07501700
Spot 2    -0.01166014    -0.01281120    -0.07501700
Spot 1    -0.01213245    -0.01280889    -0.07501700
Spot 2    -0.01166008    -0.01281116    -0.07501700
Spot 1    -0.01213272    -0.01280891    -0.07501700
Spot 2    -0.01166016    -0.01281109    -0.07501700
20MABNDB000010_PR021
Spot 1    -0.01157853    -0.01292895    -0.07358200
Spot 2    -0.01175034    -0.01370397    -0.07358200
Spot 1    -0.01157867    -0.01292875    -0.07358200
Spot 2    -0.01119096    -0.01400704    -0.07358200
20MABNDB000010_PR023
Spot 1    -0.01311924    -0.01380152    -0.07358200
Spot 2    -0.01294349    -0.01380069    -0.07358200
Spot 1    -0.01311915    -0.01380130    -0.07358200
Spot 2    -0.01294327    -0.01380070    -0.07358200
20MABNDB000069_PR031
Spot 1    -0.01359178    -0.01286043    -0.07388500
Spot 2    -0.01352073    -0.01286582    -0.07388500
Spot 1    -0.01359156    -0.01286049    -0.07388500
Spot 2    -0.01352101    -0.01286577    -0.07388500
20MABNDB000069_PR033
Spot 1    -0.01202274    -0.01226925    -0.07388500
Spot 2    -0.01155256    -0.01226888    -0.07388500
Spot 1    -0.01202251    -0.01226944    -0.07388500
Spot 2    -0.01155255    -0.01226879    -0.07388500
20MABNDB000131_PR032
Spot 1    -0.01144553    -0.01303803    -0.07533000
Spot 2    -0.01138536    -0.01303481    -0.07533000
Spot 1    -0.01144543    -0.01303789    -0.07533000
Spot 2    -0.01138541    -0.01303467    -0.07533000
20MABNDB000131_PR034
Spot 1    -0.01330147    -0.01379671    -0.07533000
Spot 2    -0.01312547    -0.01379647    -0.07533000
Spot 1    -0.01330143    -0.01379686    -0.07533000
Spot 2    -0.01312542    -0.01379641    -0.07533000
20MABNDA000208_PR042
Spot 1    -0.01348239     0.01361864    -0.07273700
Spot 2    -0.01400128     0.01368596    -0.07273700
Spot 1    -0.01348236     0.01361823    -0.07273700
Spot 2    -0.01413630     0.01370084    -0.07273700
20MABNDA000208_PR046
Spot 1    -0.01232970     0.01177780    -0.07273700
Spot 2    -0.01186039     0.01179387    -0.07273700
Spot 1    -0.01233069     0.01177792    -0.07273700
Spot 2    -0.01186954     0.01179399    -0.07273700
20MABNDA000035_PR044
Spot 1    -0.01157158     0.01300465    -0.07483200
Spot 2    -0.01151506     0.01300948    -0.07483200
Spot 1    -0.01157122     0.01300446    -0.07483200
Spot 2    -0.01151576     0.01300983    -0.07483200
20MABNDA000035_PR045
Spot 1    -0.01336612     0.01380714    -0.07483200
Spot 2    -0.01318924     0.01380706    -0.07483200
Spot 1    -0.01336610     0.01380696    -0.07483200
Spot 2    -0.01318912     0.01380716    -0.07483200


*****************************************************************coordonnees du prisme dans le repere MOUNT********************************************************************************** 
20MABNDL000077_PR002
    0.05008402     0.04757053     3.70691442
    0.05007785     0.04757059     3.70691466
    0.05006751     0.04754797     3.70691466
20MABNDL000077_PR003
    0.02095005     0.02141434     3.89601803
    0.02094559     0.02140945     3.89601803
    0.02094688     0.02140866     3.89601803
20MABNDL000077_20MABNDM000168
   -0.05592886     0.07577726    -5.46843719
   -0.05594946     0.07577921    -5.46843624
   -0.05594080     0.07578002    -5.46843624
20MABNDL000077_PR024
    0.04577241     0.01712166    -5.89639759
    0.04576943     0.01714619    -5.89639759
    0.04575633     0.01713163    -5.89639807
20MABNDM000020_PR013
   -0.00363687    -0.01810097    -3.80243373
   -0.00361566    -0.01809479    -3.80243373
   -0.00362032    -0.01808620    -3.80243373
20MABNDM000020_PR014
   -0.06553586    -0.00495560    -4.74841022
   -0.06556835    -0.00493547    -4.74840975
   -0.06552994    -0.00495579    -4.74841022
20MABNDM000020_20MABNDL000196
    0.05906915    -0.06586081     5.39454889
    0.05907524    -0.06586224     5.39454889
    0.05907309    -0.06586475     5.39454889
20MABNDM000020_PR035
   -0.04246445    -0.00673069     5.80095387
   -0.04245636    -0.00673686     5.80095387
   -0.04246522    -0.00673185     5.80095387
20MABNDM000168_PR025
    0.00098899    -0.04212724    -3.78876758
   -0.00091071    -0.06043248    -3.78869867
   -0.00091071    -0.06043248    -3.78869867
20MABNDM000168_PR026
   -0.05783391    -0.01390806    -3.98429012
   -0.05782015    -0.01389915    -3.98429012
   -0.05782899    -0.01390180    -3.98429012
20MABNDM000168_20MABNDL000077
    0.01151682    -0.03876342     5.38884687
    0.01151233    -0.03877593     5.38884687
    0.01150142    -0.03875996     5.38884687
20MABNDM000168_PR001
   -0.05734412    -0.01334319     5.81470585
   -0.05735140    -0.01333805     5.81470490
   -0.05734774    -0.01332570     5.81470490
20MABNDL000196_PR036
    0.05134672     0.00605540     3.68777275
    0.05134350     0.00606546     3.68777275
    0.05133986     0.00604925     3.68777275
20MABNDL000196_PR037
   -0.02508115     0.02835928     3.88381338
   -0.02508479     0.02836883     3.88381338
   -0.02507367     0.02836989     3.88381338
20MABNDL000196_20MABNDM000020
   -0.01568236     0.03788228    -5.47473907
   -0.01566865     0.03787932    -5.47473907
   -0.01567814     0.03788667    -5.47473907
20MABNDL000196_PR012
    0.05235965     0.01445309    -5.91537142
    0.05235659     0.01443126    -5.91537142
    0.05235680     0.01442077    -5.91537142
20MABNDA000318_PR004
   -0.00857176     0.03842359     2.74965906
   -0.00856442     0.03842362     2.74965906
   -0.00856496     0.03842013     2.74965906
20MABNDA000334_PR005
   -0.00431162     0.03174019     2.14977169
   -0.00431247     0.03173933     2.14977169
   -0.00431033     0.03173790     2.14977169
20MABNDB000317_PR015
   -0.01726293    -0.03376660     2.75129223
   -0.01726224    -0.03376386     2.75129223
   -0.01726424    -0.03376352     2.75129223
20MABNDB000146_PR016
   -0.01343858    -0.03156552     2.15201473
   -0.01343701    -0.03156063     2.15201473
   -0.01343700    -0.03156221     2.15201473
20MABNDB000135_PR027
   -0.02096510    -0.00980623     2.74937153
   -0.02096837    -0.00980418     2.74937153
   -0.02096326    -0.00980643     2.74937153
20MABNDB000126_PR028
   -0.02032244    -0.03895805     2.14679527
   -0.02032558    -0.03895565     2.14679527
   -0.02032344    -0.03895706     2.14679527
20MABNDA000272_PR038
   -0.01327644     0.01077543     2.74965858
   -0.01327003     0.01077029     2.74965858
   -0.01327900     0.01077470     2.74965858
20MABNDA000003_PR039
   -0.00597824     0.04121245     2.14891577
   -0.00597825     0.04120731     2.14891577
   -0.00597795     0.04121074     2.14891577
20MABNDA000196_PR006
   -0.01010892     0.00988872     1.64206338
   -0.01010802     0.00989045     1.64206338
   -0.01010628     0.00989021     1.64206338
20MABNDA000324_PR007
   -0.02552612     0.02789414     2.95549059
   -0.02553169     0.02790177     2.95549059
   -0.02553127     0.02789803     2.95549059
20MABNDB000001_PR017
   -0.02452490    -0.00287807     1.64035702
   -0.02452153    -0.00287930     1.64035726
   -0.02452185    -0.00287886     1.64035726
20MABNDB000260_PR019
   -0.02406321    -0.03849799     2.95627499
   -0.02407352    -0.03849465     2.95627499
   -0.02405204    -0.03848594     2.95627522
20MABNDB000212_PR029
   -0.02526672    -0.00849698     1.64223897
   -0.02526454    -0.00849854     1.64223897
   -0.02526826    -0.00849740     1.64223897
20MABNDB000128_PR030
   -0.01950072    -0.04671284     2.95496368
   -0.01950209    -0.04671343     2.95496368
   -0.01950151    -0.04671068     2.95496368
20MABNDA000444_PR040
   -0.03025412     0.00094125     1.64490855
   -0.03025186     0.00093602     1.64490855
   -0.03024886     0.00094077     1.64490855
20MABNDA000053_PR041
   -0.02655690     0.05119352     2.95450282
   -0.02655938     0.05119671     2.95450282
   -0.02654179     0.05118262     2.95450282
20MABNDA000188_PR008
    0.13650158    -0.07885031     9.20339394
    0.13650158    -0.07885031     9.20339394
    0.13650158    -0.07885031     9.20339394
20MABNDA000188_PR018
   -0.01618991     0.02580535     1.28358269
   -0.01619306     0.02580726     1.28358269
   -0.01619067     0.02580647     1.28358269
20MABNDA000039_PR009
   -0.17113337     0.02577464    11.00701618
   -0.17112890     0.02579363    11.00701618
   -0.17109086     0.02579420    11.00701618
20MABNDA000039_PR011
    0.03085180    -0.02402642     3.43347549
    0.03084889    -0.02401340     3.43347549
    0.03084820    -0.02401682     3.43347549
20MABNDB000155_PR020
    0.10164245    -0.00948235     9.20028877
    0.10172342    -0.00947755     9.20028782
    0.10171834    -0.00951078     9.20028782
20MABNDB000155_PR022
   -0.02602372    -0.01799521     1.28070235
   -0.02602474    -0.01799505     1.28070211
   -0.02602175    -0.01799544     1.28070235
20MABNDB000010_PR021
   -0.16005650     0.02403541    11.00713062
   -0.20115727     0.04629728    11.00640488
20MABNDB000010_PR023
    0.00406142     0.02071944     3.43376780
    0.00405439     0.02071474     3.43376851
20MABNDB000069_PR031
    0.10220083    -0.03882717     9.20356369
    0.10220453    -0.03882671     9.20356369
20MABNDB000069_PR033
   -0.02687636    -0.02683373     1.28394115
   -0.02687846    -0.02683287     1.28394115
20MABNDB000131_PR032
   -0.18762068    -0.02961248    11.00642776
   -0.18762423    -0.02963296    11.00642776
20MABNDB000131_PR034
    0.01475264     0.01635866     3.43337655
    0.01475058     0.01636070     3.43337655
20MABNDA000208_PR042
    0.11349208    -0.06012515     9.20143795
    0.12177500    -0.06101235     9.20131302
20MABNDA000208_PR046
   -0.02325612     0.03477871     1.28208089
   -0.02316948     0.03477674     1.28208160
20MABNDA000035_PR044
   -0.18013319     0.02611537    11.00802040
   -0.18010841     0.02610276    11.00802040
20MABNDA000035_PR045
    0.01423034    -0.01935101     3.43483615
    0.01422716    -0.01934916     3.43483615


*****************************************************************coordonnees du prisme dans le repere ATLAS********************************************************************************** 
20MABNDL000077_PR002 0.00000000
    2.80947042    -3.69442463     6.48622084
    2.80947042    -3.69443083     6.48622131
    2.80949306    -3.69444108     6.48622131
20MABNDL000077_PR003 0.00000000
    2.83580279    -3.72380018     6.67526293
    2.83580780    -3.72380471     6.67526293
    2.83580852    -3.72380328     6.67526293
20MABNDL000077_20MABNDM000168 0.00000000
    2.77223015    -3.78910804    -2.68922234
    2.77222824    -3.78912854    -2.68922138
    2.77222729    -3.78911996    -2.68922138
20MABNDL000077_PR024 0.00000000
    2.83049846    -3.68689752    -3.11711431
    2.83047390    -3.68690038    -3.11711431
    2.83048844    -3.68691349    -3.11711478
20MABNDM000020_PR013 0.00000000
   -2.83420849    -3.73584723     6.48627615
   -2.83421469    -3.73586845     6.48627615
   -2.83422327    -3.73586369     6.48627615
20MABNDM000020_PR014 0.00000000
   -2.84714556    -3.67466354     7.43230200
   -2.84716558    -3.67463112     7.43230200
   -2.84714532    -3.67466950     7.43230200
20MABNDM000020_20MABNDL000196 0.00000000
   -2.78830838    -3.79157305    -2.71076083
   -2.78830695    -3.79157925    -2.71076083
   -2.78830433    -3.79157710    -2.71076083
20MABNDM000020_PR035 0.00000000
   -2.84748864    -3.68971229    -3.11707664
   -2.84748244    -3.68972039    -3.11707664
   -2.84748745    -3.68971157    -3.11707664
20MABNDM000168_PR025 0.00000000
    2.81111407    -3.74631262    -6.47939157
    2.79280925    -3.74440813    -6.47932243
    2.79280925    -3.74440813    -6.47932243
20MABNDM000168_PR026 0.00000000
    2.83933687    -3.68756986    -6.67493773
    2.83934593    -3.68758368    -6.67493773
    2.83934331    -3.68757486    -6.67493773
20MABNDM000168_20MABNDL000077 0.00000000
    2.81503201    -3.75342894     2.69822598
    2.81501961    -3.75342441     2.69822598
    2.81503558    -3.75341344     2.69822598
20MABNDM000168_PR001 0.00000000
    2.84049630    -3.68441629     3.12405801
    2.84050155    -3.68440914     3.12405682
    2.84051394    -3.68441272     3.12405682
20MABNDL000196_PR036 0.00000000
   -2.84755206    -3.69292784    -6.47909641
   -2.84754205    -3.69293094    -6.47909641
   -2.84755826    -3.69293451    -6.47909641
20MABNDL000196_PR037 0.00000000
   -2.82521701    -3.76952744    -6.67506599
   -2.82520747    -3.76953125    -6.67506599
   -2.82520628    -3.76952004    -6.67506647
20MABNDL000196_20MABNDM000020 0.00000000
   -2.81549597    -3.75141907     2.68347335
   -2.81549907    -3.75140524     2.68347335
   -2.81549168    -3.75141478     2.68347335
20MABNDL000196_PR012 0.00000000
   -2.83894730    -3.68297815     3.12404275
   -2.83896923    -3.68298125     3.12404275
   -2.83897972    -3.68298101     3.12404275
20MABNDA000318_PR004 0.00000000
    2.61443138    -4.19698811     3.83357501
    2.61443877    -4.19698811     3.83357501
    2.61443830    -4.19698811     3.83357859
20MABNDA000334_PR005 0.00000000
    2.61668706    -4.19703150     5.89752054
    2.61668611    -4.19703150     5.89752150
    2.61668825    -4.19703150     5.89752293
20MABNDB000317_PR015 0.00000000
   -2.61134434    -4.19700623     3.83624887
   -2.61134481    -4.19700623     3.83625150
   -2.61134291    -4.19700623     3.83625197
20MABNDB000146_PR016 0.00000000
   -2.61285663    -4.19702291     5.89878464
   -2.61285830    -4.19702291     5.89878941
   -2.61285830    -4.19702291     5.89878798
20MABNDB000135_PR027 0.00000000
    2.60389829    -4.19700384    -3.82555461
    2.60389495    -4.19700384    -3.82555676
    2.60389996    -4.19700384    -3.82555437
20MABNDB000126_PR028 0.00000000
    2.60559487    -4.19702101    -5.89326191
    2.60559177    -4.19702101    -5.89326429
    2.60559392    -4.19702101    -5.89326286
20MABNDA000272_PR038 0.00000000
   -2.61126041    -4.19698286    -3.82770896
   -2.61126685    -4.19698286    -3.82771397
   -2.61125779    -4.19698286    -3.82770967
20MABNDA000003_PR039 0.00000000
   -2.61575294    -4.19702101    -5.89155436
   -2.61575294    -4.19702101    -5.89155960
   -2.61575317    -4.19702101    -5.89155579
20MABNDA000196_PR006 0.00000000
    2.58456945    -4.19496536     6.54784536
    2.58456850    -4.19496536     6.54784679
    2.58456683    -4.19496536     6.54784679
20MABNDA000324_PR007 0.00000000
    2.59378862    -4.13996792     6.94802094
    2.59378314    -4.13996792     6.94801331
    2.59378362    -4.13996792     6.94801712
20MABNDB000001_PR017 0.00000000
   -2.59822631    -4.19506073     6.53820610
   -2.59822273    -4.19506025     6.53820753
   -2.59822321    -4.19506025     6.53820705
20MABNDB000260_PR019 0.00000000
   -2.60469866    -4.13995934     6.94214582
   -2.60468841    -4.13995934     6.94214916
   -2.60470986    -4.13995934     6.94215775
20MABNDB000212_PR029 0.00000000
    2.59894443    -4.19500971    -6.54748487
    2.59894228    -4.19500971    -6.54748631
    2.59894609    -4.19500971    -6.54748535
20MABNDB000128_PR030 0.00000000
    2.60935807    -4.14002609    -6.93140841
    2.60935664    -4.14002609    -6.93140745
    2.60935736    -4.14002609    -6.93141031
20MABNDA000444_PR040 0.00000000
   -2.60542655    -4.19510078    -6.54012156
   -2.60542440    -4.19510078    -6.54011631
   -2.60542130    -4.19510078    -6.54012108
20MABNDA000053_PR041 0.00000000
   -2.59398508    -4.14012766    -6.92672014
   -2.59398270    -4.14012766    -6.92671680
   -2.59400010    -4.14012766    -6.92673111
20MABNDA000188_PR008 0.00000000
    3.54951787     3.84898496     8.09023857
    3.54951787     3.84898496     8.09023857
    3.54951787     3.84898496     8.09023857
20MABNDA000188_PR018 0.00000000
    3.52094674    -4.07059622     7.89764357
    3.52094364    -4.07059669     7.89764118
    3.52094603    -4.07059622     7.89764214
20MABNDA000039_PR009 0.00000000
    3.87530541     3.64747429    12.93706894
    3.87530088     3.64747429    12.93708801
    3.87526274     3.64747429    12.93708801
20MABNDA000039_PR011 0.00000000
    3.66417217    -3.92580032    12.88481045
    3.66417527    -3.92580032    12.88482285
    3.66417599    -3.92580032    12.88481998
20MABNDB000155_PR020 0.00000000
   -3.68029451     3.84882283     7.89738512
   -3.68037558     3.84882164     7.89738989
   -3.68037057     3.84882164     7.89735651
20MABNDB000155_PR022 0.00000000
   -3.53395677    -4.07044172     7.89006424
   -3.53395557    -4.07044172     7.89006424
   -3.53395867    -4.07044172     7.89006376
20MABNDB000010_PR021 0.00000000
   -3.84594417     3.64783263    12.87777996
   -3.88706493     3.64711666    12.85555458
20MABNDB000010_PR023 0.00000000
   -3.68560529    -3.92560887    12.88455677
   -3.68561244    -3.92560816    12.88456154
20MABNDB000069_PR031 0.00000000
    3.68391752     3.84875870    -7.90157557
    3.68392134     3.84875870    -7.90157604
20MABNDB000069_PR033 0.00000000
    3.53342295    -4.07046223    -7.87883759
    3.53342104    -4.07046223    -7.87883854
20MABNDB000131_PR032 0.00000000
    3.86842322     3.64757752   -12.94025517
    3.86842680     3.64757752   -12.94027519
20MABNDB000131_PR034 0.00000000
    3.67303658    -3.92564034   -12.89158916
    3.67303872    -3.92564034   -12.89158630
20MABNDA000208_PR042 0.00000000
   -3.66353011     3.84907722    -7.97160149
   -3.67181277     3.84895778    -7.97249269
20MABNDA000208_PR046 0.00000000
   -3.53250933    -4.07034111    -7.87373972
   -3.53259611    -4.07034016    -7.87374163
20MABNDA000035_PR044 0.00000000
   -3.86937404     3.64757562   -12.93179417
   -3.86934924     3.64757562   -12.93178177
20MABNDA000035_PR045 0.00000000
   -3.67649794    -3.92565107   -12.88703346
   -3.67650104    -3.92565107   -12.88703537


*****************************************************************Rapport********************************************************************************** 
CAM-LBA-US_EBA-US-HO-H         2018.04.28.03.25.38     2.80947797    -3.69443218     6.48622115     0.00001068     0.00000678     0.00000022 0.00000000 VRAI 
CAM-LBA-US_JDA-US-H            2018.04.28.03.25.38     2.83580637    -3.72380273     6.67526293     0.00000255     0.00000189     0.00000000 0.00000000 VRAI 
CAM-LBA-US_CAM-LBC-US          2018.04.28.03.25.38     2.77222856    -3.78911885    -2.68922170     0.00000119     0.00000841     0.00000045 0.00000000 VRAI 
CAM-LBA-US_EBC-US-IP-H         2018.04.28.03.25.38     2.83048693    -3.68690379    -3.11711446     0.00001008     0.00000695     0.00000022 0.00000000 VRAI 
CAM-LBA-USA_EBA-USA-HO-H       2018.04.28.03.25.38    -2.83421548    -3.73585979     6.48627615     0.00000606     0.00000909     0.00000000 0.00000000 VRAI 
CAM-LBA-USA_JDA-USA-H          2018.04.28.03.25.38    -2.84715215    -3.67465472     7.43230200     0.00000950     0.00001687     0.00000000 0.00000000 VRAI 
CAM-LBA-USA_CAM-LBC-USA        2018.04.28.03.25.38    -2.78830655    -3.79157646    -2.71076083     0.00000168     0.00000257     0.00000000 0.00000000 VRAI 
CAM-LBA-USA_EBC-USA-IP-H       2018.04.28.03.25.38    -2.84748618    -3.68971475    -3.11707664     0.00000269     0.00000400     0.00000000 0.00000000 VRAI 
CAM-LBC-US_EBC-US-HO-H         2018.04.28.03.25.38     2.79891086    -3.74504296    -6.47934548     0.00862898     0.00089778     0.00003259 0.00000000 VRAI 
CAM-LBC-US_JDC-US-H            2018.04.28.03.25.38     2.83934204    -3.68757613    -6.67493773     0.00000381     0.00000572     0.00000000 0.00000000 VRAI 
CAM-LBC-US_CAM-LBA-US          2018.04.28.03.25.38     2.81502906    -3.75342226     2.69822598     0.00000684     0.00000651     0.00000000 0.00000000 VRAI 
CAM-LBC-US_EBA-US-IP-H         2018.04.28.03.25.38     2.84050393    -3.68441272     3.12405721     0.00000740     0.00000292     0.00000056 0.00000000 VRAI 
CAM-LBC-USA_EBC-USA-HO-H       2018.04.28.03.25.38    -2.84755079    -3.69293110    -6.47909641     0.00000668     0.00000273     0.00000000 0.00000000 VRAI 
CAM-LBC-USA_JDC-USA-H          2018.04.28.03.25.38    -2.82521025    -3.76952624    -6.67506615     0.00000480     0.00000465     0.00000022 0.00000000 VRAI 
CAM-LBC-USA_CAM-LBA-USA        2018.04.28.03.25.38    -2.81549557    -3.75141303     2.68347335     0.00000303     0.00000578     0.00000000 0.00000000 VRAI 
CAM-LBC-USA_EBA-USA-IP-H       2018.04.28.03.25.38    -2.83896542    -3.68298014     3.12404275     0.00001351     0.00000141     0.00000000 0.00000000 VRAI 
CAM-EBA-US-IP_EBA-US-IP        2018.04.28.03.25.38     2.61443615    -4.19698811     3.83357620     0.00000338     0.00000000     0.00000169 0.00000000 VRAI 
CAM-EBA-US-HO_EBA-US-HO        2018.04.28.03.25.38     2.61668714    -4.19703150     5.89752165     0.00000088     0.00000000     0.00000098 0.00000000 VRAI 
CAM-EBA-USA-IP_EBA-USA-IP      2018.04.28.03.25.38    -2.61134402    -4.19700623     3.83625078     0.00000081     0.00000000     0.00000136 0.00000000 VRAI 
CAM-EBA-USA-HO_EBA-USA-HO      2018.04.28.03.25.38    -2.61285774    -4.19702291     5.89878734     0.00000079     0.00000000     0.00000200 0.00000000 VRAI 
CAM-EBC-US-IP_EBC-US-IP        2018.04.28.03.25.38     2.60389773    -4.19700384    -3.82555525     0.00000208     0.00000000     0.00000107 0.00000000 VRAI 
CAM-EBC-US-HO_EBC-US-HO        2018.04.28.03.25.38     2.60559352    -4.19702101    -5.89326302     0.00000130     0.00000000     0.00000098 0.00000000 VRAI 
CAM-EBC-USA-IP_EBC-USA-IP      2018.04.28.03.25.38    -2.61126169    -4.19698286    -3.82771087     0.00000381     0.00000000     0.00000221 0.00000000 VRAI 
CAM-EBC-USA-HO_EBC-USA-HO      2018.04.28.03.25.38    -2.61575301    -4.19702101    -5.89155658     0.00000011     0.00000000     0.00000221 0.00000000 VRAI 
CAM-JDA-US-IP_JDA-US-IP        2018.04.28.03.25.38     2.58456826    -4.19496536     6.54784632     0.00000108     0.00000000     0.00000067 0.00000000 VRAI 
CAM-JDA-US-HO_JDA-US-HO        2018.04.28.03.25.38     2.59378513    -4.13996792     6.94801712     0.00000248     0.00000000     0.00000311 0.00000000 VRAI 
CAM-JDA-USA-IP_JDA-USA-IP      2018.04.28.03.25.38    -2.59822408    -4.19506041     6.53820690     0.00000159     0.00000022     0.00000059 0.00000000 VRAI 
CAM-JDA-USA-HO_JDA-USA-HO      2018.04.28.03.25.38    -2.60469898    -4.13995934     6.94215091     0.00000876     0.00000000     0.00000502 0.00000000 VRAI 
CAM-JDC-US-IP_JDC-US-IP        2018.04.28.03.25.38     2.59894427    -4.19500971    -6.54748551     0.00000156     0.00000000     0.00000059 0.00000000 VRAI 
CAM-JDC-US-HO_JDC-US-HO        2018.04.28.03.25.38     2.60935736    -4.14002609    -6.93140872     0.00000058     0.00000000     0.00000119 0.00000000 VRAI 
CAM-JDC-USA-IP_JDC-USA-IP      2018.04.28.03.25.38    -2.60542409    -4.19510078    -6.54011965     0.00000215     0.00000000     0.00000237 0.00000000 VRAI 
CAM-JDC-USA-HO_JDC-USA-HO      2018.04.28.03.25.38    -2.59398929    -4.14012766    -6.92672269     0.00000770     0.00000000     0.00000611 0.00000000 VRAI 
CAM-ECTA-US-IP_ECTA-US-IP-T    2018.04.28.03.25.38     3.54951787     3.84898496     8.09023857     0.00000000     0.00000000     0.00000000 0.00000000 VRAI 
CAM-ECTA-US-IP_ECTA-US-IP      2018.04.28.03.25.38     3.52094547    -4.07059638     7.89764229     0.00000133     0.00000022     0.00000098 0.00000000 VRAI 
CAM-ECTA-US-HO_ECTA-US-HO-T    2018.04.28.03.25.38     3.87528968     3.64747429    12.93708165     0.00001914     0.00000000     0.00000899 0.00000000 VRAI 
CAM-ECTA-US-HO_ECTA-US-HO      2018.04.28.03.25.38     3.66417448    -3.92580032    12.88481776     0.00000166     0.00000000     0.00000530 0.00000000 VRAI 
CAM-ECTA-USA-IP_ECTA-USA-IP-T  2018.04.28.03.25.38    -3.68034689     3.84882204     7.89737717     0.00003709     0.00000056     0.00001474 0.00000000 VRAI 
CAM-ECTA-USA-IP_ECTA-USA-IP    2018.04.28.03.25.38    -3.53395700    -4.07044172     7.89006408     0.00000128     0.00000000     0.00000022 0.00000000 VRAI 
CAM-ECTA-USA-HO_ECTA-USA-HO-T  2018.04.28.03.25.38    -3.86650455     3.64747465    12.86666727     0.02056038     0.00035799     0.01111269 0.00000000 VRAI 
CAM-ECTA-USA-HO_ECTA-USA-HO    2018.04.28.03.25.38    -3.68560886    -3.92560852    12.88455915     0.00000358     0.00000036     0.00000238 0.00000000 VRAI 
CAM-ECTC-US-IP_ECTC-US-IP-T    2018.04.28.03.25.38     3.68391943     3.84875870    -7.90157580     0.00000191     0.00000000     0.00000024 0.00000000 VRAI 
CAM-ECTC-US-IP_ECTC-US-IP      2018.04.28.03.25.38     3.53342199    -4.07046223    -7.87883806     0.00000095     0.00000000     0.00000048 0.00000000 VRAI 
CAM-ECTC-US-HO_ECTC-US-HO-T    2018.04.28.03.25.38     3.86842501     3.64757752   -12.94026518     0.00000179     0.00000000     0.00001001 0.00000000 VRAI 
CAM-ECTC-US-HO_ECTC-US-HO      2018.04.28.03.25.38     3.67303765    -3.92564034   -12.89158773     0.00000107     0.00000000     0.00000143 0.00000000 VRAI 
CAM-ECTC-USA-IP_ECTC-USA-IP-T  2018.04.28.03.25.38    -3.66767144     3.84901750    -7.97204709     0.00414133     0.00005972     0.00044560 0.00000000 VRAI 
CAM-ECTC-USA-IP_ECTC-USA-IP    2018.04.28.03.25.38    -3.53255272    -4.07034063    -7.87374067     0.00004339     0.00000048     0.00000095 0.00000000 VRAI 
CAM-ECTC-USA-HO_ECTC-USA-HO-T  2018.04.28.03.25.38    -3.86936164     3.64757562   -12.93178797     0.00001240     0.00000000     0.00000620 0.00000000 VRAI 
CAM-ECTC-USA-HO_ECTC-USA-HO    2018.04.28.03.25.38    -3.67649949    -3.92565107   -12.88703442     0.00000155     0.00000000     0.00000095 0.00000000 VRAI 
