********** Fichier qui contient une sauvegarde des coordonnees images + coordonnees images transformees dans le repere BCAM (MOUNT) + coordonnees des prismes dans le repere MOUNT********** 
********************************************************************** Unite en metres (m)************************************************************************************************** 

*******************************************************************coordonnees images dans le repere CCD *********************************************************************************** 
20MABNDL000077_PR002
Spot 1     0.00121390     0.00150181
Spot 2     0.00052500     0.00043500
Spot 1     0.00121441     0.00150185
Spot 2     0.00086500     0.00006500
Spot 1     0.00121499     0.00150128
Spot 2     0.00052500     0.00043500
20MABNDL000077_PR003
Spot 1     0.00138754     0.00148758
Spot 2     0.00153706     0.00148935
Spot 1     0.00138756     0.00148770
Spot 2     0.00153701     0.00148933
Spot 1     0.00138757     0.00148777
Spot 2     0.00153711     0.00148958
20MABNDL000077_20MABNDM000168
Spot 1     0.00175703     0.00118428
Spot 2     0.00304500     0.00031500
Spot 1     0.00175706     0.00118448
Spot 2     0.00304500     0.00031500
Spot 1     0.00175723     0.00118424
Spot 2     0.00304500     0.00031500
20MABNDL000077_PR024
Spot 1     0.00254605     0.00144758
Spot 2     0.00264573     0.00145537
Spot 1     0.00254610     0.00144757
Spot 2     0.00264567     0.00145514
Spot 1     0.00254604     0.00144744
Spot 2     0.00264562     0.00145505
20MABNDM000020_PR013
Spot 1     0.00162695     0.00152706
Spot 2     0.00147339     0.00153372
Spot 1     0.00162616     0.00152612
Spot 2     0.00147393     0.00153296
Spot 1     0.00162792     0.00152815
Spot 2     0.00147314     0.00153332
20MABNDM000020_PR014
Spot 1     0.00265868     0.00168868
Spot 2     0.00249753     0.00169337
Spot 1     0.00265942     0.00168906
Spot 2     0.00249781     0.00169454
Spot 1     0.00265903     0.00168962
Spot 2     0.00249670     0.00169294
20MABNDM000020_20MABNDL000196
Spot 1     0.00197674     0.00117847
Spot 2     0.00230500     0.00010500
Spot 1     0.00197690     0.00117855
Spot 2     0.00230500     0.00010500
Spot 1     0.00197703     0.00117849
Spot 2     0.00230500     0.00010500
20MABNDM000020_PR035
Spot 1     0.00126916     0.00149617
Spot 2     0.00118692     0.00153112
Spot 1     0.00126913     0.00149625
Spot 2     0.00118689     0.00153122
Spot 1     0.00126989     0.00149622
Spot 2     0.00118688     0.00153156
20MABNDM000168_PR025
Spot 1     0.00148500     0.00050500
Spot 2     0.00148500     0.00050500
Spot 1     0.00037500     0.00009500
Spot 2     0.00037500     0.00009500
Spot 1     0.00148500     0.00050500
Spot 2     0.00049500     0.00004500
20MABNDM000168_PR026
Spot 1     0.00266655     0.00143014
Spot 2     0.00250581     0.00142673
Spot 1     0.00266672     0.00143022
Spot 2     0.00250590     0.00142676
Spot 1     0.00266647     0.00143045
Spot 2     0.00250583     0.00142672
20MABNDM000168_20MABNDL000077
Spot 1     0.00154167     0.00130004
Spot 2     0.00175728     0.00130551
Spot 1     0.00154167     0.00130004
Spot 2     0.00175734     0.00130605
Spot 1     0.00154146     0.00130031
Spot 2     0.00175733     0.00130500
20MABNDM000168_PR001
Spot 1     0.00080847     0.00161901
Spot 2     0.00070701     0.00162083
Spot 1     0.00080840     0.00161913
Spot 2     0.00070716     0.00162096
Spot 1     0.00080860     0.00161899
Spot 2     0.00070698     0.00162084
20MABNDL000196_PR036
Spot 1     0.00094637     0.00163682
Spot 2     0.00111043     0.00163652
Spot 1     0.00094637     0.00163675
Spot 2     0.00111044     0.00163635
Spot 1     0.00094625     0.00163691
Spot 2     0.00111029     0.00163596
20MABNDL000196_PR037
Spot 1     0.00246862     0.00117224
Spot 2     0.00262340     0.00117049
Spot 1     0.00246850     0.00117220
Spot 2     0.00262317     0.00117041
Spot 1     0.00246827     0.00117224
Spot 2     0.00262318     0.00117059
20MABNDL000196_20MABNDM000020
Spot 1     0.00192627     0.00104124
Spot 2     0.00170451     0.00104646
Spot 1     0.00192628     0.00104126
Spot 2     0.00170465     0.00104653
Spot 1     0.00192622     0.00104124
Spot 2     0.00170467     0.00104666
20MABNDL000196_PR012
Spot 1     0.00265239     0.00134217
Spot 2     0.00272485     0.00138814
Spot 1     0.00265238     0.00134216
Spot 2     0.00272463     0.00138800
Spot 1     0.00265233     0.00134200
Spot 2     0.00272479     0.00138802
20MABNDA000318_PR004
Spot 1     0.00192536     0.00162699
Spot 2     0.00214298     0.00162633
Spot 1     0.00192537     0.00162709
Spot 2     0.00214316     0.00162668
Spot 1     0.00192534     0.00162708
Spot 2     0.00214331     0.00162646
20MABNDA000334_PR005
Spot 1     0.00247146     0.00158773
Spot 2     0.00219123     0.00158811
Spot 1     0.00247151     0.00158741
Spot 2     0.00219095     0.00158847
Spot 1     0.00247152     0.00158773
Spot 2     0.00219098     0.00158859
20MABNDB000317_PR015
Spot 1     0.00170490     0.00158655
Spot 2     0.00148472     0.00159410
Spot 1     0.00170485     0.00158670
Spot 2     0.00148473     0.00159394
Spot 1     0.00170495     0.00158699
Spot 2     0.00148471     0.00159398
20MABNDB000146_PR016
Spot 1     0.00144408     0.00132454
Spot 2     0.00172018     0.00132716
Spot 1     0.00144405     0.00132451
Spot 2     0.00172013     0.00132692
Spot 1     0.00144410     0.00132473
Spot 2     0.00172028     0.00132731
20MABNDB000135_PR027
Spot 1     0.00189036     0.00091402
Spot 2     0.00210829     0.00091582
Spot 1     0.00189051     0.00091409
Spot 2     0.00210830     0.00091580
Spot 1     0.00189046     0.00091389
Spot 2     0.00210830     0.00091580
20MABNDB000126_PR028
Spot 1     0.00164385     0.00200901
Spot 2     0.00192619     0.00201065
Spot 1     0.00164393     0.00200902
Spot 2     0.00192610     0.00201068
Spot 1     0.00164376     0.00200893
Spot 2     0.00192611     0.00201069
20MABNDA000272_PR038
Spot 1     0.00192120     0.00095106
Spot 2     0.00170028     0.00094940
Spot 1     0.00192105     0.00095076
Spot 2     0.00170067     0.00094967
Spot 1     0.00192119     0.00095114
Spot 2     0.00170008     0.00094941
20MABNDA000003_PR039
Spot 1     0.00199902     0.00192552
Spot 2     0.00227685     0.00192639
Spot 1     0.00199907     0.00192551
Spot 2     0.00227691     0.00192636
Spot 1     0.00199892     0.00192564
Spot 2     0.00227711     0.00192647
20MABNDA000196_PR006
Spot 1     0.00199976     0.00072684
Spot 2     0.00163360     0.00072458
Spot 1     0.00199972     0.00072689
Spot 2     0.00163355     0.00072435
Spot 1     0.00199970     0.00072697
Spot 2     0.00163355     0.00072420
20MABNDA000324_PR007
Spot 1     0.00194100     0.00121441
Spot 2     0.00173500     0.00122012
Spot 1     0.00194106     0.00121447
Spot 2     0.00173519     0.00122013
Spot 1     0.00194100     0.00121454
Spot 2     0.00173538     0.00122013
20MABNDB000001_PR017
Spot 1     0.00190196     0.00043850
Spot 2     0.00227007     0.00044694
Spot 1     0.00190188     0.00043859
Spot 2     0.00226974     0.00044750
Spot 1     0.00190191     0.00043842
Spot 2     0.00227000     0.00044724
20MABNDB000260_PR019
Spot 1     0.00191580     0.00150820
Spot 2     0.00211816     0.00150693
Spot 1     0.00191561     0.00150799
Spot 2     0.00211862     0.00150717
Spot 1     0.00191551     0.00150765
Spot 2     0.00211871     0.00150714
20MABNDB000212_PR029
Spot 1     0.00222895     0.00070145
Spot 2     0.00186870     0.00070107
Spot 1     0.00222858     0.00070133
Spot 2     0.00186853     0.00070074
Spot 1     0.00222893     0.00070133
Spot 2     0.00186843     0.00070082
20MABNDB000128_PR030
Spot 1     0.00190474     0.00199964
Spot 2     0.00211007     0.00199405
Spot 1     0.00190496     0.00199957
Spot 2     0.00211033     0.00199411
Spot 1     0.00190487     0.00199962
Spot 2     0.00211011     0.00199414
20MABNDA000444_PR040
Spot 1     0.00074773     0.00035673
Spot 2     0.00111420     0.00035353
Spot 1     0.00074727     0.00035687
Spot 2     0.00111403     0.00035319
Spot 1     0.00074764     0.00035669
Spot 2     0.00111445     0.00035308
20MABNDA000053_PR041
Spot 1     0.00165736     0.00199110
Spot 2     0.00144643     0.00199081
Spot 1     0.00165629     0.00199145
Spot 2     0.00144602     0.00199000
Spot 1     0.00165742     0.00199121
Spot 2     0.00144675     0.00198947
20MABNDA000188_PR008
Spot 1     0.00297500     0.00011500
Spot 2     0.00297500     0.00011500
Spot 1     0.00266500     0.00126500
Spot 2     0.00266500     0.00126500
Spot 1     0.00297500     0.00011500
Spot 2     0.00289500     0.00025500
20MABNDA000188_PR018
Spot 1     0.00169626     0.00173891
Spot 2     0.00122916     0.00173494
Spot 1     0.00169658     0.00173904
Spot 2     0.00122896     0.00173506
Spot 1     0.00169649     0.00173899
Spot 2     0.00122898     0.00173512
20MABNDA000039_PR009
Spot 1     0.00066445     0.00117960
Spot 2     0.00061675     0.00118395
Spot 1     0.00066416     0.00117941
Spot 2     0.00061721     0.00118379
Spot 1     0.00066459     0.00117967
Spot 2     0.00061711     0.00118392
20MABNDA000039_PR011
Spot 1     0.00277005     0.00029056
Spot 2     0.00259425     0.00028473
Spot 1     0.00276987     0.00029031
Spot 2     0.00259420     0.00028504
Spot 1     0.00277004     0.00029040
Spot 2     0.00259423     0.00028505
20MABNDB000155_PR020
Spot 1     0.00062367     0.00113624
Spot 2     0.00068867     0.00113161
Spot 1     0.00062352     0.00113558
Spot 2     0.00068885     0.00113154
Spot 1     0.00062361     0.00113608
Spot 2     0.00068847     0.00113130
20MABNDB000155_PR022
Spot 1     0.00213862     0.00142906
Spot 2     0.00261134     0.00142445
Spot 1     0.00213863     0.00142908
Spot 2     0.00261152     0.00142457
Spot 1     0.00213851     0.00142901
Spot 2     0.00261136     0.00142446
20MABNDB000010_PR021
Spot 1     0.00287106     0.00114894
Spot 2     0.00329500     0.00013500
Spot 1     0.00287126     0.00114864
Spot 2     0.00329500     0.00013500
20MABNDB000010_PR023
Spot 1     0.00131693     0.00030101
Spot 2     0.00149248     0.00029879
Spot 1     0.00131680     0.00030088
Spot 2     0.00149221     0.00029846
20MABNDB000069_PR031
Spot 1     0.00028463     0.00140568
Spot 2     0.00035597     0.00140429
Spot 1     0.00028428     0.00140577
Spot 2     0.00035475     0.00140466
20MABNDB000069_PR033
Spot 1     0.00182756     0.00206848
Spot 2     0.00229791     0.00208850
Spot 1     0.00182753     0.00206848
Spot 2     0.00229786     0.00208859
20MABNDB000131_PR032
Spot 1     0.00277495     0.00107482
Spot 2     0.00283441     0.00107842
Spot 1     0.00277500     0.00107454
Spot 2     0.00283440     0.00107872
20MABNDB000131_PR034
Spot 1     0.00091411     0.00032298
Spot 2     0.00109037     0.00032284
Spot 1     0.00091428     0.00032289
Spot 2     0.00109037     0.00032290
20MABNDA000208_PR042
Spot 1     0.00261136     0.00039136
Spot 2     0.00289833     0.00053333
Spot 1     0.00262136     0.00007409
Spot 2     0.00289700     0.00053500
20MABNDA000208_PR046
Spot 1     0.00145852     0.00224300
Spot 2     0.00102473     0.00207884
Spot 1     0.00146006     0.00223667
Spot 2     0.00102420     0.00207887
20MABNDA000035_PR044
Spot 1     0.00073721     0.00124986
Spot 2     0.00067997     0.00124449
Spot 1     0.00073740     0.00124972
Spot 2     0.00068025     0.00124440
20MABNDA000035_PR045
Spot 1     0.00253703     0.00045756
Spot 2     0.00236062     0.00045537
Spot 1     0.00253678     0.00045748
Spot 2     0.00236040     0.00045563


****************************************************************coordonnees images transformees dans le repere MOUNT************************************************************************* 
20MABNDL000077_PR002
Spot 1     0.01228422     0.03557325    -0.07463200
Spot 2     0.01158509     0.03451311    -0.07463200
Spot 1     0.01228473     0.03557328    -0.07463200
Spot 2     0.01192151     0.03413986    -0.07463200
Spot 1     0.01228531     0.03557271    -0.07463200
Spot 2     0.01158509     0.03451311    -0.07463200
20MABNDL000077_PR003
Spot 1     0.01245772     0.03555735    -0.07463200
Spot 2     0.01260725     0.03555768    -0.07463200
Spot 1     0.01245774     0.03555747    -0.07463200
Spot 2     0.01260720     0.03555766    -0.07463200
Spot 1     0.01245775     0.03555754    -0.07463200
Spot 2     0.01260730     0.03555791    -0.07463200
20MABNDL000077_20MABNDM000168
Spot 1    -0.01259217     0.03524727    -0.00695400
Spot 2    -0.01387118     0.03436485    -0.00695400
Spot 1    -0.01259221     0.03524747    -0.00695400
Spot 2    -0.01387118     0.03436485    -0.00695400
Spot 1    -0.01259237     0.03524722    -0.00695400
Spot 2    -0.01387118     0.03436485    -0.00695400
20MABNDL000077_PR024
Spot 1    -0.01338385     0.03550248    -0.00695400
Spot 2    -0.01348360     0.03550925    -0.00695400
Spot 1    -0.01338390     0.03550247    -0.00695400
Spot 2    -0.01348354     0.03550902    -0.00695400
Spot 1    -0.01338384     0.03550234    -0.00695400
Spot 2    -0.01348349     0.03550893    -0.00695400
20MABNDM000020_PR013
Spot 1    -0.01273199    -0.03548575    -0.00523500
Spot 2    -0.01288536    -0.03549580    -0.00523500
Spot 1    -0.01273280    -0.03548482    -0.00523500
Spot 2    -0.01288484    -0.03549503    -0.00523500
Spot 1    -0.01273099    -0.03548681    -0.00523500
Spot 2    -0.01288562    -0.03549541    -0.00523500
20MABNDM000020_PR014
Spot 1    -0.01169694    -0.03562451    -0.00523500
Spot 2    -0.01185794    -0.03563276    -0.00523500
Spot 1    -0.01169619    -0.03562487    -0.00523500
Spot 2    -0.01185764    -0.03563393    -0.00523500
Spot 1    -0.01169657    -0.03562544    -0.00523500
Spot 2    -0.01185878    -0.03563235    -0.00523500
20MABNDM000020_20MABNDL000196
Spot 1     0.01270954    -0.03514703    -0.07583800
Spot 2     0.01238113    -0.03407361    -0.07583800
Spot 1     0.01270938    -0.03514711    -0.07583800
Spot 2     0.01238113    -0.03407361    -0.07583800
Spot 1     0.01270925    -0.03514705    -0.07583800
Spot 2     0.01238113    -0.03407361    -0.07583800
20MABNDM000020_PR035
Spot 1     0.01341716    -0.03546464    -0.07583800
Spot 2     0.01349941    -0.03549957    -0.07583800
Spot 1     0.01341719    -0.03546472    -0.07583800
Spot 2     0.01349944    -0.03549967    -0.07583800
Spot 1     0.01341643    -0.03546469    -0.07583800
Spot 2     0.01349945    -0.03550001    -0.07583800
20MABNDM000168_PR025
Spot 1    -0.01292129    -0.03484087    -0.00532900
Spot 2    -0.01292129    -0.03484087    -0.00532900
Spot 1    -0.01403304    -0.03443564    -0.00532900
Spot 2    -0.01403304    -0.03443564    -0.00532900
Spot 1    -0.01292129    -0.03484087    -0.00532900
Spot 2    -0.01391326    -0.03438512    -0.00532900
20MABNDM000168_PR026
Spot 1    -0.01173578    -0.03576092    -0.00532900
Spot 2    -0.01189653    -0.03575820    -0.00532900
Spot 1    -0.01173561    -0.03576100    -0.00532900
Spot 2    -0.01189644    -0.03575823    -0.00532900
Spot 1    -0.01173586    -0.03576123    -0.00532900
Spot 2    -0.01189651    -0.03575819    -0.00532900
20MABNDM000168_20MABNDL000077
Spot 1     0.01288379    -0.03530067    -0.07445100
Spot 2     0.01266813    -0.03530299    -0.07445100
Spot 1     0.01288379    -0.03530067    -0.07445100
Spot 2     0.01266806    -0.03530352    -0.07445100
Spot 1     0.01288400    -0.03530094    -0.07445100
Spot 2     0.01266808    -0.03530247    -0.07445100
20MABNDM000168_PR001
Spot 1     0.01361225    -0.03563033    -0.07445100
Spot 2     0.01371367    -0.03563364    -0.07445100
Spot 1     0.01361232    -0.03563045    -0.07445100
Spot 2     0.01371352    -0.03563376    -0.07445100
Spot 1     0.01361212    -0.03563031    -0.07445100
Spot 2     0.01371370    -0.03563365    -0.07445100
20MABNDL000196_PR036
Spot 1     0.01192630     0.03582552    -0.07483600
Spot 2     0.01209036     0.03582556    -0.07483600
Spot 1     0.01192630     0.03582545    -0.07483600
Spot 2     0.01209037     0.03582539    -0.07483600
Spot 1     0.01192618     0.03582561    -0.07483600
Spot 2     0.01209022     0.03582500    -0.07483600
20MABNDL000196_PR037
Spot 1     0.01344952     0.03536411    -0.07483600
Spot 2     0.01360430     0.03536269    -0.07483600
Spot 1     0.01344940     0.03536407    -0.07483600
Spot 2     0.01360407     0.03536261    -0.07483600
Spot 1     0.01344917     0.03536411    -0.07483600
Spot 2     0.01360408     0.03536279    -0.07483600
20MABNDL000196_20MABNDM000020
Spot 1    -0.01275031     0.03531244    -0.00611000
Spot 2    -0.01252870     0.03532212    -0.00611000
Spot 1    -0.01275032     0.03531245    -0.00611000
Spot 2    -0.01252885     0.03532218    -0.00611000
Spot 1    -0.01275026     0.03531244    -0.00611000
Spot 2    -0.01252887     0.03532231    -0.00611000
20MABNDL000196_PR012
Spot 1    -0.01348234     0.03559869    -0.00611000
Spot 2    -0.01355571     0.03564320    -0.00611000
Spot 1    -0.01348233     0.03559869    -0.00611000
Spot 2    -0.01355549     0.03564306    -0.00611000
Spot 1    -0.01348228     0.03559853    -0.00611000
Spot 2    -0.01355565     0.03564308    -0.00611000
20MABNDA000318_PR004
Spot 1    -0.01264518     0.01246889    -0.07310600
Spot 2    -0.01286280     0.01246891    -0.07310600
Spot 1    -0.01264519     0.01246879    -0.07310600
Spot 2    -0.01286298     0.01246856    -0.07310600
Spot 1    -0.01264516     0.01246880    -0.07310600
Spot 2    -0.01286313     0.01246878    -0.07310600
20MABNDA000334_PR005
Spot 1    -0.01311457     0.01254066    -0.07324100
Spot 2    -0.01283434     0.01254002    -0.07324100
Spot 1    -0.01311462     0.01254098    -0.07324100
Spot 2    -0.01283406     0.01253966    -0.07324100
Spot 1    -0.01311463     0.01254066    -0.07324100
Spot 2    -0.01283409     0.01253954    -0.07324100
20MABNDB000317_PR015
Spot 1    -0.01244925    -0.01250897    -0.07326100
Spot 2    -0.01266950    -0.01250398    -0.07326100
Spot 1    -0.01244930    -0.01250882    -0.07326100
Spot 2    -0.01266949    -0.01250414    -0.07326100
Spot 1    -0.01244920    -0.01250852    -0.07326100
Spot 2    -0.01266951    -0.01250410    -0.07326100
20MABNDB000146_PR016
Spot 1    -0.01276426    -0.01246907    -0.07450500
Spot 2    -0.01248817    -0.01246584    -0.07450500
Spot 1    -0.01276429    -0.01246910    -0.07450500
Spot 2    -0.01248822    -0.01246608    -0.07450500
Spot 1    -0.01276424    -0.01246888    -0.07450500
Spot 2    -0.01248807    -0.01246569    -0.07450500
20MABNDB000135_PR027
Spot 1    -0.01251433    -0.01319899    -0.07464700
Spot 2    -0.01229640    -0.01319962    -0.07464700
Spot 1    -0.01251418    -0.01319892    -0.07464700
Spot 2    -0.01229639    -0.01319964    -0.07464700
Spot 1    -0.01251423    -0.01319912    -0.07464700
Spot 2    -0.01229639    -0.01319964    -0.07464700
20MABNDB000126_PR028
Spot 1    -0.01253568    -0.01217317    -0.07500400
Spot 2    -0.01225336    -0.01217002    -0.07500400
Spot 1    -0.01253560    -0.01217316    -0.07500400
Spot 2    -0.01225345    -0.01216999    -0.07500400
Spot 1    -0.01253577    -0.01217325    -0.07500400
Spot 2    -0.01225344    -0.01216998    -0.07500400
20MABNDA000272_PR038
Spot 1    -0.01275685     0.01316040    -0.07417900
Spot 2    -0.01253593     0.01316167    -0.07417900
Spot 1    -0.01275670     0.01316070    -0.07417900
Spot 2    -0.01253632     0.01316140    -0.07417900
Spot 1    -0.01275684     0.01316032    -0.07417900
Spot 2    -0.01253573     0.01316166    -0.07417900
20MABNDA000003_PR039
Spot 1    -0.01280010     0.01212674    -0.07373400
Spot 2    -0.01307793     0.01212658    -0.07373400
Spot 1    -0.01280015     0.01212675    -0.07373400
Spot 2    -0.01307799     0.01212661    -0.07373400
Spot 1    -0.01280000     0.01212662    -0.07373400
Spot 2    -0.01307819     0.01212650    -0.07373400
20MABNDA000196_PR006
Spot 1    -0.01295443     0.01325156    -0.07967100
Spot 2    -0.01258828     0.01324911    -0.07967100
Spot 1    -0.01295439     0.01325151    -0.07967100
Spot 2    -0.01258822     0.01324934    -0.07967100
Spot 1    -0.01295438     0.01325143    -0.07967100
Spot 2    -0.01258822     0.01324949    -0.07967100
20MABNDA000324_PR007
Spot 1    -0.01254670     0.01280722    -0.07446800
Spot 2    -0.01234066     0.01280312    -0.07446800
Spot 1    -0.01254675     0.01280716    -0.07446800
Spot 2    -0.01234085     0.01280310    -0.07446800
Spot 1    -0.01254669     0.01280709    -0.07446800
Spot 2    -0.01234104     0.01280310    -0.07446800
20MABNDB000001_PR017
Spot 1    -0.01228641    -0.01355118    -0.07418400
Spot 2    -0.01191823    -0.01354664    -0.07418400
Spot 1    -0.01228648    -0.01355109    -0.07418400
Spot 2    -0.01191855    -0.01354608    -0.07418400
Spot 1    -0.01228646    -0.01355126    -0.07418400
Spot 2    -0.01191829    -0.01354634    -0.07418400
20MABNDB000260_PR019
Spot 1    -0.01241565    -0.01239448    -0.07492700
Spot 2    -0.01221331    -0.01239160    -0.07492700
Spot 1    -0.01241584    -0.01239470    -0.07492700
Spot 2    -0.01221285    -0.01239135    -0.07492700
Spot 1    -0.01241593    -0.01239504    -0.07492700
Spot 2    -0.01221276    -0.01239138    -0.07492700
20MABNDB000212_PR029
Spot 1    -0.01185889    -0.01327977    -0.07390500
Spot 2    -0.01221912    -0.01327630    -0.07390500
Spot 1    -0.01185926    -0.01327988    -0.07390500
Spot 2    -0.01221930    -0.01327663    -0.07390500
Spot 1    -0.01185891    -0.01327989    -0.07390500
Spot 2    -0.01221940    -0.01327655    -0.07390500
20MABNDB000128_PR030
Spot 1    -0.01245038    -0.01221766    -0.07353400
Spot 2    -0.01224503    -0.01222254    -0.07353400
Spot 1    -0.01245016    -0.01221773    -0.07353400
Spot 2    -0.01224477    -0.01222248    -0.07353400
Spot 1    -0.01245025    -0.01221768    -0.07353400
Spot 2    -0.01224499    -0.01222245    -0.07353400
20MABNDA000444_PR040
Spot 1    -0.01168752     0.01367305    -0.07412000
Spot 2    -0.01205400     0.01367160    -0.07412000
Spot 1    -0.01168706     0.01367292    -0.07412000
Spot 2    -0.01205384     0.01367194    -0.07412000
Spot 1    -0.01168743     0.01367309    -0.07412000
Spot 2    -0.01205426     0.01367205    -0.07412000
20MABNDA000053_PR041
Spot 1    -0.01241403     0.01211945    -0.07430100
Spot 2    -0.01220314     0.01211562    -0.07430100
Spot 1    -0.01241297     0.01211907    -0.07430100
Spot 2    -0.01220271     0.01211642    -0.07430100
Spot 1    -0.01241409     0.01211934    -0.07430100
Spot 2    -0.01220343     0.01211696    -0.07430100
20MABNDA000188_PR008
Spot 1    -0.01399107     0.01394961    -0.07502000
Spot 2    -0.01399107     0.01394961    -0.07502000
Spot 1    -0.01369093     0.01279700    -0.07502000
Spot 2    -0.01369093     0.01279700    -0.07502000
Spot 1    -0.01399107     0.01394961    -0.07502000
Spot 2    -0.01391227     0.01380893    -0.07502000
20MABNDA000188_PR018
Spot 1    -0.01272628     0.01231481    -0.07502000
Spot 2    -0.01225917     0.01231478    -0.07502000
Spot 1    -0.01272660     0.01231468    -0.07502000
Spot 2    -0.01225897     0.01231466    -0.07502000
Spot 1    -0.01272651     0.01231473    -0.07502000
Spot 2    -0.01225899     0.01231460    -0.07502000
20MABNDA000039_PR009
Spot 1    -0.01162660     0.01306454    -0.07444800
Spot 2    -0.01157892     0.01305998    -0.07444800
Spot 1    -0.01162631     0.01306473    -0.07444800
Spot 2    -0.01157938     0.01306014    -0.07444800
Spot 1    -0.01162674     0.01306447    -0.07444800
Spot 2    -0.01157928     0.01306001    -0.07444800
20MABNDA000039_PR011
Spot 1    -0.01372833     0.01396268    -0.07444800
Spot 2    -0.01355251     0.01396775    -0.07444800
Spot 1    -0.01372815     0.01396293    -0.07444800
Spot 2    -0.01355246     0.01396744    -0.07444800
Spot 1    -0.01372832     0.01396284    -0.07444800
Spot 2    -0.01355249     0.01396743    -0.07444800
20MABNDB000155_PR020
Spot 1    -0.01364258    -0.01312108    -0.07501700
Spot 2    -0.01357752    -0.01312482    -0.07501700
Spot 1    -0.01364272    -0.01312174    -0.07501700
Spot 2    -0.01357734    -0.01312489    -0.07501700
Spot 1    -0.01364264    -0.01312124    -0.07501700
Spot 2    -0.01357772    -0.01312513    -0.07501700
20MABNDB000155_PR022
Spot 1    -0.01213178    -0.01280755    -0.07501700
Spot 2    -0.01165904    -0.01280568    -0.07501700
Spot 1    -0.01213177    -0.01280753    -0.07501700
Spot 2    -0.01165886    -0.01280556    -0.07501700
Spot 1    -0.01213189    -0.01280760    -0.07501700
Spot 2    -0.01165902    -0.01280567    -0.07501700
20MABNDB000010_PR021
Spot 1    -0.01157988    -0.01292953    -0.07358200
Spot 2    -0.01113882    -0.01393614    -0.07358200
Spot 1    -0.01157967    -0.01292983    -0.07358200
Spot 2    -0.01113882    -0.01393614    -0.07358200
20MABNDB000010_PR023
Spot 1    -0.01311942    -0.01380367    -0.07358200
Spot 2    -0.01294386    -0.01380291    -0.07358200
Spot 1    -0.01311955    -0.01380380    -0.07358200
Spot 2    -0.01294412    -0.01380325    -0.07358200
20MABNDB000069_PR031
Spot 1    -0.01359160    -0.01286201    -0.07388500
Spot 2    -0.01352037    -0.01286634    -0.07388500
Spot 1    -0.01359194    -0.01286190    -0.07388500
Spot 2    -0.01352158    -0.01286592    -0.07388500
20MABNDB000069_PR033
Spot 1    -0.01202263    -0.01226344    -0.07388500
Spot 2    -0.01155185    -0.01226285    -0.07388500
Spot 1    -0.01202266    -0.01226344    -0.07388500
Spot 2    -0.01155190    -0.01226276    -0.07388500
20MABNDB000131_PR032
Spot 1    -0.01144519    -0.01303994    -0.07533000
Spot 2    -0.01138574    -0.01303604    -0.07533000
Spot 1    -0.01144513    -0.01304022    -0.07533000
Spot 2    -0.01138576    -0.01303574    -0.07533000
20MABNDB000131_PR034
Spot 1    -0.01330222    -0.01380114    -0.07533000
Spot 2    -0.01312596    -0.01380040    -0.07533000
Spot 1    -0.01330205    -0.01380123    -0.07533000
Spot 2    -0.01312596    -0.01380034    -0.07533000
20MABNDA000208_PR042
Spot 1    -0.01348257     0.01360505    -0.07273700
Spot 2    -0.01376942     0.01346283    -0.07273700
Spot 1    -0.01349285     0.01392231    -0.07273700
Spot 2    -0.01376809     0.01346116    -0.07273700
20MABNDA000208_PR046
Spot 1    -0.01232811     0.01175442    -0.07273700
Spot 2    -0.01189446     0.01191896    -0.07273700
Spot 1    -0.01232965     0.01176075    -0.07273700
Spot 2    -0.01189393     0.01191893    -0.07273700
20MABNDA000035_PR044
Spot 1    -0.01157181     0.01300738    -0.07483200
Spot 2    -0.01151453     0.01301234    -0.07483200
Spot 1    -0.01157200     0.01300752    -0.07483200
Spot 2    -0.01151481     0.01301243    -0.07483200
20MABNDA000035_PR045
Spot 1    -0.01336595     0.01381246    -0.07483200
Spot 2    -0.01318952     0.01381340    -0.07483200
Spot 1    -0.01336569     0.01381254    -0.07483200
Spot 2    -0.01318931     0.01381314    -0.07483200


*****************************************************************coordonnees du prisme dans le repere MOUNT********************************************************************************** 
20MABNDL000077_PR002
    0.05010986     0.04753471     3.70691442
    0.04178775     0.05675355     3.70694900
    0.05008307     0.04754806     3.70691466
20MABNDL000077_PR003
    0.02097864     0.02141692     3.89601803
    0.02097939     0.02141432     3.89601803
    0.02097645     0.02140604     3.89601803
20MABNDL000077_20MABNDM000168
    0.02679422     0.06905381    -5.46851063
    0.02679538     0.06904660    -5.46851063
    0.02680143     0.06905533    -5.46851063
20MABNDL000077_PR024
    0.04568322     0.01711411    -5.89639854
    0.04568274     0.01712346    -5.89639854
    0.04567836     0.01713200    -5.89639854
20MABNDM000020_PR013
   -0.00365936    -0.01811635    -3.80243397
   -0.00365222    -0.01815839    -3.80243397
   -0.00367760    -0.01809963    -3.80243397
20MABNDM000020_PR014
   -0.06555206    -0.00501137    -4.74841022
   -0.06558487    -0.00496387    -4.74840975
   -0.06553750    -0.00499515    -4.74841022
20MABNDM000020_20MABNDL000196
    0.02684271    -0.07123017     5.39469719
    0.02684844    -0.07122731     5.39469719
    0.02685310    -0.07122946     5.39469719
20MABNDM000020_PR035
   -0.04244018    -0.00671643     5.80095387
   -0.04244249    -0.00670950     5.80095387
   -0.04241361    -0.00669755     5.80095482
20MABNDM000168_PR025
   -0.00091071    -0.06043248    -3.78869867
    0.05405228    -0.08046210    -3.78793097
    0.02361317    -0.07169831    -3.78844881
20MABNDM000168_PR026
   -0.05782122    -0.01389239    -3.98429012
   -0.05782800    -0.01388956    -3.98429012
   -0.05781969    -0.01388458    -3.98429012
20MABNDM000168_20MABNDL000077
    0.01154130    -0.03873575     5.38884687
    0.01154374    -0.03871639     5.38884687
    0.01153543    -0.03874429     5.38884687
20MABNDM000168_PR001
   -0.05732097    -0.01335090     5.81470585
   -0.05731773    -0.01334125     5.81470585
   -0.05731710    -0.01335134     5.81470585
20MABNDL000196_PR036
    0.05136117     0.00607213     3.68777275
    0.05136091     0.00607802     3.68777275
    0.05136753     0.00608368     3.68777275
20MABNDL000196_PR037
   -0.02511325     0.02838067     3.88381290
   -0.02510421     0.02838379     3.88381290
   -0.02509851     0.02837811     3.88381290
20MABNDL000196_20MABNDM000020
   -0.01568763     0.03791200    -5.47473907
   -0.01568218     0.03790887    -5.47473907
   -0.01568354     0.03790489    -5.47473907
20MABNDL000196_PR012
    0.05243104     0.01445958    -5.91537094
    0.05242198     0.01446523    -5.91537094
    0.05242615     0.01447076    -5.91537094
20MABNDA000318_PR004
   -0.00855706     0.03841501     2.74965906
   -0.00855360     0.03842328     2.74965906
   -0.00855138     0.03841907     2.74965906
20MABNDA000334_PR005
   -0.00431748     0.03173934     2.14977169
   -0.00432076     0.03173991     2.14977169
   -0.00432019     0.03174620     2.14977145
20MABNDB000317_PR015
   -0.01727524    -0.03375746     2.75129223
   -0.01727451    -0.03375727     2.75129223
   -0.01727590    -0.03376330     2.75129223
20MABNDB000146_PR016
   -0.01342995    -0.03156852     2.15201473
   -0.01342880    -0.03156464     2.15201473
   -0.01343166    -0.03157341     2.15201473
20MABNDB000135_PR027
   -0.02097416    -0.00978082     2.74937153
   -0.02097711    -0.00978171     2.74937153
   -0.02097615    -0.00977805     2.74937153
20MABNDB000126_PR028
   -0.02031417    -0.03895815     2.14679527
   -0.02031402    -0.03895872     2.14679527
   -0.02031175    -0.03895757     2.14679527
20MABNDA000272_PR038
   -0.01328834     0.01078058     2.74965858
   -0.01328394     0.01078002     2.74965858
   -0.01329218     0.01078223     2.74965858
20MABNDA000003_PR039
   -0.00598893     0.04122162     2.14891577
   -0.00598736     0.04122104     2.14891577
   -0.00598664     0.04122447     2.14891577
20MABNDA000196_PR006
   -0.01010514     0.00987676     1.64206314
   -0.01010615     0.00987480     1.64206314
   -0.01010638     0.00987404     1.64206314
20MABNDA000324_PR007
   -0.02553356     0.02793954     2.95549011
   -0.02552865     0.02794095     2.95549011
   -0.02552610     0.02794235     2.95549011
20MABNDB000001_PR017
   -0.02446432    -0.00282329     1.64035726
   -0.02445991    -0.00283044     1.64035726
   -0.02446303    -0.00282571     1.64035726
20MABNDB000260_PR019
   -0.02407162    -0.03853972     2.95627475
   -0.02407692    -0.03854042     2.95627475
   -0.02407687    -0.03853313     2.95627475
20MABNDB000212_PR029
   -0.02530132    -0.00847194     1.64223862
   -0.02529535    -0.00846707     1.64223862
   -0.02529810    -0.00846791     1.64223862
20MABNDB000128_PR030
   -0.01947153    -0.04674026     2.95496345
   -0.01948097    -0.04674010     2.95496345
   -0.01947487    -0.04674165     2.95496345
20MABNDA000444_PR040
   -0.03019154     0.00096373     1.64490938
   -0.03019841     0.00096145     1.64490938
   -0.03018972     0.00095838     1.64490938
20MABNDA000053_PR041
   -0.02653082     0.05113117     2.95450354
   -0.02656005     0.05112270     2.95450354
   -0.02652384     0.05110688     2.95450401
20MABNDA000188_PR008
    0.14616936    -0.09611703     9.20304298
    0.10933864     0.04538462     9.20419693
    0.14133570    -0.08748398     9.20322323
20MABNDA000188_PR018
   -0.01619096     0.02585218     1.28358221
   -0.01618992     0.02585431     1.28358221
   -0.01619052     0.02585440     1.28358221
20MABNDA000039_PR009
   -0.17111096     0.02554564    11.00701618
   -0.17109862     0.02551999    11.00701618
   -0.17107439     0.02554841    11.00701714
20MABNDA000039_PR011
    0.03086460    -0.02417449     3.43347383
    0.03085936    -0.02417310     3.43347383
    0.03086393    -0.02417083     3.43347383
20MABNDB000155_PR020
    0.10166989    -0.00969318     9.20028877
    0.10166744    -0.00964839     9.20028877
    0.10168546    -0.00966411     9.20028877
20MABNDB000155_PR022
   -0.02603932    -0.01805328     1.28070188
   -0.02604093    -0.01805450     1.28070188
   -0.02603856    -0.01805293     1.28070188
20MABNDB000010_PR021
   -0.20490049     0.04114302    11.00636768
   -0.20491555     0.04116482    11.00636673
20MABNDB000010_PR023
    0.00407416     0.02081964     3.43376708
    0.00408316     0.02083034     3.43376708
20MABNDB000069_PR031
    0.10216747    -0.03869873     9.20356369
    0.10226249    -0.03873089     9.20356178
20MABNDB000069_PR033
   -0.02688335    -0.02693493     1.28393984
   -0.02688270    -0.02693573     1.28393984
20MABNDB000131_PR032
   -0.18761745    -0.02938230    11.00642776
   -0.18762037    -0.02938378    11.00642776
20MABNDB000131_PR034
    0.01478084     0.01654910     3.43337440
    0.01477696     0.01654976     3.43337440
20MABNDA000208_PR042
    0.09927545    -0.04559816     9.20172596
    0.09982277    -0.06496776     9.20157623
20MABNDA000208_PR046
   -0.02297873     0.03390990     1.28209758
   -0.02297007     0.03385609     1.28209853
20MABNDA000035_PR044
   -0.18015513     0.02570592    11.00802040
   -0.18012087     0.02568885    11.00802040
20MABNDA000035_PR045
    0.01423277    -0.01961688     3.43483377
    0.01422207    -0.01961269     3.43483377


*****************************************************************coordonnees du prisme dans le repere ATLAS********************************************************************************** 
20MABNDL000077_PR002 0.00000000
    2.80950642    -3.69439888     6.48622084
    2.80028486    -3.70271802     6.48625422
    2.80949306    -3.69442558     6.48622131
20MABNDL000077_PR003 0.00000000
    2.83580041    -3.72377157     6.67526293
    2.83580279    -3.72377086     6.67526293
    2.83581114    -3.72377372     6.67526293
20MABNDL000077_20MABNDM000168 0.00000000
    2.77897978    -3.70638704    -2.68920016
    2.77898717    -3.70638585    -2.68920016
    2.77897835    -3.70637989    -2.68920016
20MABNDL000077_PR024 0.00000000
    2.83050585    -3.68698668    -3.11711526
    2.83049655    -3.68698716    -3.11711526
    2.83048797    -3.68699145    -3.11711526
20MABNDM000020_PR013 0.00000000
   -2.83419299    -3.73582458     6.48627663
   -2.83415103    -3.73583174     6.48627663
   -2.83420968    -3.73580647     6.48627663
20MABNDM000020_PR014 0.00000000
   -2.84708977    -3.67464733     7.43230200
   -2.84713721    -3.67461467     7.43230200
   -2.84710598    -3.67466187     7.43230200
20MABNDM000020_20MABNDL000196 0.00000000
   -2.78292918    -3.75934815    -2.71088576
   -2.78293204    -3.75935388    -2.71088576
   -2.78292990    -3.75935864    -2.71088576
20MABNDM000020_PR035 0.00000000
   -2.84750295    -3.68973660    -3.11707664
   -2.84750986    -3.68973422    -3.11707664
   -2.84752178    -3.68976307    -3.11707759
20MABNDM000168_PR025 0.00000000
    2.79280925    -3.74440813    -6.47932243
    2.77276516    -3.79936552    -6.47853279
    2.78153706    -3.76892900    -6.47906256
20MABNDM000168_PR026 0.00000000
    2.83935261    -3.68758273    -6.67493773
    2.83935547    -3.68757582    -6.67493773
    2.83936048    -3.68758416    -6.67493773
20MABNDM000168_20MABNDL000077 0.00000000
    2.81505966    -3.75345349     2.69822598
    2.81507921    -3.75345588     2.69822598
    2.81505132    -3.75344753     2.69822598
20MABNDM000168_PR001 0.00000000
    2.84048867    -3.68443942     3.12405801
    2.84049821    -3.68444276     3.12405801
    2.84048820    -3.68444347     3.12405801
20MABNDL000196_PR036 0.00000000
   -2.84753537    -3.69291329    -6.47909641
   -2.84752941    -3.69291353    -6.47909641
   -2.84752393    -3.69290686    -6.47909641
20MABNDL000196_PR037 0.00000000
   -2.82519555    -3.76955962    -6.67506552
   -2.82519245    -3.76955056    -6.67506552
   -2.82519817    -3.76954484    -6.67506552
20MABNDL000196_20MABNDM000020 0.00000000
   -2.81546640    -3.75142431     2.68347335
   -2.81546950    -3.75141883     2.68347335
   -2.81547356    -3.75142026     2.68347335
20MABNDL000196_PR012 0.00000000
   -2.83894086    -3.68290663     3.12404227
   -2.83893538    -3.68291569     3.12404227
   -2.83892965    -3.68291163     3.12404227
20MABNDA000318_PR004 0.00000000
    2.61444616    -4.19698811     3.83358359
    2.61444974    -4.19698811     3.83357549
    2.61445189    -4.19698811     3.83357954
20MABNDA000334_PR005 0.00000000
    2.61668110    -4.19703150     5.89752150
    2.61667776    -4.19703150     5.89752102
    2.61667848    -4.19703150     5.89751482
20MABNDB000317_PR015 0.00000000
   -2.61133194    -4.19700670     3.83625793
   -2.61133265    -4.19700670     3.83625817
   -2.61133122    -4.19700623     3.83625221
20MABNDB000146_PR016 0.00000000
   -2.61286521    -4.19702291     5.89878178
   -2.61286640    -4.19702291     5.89878559
   -2.61286354    -4.19702291     5.89877701
20MABNDB000135_PR027 0.00000000
    2.60388923    -4.19700384    -3.82558012
    2.60388613    -4.19700384    -3.82557917
    2.60388708    -4.19700384    -3.82558274
20MABNDB000126_PR028 0.00000000
    2.60560322    -4.19702101    -5.89326191
    2.60560322    -4.19702101    -5.89326096
    2.60560560    -4.19702101    -5.89326239
20MABNDA000272_PR038 0.00000000
   -2.61124849    -4.19698286    -3.82770371
   -2.61125302    -4.19698286    -3.82770443
   -2.61124468    -4.19698286    -3.82770205
20MABNDA000003_PR039 0.00000000
   -2.61574221    -4.19702101    -5.89154482
   -2.61574388    -4.19702101    -5.89154577
   -2.61574459    -4.19702101    -5.89154243
20MABNDA000196_PR006 0.00000000
    2.58456564    -4.19496584     6.54783344
    2.58456659    -4.19496584     6.54783154
    2.58456683    -4.19496584     6.54783058
20MABNDA000324_PR007 0.00000000
    2.59378123    -4.13996840     6.94797564
    2.59378624    -4.13996840     6.94797421
    2.59378862    -4.13996840     6.94797277
20MABNDB000001_PR017 0.00000000
   -2.59816551    -4.19506073     6.53815126
   -2.59816122    -4.19506073     6.53815842
   -2.59816432    -4.19506073     6.53815365
20MABNDB000260_PR019 0.00000000
   -2.60469031    -4.13995981     6.94210434
   -2.60468483    -4.13995981     6.94210339
   -2.60468507    -4.13995981     6.94211054
20MABNDB000212_PR029 0.00000000
    2.59897900    -4.19501019    -6.54745960
    2.59897304    -4.19501019    -6.54745483
    2.59897590    -4.19501019    -6.54745579
20MABNDB000128_PR030 0.00000000
    2.60938716    -4.14002657    -6.93138075
    2.60937786    -4.14002657    -6.93138123
    2.60938382    -4.14002657    -6.93137932
20MABNDA000444_PR040 0.00000000
   -2.60536408    -4.19509983    -6.54014397
   -2.60537100    -4.19509983    -6.54014158
   -2.60536218    -4.19509983    -6.54013872
20MABNDA000053_PR041 0.00000000
   -2.59401107    -4.14012718    -6.92678213
   -2.59398198    -4.14012718    -6.92679071
   -2.59401822    -4.14012671    -6.92680645
20MABNDA000188_PR008 0.00000000
    3.55893064     3.84859109     8.10764503
    3.52420664     3.85074425     7.96562338
    3.55422449     3.84879279     8.09894276
20MABNDA000188_PR018 0.00000000
    3.52094650    -4.07059622     7.89759636
    3.52094746    -4.07059622     7.89759445
    3.52094698    -4.07059622     7.89759445
20MABNDA000039_PR009 0.00000000
    3.87528300     3.64747429    12.93684006
    3.87527061     3.64747429    12.93681431
    3.87524629     3.64747548    12.93684196
20MABNDA000039_PR011 0.00000000
    3.66415954    -3.92580199    12.88466167
    3.66416478    -3.92580199    12.88466358
    3.66416025    -3.92580199    12.88466549
20MABNDB000155_PR020 0.00000000
   -3.68032193     3.84882283     7.89717388
   -3.68031955     3.84882283     7.89721870
   -3.68033767     3.84882283     7.89720297
20MABNDB000155_PR022 0.00000000
   -3.53394103    -4.07044220     7.89000607
   -3.53393936    -4.07044220     7.89000463
   -3.53394175    -4.07044220     7.89000654
20MABNDB000010_PR021 0.00000000
   -3.89080358     3.64708376    12.86071205
   -3.89081860     3.64708281    12.86069012
20MABNDB000010_PR023 0.00000000
   -3.68559265    -3.92560959    12.88445663
   -3.68558383    -3.92560983    12.88444519
20MABNDB000069_PR031 0.00000000
    3.68388414     3.84875822    -7.90170383
    3.68397927     3.84875607    -7.90167189
20MABNDB000069_PR033 0.00000000
    3.53341603    -4.07046318    -7.87873650
    3.53341675    -4.07046318    -7.87873554
20MABNDB000131_PR032 0.00000000
    3.86841989     3.64757776   -12.94002533
    3.86842299     3.64757776   -12.94002628
20MABNDB000131_PR034 0.00000000
    3.67300844    -3.92564249   -12.89139843
    3.67301250    -3.92564249   -12.89139748
20MABNDA000208_PR042 0.00000000
   -3.64932108     3.84936023    -7.95706701
   -3.64985824     3.84920382    -7.97643661
20MABNDA000208_PR046 0.00000000
   -3.53278637    -4.07032442    -7.87460852
   -3.53279495    -4.07032347    -7.87466240
20MABNDA000035_PR044 0.00000000
   -3.86939597     3.64757562   -12.93138504
   -3.86936164     3.64757562   -12.93136787
20MABNDA000035_PR045 0.00000000
   -3.67649555    -3.92565346   -12.88676739
   -3.67650628    -3.92565346   -12.88677120


*****************************************************************Rapport********************************************************************************** 
CAM-LBA-US_EBA-US-HO-H         2018.11.28.16.43.23     2.80642811    -3.69718083     6.48623212     0.00434394     0.00391540     0.00001562 0.00000000 VRAI 
CAM-LBA-US_JDA-US-H            2018.11.28.16.43.23     2.83580478    -3.72377205     6.67526293     0.00000460     0.00000122     0.00000000 0.00000000 VRAI 
CAM-LBA-US_CAM-LBC-US          2018.11.28.16.43.23     2.77898177    -3.70638426    -2.68920016     0.00000387     0.00000313     0.00000000 0.00000000 VRAI 
CAM-LBA-US_EBC-US-IP-H         2018.11.28.16.43.23     2.83049679    -3.68698843    -3.11711526     0.00000730     0.00000214     0.00000000 0.00000000 VRAI 
CAM-LBA-USA_EBA-USA-HO-H       2018.11.28.16.43.23    -2.83418457    -3.73582093     6.48627663     0.00002467     0.00001064     0.00000000 0.00000000 VRAI 
CAM-LBA-USA_JDA-USA-H          2018.11.28.16.43.23    -2.84711099    -3.67464129     7.43230200     0.00001969     0.00001974     0.00000000 0.00000000 VRAI 
CAM-LBA-USA_CAM-LBC-USA        2018.11.28.16.43.23    -2.78293037    -3.75935356    -2.71088576     0.00000122     0.00000429     0.00000000 0.00000000 VRAI 
CAM-LBA-USA_EBC-USA-IP-H       2018.11.28.16.43.23    -2.84751153    -3.68974463    -3.11707695     0.00000778     0.00001307     0.00000045 0.00000000 VRAI 
CAM-LBC-US_EBC-US-HO-H         2018.11.28.16.43.23     2.78237049    -3.77090089    -6.47897259     0.00820416     0.02247954     0.00032859 0.00000000 VRAI 
CAM-LBC-US_JDC-US-H            2018.11.28.16.43.23     2.83935618    -3.68758090    -6.67493773     0.00000325     0.00000364     0.00000000 0.00000000 VRAI 
CAM-LBC-US_CAM-LBA-US          2018.11.28.16.43.23     2.81506340    -3.75345230     2.69822598     0.00001169     0.00000351     0.00000000 0.00000000 VRAI 
CAM-LBC-US_EBA-US-IP-H         2018.11.28.16.43.23     2.84049169    -3.68444188     3.12405801     0.00000461     0.00000177     0.00000000 0.00000000 VRAI 
CAM-LBC-USA_EBC-USA-HO-H       2018.11.28.16.43.23    -2.84752957    -3.69291123    -6.47909641     0.00000467     0.00000309     0.00000000 0.00000000 VRAI 
CAM-LBC-USA_JDC-USA-H          2018.11.28.16.43.23    -2.82519539    -3.76955167    -6.67506552     0.00000234     0.00000609     0.00000000 0.00000000 VRAI 
CAM-LBC-USA_CAM-LBA-USA        2018.11.28.16.43.23    -2.81546982    -3.75142113     2.68347335     0.00000293     0.00000232     0.00000000 0.00000000 VRAI 
CAM-LBC-USA_EBA-USA-IP-H       2018.11.28.16.43.23    -2.83893530    -3.68291132     3.12404227     0.00000458     0.00000371     0.00000000 0.00000000 VRAI 
CAM-EBA-US-IP_EBA-US-IP        2018.11.28.16.43.23     2.61444926    -4.19698811     3.83357954     0.00000236     0.00000000     0.00000331 0.00000000 VRAI 
CAM-EBA-US-HO_EBA-US-HO        2018.11.28.16.43.23     2.61667911    -4.19703150     5.89751911     0.00000143     0.00000000     0.00000304 0.00000000 VRAI 
CAM-EBA-USA-IP_EBA-USA-IP      2018.11.28.16.43.23    -2.61133194    -4.19700654     3.83625611     0.00000058     0.00000022     0.00000276 0.00000000 VRAI 
CAM-EBA-USA-HO_EBA-USA-HO      2018.11.28.16.43.23    -2.61286505    -4.19702291     5.89878146     0.00000117     0.00000000     0.00000351 0.00000000 VRAI 
CAM-EBC-US-IP_EBC-US-IP        2018.11.28.16.43.23     2.60388748    -4.19700384    -3.82558068     0.00000130     0.00000000     0.00000151 0.00000000 VRAI 
CAM-EBC-US-HO_EBC-US-HO        2018.11.28.16.43.23     2.60560401    -4.19702101    -5.89326175     0.00000112     0.00000000     0.00000059 0.00000000 VRAI 
CAM-EBC-USA-IP_EBC-USA-IP      2018.11.28.16.43.23    -2.61124873    -4.19698286    -3.82770340     0.00000341     0.00000000     0.00000100 0.00000000 VRAI 
CAM-EBC-USA-HO_EBC-USA-HO      2018.11.28.16.43.23    -2.61574356    -4.19702101    -5.89154434     0.00000100     0.00000000     0.00000140 0.00000000 VRAI 
CAM-JDA-US-IP_JDA-US-IP        2018.11.28.16.43.23     2.58456635    -4.19496584     6.54783185     0.00000052     0.00000000     0.00000119 0.00000000 VRAI 
CAM-JDA-US-HO_JDA-US-HO        2018.11.28.16.43.23     2.59378537    -4.13996840     6.94797421     0.00000308     0.00000000     0.00000117 0.00000000 VRAI 
CAM-JDA-USA-IP_JDA-USA-IP      2018.11.28.16.43.23    -2.59816368    -4.19506073     6.53815444     0.00000181     0.00000000     0.00000297 0.00000000 VRAI 
CAM-JDA-USA-HO_JDA-USA-HO      2018.11.28.16.43.23    -2.60468674    -4.13995981     6.94210609     0.00000253     0.00000000     0.00000317 0.00000000 VRAI 
CAM-JDC-US-IP_JDC-US-IP        2018.11.28.16.43.23     2.59897598    -4.19501019    -6.54745674     0.00000243     0.00000000     0.00000206 0.00000000 VRAI 
CAM-JDC-US-HO_JDC-US-HO        2018.11.28.16.43.23     2.60938295    -4.14002657    -6.93138043     0.00000385     0.00000000     0.00000081 0.00000000 VRAI 
CAM-JDC-USA-IP_JDC-USA-IP      2018.11.28.16.43.23    -2.60536575    -4.19509983    -6.54014142     0.00000379     0.00000000     0.00000214 0.00000000 VRAI 
CAM-JDC-USA-HO_JDC-USA-HO      2018.11.28.16.43.23    -2.59400376    -4.14012702    -6.92679310     0.00001567     0.00000022     0.00001007 0.00000000 VRAI 
CAM-ECTA-US-IP_ECTA-US-IP-T    2018.11.28.16.43.23     3.54578725     3.84937604     8.05740372     0.01538027     0.00097096     0.06499567 0.00000000 VRAI 
CAM-ECTA-US-IP_ECTA-US-IP      2018.11.28.16.43.23     3.52094698    -4.07059622     7.89759509     0.00000039     0.00000000     0.00000090 0.00000000 VRAI 
CAM-ECTA-US-HO_ECTA-US-HO-T    2018.11.28.16.43.23     3.87526663     3.64747469    12.93683211     0.00001525     0.00000056     0.00001261 0.00000000 VRAI 
CAM-ECTA-US-HO_ECTA-US-HO      2018.11.28.16.43.23     3.66416152    -3.92580199    12.88466358     0.00000232     0.00000000     0.00000156 0.00000000 VRAI 
CAM-ECTA-USA-IP_ECTA-USA-IP-T  2018.11.28.16.43.23    -3.68032638     3.84882283     7.89719852     0.00000804     0.00000000     0.00001857 0.00000000 VRAI 
CAM-ECTA-USA-IP_ECTA-USA-IP    2018.11.28.16.43.23    -3.53394071    -4.07044220     7.89000575     0.00000100     0.00000000     0.00000081 0.00000000 VRAI 
CAM-ECTA-USA-HO_ECTA-USA-HO-T  2018.11.28.16.43.23    -3.89081109     3.64708328    12.86070108     0.00000751     0.00000048     0.00001097 0.00000000 VRAI 
CAM-ECTA-USA-HO_ECTA-USA-HO    2018.11.28.16.43.23    -3.68558824    -3.92560971    12.88445091     0.00000441     0.00000012     0.00000572 0.00000000 VRAI 
CAM-ECTC-US-IP_ECTC-US-IP-T    2018.11.28.16.43.23     3.68393171     3.84875715    -7.90168786     0.00004756     0.00000107     0.00001597 0.00000000 VRAI 
CAM-ECTC-US-IP_ECTC-US-IP      2018.11.28.16.43.23     3.53341639    -4.07046318    -7.87873602     0.00000036     0.00000000     0.00000048 0.00000000 VRAI 
CAM-ECTC-US-HO_ECTC-US-HO-T    2018.11.28.16.43.23     3.86842144     3.64757776   -12.94002581     0.00000155     0.00000000     0.00000048 0.00000000 VRAI 
CAM-ECTC-US-HO_ECTC-US-HO      2018.11.28.16.43.23     3.67301047    -3.92564249   -12.89139795     0.00000203     0.00000000     0.00000048 0.00000000 VRAI 
CAM-ECTC-USA-IP_ECTC-USA-IP-T  2018.11.28.16.43.23    -3.64958966     3.84928203    -7.96675181     0.00026858     0.00007820     0.00968480 0.00000000 VRAI 
CAM-ECTC-USA-IP_ECTC-USA-IP    2018.11.28.16.43.23    -3.53279066    -4.07032394    -7.87463546     0.00000429     0.00000048     0.00002694 0.00000000 VRAI 
CAM-ECTC-USA-HO_ECTC-USA-HO-T  2018.11.28.16.43.23    -3.86937881     3.64757562   -12.93137646     0.00001717     0.00000000     0.00000858 0.00000000 VRAI 
CAM-ECTC-USA-HO_ECTC-USA-HO    2018.11.28.16.43.23    -3.67650092    -3.92565346   -12.88676929     0.00000536     0.00000000     0.00000191 0.00000000 VRAI 
