********** Fichier qui contient une sauvegarde des coordonnees images + coordonnees images transformees dans le repere BCAM (MOUNT) + coordonnees des prismes dans le repere MOUNT********** 
********************************************************************** Unite en metres (m)************************************************************************************************** 

*******************************************************************coordonnees images dans le repere CCD *********************************************************************************** 
20MABNDL000077_PR002
Spot 1     0.00121581     0.00150036
Spot 2     0.00086500     0.00006500
Spot 1     0.00052500     0.00043500
Spot 2     0.00086500     0.00006500
Spot 1     0.00052500     0.00043500
Spot 2     0.00052500     0.00043500
20MABNDL000077_PR003
Spot 1     0.00138757     0.00148707
Spot 2     0.00153717     0.00148877
Spot 1     0.00138762     0.00148713
Spot 2     0.00153719     0.00148872
Spot 1     0.00138764     0.00148695
Spot 2     0.00153740     0.00148876
20MABNDL000077_20MABNDM000168
Spot 1     0.00175763     0.00118470
Spot 2     0.00075500     0.00010500
Spot 1     0.00175694     0.00118455
Spot 2     0.00075500     0.00010500
Spot 1     0.00175692     0.00118462
Spot 2     0.00075500     0.00010500
20MABNDL000077_PR024
Spot 1     0.00254620     0.00144769
Spot 2     0.00264557     0.00145552
Spot 1     0.00254630     0.00144760
Spot 2     0.00264546     0.00145541
Spot 1     0.00254628     0.00144761
Spot 2     0.00264555     0.00145537
20MABNDM000020_PR013
Spot 1     0.00162696     0.00152739
Spot 2     0.00147438     0.00153435
Spot 1     0.00162603     0.00152762
Spot 2     0.00147301     0.00153364
Spot 1     0.00162656     0.00152773
Spot 2     0.00147297     0.00153372
20MABNDM000020_PR014
Spot 1     0.00265762     0.00168884
Spot 2     0.00249741     0.00169401
Spot 1     0.00265911     0.00169081
Spot 2     0.00249792     0.00169577
Spot 1     0.00265830     0.00168983
Spot 2     0.00249678     0.00169367
20MABNDM000020_20MABNDL000196
Spot 1     0.00197660     0.00117829
Spot 2     0.00230500     0.00010500
Spot 1     0.00197644     0.00117831
Spot 2     0.00230500     0.00010500
Spot 1     0.00197645     0.00117819
Spot 2     0.00230500     0.00010500
20MABNDM000020_PR035
Spot 1     0.00126869     0.00149602
Spot 2     0.00118680     0.00153151
Spot 1     0.00126883     0.00149649
Spot 2     0.00118690     0.00153150
Spot 1     0.00126867     0.00149652
Spot 2     0.00118669     0.00153150
20MABNDM000168_PR025
Spot 1     0.00176500     0.00006500
Spot 2     0.00176500     0.00006500
Spot 1     0.00176500     0.00006500
Spot 2     0.00176500     0.00006500
Spot 1     0.00176500     0.00006500
Spot 2     0.00176500     0.00006500
20MABNDM000168_PR026
Spot 1     0.00266664     0.00143028
Spot 2     0.00250536     0.00142668
Spot 1     0.00266691     0.00143052
Spot 2     0.00250529     0.00142706
Spot 1     0.00266698     0.00143037
Spot 2     0.00250547     0.00142652
20MABNDM000168_20MABNDL000077
Spot 1     0.00154137     0.00130062
Spot 2     0.00175826     0.00130609
Spot 1     0.00154145     0.00130076
Spot 2     0.00175793     0.00130518
Spot 1     0.00154125     0.00130070
Spot 2     0.00175774     0.00130487
20MABNDM000168_PR001
Spot 1     0.00080815     0.00161869
Spot 2     0.00070575     0.00162080
Spot 1     0.00080804     0.00161865
Spot 2     0.00070603     0.00162084
Spot 1     0.00080807     0.00161852
Spot 2     0.00070600     0.00162067
20MABNDL000196_PR036
Spot 1     0.00094570     0.00163711
Spot 2     0.00111034     0.00163670
Spot 1     0.00094571     0.00163707
Spot 2     0.00111028     0.00163631
Spot 1     0.00094578     0.00163707
Spot 2     0.00111037     0.00163617
20MABNDL000196_PR037
Spot 1     0.00246745     0.00117152
Spot 2     0.00262236     0.00117007
Spot 1     0.00246707     0.00117175
Spot 2     0.00262245     0.00117004
Spot 1     0.00246698     0.00117183
Spot 2     0.00262238     0.00117017
20MABNDL000196_20MABNDM000020
Spot 1     0.00192552     0.00104151
Spot 2     0.00170449     0.00104668
Spot 1     0.00192552     0.00104168
Spot 2     0.00170470     0.00104714
Spot 1     0.00192549     0.00104174
Spot 2     0.00170470     0.00104708
20MABNDL000196_PR012
Spot 1     0.00265122     0.00134204
Spot 2     0.00272319     0.00138795
Spot 1     0.00265143     0.00134241
Spot 2     0.00272314     0.00138796
Spot 1     0.00265140     0.00134253
Spot 2     0.00272308     0.00138800
20MABNDA000318_PR004
Spot 1     0.00192500     0.00162715
Spot 2     0.00214328     0.00162703
Spot 1     0.00192488     0.00162707
Spot 2     0.00214318     0.00162690
Spot 1     0.00192488     0.00162701
Spot 2     0.00214314     0.00162643
20MABNDA000334_PR005
Spot 1     0.00247201     0.00158805
Spot 2     0.00219148     0.00158844
Spot 1     0.00247201     0.00158804
Spot 2     0.00219159     0.00158850
Spot 1     0.00247221     0.00158800
Spot 2     0.00219175     0.00158865
20MABNDB000317_PR015
Spot 1     0.00170418     0.00158781
Spot 2     0.00148462     0.00159422
Spot 1     0.00170404     0.00158778
Spot 2     0.00148471     0.00159396
Spot 1     0.00170410     0.00158793
Spot 2     0.00148451     0.00159374
20MABNDB000146_PR016
Spot 1     0.00144370     0.00132490
Spot 2     0.00171981     0.00132658
Spot 1     0.00144368     0.00132495
Spot 2     0.00171972     0.00132645
Spot 1     0.00144371     0.00132487
Spot 2     0.00171981     0.00132654
20MABNDB000135_PR027
Spot 1     0.00189013     0.00091428
Spot 2     0.00210837     0.00091592
Spot 1     0.00189002     0.00091436
Spot 2     0.00210822     0.00091582
Spot 1     0.00189010     0.00091440
Spot 2     0.00210818     0.00091585
20MABNDB000126_PR028
Spot 1     0.00164350     0.00200881
Spot 2     0.00192608     0.00201063
Spot 1     0.00164363     0.00200881
Spot 2     0.00192597     0.00201063
Spot 1     0.00164350     0.00200889
Spot 2     0.00192607     0.00201069
20MABNDA000272_PR038
Spot 1     0.00192140     0.00095023
Spot 2     0.00170071     0.00094938
Spot 1     0.00192132     0.00095026
Spot 2     0.00170033     0.00094957
Spot 1     0.00192154     0.00095036
Spot 2     0.00170042     0.00094967
20MABNDA000003_PR039
Spot 1     0.00199903     0.00192551
Spot 2     0.00227775     0.00192683
Spot 1     0.00199910     0.00192546
Spot 2     0.00227756     0.00192714
Spot 1     0.00199926     0.00192545
Spot 2     0.00227759     0.00192690
20MABNDA000196_PR006
Spot 1     0.00199889     0.00072662
Spot 2     0.00163265     0.00072447
Spot 1     0.00199878     0.00072673
Spot 2     0.00163288     0.00072462
Spot 1     0.00199890     0.00072650
Spot 2     0.00163255     0.00072425
20MABNDA000324_PR007
Spot 1     0.00173558     0.00122061
Spot 2     0.00194123     0.00121488
Spot 1     0.00173535     0.00122082
Spot 2     0.00194119     0.00121494
Spot 1     0.00173530     0.00122080
Spot 2     0.00194131     0.00121494
20MABNDB000001_PR017
Spot 1     0.00190276     0.00043892
Spot 2     0.00227167     0.00044690
Spot 1     0.00190267     0.00043887
Spot 2     0.00227145     0.00044726
Spot 1     0.00190263     0.00043891
Spot 2     0.00227145     0.00044710
20MABNDB000260_PR019
Spot 1     0.00191438     0.00150661
Spot 2     0.00211786     0.00150643
Spot 1     0.00191437     0.00150621
Spot 2     0.00211781     0.00150640
Spot 1     0.00191435     0.00150653
Spot 2     0.00211826     0.00150609
20MABNDB000212_PR029
Spot 1     0.00222884     0.00070066
Spot 2     0.00186888     0.00070112
Spot 1     0.00222893     0.00070080
Spot 2     0.00186844     0.00070139
Spot 1     0.00222885     0.00070069
Spot 2     0.00186865     0.00070103
20MABNDB000128_PR030
Spot 1     0.00190513     0.00199939
Spot 2     0.00211052     0.00199440
Spot 1     0.00190513     0.00199969
Spot 2     0.00211063     0.00199430
Spot 1     0.00190504     0.00199962
Spot 2     0.00211043     0.00199439
20MABNDA000444_PR040
Spot 1     0.00074590     0.00035425
Spot 2     0.00111318     0.00035197
Spot 1     0.00074574     0.00035426
Spot 2     0.00111328     0.00035172
Spot 1     0.00074601     0.00035415
Spot 2     0.00111359     0.00035219
20MABNDA000053_PR041
Spot 1     0.00166065     0.00199004
Spot 2     0.00144527     0.00199040
Spot 1     0.00166076     0.00198967
Spot 2     0.00144519     0.00199024
Spot 1     0.00165983     0.00199031
Spot 2     0.00144412     0.00199133
20MABNDA000188_PR008
Spot 1     0.00297500     0.00011500
Spot 2     0.00303500     0.00230500
Spot 1     0.00297500     0.00011500
Spot 2     0.00297500     0.00011500
Spot 1     0.00297500     0.00011500
Spot 2     0.00297500     0.00011500
20MABNDA000188_PR018
Spot 1     0.00169669     0.00173805
Spot 2     0.00122989     0.00173397
Spot 1     0.00169684     0.00173805
Spot 2     0.00122991     0.00173386
Spot 1     0.00169686     0.00173777
Spot 2     0.00123000     0.00173413
20MABNDA000039_PR009
Spot 1     0.00066442     0.00117969
Spot 2     0.00061634     0.00118422
Spot 1     0.00066427     0.00117990
Spot 2     0.00061627     0.00118410
Spot 1     0.00066368     0.00118014
Spot 2     0.00061592     0.00118412
20MABNDA000039_PR011
Spot 1     0.00276965     0.00029123
Spot 2     0.00259422     0.00028598
Spot 1     0.00276985     0.00029133
Spot 2     0.00259426     0.00028605
Spot 1     0.00276987     0.00029158
Spot 2     0.00259428     0.00028602
20MABNDB000155_PR020
Spot 1     0.00062406     0.00113644
Spot 2     0.00068894     0.00113108
Spot 1     0.00062390     0.00113573
Spot 2     0.00068892     0.00113101
Spot 1     0.00062378     0.00113588
Spot 2     0.00068851     0.00113133
20MABNDB000155_PR022
Spot 1     0.00213809     0.00142720
Spot 2     0.00261060     0.00142246
Spot 1     0.00213801     0.00142728
Spot 2     0.00261061     0.00142243
Spot 1     0.00213813     0.00142731
Spot 2     0.00261060     0.00142246
20MABNDB000010_PR021
Spot 1     0.00287226     0.00114917
Spot 2     0.00276500     0.00010700
Spot 1     0.00287272     0.00114907
Spot 2     0.00268750     0.00037750
Spot 1     0.00287270     0.00114917
Spot 2     0.00268750     0.00037750
20MABNDB000010_PR023
Spot 1     0.00131760     0.00030200
Spot 2     0.00149412     0.00030188
Spot 1     0.00131737     0.00030202
Spot 2     0.00149392     0.00030176
Spot 1     0.00131752     0.00030203
Spot 2     0.00149410     0.00030173
20MABNDB000069_PR031
Spot 1     0.00028296     0.00140573
Spot 2     0.00035621     0.00140491
Spot 1     0.00028257     0.00140560
Spot 2     0.00035545     0.00140478
20MABNDB000069_PR033
Spot 1     0.00182589     0.00206646
Spot 2     0.00229661     0.00208730
Spot 1     0.00182614     0.00206673
Spot 2     0.00229631     0.00208689
20MABNDB000131_PR032
Spot 1     0.00277432     0.00107545
Spot 2     0.00283496     0.00107859
Spot 1     0.00277446     0.00107559
Spot 2     0.00283500     0.00107850
20MABNDB000131_PR034
Spot 1     0.00091405     0.00032365
Spot 2     0.00109052     0.00032416
Spot 1     0.00091388     0.00032371
Spot 2     0.00109069     0.00032403
20MABNDA000208_PR042
Spot 1     0.00263879     0.00045190
Spot 2     0.00282900     0.00062900
Spot 1     0.00263833     0.00045200
Spot 2     0.00310500     0.00053500
20MABNDA000208_PR046
Spot 1     0.00143860     0.00225692
Spot 2     0.00096891     0.00203196
Spot 1     0.00143893     0.00225733
Spot 2     0.00140773     0.00199045
20MABNDA000035_PR044
Spot 1     0.00073743     0.00125032
Spot 2     0.00067898     0.00124465
Spot 1     0.00073752     0.00125050
Spot 2     0.00067899     0.00124448
20MABNDA000035_PR045
Spot 1     0.00253678     0.00045861
Spot 2     0.00236006     0.00045701
Spot 1     0.00253681     0.00045848
Spot 2     0.00235991     0.00045676


****************************************************************coordonnees images transformees dans le repere MOUNT************************************************************************* 
20MABNDL000077_PR002
Spot 1     0.01228612     0.03557178    -0.07463200
Spot 2     0.01192151     0.03413986    -0.07463200
Spot 1     0.01158509     0.03451311    -0.07463200
Spot 2     0.01192151     0.03413986    -0.07463200
Spot 1     0.01158509     0.03451311    -0.07463200
Spot 2     0.01158509     0.03451311    -0.07463200
20MABNDL000077_PR003
Spot 1     0.01245774     0.03555684    -0.07463200
Spot 2     0.01260735     0.03555710    -0.07463200
Spot 1     0.01245779     0.03555690    -0.07463200
Spot 2     0.01260737     0.03555705    -0.07463200
Spot 1     0.01245781     0.03555671    -0.07463200
Spot 2     0.01260758     0.03555708    -0.07463200
20MABNDL000077_20MABNDM000168
Spot 1    -0.01259278     0.03524768    -0.00695400
Spot 2    -0.01157915     0.03417830    -0.00695400
Spot 1    -0.01259209     0.03524754    -0.00695400
Spot 2    -0.01157915     0.03417830    -0.00695400
Spot 1    -0.01259207     0.03524761    -0.00695400
Spot 2    -0.01157915     0.03417830    -0.00695400
20MABNDL000077_PR024
Spot 1    -0.01338400     0.03550258    -0.00695400
Spot 2    -0.01348344     0.03550940    -0.00695400
Spot 1    -0.01338410     0.03550249    -0.00695400
Spot 2    -0.01348333     0.03550929    -0.00695400
Spot 1    -0.01338408     0.03550250    -0.00695400
Spot 2    -0.01348342     0.03550925    -0.00695400
20MABNDM000020_PR013
Spot 1    -0.01273197    -0.03548608    -0.00523500
Spot 2    -0.01288436    -0.03549641    -0.00523500
Spot 1    -0.01273290    -0.03548633    -0.00523500
Spot 2    -0.01288575    -0.03549573    -0.00523500
Spot 1    -0.01273236    -0.03548642    -0.00523500
Spot 2    -0.01288578    -0.03549581    -0.00523500
20MABNDM000020_PR014
Spot 1    -0.01169799    -0.03562469    -0.00523500
Spot 2    -0.01185805    -0.03563341    -0.00523500
Spot 1    -0.01169646    -0.03562663    -0.00523500
Spot 2    -0.01185750    -0.03563515    -0.00523500
Spot 1    -0.01169729    -0.03562567    -0.00523500
Spot 2    -0.01185869    -0.03563308    -0.00523500
20MABNDM000020_20MABNDL000196
Spot 1     0.01270968    -0.03514685    -0.07583800
Spot 2     0.01238113    -0.03407361    -0.07583800
Spot 1     0.01270984    -0.03514687    -0.07583800
Spot 2     0.01238113    -0.03407361    -0.07583800
Spot 1     0.01270983    -0.03514675    -0.07583800
Spot 2     0.01238113    -0.03407361    -0.07583800
20MABNDM000020_PR035
Spot 1     0.01341763    -0.03546449    -0.07583800
Spot 2     0.01349953    -0.03549996    -0.07583800
Spot 1     0.01341749    -0.03546496    -0.07583800
Spot 2     0.01349943    -0.03549995    -0.07583800
Spot 1     0.01341765    -0.03546499    -0.07583800
Spot 2     0.01349964    -0.03549995    -0.07583800
20MABNDM000168_PR025
Spot 1    -0.01264319    -0.03439967    -0.00532900
Spot 2    -0.01264319    -0.03439967    -0.00532900
Spot 1    -0.01264319    -0.03439967    -0.00532900
Spot 2    -0.01264319    -0.03439967    -0.00532900
Spot 1    -0.01264319    -0.03439967    -0.00532900
Spot 2    -0.01264319    -0.03439967    -0.00532900
20MABNDM000168_PR026
Spot 1    -0.01173569    -0.03576106    -0.00532900
Spot 2    -0.01189698    -0.03575816    -0.00532900
Spot 1    -0.01173542    -0.03576130    -0.00532900
Spot 2    -0.01189705    -0.03575854    -0.00532900
Spot 1    -0.01173535    -0.03576115    -0.00532900
Spot 2    -0.01189688    -0.03575800    -0.00532900
20MABNDM000168_20MABNDL000077
Spot 1     0.01288408    -0.03530125    -0.07445100
Spot 2     0.01266714    -0.03530355    -0.07445100
Spot 1     0.01288400    -0.03530139    -0.07445100
Spot 2     0.01266748    -0.03530265    -0.07445100
Spot 1     0.01288420    -0.03530134    -0.07445100
Spot 2     0.01266767    -0.03530234    -0.07445100
20MABNDM000168_PR001
Spot 1     0.01361257    -0.03563002    -0.07445100
Spot 2     0.01371493    -0.03563363    -0.07445100
Spot 1     0.01361268    -0.03562998    -0.07445100
Spot 2     0.01371465    -0.03563366    -0.07445100
Spot 1     0.01361265    -0.03562985    -0.07445100
Spot 2     0.01371468    -0.03563349    -0.07445100
20MABNDL000196_PR036
Spot 1     0.01192563     0.03582581    -0.07483600
Spot 2     0.01209027     0.03582574    -0.07483600
Spot 1     0.01192564     0.03582577    -0.07483600
Spot 2     0.01209021     0.03582535    -0.07483600
Spot 1     0.01192571     0.03582577    -0.07483600
Spot 2     0.01209030     0.03582521    -0.07483600
20MABNDL000196_PR037
Spot 1     0.01344835     0.03536339    -0.07483600
Spot 2     0.01360326     0.03536226    -0.07483600
Spot 1     0.01344797     0.03536362    -0.07483600
Spot 2     0.01360335     0.03536224    -0.07483600
Spot 1     0.01344788     0.03536370    -0.07483600
Spot 2     0.01360328     0.03536237    -0.07483600
20MABNDL000196_20MABNDM000020
Spot 1    -0.01274957     0.03531272    -0.00611000
Spot 2    -0.01252869     0.03532234    -0.00611000
Spot 1    -0.01274957     0.03531289    -0.00611000
Spot 2    -0.01252891     0.03532279    -0.00611000
Spot 1    -0.01274954     0.03531295    -0.00611000
Spot 2    -0.01252891     0.03532273    -0.00611000
20MABNDL000196_PR012
Spot 1    -0.01348117     0.03559859    -0.00611000
Spot 2    -0.01355405     0.03564304    -0.00611000
Spot 1    -0.01348139     0.03559895    -0.00611000
Spot 2    -0.01355400     0.03564305    -0.00611000
Spot 1    -0.01348136     0.03559907    -0.00611000
Spot 2    -0.01355394     0.03564309    -0.00611000
20MABNDA000318_PR004
Spot 1    -0.01264482     0.01246873    -0.07310600
Spot 2    -0.01286310     0.01246821    -0.07310600
Spot 1    -0.01264470     0.01246881    -0.07310600
Spot 2    -0.01286300     0.01246834    -0.07310600
Spot 1    -0.01264470     0.01246887    -0.07310600
Spot 2    -0.01286296     0.01246881    -0.07310600
20MABNDA000334_PR005
Spot 1    -0.01311512     0.01254034    -0.07324100
Spot 2    -0.01283459     0.01253969    -0.07324100
Spot 1    -0.01311512     0.01254035    -0.07324100
Spot 2    -0.01283470     0.01253963    -0.07324100
Spot 1    -0.01311532     0.01254039    -0.07324100
Spot 2    -0.01283486     0.01253948    -0.07324100
20MABNDB000317_PR015
Spot 1    -0.01244998    -0.01250771    -0.07326100
Spot 2    -0.01266960    -0.01250386    -0.07326100
Spot 1    -0.01245012    -0.01250775    -0.07326100
Spot 2    -0.01266951    -0.01250412    -0.07326100
Spot 1    -0.01245006    -0.01250759    -0.07326100
Spot 2    -0.01266971    -0.01250434    -0.07326100
20MABNDB000146_PR016
Spot 1    -0.01276464    -0.01246871    -0.07450500
Spot 2    -0.01248854    -0.01246642    -0.07450500
Spot 1    -0.01276466    -0.01246866    -0.07450500
Spot 2    -0.01248863    -0.01246655    -0.07450500
Spot 1    -0.01276463    -0.01246874    -0.07450500
Spot 2    -0.01248854    -0.01246646    -0.07450500
20MABNDB000135_PR027
Spot 1    -0.01251456    -0.01319873    -0.07464700
Spot 2    -0.01229632    -0.01319952    -0.07464700
Spot 1    -0.01251467    -0.01319865    -0.07464700
Spot 2    -0.01229647    -0.01319962    -0.07464700
Spot 1    -0.01251459    -0.01319861    -0.07464700
Spot 2    -0.01229651    -0.01319959    -0.07464700
20MABNDB000126_PR028
Spot 1    -0.01253603    -0.01217337    -0.07500400
Spot 2    -0.01225347    -0.01217004    -0.07500400
Spot 1    -0.01253590    -0.01217337    -0.07500400
Spot 2    -0.01225358    -0.01217004    -0.07500400
Spot 1    -0.01253603    -0.01217329    -0.07500400
Spot 2    -0.01225348    -0.01216998    -0.07500400
20MABNDA000272_PR038
Spot 1    -0.01275705     0.01316123    -0.07417900
Spot 2    -0.01253636     0.01316169    -0.07417900
Spot 1    -0.01275697     0.01316120    -0.07417900
Spot 2    -0.01253598     0.01316150    -0.07417900
Spot 1    -0.01275719     0.01316110    -0.07417900
Spot 2    -0.01253607     0.01316140    -0.07417900
20MABNDA000003_PR039
Spot 1    -0.01280011     0.01212675    -0.07373400
Spot 2    -0.01307884     0.01212614    -0.07373400
Spot 1    -0.01280018     0.01212680    -0.07373400
Spot 2    -0.01307865     0.01212583    -0.07373400
Spot 1    -0.01280034     0.01212681    -0.07373400
Spot 2    -0.01307868     0.01212607    -0.07373400
20MABNDA000196_PR006
Spot 1    -0.01295356     0.01325177    -0.07967100
Spot 2    -0.01258732     0.01324921    -0.07967100
Spot 1    -0.01295345     0.01325166    -0.07967100
Spot 2    -0.01258756     0.01324906    -0.07967100
Spot 1    -0.01295357     0.01325189    -0.07967100
Spot 2    -0.01258722     0.01324943    -0.07967100
20MABNDA000324_PR007
Spot 1    -0.01234123     0.01280262    -0.07446800
Spot 2    -0.01254692     0.01280675    -0.07446800
Spot 1    -0.01234100     0.01280241    -0.07446800
Spot 2    -0.01254688     0.01280669    -0.07446800
Spot 1    -0.01234095     0.01280243    -0.07446800
Spot 2    -0.01254700     0.01280668    -0.07446800
20MABNDB000001_PR017
Spot 1    -0.01228560    -0.01355077    -0.07418400
Spot 2    -0.01191663    -0.01354670    -0.07418400
Spot 1    -0.01228569    -0.01355082    -0.07418400
Spot 2    -0.01191684    -0.01354633    -0.07418400
Spot 1    -0.01228573    -0.01355078    -0.07418400
Spot 2    -0.01191684    -0.01354649    -0.07418400
20MABNDB000260_PR019
Spot 1    -0.01241704    -0.01239610    -0.07492700
Spot 2    -0.01221360    -0.01239211    -0.07492700
Spot 1    -0.01241704    -0.01239650    -0.07492700
Spot 2    -0.01221365    -0.01239214    -0.07492700
Spot 1    -0.01241707    -0.01239618    -0.07492700
Spot 2    -0.01221319    -0.01239244    -0.07492700
20MABNDB000212_PR029
Spot 1    -0.01185901    -0.01328056    -0.07390500
Spot 2    -0.01221894    -0.01327625    -0.07390500
Spot 1    -0.01185892    -0.01328042    -0.07390500
Spot 2    -0.01221938    -0.01327598    -0.07390500
Spot 1    -0.01185900    -0.01328053    -0.07390500
Spot 2    -0.01221917    -0.01327634    -0.07390500
20MABNDB000128_PR030
Spot 1    -0.01244999    -0.01221791    -0.07353400
Spot 2    -0.01224458    -0.01222219    -0.07353400
Spot 1    -0.01244999    -0.01221761    -0.07353400
Spot 2    -0.01224447    -0.01222229    -0.07353400
Spot 1    -0.01245008    -0.01221768    -0.07353400
Spot 2    -0.01224467    -0.01222220    -0.07353400
20MABNDA000444_PR040
Spot 1    -0.01168572     0.01367556    -0.07412000
Spot 2    -0.01205300     0.01367317    -0.07412000
Spot 1    -0.01168556     0.01367555    -0.07412000
Spot 2    -0.01205311     0.01367342    -0.07412000
Spot 1    -0.01168584     0.01367565    -0.07412000
Spot 2    -0.01205341     0.01367295    -0.07412000
20MABNDA000053_PR041
Spot 1    -0.01241730     0.01212057    -0.07430100
Spot 2    -0.01220197     0.01211600    -0.07430100
Spot 1    -0.01241740     0.01212094    -0.07430100
Spot 2    -0.01220188     0.01211616    -0.07430100
Spot 1    -0.01241649     0.01212028    -0.07430100
Spot 2    -0.01220084     0.01211505    -0.07430100
20MABNDA000188_PR008
Spot 1    -0.01399107     0.01394961    -0.07502000
Spot 2    -0.01406982     0.01176021    -0.07502000
Spot 1    -0.01399107     0.01394961    -0.07502000
Spot 2    -0.01399107     0.01394961    -0.07502000
Spot 1    -0.01399107     0.01394961    -0.07502000
Spot 2    -0.01399107     0.01394961    -0.07502000
20MABNDA000188_PR018
Spot 1    -0.01272670     0.01231567    -0.07502000
Spot 2    -0.01225989     0.01231576    -0.07502000
Spot 1    -0.01272685     0.01231568    -0.07502000
Spot 2    -0.01225991     0.01231587    -0.07502000
Spot 1    -0.01272687     0.01231596    -0.07502000
Spot 2    -0.01226000     0.01231560    -0.07502000
20MABNDA000039_PR009
Spot 1    -0.01162657     0.01306445    -0.07444800
Spot 2    -0.01157851     0.01305971    -0.07444800
Spot 1    -0.01162642     0.01306424    -0.07444800
Spot 2    -0.01157844     0.01305983    -0.07444800
Spot 1    -0.01162583     0.01306399    -0.07444800
Spot 2    -0.01157809     0.01305981    -0.07444800
20MABNDA000039_PR011
Spot 1    -0.01372793     0.01396201    -0.07444800
Spot 2    -0.01355248     0.01396650    -0.07444800
Spot 1    -0.01372813     0.01396191    -0.07444800
Spot 2    -0.01355252     0.01396643    -0.07444800
Spot 1    -0.01372816     0.01396166    -0.07444800
Spot 2    -0.01355254     0.01396646    -0.07444800
20MABNDB000155_PR020
Spot 1    -0.01364219    -0.01312087    -0.07501700
Spot 2    -0.01357724    -0.01312534    -0.07501700
Spot 1    -0.01364234    -0.01312159    -0.07501700
Spot 2    -0.01357726    -0.01312541    -0.07501700
Spot 1    -0.01364246    -0.01312144    -0.07501700
Spot 2    -0.01357768    -0.01312510    -0.07501700
20MABNDB000155_PR022
Spot 1    -0.01213228    -0.01280941    -0.07501700
Spot 2    -0.01165975    -0.01280768    -0.07501700
Spot 1    -0.01213236    -0.01280933    -0.07501700
Spot 2    -0.01165974    -0.01280771    -0.07501700
Spot 1    -0.01213225    -0.01280930    -0.07501700
Spot 2    -0.01165975    -0.01280768    -0.07501700
20MABNDB000010_PR021
Spot 1    -0.01157868    -0.01292928    -0.07358200
Spot 2    -0.01166827    -0.01397312    -0.07358200
Spot 1    -0.01157822    -0.01292937    -0.07358200
Spot 2    -0.01175034    -0.01370397    -0.07358200
Spot 1    -0.01157824    -0.01292927    -0.07358200
Spot 2    -0.01175034    -0.01370397    -0.07358200
20MABNDB000010_PR023
Spot 1    -0.01311877    -0.01380267    -0.07358200
Spot 2    -0.01294227    -0.01379980    -0.07358200
Spot 1    -0.01311900    -0.01380265    -0.07358200
Spot 2    -0.01294247    -0.01379992    -0.07358200
Spot 1    -0.01311885    -0.01380264    -0.07358200
Spot 2    -0.01294229    -0.01379995    -0.07358200
20MABNDB000069_PR031
Spot 1    -0.01359326    -0.01286189    -0.07388500
Spot 2    -0.01352011    -0.01286573    -0.07388500
Spot 1    -0.01359366    -0.01286200    -0.07388500
Spot 2    -0.01352087    -0.01286583    -0.07388500
20MABNDB000069_PR033
Spot 1    -0.01202438    -0.01226539    -0.07388500
Spot 2    -0.01155320    -0.01226400    -0.07388500
Spot 1    -0.01202412    -0.01226513    -0.07388500
Spot 2    -0.01155352    -0.01226439    -0.07388500
20MABNDB000131_PR032
Spot 1    -0.01144582    -0.01303932    -0.07533000
Spot 2    -0.01138520    -0.01303587    -0.07533000
Spot 1    -0.01144568    -0.01303918    -0.07533000
Spot 2    -0.01138515    -0.01303596    -0.07533000
20MABNDB000131_PR034
Spot 1    -0.01330228    -0.01380047    -0.07533000
Spot 2    -0.01312581    -0.01379908    -0.07533000
Spot 1    -0.01330245    -0.01380041    -0.07533000
Spot 2    -0.01312564    -0.01379920    -0.07533000
20MABNDA000208_PR042
Spot 1    -0.01350995     0.01354449    -0.07273700
Spot 2    -0.01370000     0.01336722    -0.07273700
Spot 1    -0.01350949     0.01354439    -0.07273700
Spot 2    -0.01397609     0.01346098    -0.07273700
20MABNDA000208_PR046
Spot 1    -0.01230818     0.01174052    -0.07273700
Spot 2    -0.01183868     0.01196589    -0.07273700
Spot 1    -0.01230851     0.01174011    -0.07273700
Spot 2    -0.01227754     0.01200702    -0.07273700
20MABNDA000035_PR044
Spot 1    -0.01157203     0.01300692    -0.07483200
Spot 2    -0.01151354     0.01301217    -0.07483200
Spot 1    -0.01157212     0.01300674    -0.07483200
Spot 2    -0.01151355     0.01301234    -0.07483200
20MABNDA000035_PR045
Spot 1    -0.01336570     0.01381141    -0.07483200
Spot 2    -0.01318898     0.01381175    -0.07483200
Spot 1    -0.01336573     0.01381154    -0.07483200
Spot 2    -0.01318882     0.01381200    -0.07483200


*****************************************************************coordonnees du prisme dans le repere MOUNT********************************************************************************** 
20MABNDL000077_PR002
    0.04175352     0.05679068     3.70694900
    0.05906468     0.08293577     3.70653439
    0.06737348     0.07371713     3.70652628
20MABNDL000077_PR003
    0.02097527     0.02144526     3.89601803
    0.02097345     0.02144501     3.89601803
    0.02096752     0.02144871     3.89601803
20MABNDL000077_20MABNDM000168
   -0.05595953     0.07577550    -5.46843624
   -0.05598451     0.07578066    -5.46843624
   -0.05598520     0.07577813    -5.46843624
20MABNDL000077_PR024
    0.04568293     0.01710397    -5.89639854
    0.04568247     0.01711177    -5.89639854
    0.04568518     0.01711296    -5.89639854
20MABNDM000020_PR013
   -0.00368469    -0.01809309    -3.80243397
   -0.00362737    -0.01810373    -3.80243373
   -0.00363963    -0.01809929    -3.80243373
20MABNDM000020_PR014
   -0.06551589    -0.00498567    -4.74841070
   -0.06558067    -0.00487101    -4.74840879
   -0.06551791    -0.00496547    -4.74841022
20MABNDM000020_20MABNDL000196
    0.02683770    -0.07123663     5.39469719
    0.02683196    -0.07123591     5.39469719
    0.02683232    -0.07124021     5.39469719
20MABNDM000020_PR035
   -0.04246291    -0.00670719     5.80095387
   -0.04245367    -0.00668947     5.80095387
   -0.04246792    -0.00668832     5.80095387
20MABNDM000168_PR025
   -0.01466321    -0.08224767    -3.78850937
   -0.01466321    -0.08224767    -3.78850937
   -0.01466321    -0.08224767    -3.78850937
20MABNDM000168_PR026
   -0.05781186    -0.01389001    -3.98429012
   -0.05781714    -0.01387389    -3.98429012
   -0.05782357    -0.01389188    -3.98429012
20MABNDM000168_20MABNDL000077
    0.01156634    -0.03869445     5.38884687
    0.01155695    -0.03872197     5.38884687
    0.01154275    -0.03873506     5.38884687
20MABNDM000168_PR001
   -0.05738240    -0.01336357     5.81470490
   -0.05737581    -0.01336367     5.81470490
   -0.05737598    -0.01337529     5.81470490
20MABNDL000196_PR036
    0.05137984     0.00606063     3.68777251
    0.05138105     0.00607119     3.68777251
    0.05137712     0.00607462     3.68777251
20MABNDL000196_PR037
   -0.02505618     0.02841026     3.88381386
   -0.02504867     0.02840510     3.88381386
   -0.02504453     0.02839968     3.88381386
20MABNDL000196_20MABNDM000020
   -0.01571494     0.03789384    -5.47473907
   -0.01570694     0.03787136    -5.47473907
   -0.01570801     0.03787134    -5.47473907
20MABNDL000196_PR012
    0.05232083     0.01446980    -5.91537189
    0.05232735     0.01445516    -5.91537189
    0.05232398     0.01444887    -5.91537189
20MABNDA000318_PR004
   -0.00855821     0.03843079     2.74965906
   -0.00856223     0.03842692     2.74965906
   -0.00856294     0.03841720     2.74965906
20MABNDA000334_PR005
   -0.00430604     0.03174862     2.14977145
   -0.00430446     0.03174933     2.14977145
   -0.00429932     0.03175090     2.14977145
20MABNDB000317_PR015
   -0.01726002    -0.03378241     2.75129199
   -0.01725917    -0.03377712     2.75129223
   -0.01725663    -0.03377581     2.75129223
20MABNDB000146_PR016
   -0.01341917    -0.03156534     2.15201473
   -0.01341759    -0.03156418     2.15201473
   -0.01341932    -0.03156433     2.15201473
20MABNDB000135_PR027
   -0.02097149    -0.00978746     2.74937153
   -0.02096672    -0.00978714     2.74937153
   -0.02096746    -0.00978842     2.74937153
20MABNDB000126_PR028
   -0.02030763    -0.03895499     2.14679527
   -0.02030792    -0.03895499     2.14679527
   -0.02030748    -0.03895698     2.14679527
20MABNDA000272_PR038
   -0.01327682     0.01076498     2.74965858
   -0.01328524     0.01076903     2.74965858
   -0.01327956     0.01077268     2.74965858
20MABNDA000003_PR039
   -0.00597591     0.04122774     2.14891577
   -0.00597762     0.04123145     2.14891577
   -0.00597491     0.04122788     2.14891577
20MABNDA000196_PR006
   -0.01012507     0.00987341     1.64206338
   -0.01012372     0.00987623     1.64206338
   -0.01012610     0.00986971     1.64206338
20MABNDA000324_PR007
   -0.02551772     0.02795855     2.95549011
   -0.02552308     0.02796382     2.95549011
   -0.02552170     0.02796344     2.95549011
20MABNDB000001_PR017
   -0.02449059    -0.00282717     1.64035702
   -0.02448724    -0.00283059     1.64035702
   -0.02448679    -0.00282928     1.64035702
20MABNDB000260_PR019
   -0.02403860    -0.03849788     2.95627499
   -0.02403759    -0.03848939     2.95627522
   -0.02404605    -0.03848976     2.95627522
20MABNDB000212_PR029
   -0.02530200    -0.00846381     1.64223862
   -0.02529821    -0.00846835     1.64223862
   -0.02529958    -0.00846318     1.64223862
20MABNDB000128_PR030
   -0.01948804    -0.04674228     2.95496345
   -0.01949019    -0.04674622     2.95496345
   -0.01948448    -0.04674659     2.95496345
20MABNDA000444_PR040
   -0.03022218     0.00091909     1.64490867
   -0.03022281     0.00091645     1.64490867
   -0.03021651     0.00092048     1.64490891
20MABNDA000053_PR041
   -0.02648957     0.05110150     2.95450425
   -0.02648919     0.05109108     2.95450425
   -0.02652778     0.05112580     2.95450354
20MABNDA000188_PR008
    0.15101260     0.03827148     9.20357132
    0.14616936    -0.09611703     9.20304298
    0.14616936    -0.09611703     9.20304298
20MABNDA000188_PR018
   -0.01618117     0.02583643     1.28358245
   -0.01617972     0.02583548     1.28358245
   -0.01617878     0.02583538     1.28358245
20MABNDA000039_PR009
   -0.17114301     0.02557210    11.00701618
   -0.17115906     0.02557876    11.00701523
   -0.17122772     0.02559807    11.00701523
20MABNDA000039_PR011
    0.03085499    -0.02413066     3.43347406
    0.03086048    -0.02412680     3.43347406
    0.03086141    -0.02412179     3.43347406
20MABNDB000155_PR020
    0.10162911    -0.00967347     9.20028877
    0.10163949    -0.00962544     9.20028877
    0.10167243    -0.00965385     9.20028877
20MABNDB000155_PR022
   -0.02602893    -0.01802024     1.28070199
   -0.02602832    -0.01802066     1.28070199
   -0.02602926    -0.01802118     1.28070199
20MABNDB000010_PR021
   -0.16607639     0.04384571    11.00696373
   -0.16007909     0.02406665    11.00713062
   -0.16007751     0.02405932    11.00713062
20MABNDB000010_PR023
    0.00402279     0.02072521     3.43376851
    0.00403261     0.02072767     3.43376780
    0.00402504     0.02072800     3.43376851
20MABNDB000069_PR031
    0.10225338    -0.03874340     9.20356178
    0.10232451    -0.03873038     9.20356178
20MABNDB000069_PR033
   -0.02685684    -0.02690848     1.28394055
   -0.02685637    -0.02690730     1.28394055
20MABNDB000131_PR032
   -0.18761131    -0.02944073    11.00642776
   -0.18762445    -0.02944444    11.00642776
20MABNDB000131_PR034
    0.01477902     0.01650374     3.43337536
    0.01477901     0.01650534     3.43337536
20MABNDA000208_PR042
    0.09669636    -0.03601292     9.20181370
    0.11361030    -0.04176006     9.20156384
20MABNDA000208_PR046
   -0.02362565     0.03362769     1.28209686
   -0.01987315     0.03328030     1.28212881
20MABNDA000035_PR044
   -0.18021110     0.02575167    11.00801945
   -0.18020378     0.02575235    11.00801945
20MABNDA000035_PR045
    0.01421473    -0.01955536     3.43483448
    0.01421193    -0.01956402     3.43483448


*****************************************************************coordonnees du prisme dans le repere ATLAS********************************************************************************** 
20MABNDL000077_PR002 0.00000000
    2.80024767    -3.70275235     6.48625422
    2.77410769    -3.68543220     6.48588657
    2.78332901    -3.67712641     6.48587990
20MABNDL000077_PR003 0.00000000
    2.83577204    -3.72377491     6.67526293
    2.83577228    -3.72377682     6.67526293
    2.83576846    -3.72378278     6.67526293
20MABNDL000077_20MABNDM000168 0.00000000
    2.77223182    -3.78913879    -2.68922138
    2.77222681    -3.78916359    -2.68922138
    2.77222919    -3.78916430    -2.68922138
20MABNDL000077_PR024 0.00000000
    2.83051610    -3.68698692    -3.11711526
    2.83050823    -3.68698740    -3.11711526
    2.83050704    -3.68698478    -3.11711526
20MABNDM000020_PR013 0.00000000
   -2.83421636    -3.73579931     6.48627663
   -2.83420563    -3.73585653     6.48627615
   -2.83421016    -3.73584437     6.48627615
20MABNDM000020_PR014 0.00000000
   -2.84711552    -3.67468357     7.43230247
   -2.84723020    -3.67461872     7.43230104
   -2.84713578    -3.67468166     7.43230200
20MABNDM000020_20MABNDL000196 0.00000000
   -2.78292274    -3.75934315    -2.71088576
   -2.78292346    -3.75933743    -2.71088576
   -2.78291917    -3.75933790    -2.71088576
20MABNDM000020_PR035 0.00000000
   -2.84751225    -3.68971395    -3.11707664
   -2.84752989    -3.68972301    -3.11707664
   -2.84753108    -3.68970895    -3.11707664
20MABNDM000168_PR025 0.00000000
    2.77099776    -3.73064971    -6.47913694
    2.77099776    -3.73064971    -6.47913694
    2.77099776    -3.73064971    -6.47913694
20MABNDM000168_PR026 0.00000000
    2.83935499    -3.68759203    -6.67493773
    2.83937120    -3.68758678    -6.67493773
    2.83935308    -3.68758035    -6.67493773
20MABNDM000168_20MABNDL000077 0.00000000
    2.81510115    -3.75347853     2.69822621
    2.81507349    -3.75346899     2.69822621
    2.81506038    -3.75345492     2.69822598
20MABNDM000168_PR001 0.00000000
    2.84047604    -3.68437815     3.12405682
    2.84047580    -3.68438458     3.12405682
    2.84046435    -3.68438458     3.12405682
20MABNDL000196_PR036 0.00000000
   -2.84754682    -3.69289470    -6.47909594
   -2.84753633    -3.69289327    -6.47909594
   -2.84753299    -3.69289732    -6.47909594
20MABNDL000196_PR037 0.00000000
   -2.82516599    -3.76950264    -6.67506695
   -2.82517123    -3.76949501    -6.67506695
   -2.82517648    -3.76949096    -6.67506695
20MABNDL000196_20MABNDM000020 0.00000000
   -2.81548452    -3.75145149     2.68347335
   -2.81550694    -3.75144362     2.68347335
   -2.81550694    -3.75144458     2.68347335
20MABNDL000196_PR012 0.00000000
   -2.83893061    -3.68301678     3.12404323
   -2.83894539    -3.68301034     3.12404323
   -2.83895159    -3.68301368     3.12404323
20MABNDA000318_PR004 0.00000000
    2.61444497    -4.19698811     3.83356786
    2.61444092    -4.19698811     3.83357167
    2.61444020    -4.19698811     3.83358145
20MABNDA000334_PR005 0.00000000
    2.61669254    -4.19703150     5.89751244
    2.61669421    -4.19703150     5.89751148
    2.61669922    -4.19703150     5.89751005
20MABNDB000317_PR015 0.00000000
   -2.61134720    -4.19700623     3.83623314
   -2.61134791    -4.19700623     3.83623838
   -2.61135054    -4.19700623     3.83623958
20MABNDB000146_PR016 0.00000000
   -2.61287618    -4.19702291     5.89878511
   -2.61287761    -4.19702291     5.89878607
   -2.61287594    -4.19702291     5.89878607
20MABNDB000135_PR027 0.00000000
    2.60389185    -4.19700384    -3.82557344
    2.60389662    -4.19700384    -3.82557368
    2.60389590    -4.19700384    -3.82557249
20MABNDB000126_PR028 0.00000000
    2.60560966    -4.19702101    -5.89326477
    2.60560942    -4.19702101    -5.89326477
    2.60560989    -4.19702101    -5.89326286
20MABNDA000272_PR038 0.00000000
   -2.61126018    -4.19698286    -3.82771945
   -2.61125159    -4.19698286    -3.82771540
   -2.61125731    -4.19698286    -3.82771158
20MABNDA000003_PR039 0.00000000
   -2.61575532    -4.19702101    -5.89153910
   -2.61575341    -4.19702101    -5.89153528
   -2.61575627    -4.19702101    -5.89153862
20MABNDA000196_PR006 0.00000000
    2.58458567    -4.19496536     6.54783010
    2.58458424    -4.19496536     6.54783297
    2.58458662    -4.19496536     6.54782629
20MABNDA000324_PR007 0.00000000
    2.59379721    -4.13996840     6.94795656
    2.59379172    -4.13996840     6.94795132
    2.59379315    -4.13996840     6.94795179
20MABNDB000001_PR017 0.00000000
   -2.59819198    -4.19506073     6.53815508
   -2.59818864    -4.19506073     6.53815842
   -2.59818816    -4.19506073     6.53815746
20MABNDB000260_PR019 0.00000000
   -2.60472322    -4.13995981     6.94214582
   -2.60472417    -4.13995934     6.94215441
   -2.60471582    -4.13995934     6.94215393
20MABNDB000212_PR029 0.00000000
    2.59897971    -4.19501019    -6.54745150
    2.59897590    -4.19501019    -6.54745626
    2.59897733    -4.19501019    -6.54745102
20MABNDB000128_PR030 0.00000000
    2.60937071    -4.14002657    -6.93137884
    2.60936856    -4.14002657    -6.93137503
    2.60937428    -4.14002657    -6.93137455
20MABNDA000444_PR040 0.00000000
   -2.60539460    -4.19510078    -6.54009914
   -2.60539532    -4.19510078    -6.54009676
   -2.60538912    -4.19510031    -6.54010057
20MABNDA000053_PR041 0.00000000
   -2.59405231    -4.14012671    -6.92681217
   -2.59405279    -4.14012671    -6.92682266
   -2.59401417    -4.14012718    -6.92678785
20MABNDA000188_PR008 0.00000000
    3.56577420     3.85067797     7.97335863
    3.55893064     3.84859109     8.10764503
    3.55893064     3.84859109     8.10764503
20MABNDA000188_PR018 0.00000000
    3.52095604    -4.07059622     7.89761257
    3.52095747    -4.07059622     7.89761353
    3.52095842    -4.07059622     7.89761353
20MABNDA000039_PR009 0.00000000
    3.87531495     3.64747429    12.93686581
    3.87533092     3.64747334    12.93687248
    3.87539959     3.64747334    12.93689251
20MABNDA000039_PR011 0.00000000
    3.66416907    -3.92580175    12.88470554
    3.66416359    -3.92580175    12.88470936
    3.66416264    -3.92580175    12.88471508
20MABNDB000155_PR020 0.00000000
   -3.68028116     3.84882283     7.89719391
   -3.68029165     3.84882283     7.89724207
   -3.68032455     3.84882283     7.89721346
20MABNDB000155_PR022 0.00000000
   -3.53395152    -4.07044220     7.89003897
   -3.53395200    -4.07044220     7.89003849
   -3.53395104    -4.07044220     7.89003801
20MABNDB000010_PR021 0.00000000
   -3.85198164     3.64765930    12.85797501
   -3.84596682     3.64783263    12.87774849
   -3.84596539     3.64783263    12.87775612
20MABNDB000010_PR023 0.00000000
   -3.68564391    -3.92560816    12.88455105
   -3.68563414    -3.92560887    12.88454819
   -3.68564177    -3.92560816    12.88454819
20MABNDB000069_PR031 0.00000000
    3.68397021     3.84875631    -7.90165901
    3.68404126     3.84875607    -7.90167236
20MABNDB000069_PR033 0.00000000
    3.53344250    -4.07046270    -7.87876272
    3.53344297    -4.07046270    -7.87876415
20MABNDB000131_PR032 0.00000000
    3.86841393     3.64757752   -12.94008350
    3.86842704     3.64757752   -12.94008732
20MABNDB000131_PR034 0.00000000
    3.67301035    -3.92564154   -12.89144325
    3.67301035    -3.92564154   -12.89144230
20MABNDA000208_PR042 0.00000000
   -3.64674711     3.84944963    -7.94748020
   -3.66365814     3.84920979    -7.95323610
20MABNDA000208_PR046 0.00000000
   -3.53213930    -4.07032585    -7.87489033
   -3.53589153    -4.07029104    -7.87523985
20MABNDA000035_PR044 0.00000000
   -3.86945200     3.64757466   -12.93143082
   -3.86944461     3.64757466   -12.93143177
20MABNDA000035_PR045 0.00000000
   -3.67651343    -3.92565274   -12.88682938
   -3.67651629    -3.92565274   -12.88681984


*****************************************************************Rapport********************************************************************************** 
CAM-LBA-US_EBA-US-HO-H         2018.08.19.22.45.03     2.78589479    -3.68843699     6.48600690     0.01082472     0.01067532     0.00017490 0.00000000 VRAI 
CAM-LBA-US_JDA-US-H            2018.08.19.22.45.03     2.83577092    -3.72377817     6.67526293     0.00000174     0.00000335     0.00000000 0.00000000 VRAI 
CAM-LBA-US_CAM-LBC-US          2018.08.19.22.45.03     2.77222927    -3.78915556    -2.68922138     0.00000204     0.00001186     0.00000000 0.00000000 VRAI 
CAM-LBA-US_EBC-US-IP-H         2018.08.19.22.45.03     2.83051046    -3.68698637    -3.11711526     0.00000402     0.00000114     0.00000000 0.00000000 VRAI 
CAM-LBA-USA_EBA-USA-HO-H       2018.08.19.22.45.03    -2.83421071    -3.73583341     6.48627631     0.00000440     0.00002461     0.00000022 0.00000000 VRAI 
CAM-LBA-USA_JDA-USA-H          2018.08.19.22.45.03    -2.84716050    -3.67466132     7.43230184     0.00004997     0.00003013     0.00000059 0.00000000 VRAI 
CAM-LBA-USA_CAM-LBC-USA        2018.08.19.22.45.03    -2.78292179    -3.75933949    -2.71088576     0.00000188     0.00000259     0.00000000 0.00000000 VRAI 
CAM-LBA-USA_EBC-USA-IP-H       2018.08.19.22.45.03    -2.84752440    -3.68971531    -3.11707664     0.00000861     0.00000582     0.00000000 0.00000000 VRAI 
CAM-LBC-US_EBC-US-HO-H         2018.08.19.22.45.03     2.77099776    -3.73064971    -6.47913694     0.00000000     0.00000000     0.00000000 0.00000000 VRAI 
CAM-LBC-US_JDC-US-H            2018.08.19.22.45.03     2.83935976    -3.68758639    -6.67493773     0.00000813     0.00000478     0.00000000 0.00000000 VRAI 
CAM-LBC-US_CAM-LBA-US          2018.08.19.22.45.03     2.81507834    -3.75346748     2.69822613     0.00001699     0.00000970     0.00000011 0.00000000 VRAI 
CAM-LBC-US_EBA-US-IP-H         2018.08.19.22.45.03     2.84047206    -3.68438244     3.12405682     0.00000545     0.00000303     0.00000000 0.00000000 VRAI 
CAM-LBC-USA_EBC-USA-HO-H       2018.08.19.22.45.03    -2.84753871    -3.69289509    -6.47909594     0.00000589     0.00000168     0.00000000 0.00000000 VRAI 
CAM-LBC-USA_JDC-USA-H          2018.08.19.22.45.03    -2.82517123    -3.76949620    -6.67506695     0.00000428     0.00000484     0.00000000 0.00000000 VRAI 
CAM-LBC-USA_CAM-LBA-USA        2018.08.19.22.45.03    -2.81549946    -3.75144656     2.68347335     0.00001056     0.00000351     0.00000000 0.00000000 VRAI 
CAM-LBC-USA_EBA-USA-IP-H       2018.08.19.22.45.03    -2.83894253    -3.68301360     3.12404323     0.00000880     0.00000263     0.00000000 0.00000000 VRAI 
CAM-EBA-US-IP_EBA-US-IP        2018.08.19.22.45.03     2.61444203    -4.19698811     3.83357366     0.00000210     0.00000000     0.00000572 0.00000000 VRAI 
CAM-EBA-US-HO_EBA-US-HO        2018.08.19.22.45.03     2.61669532    -4.19703150     5.89751132     0.00000284     0.00000000     0.00000098 0.00000000 VRAI 
CAM-EBA-USA-IP_EBA-USA-IP      2018.08.19.22.45.03    -2.61134855    -4.19700623     3.83623703     0.00000143     0.00000000     0.00000280 0.00000000 VRAI 
CAM-EBA-USA-HO_EBA-USA-HO      2018.08.19.22.45.03    -2.61287657    -4.19702291     5.89878575     0.00000074     0.00000000     0.00000045 0.00000000 VRAI 
CAM-EBC-US-IP_EBC-US-IP        2018.08.19.22.45.03     2.60389479    -4.19700384    -3.82557321     0.00000210     0.00000000     0.00000052 0.00000000 VRAI 
CAM-EBC-US-HO_EBC-US-HO        2018.08.19.22.45.03     2.60560966    -4.19702101    -5.89326413     0.00000019     0.00000000     0.00000090 0.00000000 VRAI 
CAM-EBC-USA-IP_EBC-USA-IP      2018.08.19.22.45.03    -2.61125636    -4.19698286    -3.82771548     0.00000357     0.00000000     0.00000321 0.00000000 VRAI 
CAM-EBC-USA-HO_EBC-USA-HO      2018.08.19.22.45.03    -2.61575500    -4.19702101    -5.89153767     0.00000119     0.00000000     0.00000170 0.00000000 VRAI 
CAM-JDA-US-IP_JDA-US-IP        2018.08.19.22.45.03     2.58458551    -4.19496536     6.54782979     0.00000098     0.00000000     0.00000273 0.00000000 VRAI 
CAM-JDA-US-HO_JDA-US-HO        2018.08.19.22.45.03     2.59379403    -4.13996840     6.94795322     0.00000232     0.00000000     0.00000237 0.00000000 VRAI 
CAM-JDA-USA-IP_JDA-USA-IP      2018.08.19.22.45.03    -2.59818959    -4.19506073     6.53815699     0.00000170     0.00000000     0.00000140 0.00000000 VRAI 
CAM-JDA-USA-HO_JDA-USA-HO      2018.08.19.22.45.03    -2.60472107    -4.13995949     6.94215139     0.00000373     0.00000022     0.00000394 0.00000000 VRAI 
CAM-JDC-US-IP_JDC-US-IP        2018.08.19.22.45.03     2.59897765    -4.19501019    -6.54745293     0.00000157     0.00000000     0.00000237 0.00000000 VRAI 
CAM-JDC-US-HO_JDC-US-HO        2018.08.19.22.45.03     2.60937119    -4.14002657    -6.93137614     0.00000236     0.00000000     0.00000192 0.00000000 VRAI 
CAM-JDC-USA-IP_JDC-USA-IP      2018.08.19.22.45.03    -2.60539301    -4.19510063    -6.54009883     0.00000277     0.00000022     0.00000157 0.00000000 VRAI 
CAM-JDC-USA-HO_JDC-USA-HO      2018.08.19.22.45.03    -2.59403976    -4.14012686    -6.92680756     0.00001810     0.00000022     0.00001458 0.00000000 VRAI 
CAM-ECTA-US-IP_ECTA-US-IP-T    2018.08.19.22.45.03     3.56121182     3.84928672     8.06288290     0.00322609     0.00098376     0.06330322 0.00000000 VRAI 
CAM-ECTA-US-IP_ECTA-US-IP      2018.08.19.22.45.03     3.52095731    -4.07059622     7.89761321     0.00000098     0.00000000     0.00000045 0.00000000 VRAI 
CAM-ECTA-US-HO_ECTA-US-HO-T    2018.08.19.22.45.03     3.87534849     3.64747365    12.93687693     0.00003672     0.00000045     0.00001135 0.00000000 VRAI 
CAM-ECTA-US-HO_ECTA-US-HO      2018.08.19.22.45.03     3.66416510    -3.92580175    12.88470999     0.00000284     0.00000000     0.00000392 0.00000000 VRAI 
CAM-ECTA-USA-IP_ECTA-USA-IP-T  2018.08.19.22.45.03    -3.68029912     3.84882283     7.89721648     0.00001849     0.00000000     0.00001978 0.00000000 VRAI 
CAM-ECTA-USA-IP_ECTA-USA-IP    2018.08.19.22.45.03    -3.53395152    -4.07044220     7.89003849     0.00000039     0.00000000     0.00000039 0.00000000 VRAI 
CAM-ECTA-USA-HO_ECTA-USA-HO-T  2018.08.19.22.45.03    -3.84797128     3.64777486    12.87115987     0.00283575     0.00008171     0.00932311 0.00000000 VRAI 
CAM-ECTA-USA-HO_ECTA-USA-HO    2018.08.19.22.45.03    -3.68563994    -3.92560840    12.88454914     0.00000419     0.00000034     0.00000135 0.00000000 VRAI 
CAM-ECTC-US-IP_ECTC-US-IP-T    2018.08.19.22.45.03     3.68400574     3.84875619    -7.90166569     0.00003552     0.00000012     0.00000668 0.00000000 VRAI 
CAM-ECTC-US-IP_ECTC-US-IP      2018.08.19.22.45.03     3.53344274    -4.07046270    -7.87876344     0.00000024     0.00000000     0.00000072 0.00000000 VRAI 
CAM-ECTC-US-HO_ECTC-US-HO-T    2018.08.19.22.45.03     3.86842048     3.64757752   -12.94008541     0.00000656     0.00000000     0.00000191 0.00000000 VRAI 
CAM-ECTC-US-HO_ECTC-US-HO      2018.08.19.22.45.03     3.67301035    -3.92564154   -12.89144278     0.00000000     0.00000000     0.00000048 0.00000000 VRAI 
CAM-ECTC-USA-IP_ECTC-USA-IP-T  2018.08.19.22.45.03    -3.65520263     3.84932971    -7.95035815     0.00845551     0.00011992     0.00287795 0.00000000 VRAI 
CAM-ECTC-USA-IP_ECTC-USA-IP    2018.08.19.22.45.03    -3.53401542    -4.07030845    -7.87506509     0.00187612     0.00001740     0.00017476 0.00000000 VRAI 
CAM-ECTC-USA-HO_ECTC-USA-HO-T  2018.08.19.22.45.03    -3.86944830     3.64757466   -12.93143129     0.00000370     0.00000000     0.00000048 0.00000000 VRAI 
CAM-ECTC-USA-HO_ECTC-USA-HO    2018.08.19.22.45.03    -3.67651486    -3.92565274   -12.88682461     0.00000143     0.00000000     0.00000477 0.00000000 VRAI 
