********** Fichier qui contient une sauvegarde des coordonnees images + coordonnees images transformees dans le repere BCAM (MOUNT) + coordonnees des prismes dans le repere MOUNT********** 
********************************************************************** Unite en metres (m)************************************************************************************************** 

*******************************************************************coordonnees images dans le repere CCD *********************************************************************************** 
20MABNDL000077_PR002
Spot 1     0.00121558     0.00150176
Spot 2     0.00052500     0.00043500
Spot 1     0.00052500     0.00043500
Spot 2     0.00052500     0.00043500
Spot 1     0.00121550     0.00150107
Spot 2     0.00052500     0.00043500
20MABNDL000077_PR003
Spot 1     0.00138835     0.00148764
Spot 2     0.00153772     0.00148951
Spot 1     0.00138836     0.00148751
Spot 2     0.00153730     0.00148931
Spot 1     0.00138845     0.00148748
Spot 2     0.00153763     0.00148938
20MABNDL000077_20MABNDM000168
Spot 1     0.00175792     0.00118455
Spot 2     0.00075500     0.00010500
Spot 1     0.00175843     0.00118444
Spot 2     0.00075500     0.00010500
Spot 1     0.00175776     0.00118454
Spot 2     0.00075500     0.00010500
20MABNDL000077_PR024
Spot 1     0.00254756     0.00144732
Spot 2     0.00264619     0.00145459
Spot 1     0.00254769     0.00144756
Spot 2     0.00264642     0.00145441
Spot 1     0.00254782     0.00144764
Spot 2     0.00264620     0.00145449
20MABNDM000020_PR013
Spot 1     0.00162617     0.00152723
Spot 2     0.00147376     0.00153464
Spot 1     0.00162654     0.00152737
Spot 2     0.00147306     0.00153365
Spot 1     0.00162674     0.00152869
Spot 2     0.00147281     0.00153381
20MABNDM000020_PR014
Spot 1     0.00265840     0.00169094
Spot 2     0.00249760     0.00169434
Spot 1     0.00265918     0.00168934
Spot 2     0.00249770     0.00169459
Spot 1     0.00265911     0.00169031
Spot 2     0.00249788     0.00169612
20MABNDM000020_20MABNDL000196
Spot 1     0.00197640     0.00117797
Spot 2     0.00230500     0.00010500
Spot 1     0.00197630     0.00117801
Spot 2     0.00230500     0.00010500
Spot 1     0.00197650     0.00117779
Spot 2     0.00230500     0.00010500
20MABNDM000020_PR035
Spot 1     0.00126903     0.00149526
Spot 2     0.00118624     0.00153109
Spot 1     0.00126914     0.00149533
Spot 2     0.00118620     0.00153125
Spot 1     0.00126954     0.00149519
Spot 2     0.00118626     0.00153119
20MABNDM000168_PR025
Spot 1     0.00148500     0.00050500
Spot 2     0.00148500     0.00050500
Spot 1     0.00055300     0.00016700
Spot 2     0.00055300     0.00016700
Spot 1     0.00055333     0.00016667
Spot 2     0.00055300     0.00016700
20MABNDM000168_PR026
Spot 1     0.00266683     0.00143022
Spot 2     0.00250586     0.00142632
Spot 1     0.00266677     0.00143025
Spot 2     0.00250594     0.00142641
Spot 1     0.00266677     0.00143019
Spot 2     0.00250576     0.00142635
20MABNDM000168_20MABNDL000077
Spot 1     0.00154122     0.00130079
Spot 2     0.00175689     0.00130403
Spot 1     0.00154122     0.00130087
Spot 2     0.00175678     0.00130360
Spot 1     0.00154117     0.00130081
Spot 2     0.00175660     0.00130340
20MABNDM000168_PR001
Spot 1     0.00080816     0.00161844
Spot 2     0.00070652     0.00162108
Spot 1     0.00080802     0.00161839
Spot 2     0.00070636     0.00162109
Spot 1     0.00080804     0.00161858
Spot 2     0.00070644     0.00162111
20MABNDL000196_PR036
Spot 1     0.00094672     0.00163714
Spot 2     0.00111081     0.00163686
Spot 1     0.00094668     0.00163718
Spot 2     0.00111066     0.00163680
Spot 1     0.00094674     0.00163749
Spot 2     0.00111066     0.00163698
20MABNDL000196_PR037
Spot 1     0.00246796     0.00117228
Spot 2     0.00262250     0.00117083
Spot 1     0.00246800     0.00117204
Spot 2     0.00262235     0.00117071
Spot 1     0.00246815     0.00117229
Spot 2     0.00262235     0.00117068
20MABNDL000196_20MABNDM000020
Spot 1     0.00192626     0.00104134
Spot 2     0.00170447     0.00104660
Spot 1     0.00192597     0.00104159
Spot 2     0.00170472     0.00104680
Spot 1     0.00192626     0.00104156
Spot 2     0.00170465     0.00104700
20MABNDL000196_PR012
Spot 1     0.00265208     0.00134262
Spot 2     0.00272352     0.00138855
Spot 1     0.00265195     0.00134260
Spot 2     0.00272340     0.00138820
Spot 1     0.00265249     0.00134259
Spot 2     0.00272321     0.00138832
20MABNDA000318_PR004
Spot 1     0.00192512     0.00162769
Spot 2     0.00214274     0.00162629
Spot 1     0.00192515     0.00162767
Spot 2     0.00214300     0.00162616
Spot 1     0.00192515     0.00162775
Spot 2     0.00214294     0.00162642
20MABNDA000334_PR005
Spot 1     0.00247192     0.00158756
Spot 2     0.00219146     0.00158839
Spot 1     0.00247211     0.00158779
Spot 2     0.00219164     0.00158852
Spot 1     0.00247192     0.00158767
Spot 2     0.00219143     0.00158881
20MABNDB000317_PR015
Spot 1     0.00170438     0.00158837
Spot 2     0.00148459     0.00159358
Spot 1     0.00170419     0.00158820
Spot 2     0.00148450     0.00159385
Spot 1     0.00170401     0.00158860
Spot 2     0.00148474     0.00159345
20MABNDB000146_PR016
Spot 1     0.00144430     0.00132513
Spot 2     0.00172025     0.00132644
Spot 1     0.00144448     0.00132516
Spot 2     0.00172003     0.00132655
Spot 1     0.00144438     0.00132508
Spot 2     0.00172031     0.00132654
20MABNDB000135_PR027
Spot 1     0.00189000     0.00091455
Spot 2     0.00210790     0.00091658
Spot 1     0.00188992     0.00091484
Spot 2     0.00210820     0.00091649
Spot 1     0.00188994     0.00091488
Spot 2     0.00210805     0.00091653
20MABNDB000126_PR028
Spot 1     0.00164434     0.00200921
Spot 2     0.00192627     0.00201079
Spot 1     0.00164444     0.00200936
Spot 2     0.00192612     0.00201078
Spot 1     0.00164441     0.00200939
Spot 2     0.00192624     0.00201075
20MABNDA000272_PR038
Spot 1     0.00192149     0.00095041
Spot 2     0.00170117     0.00094909
Spot 1     0.00192155     0.00095048
Spot 2     0.00170102     0.00094941
Spot 1     0.00192156     0.00095042
Spot 2     0.00170111     0.00094942
20MABNDA000003_PR039
Spot 1     0.00199945     0.00192505
Spot 2     0.00227725     0.00192633
Spot 1     0.00199949     0.00192517
Spot 2     0.00227741     0.00192629
Spot 1     0.00199952     0.00192517
Spot 2     0.00227722     0.00192620
20MABNDA000196_PR006
Spot 1     0.00199927     0.00072743
Spot 2     0.00163340     0.00072492
Spot 1     0.00199924     0.00072712
Spot 2     0.00163324     0.00072476
Spot 1     0.00199932     0.00072695
Spot 2     0.00163324     0.00072508
20MABNDA000324_PR007
Spot 1     0.00194081     0.00121366
Spot 2     0.00173565     0.00121939
Spot 1     0.00194109     0.00121373
Spot 2     0.00173539     0.00121931
Spot 1     0.00194086     0.00121374
Spot 2     0.00173525     0.00121943
20MABNDB000001_PR017
Spot 1     0.00190482     0.00044051
Spot 2     0.00227286     0.00044957
Spot 1     0.00190495     0.00044063
Spot 2     0.00227297     0.00044964
Spot 1     0.00190482     0.00044054
Spot 2     0.00227297     0.00044920
20MABNDB000260_PR019
Spot 1     0.00191551     0.00150665
Spot 2     0.00211857     0.00150571
Spot 1     0.00191573     0.00150702
Spot 2     0.00211857     0.00150607
Spot 1     0.00191578     0.00150690
Spot 2     0.00211821     0.00150613
20MABNDB000212_PR029
Spot 1     0.00222736     0.00070151
Spot 2     0.00186719     0.00070219
Spot 1     0.00222731     0.00070173
Spot 2     0.00186726     0.00070274
Spot 1     0.00222721     0.00070131
Spot 2     0.00186719     0.00070219
20MABNDB000128_PR030
Spot 1     0.00190584     0.00199914
Spot 2     0.00211015     0.00199372
Spot 1     0.00190598     0.00199916
Spot 2     0.00211034     0.00199360
Spot 1     0.00190596     0.00199916
Spot 2     0.00211050     0.00199350
20MABNDA000444_PR040
Spot 1     0.00074476     0.00035516
Spot 2     0.00111146     0.00035208
Spot 1     0.00074476     0.00035532
Spot 2     0.00111146     0.00035238
Spot 1     0.00074453     0.00035516
Spot 2     0.00111152     0.00035254
20MABNDA000053_PR041
Spot 1     0.00165527     0.00199395
Spot 2     0.00144605     0.00199238
Spot 1     0.00165615     0.00199385
Spot 2     0.00144692     0.00199229
Spot 1     0.00165619     0.00199367
Spot 2     0.00144619     0.00199186
20MABNDA000188_PR008
Spot 1     0.00289500     0.00025500
Spot 2     0.00289500     0.00025500
Spot 1     0.00289500     0.00025500
Spot 2     0.00289500     0.00025500
Spot 1     0.00289500     0.00025500
Spot 2     0.00289500     0.00025500
20MABNDA000188_PR018
Spot 1     0.00169669     0.00173651
Spot 2     0.00122961     0.00173278
Spot 1     0.00169645     0.00173664
Spot 2     0.00122960     0.00173261
Spot 1     0.00169666     0.00173648
Spot 2     0.00122958     0.00173277
20MABNDA000039_PR009
Spot 1     0.00066380     0.00118090
Spot 2     0.00061595     0.00118536
Spot 1     0.00066355     0.00118074
Spot 2     0.00061647     0.00118536
Spot 1     0.00066339     0.00118108
Spot 2     0.00061638     0.00118522
20MABNDA000039_PR011
Spot 1     0.00276924     0.00029320
Spot 2     0.00259401     0.00028832
Spot 1     0.00276940     0.00029317
Spot 2     0.00259365     0.00028835
Spot 1     0.00276932     0.00029314
Spot 2     0.00259367     0.00028810
20MABNDB000155_PR020
Spot 1     0.00062454     0.00113454
Spot 2     0.00068720     0.00113054
Spot 1     0.00062404     0.00113429
Spot 2     0.00068739     0.00113056
20MABNDB000155_PR022
Spot 1     0.00213784     0.00142644
Spot 2     0.00260979     0.00141929
Spot 1     0.00213775     0.00142652
Spot 2     0.00260983     0.00141903
20MABNDB000010_PR021
Spot 1     0.00287289     0.00114952
Spot 2     0.00268625     0.00037625
Spot 1     0.00287293     0.00114944
Spot 2     0.00268625     0.00037625
20MABNDB000010_PR023
Spot 1     0.00131751     0.00030312
Spot 2     0.00149369     0.00030076
Spot 1     0.00131711     0.00030309
Spot 2     0.00149388     0.00030072
20MABNDB000069_PR031
Spot 1     0.00028297     0.00140695
Spot 2     0.00035629     0.00140504
Spot 1     0.00028368     0.00140725
Spot 2     0.00035524     0.00140524
20MABNDB000069_PR033
Spot 1     0.00182706     0.00206271
Spot 2     0.00229677     0.00208280
Spot 1     0.00182717     0.00206294
Spot 2     0.00229669     0.00208292
20MABNDB000131_PR032
Spot 1     0.00277449     0.00107645
Spot 2     0.00283462     0.00107958
Spot 1     0.00277455     0.00107614
Spot 2     0.00283487     0.00107957
20MABNDB000131_PR034
Spot 1     0.00091488     0.00032710
Spot 2     0.00109075     0.00032613
Spot 1     0.00091479     0.00032704
Spot 2     0.00109111     0.00032618
20MABNDA000208_PR042
Spot 1     0.00261971     0.00039983
Spot 2     0.00341833     0.00007500
Spot 1     0.00261964     0.00039917
Spot 2     0.00342500     0.00007500
20MABNDA000208_PR046
Spot 1     0.00145951     0.00222021
Spot 2     0.00099941     0.00220370
Spot 1     0.00145893     0.00222064
Spot 2     0.00100104     0.00220395
20MABNDA000035_PR044
Spot 1     0.00073654     0.00125236
Spot 2     0.00068014     0.00124689
Spot 1     0.00073646     0.00125247
Spot 2     0.00068046     0.00124675
20MABNDA000035_PR045
Spot 1     0.00253706     0.00046281
Spot 2     0.00236019     0.00046139
Spot 1     0.00253728     0.00046267
Spot 2     0.00236013     0.00046133


****************************************************************coordonnees images transformees dans le repere MOUNT************************************************************************* 
20MABNDL000077_PR002
Spot 1     0.01228590     0.03557318    -0.07463200
Spot 2     0.01158509     0.03451311    -0.07463200
Spot 1     0.01158509     0.03451311    -0.07463200
Spot 2     0.01158509     0.03451311    -0.07463200
Spot 1     0.01228581     0.03557249    -0.07463200
Spot 2     0.01158509     0.03451311    -0.07463200
20MABNDL000077_PR003
Spot 1     0.01245853     0.03555740    -0.07463200
Spot 2     0.01260791     0.03555783    -0.07463200
Spot 1     0.01245854     0.03555727    -0.07463200
Spot 2     0.01260749     0.03555763    -0.07463200
Spot 1     0.01245863     0.03555724    -0.07463200
Spot 2     0.01260782     0.03555770    -0.07463200
20MABNDL000077_20MABNDM000168
Spot 1    -0.01259307     0.03524753    -0.00695400
Spot 2    -0.01157915     0.03417830    -0.00695400
Spot 1    -0.01259358     0.03524741    -0.00695400
Spot 2    -0.01157915     0.03417830    -0.00695400
Spot 1    -0.01259291     0.03524752    -0.00695400
Spot 2    -0.01157915     0.03417830    -0.00695400
20MABNDL000077_PR024
Spot 1    -0.01338536     0.03550220    -0.00695400
Spot 2    -0.01348405     0.03550846    -0.00695400
Spot 1    -0.01338549     0.03550244    -0.00695400
Spot 2    -0.01348428     0.03550828    -0.00695400
Spot 1    -0.01338562     0.03550252    -0.00695400
Spot 2    -0.01348406     0.03550836    -0.00695400
20MABNDM000020_PR013
Spot 1    -0.01273276    -0.03548593    -0.00523500
Spot 2    -0.01288497    -0.03549671    -0.00523500
Spot 1    -0.01273239    -0.03548607    -0.00523500
Spot 2    -0.01288570    -0.03549574    -0.00523500
Spot 1    -0.01273216    -0.03548738    -0.00523500
Spot 2    -0.01288594    -0.03549590    -0.00523500
20MABNDM000020_PR014
Spot 1    -0.01169717    -0.03562678    -0.00523500
Spot 2    -0.01185785    -0.03563373    -0.00523500
Spot 1    -0.01169642    -0.03562516    -0.00523500
Spot 2    -0.01185775    -0.03563398    -0.00523500
Spot 1    -0.01169647    -0.03562613    -0.00523500
Spot 2    -0.01185753    -0.03563551    -0.00523500
20MABNDM000020_20MABNDL000196
Spot 1     0.01270988    -0.03514653    -0.07583800
Spot 2     0.01238113    -0.03407361    -0.07583800
Spot 1     0.01270998    -0.03514657    -0.07583800
Spot 2     0.01238113    -0.03407361    -0.07583800
Spot 1     0.01270978    -0.03514635    -0.07583800
Spot 2     0.01238113    -0.03407361    -0.07583800
20MABNDM000020_PR035
Spot 1     0.01341729    -0.03546373    -0.07583800
Spot 2     0.01350009    -0.03549954    -0.07583800
Spot 1     0.01341718    -0.03546380    -0.07583800
Spot 2     0.01350013    -0.03549970    -0.07583800
Spot 1     0.01341678    -0.03546366    -0.07583800
Spot 2     0.01350007    -0.03549964    -0.07583800
20MABNDM000168_PR025
Spot 1    -0.01292129    -0.03484087    -0.00532900
Spot 2    -0.01292129    -0.03484087    -0.00532900
Spot 1    -0.01385474    -0.03450687    -0.00532900
Spot 2    -0.01385474    -0.03450687    -0.00532900
Spot 1    -0.01385441    -0.03450654    -0.00532900
Spot 2    -0.01385474    -0.03450687    -0.00532900
20MABNDM000168_PR026
Spot 1    -0.01173550    -0.03576100    -0.00532900
Spot 2    -0.01189649    -0.03575779    -0.00532900
Spot 1    -0.01173556    -0.03576103    -0.00532900
Spot 2    -0.01189641    -0.03575788    -0.00532900
Spot 1    -0.01173556    -0.03576097    -0.00532900
Spot 2    -0.01189659    -0.03575782    -0.00532900
20MABNDM000168_20MABNDL000077
Spot 1     0.01288423    -0.03530143    -0.07445100
Spot 2     0.01266854    -0.03530151    -0.07445100
Spot 1     0.01288423    -0.03530151    -0.07445100
Spot 2     0.01266865    -0.03530108    -0.07445100
Spot 1     0.01288428    -0.03530145    -0.07445100
Spot 2     0.01266884    -0.03530089    -0.07445100
20MABNDM000168_PR001
Spot 1     0.01361257    -0.03562977    -0.07445100
Spot 2     0.01371416    -0.03563389    -0.07445100
Spot 1     0.01361271    -0.03562972    -0.07445100
Spot 2     0.01371432    -0.03563391    -0.07445100
Spot 1     0.01361268    -0.03562991    -0.07445100
Spot 2     0.01371424    -0.03563393    -0.07445100
20MABNDL000196_PR036
Spot 1     0.01192665     0.03582584    -0.07483600
Spot 2     0.01209074     0.03582590    -0.07483600
Spot 1     0.01192661     0.03582588    -0.07483600
Spot 2     0.01209059     0.03582584    -0.07483600
Spot 1     0.01192667     0.03582619    -0.07483600
Spot 2     0.01209059     0.03582602    -0.07483600
20MABNDL000196_PR037
Spot 1     0.01344886     0.03536415    -0.07483600
Spot 2     0.01360340     0.03536303    -0.07483600
Spot 1     0.01344890     0.03536391    -0.07483600
Spot 2     0.01360325     0.03536290    -0.07483600
Spot 1     0.01344905     0.03536416    -0.07483600
Spot 2     0.01360325     0.03536287    -0.07483600
20MABNDL000196_20MABNDM000020
Spot 1    -0.01275031     0.03531254    -0.00611000
Spot 2    -0.01252867     0.03532226    -0.00611000
Spot 1    -0.01275002     0.03531279    -0.00611000
Spot 2    -0.01252892     0.03532245    -0.00611000
Spot 1    -0.01275031     0.03531276    -0.00611000
Spot 2    -0.01252886     0.03532265    -0.00611000
20MABNDL000196_PR012
Spot 1    -0.01348204     0.03559915    -0.00611000
Spot 2    -0.01355439     0.03564363    -0.00611000
Spot 1    -0.01348191     0.03559913    -0.00611000
Spot 2    -0.01355426     0.03564329    -0.00611000
Spot 1    -0.01348245     0.03559911    -0.00611000
Spot 2    -0.01355408     0.03564341    -0.00611000
20MABNDA000318_PR004
Spot 1    -0.01264494     0.01246819    -0.07310600
Spot 2    -0.01286256     0.01246895    -0.07310600
Spot 1    -0.01264497     0.01246821    -0.07310600
Spot 2    -0.01286282     0.01246908    -0.07310600
Spot 1    -0.01264497     0.01246813    -0.07310600
Spot 2    -0.01286276     0.01246882    -0.07310600
20MABNDA000334_PR005
Spot 1    -0.01311503     0.01254083    -0.07324100
Spot 2    -0.01283457     0.01253974    -0.07324100
Spot 1    -0.01311522     0.01254060    -0.07324100
Spot 2    -0.01283475     0.01253961    -0.07324100
Spot 1    -0.01311503     0.01254072    -0.07324100
Spot 2    -0.01283454     0.01253932    -0.07324100
20MABNDB000317_PR015
Spot 1    -0.01244979    -0.01250715    -0.07326100
Spot 2    -0.01266963    -0.01250450    -0.07326100
Spot 1    -0.01244998    -0.01250732    -0.07326100
Spot 2    -0.01266972    -0.01250423    -0.07326100
Spot 1    -0.01245016    -0.01250693    -0.07326100
Spot 2    -0.01266947    -0.01250463    -0.07326100
20MABNDB000146_PR016
Spot 1    -0.01276405    -0.01246848    -0.07450500
Spot 2    -0.01248810    -0.01246656    -0.07450500
Spot 1    -0.01276387    -0.01246845    -0.07450500
Spot 2    -0.01248832    -0.01246645    -0.07450500
Spot 1    -0.01276396    -0.01246853    -0.07450500
Spot 2    -0.01248804    -0.01246646    -0.07450500
20MABNDB000135_PR027
Spot 1    -0.01251469    -0.01319846    -0.07464700
Spot 2    -0.01229678    -0.01319886    -0.07464700
Spot 1    -0.01251476    -0.01319817    -0.07464700
Spot 2    -0.01229648    -0.01319895    -0.07464700
Spot 1    -0.01251474    -0.01319813    -0.07464700
Spot 2    -0.01229663    -0.01319891    -0.07464700
20MABNDB000126_PR028
Spot 1    -0.01253520    -0.01217296    -0.07500400
Spot 2    -0.01225328    -0.01216988    -0.07500400
Spot 1    -0.01253510    -0.01217281    -0.07500400
Spot 2    -0.01225343    -0.01216989    -0.07500400
Spot 1    -0.01253513    -0.01217278    -0.07500400
Spot 2    -0.01225331    -0.01216992    -0.07500400
20MABNDA000272_PR038
Spot 1    -0.01275714     0.01316105    -0.07417900
Spot 2    -0.01253682     0.01316198    -0.07417900
Spot 1    -0.01275720     0.01316098    -0.07417900
Spot 2    -0.01253667     0.01316166    -0.07417900
Spot 1    -0.01275721     0.01316104    -0.07417900
Spot 2    -0.01253676     0.01316165    -0.07417900
20MABNDA000003_PR039
Spot 1    -0.01280053     0.01212721    -0.07373400
Spot 2    -0.01307833     0.01212664    -0.07373400
Spot 1    -0.01280057     0.01212709    -0.07373400
Spot 2    -0.01307849     0.01212668    -0.07373400
Spot 1    -0.01280060     0.01212709    -0.07373400
Spot 2    -0.01307830     0.01212677    -0.07373400
20MABNDA000196_PR006
Spot 1    -0.01295395     0.01325096    -0.07967100
Spot 2    -0.01258808     0.01324877    -0.07967100
Spot 1    -0.01295392     0.01325127    -0.07967100
Spot 2    -0.01258792     0.01324893    -0.07967100
Spot 1    -0.01295400     0.01325145    -0.07967100
Spot 2    -0.01258792     0.01324861    -0.07967100
20MABNDA000324_PR007
Spot 1    -0.01254651     0.01280797    -0.07446800
Spot 2    -0.01234131     0.01280384    -0.07446800
Spot 1    -0.01254679     0.01280790    -0.07446800
Spot 2    -0.01234105     0.01280392    -0.07446800
Spot 1    -0.01254656     0.01280789    -0.07446800
Spot 2    -0.01234091     0.01280380    -0.07446800
20MABNDB000001_PR017
Spot 1    -0.01228352    -0.01354920    -0.07418400
Spot 2    -0.01191541    -0.01354404    -0.07418400
Spot 1    -0.01228339    -0.01354908    -0.07418400
Spot 2    -0.01191530    -0.01354397    -0.07418400
Spot 1    -0.01228352    -0.01354917    -0.07418400
Spot 2    -0.01191530    -0.01354441    -0.07418400
20MABNDB000260_PR019
Spot 1    -0.01241591    -0.01239604    -0.07492700
Spot 2    -0.01221287    -0.01239281    -0.07492700
Spot 1    -0.01241570    -0.01239566    -0.07492700
Spot 2    -0.01221288    -0.01239245    -0.07492700
Spot 1    -0.01241564    -0.01239578    -0.07492700
Spot 2    -0.01221324    -0.01239240    -0.07492700
20MABNDB000212_PR029
Spot 1    -0.01186048    -0.01327969    -0.07390500
Spot 2    -0.01222062    -0.01327517    -0.07390500
Spot 1    -0.01186053    -0.01327947    -0.07390500
Spot 2    -0.01222055    -0.01327462    -0.07390500
Spot 1    -0.01186063    -0.01327989    -0.07390500
Spot 2    -0.01222062    -0.01327517    -0.07390500
20MABNDB000128_PR030
Spot 1    -0.01244928    -0.01221816    -0.07353400
Spot 2    -0.01224495    -0.01222287    -0.07353400
Spot 1    -0.01244914    -0.01221814    -0.07353400
Spot 2    -0.01224476    -0.01222299    -0.07353400
Spot 1    -0.01244916    -0.01221814    -0.07353400
Spot 2    -0.01224460    -0.01222309    -0.07353400
20MABNDA000444_PR040
Spot 1    -0.01168457     0.01367466    -0.07412000
Spot 2    -0.01205128     0.01367309    -0.07412000
Spot 1    -0.01168457     0.01367450    -0.07412000
Spot 2    -0.01205128     0.01367279    -0.07412000
Spot 1    -0.01168434     0.01367466    -0.07412000
Spot 2    -0.01205134     0.01367262    -0.07412000
20MABNDA000053_PR041
Spot 1    -0.01241200     0.01211655    -0.07430100
Spot 2    -0.01220279     0.01211404    -0.07430100
Spot 1    -0.01241288     0.01211667    -0.07430100
Spot 2    -0.01220365     0.01211415    -0.07430100
Spot 1    -0.01241291     0.01211685    -0.07430100
Spot 2    -0.01220292     0.01211456    -0.07430100
20MABNDA000188_PR008
Spot 1    -0.01391227     0.01380893    -0.07502000
Spot 2    -0.01391227     0.01380893    -0.07502000
Spot 1    -0.01391227     0.01380893    -0.07502000
Spot 2    -0.01391227     0.01380893    -0.07502000
Spot 1    -0.01391227     0.01380893    -0.07502000
Spot 2    -0.01391227     0.01380893    -0.07502000
20MABNDA000188_PR018
Spot 1    -0.01272669     0.01231721    -0.07502000
Spot 2    -0.01225960     0.01231694    -0.07502000
Spot 1    -0.01272645     0.01231708    -0.07502000
Spot 2    -0.01225959     0.01231711    -0.07502000
Spot 1    -0.01272666     0.01231724    -0.07502000
Spot 2    -0.01225957     0.01231695    -0.07502000
20MABNDA000039_PR009
Spot 1    -0.01162595     0.01306323    -0.07444800
Spot 2    -0.01157812     0.01305857    -0.07444800
Spot 1    -0.01162570     0.01306339    -0.07444800
Spot 2    -0.01157864     0.01305857    -0.07444800
Spot 1    -0.01162554     0.01306305    -0.07444800
Spot 2    -0.01157855     0.01305871    -0.07444800
20MABNDA000039_PR011
Spot 1    -0.01372753     0.01396003    -0.07444800
Spot 2    -0.01355228     0.01396416    -0.07444800
Spot 1    -0.01372769     0.01396007    -0.07444800
Spot 2    -0.01355192     0.01396413    -0.07444800
Spot 1    -0.01372761     0.01396010    -0.07444800
Spot 2    -0.01355194     0.01396438    -0.07444800
20MABNDB000155_PR020
Spot 1    -0.01364169    -0.01312277    -0.07501700
Spot 2    -0.01357898    -0.01312591    -0.07501700
Spot 1    -0.01364218    -0.01312302    -0.07501700
Spot 2    -0.01357879    -0.01312589    -0.07501700
20MABNDB000155_PR022
Spot 1    -0.01213252    -0.01281018    -0.07501700
Spot 2    -0.01166052    -0.01281087    -0.07501700
Spot 1    -0.01213261    -0.01281010    -0.07501700
Spot 2    -0.01166048    -0.01281113    -0.07501700
20MABNDB000010_PR021
Spot 1    -0.01157806    -0.01292892    -0.07358200
Spot 2    -0.01175157    -0.01370524    -0.07358200
Spot 1    -0.01157802    -0.01292900    -0.07358200
Spot 2    -0.01175157    -0.01370524    -0.07358200
20MABNDB000010_PR023
Spot 1    -0.01311888    -0.01380155    -0.07358200
Spot 2    -0.01294268    -0.01380092    -0.07358200
Spot 1    -0.01311928    -0.01380158    -0.07358200
Spot 2    -0.01294249    -0.01380096    -0.07358200
20MABNDB000069_PR031
Spot 1    -0.01359320    -0.01286067    -0.07388500
Spot 2    -0.01352002    -0.01286560    -0.07388500
Spot 1    -0.01359248    -0.01286040    -0.07388500
Spot 2    -0.01352106    -0.01286536    -0.07388500
20MABNDB000069_PR033
Spot 1    -0.01202337    -0.01226919    -0.07388500
Spot 2    -0.01155323    -0.01226850    -0.07388500
Spot 1    -0.01202325    -0.01226896    -0.07388500
Spot 2    -0.01155330    -0.01226838    -0.07388500
20MABNDB000131_PR032
Spot 1    -0.01144565    -0.01303832    -0.07533000
Spot 2    -0.01138554    -0.01303488    -0.07533000
Spot 1    -0.01144559    -0.01303863    -0.07533000
Spot 2    -0.01138529    -0.01303489    -0.07533000
20MABNDB000131_PR034
Spot 1    -0.01330147    -0.01379702    -0.07533000
Spot 2    -0.01312559    -0.01379710    -0.07533000
Spot 1    -0.01330156    -0.01379708    -0.07533000
Spot 2    -0.01312523    -0.01379705    -0.07533000
20MABNDA000208_PR042
Spot 1    -0.01349091     0.01359657    -0.07273700
Spot 2    -0.01428982     0.01392070    -0.07273700
Spot 1    -0.01349085     0.01359723    -0.07273700
Spot 2    -0.01429649     0.01392070    -0.07273700
20MABNDA000208_PR046
Spot 1    -0.01232912     0.01177721    -0.07273700
Spot 2    -0.01186903     0.01179413    -0.07273700
Spot 1    -0.01232854     0.01177678    -0.07273700
Spot 2    -0.01187066     0.01179387    -0.07273700
20MABNDA000035_PR044
Spot 1    -0.01157115     0.01300487    -0.07483200
Spot 2    -0.01151472     0.01300994    -0.07483200
Spot 1    -0.01157108     0.01300476    -0.07483200
Spot 2    -0.01151504     0.01301009    -0.07483200
20MABNDA000035_PR045
Spot 1    -0.01336601     0.01380721    -0.07483200
Spot 2    -0.01318914     0.01380737    -0.07483200
Spot 1    -0.01336623     0.01380735    -0.07483200
Spot 2    -0.01318908     0.01380743    -0.07483200


*****************************************************************coordonnees du prisme dans le repere MOUNT********************************************************************************** 
20MABNDL000077_PR002
    0.05006838     0.04753635     3.70691466
    0.06737348     0.07371713     3.70652628
    0.05007052     0.04755337     3.70691466
20MABNDL000077_PR003
    0.02094042     0.02141158     3.89601803
    0.02095114     0.02142004     3.89601803
    0.02094023     0.02141911     3.89601803
20MABNDL000077_20MABNDM000168
   -0.05594912     0.07578102    -5.46843624
   -0.05593074     0.07578518    -5.46843624
   -0.05595490     0.07578132    -5.46843624
20MABNDL000077_PR024
    0.04575959     0.01715544    -5.89639807
    0.04577364     0.01715325    -5.89639759
    0.04577020     0.01714697    -5.89639759
20MABNDM000020_PR013
   -0.00364979    -0.01808909    -3.80243373
   -0.00364113    -0.01810999    -3.80243397
   -0.00364070    -0.01807325    -3.80243373
20MABNDM000020_PR014
   -0.06554773    -0.00491071    -4.74840975
   -0.06557420    -0.00495335    -4.74840975
   -0.06557933    -0.00487566    -4.74840927
20MABNDM000020_20MABNDL000196
    0.02683053    -0.07124809     5.39469719
    0.02682695    -0.07124666     5.39469719
    0.02683412    -0.07125454     5.39469719
20MABNDM000020_PR035
   -0.04247138    -0.00675265     5.80095387
   -0.04246869    -0.00674379     5.80095387
   -0.04245096    -0.00675149     5.80095387
20MABNDM000168_PR025
   -0.00091071    -0.06043248    -3.78869867
    0.04523962    -0.07694230    -3.78811979
    0.04523150    -0.07695049    -3.78811979
20MABNDM000168_PR026
   -0.05782977    -0.01390102    -3.98429012
   -0.05783031    -0.01389790    -3.98429012
   -0.05782561    -0.01390100    -3.98429012
20MABNDM000168_20MABNDL000077
    0.01151074    -0.03876153     5.38884687
    0.01150661    -0.03877405     5.38884687
    0.01149821    -0.03878327     5.38884687
20MABNDM000168_PR001
   -0.05735216    -0.01336285     5.81470585
   -0.05736381    -0.01336423     5.81470490
   -0.05735981    -0.01335615     5.81470490
20MABNDL000196_PR036
    0.05134328     0.00605589     3.68777275
    0.05134794     0.00605639     3.68777275
    0.05134649     0.00604436     3.68777251
20MABNDL000196_PR037
   -0.02507290     0.02837093     3.88381338
   -0.02507008     0.02838024     3.88381338
   -0.02507395     0.02837454     3.88381338
20MABNDL000196_20MABNDM000020
   -0.01568925     0.03790334    -5.47473907
   -0.01569036     0.03788714    -5.47473907
   -0.01568234     0.03788120    -5.47473907
20MABNDL000196_PR012
    0.05236799     0.01442488    -5.91537142
    0.05235799     0.01443906    -5.91537142
    0.05237168     0.01443506    -5.91537142
20MABNDA000318_PR004
   -0.00856590     0.03842710     2.74965906
   -0.00856057     0.03842436     2.74965906
   -0.00856169     0.03843059     2.74965906
20MABNDA000334_PR005
   -0.00430762     0.03174090     2.14977145
   -0.00430232     0.03174604     2.14977145
   -0.00430804     0.03174847     2.14977145
20MABNDB000317_PR015
   -0.01726313    -0.03378099     2.75129199
   -0.01725801    -0.03378275     2.75129199
   -0.01725910    -0.03378276     2.75129199
20MABNDB000146_PR016
   -0.01343412    -0.03156666     2.15201473
   -0.01343354    -0.03156868     2.15201473
   -0.01343613    -0.03156739     2.15201473
20MABNDB000135_PR027
   -0.02096068    -0.00980463     2.74937153
   -0.02096475    -0.00980825     2.74937153
   -0.02096238    -0.00980974     2.74937153
20MABNDB000126_PR028
   -0.02032227    -0.03896305     2.14679527
   -0.02032154    -0.03896504     2.14679527
   -0.02032283    -0.03896504     2.14679527
20MABNDA000272_PR038
   -0.01326675     0.01076295     2.74965858
   -0.01326838     0.01077010     2.74965858
   -0.01326655     0.01076918     2.74965858
20MABNDA000003_PR039
   -0.00597709     0.04121402     2.14891577
   -0.00597423     0.04121516     2.14891577
   -0.00597652     0.04121388     2.14891577
20MABNDA000196_PR006
   -0.01011255     0.00988701     1.64206338
   -0.01011469     0.00988191     1.64206338
   -0.01011379     0.00988353     1.64206338
20MABNDA000324_PR007
   -0.02552428     0.02791049     2.95549059
   -0.02552389     0.02791029     2.95549059
   -0.02553119     0.02791279     2.95549059
20MABNDB000001_PR017
   -0.02452660    -0.00287335     1.64035702
   -0.02452924    -0.00287540     1.64035702
   -0.02452776    -0.00286962     1.64035702
20MABNDB000260_PR019
   -0.02407510    -0.03848523     2.95627499
   -0.02407913    -0.03849969     2.95627499
   -0.02407305    -0.03849839     2.95627499
20MABNDB000212_PR029
   -0.02526747    -0.00848524     1.64223897
   -0.02526778    -0.00849368     1.64223897
   -0.02526581    -0.00848306     1.64223897
20MABNDB000128_PR030
   -0.01949478    -0.04672403     2.95496368
   -0.01950128    -0.04672208     2.95496368
   -0.01950404    -0.04672012     2.95496368
20MABNDA000444_PR040
   -0.03025365     0.00092987     1.64490855
   -0.03025371     0.00093490     1.64490855
   -0.03025557     0.00093488     1.64490855
20MABNDA000053_PR041
   -0.02657760     0.05121886     2.95450211
   -0.02654333     0.05121446     2.95450258
   -0.02655711     0.05120275     2.95450258
20MABNDA000188_PR008
    0.13650158    -0.07885031     9.20339394
    0.13650158    -0.07885031     9.20339394
    0.13650158    -0.07885031     9.20339394
20MABNDA000188_PR018
   -0.01618377     0.02581309     1.28358269
   -0.01618591     0.02581276     1.28358269
   -0.01618428     0.02581275     1.28358269
20MABNDA000039_PR009
   -0.17121612     0.02574428    11.00701523
   -0.17119643     0.02573249    11.00701523
   -0.17121464     0.02574720    11.00701523
20MABNDA000039_PR011
    0.03084128    -0.02403230     3.43347549
    0.03083672    -0.02403228     3.43347549
    0.03083533    -0.02403866     3.43347549
20MABNDB000155_PR020
    0.10170439    -0.00952263     9.20028782
    0.10172322    -0.00950825     9.20028782
20MABNDB000155_PR022
   -0.02602033    -0.01798653     1.28070235
   -0.02601993    -0.01798499     1.28070235
20MABNDB000010_PR021
   -0.16000073     0.02412680    11.00713158
   -0.16000377     0.02413263    11.00713158
20MABNDB000010_PR023
    0.00403472     0.02072541     3.43376851
    0.00403950     0.02072709     3.43376780
20MABNDB000069_PR031
    0.10224445    -0.03882590     9.20356178
    0.10226402    -0.03885740     9.20356178
20MABNDB000069_PR033
   -0.02686530    -0.02683752     1.28394115
   -0.02686568    -0.02684050     1.28394115
20MABNDB000131_PR032
   -0.18759817    -0.02958606    11.00642776
   -0.18762094    -0.02956280    11.00642776
20MABNDB000131_PR034
    0.01475549     0.01638010     3.43337631
    0.01474934     0.01638030     3.43337631
20MABNDA000208_PR042
    0.13171837    -0.07317504     9.20105743
    0.13212335    -0.07321511     9.20104980
20MABNDA000208_PR046
   -0.02318726     0.03478160     1.28208137
   -0.02317829     0.03478742     1.28208137
20MABNDA000035_PR044
   -0.18018913     0.02606457    11.00801945
   -0.18017159     0.02606225    11.00801945
20MABNDA000035_PR045
    0.01422549    -0.01935965     3.43483615
    0.01422911    -0.01936424     3.43483615


*****************************************************************coordonnees du prisme dans le repere ATLAS********************************************************************************** 
20MABNDL000077_PR002 0.00000000
    2.80950475    -3.69444036     6.48622131
    2.78332901    -3.67712641     6.48587990
    2.80948758    -3.69443822     6.48622131
20MABNDL000077_PR003 0.00000000
    2.83580565    -3.72380996     6.67526293
    2.83579707    -3.72379923     6.67526293
    2.83579803    -3.72380996     6.67526293
20MABNDL000077_20MABNDM000168 0.00000000
    2.77222633    -3.78912830    -2.68922138
    2.77222228    -3.78910995    -2.68922138
    2.77222610    -3.78913403    -2.68922138
20MABNDL000077_PR024 0.00000000
    2.83046460    -3.68691015    -3.11711478
    2.83046675    -3.68689632    -3.11711431
    2.83047295    -3.68689966    -3.11711431
20MABNDM000020_PR013 0.00000000
   -2.83422041    -3.73583412     6.48627615
   -2.83419943    -3.73584294     6.48627663
   -2.83423615    -3.73584318     6.48627615
20MABNDM000020_PR014 0.00000000
   -2.84719038    -3.67465162     7.43230200
   -2.84714770    -3.67462516     7.43230200
   -2.84722543    -3.67462015     7.43230152
20MABNDM000020_20MABNDL000196 0.00000000
   -2.78291106    -3.75933599    -2.71088576
   -2.78291249    -3.75933242    -2.71088576
   -2.78290462    -3.75933957    -2.71088576
20MABNDM000020_PR035 0.00000000
   -2.84746671    -3.68970537    -3.11707664
   -2.84747553    -3.68970823    -3.11707664
   -2.84746790    -3.68972588    -3.11707664
20MABNDM000168_PR025 0.00000000
    2.79280925    -3.74440813    -6.47932243
    2.77628732    -3.79055381    -6.47872496
    2.77627921    -3.79054570    -6.47872496
20MABNDM000168_PR026 0.00000000
    2.83934402    -3.68757415    -6.67493773
    2.83934712    -3.68757343    -6.67493773
    2.83934402    -3.68757820    -6.67493773
20MABNDM000168_20MABNDL000077 0.00000000
    2.81503391    -3.75342274     2.69822598
    2.81502151    -3.75341868     2.69822598
    2.81501222    -3.75341034     2.69822598
20MABNDM000168_PR001 0.00000000
    2.84047675    -3.68440819     3.12405777
    2.84047532    -3.68439674     3.12405682
    2.84048343    -3.68440056     3.12405682
20MABNDL000196_PR036 0.00000000
   -2.84755158    -3.69293118    -6.47909641
   -2.84755111    -3.69292641    -6.47909641
   -2.84756327    -3.69292784    -6.47909594
20MABNDL000196_PR037 0.00000000
   -2.82520533    -3.76951933    -6.67506647
   -2.82519603    -3.76951647    -6.67506647
   -2.82520175    -3.76952028    -6.67506647
20MABNDL000196_20MABNDM000020 0.00000000
   -2.81547499    -3.75142598     2.68347335
   -2.81549120    -3.75142694     2.68347335
   -2.81549716    -3.75141907     2.68347335
20MABNDL000196_PR012 0.00000000
   -2.83897567    -3.68296981     3.12404275
   -2.83896136    -3.68297982     3.12404275
   -2.83896542    -3.68296599     3.12404275
20MABNDA000318_PR004 0.00000000
    2.61443734    -4.19698811     3.83357167
    2.61444259    -4.19698811     3.83357430
    2.61444163    -4.19698811     3.83356810
20MABNDA000334_PR005 0.00000000
    2.61669087    -4.19703150     5.89752007
    2.61669636    -4.19703150     5.89751482
    2.61669064    -4.19703150     5.89751244
20MABNDB000317_PR015 0.00000000
   -2.61134410    -4.19700670     3.83623457
   -2.61134911    -4.19700623     3.83623266
   -2.61134815    -4.19700623     3.83623266
20MABNDB000146_PR016 0.00000000
   -2.61286116    -4.19702291     5.89878368
   -2.61286163    -4.19702291     5.89878178
   -2.61285901    -4.19702291     5.89878273
20MABNDB000135_PR027 0.00000000
    2.60390258    -4.19700384    -3.82555628
    2.60389853    -4.19700384    -3.82555270
    2.60390091    -4.19700384    -3.82555103
20MABNDB000126_PR028 0.00000000
    2.60559511    -4.19702101    -5.89325666
    2.60559583    -4.19702101    -5.89325476
    2.60559440    -4.19702101    -5.89325476
20MABNDA000272_PR038 0.00000000
   -2.61127019    -4.19698286    -3.82772136
   -2.61126852    -4.19698286    -3.82771420
   -2.61127043    -4.19698286    -3.82771516
20MABNDA000003_PR039 0.00000000
   -2.61575413    -4.19702101    -5.89155245
   -2.61575699    -4.19702101    -5.89155149
   -2.61575460    -4.19702101    -5.89155293
20MABNDA000196_PR006 0.00000000
    2.58457303    -4.19496536     6.54784346
    2.58457518    -4.19496536     6.54783821
    2.58457446    -4.19496536     6.54784012
20MABNDA000324_PR007 0.00000000
    2.59379053    -4.13996792     6.94800472
    2.59379101    -4.13996792     6.94800472
    2.59378362    -4.13996792     6.94800234
20MABNDB000001_PR017 0.00000000
   -2.59822798    -4.19506073     6.53820133
   -2.59823060    -4.19506073     6.53820324
   -2.59822917    -4.19506073     6.53819752
20MABNDB000260_PR019 0.00000000
   -2.60468674    -4.13995934     6.94215870
   -2.60468268    -4.13995934     6.94214439
   -2.60468888    -4.13995934     6.94214535
20MABNDB000212_PR029 0.00000000
    2.59894514    -4.19500971    -6.54747295
    2.59894562    -4.19500971    -6.54748154
    2.59894347    -4.19500971    -6.54747105
20MABNDB000128_PR030 0.00000000
    2.60936403    -4.14002609    -6.93139696
    2.60935736    -4.14002609    -6.93139887
    2.60935473    -4.14002609    -6.93140078
20MABNDA000444_PR040 0.00000000
   -2.60542607    -4.19510078    -6.54011011
   -2.60542631    -4.19510078    -6.54011536
   -2.60542822    -4.19510078    -6.54011488
20MABNDA000053_PR041 0.00000000
   -2.59396434    -4.14012861    -6.92669487
   -2.59399867    -4.14012814    -6.92669916
   -2.59398484    -4.14012814    -6.92671061
20MABNDA000188_PR008 0.00000000
    3.54951787     3.84898496     8.09023857
    3.54951787     3.84898496     8.09023857
    3.54951787     3.84898496     8.09023857
20MABNDA000188_PR018 0.00000000
    3.52095294    -4.07059622     7.89763594
    3.52095079    -4.07059622     7.89763594
    3.52095246    -4.07059622     7.89763594
20MABNDA000039_PR009 0.00000000
    3.87538815     3.64747334    12.93703842
    3.87536836     3.64747334    12.93702698
    3.87538648     3.64747334    12.93704128
20MABNDA000039_PR011 0.00000000
    3.66418290    -3.92580032    12.88480473
    3.66418743    -3.92580032    12.88480473
    3.66418862    -3.92580032    12.88479805
20MABNDB000155_PR020 0.00000000
   -3.68035650     3.84882188     7.89734459
   -3.68037534     3.84882164     7.89735889
20MABNDB000155_PR022 0.00000000
   -3.53396010    -4.07044172     7.89007282
   -3.53396034    -4.07044172     7.89007425
20MABNDB000010_PR021 0.00000000
   -3.84588861     3.64783335    12.87768841
   -3.84589171     3.64783335    12.87768269
20MABNDB000010_PR023 0.00000000
   -3.68563199    -3.92560816    12.88455105
   -3.68562722    -3.92560887    12.88454914
20MABNDB000069_PR031 0.00000000
    3.68396115     3.84875655    -7.90157652
    3.68398070     3.84875679    -7.90154505
20MABNDB000069_PR033 0.00000000
    3.53343415    -4.07046223    -7.87883377
    3.53343368    -4.07046223    -7.87883091
20MABNDB000131_PR032 0.00000000
    3.86840057     3.64757752   -12.94022846
    3.86842346     3.64757752   -12.94020557
20MABNDB000131_PR034 0.00000000
    3.67303371    -3.92564058   -12.89156723
    3.67303991    -3.92564058   -12.89156723
20MABNDA000208_PR042 0.00000000
   -3.68174982     3.84870481    -7.98466063
   -3.68215466     3.84869766    -7.98470116
20MABNDA000208_PR046 0.00000000
   -3.53257823    -4.07034063    -7.87373686
   -3.53258729    -4.07034063    -7.87373114
20MABNDA000035_PR044 0.00000000
   -3.86943007     3.64757466   -12.93174362
   -3.86941242     3.64757466   -12.93174171
20MABNDA000035_PR045 0.00000000
   -3.67650270    -3.92565107   -12.88702488
   -3.67649913    -3.92565107   -12.88702011


*****************************************************************Rapport********************************************************************************** 
CAM-LBA-US_EBA-US-HO-H         2018.05.06.03.08.14     2.80077378    -3.68866833     6.48610751     0.01233532     0.00816137     0.00016094 0.00000000 VRAI 
CAM-LBA-US_JDA-US-H            2018.05.06.03.08.14     2.83580025    -3.72380638     6.67526293     0.00000384     0.00000506     0.00000000 0.00000000 VRAI 
CAM-LBA-US_CAM-LBC-US          2018.05.06.03.08.14     2.77222490    -3.78912409    -2.68922138     0.00000186     0.00001027     0.00000000 0.00000000 VRAI 
CAM-LBA-US_EBC-US-IP-H         2018.05.06.03.08.14     2.83046810    -3.68690205    -3.11711446     0.00000354     0.00000589     0.00000022 0.00000000 VRAI 
CAM-LBA-USA_EBA-USA-HO-H       2018.05.06.03.08.14    -2.83421866    -3.73584008     6.48627631     0.00001504     0.00000422     0.00000022 0.00000000 VRAI 
CAM-LBA-USA_JDA-USA-H          2018.05.06.03.08.14    -2.84718784    -3.67463231     7.43230184     0.00003178     0.00001381     0.00000022 0.00000000 VRAI 
CAM-LBA-USA_CAM-LBC-USA        2018.05.06.03.08.14    -2.78290939    -3.75933599    -2.71088576     0.00000342     0.00000292     0.00000000 0.00000000 VRAI 
CAM-LBA-USA_EBC-USA-IP-H       2018.05.06.03.08.14    -2.84747005    -3.68971316    -3.11707664     0.00000391     0.00000907     0.00000000 0.00000000 VRAI 
CAM-LBC-US_EBC-US-HO-H         2018.05.06.03.08.14     2.78179193    -3.77516921    -6.47892412     0.00779042     0.02175137     0.00028165 0.00000000 VRAI 
CAM-LBC-US_JDC-US-H            2018.05.06.03.08.14     2.83934506    -3.68757526    -6.67493773     0.00000146     0.00000210     0.00000000 0.00000000 VRAI 
CAM-LBC-US_CAM-LBA-US          2018.05.06.03.08.14     2.81502255    -3.75341725     2.69822598     0.00000889     0.00000516     0.00000000 0.00000000 VRAI 
CAM-LBC-US_EBA-US-IP-H         2018.05.06.03.08.14     2.84047850    -3.68440183     3.12405713     0.00000353     0.00000476     0.00000045 0.00000000 VRAI 
CAM-LBC-USA_EBC-USA-HO-H       2018.05.06.03.08.14    -2.84755532    -3.69292847    -6.47909625     0.00000562     0.00000200     0.00000022 0.00000000 VRAI 
CAM-LBC-USA_JDC-USA-H          2018.05.06.03.08.14    -2.82520103    -3.76951869    -6.67506647     0.00000383     0.00000162     0.00000000 0.00000000 VRAI 
CAM-LBC-USA_CAM-LBA-USA        2018.05.06.03.08.14    -2.81548778    -3.75142399     2.68347335     0.00000937     0.00000351     0.00000000 0.00000000 VRAI 
CAM-LBC-USA_EBA-USA-IP-H       2018.05.06.03.08.14    -2.83896748    -3.68297187     3.12404275     0.00000602     0.00000583     0.00000000 0.00000000 VRAI 
CAM-EBA-US-IP_EBA-US-IP        2018.05.06.03.08.14     2.61444052    -4.19698811     3.83357135     0.00000228     0.00000000     0.00000254 0.00000000 VRAI 
CAM-EBA-US-HO_EBA-US-HO        2018.05.06.03.08.14     2.61669262    -4.19703150     5.89751577     0.00000264     0.00000000     0.00000319 0.00000000 VRAI 
CAM-EBA-USA-IP_EBA-USA-IP      2018.05.06.03.08.14    -2.61134712    -4.19700638     3.83623330     0.00000217     0.00000022     0.00000090 0.00000000 VRAI 
CAM-EBA-USA-HO_EBA-USA-HO      2018.05.06.03.08.14    -2.61286060    -4.19702291     5.89878273     0.00000114     0.00000000     0.00000078 0.00000000 VRAI 
CAM-EBC-US-IP_EBC-US-IP        2018.05.06.03.08.14     2.60390067    -4.19700384    -3.82555334     0.00000166     0.00000000     0.00000219 0.00000000 VRAI 
CAM-EBC-US-HO_EBC-US-HO        2018.05.06.03.08.14     2.60559511    -4.19702101    -5.89325539     0.00000058     0.00000000     0.00000090 0.00000000 VRAI 
CAM-EBC-USA-IP_EBC-USA-IP      2018.05.06.03.08.14    -2.61126971    -4.19698286    -3.82771691     0.00000085     0.00000000     0.00000317 0.00000000 VRAI 
CAM-EBC-USA-HO_EBC-USA-HO      2018.05.06.03.08.14    -2.61575524    -4.19702101    -5.89155229     0.00000125     0.00000000     0.00000059 0.00000000 VRAI 
CAM-JDA-US-IP_JDA-US-IP        2018.05.06.03.08.14     2.58457422    -4.19496536     6.54784060     0.00000089     0.00000000     0.00000217 0.00000000 VRAI 
CAM-JDA-US-HO_JDA-US-HO        2018.05.06.03.08.14     2.59378839    -4.13996792     6.94800393     0.00000338     0.00000000     0.00000112 0.00000000 VRAI 
CAM-JDA-USA-IP_JDA-USA-IP      2018.05.06.03.08.14    -2.59822925    -4.19506073     6.53820070     0.00000107     0.00000000     0.00000238 0.00000000 VRAI 
CAM-JDA-USA-HO_JDA-USA-HO      2018.05.06.03.08.14    -2.60468610    -4.13995934     6.94214948     0.00000257     0.00000000     0.00000653 0.00000000 VRAI 
CAM-JDC-US-IP_JDC-US-IP        2018.05.06.03.08.14     2.59894474    -4.19500971    -6.54747518     0.00000092     0.00000000     0.00000456 0.00000000 VRAI 
CAM-JDC-US-HO_JDC-US-HO        2018.05.06.03.08.14     2.60935871    -4.14002609    -6.93139887     0.00000391     0.00000000     0.00000156 0.00000000 VRAI 
CAM-JDC-USA-IP_JDC-USA-IP      2018.05.06.03.08.14    -2.60542687    -4.19510078    -6.54011345     0.00000096     0.00000000     0.00000237 0.00000000 VRAI 
CAM-JDC-USA-HO_JDC-USA-HO      2018.05.06.03.08.14    -2.59398262    -4.14012829    -6.92670155     0.00001410     0.00000022     0.00000664 0.00000000 VRAI 
CAM-ECTA-US-IP_ECTA-US-IP-T    2018.05.06.03.08.14     3.54951787     3.84898496     8.09023857     0.00000000     0.00000000     0.00000000 0.00000000 VRAI 
CAM-ECTA-US-IP_ECTA-US-IP      2018.05.06.03.08.14     3.52095207    -4.07059622     7.89763594     0.00000092     0.00000000     0.00000000 0.00000000 VRAI 
CAM-ECTA-US-HO_ECTA-US-HO-T    2018.05.06.03.08.14     3.87538099     3.64747334    12.93703556     0.00000896     0.00000000     0.00000618 0.00000000 VRAI 
CAM-ECTA-US-HO_ECTA-US-HO      2018.05.06.03.08.14     3.66418632    -3.92580032    12.88480250     0.00000246     0.00000000     0.00000315 0.00000000 VRAI 
CAM-ECTA-USA-IP_ECTA-USA-IP-T  2018.05.06.03.08.14    -3.68036592     3.84882176     7.89735174     0.00000942     0.00000012     0.00000715 0.00000000 VRAI 
CAM-ECTA-USA-IP_ECTA-USA-IP    2018.05.06.03.08.14    -3.53396022    -4.07044172     7.89007354     0.00000012     0.00000000     0.00000072 0.00000000 VRAI 
CAM-ECTA-USA-HO_ECTA-USA-HO-T  2018.05.06.03.08.14    -3.84589016     3.64783335    12.87768555     0.00000155     0.00000000     0.00000286 0.00000000 VRAI 
CAM-ECTA-USA-HO_ECTA-USA-HO    2018.05.06.03.08.14    -3.68562961    -3.92560852    12.88455009     0.00000238     0.00000036     0.00000095 0.00000000 VRAI 
CAM-ECTC-US-IP_ECTC-US-IP-T    2018.05.06.03.08.14     3.68397093     3.84875667    -7.90156078     0.00000978     0.00000012     0.00001574 0.00000000 VRAI 
CAM-ECTC-US-IP_ECTC-US-IP      2018.05.06.03.08.14     3.53343391    -4.07046223    -7.87883234     0.00000024     0.00000000     0.00000143 0.00000000 VRAI 
CAM-ECTC-US-HO_ECTC-US-HO-T    2018.05.06.03.08.14     3.86841202     3.64757752   -12.94021702     0.00001144     0.00000000     0.00001144 0.00000000 VRAI 
CAM-ECTC-US-HO_ECTC-US-HO      2018.05.06.03.08.14     3.67303681    -3.92564058   -12.89156723     0.00000310     0.00000000     0.00000000 0.00000000 VRAI 
CAM-ECTC-USA-IP_ECTC-USA-IP-T  2018.05.06.03.08.14    -3.68195224     3.84870124    -7.98468089     0.00020242     0.00000358     0.00002027 0.00000000 VRAI 
CAM-ECTC-USA-IP_ECTC-USA-IP    2018.05.06.03.08.14    -3.53258276    -4.07034063    -7.87373400     0.00000453     0.00000000     0.00000286 0.00000000 VRAI 
CAM-ECTC-USA-HO_ECTC-USA-HO-T  2018.05.06.03.08.14    -3.86942124     3.64757466   -12.93174267     0.00000882     0.00000000     0.00000095 0.00000000 VRAI 
CAM-ECTC-USA-HO_ECTC-USA-HO    2018.05.06.03.08.14    -3.67650092    -3.92565107   -12.88702250     0.00000179     0.00000000     0.00000238 0.00000000 VRAI 
