********** Fichier qui contient une sauvegarde des coordonnees images + coordonnees images transformees dans le repere BCAM (MOUNT) + coordonnees des prismes dans le repere MOUNT********** 
********************************************************************** Unite en metres (m)************************************************************************************************** 

*******************************************************************coordonnees images dans le repere CCD *********************************************************************************** 
20MABNDL000077_PR002
Spot 1     0.00052500     0.00043500
Spot 2     0.00052500     0.00043500
Spot 1     0.00052500     0.00043500
Spot 2     0.00052500     0.00043500
Spot 1     0.00121439     0.00150164
Spot 2     0.00052500     0.00043500
20MABNDL000077_PR003
Spot 1     0.00138770     0.00148712
Spot 2     0.00153711     0.00148927
Spot 1     0.00138759     0.00148709
Spot 2     0.00153748     0.00148916
Spot 1     0.00138769     0.00148733
Spot 2     0.00153737     0.00148916
20MABNDL000077_20MABNDM000168
Spot 1     0.00175708     0.00118443
Spot 2     0.00075500     0.00010500
Spot 1     0.00175703     0.00118441
Spot 2     0.00075500     0.00010500
Spot 1     0.00175767     0.00118441
Spot 2     0.00075500     0.00010500
20MABNDL000077_PR024
Spot 1     0.00254662     0.00144799
Spot 2     0.00264581     0.00145550
Spot 1     0.00254596     0.00144779
Spot 2     0.00264595     0.00145542
Spot 1     0.00254612     0.00144776
Spot 2     0.00264609     0.00145534
20MABNDM000020_PR013
Spot 1     0.00162755     0.00152726
Spot 2     0.00147377     0.00153283
Spot 1     0.00162656     0.00152648
Spot 2     0.00147309     0.00153361
Spot 1     0.00162758     0.00152656
Spot 2     0.00147357     0.00153463
20MABNDM000020_PR014
Spot 1     0.00265936     0.00168876
Spot 2     0.00249876     0.00169604
Spot 1     0.00265957     0.00168981
Spot 2     0.00249842     0.00169401
Spot 1     0.00265951     0.00168928
Spot 2     0.00249833     0.00169434
20MABNDM000020_20MABNDL000196
Spot 1     0.00197679     0.00117814
Spot 2     0.00230500     0.00010500
Spot 1     0.00197684     0.00117829
Spot 2     0.00230500     0.00010500
Spot 1     0.00197676     0.00117818
Spot 2     0.00230500     0.00010500
20MABNDM000020_PR035
Spot 1     0.00126889     0.00149621
Spot 2     0.00118671     0.00153124
Spot 1     0.00126933     0.00149605
Spot 2     0.00118688     0.00153131
Spot 1     0.00126926     0.00149610
Spot 2     0.00118684     0.00153137
20MABNDM000168_PR025
Spot 1     0.00066500     0.00028500
Spot 2     0.00148500     0.00050500
Spot 1     0.00049500     0.00004500
Spot 2     0.00049500     0.00004500
Spot 1     0.00170500     0.00084500
Spot 2     0.00170500     0.00084500
20MABNDM000168_PR026
Spot 1     0.00266700     0.00143029
Spot 2     0.00250554     0.00142675
Spot 1     0.00266683     0.00143046
Spot 2     0.00250553     0.00142676
Spot 1     0.00266684     0.00143061
Spot 2     0.00250554     0.00142677
20MABNDM000168_20MABNDL000077
Spot 1     0.00154151     0.00130032
Spot 2     0.00175872     0.00130677
Spot 1     0.00154148     0.00130030
Spot 2     0.00175826     0.00130663
Spot 1     0.00154144     0.00130019
Spot 2     0.00175818     0.00130611
20MABNDM000168_PR001
Spot 1     0.00080853     0.00161858
Spot 2     0.00070628     0.00162075
Spot 1     0.00080871     0.00161871
Spot 2     0.00070632     0.00162098
Spot 1     0.00080855     0.00161884
Spot 2     0.00070644     0.00162088
20MABNDL000196_PR036
Spot 1     0.00094585     0.00163687
Spot 2     0.00111058     0.00163621
Spot 1     0.00094593     0.00163679
Spot 2     0.00111048     0.00163591
Spot 1     0.00094586     0.00163681
Spot 2     0.00111050     0.00163610
20MABNDL000196_PR037
Spot 1     0.00246797     0.00117171
Spot 2     0.00262318     0.00117012
Spot 1     0.00246795     0.00117158
Spot 2     0.00262336     0.00117018
Spot 1     0.00246811     0.00117168
Spot 2     0.00262327     0.00117015
20MABNDL000196_20MABNDM000020
Spot 1     0.00192592     0.00104127
Spot 2     0.00170483     0.00104638
Spot 1     0.00192597     0.00104118
Spot 2     0.00170511     0.00104652
Spot 1     0.00192602     0.00104116
Spot 2     0.00170506     0.00104631
20MABNDL000196_PR012
Spot 1     0.00265181     0.00134176
Spot 2     0.00272495     0.00138796
Spot 1     0.00265170     0.00134181
Spot 2     0.00272469     0.00138820
Spot 1     0.00265189     0.00134178
Spot 2     0.00272480     0.00138820
20MABNDA000318_PR004
Spot 1     0.00192529     0.00162688
Spot 2     0.00214347     0.00162634
Spot 1     0.00192509     0.00162685
Spot 2     0.00214355     0.00162602
Spot 1     0.00192523     0.00162680
Spot 2     0.00214351     0.00162618
20MABNDA000334_PR005
Spot 1     0.00247156     0.00158775
Spot 2     0.00219133     0.00158820
Spot 1     0.00247160     0.00158777
Spot 2     0.00219135     0.00158817
Spot 1     0.00247153     0.00158764
Spot 2     0.00219127     0.00158817
20MABNDB000317_PR015
Spot 1     0.00170439     0.00158763
Spot 2     0.00148460     0.00159419
Spot 1     0.00170454     0.00158767
Spot 2     0.00148445     0.00159425
Spot 1     0.00170448     0.00158768
Spot 2     0.00148434     0.00159411
20MABNDB000146_PR016
Spot 1     0.00144403     0.00132497
Spot 2     0.00172003     0.00132728
Spot 1     0.00144398     0.00132506
Spot 2     0.00171985     0.00132728
Spot 1     0.00144420     0.00132509
Spot 2     0.00171994     0.00132735
20MABNDB000135_PR027
Spot 1     0.00189021     0.00091423
Spot 2     0.00210822     0.00091590
Spot 1     0.00189017     0.00091419
Spot 2     0.00210830     0.00091591
Spot 1     0.00189033     0.00091425
Spot 2     0.00210843     0.00091564
20MABNDB000126_PR028
Spot 1     0.00164384     0.00200914
Spot 2     0.00192647     0.00201092
Spot 1     0.00164385     0.00200916
Spot 2     0.00192647     0.00201090
Spot 1     0.00164375     0.00200914
Spot 2     0.00192639     0.00201079
20MABNDA000272_PR038
Spot 1     0.00192130     0.00095019
Spot 2     0.00170031     0.00094881
Spot 1     0.00192134     0.00094995
Spot 2     0.00170036     0.00094911
Spot 1     0.00192160     0.00094955
Spot 2     0.00170023     0.00094913
20MABNDA000003_PR039
Spot 1     0.00199903     0.00192551
Spot 2     0.00227734     0.00192652
Spot 1     0.00199900     0.00192535
Spot 2     0.00227733     0.00192657
Spot 1     0.00199907     0.00192530
Spot 2     0.00227729     0.00192634
20MABNDA000196_PR006
Spot 1     0.00199930     0.00072670
Spot 2     0.00163278     0.00072420
Spot 1     0.00199929     0.00072676
Spot 2     0.00163283     0.00072444
Spot 1     0.00199934     0.00072657
Spot 2     0.00163280     0.00072418
20MABNDA000324_PR007
Spot 1     0.00173516     0.00122065
Spot 2     0.00194139     0.00121510
Spot 1     0.00173485     0.00122067
Spot 2     0.00194120     0.00121495
Spot 1     0.00173490     0.00122066
Spot 2     0.00194117     0.00121505
20MABNDB000001_PR017
Spot 1     0.00190201     0.00043851
Spot 2     0.00227092     0.00044739
Spot 1     0.00190202     0.00043848
Spot 2     0.00227097     0.00044722
Spot 1     0.00190213     0.00043853
Spot 2     0.00227080     0.00044732
20MABNDB000260_PR019
Spot 1     0.00191540     0.00150756
Spot 2     0.00211854     0.00150731
Spot 1     0.00191541     0.00150754
Spot 2     0.00211980     0.00150740
Spot 1     0.00191526     0.00150768
Spot 2     0.00211889     0.00150667
20MABNDB000212_PR029
Spot 1     0.00222901     0.00070108
Spot 2     0.00186830     0.00070098
Spot 1     0.00222896     0.00070108
Spot 2     0.00186836     0.00070093
Spot 1     0.00222896     0.00070108
Spot 2     0.00186840     0.00070090
20MABNDB000128_PR030
Spot 1     0.00190500     0.00199972
Spot 2     0.00211034     0.00199416
Spot 1     0.00190509     0.00199978
Spot 2     0.00211041     0.00199432
Spot 1     0.00190532     0.00199995
Spot 2     0.00211033     0.00199408
20MABNDA000444_PR040
Spot 1     0.00074604     0.00035543
Spot 2     0.00111395     0.00035307
Spot 1     0.00074617     0.00035558
Spot 2     0.00111366     0.00035216
Spot 1     0.00074633     0.00035542
Spot 2     0.00111412     0.00035289
20MABNDA000053_PR041
Spot 1     0.00165753     0.00199190
Spot 2     0.00144547     0.00199039
Spot 1     0.00165745     0.00199196
Spot 2     0.00144486     0.00199085
Spot 1     0.00165751     0.00199180
Spot 2     0.00144523     0.00199133
20MABNDA000188_PR008
Spot 1     0.00297500     0.00011500
Spot 2     0.00297500     0.00011500
Spot 1     0.00266500     0.00126500
Spot 2     0.00266500     0.00126500
Spot 1     0.00297500     0.00011500
Spot 2     0.00297500     0.00011500
20MABNDA000188_PR018
Spot 1     0.00169652     0.00173674
Spot 2     0.00122914     0.00173282
Spot 1     0.00169658     0.00173663
Spot 2     0.00122915     0.00173290
Spot 1     0.00169661     0.00173681
Spot 2     0.00122931     0.00173297
20MABNDA000039_PR009
Spot 1     0.00066420     0.00118011
Spot 2     0.00061635     0.00118411
Spot 1     0.00066425     0.00118024
Spot 2     0.00061624     0.00118425
Spot 1     0.00066425     0.00118020
Spot 2     0.00061633     0.00118401
20MABNDA000039_PR011
Spot 1     0.00277008     0.00029139
Spot 2     0.00259403     0.00028606
Spot 1     0.00276986     0.00029163
Spot 2     0.00259406     0.00028628
Spot 1     0.00276998     0.00029140
Spot 2     0.00259398     0.00028602
20MABNDB000155_PR020
Spot 1     0.00062352     0.00113557
Spot 2     0.00068988     0.00113134
Spot 1     0.00062322     0.00113541
Spot 2     0.00068983     0.00113164
Spot 1     0.00062347     0.00113577
Spot 2     0.00068906     0.00113156
20MABNDB000155_PR022
Spot 1     0.00213864     0.00142813
Spot 2     0.00261160     0.00142268
Spot 1     0.00213858     0.00142811
Spot 2     0.00261141     0.00142295
20MABNDB000010_PR021
Spot 1     0.00287171     0.00114946
Spot 2     0.00268750     0.00037750
Spot 1     0.00287152     0.00114892
Spot 2     0.00315250     0.00010500
20MABNDB000010_PR023
Spot 1     0.00131742     0.00030186
Spot 2     0.00149331     0.00029975
Spot 1     0.00131742     0.00030177
Spot 2     0.00149328     0.00029977
20MABNDB000069_PR031
Spot 1     0.00028296     0.00140624
Spot 2     0.00035580     0.00140500
Spot 1     0.00028307     0.00140587
Spot 2     0.00035546     0.00140495
20MABNDB000069_PR033
Spot 1     0.00182526     0.00206674
Spot 2     0.00229581     0.00208699
Spot 1     0.00182536     0.00206681
Spot 2     0.00229603     0.00208699
20MABNDB000131_PR032
Spot 1     0.00277449     0.00107523
Spot 2     0.00283491     0.00107828
Spot 1     0.00277491     0.00107542
Spot 2     0.00283478     0.00107835
20MABNDB000131_PR034
Spot 1     0.00091413     0.00032387
Spot 2     0.00109045     0.00032366
Spot 1     0.00091425     0.00032381
Spot 2     0.00109049     0.00032369
20MABNDA000208_PR042
Spot 1     0.00263912     0.00044853
Spot 2     0.00282833     0.00053833
Spot 1     0.00263974     0.00044763
Spot 2     0.00339000     0.00045000
20MABNDA000208_PR046
Spot 1     0.00143837     0.00225559
Spot 2     0.00103269     0.00217036
Spot 1     0.00143840     0.00225597
Spot 2     0.00096667     0.00203278
20MABNDA000035_PR044
Spot 1     0.00073778     0.00125025
Spot 2     0.00067977     0.00124442
Spot 1     0.00073803     0.00124996
Spot 2     0.00067969     0.00124443
20MABNDA000035_PR045
Spot 1     0.00253696     0.00045825
Spot 2     0.00235970     0.00045690
Spot 1     0.00253707     0.00045816
Spot 2     0.00235992     0.00045674


****************************************************************coordonnees images transformees dans le repere MOUNT************************************************************************* 
20MABNDL000077_PR002
Spot 1     0.01158509     0.03451311    -0.07463200
Spot 2     0.01158509     0.03451311    -0.07463200
Spot 1     0.01158509     0.03451311    -0.07463200
Spot 2     0.01158509     0.03451311    -0.07463200
Spot 1     0.01228471     0.03557307    -0.07463200
Spot 2     0.01158509     0.03451311    -0.07463200
20MABNDL000077_PR003
Spot 1     0.01245787     0.03555688    -0.07463200
Spot 2     0.01260730     0.03555760    -0.07463200
Spot 1     0.01245776     0.03555686    -0.07463200
Spot 2     0.01260767     0.03555748    -0.07463200
Spot 1     0.01245786     0.03555709    -0.07463200
Spot 2     0.01260756     0.03555748    -0.07463200
20MABNDL000077_20MABNDM000168
Spot 1    -0.01259223     0.03524742    -0.00695400
Spot 2    -0.01157915     0.03417830    -0.00695400
Spot 1    -0.01259218     0.03524740    -0.00695400
Spot 2    -0.01157915     0.03417830    -0.00695400
Spot 1    -0.01259282     0.03524739    -0.00695400
Spot 2    -0.01157915     0.03417830    -0.00695400
20MABNDL000077_PR024
Spot 1    -0.01338442     0.03550288    -0.00695400
Spot 2    -0.01348368     0.03550937    -0.00695400
Spot 1    -0.01338376     0.03550269    -0.00695400
Spot 2    -0.01348382     0.03550929    -0.00695400
Spot 1    -0.01338392     0.03550266    -0.00695400
Spot 2    -0.01348396     0.03550921    -0.00695400
20MABNDM000020_PR013
Spot 1    -0.01273138    -0.03548593    -0.00523500
Spot 2    -0.01288500    -0.03549490    -0.00523500
Spot 1    -0.01273239    -0.03548517    -0.00523500
Spot 2    -0.01288567    -0.03549570    -0.00523500
Spot 1    -0.01273137    -0.03548523    -0.00523500
Spot 2    -0.01288516    -0.03549671    -0.00523500
20MABNDM000020_PR014
Spot 1    -0.01169626    -0.03562458    -0.00523500
Spot 2    -0.01185665    -0.03563541    -0.00523500
Spot 1    -0.01169602    -0.03562562    -0.00523500
Spot 2    -0.01185704    -0.03563338    -0.00523500
Spot 1    -0.01169609    -0.03562509    -0.00523500
Spot 2    -0.01185712    -0.03563372    -0.00523500
20MABNDM000020_20MABNDL000196
Spot 1     0.01270949    -0.03514670    -0.07583800
Spot 2     0.01238113    -0.03407361    -0.07583800
Spot 1     0.01270944    -0.03514685    -0.07583800
Spot 2     0.01238113    -0.03407361    -0.07583800
Spot 1     0.01270952    -0.03514674    -0.07583800
Spot 2     0.01238113    -0.03407361    -0.07583800
20MABNDM000020_PR035
Spot 1     0.01341743    -0.03546468    -0.07583800
Spot 2     0.01349962    -0.03549969    -0.07583800
Spot 1     0.01341699    -0.03546452    -0.07583800
Spot 2     0.01349945    -0.03549976    -0.07583800
Spot 1     0.01341706    -0.03546457    -0.07583800
Spot 2     0.01349949    -0.03549982    -0.07583800
20MABNDM000168_PR025
Spot 1    -0.01374223    -0.03462439    -0.00532900
Spot 2    -0.01292129    -0.03484087    -0.00532900
Spot 1    -0.01391326    -0.03438512    -0.00532900
Spot 2    -0.01391326    -0.03438512    -0.00532900
Spot 1    -0.01269984    -0.03517992    -0.00532900
Spot 2    -0.01269984    -0.03517992    -0.00532900
20MABNDM000168_PR026
Spot 1    -0.01173533    -0.03576107    -0.00532900
Spot 2    -0.01189680    -0.03575823    -0.00532900
Spot 1    -0.01173550    -0.03576124    -0.00532900
Spot 2    -0.01189681    -0.03575824    -0.00532900
Spot 1    -0.01173549    -0.03576139    -0.00532900
Spot 2    -0.01189680    -0.03575825    -0.00532900
20MABNDM000168_20MABNDL000077
Spot 1     0.01288395    -0.03530095    -0.07445100
Spot 2     0.01266667    -0.03530422    -0.07445100
Spot 1     0.01288398    -0.03530093    -0.07445100
Spot 2     0.01266713    -0.03530409    -0.07445100
Spot 1     0.01288402    -0.03530082    -0.07445100
Spot 2     0.01266722    -0.03530357    -0.07445100
20MABNDM000168_PR001
Spot 1     0.01361219    -0.03562990    -0.07445100
Spot 2     0.01371440    -0.03563357    -0.07445100
Spot 1     0.01361201    -0.03563003    -0.07445100
Spot 2     0.01371436    -0.03563380    -0.07445100
Spot 1     0.01361217    -0.03563016    -0.07445100
Spot 2     0.01371424    -0.03563370    -0.07445100
20MABNDL000196_PR036
Spot 1     0.01192578     0.03582557    -0.07483600
Spot 2     0.01209051     0.03582525    -0.07483600
Spot 1     0.01192586     0.03582549    -0.07483600
Spot 2     0.01209041     0.03582495    -0.07483600
Spot 1     0.01192579     0.03582551    -0.07483600
Spot 2     0.01209043     0.03582514    -0.07483600
20MABNDL000196_PR037
Spot 1     0.01344887     0.03536358    -0.07483600
Spot 2     0.01360408     0.03536232    -0.07483600
Spot 1     0.01344885     0.03536345    -0.07483600
Spot 2     0.01360426     0.03536238    -0.07483600
Spot 1     0.01344901     0.03536355    -0.07483600
Spot 2     0.01360417     0.03536235    -0.07483600
20MABNDL000196_20MABNDM000020
Spot 1    -0.01274997     0.03531247    -0.00611000
Spot 2    -0.01252902     0.03532203    -0.00611000
Spot 1    -0.01275001     0.03531238    -0.00611000
Spot 2    -0.01252931     0.03532216    -0.00611000
Spot 1    -0.01275006     0.03531236    -0.00611000
Spot 2    -0.01252925     0.03532195    -0.00611000
20MABNDL000196_PR012
Spot 1    -0.01348175     0.03559830    -0.00611000
Spot 2    -0.01355581     0.03564302    -0.00611000
Spot 1    -0.01348164     0.03559835    -0.00611000
Spot 2    -0.01355555     0.03564326    -0.00611000
Spot 1    -0.01348183     0.03559831    -0.00611000
Spot 2    -0.01355566     0.03564326    -0.00611000
20MABNDA000318_PR004
Spot 1    -0.01264511     0.01246900    -0.07310600
Spot 2    -0.01286329     0.01246890    -0.07310600
Spot 1    -0.01264491     0.01246903    -0.07310600
Spot 2    -0.01286337     0.01246922    -0.07310600
Spot 1    -0.01264505     0.01246908    -0.07310600
Spot 2    -0.01286333     0.01246906    -0.07310600
20MABNDA000334_PR005
Spot 1    -0.01311467     0.01254064    -0.07324100
Spot 2    -0.01283444     0.01253993    -0.07324100
Spot 1    -0.01311471     0.01254062    -0.07324100
Spot 2    -0.01283446     0.01253996    -0.07324100
Spot 1    -0.01311464     0.01254075    -0.07324100
Spot 2    -0.01283438     0.01253996    -0.07324100
20MABNDB000317_PR015
Spot 1    -0.01244977    -0.01250789    -0.07326100
Spot 2    -0.01266962    -0.01250389    -0.07326100
Spot 1    -0.01244962    -0.01250785    -0.07326100
Spot 2    -0.01266977    -0.01250383    -0.07326100
Spot 1    -0.01244968    -0.01250784    -0.07326100
Spot 2    -0.01266988    -0.01250398    -0.07326100
20MABNDB000146_PR016
Spot 1    -0.01276431    -0.01246864    -0.07450500
Spot 2    -0.01248832    -0.01246572    -0.07450500
Spot 1    -0.01276436    -0.01246855    -0.07450500
Spot 2    -0.01248850    -0.01246572    -0.07450500
Spot 1    -0.01276414    -0.01246852    -0.07450500
Spot 2    -0.01248841    -0.01246565    -0.07450500
20MABNDB000135_PR027
Spot 1    -0.01251448    -0.01319878    -0.07464700
Spot 2    -0.01229647    -0.01319954    -0.07464700
Spot 1    -0.01251452    -0.01319882    -0.07464700
Spot 2    -0.01229639    -0.01319953    -0.07464700
Spot 1    -0.01251436    -0.01319876    -0.07464700
Spot 2    -0.01229626    -0.01319980    -0.07464700
20MABNDB000126_PR028
Spot 1    -0.01253569    -0.01217304    -0.07500400
Spot 2    -0.01225308    -0.01216975    -0.07500400
Spot 1    -0.01253568    -0.01217302    -0.07500400
Spot 2    -0.01225308    -0.01216977    -0.07500400
Spot 1    -0.01253578    -0.01217304    -0.07500400
Spot 2    -0.01225316    -0.01216988    -0.07500400
20MABNDA000272_PR038
Spot 1    -0.01275695     0.01316127    -0.07417900
Spot 2    -0.01253596     0.01316226    -0.07417900
Spot 1    -0.01275699     0.01316151    -0.07417900
Spot 2    -0.01253601     0.01316196    -0.07417900
Spot 1    -0.01275725     0.01316191    -0.07417900
Spot 2    -0.01253588     0.01316194    -0.07417900
20MABNDA000003_PR039
Spot 1    -0.01280011     0.01212675    -0.07373400
Spot 2    -0.01307842     0.01212645    -0.07373400
Spot 1    -0.01280008     0.01212691    -0.07373400
Spot 2    -0.01307841     0.01212640    -0.07373400
Spot 1    -0.01280015     0.01212696    -0.07373400
Spot 2    -0.01307837     0.01212663    -0.07373400
20MABNDA000196_PR006
Spot 1    -0.01295397     0.01325170    -0.07967100
Spot 2    -0.01258745     0.01324948    -0.07967100
Spot 1    -0.01295396     0.01325163    -0.07967100
Spot 2    -0.01258750     0.01324924    -0.07967100
Spot 1    -0.01295401     0.01325183    -0.07967100
Spot 2    -0.01258747     0.01324950    -0.07967100
20MABNDA000324_PR007
Spot 1    -0.01234081     0.01280258    -0.07446800
Spot 2    -0.01254708     0.01280652    -0.07446800
Spot 1    -0.01234050     0.01280257    -0.07446800
Spot 2    -0.01254689     0.01280668    -0.07446800
Spot 1    -0.01234055     0.01280258    -0.07446800
Spot 2    -0.01254686     0.01280658    -0.07446800
20MABNDB000001_PR017
Spot 1    -0.01228636    -0.01355117    -0.07418400
Spot 2    -0.01191737    -0.01354620    -0.07418400
Spot 1    -0.01228635    -0.01355120    -0.07418400
Spot 2    -0.01191732    -0.01354637    -0.07418400
Spot 1    -0.01228623    -0.01355115    -0.07418400
Spot 2    -0.01191749    -0.01354627    -0.07418400
20MABNDB000260_PR019
Spot 1    -0.01241604    -0.01239513    -0.07492700
Spot 2    -0.01221294    -0.01239122    -0.07492700
Spot 1    -0.01241603    -0.01239515    -0.07492700
Spot 2    -0.01221168    -0.01239110    -0.07492700
Spot 1    -0.01241618    -0.01239501    -0.07492700
Spot 2    -0.01221257    -0.01239185    -0.07492700
20MABNDB000212_PR029
Spot 1    -0.01185883    -0.01328014    -0.07390500
Spot 2    -0.01221952    -0.01327639    -0.07390500
Spot 1    -0.01185888    -0.01328014    -0.07390500
Spot 2    -0.01221946    -0.01327644    -0.07390500
Spot 1    -0.01185888    -0.01328014    -0.07390500
Spot 2    -0.01221942    -0.01327647    -0.07390500
20MABNDB000128_PR030
Spot 1    -0.01245012    -0.01221758    -0.07353400
Spot 2    -0.01224476    -0.01222243    -0.07353400
Spot 1    -0.01245003    -0.01221752    -0.07353400
Spot 2    -0.01224469    -0.01222227    -0.07353400
Spot 1    -0.01244980    -0.01221735    -0.07353400
Spot 2    -0.01224477    -0.01222251    -0.07353400
20MABNDA000444_PR040
Spot 1    -0.01168585     0.01367437    -0.07412000
Spot 2    -0.01205376     0.01367206    -0.07412000
Spot 1    -0.01168598     0.01367422    -0.07412000
Spot 2    -0.01205348     0.01367298    -0.07412000
Spot 1    -0.01168614     0.01367438    -0.07412000
Spot 2    -0.01205393     0.01367224    -0.07412000
20MABNDA000053_PR041
Spot 1    -0.01241422     0.01211865    -0.07430100
Spot 2    -0.01220217     0.01211602    -0.07430100
Spot 1    -0.01241414     0.01211859    -0.07430100
Spot 2    -0.01220157     0.01211555    -0.07430100
Spot 1    -0.01241419     0.01211875    -0.07430100
Spot 2    -0.01220195     0.01211507    -0.07430100
20MABNDA000188_PR008
Spot 1    -0.01399107     0.01394961    -0.07502000
Spot 2    -0.01399107     0.01394961    -0.07502000
Spot 1    -0.01369093     0.01279700    -0.07502000
Spot 2    -0.01369093     0.01279700    -0.07502000
Spot 1    -0.01399107     0.01394961    -0.07502000
Spot 2    -0.01399107     0.01394961    -0.07502000
20MABNDA000188_PR018
Spot 1    -0.01272652     0.01231698    -0.07502000
Spot 2    -0.01225913     0.01231690    -0.07502000
Spot 1    -0.01272658     0.01231709    -0.07502000
Spot 2    -0.01225914     0.01231682    -0.07502000
Spot 1    -0.01272661     0.01231691    -0.07502000
Spot 2    -0.01225930     0.01231675    -0.07502000
20MABNDA000039_PR009
Spot 1    -0.01162635     0.01306403    -0.07444800
Spot 2    -0.01157852     0.01305982    -0.07444800
Spot 1    -0.01162640     0.01306390    -0.07444800
Spot 2    -0.01157841     0.01305968    -0.07444800
Spot 1    -0.01162640     0.01306394    -0.07444800
Spot 2    -0.01157850     0.01305992    -0.07444800
20MABNDA000039_PR011
Spot 1    -0.01372837     0.01396185    -0.07444800
Spot 2    -0.01355229     0.01396642    -0.07444800
Spot 1    -0.01372815     0.01396161    -0.07444800
Spot 2    -0.01355232     0.01396620    -0.07444800
Spot 1    -0.01372827     0.01396184    -0.07444800
Spot 2    -0.01355224     0.01396646    -0.07444800
20MABNDB000155_PR020
Spot 1    -0.01364272    -0.01312175    -0.07501700
Spot 2    -0.01357631    -0.01312507    -0.07501700
Spot 1    -0.01364302    -0.01312191    -0.07501700
Spot 2    -0.01357636    -0.01312477    -0.07501700
Spot 1    -0.01364277    -0.01312155    -0.07501700
Spot 2    -0.01357713    -0.01312486    -0.07501700
20MABNDB000155_PR022
Spot 1    -0.01213175    -0.01280848    -0.07501700
Spot 2    -0.01165876    -0.01280745    -0.07501700
Spot 1    -0.01213181    -0.01280850    -0.07501700
Spot 2    -0.01165895    -0.01280718    -0.07501700
20MABNDB000010_PR021
Spot 1    -0.01157924    -0.01292900    -0.07358200
Spot 2    -0.01175034    -0.01370397    -0.07358200
Spot 1    -0.01157942    -0.01292954    -0.07358200
Spot 2    -0.01128079    -0.01396855    -0.07358200
20MABNDB000010_PR023
Spot 1    -0.01311894    -0.01380281    -0.07358200
Spot 2    -0.01294304    -0.01380194    -0.07358200
Spot 1    -0.01311894    -0.01380290    -0.07358200
Spot 2    -0.01294307    -0.01380192    -0.07358200
20MABNDB000069_PR031
Spot 1    -0.01359324    -0.01286138    -0.07388500
Spot 2    -0.01352051    -0.01286562    -0.07388500
Spot 1    -0.01359315    -0.01286175    -0.07388500
Spot 2    -0.01352086    -0.01286566    -0.07388500
20MABNDB000069_PR033
Spot 1    -0.01202500    -0.01226509    -0.07388500
Spot 2    -0.01155401    -0.01226427    -0.07388500
Spot 1    -0.01202490    -0.01226502    -0.07388500
Spot 2    -0.01155379    -0.01226428    -0.07388500
20MABNDB000131_PR032
Spot 1    -0.01144565    -0.01303954    -0.07533000
Spot 2    -0.01138524    -0.01303618    -0.07533000
Spot 1    -0.01144523    -0.01303934    -0.07533000
Spot 2    -0.01138537    -0.01303611    -0.07533000
20MABNDB000131_PR034
Spot 1    -0.01330220    -0.01380025    -0.07533000
Spot 2    -0.01312588    -0.01379958    -0.07533000
Spot 1    -0.01330208    -0.01380031    -0.07533000
Spot 2    -0.01312584    -0.01379955    -0.07533000
20MABNDA000208_PR042
Spot 1    -0.01351028     0.01354786    -0.07273700
Spot 2    -0.01369941     0.01345789    -0.07273700
Spot 1    -0.01351090     0.01354876    -0.07273700
Spot 2    -0.01426116     0.01354573    -0.07273700
20MABNDA000208_PR046
Spot 1    -0.01230795     0.01174185    -0.07273700
Spot 2    -0.01190234     0.01182744    -0.07273700
Spot 1    -0.01230798     0.01174147    -0.07273700
Spot 2    -0.01183644     0.01196507    -0.07273700
20MABNDA000035_PR044
Spot 1    -0.01157238     0.01300699    -0.07483200
Spot 2    -0.01151433     0.01301241    -0.07483200
Spot 1    -0.01157263     0.01300728    -0.07483200
Spot 2    -0.01151425     0.01301240    -0.07483200
20MABNDA000035_PR045
Spot 1    -0.01336588     0.01381177    -0.07483200
Spot 2    -0.01318861     0.01381186    -0.07483200
Spot 1    -0.01336599     0.01381186    -0.07483200
Spot 2    -0.01318883     0.01381202    -0.07483200


*****************************************************************coordonnees du prisme dans le repere MOUNT********************************************************************************** 
20MABNDL000077_PR002
    0.06737348     0.07371713     3.70652628
    0.06737348     0.07371713     3.70652628
    0.05009780     0.04753903     3.70691442
20MABNDL000077_PR003
    0.02097332     0.02143099     3.89601803
    0.02096660     0.02143469     3.89601803
    0.02096680     0.02142846     3.89601803
20MABNDL000077_20MABNDM000168
   -0.05597950     0.07578504    -5.46843624
   -0.05598131     0.07578575    -5.46843624
   -0.05595820     0.07578598    -5.46843624
20MABNDL000077_PR024
    0.04570877     0.01709332    -5.89639807
    0.04568839     0.01710403    -5.89639854
    0.04570004     0.01710844    -5.89639807
20MABNDM000020_PR013
   -0.00368329    -0.01813401    -3.80243397
   -0.00364186    -0.01813309    -3.80243397
   -0.00367968    -0.01810663    -3.80243397
20MABNDM000020_PR014
   -0.06561334    -0.00492718    -4.74840879
   -0.06560864    -0.00495753    -4.74840927
   -0.06560384    -0.00496366    -4.74840927
20MABNDM000020_20MABNDL000196
    0.02684451    -0.07124200     5.39469719
    0.02684630    -0.07123663     5.39469719
    0.02684343    -0.07124057     5.39469719
20MABNDM000020_PR035
   -0.04245868    -0.00671027     5.80095387
   -0.04243518    -0.00671374     5.80095387
   -0.04243941    -0.00670950     5.80095387
20MABNDM000168_PR025
    0.01938617    -0.06578372    -3.78853941
    0.04813126    -0.08296048    -3.78800201
   -0.01186195    -0.04366633    -3.78878975
20MABNDM000168_PR026
   -0.05782593    -0.01388799    -3.98429012
   -0.05782126    -0.01388328    -3.98429012
   -0.05782180    -0.01387912    -3.98429012
20MABNDM000168_20MABNDL000077
    0.01158809    -0.03868111     5.38884687
    0.01157040    -0.03868660     5.38884687
    0.01156576    -0.03870917     5.38884687
20MABNDM000168_PR001
   -0.05734723    -0.01337028     5.81470585
   -0.05733850    -0.01335646     5.81470585
   -0.05734003    -0.01335527     5.81470585
20MABNDL000196_PR036
    0.05137024     0.00607853     3.68777275
    0.05137071     0.00608786     3.68777275
    0.05137195     0.00608271     3.68777275
20MABNDL000196_PR037
   -0.02509081     0.02840398     3.88381338
   -0.02509495     0.02840578     3.88381338
   -0.02509676     0.02840397     3.88381290
20MABNDL000196_20MABNDM000020
   -0.01568875     0.03791377    -5.47473907
   -0.01567685     0.03791221    -5.47473907
   -0.01567702     0.03792048    -5.47473907
20MABNDL000196_PR012
    0.05241193     0.01448213    -5.91537094
    0.05239778     0.01447057    -5.91537142
    0.05240941     0.01447197    -5.91537094
20MABNDA000318_PR004
   -0.00854935     0.03841320     2.74965906
   -0.00855153     0.03840677     2.74965906
   -0.00854970     0.03840880     2.74965906
20MABNDA000334_PR005
   -0.00431462     0.03174091     2.14977169
   -0.00431376     0.03174076     2.14977169
   -0.00431590     0.03173891     2.14977169
20MABNDB000317_PR015
   -0.01726352    -0.03377863     2.75129223
   -0.01726350    -0.03378044     2.75129199
   -0.01726043    -0.03377805     2.75129223
20MABNDB000146_PR016
   -0.01342705    -0.03157642     2.15201473
   -0.01342374    -0.03157771     2.15201473
   -0.01342820    -0.03157916     2.15201473
20MABNDB000135_PR027
   -0.02097019    -0.00978619     2.74937153
   -0.02097092    -0.00978563     2.74937153
   -0.02097619    -0.00978172     2.74937153
20MABNDB000126_PR028
   -0.02031799    -0.03896388     2.14679527
   -0.02031813    -0.03896388     2.14679527
   -0.02031557    -0.03896201     2.14679527
20MABNDA000272_PR038
   -0.01328600     0.01075382     2.74965858
   -0.01328435     0.01075492     2.74965858
   -0.01328198     0.01074795     2.74965858
20MABNDA000003_PR039
   -0.00598178     0.04122332     2.14891577
   -0.00598236     0.04122175     2.14891577
   -0.00598194     0.04121775     2.14891577
20MABNDA000196_PR006
   -0.01011920     0.00987126     1.64206314
   -0.01011872     0.00987453     1.64206314
   -0.01011856     0.00986961     1.64206314
20MABNDA000324_PR007
   -0.02552288     0.02796363     2.95549011
   -0.02553270     0.02796099     2.95549011
   -0.02553232     0.02796277     2.95549011
20MABNDB000001_PR017
   -0.02447421    -0.00282821     1.64035726
   -0.02447484    -0.00282602     1.64035726
   -0.02447420    -0.00282767     1.64035726
20MABNDB000260_PR019
   -0.02407132    -0.03853459     2.95627475
   -0.02409630    -0.03853648     2.95627475
   -0.02407567    -0.03852444     2.95627475
20MABNDB000212_PR029
   -0.02529754    -0.00846693     1.64223862
   -0.02529765    -0.00846638     1.64223862
   -0.02529808    -0.00846605     1.64223862
20MABNDB000128_PR030
   -0.01948194    -0.04674403     2.95496345
   -0.01948507    -0.04674836     2.95496345
   -0.01948802    -0.04674700     2.95496345
20MABNDA000444_PR040
   -0.03021254     0.00094418     1.64490914
   -0.03021418     0.00093584     1.64490891
   -0.03020747     0.00094217     1.64490914
20MABNDA000053_PR041
   -0.02654618     0.05113892     2.95450330
   -0.02655953     0.05114939     2.95450330
   -0.02655096     0.05115551     2.95450330
20MABNDA000188_PR008
    0.14616936    -0.09611703     9.20304298
    0.10933864     0.04538462     9.20419693
    0.14616936    -0.09611703     9.20304298
20MABNDA000188_PR018
   -0.01618923     0.02581544     1.28358257
   -0.01618863     0.02581518     1.28358257
   -0.01618698     0.02581730     1.28358257
20MABNDA000039_PR009
   -0.17115825     0.02559484    11.00701523
   -0.17116256     0.02561460    11.00701523
   -0.17115608     0.02559410    11.00701618
20MABNDA000039_PR011
    0.03086048    -0.02412521     3.43347406
    0.03085620    -0.02411470     3.43347454
    0.03085706    -0.02412588     3.43347454
20MABNDB000155_PR020
    0.10160404    -0.00963636     9.20029068
    0.10162564    -0.00964466     9.20028877
    0.10165779    -0.00966142     9.20028877
20MABNDB000155_PR022
   -0.02604203    -0.01803024     1.28070188
   -0.02603987    -0.01803235     1.28070188
20MABNDB000010_PR021
   -0.16000439     0.02403924    11.00713158
   -0.19450060     0.04352722    11.00653172
20MABNDB000010_PR023
    0.00404461     0.02077763     3.43376780
    0.00404527     0.02077925     3.43376780
20MABNDB000069_PR031
    0.10227699    -0.03878121     9.20356178
    0.10229214    -0.03875605     9.20356178
20MABNDB000069_PR033
   -0.02684462    -0.02690873     1.28394055
   -0.02684738    -0.02690921     1.28394055
20MABNDB000131_PR032
   -0.18762028    -0.02940204    11.00642776
   -0.18764138    -0.02942115    11.00642776
20MABNDB000131_PR034
    0.01477876     0.01651012     3.43337488
    0.01477511     0.01651079     3.43337536
20MABNDA000208_PR042
    0.09668017    -0.04178481     9.20178032
    0.13118958    -0.04722801     9.20127201
20MABNDA000208_PR046
   -0.02308355     0.03479913     1.28208208
   -0.02364650     0.03362656     1.28209662
20MABNDA000035_PR044
   -0.18012789     0.02572913    11.00802040
   -0.18011564     0.02570856    11.00802231
20MABNDA000035_PR045
    0.01421054    -0.01956606     3.43483448
    0.01421803    -0.01957182     3.43483400


*****************************************************************coordonnees du prisme dans le repere ATLAS********************************************************************************** 
20MABNDL000077_PR002 0.00000000
    2.78332901    -3.67712641     6.48587990
    2.78332901    -3.67712641     6.48587990
    2.80950212    -3.69441080     6.48622084
20MABNDL000077_PR003 0.00000000
    2.83578634    -3.72377706     6.67526293
    2.83578253    -3.72378373     6.67526293
    2.83578873    -3.72378349     6.67526293
20MABNDL000077_20MABNDM000168 0.00000000
    2.77222228    -3.78915858    -2.68922138
    2.77222157    -3.78916049    -2.68922138
    2.77222133    -3.78913736    -2.68922138
20MABNDL000077_PR024 0.00000000
    2.83052659    -3.68696117    -3.11711478
    2.83051586    -3.68698144    -3.11711526
    2.83051157    -3.68696976    -3.11711478
20MABNDM000020_PR013 0.00000000
   -2.83417535    -3.73580074     6.48627663
   -2.83417630    -3.73584223     6.48627663
   -2.83420277    -3.73580432     6.48627663
20MABNDM000020_PR014 0.00000000
   -2.84717393    -3.67458606     7.43230104
   -2.84714365    -3.67459083     7.43230152
   -2.84713745    -3.67459559     7.43230152
20MABNDM000020_20MABNDL000196 0.00000000
   -2.78291726    -3.75935006    -2.71088576
   -2.78292274    -3.75935173    -2.71088576
   -2.78291869    -3.75934887    -2.71088576
20MABNDM000020_PR035 0.00000000
   -2.84750915    -3.68971801    -3.11707664
   -2.84750557    -3.68974161    -3.11707664
   -2.84750986    -3.68973732    -3.11707664
20MABNDM000168_PR025 0.00000000
    2.78745270    -3.76470351    -6.47915506
    2.77026844    -3.79344392    -6.47860575
    2.80957842    -3.73346138    -6.47941828
20MABNDM000168_PR026 0.00000000
    2.83935714    -3.68757796    -6.67493773
    2.83936167    -3.68758249    -6.67493773
    2.83936596    -3.68758202    -6.67493773
20MABNDM000168_20MABNDL000077 0.00000000
    2.81511450    -3.75350022     2.69822621
    2.81510901    -3.75348258     2.69822621
    2.81508636    -3.75347781     2.69822621
20MABNDM000168_PR001 0.00000000
    2.84046936    -3.68441319     3.12405801
    2.84048319    -3.68442202     3.12405801
    2.84048438    -3.68442035     3.12405801
20MABNDL000196_PR036 0.00000000
   -2.84752893    -3.69290423    -6.47909641
   -2.84751964    -3.69290376    -6.47909641
   -2.84752488    -3.69290257    -6.47909641
20MABNDL000196_PR037 0.00000000
   -2.82517219    -3.76953721    -6.67506599
   -2.82517052    -3.76954126    -6.67506599
   -2.82517219    -3.76954317    -6.67506552
20MABNDL000196_20MABNDM000020 0.00000000
   -2.81546450    -3.75142550     2.68347335
   -2.81546617    -3.75141358     2.68347335
   -2.81545782    -3.75141358     2.68347335
20MABNDL000196_PR012 0.00000000
   -2.83891845    -3.68292570     3.12404227
   -2.83892989    -3.68294001     3.12404275
   -2.83892846    -3.68292832     3.12404227
20MABNDA000318_PR004 0.00000000
    2.61445379    -4.19698811     3.83358550
    2.61445165    -4.19698858     3.83359194
    2.61445355    -4.19698858     3.83358979
20MABNDA000334_PR005 0.00000000
    2.61668396    -4.19703150     5.89752007
    2.61668491    -4.19703150     5.89752007
    2.61668277    -4.19703150     5.89752197
20MABNDB000317_PR015 0.00000000
   -2.61134362    -4.19700623     3.83623695
   -2.61134362    -4.19700670     3.83623505
   -2.61134672    -4.19700623     3.83623743
20MABNDB000146_PR016 0.00000000
   -2.61286807    -4.19702291     5.89877367
   -2.61287141    -4.19702291     5.89877272
   -2.61286712    -4.19702291     5.89877129
20MABNDB000135_PR027 0.00000000
    2.60389304    -4.19700384    -3.82557464
    2.60389233    -4.19700384    -3.82557511
    2.60388708    -4.19700384    -3.82557917
20MABNDB000126_PR028 0.00000000
    2.60559916    -4.19702101    -5.89325619
    2.60559916    -4.19702101    -5.89325619
    2.60560179    -4.19702101    -5.89325809
20MABNDA000272_PR038 0.00000000
   -2.61125088    -4.19698286    -3.82773042
   -2.61125255    -4.19698286    -3.82772946
   -2.61125493    -4.19698286    -3.82773638
20MABNDA000003_PR039 0.00000000
   -2.61574936    -4.19702101    -5.89154339
   -2.61574888    -4.19702101    -5.89154482
   -2.61574912    -4.19702101    -5.89154911
20MABNDA000196_PR006 0.00000000
    2.58457971    -4.19496584     6.54782772
    2.58457923    -4.19496584     6.54783106
    2.58457923    -4.19496584     6.54782629
20MABNDA000324_PR007 0.00000000
    2.59379196    -4.13996840     6.94795132
    2.59378219    -4.13996840     6.94795418
    2.59378242    -4.13996840     6.94795227
20MABNDB000001_PR017 0.00000000
   -2.59817553    -4.19506073     6.53815603
   -2.59817624    -4.19506073     6.53815413
   -2.59817553    -4.19506073     6.53815556
20MABNDB000260_PR019 0.00000000
   -2.60469055    -4.13995981     6.94210911
   -2.60466552    -4.13995981     6.94210720
   -2.60468626    -4.13995981     6.94211960
20MABNDB000212_PR029 0.00000000
    2.59897518    -4.19501019    -6.54745483
    2.59897542    -4.19501019    -6.54745436
    2.59897590    -4.19501019    -6.54745388
20MABNDB000128_PR030 0.00000000
    2.60937691    -4.14002657    -6.93137693
    2.60937357    -4.14002657    -6.93137264
    2.60937071    -4.14002657    -6.93137407
20MABNDA000444_PR040 0.00000000
   -2.60538507    -4.19510031    -6.54012442
   -2.60538673    -4.19510031    -6.54011583
   -2.60538006    -4.19510031    -6.54012251
20MABNDA000053_PR041 0.00000000
   -2.59399581    -4.14012718    -6.92677450
   -2.59398246    -4.14012718    -6.92676401
   -2.59399104    -4.14012718    -6.92675781
20MABNDA000188_PR008 0.00000000
    3.55893064     3.84859109     8.10764503
    3.52420664     3.85074425     7.96562338
    3.55893064     3.84859109     8.10764503
20MABNDA000188_PR018 0.00000000
    3.52094769    -4.07059622     7.89763308
    3.52094817    -4.07059622     7.89763355
    3.52094984    -4.07059622     7.89763165
20MABNDA000039_PR009 0.00000000
    3.87533021     3.64747334    12.93688869
    3.87533450     3.64747334    12.93690872
    3.87532806     3.64747429    12.93688774
20MABNDA000039_PR011 0.00000000
    3.66416359    -3.92580175    12.88471127
    3.66416788    -3.92580128    12.88472176
    3.66416693    -3.92580128    12.88471031
20MABNDB000155_PR020 0.00000000
   -3.68025613     3.84882474     7.89723110
   -3.68027782     3.84882283     7.89722252
   -3.68031001     3.84882283     7.89720583
20MABNDB000155_PR022 0.00000000
   -3.53393841    -4.07044220     7.89002895
   -3.53394055    -4.07044220     7.89002705
20MABNDB000010_PR021 0.00000000
   -3.84589219     3.64783335    12.87777615
   -3.88040566     3.64724159    12.85831833
20MABNDB000010_PR023 0.00000000
   -3.68562222    -3.92560887    12.88449860
   -3.68562150    -3.92560887    12.88449669
20MABNDB000069_PR031 0.00000000
    3.68399382     3.84875631    -7.90162134
    3.68400884     3.84875631    -7.90164661
20MABNDB000069_PR033 0.00000000
    3.53345490    -4.07046270    -7.87876272
    3.53345203    -4.07046270    -7.87876225
20MABNDB000131_PR032 0.00000000
    3.86842275     3.64757776   -12.94004440
    3.86844397     3.64757776   -12.94006348
20MABNDB000131_PR034 0.00000000
    3.67301059    -3.92564201   -12.89143753
    3.67301416    -3.92564154   -12.89143658
20MABNDA000208_PR042 0.00000000
   -3.64672780     3.84941411    -7.95325184
   -3.68123484     3.84892869    -7.95871353
20MABNDA000208_PR046 0.00000000
   -3.53268194    -4.07033968    -7.87371922
   -3.53211832    -4.07032585    -7.87489176
20MABNDA000035_PR044 0.00000000
   -3.86936879     3.64757562   -12.93140793
   -3.86935639     3.64757752   -12.93138790
20MABNDA000035_PR045 0.00000000
   -3.67651772    -3.92565274   -12.88681793
   -3.67651010    -3.92565322   -12.88681221


*****************************************************************Rapport********************************************************************************** 
CAM-LBA-US_EBA-US-HO-H         2018.10.08.19.54.55     2.79205338    -3.68288787     6.48599354     0.01233812     0.00814794     0.00016072 0.00000000 VRAI 
CAM-LBA-US_JDA-US-H            2018.10.08.19.54.55     2.83578587    -3.72378143     6.67526293     0.00000255     0.00000309     0.00000000 0.00000000 VRAI 
CAM-LBA-US_CAM-LBC-US          2018.10.08.19.54.55     2.77222172    -3.78915215    -2.68922138     0.00000041     0.00001048     0.00000000 0.00000000 VRAI 
CAM-LBA-US_EBC-US-IP-H         2018.10.08.19.54.55     2.83051801    -3.68697079    -3.11711494     0.00000632     0.00000831     0.00000022 0.00000000 VRAI 
CAM-LBA-USA_EBA-USA-HO-H       2018.10.08.19.54.55    -2.83418481    -3.73581576     6.48627663     0.00001271     0.00001877     0.00000000 0.00000000 VRAI 
CAM-LBA-USA_JDA-USA-H          2018.10.08.19.54.55    -2.84715168    -3.67459083     7.43230136     0.00001594     0.00000389     0.00000022 0.00000000 VRAI 
CAM-LBA-USA_CAM-LBC-USA        2018.10.08.19.54.55    -2.78291957    -3.75935022    -2.71088576     0.00000232     0.00000117     0.00000000 0.00000000 VRAI 
CAM-LBA-USA_EBC-USA-IP-H       2018.10.08.19.54.55    -2.84750819    -3.68973231    -3.11707664     0.00000188     0.00001027     0.00000000 0.00000000 VRAI 
CAM-LBC-US_EBC-US-HO-H         2018.10.08.19.54.55     2.78909985    -3.76386960    -6.47905970     0.01609044     0.02449487     0.00033850 0.00000000 VRAI 
CAM-LBC-US_JDC-US-H            2018.10.08.19.54.55     2.83936159    -3.68758082    -6.67493773     0.00000360     0.00000203     0.00000000 0.00000000 VRAI 
CAM-LBC-US_CAM-LBA-US          2018.10.08.19.54.55     2.81510329    -3.75348687     2.69822621     0.00001218     0.00000964     0.00000000 0.00000000 VRAI 
CAM-LBC-US_EBA-US-IP-H         2018.10.08.19.54.55     2.84047898    -3.68441852     3.12405801     0.00000682     0.00000383     0.00000000 0.00000000 VRAI 
CAM-LBC-USA_EBC-USA-HO-H       2018.10.08.19.54.55    -2.84752448    -3.69290352    -6.47909641     0.00000381     0.00000070     0.00000000 0.00000000 VRAI 
CAM-LBC-USA_JDC-USA-H          2018.10.08.19.54.55    -2.82517163    -3.76954055    -6.67506584     0.00000079     0.00000249     0.00000022 0.00000000 VRAI 
CAM-LBC-USA_CAM-LBA-USA        2018.10.08.19.54.55    -2.81546283    -3.75141756     2.68347335     0.00000361     0.00000562     0.00000000 0.00000000 VRAI 
CAM-LBC-USA_EBA-USA-IP-H       2018.10.08.19.54.55    -2.83892560    -3.68293134     3.12404243     0.00000509     0.00000622     0.00000022 0.00000000 VRAI 
CAM-EBA-US-IP_EBA-US-IP        2018.10.08.19.54.55     2.61445300    -4.19698842     3.83358908     0.00000096     0.00000022     0.00000268 0.00000000 VRAI 
CAM-EBA-US-HO_EBA-US-HO        2018.10.08.19.54.55     2.61668388    -4.19703150     5.89752070     0.00000088     0.00000000     0.00000090 0.00000000 VRAI 
CAM-EBA-USA-IP_EBA-USA-IP      2018.10.08.19.54.55    -2.61134466    -4.19700638     3.83623648     0.00000146     0.00000022     0.00000103 0.00000000 VRAI 
CAM-EBA-USA-HO_EBA-USA-HO      2018.10.08.19.54.55    -2.61286887    -4.19702291     5.89877256     0.00000184     0.00000000     0.00000098 0.00000000 VRAI 
CAM-EBC-US-IP_EBC-US-IP        2018.10.08.19.54.55     2.60389082    -4.19700384    -3.82557631     0.00000266     0.00000000     0.00000203 0.00000000 VRAI 
CAM-EBC-US-HO_EBC-US-HO        2018.10.08.19.54.55     2.60560004    -4.19702101    -5.89325682     0.00000124     0.00000000     0.00000090 0.00000000 VRAI 
CAM-EBC-USA-IP_EBC-USA-IP      2018.10.08.19.54.55    -2.61125278    -4.19698286    -3.82773209     0.00000166     0.00000000     0.00000306 0.00000000 VRAI 
CAM-EBC-USA-HO_EBC-USA-HO      2018.10.08.19.54.55    -2.61574912    -4.19702101    -5.89154577     0.00000019     0.00000000     0.00000243 0.00000000 VRAI 
CAM-JDA-US-IP_JDA-US-IP        2018.10.08.19.54.55     2.58457939    -4.19496584     6.54782836     0.00000022     0.00000000     0.00000200 0.00000000 VRAI 
CAM-JDA-US-HO_JDA-US-HO        2018.10.08.19.54.55     2.59378552    -4.13996840     6.94795259     0.00000455     0.00000000     0.00000119 0.00000000 VRAI 
CAM-JDA-USA-IP_JDA-USA-IP      2018.10.08.19.54.55    -2.59817576    -4.19506073     6.53815524     0.00000034     0.00000000     0.00000081 0.00000000 VRAI 
CAM-JDA-USA-HO_JDA-USA-HO      2018.10.08.19.54.55    -2.60468078    -4.13995981     6.94211197     0.00001093     0.00000000     0.00000545 0.00000000 VRAI 
CAM-JDC-US-IP_JDC-US-IP        2018.10.08.19.54.55     2.59897550    -4.19501019    -6.54745436     0.00000030     0.00000000     0.00000039 0.00000000 VRAI 
CAM-JDC-US-HO_JDC-US-HO        2018.10.08.19.54.55     2.60937373    -4.14002657    -6.93137455     0.00000253     0.00000000     0.00000178 0.00000000 VRAI 
CAM-JDC-USA-IP_JDC-USA-IP      2018.10.08.19.54.55    -2.60538395    -4.19510031    -6.54012092     0.00000284     0.00000000     0.00000368 0.00000000 VRAI 
CAM-JDC-USA-HO_JDC-USA-HO      2018.10.08.19.54.55    -2.59398977    -4.14012718    -6.92676544     0.00000552     0.00000000     0.00000689 0.00000000 VRAI 
CAM-ECTA-US-IP_ECTA-US-IP-T    2018.10.08.19.54.55     3.54735597     3.84930881     8.06030448     0.01636905     0.00101501     0.06694965 0.00000000 VRAI 
CAM-ECTA-US-IP_ECTA-US-IP      2018.10.08.19.54.55     3.52094857    -4.07059622     7.89763276     0.00000092     0.00000000     0.00000081 0.00000000 VRAI 
CAM-ECTA-US-HO_ECTA-US-HO-T    2018.10.08.19.54.55     3.87533092     3.64747365    12.93689505     0.00000268     0.00000045     0.00000967 0.00000000 VRAI 
CAM-ECTA-US-HO_ECTA-US-HO      2018.10.08.19.54.55     3.66416613    -3.92580144    12.88471444     0.00000184     0.00000022     0.00000518 0.00000000 VRAI 
CAM-ECTA-USA-IP_ECTA-USA-IP-T  2018.10.08.19.54.55    -3.68028132     3.84882347     7.89721982     0.00002214     0.00000090     0.00001049 0.00000000 VRAI 
CAM-ECTA-USA-IP_ECTA-USA-IP    2018.10.08.19.54.55    -3.53393948    -4.07044220     7.89002800     0.00000107     0.00000000     0.00000095 0.00000000 VRAI 
CAM-ECTA-USA-HO_ECTA-USA-HO-T  2018.10.08.19.54.55    -3.86314893     3.64753747    12.86804724     0.01725674     0.00029588     0.00972891 0.00000000 VRAI 
CAM-ECTA-USA-HO_ECTA-USA-HO    2018.10.08.19.54.55    -3.68562186    -3.92560887    12.88449764     0.00000036     0.00000000     0.00000095 0.00000000 VRAI 
CAM-ECTC-US-IP_ECTC-US-IP-T    2018.10.08.19.54.55     3.68400133     3.84875631    -7.90163398     0.00000751     0.00000000     0.00001264 0.00000000 VRAI 
CAM-ECTC-US-IP_ECTC-US-IP      2018.10.08.19.54.55     3.53345346    -4.07046270    -7.87876248     0.00000143     0.00000000     0.00000024 0.00000000 VRAI 
CAM-ECTC-US-HO_ECTC-US-HO-T    2018.10.08.19.54.55     3.86843336     3.64757776   -12.94005394     0.00001061     0.00000000     0.00000954 0.00000000 VRAI 
CAM-ECTC-US-HO_ECTC-US-HO      2018.10.08.19.54.55     3.67301238    -3.92564178   -12.89143705     0.00000179     0.00000024     0.00000048 0.00000000 VRAI 
CAM-ECTC-USA-IP_ECTC-USA-IP-T  2018.10.08.19.54.55    -3.66398132     3.84917140    -7.95598269     0.01725352     0.00024271     0.00273085 0.00000000 VRAI 
CAM-ECTC-USA-IP_ECTC-USA-IP    2018.10.08.19.54.55    -3.53240013    -4.07033277    -7.87430549     0.00028181     0.00000691     0.00058627 0.00000000 VRAI 
CAM-ECTC-USA-HO_ECTC-USA-HO-T  2018.10.08.19.54.55    -3.86936259     3.64757657   -12.93139791     0.00000620     0.00000095     0.00001001 0.00000000 VRAI 
CAM-ECTC-USA-HO_ECTC-USA-HO    2018.10.08.19.54.55    -3.67651391    -3.92565298   -12.88681507     0.00000381     0.00000024     0.00000286 0.00000000 VRAI 
