********** Fichier qui contient une sauvegarde des coordonnees images + coordonnees images transformees dans le repere BCAM (MOUNT) + coordonnees des prismes dans le repere MOUNT********** 
********************************************************************** Unite en metres (m)************************************************************************************************** 

*******************************************************************coordonnees images dans le repere CCD *********************************************************************************** 
20MABNDL000077_PR002
Spot 1     0.00121483     0.00150293
Spot 2     0.00123500     0.00218500
Spot 1     0.00121502     0.00150056
Spot 2     0.00082500     0.00113500
Spot 1     0.00121480     0.00150056
Spot 2     0.00052500     0.00043500
20MABNDL000077_PR003
Spot 1     0.00138811     0.00148739
Spot 2     0.00153811     0.00148946
Spot 1     0.00138823     0.00148750
Spot 2     0.00153778     0.00148939
Spot 1     0.00138838     0.00148741
Spot 2     0.00153769     0.00148935
20MABNDL000077_20MABNDM000168
Spot 1     0.00175762     0.00118470
Spot 2     0.00075500     0.00010500
Spot 1     0.00175752     0.00118434
Spot 2     0.00075500     0.00010500
Spot 1     0.00175801     0.00118456
Spot 2     0.00075500     0.00010500
20MABNDL000077_PR024
Spot 1     0.00254699     0.00144775
Spot 2     0.00264666     0.00145466
Spot 1     0.00254700     0.00144743
Spot 2     0.00264656     0.00145463
Spot 1     0.00254695     0.00144759
Spot 2     0.00264621     0.00145449
20MABNDM000020_PR013
Spot 1     0.00162587     0.00152754
Spot 2     0.00147401     0.00153410
Spot 1     0.00162806     0.00152731
Spot 2     0.00147427     0.00153432
Spot 1     0.00162736     0.00152922
Spot 2     0.00147378     0.00153461
20MABNDM000020_PR014
Spot 1     0.00265950     0.00168982
Spot 2     0.00249823     0.00169434
Spot 1     0.00265884     0.00168985
Spot 2     0.00249802     0.00169389
Spot 1     0.00265908     0.00168959
Spot 2     0.00249787     0.00169500
20MABNDM000020_20MABNDL000196
Spot 1     0.00197690     0.00117757
Spot 2     0.00320500     0.00025500
Spot 1     0.00197647     0.00117775
Spot 2     0.00320500     0.00025500
Spot 1     0.00197660     0.00117786
Spot 2     0.00320500     0.00025500
20MABNDM000020_PR035
Spot 1     0.00126906     0.00149583
Spot 2     0.00118669     0.00153100
Spot 1     0.00126918     0.00149576
Spot 2     0.00118654     0.00153087
Spot 1     0.00126916     0.00149594
Spot 2     0.00118662     0.00153108
20MABNDM000168_PR025
Spot 1     0.00064500     0.00011500
Spot 2     0.00148500     0.00050500
Spot 1     0.00148500     0.00050500
Spot 2     0.00064500     0.00011500
Spot 1     0.00064500     0.00011500
Spot 2     0.00064500     0.00011500
20MABNDM000168_PR026
Spot 1     0.00266668     0.00143007
Spot 2     0.00250558     0.00142617
Spot 1     0.00266675     0.00143028
Spot 2     0.00250541     0.00142648
Spot 1     0.00266676     0.00143027
Spot 2     0.00250571     0.00142653
20MABNDM000168_20MABNDL000077
Spot 1     0.00154138     0.00130058
Spot 2     0.00175664     0.00130345
Spot 1     0.00154132     0.00130063
Spot 2     0.00175637     0.00130317
Spot 1     0.00154132     0.00130063
Spot 2     0.00175652     0.00130323
20MABNDM000168_PR001
Spot 1     0.00080820     0.00161873
Spot 2     0.00070652     0.00162096
Spot 1     0.00080829     0.00161853
Spot 2     0.00070629     0.00162107
Spot 1     0.00080824     0.00161857
Spot 2     0.00070644     0.00162109
20MABNDL000196_PR036
Spot 1     0.00094649     0.00163698
Spot 2     0.00111083     0.00163680
Spot 1     0.00094631     0.00163701
Spot 2     0.00111074     0.00163658
Spot 1     0.00094628     0.00163711
Spot 2     0.00111057     0.00163671
20MABNDL000196_PR037
Spot 1     0.00246755     0.00117230
Spot 2     0.00262249     0.00117059
Spot 1     0.00246792     0.00117203
Spot 2     0.00262256     0.00117052
Spot 1     0.00246798     0.00117207
Spot 2     0.00262255     0.00117063
20MABNDL000196_20MABNDM000020
Spot 1     0.00192592     0.00104117
Spot 2     0.00170452     0.00104675
Spot 1     0.00192591     0.00104129
Spot 2     0.00170451     0.00104707
Spot 1     0.00192584     0.00104143
Spot 2     0.00170463     0.00104701
20MABNDL000196_PR012
Spot 1     0.00265186     0.00134235
Spot 2     0.00272365     0.00138824
Spot 1     0.00265174     0.00134249
Spot 2     0.00272359     0.00138823
Spot 1     0.00265193     0.00134234
Spot 2     0.00272350     0.00138816
20MABNDA000318_PR004
Spot 1     0.00192509     0.00162782
Spot 2     0.00214299     0.00162709
Spot 1     0.00192500     0.00162771
Spot 2     0.00214278     0.00162708
Spot 1     0.00192488     0.00162777
Spot 2     0.00214314     0.00162686
20MABNDA000334_PR005
Spot 1     0.00247232     0.00158801
Spot 2     0.00219169     0.00158814
Spot 1     0.00247222     0.00158799
Spot 2     0.00219164     0.00158852
Spot 1     0.00247199     0.00158817
Spot 2     0.00219186     0.00158847
20MABNDB000317_PR015
Spot 1     0.00170437     0.00158850
Spot 2     0.00148445     0.00159424
Spot 1     0.00170415     0.00158853
Spot 2     0.00148450     0.00159415
Spot 1     0.00170390     0.00158816
Spot 2     0.00148461     0.00159455
20MABNDB000146_PR016
Spot 1     0.00144429     0.00132505
Spot 2     0.00171972     0.00132693
Spot 1     0.00144411     0.00132516
Spot 2     0.00172000     0.00132692
Spot 1     0.00144411     0.00132508
Spot 2     0.00171986     0.00132701
20MABNDB000135_PR027
Spot 1     0.00188994     0.00091446
Spot 2     0.00210805     0.00091602
Spot 1     0.00188988     0.00091464
Spot 2     0.00210801     0.00091642
Spot 1     0.00188992     0.00091459
Spot 2     0.00210798     0.00091617
20MABNDB000126_PR028
Spot 1     0.00164405     0.00200956
Spot 2     0.00192620     0.00201120
Spot 1     0.00164400     0.00200956
Spot 2     0.00192632     0.00201105
Spot 1     0.00164403     0.00200953
Spot 2     0.00192609     0.00201112
20MABNDA000272_PR038
Spot 1     0.00192151     0.00095064
Spot 2     0.00170089     0.00094938
Spot 1     0.00192170     0.00095058
Spot 2     0.00170111     0.00094960
Spot 1     0.00192158     0.00095078
Spot 2     0.00170080     0.00094920
20MABNDA000003_PR039
Spot 1     0.00199956     0.00192589
Spot 2     0.00227731     0.00192654
Spot 1     0.00199956     0.00192561
Spot 2     0.00227739     0.00192697
Spot 1     0.00199941     0.00192565
Spot 2     0.00227719     0.00192671
20MABNDA000196_PR006
Spot 1     0.00199885     0.00072693
Spot 2     0.00163292     0.00072428
Spot 1     0.00199888     0.00072704
Spot 2     0.00163257     0.00072456
Spot 1     0.00199901     0.00072660
Spot 2     0.00163266     0.00072453
20MABNDA000324_PR007
Spot 1     0.00194124     0.00121421
Spot 2     0.00173568     0.00121978
Spot 1     0.00194117     0.00121422
Spot 2     0.00173563     0.00121981
Spot 1     0.00194115     0.00121423
Spot 2     0.00173569     0.00121991
20MABNDB000001_PR017
Spot 1     0.00190513     0.00044031
Spot 2     0.00227314     0.00044914
Spot 1     0.00190515     0.00044033
Spot 2     0.00227357     0.00044929
Spot 1     0.00190513     0.00044031
Spot 2     0.00227357     0.00044929
20MABNDB000260_PR019
Spot 1     0.00191489     0.00150686
Spot 2     0.00211856     0.00150611
Spot 1     0.00191506     0.00150680
Spot 2     0.00211792     0.00150646
Spot 1     0.00191506     0.00150697
Spot 2     0.00211833     0.00150625
20MABNDB000212_PR029
Spot 1     0.00222780     0.00070130
Spot 2     0.00186726     0.00070210
Spot 1     0.00222798     0.00070136
Spot 2     0.00186741     0.00070224
Spot 1     0.00222790     0.00070150
Spot 2     0.00186776     0.00070259
20MABNDB000128_PR030
Spot 1     0.00190550     0.00199945
Spot 2     0.00211040     0.00199380
Spot 1     0.00190556     0.00199926
Spot 2     0.00211020     0.00199368
Spot 1     0.00190561     0.00199916
Spot 2     0.00211044     0.00199358
20MABNDA000444_PR040
Spot 1     0.00074469     0.00035500
Spot 2     0.00111172     0.00035201
Spot 1     0.00074500     0.00035500
Spot 2     0.00111191     0.00035162
Spot 1     0.00074476     0.00035484
Spot 2     0.00111176     0.00035206
20MABNDA000053_PR041
Spot 1     0.00165497     0.00199447
Spot 2     0.00144673     0.00199142
Spot 1     0.00165455     0.00199494
Spot 2     0.00144603     0.00199205
Spot 1     0.00165409     0.00199476
Spot 2     0.00144610     0.00199159
20MABNDA000188_PR008
Spot 1     0.00289500     0.00025500
Spot 2     0.00289500     0.00025500
Spot 1     0.00289500     0.00025500
Spot 2     0.00289500     0.00025500
Spot 1     0.00289500     0.00025500
Spot 2     0.00289500     0.00025500
20MABNDA000188_PR018
Spot 1     0.00169698     0.00173765
Spot 2     0.00122989     0.00173410
Spot 1     0.00169695     0.00173774
Spot 2     0.00122984     0.00173398
Spot 1     0.00169702     0.00173776
Spot 2     0.00122989     0.00173405
20MABNDA000039_PR009
Spot 1     0.00066363     0.00118113
Spot 2     0.00061639     0.00118562
Spot 1     0.00066403     0.00118106
Spot 2     0.00061581     0.00118519
Spot 1     0.00066399     0.00118133
Spot 2     0.00061616     0.00118563
20MABNDA000039_PR011
Spot 1     0.00276956     0.00029307
Spot 2     0.00259363     0.00028815
Spot 1     0.00276933     0.00029309
Spot 2     0.00259389     0.00028836
Spot 1     0.00276935     0.00029293
Spot 2     0.00259390     0.00028839
20MABNDB000155_PR020
Spot 1     0.00062386     0.00113490
Spot 2     0.00068743     0.00113087
Spot 1     0.00062371     0.00113505
Spot 2     0.00068728     0.00113111
Spot 1     0.00062307     0.00113554
Spot 2     0.00068696     0.00113097
20MABNDB000155_PR022
Spot 1     0.00213769     0.00142665
Spot 2     0.00260975     0.00142007
Spot 1     0.00213767     0.00142666
Spot 2     0.00260954     0.00142000
20MABNDB000010_PR021
Spot 1     0.00287209     0.00114957
Spot 2     0.00268786     0.00037786
Spot 1     0.00287249     0.00114995
Spot 2     0.00268750     0.00037750
20MABNDB000010_PR023
Spot 1     0.00131739     0.00030276
Spot 2     0.00149254     0.00030170
Spot 1     0.00131744     0.00030291
Spot 2     0.00149254     0.00030182
20MABNDB000069_PR031
Spot 1     0.00028322     0.00140646
Spot 2     0.00035543     0.00140486
Spot 1     0.00028302     0.00140644
Spot 2     0.00035468     0.00140455
20MABNDB000069_PR033
Spot 1     0.00182711     0.00206394
Spot 2     0.00229720     0.00208423
Spot 1     0.00182714     0.00206398
Spot 2     0.00229738     0.00208419
20MABNDB000131_PR032
Spot 1     0.00277505     0.00107613
Spot 2     0.00283500     0.00107931
Spot 1     0.00277495     0.00107630
Spot 2     0.00283478     0.00107948
20MABNDB000131_PR034
Spot 1     0.00091471     0.00032607
Spot 2     0.00109105     0.00032567
Spot 1     0.00091468     0.00032638
Spot 2     0.00109079     0.00032560
20MABNDA000208_PR042
Spot 1     0.00261295     0.00038115
Spot 2     0.00308700     0.00047900
Spot 1     0.00261306     0.00038222
Spot 2     0.00289750     0.00039250
20MABNDA000208_PR046
Spot 1     0.00146337     0.00222124
Spot 2     0.00058790     0.00208726
Spot 1     0.00146302     0.00222108
Spot 2     0.00058733     0.00208800
20MABNDA000035_PR044
Spot 1     0.00073731     0.00125218
Spot 2     0.00067994     0.00124651
Spot 1     0.00073707     0.00125226
Spot 2     0.00068007     0.00124650
20MABNDA000035_PR045
Spot 1     0.00253678     0.00046170
Spot 2     0.00235923     0.00046064
Spot 1     0.00253675     0.00046185
Spot 2     0.00235921     0.00046062


****************************************************************coordonnees images transformees dans le repere MOUNT************************************************************************* 
20MABNDL000077_PR002
Spot 1     0.01228516     0.03557436    -0.07463200
Spot 2     0.01231190     0.03625620    -0.07463200
Spot 1     0.01228533     0.03557199    -0.07463200
Spot 2     0.01189181     0.03521020    -0.07463200
Spot 1     0.01228511     0.03557199    -0.07463200
Spot 2     0.01158509     0.03451311    -0.07463200
20MABNDL000077_PR003
Spot 1     0.01245829     0.03555715    -0.07463200
Spot 2     0.01260830     0.03555778    -0.07463200
Spot 1     0.01245841     0.03555726    -0.07463200
Spot 2     0.01260797     0.03555771    -0.07463200
Spot 1     0.01245856     0.03555717    -0.07463200
Spot 2     0.01260788     0.03555767    -0.07463200
20MABNDL000077_20MABNDM000168
Spot 1    -0.01259277     0.03524768    -0.00695400
Spot 2    -0.01157915     0.03417830    -0.00695400
Spot 1    -0.01259266     0.03524732    -0.00695400
Spot 2    -0.01157915     0.03417830    -0.00695400
Spot 1    -0.01259316     0.03524754    -0.00695400
Spot 2    -0.01157915     0.03417830    -0.00695400
20MABNDL000077_PR024
Spot 1    -0.01338479     0.03550264    -0.00695400
Spot 2    -0.01348453     0.03550853    -0.00695400
Spot 1    -0.01338480     0.03550232    -0.00695400
Spot 2    -0.01348442     0.03550850    -0.00695400
Spot 1    -0.01338475     0.03550248    -0.00695400
Spot 2    -0.01348407     0.03550836    -0.00695400
20MABNDM000020_PR013
Spot 1    -0.01273306    -0.03548625    -0.00523500
Spot 2    -0.01288474    -0.03549617    -0.00523500
Spot 1    -0.01273087    -0.03548597    -0.00523500
Spot 2    -0.01288447    -0.03549638    -0.00523500
Spot 1    -0.01273153    -0.03548790    -0.00523500
Spot 2    -0.01288495    -0.03549668    -0.00523500
20MABNDM000020_PR014
Spot 1    -0.01169609    -0.03562563    -0.00523500
Spot 2    -0.01185722    -0.03563372    -0.00523500
Spot 1    -0.01169675    -0.03562568    -0.00523500
Spot 2    -0.01185744    -0.03563327    -0.00523500
Spot 1    -0.01169652    -0.03562541    -0.00523500
Spot 2    -0.01185757    -0.03563439    -0.00523500
20MABNDM000020_20MABNDL000196
Spot 1     0.01270938    -0.03514613    -0.07583800
Spot 2     0.01148115    -0.03422373    -0.07583800
Spot 1     0.01270981    -0.03514631    -0.07583800
Spot 2     0.01148115    -0.03422373    -0.07583800
Spot 1     0.01270968    -0.03514642    -0.07583800
Spot 2     0.01148115    -0.03422373    -0.07583800
20MABNDM000020_PR035
Spot 1     0.01341726    -0.03546430    -0.07583800
Spot 2     0.01349964    -0.03549945    -0.07583800
Spot 1     0.01341714    -0.03546423    -0.07583800
Spot 2     0.01349979    -0.03549932    -0.07583800
Spot 1     0.01341716    -0.03546441    -0.07583800
Spot 2     0.01349971    -0.03549953    -0.07583800
20MABNDM000168_PR025
Spot 1    -0.01376296    -0.03445448    -0.00532900
Spot 2    -0.01292129    -0.03484087    -0.00532900
Spot 1    -0.01292129    -0.03484087    -0.00532900
Spot 2    -0.01376296    -0.03445448    -0.00532900
Spot 1    -0.01376296    -0.03445448    -0.00532900
Spot 2    -0.01376296    -0.03445448    -0.00532900
20MABNDM000168_PR026
Spot 1    -0.01173565    -0.03576085    -0.00532900
Spot 2    -0.01189677    -0.03575765    -0.00532900
Spot 1    -0.01173558    -0.03576106    -0.00532900
Spot 2    -0.01189694    -0.03575796    -0.00532900
Spot 1    -0.01173557    -0.03576105    -0.00532900
Spot 2    -0.01189664    -0.03575800    -0.00532900
20MABNDM000168_20MABNDL000077
Spot 1     0.01288407    -0.03530121    -0.07445100
Spot 2     0.01266880    -0.03530093    -0.07445100
Spot 1     0.01288413    -0.03530127    -0.07445100
Spot 2     0.01266907    -0.03530066    -0.07445100
Spot 1     0.01288413    -0.03530127    -0.07445100
Spot 2     0.01266892    -0.03530072    -0.07445100
20MABNDM000168_PR001
Spot 1     0.01361252    -0.03563006    -0.07445100
Spot 2     0.01371416    -0.03563377    -0.07445100
Spot 1     0.01361243    -0.03562986    -0.07445100
Spot 2     0.01371439    -0.03563389    -0.07445100
Spot 1     0.01361248    -0.03562990    -0.07445100
Spot 2     0.01371424    -0.03563391    -0.07445100
20MABNDL000196_PR036
Spot 1     0.01192642     0.03582568    -0.07483600
Spot 2     0.01209076     0.03582584    -0.07483600
Spot 1     0.01192624     0.03582571    -0.07483600
Spot 2     0.01209067     0.03582562    -0.07483600
Spot 1     0.01192621     0.03582581    -0.07483600
Spot 2     0.01209050     0.03582575    -0.07483600
20MABNDL000196_PR037
Spot 1     0.01344845     0.03536417    -0.07483600
Spot 2     0.01360339     0.03536279    -0.07483600
Spot 1     0.01344882     0.03536390    -0.07483600
Spot 2     0.01360346     0.03536272    -0.07483600
Spot 1     0.01344888     0.03536394    -0.07483600
Spot 2     0.01360345     0.03536283    -0.07483600
20MABNDL000196_20MABNDM000020
Spot 1    -0.01274996     0.03531237    -0.00611000
Spot 2    -0.01252872     0.03532241    -0.00611000
Spot 1    -0.01274996     0.03531249    -0.00611000
Spot 2    -0.01252872     0.03532273    -0.00611000
Spot 1    -0.01274989     0.03531263    -0.00611000
Spot 2    -0.01252884     0.03532266    -0.00611000
20MABNDL000196_PR012
Spot 1    -0.01348182     0.03559889    -0.00611000
Spot 2    -0.01355451     0.03564332    -0.00611000
Spot 1    -0.01348170     0.03559903    -0.00611000
Spot 2    -0.01355445     0.03564331    -0.00611000
Spot 1    -0.01348189     0.03559887    -0.00611000
Spot 2    -0.01355436     0.03564324    -0.00611000
20MABNDA000318_PR004
Spot 1    -0.01264491     0.01246806    -0.07310600
Spot 2    -0.01286281     0.01246815    -0.07310600
Spot 1    -0.01264482     0.01246817    -0.07310600
Spot 2    -0.01286260     0.01246816    -0.07310600
Spot 1    -0.01264470     0.01246811    -0.07310600
Spot 2    -0.01286296     0.01246838    -0.07310600
20MABNDA000334_PR005
Spot 1    -0.01311543     0.01254038    -0.07324100
Spot 2    -0.01283480     0.01253999    -0.07324100
Spot 1    -0.01311533     0.01254040    -0.07324100
Spot 2    -0.01283475     0.01253961    -0.07324100
Spot 1    -0.01311510     0.01254022    -0.07324100
Spot 2    -0.01283497     0.01253966    -0.07324100
20MABNDB000317_PR015
Spot 1    -0.01244980    -0.01250702    -0.07326100
Spot 2    -0.01266977    -0.01250384    -0.07326100
Spot 1    -0.01245002    -0.01250699    -0.07326100
Spot 2    -0.01266972    -0.01250393    -0.07326100
Spot 1    -0.01245027    -0.01250737    -0.07326100
Spot 2    -0.01266962    -0.01250353    -0.07326100
20MABNDB000146_PR016
Spot 1    -0.01276405    -0.01246856    -0.07450500
Spot 2    -0.01248863    -0.01246607    -0.07450500
Spot 1    -0.01276424    -0.01246845    -0.07450500
Spot 2    -0.01248835    -0.01246608    -0.07450500
Spot 1    -0.01276423    -0.01246853    -0.07450500
Spot 2    -0.01248849    -0.01246599    -0.07450500
20MABNDB000135_PR027
Spot 1    -0.01251475    -0.01319855    -0.07464700
Spot 2    -0.01229663    -0.01319942    -0.07464700
Spot 1    -0.01251481    -0.01319837    -0.07464700
Spot 2    -0.01229667    -0.01319902    -0.07464700
Spot 1    -0.01251477    -0.01319842    -0.07464700
Spot 2    -0.01229670    -0.01319927    -0.07464700
20MABNDB000126_PR028
Spot 1    -0.01253549    -0.01217261    -0.07500400
Spot 2    -0.01225335    -0.01216947    -0.07500400
Spot 1    -0.01253554    -0.01217261    -0.07500400
Spot 2    -0.01225323    -0.01216962    -0.07500400
Spot 1    -0.01253551    -0.01217264    -0.07500400
Spot 2    -0.01225346    -0.01216955    -0.07500400
20MABNDA000272_PR038
Spot 1    -0.01275716     0.01316082    -0.07417900
Spot 2    -0.01253654     0.01316169    -0.07417900
Spot 1    -0.01275735     0.01316089    -0.07417900
Spot 2    -0.01253676     0.01316147    -0.07417900
Spot 1    -0.01275723     0.01316068    -0.07417900
Spot 2    -0.01253645     0.01316187    -0.07417900
20MABNDA000003_PR039
Spot 1    -0.01280064     0.01212637    -0.07373400
Spot 2    -0.01307839     0.01212643    -0.07373400
Spot 1    -0.01280064     0.01212665    -0.07373400
Spot 2    -0.01307848     0.01212600    -0.07373400
Spot 1    -0.01280049     0.01212661    -0.07373400
Spot 2    -0.01307828     0.01212626    -0.07373400
20MABNDA000196_PR006
Spot 1    -0.01295353     0.01325146    -0.07967100
Spot 2    -0.01258759     0.01324941    -0.07967100
Spot 1    -0.01295356     0.01325135    -0.07967100
Spot 2    -0.01258725     0.01324912    -0.07967100
Spot 1    -0.01295368     0.01325179    -0.07967100
Spot 2    -0.01258733     0.01324915    -0.07967100
20MABNDA000324_PR007
Spot 1    -0.01254694     0.01280742    -0.07446800
Spot 2    -0.01234134     0.01280345    -0.07446800
Spot 1    -0.01254687     0.01280741    -0.07446800
Spot 2    -0.01234129     0.01280342    -0.07446800
Spot 1    -0.01254685     0.01280740    -0.07446800
Spot 2    -0.01234135     0.01280332    -0.07446800
20MABNDB000001_PR017
Spot 1    -0.01228322    -0.01354941    -0.07418400
Spot 2    -0.01191513    -0.01354447    -0.07418400
Spot 1    -0.01228320    -0.01354939    -0.07418400
Spot 2    -0.01191470    -0.01354433    -0.07418400
Spot 1    -0.01228322    -0.01354941    -0.07418400
Spot 2    -0.01191470    -0.01354433    -0.07418400
20MABNDB000260_PR019
Spot 1    -0.01241653    -0.01239584    -0.07492700
Spot 2    -0.01221289    -0.01239241    -0.07492700
Spot 1    -0.01241636    -0.01239590    -0.07492700
Spot 2    -0.01221354    -0.01239208    -0.07492700
Spot 1    -0.01241637    -0.01239573    -0.07492700
Spot 2    -0.01221312    -0.01239228    -0.07492700
20MABNDB000212_PR029
Spot 1    -0.01186004    -0.01327991    -0.07390500
Spot 2    -0.01222055    -0.01327526    -0.07390500
Spot 1    -0.01185986    -0.01327985    -0.07390500
Spot 2    -0.01222040    -0.01327512    -0.07390500
Spot 1    -0.01185994    -0.01327971    -0.07390500
Spot 2    -0.01222005    -0.01327477    -0.07390500
20MABNDB000128_PR030
Spot 1    -0.01244962    -0.01221785    -0.07353400
Spot 2    -0.01224470    -0.01222279    -0.07353400
Spot 1    -0.01244956    -0.01221804    -0.07353400
Spot 2    -0.01224490    -0.01222291    -0.07353400
Spot 1    -0.01244951    -0.01221814    -0.07353400
Spot 2    -0.01224466    -0.01222301    -0.07353400
20MABNDA000444_PR040
Spot 1    -0.01168450     0.01367482    -0.07412000
Spot 2    -0.01205154     0.01367315    -0.07412000
Spot 1    -0.01168481     0.01367482    -0.07412000
Spot 2    -0.01205174     0.01367354    -0.07412000
Spot 1    -0.01168458     0.01367498    -0.07412000
Spot 2    -0.01205158     0.01367310    -0.07412000
20MABNDA000053_PR041
Spot 1    -0.01241171     0.01211603    -0.07430100
Spot 2    -0.01220345     0.01211501    -0.07430100
Spot 1    -0.01241130     0.01211555    -0.07430100
Spot 2    -0.01220276     0.01211437    -0.07430100
Spot 1    -0.01241083     0.01211572    -0.07430100
Spot 2    -0.01220282     0.01211483    -0.07430100
20MABNDA000188_PR008
Spot 1    -0.01391227     0.01380893    -0.07502000
Spot 2    -0.01391227     0.01380893    -0.07502000
Spot 1    -0.01391227     0.01380893    -0.07502000
Spot 2    -0.01391227     0.01380893    -0.07502000
Spot 1    -0.01391227     0.01380893    -0.07502000
Spot 2    -0.01391227     0.01380893    -0.07502000
20MABNDA000188_PR018
Spot 1    -0.01272699     0.01231608    -0.07502000
Spot 2    -0.01225989     0.01231563    -0.07502000
Spot 1    -0.01272696     0.01231599    -0.07502000
Spot 2    -0.01225984     0.01231575    -0.07502000
Spot 1    -0.01272703     0.01231597    -0.07502000
Spot 2    -0.01225989     0.01231568    -0.07502000
20MABNDA000039_PR009
Spot 1    -0.01162578     0.01306300    -0.07444800
Spot 2    -0.01157856     0.01305831    -0.07444800
Spot 1    -0.01162618     0.01306307    -0.07444800
Spot 2    -0.01157798     0.01305874    -0.07444800
Spot 1    -0.01162615     0.01306280    -0.07444800
Spot 2    -0.01157833     0.01305830    -0.07444800
20MABNDA000039_PR011
Spot 1    -0.01372785     0.01396017    -0.07444800
Spot 2    -0.01355190     0.01396432    -0.07444800
Spot 1    -0.01372762     0.01396015    -0.07444800
Spot 2    -0.01355216     0.01396412    -0.07444800
Spot 1    -0.01372764     0.01396031    -0.07444800
Spot 2    -0.01355217     0.01396409    -0.07444800
20MABNDB000155_PR020
Spot 1    -0.01364237    -0.01312242    -0.07501700
Spot 2    -0.01357875    -0.01312557    -0.07501700
Spot 1    -0.01364252    -0.01312227    -0.07501700
Spot 2    -0.01357890    -0.01312534    -0.07501700
Spot 1    -0.01364317    -0.01312179    -0.07501700
Spot 2    -0.01357922    -0.01312548    -0.07501700
20MABNDB000155_PR022
Spot 1    -0.01213268    -0.01280997    -0.07501700
Spot 2    -0.01166057    -0.01281009    -0.07501700
Spot 1    -0.01213270    -0.01280996    -0.07501700
Spot 2    -0.01166078    -0.01281016    -0.07501700
20MABNDB000010_PR021
Spot 1    -0.01157886    -0.01292888    -0.07358200
Spot 2    -0.01174999    -0.01370360    -0.07358200
Spot 1    -0.01157846    -0.01292850    -0.07358200
Spot 2    -0.01175034    -0.01370397    -0.07358200
20MABNDB000010_PR023
Spot 1    -0.01311899    -0.01380191    -0.07358200
Spot 2    -0.01294385    -0.01380000    -0.07358200
Spot 1    -0.01311894    -0.01380176    -0.07358200
Spot 2    -0.01294385    -0.01379988    -0.07358200
20MABNDB000069_PR031
Spot 1    -0.01359297    -0.01286117    -0.07388500
Spot 2    -0.01352089    -0.01286575    -0.07388500
Spot 1    -0.01359317    -0.01286118    -0.07388500
Spot 2    -0.01352165    -0.01286603    -0.07388500
20MABNDB000069_PR033
Spot 1    -0.01202327    -0.01226796    -0.07388500
Spot 2    -0.01155274    -0.01226709    -0.07388500
Spot 1    -0.01202323    -0.01226792    -0.07388500
Spot 2    -0.01155256    -0.01226714    -0.07388500
20MABNDB000131_PR032
Spot 1    -0.01144509    -0.01303863    -0.07533000
Spot 2    -0.01138516    -0.01303515    -0.07533000
Spot 1    -0.01144519    -0.01303846    -0.07533000
Spot 2    -0.01138538    -0.01303498    -0.07533000
20MABNDB000131_PR034
Spot 1    -0.01330163    -0.01379805    -0.07533000
Spot 2    -0.01312529    -0.01379756    -0.07533000
Spot 1    -0.01330166    -0.01379774    -0.07533000
Spot 2    -0.01312555    -0.01379763    -0.07533000
20MABNDA000208_PR042
Spot 1    -0.01348417     0.01361526    -0.07273700
Spot 2    -0.01395814     0.01351699    -0.07273700
Spot 1    -0.01348428     0.01361419    -0.07273700
Spot 2    -0.01376871     0.01360366    -0.07273700
20MABNDA000208_PR046
Spot 1    -0.01233298     0.01177618    -0.07273700
Spot 2    -0.01145763     0.01191093    -0.07273700
Spot 1    -0.01233263     0.01177634    -0.07273700
Spot 2    -0.01145705     0.01191019    -0.07273700
20MABNDA000035_PR044
Spot 1    -0.01157192     0.01300506    -0.07483200
Spot 2    -0.01151451     0.01301032    -0.07483200
Spot 1    -0.01157168     0.01300498    -0.07483200
Spot 2    -0.01151464     0.01301033    -0.07483200
20MABNDA000035_PR045
Spot 1    -0.01336572     0.01380832    -0.07483200
Spot 2    -0.01318817     0.01380812    -0.07483200
Spot 1    -0.01336570     0.01380817    -0.07483200
Spot 2    -0.01318815     0.01380814    -0.07483200


*****************************************************************coordonnees du prisme dans le repere MOUNT********************************************************************************** 
20MABNDL000077_PR002
    0.03213437     0.00445229     3.70693588
    0.04250702     0.03034761     3.70699692
    0.05008793     0.04756580     3.70691442
20MABNDL000077_PR003
    0.02093660     0.02141940     3.89601803
    0.02094204     0.02141831     3.89601803
    0.02094052     0.02142170     3.89601803
20MABNDL000077_20MABNDM000168
   -0.05595990     0.07577549    -5.46843624
   -0.05596364     0.07578845    -5.46843624
   -0.05594587     0.07578069    -5.46843624
20MABNDL000077_PR024
    0.04575590     0.01713591    -5.89639807
    0.04575225     0.01714952    -5.89639807
    0.04573666     0.01714858    -5.89639807
20MABNDM000020_PR013
   -0.00364842    -0.01809477    -3.80243373
   -0.00370919    -0.01809636    -3.80243397
   -0.00368088    -0.01804113    -3.80243373
20MABNDM000020_PR014
   -0.06560079    -0.00494677    -4.74840927
   -0.06557344    -0.00495923    -4.74840975
   -0.06557682    -0.00493287    -4.74840927
20MABNDM000020_20MABNDL000196
    0.05909136    -0.06588302     5.39454842
    0.05907596    -0.06587657     5.39454842
    0.05908061    -0.06587262     5.39454842
20MABNDM000020_PR035
   -0.04245289    -0.00673416     5.80095387
   -0.04245405    -0.00674186     5.80095387
   -0.04245174    -0.00672684     5.80095387
20MABNDM000168_PR025
    0.01989836    -0.06998438    -3.78849888
    0.01989772    -0.06998409    -3.78849888
    0.04070251    -0.07953329    -3.78815842
20MABNDM000168_PR026
   -0.05781855    -0.01390878    -3.98429012
   -0.05781601    -0.01389523    -3.98429012
   -0.05782408    -0.01389423    -3.98429012
20MABNDM000168_20MABNDL000077
    0.01150710    -0.03878987     5.38884687
    0.01149512    -0.03879795     5.38884687
    0.01150054    -0.03879588     5.38884687
20MABNDM000168_PR001
   -0.05735052    -0.01335628     5.81470585
   -0.05735599    -0.01335969     5.81470490
   -0.05735208    -0.01335742     5.81470585
20MABNDL000196_PR036
    0.05134842     0.00606130     3.68777275
    0.05135504     0.00606598     3.68777275
    0.05135996     0.00606034     3.68777251
20MABNDL000196_PR037
   -0.02506205     0.02837664     3.88381338
   -0.02507345     0.02838540     3.88381338
   -0.02507474     0.02838152     3.88381338
20MABNDL000196_20MABNDM000020
   -0.01569968     0.03790385    -5.47473907
   -0.01570009     0.03788803    -5.47473907
   -0.01569823     0.03788519    -5.47473907
20MABNDL000196_PR012
    0.05236404     0.01444735    -5.91537142
    0.05235715     0.01444216    -5.91537142
    0.05236086     0.01445078    -5.91537142
20MABNDA000318_PR004
   -0.00856191     0.03844417     2.74965858
   -0.00856741     0.03844195     2.74965858
   -0.00856300     0.03843903     2.74965858
20MABNDA000334_PR005
   -0.00429861     0.03174375     2.14977145
   -0.00430075     0.03174889     2.14977145
   -0.00430089     0.03175075     2.14977145
20MABNDB000317_PR015
   -0.01726023    -0.03379534     2.75129199
   -0.01725715    -0.03379421     2.75129199
   -0.01725459    -0.03379472     2.75129199
20MABNDB000146_PR016
   -0.01342634    -0.03157254     2.15201473
   -0.01342778    -0.03157398     2.15201473
   -0.01342576    -0.03157412     2.15201473
20MABNDB000135_PR027
   -0.02096219    -0.00979269     2.74937153
   -0.02096048    -0.00980335     2.74937153
   -0.02096060    -0.00979785     2.74937153
20MABNDB000126_PR028
   -0.02031708    -0.03897385     2.14679527
   -0.02031809    -0.03897171     2.14679527
   -0.02031523    -0.03897227     2.14679527
20MABNDA000272_PR038
   -0.01327149     0.01077249     2.74965858
   -0.01326398     0.01077541     2.74965858
   -0.01327186     0.01077176     2.74965858
20MABNDA000003_PR039
   -0.00597462     0.04122902     2.14891577
   -0.00597347     0.04123116     2.14891577
   -0.00597848     0.04122803     2.14891577
20MABNDA000196_PR006
   -0.01012254     0.00987469     1.64206338
   -0.01012598     0.00987899     1.64206338
   -0.01012364     0.00987383     1.64206338
20MABNDA000324_PR007
   -0.02551538     0.02792905     2.95549059
   -0.02551774     0.02792982     2.95549059
   -0.02551697     0.02793199     2.95549011
20MABNDB000001_PR017
   -0.02453297    -0.00286639     1.64035702
   -0.02453791    -0.00286820     1.64035702
   -0.02453769    -0.00286798     1.64035702
20MABNDB000260_PR019
   -0.02406245    -0.03849699     2.95627499
   -0.02405308    -0.03850251     2.95627499
   -0.02406117    -0.03850189     2.95627499
20MABNDB000212_PR029
   -0.02527303    -0.00848189     1.64223886
   -0.02527667    -0.00848404     1.64223886
   -0.02527969    -0.00848938     1.64223886
20MABNDB000128_PR030
   -0.01949299    -0.04673169     2.95496368
   -0.01949026    -0.04672559     2.95496368
   -0.01949597    -0.04672167     2.95496368
20MABNDA000444_PR040
   -0.03025153     0.00092737     1.64490855
   -0.03024600     0.00092317     1.64490855
   -0.03025031     0.00092618     1.64490855
20MABNDA000053_PR041
   -0.02657032     0.05121008     2.95450258
   -0.02659188     0.05123209     2.95450187
   -0.02659978     0.05121968     2.95450211
20MABNDA000188_PR008
    0.13650158    -0.07885031     9.20339394
    0.13650158    -0.07885031     9.20339394
    0.13650158    -0.07885031     9.20339394
20MABNDA000188_PR018
   -0.01617870     0.02583410     1.28358245
   -0.01617939     0.02583385     1.28358245
   -0.01617836     0.02583461     1.28358245
20MABNDA000039_PR009
   -0.17119622     0.02578003    11.00701523
   -0.17120954     0.02574352    11.00701523
   -0.17118664     0.02579534    11.00701523
20MABNDA000039_PR011
    0.03083989    -0.02403914     3.43347549
    0.03084059    -0.02403389     3.43347549
    0.03084126    -0.02403686     3.43347549
20MABNDB000155_PR020
    0.10173259    -0.00956461     9.20028782
    0.10175133    -0.00958830     9.20028782
    0.10181055    -0.00960898     9.20028687
20MABNDB000155_PR022
   -0.02601859    -0.01799497     1.28070235
   -0.02601663    -0.01799443     1.28070235
20MABNDB000010_PR021
   -0.16005819     0.02400377    11.00713062
   -0.16006109     0.02400225    11.00713062
20MABNDB000010_PR023
    0.00406406     0.02071261     3.43376780
    0.00406302     0.02070640     3.43376851
20MABNDB000069_PR031
    0.10228352    -0.03878639     9.20356178
    0.10234256    -0.03876857     9.20356083
20MABNDB000069_PR033
   -0.02687034    -0.02686008     1.28394091
   -0.02687213    -0.02686001     1.28394091
20MABNDB000131_PR032
   -0.18766704    -0.02954330    11.00642586
   -0.18764353    -0.02956802    11.00642586
20MABNDB000131_PR034
    0.01475236     0.01641404     3.43337631
    0.01475900     0.01640861     3.43337631
20MABNDA000208_PR042
    0.11095439    -0.04954808     9.20155048
    0.09933615    -0.05480254     9.20166206
20MABNDA000208_PR046
   -0.02666939     0.03379214     1.28206444
   -0.02667725     0.03379709     1.28206444
20MABNDA000035_PR044
   -0.18014775     0.02602331    11.00802040
   -0.18015575     0.02602849    11.00802040
20MABNDA000035_PR045
    0.01419689    -0.01940189     3.43483615
    0.01419577    -0.01939892     3.43483615


*****************************************************************coordonnees du prisme dans le repere ATLAS********************************************************************************** 
20MABNDL000077_PR002 0.00000000
    2.85258293    -3.71238804     6.48617792
    2.82669115    -3.70200729     6.48627710
    2.80947518    -3.69442081     6.48622084
20MABNDL000077_PR003 0.00000000
    2.83579779    -3.72381377     6.67526293
    2.83579898    -3.72380829     6.67526293
    2.83579540    -3.72380972     6.67526293
20MABNDL000077_20MABNDM000168 0.00000000
    2.77223182    -3.78913903    -2.68922138
    2.77221894    -3.78914285    -2.68922138
    2.77222681    -3.78912497    -2.68922138
20MABNDL000077_PR024 0.00000000
    2.83048415    -3.68691397    -3.11711478
    2.83047056    -3.68691754    -3.11711478
    2.83047152    -3.68693328    -3.11711478
20MABNDM000020_PR013 0.00000000
   -2.83421469    -3.73583555     6.48627615
   -2.83421302    -3.73577476     6.48627663
   -2.83426833    -3.73580313     6.48627615
20MABNDM000020_PR014 0.00000000
   -2.84715438    -3.67459869     7.43230152
   -2.84714198    -3.67462611     7.43230200
   -2.84716821    -3.67462254     7.43230152
20MABNDM000020_20MABNDL000196 0.00000000
   -2.78828621    -3.79159522    -2.71076035
   -2.78829265    -3.79157996    -2.71076035
   -2.78829646    -3.79158449    -2.71076035
20MABNDM000020_PR035 0.00000000
   -2.84748530    -3.68972397    -3.11707664
   -2.84747744    -3.68972278    -3.11707664
   -2.84749246    -3.68972516    -3.11707664
20MABNDM000168_PR025 0.00000000
    2.78325200    -3.76521444    -6.47911406
    2.78325224    -3.76521397    -6.47911406
    2.77369761    -3.78601599    -6.47876549
20MABNDM000168_PR026 0.00000000
    2.83933616    -3.68758535    -6.67493773
    2.83934975    -3.68758774    -6.67493773
    2.83935070    -3.68757987    -6.67493773
20MABNDM000168_20MABNDL000077 0.00000000
    2.81500554    -3.75341916     2.69822598
    2.81499767    -3.75340724     2.69822598
    2.81499958    -3.75341272     2.69822598
20MABNDM000168_PR001 0.00000000
    2.84048319    -3.68440986     3.12405777
    2.84047985    -3.68440437     3.12405682
    2.84048223    -3.68440843     3.12405777
20MABNDL000196_PR036 0.00000000
   -2.84754610    -3.69292593    -6.47909641
   -2.84754157    -3.69291949    -6.47909641
   -2.84754705    -3.69291449    -6.47909594
20MABNDL000196_PR037 0.00000000
   -2.82519960    -3.76950836    -6.67506647
   -2.82519078    -3.76951981    -6.67506647
   -2.82519460    -3.76952100    -6.67506599
20MABNDL000196_20MABNDM000020 0.00000000
   -2.81547451    -3.75143623     2.68347335
   -2.81549025    -3.75143671     2.68347335
   -2.81549311    -3.75143480     2.68347335
20MABNDL000196_PR012 0.00000000
   -2.83895302    -3.68297362     3.12404275
   -2.83895826    -3.68298054     3.12404275
   -2.83894968    -3.68297696     3.12404275
20MABNDA000318_PR004 0.00000000
    2.61444139    -4.19698858     3.83355451
    2.61443591    -4.19698858     3.83355665
    2.61444020    -4.19698858     3.83355975
20MABNDA000334_PR005 0.00000000
    2.61669993    -4.19703150     5.89751720
    2.61669779    -4.19703150     5.89751196
    2.61669779    -4.19703150     5.89751005
20MABNDB000317_PR015 0.00000000
   -2.61134696    -4.19700623     3.83622003
   -2.61135006    -4.19700623     3.83622122
   -2.61135244    -4.19700623     3.83622074
20MABNDB000146_PR016 0.00000000
   -2.61286879    -4.19702291     5.89877748
   -2.61286736    -4.19702291     5.89877605
   -2.61286950    -4.19702291     5.89877605
20MABNDB000135_PR027 0.00000000
    2.60390115    -4.19700384    -3.82556820
    2.60390282    -4.19700384    -3.82555747
    2.60390282    -4.19700384    -3.82556295
20MABNDB000126_PR028 0.00000000
    2.60560012    -4.19702101    -5.89324617
    2.60559916    -4.19702101    -5.89324808
    2.60560203    -4.19702101    -5.89324760
20MABNDA000272_PR038 0.00000000
   -2.61126542    -4.19698286    -3.82771182
   -2.61127281    -4.19698286    -3.82770896
   -2.61126494    -4.19698286    -3.82771254
20MABNDA000003_PR039 0.00000000
   -2.61575651    -4.19702101    -5.89153767
   -2.61575770    -4.19702101    -5.89153528
   -2.61575270    -4.19702101    -5.89153862
20MABNDA000196_PR006 0.00000000
    2.58458304    -4.19496536     6.54783106
    2.58458662    -4.19496536     6.54783535
    2.58458424    -4.19496536     6.54783010
20MABNDA000324_PR007 0.00000000
    2.59379935    -4.13996792     6.94798613
    2.59379697    -4.13996792     6.94798517
    2.59379792    -4.13996840     6.94798326
20MABNDB000001_PR017 0.00000000
   -2.59823418    -4.19506073     6.53819418
   -2.59823918    -4.19506073     6.53819609
   -2.59823895    -4.19506073     6.53819609
20MABNDB000260_PR019 0.00000000
   -2.60469937    -4.13995934     6.94214678
   -2.60470867    -4.13995934     6.94214153
   -2.60470080    -4.13995934     6.94214201
20MABNDB000212_PR029 0.00000000
    2.59895086    -4.19500971    -6.54746962
    2.59895444    -4.19500971    -6.54747200
    2.59895754    -4.19500971    -6.54747725
20MABNDB000128_PR030 0.00000000
    2.60936570    -4.14002609    -6.93138933
    2.60936856    -4.14002609    -6.93139553
    2.60936284    -4.14002609    -6.93139935
20MABNDA000444_PR040 0.00000000
   -2.60542417    -4.19510078    -6.54010773
   -2.60541844    -4.19510078    -6.54010344
   -2.60542274    -4.19510078    -6.54010630
20MABNDA000053_PR041 0.00000000
   -2.59397173    -4.14012814    -6.92670345
   -2.59395003    -4.14012861    -6.92668152
   -2.59394217    -4.14012861    -6.92669392
20MABNDA000188_PR008 0.00000000
    3.54951787     3.84898496     8.09023857
    3.54951787     3.84898496     8.09023857
    3.54951787     3.84898496     8.09023857
20MABNDA000188_PR018 0.00000000
    3.52095842    -4.07059622     7.89761496
    3.52095771    -4.07059622     7.89761496
    3.52095866    -4.07059622     7.89761448
20MABNDA000039_PR009 0.00000000
    3.87536812     3.64747334    12.93707371
    3.87538147     3.64747334    12.93703747
    3.87535858     3.64747334    12.93708897
20MABNDA000039_PR011 0.00000000
    3.66418409    -3.92580032    12.88479710
    3.66418338    -3.92580032    12.88480282
    3.66418290    -3.92580032    12.88479996
20MABNDB000155_PR020 0.00000000
   -3.68038464     3.84882164     7.89730263
   -3.68040347     3.84882164     7.89727879
   -3.68046260     3.84882045     7.89725828
20MABNDB000155_PR022 0.00000000
   -3.53396177    -4.07044172     7.89006424
   -3.53396368    -4.07044172     7.89006472
20MABNDB000010_PR021 0.00000000
   -3.84594584     3.64783263    12.87781143
   -3.84594893     3.64783263    12.87781334
20MABNDB000010_PR023 0.00000000
   -3.68560266    -3.92560887    12.88456345
   -3.68560386    -3.92560816    12.88456917
20MABNDB000069_PR031 0.00000000
    3.68400025     3.84875631    -7.90161610
    3.68405938     3.84875512    -7.90163422
20MABNDB000069_PR033 0.00000000
    3.53342915    -4.07046223    -7.87881136
    3.53342724    -4.07046223    -7.87881136
20MABNDB000131_PR032 0.00000000
    3.86846948     3.64757586   -12.94018555
    3.86844611     3.64757562   -12.94021034
20MABNDB000131_PR034 0.00000000
    3.67303705    -3.92564058   -12.89153290
    3.67303038    -3.92564058   -12.89153862
20MABNDA000208_PR042 0.00000000
   -3.66099811     3.84919167    -7.96102285
   -3.64937687     3.84929299    -7.96627140
20MABNDA000208_PR046 0.00000000
   -3.52909565    -4.07036018    -7.87472439
   -3.52908778    -4.07036018    -7.87471962
20MABNDA000035_PR044 0.00000000
   -3.86938858     3.64757562   -12.93170261
   -3.86939669     3.64757562   -12.93170738
20MABNDA000035_PR045 0.00000000
   -3.67653131    -3.92565107   -12.88698196
   -3.67653251    -3.92565107   -12.88698578


*****************************************************************Rapport********************************************************************************** 
CAM-LBA-US_EBA-US-HO-H         2018.05.25.10.40.59     2.82958309    -3.70293872     6.48622529     0.01771707     0.00736460     0.00004061 0.00000000 VRAI 
CAM-LBA-US_JDA-US-H            2018.05.25.10.40.59     2.83579739    -3.72381059     6.67526293     0.00000149     0.00000232     0.00000000 0.00000000 VRAI 
CAM-LBA-US_CAM-LBC-US          2018.05.25.10.40.59     2.77222586    -3.78913562    -2.68922138     0.00000530     0.00000769     0.00000000 0.00000000 VRAI 
CAM-LBA-US_EBC-US-IP-H         2018.05.25.10.40.59     2.83047541    -3.68692160    -3.11711478     0.00000619     0.00000839     0.00000000 0.00000000 VRAI 
CAM-LBA-USA_EBA-USA-HO-H       2018.05.25.10.40.59    -2.83423201    -3.73580448     6.48627631     0.00002569     0.00002484     0.00000022 0.00000000 VRAI 
CAM-LBA-USA_JDA-USA-H          2018.05.25.10.40.59    -2.84715486    -3.67461578     7.43230168     0.00001071     0.00001217     0.00000022 0.00000000 VRAI 
CAM-LBA-USA_CAM-LBC-USA        2018.05.25.10.40.59    -2.78829177    -3.79158656    -2.71076035     0.00000423     0.00000640     0.00000000 0.00000000 VRAI 
CAM-LBA-USA_EBC-USA-IP-H       2018.05.25.10.40.59    -2.84748507    -3.68972397    -3.11707664     0.00000613     0.00000097     0.00000000 0.00000000 VRAI 
CAM-LBC-US_EBC-US-HO-H         2018.05.25.10.40.59     2.78006728    -3.77214813    -6.47899787     0.00450404     0.00980605     0.00016432 0.00000000 VRAI 
CAM-LBC-US_JDC-US-H            2018.05.25.10.40.59     2.83934553    -3.68758432    -6.67493773     0.00000664     0.00000329     0.00000000 0.00000000 VRAI 
CAM-LBC-US_CAM-LBA-US          2018.05.25.10.40.59     2.81500093    -3.75341304     2.69822598     0.00000335     0.00000487     0.00000000 0.00000000 VRAI 
CAM-LBC-US_EBA-US-IP-H         2018.05.25.10.40.59     2.84048176    -3.68440755     3.12405745     0.00000140     0.00000232     0.00000045 0.00000000 VRAI 
CAM-LBC-USA_EBC-USA-HO-H       2018.05.25.10.40.59    -2.84754491    -3.69291997    -6.47909625     0.00000239     0.00000468     0.00000022 0.00000000 VRAI 
CAM-LBC-USA_JDC-USA-H          2018.05.25.10.40.59    -2.82519499    -3.76951639    -6.67506631     0.00000361     0.00000570     0.00000022 0.00000000 VRAI 
CAM-LBC-USA_CAM-LBA-USA        2018.05.25.10.40.59    -2.81548595    -3.75143592     2.68347335     0.00000818     0.00000081     0.00000000 0.00000000 VRAI 
CAM-LBC-USA_EBA-USA-IP-H       2018.05.25.10.40.59    -2.83895365    -3.68297704     3.12404275     0.00000353     0.00000282     0.00000000 0.00000000 VRAI 
CAM-EBA-US-IP_EBA-US-IP        2018.05.25.10.40.59     2.61443917    -4.19698858     3.83355697     0.00000235     0.00000000     0.00000215 0.00000000 VRAI 
CAM-EBA-US-HO_EBA-US-HO        2018.05.25.10.40.59     2.61669850    -4.19703150     5.89751307     0.00000101     0.00000000     0.00000302 0.00000000 VRAI 
CAM-EBA-USA-IP_EBA-USA-IP      2018.05.25.10.40.59    -2.61134982    -4.19700623     3.83622066     0.00000225     0.00000000     0.00000049 0.00000000 VRAI 
CAM-EBA-USA-HO_EBA-USA-HO      2018.05.25.10.40.59    -2.61286855    -4.19702291     5.89877653     0.00000089     0.00000000     0.00000067 0.00000000 VRAI 
CAM-EBC-US-IP_EBC-US-IP        2018.05.25.10.40.59     2.60390226    -4.19700384    -3.82556287     0.00000079     0.00000000     0.00000438 0.00000000 VRAI 
CAM-EBC-US-HO_EBC-US-HO        2018.05.25.10.40.59     2.60560044    -4.19702101    -5.89324729     0.00000119     0.00000000     0.00000081 0.00000000 VRAI 
CAM-EBC-USA-IP_EBC-USA-IP      2018.05.25.10.40.59    -2.61126773    -4.19698286    -3.82771111     0.00000360     0.00000000     0.00000155 0.00000000 VRAI 
CAM-EBC-USA-HO_EBC-USA-HO      2018.05.25.10.40.59    -2.61575564    -4.19702101    -5.89153719     0.00000214     0.00000000     0.00000140 0.00000000 VRAI 
CAM-JDA-US-IP_JDA-US-IP        2018.05.25.10.40.59     2.58458463    -4.19496536     6.54783217     0.00000149     0.00000000     0.00000228 0.00000000 VRAI 
CAM-JDA-US-HO_JDA-US-HO        2018.05.25.10.40.59     2.59379808    -4.13996808     6.94798485     0.00000098     0.00000022     0.00000119 0.00000000 VRAI 
CAM-JDA-USA-IP_JDA-USA-IP      2018.05.25.10.40.59    -2.59823744    -4.19506073     6.53819545     0.00000231     0.00000000     0.00000090 0.00000000 VRAI 
CAM-JDA-USA-HO_JDA-USA-HO      2018.05.25.10.40.59    -2.60470295    -4.13995934     6.94214344     0.00000409     0.00000000     0.00000237 0.00000000 VRAI 
CAM-JDC-US-IP_JDC-US-IP        2018.05.25.10.40.59     2.59895428    -4.19500971    -6.54747295     0.00000273     0.00000000     0.00000319 0.00000000 VRAI 
CAM-JDC-US-HO_JDC-US-HO        2018.05.25.10.40.59     2.60936570    -4.14002609    -6.93139474     0.00000234     0.00000000     0.00000413 0.00000000 VRAI 
CAM-JDC-USA-IP_JDC-USA-IP      2018.05.25.10.40.59    -2.60542178    -4.19510078    -6.54010582     0.00000243     0.00000000     0.00000178 0.00000000 VRAI 
CAM-JDC-USA-HO_JDC-USA-HO      2018.05.25.10.40.59    -2.59395464    -4.14012845    -6.92669296     0.00001250     0.00000022     0.00000898 0.00000000 VRAI 
CAM-ECTA-US-IP_ECTA-US-IP-T    2018.05.25.10.40.59     3.54951787     3.84898496     8.09023857     0.00000000     0.00000000     0.00000000 0.00000000 VRAI 
CAM-ECTA-US-IP_ECTA-US-IP      2018.05.25.10.40.59     3.52095826    -4.07059622     7.89761480     0.00000041     0.00000000     0.00000022 0.00000000 VRAI 
CAM-ECTA-US-HO_ECTA-US-HO-T    2018.05.25.10.40.59     3.87536939     3.64747334    12.93706671     0.00000939     0.00000000     0.00002160 0.00000000 VRAI 
CAM-ECTA-US-HO_ECTA-US-HO      2018.05.25.10.40.59     3.66418346    -3.92580032    12.88479996     0.00000049     0.00000000     0.00000234 0.00000000 VRAI 
CAM-ECTA-USA-IP_ECTA-USA-IP-T  2018.05.25.10.40.59    -3.68041690     3.84882124     7.89727990     0.00003321     0.00000056     0.00001812 0.00000000 VRAI 
CAM-ECTA-USA-IP_ECTA-USA-IP    2018.05.25.10.40.59    -3.53396273    -4.07044172     7.89006448     0.00000095     0.00000000     0.00000024 0.00000000 VRAI 
CAM-ECTA-USA-HO_ECTA-USA-HO-T  2018.05.25.10.40.59    -3.84594738     3.64783263    12.87781239     0.00000155     0.00000000     0.00000095 0.00000000 VRAI 
CAM-ECTA-USA-HO_ECTA-USA-HO    2018.05.25.10.40.59    -3.68560326    -3.92560852    12.88456631     0.00000060     0.00000036     0.00000286 0.00000000 VRAI 
CAM-ECTC-US-IP_ECTC-US-IP-T    2018.05.25.10.40.59     3.68402982     3.84875572    -7.90162516     0.00002956     0.00000060     0.00000906 0.00000000 VRAI 
CAM-ECTC-US-IP_ECTC-US-IP      2018.05.25.10.40.59     3.53342819    -4.07046223    -7.87881136     0.00000095     0.00000000     0.00000000 0.00000000 VRAI 
CAM-ECTC-US-HO_ECTC-US-HO-T    2018.05.25.10.40.59     3.86845779     3.64757574   -12.94019794     0.00001168     0.00000012     0.00001240 0.00000000 VRAI 
CAM-ECTC-US-HO_ECTC-US-HO      2018.05.25.10.40.59     3.67303371    -3.92564058   -12.89153576     0.00000334     0.00000000     0.00000286 0.00000000 VRAI 
CAM-ECTC-USA-IP_ECTC-USA-IP-T  2018.05.25.10.40.59    -3.65518749     3.84924233    -7.96364713     0.00581062     0.00005066     0.00262427 0.00000000 VRAI 
CAM-ECTC-USA-IP_ECTC-USA-IP    2018.05.25.10.40.59    -3.52909172    -4.07036018    -7.87472200     0.00000393     0.00000000     0.00000238 0.00000000 VRAI 
CAM-ECTC-USA-HO_ECTC-USA-HO-T  2018.05.25.10.40.59    -3.86939263     3.64757562   -12.93170500     0.00000405     0.00000000     0.00000238 0.00000000 VRAI 
CAM-ECTC-USA-HO_ECTC-USA-HO    2018.05.25.10.40.59    -3.67653191    -3.92565107   -12.88698387     0.00000060     0.00000000     0.00000191 0.00000000 VRAI 
