********** Fichier qui contient une sauvegarde des coordonnees images + coordonnees images transformees dans le repere BCAM (MOUNT) + coordonnees des prismes dans le repere MOUNT********** 
********************************************************************** Unite en metres (m)************************************************************************************************** 

*******************************************************************coordonnees images dans le repere CCD *********************************************************************************** 
20MABNDL000077_PR002
Spot 1     0.00121358     0.00150171
Spot 2     0.00086500     0.00006500
Spot 1     0.00121413     0.00150057
Spot 2     0.00052500     0.00043500
Spot 1     0.00121608     0.00150101
Spot 2     0.00086500     0.00006500
20MABNDL000077_PR003
Spot 1     0.00138735     0.00148722
Spot 2     0.00153773     0.00148907
Spot 1     0.00138725     0.00148711
Spot 2     0.00153778     0.00148899
Spot 1     0.00138734     0.00148715
Spot 2     0.00153715     0.00148897
20MABNDL000077_20MABNDM000168
Spot 1     0.00175755     0.00118476
Spot 2     0.00075500     0.00010500
Spot 1     0.00175757     0.00118479
Spot 2     0.00075500     0.00010500
Spot 1     0.00175721     0.00118494
Spot 2     0.00075500     0.00010500
20MABNDL000077_PR024
Spot 1     0.00254565     0.00144806
Spot 2     0.00264626     0.00145561
Spot 1     0.00254588     0.00144792
Spot 2     0.00264622     0.00145543
Spot 1     0.00254559     0.00144779
Spot 2     0.00264575     0.00145517
20MABNDM000020_PR013
Spot 1     0.00162734     0.00152725
Spot 2     0.00147360     0.00153371
Spot 1     0.00162695     0.00152659
Spot 2     0.00147318     0.00153357
Spot 1     0.00162712     0.00152695
Spot 2     0.00147352     0.00153402
20MABNDM000020_PR014
Spot 1     0.00266021     0.00168889
Spot 2     0.00249770     0.00169485
Spot 1     0.00265915     0.00168874
Spot 2     0.00249746     0.00169376
Spot 1     0.00266024     0.00168953
Spot 2     0.00249808     0.00169382
20MABNDM000020_20MABNDL000196
Spot 1     0.00197694     0.00117806
Spot 2     0.00230500     0.00010500
Spot 1     0.00197695     0.00117826
Spot 2     0.00230500     0.00010500
Spot 1     0.00197707     0.00117820
Spot 2     0.00230500     0.00010500
20MABNDM000020_PR035
Spot 1     0.00126917     0.00149612
Spot 2     0.00118730     0.00153121
Spot 1     0.00126968     0.00149600
Spot 2     0.00118715     0.00153125
Spot 1     0.00126987     0.00149584
Spot 2     0.00118712     0.00153137
20MABNDM000168_PR025
Spot 1     0.00170500     0.00084500
Spot 2     0.00170500     0.00084500
Spot 1     0.00170500     0.00084500
Spot 2     0.00170500     0.00021500
Spot 1     0.00170500     0.00084500
Spot 2     0.00170500     0.00084500
20MABNDM000168_PR026
Spot 1     0.00266724     0.00143022
Spot 2     0.00250575     0.00142667
Spot 1     0.00266707     0.00143029
Spot 2     0.00250565     0.00142685
Spot 1     0.00266717     0.00143038
Spot 2     0.00250554     0.00142668
20MABNDM000168_20MABNDL000077
Spot 1     0.00154154     0.00130025
Spot 2     0.00175806     0.00130633
Spot 1     0.00154155     0.00130032
Spot 2     0.00175839     0.00130650
Spot 1     0.00154153     0.00130031
Spot 2     0.00175826     0.00130655
20MABNDM000168_PR001
Spot 1     0.00080859     0.00161877
Spot 2     0.00070634     0.00162081
Spot 1     0.00080832     0.00161882
Spot 2     0.00070619     0.00162084
Spot 1     0.00080843     0.00161889
Spot 2     0.00070624     0.00162090
20MABNDL000196_PR036
Spot 1     0.00094577     0.00163659
Spot 2     0.00111040     0.00163594
Spot 1     0.00094565     0.00163687
Spot 2     0.00111059     0.00163554
Spot 1     0.00094567     0.00163698
Spot 2     0.00111061     0.00163556
20MABNDL000196_PR037
Spot 1     0.00246774     0.00117154
Spot 2     0.00262302     0.00117009
Spot 1     0.00246790     0.00117167
Spot 2     0.00262324     0.00117014
Spot 1     0.00246776     0.00117172
Spot 2     0.00262301     0.00117032
20MABNDL000196_20MABNDM000020
Spot 1     0.00192587     0.00104120
Spot 2     0.00170488     0.00104639
Spot 1     0.00192581     0.00104119
Spot 2     0.00170494     0.00104660
Spot 1     0.00192569     0.00104118
Spot 2     0.00170484     0.00104651
20MABNDL000196_PR012
Spot 1     0.00265168     0.00134184
Spot 2     0.00272460     0.00138798
Spot 1     0.00265167     0.00134188
Spot 2     0.00272460     0.00138790
Spot 1     0.00265161     0.00134206
Spot 2     0.00272465     0.00138813
20MABNDA000318_PR004
Spot 1     0.00192522     0.00162661
Spot 2     0.00214384     0.00162660
Spot 1     0.00192528     0.00162682
Spot 2     0.00214364     0.00162653
Spot 1     0.00192538     0.00162678
Spot 2     0.00214361     0.00162633
20MABNDA000334_PR005
Spot 1     0.00247147     0.00158753
Spot 2     0.00219124     0.00158812
Spot 1     0.00247181     0.00158762
Spot 2     0.00219113     0.00158815
Spot 1     0.00247167     0.00158750
Spot 2     0.00219121     0.00158798
20MABNDB000317_PR015
Spot 1     0.00170434     0.00158781
Spot 2     0.00148455     0.00159405
Spot 1     0.00170461     0.00158768
Spot 2     0.00148449     0.00159415
Spot 1     0.00170425     0.00158773
Spot 2     0.00148458     0.00159419
20MABNDB000146_PR016
Spot 1     0.00144409     0.00132492
Spot 2     0.00171982     0.00132729
Spot 1     0.00144401     0.00132503
Spot 2     0.00171997     0.00132746
Spot 1     0.00144402     0.00132500
Spot 2     0.00172003     0.00132725
20MABNDB000135_PR027
Spot 1     0.00188985     0.00091423
Spot 2     0.00210833     0.00091596
Spot 1     0.00189010     0.00091419
Spot 2     0.00210824     0.00091597
Spot 1     0.00189004     0.00091412
Spot 2     0.00210826     0.00091605
20MABNDB000126_PR028
Spot 1     0.00164378     0.00200901
Spot 2     0.00192653     0.00201078
Spot 1     0.00164380     0.00200907
Spot 2     0.00192659     0.00201079
Spot 1     0.00164378     0.00200906
Spot 2     0.00192645     0.00201087
20MABNDA000272_PR038
Spot 1     0.00192150     0.00095014
Spot 2     0.00170017     0.00094890
Spot 1     0.00192156     0.00094993
Spot 2     0.00170038     0.00094893
Spot 1     0.00192153     0.00095042
Spot 2     0.00170034     0.00094907
20MABNDA000003_PR039
Spot 1     0.00199898     0.00192524
Spot 2     0.00227720     0.00192670
Spot 1     0.00199914     0.00192536
Spot 2     0.00227688     0.00192688
Spot 1     0.00199899     0.00192518
Spot 2     0.00227716     0.00192686
20MABNDA000196_PR006
Spot 1     0.00199944     0.00072682
Spot 2     0.00163297     0.00072442
Spot 1     0.00199941     0.00072672
Spot 2     0.00163284     0.00072442
Spot 1     0.00199946     0.00072672
Spot 2     0.00163293     0.00072456
20MABNDA000324_PR007
Spot 1     0.00194126     0.00121477
Spot 2     0.00173525     0.00122089
Spot 1     0.00194114     0.00121505
Spot 2     0.00173511     0.00122080
Spot 1     0.00194129     0.00121521
Spot 2     0.00173489     0.00122076
20MABNDB000001_PR017
Spot 1     0.00190216     0.00043855
Spot 2     0.00227082     0.00044739
Spot 1     0.00190218     0.00043850
Spot 2     0.00227106     0.00044742
Spot 1     0.00190208     0.00043841
Spot 2     0.00227069     0.00044731
20MABNDB000260_PR019
Spot 1     0.00191539     0.00150756
Spot 2     0.00211912     0.00150712
Spot 1     0.00191547     0.00150764
Spot 2     0.00211876     0.00150737
Spot 1     0.00191517     0.00150787
Spot 2     0.00211845     0.00150667
20MABNDB000212_PR029
Spot 1     0.00222909     0.00070086
Spot 2     0.00186863     0.00070108
Spot 1     0.00222911     0.00070089
Spot 2     0.00186837     0.00070104
Spot 1     0.00222916     0.00070093
Spot 2     0.00186843     0.00070108
20MABNDB000128_PR030
Spot 1     0.00190505     0.00199980
Spot 2     0.00211040     0.00199414
Spot 1     0.00190510     0.00199980
Spot 2     0.00211041     0.00199424
Spot 1     0.00190500     0.00199973
Spot 2     0.00211030     0.00199434
20MABNDA000444_PR040
Spot 1     0.00074636     0.00035585
Spot 2     0.00111364     0.00035297
Spot 1     0.00074611     0.00035543
Spot 2     0.00111328     0.00035293
Spot 1     0.00074633     0.00035583
Spot 2     0.00111383     0.00035267
20MABNDA000053_PR041
Spot 1     0.00165807     0.00199100
Spot 2     0.00144659     0.00198909
Spot 1     0.00165721     0.00199171
Spot 2     0.00144523     0.00199068
Spot 1     0.00165705     0.00199163
Spot 2     0.00144485     0.00199033
20MABNDA000188_PR008
Spot 1     0.00297500     0.00011500
Spot 2     0.00297500     0.00011500
Spot 1     0.00297500     0.00011500
Spot 2     0.00297500     0.00011500
Spot 1     0.00297500     0.00011500
Spot 2     0.00297500     0.00011500
20MABNDA000188_PR018
Spot 1     0.00169655     0.00173680
Spot 2     0.00122934     0.00173315
Spot 1     0.00169649     0.00173717
Spot 2     0.00122918     0.00173312
Spot 1     0.00169635     0.00173684
Spot 2     0.00122930     0.00173314
20MABNDA000039_PR009
Spot 1     0.00066455     0.00117983
Spot 2     0.00061638     0.00118421
Spot 1     0.00066450     0.00118025
Spot 2     0.00061623     0.00118415
Spot 1     0.00066444     0.00117977
Spot 2     0.00061660     0.00118445
20MABNDA000039_PR011
Spot 1     0.00276995     0.00029105
Spot 2     0.00259397     0.00028581
Spot 1     0.00276987     0.00029104
Spot 2     0.00259418     0.00028603
Spot 1     0.00277008     0.00029102
Spot 2     0.00259429     0.00028563
20MABNDB000155_PR020
Spot 1     0.00062369     0.00113561
Spot 2     0.00068968     0.00113135
Spot 1     0.00062373     0.00113602
Spot 2     0.00069015     0.00113101
Spot 1     0.00062378     0.00113586
Spot 2     0.00068963     0.00113153
20MABNDB000155_PR022
Spot 1     0.00213870     0.00142833
Spot 2     0.00261175     0.00142301
Spot 1     0.00213875     0.00142844
Spot 2     0.00261160     0.00142301
Spot 1     0.00213897     0.00142814
Spot 2     0.00261175     0.00142301
20MABNDB000010_PR021
Spot 1     0.00287139     0.00114915
Spot 2     0.00268900     0.00037700
Spot 1     0.00287133     0.00114910
Spot 2     0.00268643     0.00037643
20MABNDB000010_PR023
Spot 1     0.00131742     0.00030157
Spot 2     0.00149264     0.00029989
Spot 1     0.00131745     0.00030184
Spot 2     0.00149268     0.00030010
20MABNDB000069_PR031
Spot 1     0.00028290     0.00140587
Spot 2     0.00035496     0.00140482
Spot 1     0.00028339     0.00140606
Spot 2     0.00035514     0.00140459
20MABNDB000069_PR033
Spot 1     0.00182519     0.00206714
Spot 2     0.00229599     0.00208741
Spot 1     0.00182537     0.00206727
Spot 2     0.00229588     0.00208752
20MABNDB000131_PR032
Spot 1     0.00277468     0.00107527
Spot 2     0.00283474     0.00107833
Spot 1     0.00277487     0.00107545
Spot 2     0.00283492     0.00107839
20MABNDB000131_PR034
Spot 1     0.00091436     0.00032381
Spot 2     0.00109061     0.00032396
Spot 1     0.00091418     0.00032382
Spot 2     0.00109047     0.00032368
20MABNDA000208_PR042
Spot 1     0.00263833     0.00045833
Spot 2     0.00274214     0.00073929
Spot 1     0.00263900     0.00046000
Spot 2     0.00261500     0.00051500
20MABNDA000208_PR046
Spot 1     0.00143727     0.00225635
Spot 2     0.00096534     0.00226036
Spot 1     0.00143743     0.00225640
Spot 2     0.00102167     0.00207933
20MABNDA000035_PR044
Spot 1     0.00073769     0.00125011
Spot 2     0.00067916     0.00124458
Spot 1     0.00073809     0.00125000
Spot 2     0.00067946     0.00124439
20MABNDA000035_PR045
Spot 1     0.00253699     0.00045820
Spot 2     0.00235941     0.00045698
Spot 1     0.00253705     0.00045838
Spot 2     0.00235960     0.00045710


****************************************************************coordonnees images transformees dans le repere MOUNT************************************************************************* 
20MABNDL000077_PR002
Spot 1     0.01228390     0.03557315    -0.07463200
Spot 2     0.01192151     0.03413986    -0.07463200
Spot 1     0.01228444     0.03557200    -0.07463200
Spot 2     0.01158509     0.03451311    -0.07463200
Spot 1     0.01228639     0.03557243    -0.07463200
Spot 2     0.01192151     0.03413986    -0.07463200
20MABNDL000077_PR003
Spot 1     0.01245752     0.03555699    -0.07463200
Spot 2     0.01260791     0.03555739    -0.07463200
Spot 1     0.01245742     0.03555688    -0.07463200
Spot 2     0.01260796     0.03555731    -0.07463200
Spot 1     0.01245751     0.03555692    -0.07463200
Spot 2     0.01260733     0.03555730    -0.07463200
20MABNDL000077_20MABNDM000168
Spot 1    -0.01259270     0.03524774    -0.00695400
Spot 2    -0.01157915     0.03417830    -0.00695400
Spot 1    -0.01259272     0.03524777    -0.00695400
Spot 2    -0.01157915     0.03417830    -0.00695400
Spot 1    -0.01259236     0.03524792    -0.00695400
Spot 2    -0.01157915     0.03417830    -0.00695400
20MABNDL000077_PR024
Spot 1    -0.01338345     0.03550296    -0.00695400
Spot 2    -0.01348413     0.03550948    -0.00695400
Spot 1    -0.01338368     0.03550282    -0.00695400
Spot 2    -0.01348409     0.03550930    -0.00695400
Spot 1    -0.01338339     0.03550269    -0.00695400
Spot 2    -0.01348362     0.03550904    -0.00695400
20MABNDM000020_PR013
Spot 1    -0.01273159    -0.03548593    -0.00523500
Spot 2    -0.01288515    -0.03549579    -0.00523500
Spot 1    -0.01273200    -0.03548528    -0.00523500
Spot 2    -0.01288558    -0.03549565    -0.00523500
Spot 1    -0.01273182    -0.03548563    -0.00523500
Spot 2    -0.01288523    -0.03549610    -0.00523500
20MABNDM000020_PR014
Spot 1    -0.01169540    -0.03562469    -0.00523500
Spot 2    -0.01185774    -0.03563424    -0.00523500
Spot 1    -0.01169647    -0.03562456    -0.00523500
Spot 2    -0.01185801    -0.03563316    -0.00523500
Spot 1    -0.01169536    -0.03562533    -0.00523500
Spot 2    -0.01185738    -0.03563320    -0.00523500
20MABNDM000020_20MABNDL000196
Spot 1     0.01270934    -0.03514662    -0.07583800
Spot 2     0.01238113    -0.03407361    -0.07583800
Spot 1     0.01270933    -0.03514682    -0.07583800
Spot 2     0.01238113    -0.03407361    -0.07583800
Spot 1     0.01270921    -0.03514676    -0.07583800
Spot 2     0.01238113    -0.03407361    -0.07583800
20MABNDM000020_PR035
Spot 1     0.01341715    -0.03546459    -0.07583800
Spot 2     0.01349903    -0.03549966    -0.07583800
Spot 1     0.01341664    -0.03546447    -0.07583800
Spot 2     0.01349918    -0.03549970    -0.07583800
Spot 1     0.01341645    -0.03546431    -0.07583800
Spot 2     0.01349921    -0.03549982    -0.07583800
20MABNDM000168_PR025
Spot 1    -0.01269984    -0.03517992    -0.00532900
Spot 2    -0.01269984    -0.03517992    -0.00532900
Spot 1    -0.01269984    -0.03517992    -0.00532900
Spot 2    -0.01270254    -0.03454993    -0.00532900
Spot 1    -0.01269984    -0.03517992    -0.00532900
Spot 2    -0.01269984    -0.03517992    -0.00532900
20MABNDM000168_PR026
Spot 1    -0.01173509    -0.03576100    -0.00532900
Spot 2    -0.01189659    -0.03575814    -0.00532900
Spot 1    -0.01173526    -0.03576107    -0.00532900
Spot 2    -0.01189669    -0.03575832    -0.00532900
Spot 1    -0.01173516    -0.03576116    -0.00532900
Spot 2    -0.01189680    -0.03575816    -0.00532900
20MABNDM000168_20MABNDL000077
Spot 1     0.01288392    -0.03530088    -0.07445100
Spot 2     0.01266733    -0.03530379    -0.07445100
Spot 1     0.01288391    -0.03530095    -0.07445100
Spot 2     0.01266700    -0.03530396    -0.07445100
Spot 1     0.01288393    -0.03530094    -0.07445100
Spot 2     0.01266713    -0.03530401    -0.07445100
20MABNDM000168_PR001
Spot 1     0.01361213    -0.03563009    -0.07445100
Spot 2     0.01371434    -0.03563363    -0.07445100
Spot 1     0.01361240    -0.03563015    -0.07445100
Spot 2     0.01371449    -0.03563366    -0.07445100
Spot 1     0.01361229    -0.03563021    -0.07445100
Spot 2     0.01371444    -0.03563372    -0.07445100
20MABNDL000196_PR036
Spot 1     0.01192570     0.03582529    -0.07483600
Spot 2     0.01209033     0.03582498    -0.07483600
Spot 1     0.01192558     0.03582557    -0.07483600
Spot 2     0.01209052     0.03582458    -0.07483600
Spot 1     0.01192560     0.03582568    -0.07483600
Spot 2     0.01209054     0.03582460    -0.07483600
20MABNDL000196_PR037
Spot 1     0.01344864     0.03536341    -0.07483600
Spot 2     0.01360392     0.03536229    -0.07483600
Spot 1     0.01344880     0.03536354    -0.07483600
Spot 2     0.01360414     0.03536234    -0.07483600
Spot 1     0.01344866     0.03536359    -0.07483600
Spot 2     0.01360391     0.03536252    -0.07483600
20MABNDL000196_20MABNDM000020
Spot 1    -0.01274991     0.03531240    -0.00611000
Spot 2    -0.01252907     0.03532204    -0.00611000
Spot 1    -0.01274985     0.03531239    -0.00611000
Spot 2    -0.01252914     0.03532225    -0.00611000
Spot 1    -0.01274973     0.03531239    -0.00611000
Spot 2    -0.01252904     0.03532216    -0.00611000
20MABNDL000196_PR012
Spot 1    -0.01348163     0.03559838    -0.00611000
Spot 2    -0.01355546     0.03564304    -0.00611000
Spot 1    -0.01348162     0.03559842    -0.00611000
Spot 2    -0.01355546     0.03564296    -0.00611000
Spot 1    -0.01348156     0.03559860    -0.00611000
Spot 2    -0.01355551     0.03564319    -0.00611000
20MABNDA000318_PR004
Spot 1    -0.01264504     0.01246927    -0.07310600
Spot 2    -0.01286366     0.01246864    -0.07310600
Spot 1    -0.01264510     0.01246906    -0.07310600
Spot 2    -0.01286346     0.01246871    -0.07310600
Spot 1    -0.01264520     0.01246910    -0.07310600
Spot 2    -0.01286343     0.01246891    -0.07310600
20MABNDA000334_PR005
Spot 1    -0.01311458     0.01254086    -0.07324100
Spot 2    -0.01283435     0.01254001    -0.07324100
Spot 1    -0.01311492     0.01254077    -0.07324100
Spot 2    -0.01283424     0.01253998    -0.07324100
Spot 1    -0.01311478     0.01254089    -0.07324100
Spot 2    -0.01283432     0.01254015    -0.07324100
20MABNDB000317_PR015
Spot 1    -0.01244982    -0.01250771    -0.07326100
Spot 2    -0.01266967    -0.01250403    -0.07326100
Spot 1    -0.01244955    -0.01250784    -0.07326100
Spot 2    -0.01266973    -0.01250393    -0.07326100
Spot 1    -0.01244991    -0.01250779    -0.07326100
Spot 2    -0.01266964    -0.01250389    -0.07326100
20MABNDB000146_PR016
Spot 1    -0.01276425    -0.01246869    -0.07450500
Spot 2    -0.01248853    -0.01246571    -0.07450500
Spot 1    -0.01276433    -0.01246858    -0.07450500
Spot 2    -0.01248838    -0.01246554    -0.07450500
Spot 1    -0.01276432    -0.01246861    -0.07450500
Spot 2    -0.01248832    -0.01246575    -0.07450500
20MABNDB000135_PR027
Spot 1    -0.01251484    -0.01319878    -0.07464700
Spot 2    -0.01229636    -0.01319948    -0.07464700
Spot 1    -0.01251459    -0.01319882    -0.07464700
Spot 2    -0.01229645    -0.01319947    -0.07464700
Spot 1    -0.01251465    -0.01319889    -0.07464700
Spot 2    -0.01229642    -0.01319939    -0.07464700
20MABNDB000126_PR028
Spot 1    -0.01253575    -0.01217317    -0.07500400
Spot 2    -0.01225302    -0.01216989    -0.07500400
Spot 1    -0.01253573    -0.01217311    -0.07500400
Spot 2    -0.01225296    -0.01216988    -0.07500400
Spot 1    -0.01253575    -0.01217312    -0.07500400
Spot 2    -0.01225310    -0.01216980    -0.07500400
20MABNDA000272_PR038
Spot 1    -0.01275715     0.01316132    -0.07417900
Spot 2    -0.01253582     0.01316217    -0.07417900
Spot 1    -0.01275721     0.01316153    -0.07417900
Spot 2    -0.01253603     0.01316214    -0.07417900
Spot 1    -0.01275718     0.01316104    -0.07417900
Spot 2    -0.01253599     0.01316200    -0.07417900
20MABNDA000003_PR039
Spot 1    -0.01280006     0.01212702    -0.07373400
Spot 2    -0.01307828     0.01212627    -0.07373400
Spot 1    -0.01280022     0.01212690    -0.07373400
Spot 2    -0.01307797     0.01212609    -0.07373400
Spot 1    -0.01280007     0.01212708    -0.07373400
Spot 2    -0.01307825     0.01212611    -0.07373400
20MABNDA000196_PR006
Spot 1    -0.01295411     0.01325158    -0.07967100
Spot 2    -0.01258764     0.01324927    -0.07967100
Spot 1    -0.01295408     0.01325168    -0.07967100
Spot 2    -0.01258751     0.01324926    -0.07967100
Spot 1    -0.01295413     0.01325168    -0.07967100
Spot 2    -0.01258761     0.01324913    -0.07967100
20MABNDA000324_PR007
Spot 1    -0.01254695     0.01280686    -0.07446800
Spot 2    -0.01234090     0.01280234    -0.07446800
Spot 1    -0.01254683     0.01280658    -0.07446800
Spot 2    -0.01234076     0.01280243    -0.07446800
Spot 1    -0.01254698     0.01280642    -0.07446800
Spot 2    -0.01234054     0.01280248    -0.07446800
20MABNDB000001_PR017
Spot 1    -0.01228620    -0.01355113    -0.07418400
Spot 2    -0.01191747    -0.01354620    -0.07418400
Spot 1    -0.01228619    -0.01355118    -0.07418400
Spot 2    -0.01191723    -0.01354617    -0.07418400
Spot 1    -0.01228629    -0.01355127    -0.07418400
Spot 2    -0.01191760    -0.01354628    -0.07418400
20MABNDB000260_PR019
Spot 1    -0.01241605    -0.01239513    -0.07492700
Spot 2    -0.01221235    -0.01239139    -0.07492700
Spot 1    -0.01241597    -0.01239505    -0.07492700
Spot 2    -0.01221272    -0.01239115    -0.07492700
Spot 1    -0.01241627    -0.01239483    -0.07492700
Spot 2    -0.01221301    -0.01239186    -0.07492700
20MABNDB000212_PR029
Spot 1    -0.01185876    -0.01328036    -0.07390500
Spot 2    -0.01221919    -0.01327629    -0.07390500
Spot 1    -0.01185874    -0.01328033    -0.07390500
Spot 2    -0.01221945    -0.01327633    -0.07390500
Spot 1    -0.01185869    -0.01328029    -0.07390500
Spot 2    -0.01221939    -0.01327629    -0.07390500
20MABNDB000128_PR030
Spot 1    -0.01245007    -0.01221750    -0.07353400
Spot 2    -0.01224470    -0.01222245    -0.07353400
Spot 1    -0.01245002    -0.01221750    -0.07353400
Spot 2    -0.01224469    -0.01222235    -0.07353400
Spot 1    -0.01245012    -0.01221757    -0.07353400
Spot 2    -0.01224480    -0.01222225    -0.07353400
20MABNDA000444_PR040
Spot 1    -0.01168616     0.01367395    -0.07412000
Spot 2    -0.01205345     0.01367217    -0.07412000
Spot 1    -0.01168592     0.01367437    -0.07412000
Spot 2    -0.01205309     0.01367221    -0.07412000
Spot 1    -0.01168613     0.01367397    -0.07412000
Spot 2    -0.01205364     0.01367247    -0.07412000
20MABNDA000053_PR041
Spot 1    -0.01241474     0.01211956    -0.07430100
Spot 2    -0.01220326     0.01211734    -0.07430100
Spot 1    -0.01241389     0.01211883    -0.07430100
Spot 2    -0.01220193     0.01211572    -0.07430100
Spot 1    -0.01241373     0.01211891    -0.07430100
Spot 2    -0.01220155     0.01211607    -0.07430100
20MABNDA000188_PR008
Spot 1    -0.01399107     0.01394961    -0.07502000
Spot 2    -0.01399107     0.01394961    -0.07502000
Spot 1    -0.01399107     0.01394961    -0.07502000
Spot 2    -0.01399107     0.01394961    -0.07502000
Spot 1    -0.01399107     0.01394961    -0.07502000
Spot 2    -0.01399107     0.01394961    -0.07502000
20MABNDA000188_PR018
Spot 1    -0.01272655     0.01231692    -0.07502000
Spot 2    -0.01225933     0.01231657    -0.07502000
Spot 1    -0.01272650     0.01231655    -0.07502000
Spot 2    -0.01225917     0.01231660    -0.07502000
Spot 1    -0.01272635     0.01231688    -0.07502000
Spot 2    -0.01225929     0.01231658    -0.07502000
20MABNDA000039_PR009
Spot 1    -0.01162670     0.01306431    -0.07444800
Spot 2    -0.01157855     0.01305972    -0.07444800
Spot 1    -0.01162665     0.01306389    -0.07444800
Spot 2    -0.01157840     0.01305978    -0.07444800
Spot 1    -0.01162659     0.01306437    -0.07444800
Spot 2    -0.01157877     0.01305948    -0.07444800
20MABNDA000039_PR011
Spot 1    -0.01372823     0.01396219    -0.07444800
Spot 2    -0.01355223     0.01396667    -0.07444800
Spot 1    -0.01372815     0.01396220    -0.07444800
Spot 2    -0.01355244     0.01396645    -0.07444800
Spot 1    -0.01372836     0.01396222    -0.07444800
Spot 2    -0.01355255     0.01396685    -0.07444800
20MABNDB000155_PR020
Spot 1    -0.01364255    -0.01312171    -0.07501700
Spot 2    -0.01357651    -0.01312506    -0.07501700
Spot 1    -0.01364252    -0.01312130    -0.07501700
Spot 2    -0.01357603    -0.01312540    -0.07501700
Spot 1    -0.01364246    -0.01312146    -0.07501700
Spot 2    -0.01357656    -0.01312488    -0.07501700
20MABNDB000155_PR022
Spot 1    -0.01213169    -0.01280828    -0.07501700
Spot 2    -0.01165861    -0.01280712    -0.07501700
Spot 1    -0.01213164    -0.01280816    -0.07501700
Spot 2    -0.01165876    -0.01280712    -0.07501700
Spot 1    -0.01213142    -0.01280846    -0.07501700
Spot 2    -0.01165861    -0.01280712    -0.07501700
20MABNDB000010_PR021
Spot 1    -0.01157955    -0.01292932    -0.07358200
Spot 2    -0.01174883    -0.01370444    -0.07358200
Spot 1    -0.01157961    -0.01292937    -0.07358200
Spot 2    -0.01175139    -0.01370506    -0.07358200
20MABNDB000010_PR023
Spot 1    -0.01311894    -0.01380310    -0.07358200
Spot 2    -0.01294372    -0.01380181    -0.07358200
Spot 1    -0.01311891    -0.01380283    -0.07358200
Spot 2    -0.01294368    -0.01380160    -0.07358200
20MABNDB000069_PR031
Spot 1    -0.01359332    -0.01286175    -0.07388500
Spot 2    -0.01352136    -0.01286577    -0.07388500
Spot 1    -0.01359282    -0.01286158    -0.07388500
Spot 2    -0.01352119    -0.01286601    -0.07388500
20MABNDB000069_PR033
Spot 1    -0.01202505    -0.01226468    -0.07388500
Spot 2    -0.01155382    -0.01226386    -0.07388500
Spot 1    -0.01202487    -0.01226456    -0.07388500
Spot 2    -0.01155392    -0.01226375    -0.07388500
20MABNDB000131_PR032
Spot 1    -0.01144546    -0.01303950    -0.07533000
Spot 2    -0.01138541    -0.01303613    -0.07533000
Spot 1    -0.01144527    -0.01303931    -0.07533000
Spot 2    -0.01138523    -0.01303607    -0.07533000
20MABNDB000131_PR034
Spot 1    -0.01330197    -0.01380031    -0.07533000
Spot 2    -0.01312572    -0.01379927    -0.07533000
Spot 1    -0.01330215    -0.01380030    -0.07533000
Spot 2    -0.01312586    -0.01379956    -0.07533000
20MABNDA000208_PR042
Spot 1    -0.01350948     0.01353806    -0.07273700
Spot 2    -0.01361305     0.01325701    -0.07273700
Spot 1    -0.01351015     0.01353639    -0.07273700
Spot 2    -0.01348610     0.01348141    -0.07273700
20MABNDA000208_PR046
Spot 1    -0.01230685     0.01174109    -0.07273700
Spot 2    -0.01183491     0.01173750    -0.07273700
Spot 1    -0.01230701     0.01174104    -0.07273700
Spot 2    -0.01189140     0.01191848    -0.07273700
20MABNDA000035_PR044
Spot 1    -0.01157229     0.01300713    -0.07483200
Spot 2    -0.01151372     0.01301225    -0.07483200
Spot 1    -0.01157269     0.01300725    -0.07483200
Spot 2    -0.01151402     0.01301244    -0.07483200
20MABNDA000035_PR045
Spot 1    -0.01336591     0.01381182    -0.07483200
Spot 2    -0.01318833     0.01381178    -0.07483200
Spot 1    -0.01336597     0.01381164    -0.07483200
Spot 2    -0.01318852     0.01381166    -0.07483200


*****************************************************************coordonnees du prisme dans le repere MOUNT********************************************************************************** 
20MABNDL000077_PR002
    0.04180828     0.05675681     3.70694900
    0.05010447     0.04756539     3.70691442
    0.04174671     0.05677469     3.70694923
20MABNDL000077_PR003
    0.02096633     0.02143366     3.89601803
    0.02096768     0.02143858     3.89601803
    0.02098169     0.02143792     3.89601803
20MABNDL000077_20MABNDM000168
   -0.05596240     0.07577330    -5.46843624
   -0.05596167     0.07577223    -5.46843624
   -0.05597461     0.07576668    -5.46843624
20MABNDL000077_PR024
    0.04568857     0.01708610    -5.89639807
    0.04569585     0.01709865    -5.89639807
    0.04566607     0.01711355    -5.89639854
20MABNDM000020_PR013
   -0.00367434    -0.01811222    -3.80243397
   -0.00365381    -0.01813162    -3.80243397
   -0.00366690    -0.01811180    -3.80243397
20MABNDM000020_PR014
   -0.06560612    -0.00495999    -4.74840927
   -0.06556483    -0.00499765    -4.74841022
   -0.06561860    -0.00497238    -4.74840927
20MABNDM000020_20MABNDL000196
    0.02684988    -0.07124487     5.39469719
    0.02685024    -0.07123770     5.39469719
    0.02685454    -0.07123984     5.39469719
20MABNDM000020_PR035
   -0.04242516    -0.00671489     5.80095482
   -0.04241129    -0.00671797     5.80095482
   -0.04240512    -0.00671951     5.80095482
20MABNDM000168_PR025
   -0.01186195    -0.04366633    -3.78878975
   -0.01179506    -0.05924288    -3.78872490
   -0.01186195    -0.04366633    -3.78878975
20MABNDM000168_PR026
   -0.05783762    -0.01389194    -3.98429012
   -0.05783062    -0.01388540    -3.98429012
   -0.05783036    -0.01388748    -3.98429012
20MABNDM000168_20MABNDL000077
    0.01156519    -0.03869910     5.38884687
    0.01157753    -0.03869066     5.38884687
    0.01157216    -0.03868914     5.38884687
20MABNDM000168_PR001
   -0.05734244    -0.01336066     5.81470585
   -0.05735867    -0.01335733     5.81470490
   -0.05735239    -0.01335238     5.81470585
20MABNDL000196_PR036
    0.05137659     0.00609204     3.68777275
    0.05137487     0.00609499     3.68777275
    0.05137389     0.00609179     3.68777275
20MABNDL000196_PR037
   -0.02508074     0.02840918     3.88381338
   -0.02509055     0.02840450     3.88381338
   -0.02508098     0.02839857     3.88381338
20MABNDL000196_20MABNDM000020
   -0.01568879     0.03791592    -5.47473907
   -0.01568864     0.03790874    -5.47473907
   -0.01569662     0.03791218    -5.47473907
20MABNDL000196_PR012
    0.05239336     0.01447787    -5.91537142
    0.05239294     0.01447942    -5.91537142
    0.05239287     0.01446348    -5.91537142
20MABNDA000318_PR004
   -0.00854384     0.03841304     2.74965906
   -0.00854642     0.03841560     2.74965906
   -0.00854512     0.03841120     2.74965906
20MABNDA000334_PR005
   -0.00431719     0.03173662     2.14977169
   -0.00431390     0.03173833     2.14977169
   -0.00431477     0.03173419     2.14977169
20MABNDB000317_PR015
   -0.01726169    -0.03377933     2.75129223
   -0.01726552    -0.03377883     2.75129223
   -0.01726058    -0.03378041     2.75129223
20MABNDB000146_PR016
   -0.01342490    -0.03157584     2.15201473
   -0.01342589    -0.03157987     2.15201473
   -0.01342691    -0.03157642     2.15201473
20MABNDB000135_PR027
   -0.02096562    -0.00978734     2.74937153
   -0.02096855    -0.00978675     2.74937153
   -0.02096782    -0.00978695     2.74937153
20MABNDB000126_PR028
   -0.02031801    -0.03896003     2.14679527
   -0.02031914    -0.03896103     2.14679527
   -0.02031686    -0.03896202     2.14679527
20MABNDA000272_PR038
   -0.01328490     0.01075455     2.74965858
   -0.01327996     0.01075125     2.74965858
   -0.01328122     0.01076279     2.74965858
20MABNDA000003_PR039
   -0.00598450     0.04122204     2.14891577
   -0.00598677     0.04122633     2.14891577
   -0.00598492     0.04122347     2.14891577
20MABNDA000196_PR006
   -0.01011554     0.00987493     1.64206314
   -0.01011731     0.00987386     1.64206314
   -0.01011576     0.00987537     1.64206314
20MABNDA000324_PR007
   -0.02552370     0.02796185     2.95549011
   -0.02552884     0.02796555     2.95549011
   -0.02553024     0.02796790     2.95549011
20MABNDB000001_PR017
   -0.02447476    -0.00282865     1.64035726
   -0.02447760    -0.00282840     1.64035726
   -0.02447244    -0.00282627     1.64035726
20MABNDB000260_PR019
   -0.02408262    -0.03853108     2.95627475
   -0.02407698    -0.03853747     2.95627475
   -0.02406516    -0.03852797     2.95627475
20MABNDB000212_PR029
   -0.02530202    -0.00846557     1.64223862
   -0.02529939    -0.00846549     1.64223862
   -0.02530061    -0.00846635     1.64223862
20MABNDB000128_PR030
   -0.01948410    -0.04674521     2.95496345
   -0.01948527    -0.04674719     2.95496345
   -0.01948114    -0.04674776     2.95496345
20MABNDA000444_PR040
   -0.03021247     0.00094769     1.64490914
   -0.03021909     0.00094257     1.64490891
   -0.03021068     0.00094421     1.64490914
20MABNDA000053_PR041
   -0.02651444     0.05109511     2.95450425
   -0.02655714     0.05114110     2.95450330
   -0.02656790     0.05113287     2.95450330
20MABNDA000188_PR008
    0.14616936    -0.09611703     9.20304298
    0.14616936    -0.09611703     9.20304298
    0.14616936    -0.09611703     9.20304298
20MABNDA000188_PR018
   -0.01618723     0.02581876     1.28358257
   -0.01618909     0.02582169     1.28358257
   -0.01618928     0.02581904     1.28358257
20MABNDA000039_PR009
   -0.17113054     0.02558156    11.00701618
   -0.17114505     0.02560795    11.00701618
   -0.17112243     0.02559469    11.00701618
20MABNDA000039_PR011
    0.03085609    -0.02413864     3.43347406
    0.03085908    -0.02413387     3.43347406
    0.03086634    -0.02414348     3.43347406
20MABNDB000155_PR020
    0.10160593    -0.00963941     9.20029068
    0.10157469    -0.00964413     9.20029068
    0.10160384    -0.00966584     9.20029068
20MABNDB000155_PR022
   -0.02604377    -0.01803480     1.28070188
   -0.02604290    -0.01803572     1.28070188
   -0.02604610    -0.01803320     1.28070188
20MABNDB000010_PR021
   -0.16009213     0.02409731    11.00713062
   -0.15989961     0.02414616    11.00713253
20MABNDB000010_PR023
    0.00405991     0.02078133     3.43376780
    0.00405849     0.02077030     3.43376780
20MABNDB000069_PR031
    0.10233352    -0.03874978     9.20356083
    0.10229258    -0.03874564     9.20356178
20MABNDB000069_PR033
   -0.02684584    -0.02691569     1.28394055
   -0.02684653    -0.02691772     1.28394055
20MABNDB000131_PR032
   -0.18762171    -0.02940863    11.00642776
   -0.18764865    -0.02942630    11.00642776
20MABNDB000131_PR034
    0.01476990     0.01650461     3.43337536
    0.01477716     0.01651079     3.43337488
20MABNDA000208_PR042
    0.09133159    -0.02885392     9.20191097
    0.08358103    -0.04252510     9.20192242
20MABNDA000208_PR046
   -0.02366895     0.03557380     1.28206372
   -0.02318516     0.03402835     1.28209400
20MABNDA000035_PR044
   -0.18017909     0.02573096    11.00802040
   -0.18012804     0.02570865    11.00802040
20MABNDA000035_PR045
    0.01420462    -0.01956533     3.43483448
    0.01421037    -0.01955853     3.43483448


*****************************************************************coordonnees du prisme dans le repere ATLAS********************************************************************************** 
20MABNDL000077_PR002 0.00000000
    2.80028152    -3.70269752     6.48625422
    2.80947566    -3.69440413     6.48622084
    2.80026364    -3.70275903     6.48625469
20MABNDL000077_PR003 0.00000000
    2.83578348    -3.72378397     6.67526293
    2.83577871    -3.72378254     6.67526293
    2.83577919    -3.72376847     6.67526293
20MABNDL000077_20MABNDM000168 0.00000000
    2.77223420    -3.78914165    -2.68922138
    2.77223516    -3.78914094    -2.68922138
    2.77224064    -3.78915381    -2.68922138
20MABNDL000077_PR024 0.00000000
    2.83053398    -3.68698120    -3.11711478
    2.83052135    -3.68697405    -3.11711478
    2.83050632    -3.68700385    -3.11711526
20MABNDM000020_PR013 0.00000000
   -2.83419728    -3.73580956     6.48627663
   -2.83417773    -3.73583031     6.48627663
   -2.83419752    -3.73581719     6.48627663
20MABNDM000020_PR014 0.00000000
   -2.84714103    -3.67459345     7.43230152
   -2.84710336    -3.67463470     7.43230200
   -2.84712863    -3.67458081     7.43230152
20MABNDM000020_20MABNDL000196 0.00000000
   -2.78291440    -3.75935531    -2.71088576
   -2.78292155    -3.75935578    -2.71088576
   -2.78291941    -3.75936007    -2.71088576
20MABNDM000020_PR035 0.00000000
   -2.84750438    -3.68975163    -3.11707759
   -2.84750128    -3.68976545    -3.11707759
   -2.84749985    -3.68977165    -3.11707759
20MABNDM000168_PR025 0.00000000
    2.80957842    -3.73346138    -6.47941828
    2.79400182    -3.73352408    -6.47935247
    2.80957842    -3.73346138    -6.47941828
20MABNDM000168_PR026 0.00000000
    2.83935308    -3.68756628    -6.67493773
    2.83935952    -3.68757319    -6.67493773
    2.83935761    -3.68757343    -6.67493773
20MABNDM000168_20MABNDL000077 0.00000000
    2.81509638    -3.75347733     2.69822621
    2.81510496    -3.75348973     2.69822621
    2.81510639    -3.75348425     2.69822621
20MABNDM000168_PR001 0.00000000
    2.84047890    -3.68441796     3.12405801
    2.84048223    -3.68440175     3.12405682
    2.84048724    -3.68440819     3.12405777
20MABNDL000196_PR036 0.00000000
   -2.84751558    -3.69289780    -6.47909641
   -2.84751248    -3.69289947    -6.47909641
   -2.84751582    -3.69290042    -6.47909641
20MABNDL000196_PR037 0.00000000
   -2.82516694    -3.76952720    -6.67506599
   -2.82517171    -3.76953697    -6.67506599
   -2.82517767    -3.76952744    -6.67506599
20MABNDL000196_20MABNDM000020 0.00000000
   -2.81546235    -3.75142550     2.68347335
   -2.81546950    -3.75142527     2.68347335
   -2.81546617    -3.75143337     2.68347335
20MABNDL000196_PR012 0.00000000
   -2.83892250    -3.68294430     3.12404275
   -2.83892107    -3.68294477     3.12404275
   -2.83893704    -3.68294477     3.12404275
20MABNDA000318_PR004 0.00000000
    2.61445928    -4.19698811     3.83358574
    2.61445689    -4.19698811     3.83358312
    2.61445808    -4.19698811     3.83358741
20MABNDA000334_PR005 0.00000000
    2.61668134    -4.19703150     5.89752436
    2.61668468    -4.19703150     5.89752245
    2.61668372    -4.19703150     5.89752674
20MABNDB000317_PR015 0.00000000
   -2.61134553    -4.19700623     3.83623624
   -2.61134171    -4.19700623     3.83623672
   -2.61134648    -4.19700623     3.83623505
20MABNDB000146_PR016 0.00000000
   -2.61287045    -4.19702291     5.89877462
   -2.61286926    -4.19702291     5.89877033
   -2.61286831    -4.19702291     5.89877367
20MABNDB000135_PR027 0.00000000
    2.60389781    -4.19700384    -3.82557344
    2.60389471    -4.19700384    -3.82557416
    2.60389543    -4.19700384    -3.82557392
20MABNDB000126_PR028 0.00000000
    2.60559916    -4.19702101    -5.89326000
    2.60559821    -4.19702101    -5.89325905
    2.60560036    -4.19702101    -5.89325809
20MABNDA000272_PR038 0.00000000
   -2.61125207    -4.19698286    -3.82772970
   -2.61125684    -4.19698286    -3.82773304
   -2.61125565    -4.19698286    -3.82772160
20MABNDA000003_PR039 0.00000000
   -2.61574674    -4.19702101    -5.89154482
   -2.61574435    -4.19702101    -5.89154053
   -2.61574626    -4.19702101    -5.89154339
20MABNDA000196_PR006 0.00000000
    2.58457613    -4.19496584     6.54783154
    2.58457780    -4.19496584     6.54783058
    2.58457637    -4.19496584     6.54783201
20MABNDA000324_PR007 0.00000000
    2.59379101    -4.13996840     6.94795322
    2.59378600    -4.13996840     6.94794941
    2.59378457    -4.13996840     6.94794703
20MABNDB000001_PR017 0.00000000
   -2.59817600    -4.19506073     6.53815651
   -2.59817886    -4.19506073     6.53815651
   -2.59817386    -4.19506073     6.53815413
20MABNDB000260_PR019 0.00000000
   -2.60467935    -4.13995981     6.94211292
   -2.60468483    -4.13995981     6.94210625
   -2.60469675    -4.13995981     6.94211578
20MABNDB000212_PR029 0.00000000
    2.59897971    -4.19501019    -6.54745340
    2.59897709    -4.19501019    -6.54745340
    2.59897828    -4.19501019    -6.54745436
20MABNDB000128_PR030 0.00000000
    2.60937476    -4.14002657    -6.93137598
    2.60937357    -4.14002657    -6.93137407
    2.60937762    -4.14002657    -6.93137312
20MABNDA000444_PR040 0.00000000
   -2.60538507    -4.19510031    -6.54012775
   -2.60539174    -4.19510031    -6.54012299
   -2.60538316    -4.19510031    -6.54012442
20MABNDA000053_PR041 0.00000000
   -2.59402752    -4.14012671    -6.92681837
   -2.59398484    -4.14012718    -6.92677259
   -2.59397411    -4.14012766    -6.92678070
20MABNDA000188_PR008 0.00000000
    3.55893064     3.84859109     8.10764503
    3.55893064     3.84859109     8.10764503
    3.55893064     3.84859109     8.10764503
20MABNDA000188_PR018 0.00000000
    3.52094960    -4.07059622     7.89762974
    3.52094793    -4.07059622     7.89762688
    3.52094769    -4.07059622     7.89762974
20MABNDA000039_PR009 0.00000000
    3.87530255     3.64747429    12.93687534
    3.87531710     3.64747429    12.93690205
    3.87529445     3.64747429    12.93688869
20MABNDA000039_PR011 0.00000000
    3.66416788    -3.92580175    12.88469791
    3.66416502    -3.92580175    12.88470268
    3.66415763    -3.92580175    12.88469315
20MABNDB000155_PR020 0.00000000
   -3.68025804     3.84882474     7.89722776
   -3.68022680     3.84882498     7.89722300
   -3.68025589     3.84882474     7.89720154
20MABNDB000155_PR022 0.00000000
   -3.53393650    -4.07044220     7.89002466
   -3.53393745    -4.07044220     7.89002371
   -3.53393435    -4.07044220     7.89002609
20MABNDB000010_PR021 0.00000000
   -3.84597993     3.64783263    12.87771797
   -3.84578753     3.64783430    12.87766933
20MABNDB000010_PR023 0.00000000
   -3.68560696    -3.92560887    12.88449478
   -3.68560839    -3.92560887    12.88450527
20MABNDB000069_PR031 0.00000000
    3.68405032     3.84875512    -7.90165281
    3.68400931     3.84875607    -7.90165710
20MABNDB000069_PR033 0.00000000
    3.53345370    -4.07046270    -7.87875557
    3.53345299    -4.07046270    -7.87875366
20MABNDB000131_PR032 0.00000000
    3.86842418     3.64757776   -12.94005108
    3.86845112     3.64757776   -12.94006920
20MABNDB000131_PR034 0.00000000
    3.67301941    -3.92564154   -12.89144325
    3.67301226    -3.92564201   -12.89143658
20MABNDA000208_PR042 0.00000000
   -3.64138603     3.84954572    -7.94031858
   -3.63362837     3.84954667    -7.95398521
20MABNDA000208_PR046 0.00000000
   -3.53209710    -4.07035828    -7.87294436
   -3.53257990    -4.07032824    -7.87449026
20MABNDA000035_PR044 0.00000000
   -3.86941981     3.64757562   -12.93140984
   -3.86936879     3.64757562   -12.93138790
20MABNDA000035_PR045 0.00000000
   -3.67652369    -3.92565274   -12.88681889
   -3.67651796    -3.92565274   -12.88682556


*****************************************************************Rapport********************************************************************************** 
CAM-LBA-US_EBA-US-HO-H         2018.10.15.04.31.25     2.80334028    -3.69995356     6.48624325     0.00433838     0.00392412     0.00001585 0.00000000 VRAI 
CAM-LBA-US_JDA-US-H            2018.10.15.04.31.25     2.83578046    -3.72377833     6.67526293     0.00000214     0.00000699     0.00000000 0.00000000 VRAI 
CAM-LBA-US_CAM-LBC-US          2018.10.15.04.31.25     2.77223667    -3.78914547    -2.68922138     0.00000284     0.00000591     0.00000000 0.00000000 VRAI 
CAM-LBA-US_EBC-US-IP-H         2018.10.15.04.31.25     2.83052055    -3.68698637    -3.11711494     0.00001130     0.00001270     0.00000022 0.00000000 VRAI 
CAM-LBA-USA_EBA-USA-HO-H       2018.10.15.04.31.25    -2.83419085    -3.73581902     6.48627663     0.00000927     0.00000857     0.00000000 0.00000000 VRAI 
CAM-LBA-USA_JDA-USA-H          2018.10.15.04.31.25    -2.84712434    -3.67460299     7.43230168     0.00001568     0.00002301     0.00000022 0.00000000 VRAI 
CAM-LBA-USA_CAM-LBC-USA        2018.10.15.04.31.25    -2.78291845    -3.75935706    -2.71088576     0.00000300     0.00000214     0.00000000 0.00000000 VRAI 
CAM-LBA-USA_EBC-USA-IP-H       2018.10.15.04.31.25    -2.84750183    -3.68976291    -3.11707759     0.00000189     0.00000837     0.00000000 0.00000000 VRAI 
CAM-LBC-US_EBC-US-HO-H         2018.10.15.04.31.25     2.80438622    -3.73348228    -6.47939634     0.00734288     0.00002956     0.00003102 0.00000000 VRAI 
CAM-LBC-US_JDC-US-H            2018.10.15.04.31.25     2.83935674    -3.68757097    -6.67493773     0.00000270     0.00000332     0.00000000 0.00000000 VRAI 
CAM-LBC-US_CAM-LBA-US          2018.10.15.04.31.25     2.81510258    -3.75348377     2.69822621     0.00000442     0.00000507     0.00000000 0.00000000 VRAI 
CAM-LBC-US_EBA-US-IP-H         2018.10.15.04.31.25     2.84048279    -3.68440930     3.12405753     0.00000343     0.00000667     0.00000052 0.00000000 VRAI 
CAM-LBC-USA_EBC-USA-HO-H       2018.10.15.04.31.25    -2.84751463    -3.69289923    -6.47909641     0.00000152     0.00000108     0.00000000 0.00000000 VRAI 
CAM-LBC-USA_JDC-USA-H          2018.10.15.04.31.25    -2.82517211    -3.76953053    -6.67506599     0.00000439     0.00000455     0.00000000 0.00000000 VRAI 
CAM-LBC-USA_CAM-LBA-USA        2018.10.15.04.31.25    -2.81546601    -3.75142805     2.68347335     0.00000292     0.00000377     0.00000000 0.00000000 VRAI 
CAM-LBC-USA_EBA-USA-IP-H       2018.10.15.04.31.25    -2.83892687    -3.68294462     3.12404275     0.00000722     0.00000022     0.00000000 0.00000000 VRAI 
CAM-EBA-US-IP_EBA-US-IP        2018.10.15.04.31.25     2.61445808    -4.19698811     3.83358542     0.00000097     0.00000000     0.00000177 0.00000000 VRAI 
CAM-EBA-US-HO_EBA-US-HO        2018.10.15.04.31.25     2.61668324    -4.19703150     5.89752452     0.00000140     0.00000000     0.00000176 0.00000000 VRAI 
CAM-EBA-USA-IP_EBA-USA-IP      2018.10.15.04.31.25    -2.61134458    -4.19700623     3.83623600     0.00000206     0.00000000     0.00000070 0.00000000 VRAI 
CAM-EBA-USA-HO_EBA-USA-HO      2018.10.15.04.31.25    -2.61286934    -4.19702291     5.89877288     0.00000088     0.00000000     0.00000184 0.00000000 VRAI 
CAM-EBC-US-IP_EBC-US-IP        2018.10.15.04.31.25     2.60389598    -4.19700384    -3.82557384     0.00000133     0.00000000     0.00000030 0.00000000 VRAI 
CAM-EBC-US-HO_EBC-US-HO        2018.10.15.04.31.25     2.60559924    -4.19702101    -5.89325905     0.00000088     0.00000000     0.00000078 0.00000000 VRAI 
CAM-EBC-USA-IP_EBC-USA-IP      2018.10.15.04.31.25    -2.61125485    -4.19698286    -3.82772811     0.00000203     0.00000000     0.00000481 0.00000000 VRAI 
CAM-EBC-USA-HO_EBC-USA-HO      2018.10.15.04.31.25    -2.61574578    -4.19702101    -5.89154291     0.00000103     0.00000000     0.00000178 0.00000000 VRAI 
CAM-JDA-US-IP_JDA-US-IP        2018.10.15.04.31.25     2.58457677    -4.19496584     6.54783138     0.00000074     0.00000000     0.00000059 0.00000000 VRAI 
CAM-JDA-US-HO_JDA-US-HO        2018.10.15.04.31.25     2.59378719    -4.13996840     6.94794989     0.00000276     0.00000000     0.00000255 0.00000000 VRAI 
CAM-JDA-USA-IP_JDA-USA-IP      2018.10.15.04.31.25    -2.59817624    -4.19506073     6.53815571     0.00000205     0.00000000     0.00000112 0.00000000 VRAI 
CAM-JDA-USA-HO_JDA-USA-HO      2018.10.15.04.31.25    -2.60468698    -4.13995981     6.94211165     0.00000727     0.00000000     0.00000400 0.00000000 VRAI 
CAM-JDC-US-IP_JDC-US-IP        2018.10.15.04.31.25     2.59897836    -4.19501019    -6.54745372     0.00000107     0.00000000     0.00000045 0.00000000 VRAI 
CAM-JDC-US-HO_JDC-US-HO        2018.10.15.04.31.25     2.60937532    -4.14002657    -6.93137439     0.00000170     0.00000000     0.00000119 0.00000000 VRAI 
CAM-JDC-USA-IP_JDC-USA-IP      2018.10.15.04.31.25    -2.60538665    -4.19510031    -6.54012505     0.00000368     0.00000000     0.00000200 0.00000000 VRAI 
CAM-JDC-USA-HO_JDC-USA-HO      2018.10.15.04.31.25    -2.59399549    -4.14012718    -6.92679056     0.00002307     0.00000039     0.00001994 0.00000000 VRAI 
CAM-ECTA-US-IP_ECTA-US-IP-T    2018.10.15.04.31.25     3.55893064     3.84859109     8.10764503     0.00000000     0.00000000     0.00000000 0.00000000 VRAI 
CAM-ECTA-US-IP_ECTA-US-IP      2018.10.15.04.31.25     3.52094841    -4.07059622     7.89762878     0.00000085     0.00000000     0.00000135 0.00000000 VRAI 
CAM-ECTA-US-HO_ECTA-US-HO-T    2018.10.15.04.31.25     3.87530470     3.64747429    12.93688869     0.00000937     0.00000000     0.00001090 0.00000000 VRAI 
CAM-ECTA-US-HO_ECTA-US-HO      2018.10.15.04.31.25     3.66416351    -3.92580175    12.88469791     0.00000432     0.00000000     0.00000389 0.00000000 VRAI 
CAM-ECTA-USA-IP_ECTA-USA-IP-T  2018.10.15.04.31.25    -3.68024691     3.84882482     7.89721743     0.00001424     0.00000011     0.00001141 0.00000000 VRAI 
CAM-ECTA-USA-IP_ECTA-USA-IP    2018.10.15.04.31.25    -3.53393610    -4.07044220     7.89002482     0.00000130     0.00000000     0.00000098 0.00000000 VRAI 
CAM-ECTA-USA-HO_ECTA-USA-HO-T  2018.10.15.04.31.25    -3.84588373     3.64783347    12.87769365     0.00009620     0.00000083     0.00002432 0.00000000 VRAI 
CAM-ECTA-USA-HO_ECTA-USA-HO    2018.10.15.04.31.25    -3.68560767    -3.92560887    12.88450003     0.00000072     0.00000000     0.00000525 0.00000000 VRAI 
CAM-ECTC-US-IP_ECTC-US-IP-T    2018.10.15.04.31.25     3.68402982     3.84875560    -7.90165496     0.00002050     0.00000048     0.00000215 0.00000000 VRAI 
CAM-ECTC-US-IP_ECTC-US-IP      2018.10.15.04.31.25     3.53345335    -4.07046270    -7.87875462     0.00000036     0.00000000     0.00000095 0.00000000 VRAI 
CAM-ECTC-US-HO_ECTC-US-HO-T    2018.10.15.04.31.25     3.86843765     3.64757776   -12.94006014     0.00001347     0.00000000     0.00000906 0.00000000 VRAI 
CAM-ECTC-US-HO_ECTC-US-HO      2018.10.15.04.31.25     3.67301583    -3.92564178   -12.89143991     0.00000358     0.00000024     0.00000334 0.00000000 VRAI 
CAM-ECTC-USA-IP_ECTC-USA-IP-T  2018.10.15.04.31.25    -3.63750720     3.84954619    -7.94715190     0.00387883     0.00000048     0.00683331 0.00000000 VRAI 
CAM-ECTC-USA-IP_ECTC-USA-IP    2018.10.15.04.31.25    -3.53233850    -4.07034326    -7.87371731     0.00024140     0.00001502     0.00077295 0.00000000 VRAI 
CAM-ECTC-USA-HO_ECTC-USA-HO-T  2018.10.15.04.31.25    -3.86939430     3.64757562   -12.93139887     0.00002551     0.00000000     0.00001097 0.00000000 VRAI 
CAM-ECTC-USA-HO_ECTC-USA-HO    2018.10.15.04.31.25    -3.67652082    -3.92565274   -12.88682222     0.00000286     0.00000000     0.00000334 0.00000000 VRAI 
