********** Fichier qui contient une sauvegarde des coordonnees images + coordonnees images transformees dans le repere BCAM (MOUNT) + coordonnees des prismes dans le repere MOUNT********** 
********************************************************************** Unite en metres (m)************************************************************************************************** 

*******************************************************************coordonnees images dans le repere CCD *********************************************************************************** 
20MABNDL000077_PR002
Spot 1     0.00121883     0.00150234
Spot 2     0.00086500     0.00006500
Spot 1     0.00121421     0.00150297
Spot 2     0.00052500     0.00043500
Spot 1     0.00121479     0.00150242
Spot 2     0.00052500     0.00043500
20MABNDL000077_PR003
Spot 1     0.00138758     0.00148704
Spot 2     0.00153725     0.00148890
Spot 1     0.00138757     0.00148703
Spot 2     0.00153709     0.00148859
Spot 1     0.00138767     0.00148686
Spot 2     0.00153737     0.00148856
20MABNDL000077_20MABNDM000168
Spot 1     0.00175708     0.00118461
Spot 2     0.00075500     0.00010500
Spot 1     0.00175697     0.00118474
Spot 2     0.00075500     0.00010500
Spot 1     0.00175705     0.00118454
Spot 2     0.00075500     0.00010500
20MABNDL000077_PR024
Spot 1     0.00254640     0.00144802
Spot 2     0.00264570     0.00145515
Spot 1     0.00254694     0.00144784
Spot 2     0.00264552     0.00145528
Spot 1     0.00254635     0.00144780
Spot 2     0.00264610     0.00145527
20MABNDM000020_PR013
Spot 1     0.00162602     0.00152841
Spot 2     0.00147315     0.00153346
Spot 1     0.00162708     0.00152783
Spot 2     0.00147303     0.00153372
Spot 1     0.00162702     0.00152773
Spot 2     0.00147268     0.00153374
20MABNDM000020_PR014
Spot 1     0.00265876     0.00168949
Spot 2     0.00249640     0.00169393
Spot 1     0.00265905     0.00168984
Spot 2     0.00249783     0.00169422
Spot 1     0.00265908     0.00168963
Spot 2     0.00249761     0.00169414
20MABNDM000020_20MABNDL000196
Spot 1     0.00197652     0.00117829
Spot 2     0.00134500     0.00194500
Spot 1     0.00197658     0.00117829
Spot 2     0.00230500     0.00010500
Spot 1     0.00197655     0.00117806
Spot 2     0.00230500     0.00010500
20MABNDM000020_PR035
Spot 1     0.00126848     0.00149653
Spot 2     0.00118670     0.00153125
Spot 1     0.00126842     0.00149673
Spot 2     0.00118656     0.00153130
Spot 1     0.00126884     0.00149646
Spot 2     0.00118665     0.00153130
20MABNDM000168_PR025
Spot 1     0.00148500     0.00050500
Spot 2     0.00148500     0.00050500
Spot 1     0.00116500     0.00032500
Spot 2     0.00116500     0.00032500
Spot 1     0.00074500     0.00044500
Spot 2     0.00148500     0.00050500
20MABNDM000168_PR026
Spot 1     0.00266676     0.00143018
Spot 2     0.00250529     0.00142653
Spot 1     0.00266667     0.00143033
Spot 2     0.00250529     0.00142645
Spot 1     0.00266674     0.00143022
Spot 2     0.00250512     0.00142631
20MABNDM000168_20MABNDL000077
Spot 1     0.00154176     0.00130026
Spot 2     0.00175829     0.00130604
Spot 1     0.00154152     0.00130055
Spot 2     0.00175806     0.00130579
Spot 1     0.00154143     0.00130053
Spot 2     0.00175789     0.00130496
20MABNDM000168_PR001
Spot 1     0.00080848     0.00161862
Spot 2     0.00070624     0.00162060
Spot 1     0.00080822     0.00161867
Spot 2     0.00070632     0.00162071
Spot 1     0.00080826     0.00161879
Spot 2     0.00070617     0.00162072
20MABNDL000196_PR036
Spot 1     0.00094596     0.00163631
Spot 2     0.00111042     0.00163585
Spot 1     0.00094600     0.00163652
Spot 2     0.00111041     0.00163587
Spot 1     0.00094597     0.00163644
Spot 2     0.00111051     0.00163579
20MABNDL000196_PR037
Spot 1     0.00246742     0.00117126
Spot 2     0.00262248     0.00117004
Spot 1     0.00246760     0.00117165
Spot 2     0.00262221     0.00117009
Spot 1     0.00246760     0.00117173
Spot 2     0.00262230     0.00117001
20MABNDL000196_20MABNDM000020
Spot 1     0.00192581     0.00104125
Spot 2     0.00170446     0.00104673
Spot 1     0.00192584     0.00104189
Spot 2     0.00170431     0.00104713
Spot 1     0.00192566     0.00104177
Spot 2     0.00170448     0.00104697
20MABNDL000196_PR012
Spot 1     0.00265194     0.00134243
Spot 2     0.00272269     0.00138764
Spot 1     0.00265183     0.00134246
Spot 2     0.00272275     0.00138804
Spot 1     0.00265153     0.00134263
Spot 2     0.00272251     0.00138770
20MABNDA000318_PR004
Spot 1     0.00192510     0.00162746
Spot 2     0.00214293     0.00162715
Spot 1     0.00192521     0.00162733
Spot 2     0.00214309     0.00162691
Spot 1     0.00192503     0.00162739
Spot 2     0.00214335     0.00162681
20MABNDA000334_PR005
Spot 1     0.00247211     0.00158800
Spot 2     0.00219148     0.00158836
Spot 1     0.00247215     0.00158775
Spot 2     0.00219167     0.00158825
Spot 1     0.00247211     0.00158789
Spot 2     0.00219167     0.00158858
20MABNDB000317_PR015
Spot 1     0.00148497     0.00159435
Spot 2     0.00170413     0.00158792
Spot 1     0.00148500     0.00159427
Spot 2     0.00170429     0.00158794
Spot 1     0.00170433     0.00158783
Spot 2     0.00148500     0.00159433
20MABNDB000146_PR016
Spot 1     0.00144358     0.00132451
Spot 2     0.00172007     0.00132676
Spot 1     0.00144346     0.00132432
Spot 2     0.00172003     0.00132712
Spot 1     0.00144354     0.00132450
Spot 2     0.00171990     0.00132685
20MABNDB000135_PR027
Spot 1     0.00189008     0.00091444
Spot 2     0.00210849     0.00091612
Spot 1     0.00189014     0.00091449
Spot 2     0.00210851     0.00091605
Spot 1     0.00189021     0.00091434
Spot 2     0.00210851     0.00091609
20MABNDB000126_PR028
Spot 1     0.00164358     0.00200908
Spot 2     0.00192600     0.00201076
Spot 1     0.00164367     0.00200906
Spot 2     0.00192596     0.00201070
Spot 1     0.00164349     0.00200909
Spot 2     0.00192586     0.00201073
20MABNDA000272_PR038
Spot 1     0.00192145     0.00095040
Spot 2     0.00170047     0.00094962
Spot 1     0.00192151     0.00095017
Spot 2     0.00170033     0.00094977
Spot 1     0.00192165     0.00094974
Spot 2     0.00170050     0.00094986
20MABNDA000003_PR039
Spot 1     0.00199924     0.00192547
Spot 2     0.00227788     0.00192689
Spot 1     0.00199904     0.00192541
Spot 2     0.00227782     0.00192682
Spot 1     0.00199901     0.00192541
Spot 2     0.00227768     0.00192714
20MABNDA000196_PR006
Spot 1     0.00199911     0.00072677
Spot 2     0.00163264     0.00072458
Spot 1     0.00199914     0.00072694
Spot 2     0.00163245     0.00072452
Spot 1     0.00199910     0.00072665
Spot 2     0.00163279     0.00072438
20MABNDA000324_PR007
Spot 1     0.00173541     0.00122047
Spot 2     0.00194123     0.00121458
Spot 1     0.00173535     0.00122052
Spot 2     0.00194114     0.00121465
Spot 1     0.00173542     0.00122054
Spot 2     0.00194136     0.00121488
20MABNDB000001_PR017
Spot 1     0.00190268     0.00043912
Spot 2     0.00227146     0.00044762
Spot 1     0.00190266     0.00043909
Spot 2     0.00227103     0.00044738
Spot 1     0.00190276     0.00043912
Spot 2     0.00227115     0.00044792
20MABNDB000260_PR019
Spot 1     0.00191434     0.00150593
Spot 2     0.00211862     0.00150690
Spot 1     0.00191381     0.00150597
Spot 2     0.00211821     0.00150661
Spot 1     0.00191416     0.00150606
Spot 2     0.00211897     0.00150672
20MABNDB000212_PR029
Spot 1     0.00222817     0.00070106
Spot 2     0.00186841     0.00070159
Spot 1     0.00222848     0.00070099
Spot 2     0.00186849     0.00070128
Spot 1     0.00222859     0.00070102
Spot 2     0.00186841     0.00070182
20MABNDB000128_PR030
Spot 1     0.00190482     0.00199947
Spot 2     0.00211054     0.00199426
Spot 1     0.00190455     0.00199952
Spot 2     0.00211065     0.00199450
Spot 1     0.00190500     0.00199935
Spot 2     0.00211062     0.00199485
20MABNDA000444_PR040
Spot 1     0.00074547     0.00035477
Spot 2     0.00111290     0.00035177
Spot 1     0.00074531     0.00035477
Spot 2     0.00111266     0.00035172
Spot 1     0.00074563     0.00035460
Spot 2     0.00111313     0.00035188
20MABNDA000053_PR041
Spot 1     0.00166053     0.00199021
Spot 2     0.00144568     0.00199053
Spot 1     0.00165962     0.00199044
Spot 2     0.00144479     0.00199076
Spot 1     0.00165973     0.00199056
Spot 2     0.00144486     0.00199123
20MABNDA000188_PR008
Spot 1     0.00289500     0.00025500
Spot 2     0.00289500     0.00025500
Spot 1     0.00289500     0.00025500
Spot 2     0.00289500     0.00025500
Spot 1     0.00289500     0.00025500
Spot 2     0.00289500     0.00025500
20MABNDA000188_PR018
Spot 1     0.00169741     0.00173776
Spot 2     0.00123023     0.00173414
Spot 1     0.00169734     0.00173792
Spot 2     0.00123014     0.00173414
Spot 1     0.00169737     0.00173784
Spot 2     0.00122994     0.00173401
20MABNDA000039_PR009
Spot 1     0.00066358     0.00117984
Spot 2     0.00061616     0.00118430
Spot 1     0.00066374     0.00117974
Spot 2     0.00061664     0.00118403
Spot 1     0.00066337     0.00117996
Spot 2     0.00061628     0.00118416
20MABNDA000039_PR011
Spot 1     0.00276985     0.00029177
Spot 2     0.00259425     0.00028681
Spot 1     0.00276981     0.00029196
Spot 2     0.00259412     0.00028681
Spot 1     0.00276985     0.00029193
Spot 2     0.00259418     0.00028686
20MABNDB000155_PR020
Spot 1     0.00062308     0.00113669
Spot 2     0.00068876     0.00113186
Spot 1     0.00062410     0.00113629
Spot 2     0.00068935     0.00113127
Spot 1     0.00062360     0.00113631
Spot 2     0.00068936     0.00113179
20MABNDB000155_PR022
Spot 1     0.00213801     0.00142760
Spot 2     0.00261048     0.00142284
Spot 1     0.00213797     0.00142745
Spot 2     0.00261053     0.00142303
Spot 1     0.00213791     0.00142757
Spot 2     0.00261051     0.00142290
20MABNDB000010_PR021
Spot 1     0.00287287     0.00114931
Spot 2     0.00268625     0.00037625
Spot 1     0.00287245     0.00114960
Spot 2     0.00324167     0.00006500
20MABNDB000010_PR023
Spot 1     0.00131731     0.00030254
Spot 2     0.00149246     0.00030059
Spot 1     0.00131736     0.00030249
Spot 2     0.00149252     0.00030043
20MABNDB000069_PR031
Spot 1     0.00028285     0.00140682
Spot 2     0.00035550     0.00140550
Spot 1     0.00028350     0.00140664
Spot 2     0.00035462     0.00140576
20MABNDB000069_PR033
Spot 1     0.00182597     0.00206657
Spot 2     0.00229631     0.00208694
Spot 1     0.00182585     0.00206653
Spot 2     0.00229633     0.00208697
20MABNDB000131_PR032
Spot 1     0.00277438     0.00107558
Spot 2     0.00283476     0.00107857
Spot 1     0.00277459     0.00107564
Spot 2     0.00283434     0.00107880
20MABNDB000131_PR034
Spot 1     0.00091423     0.00032456
Spot 2     0.00109048     0.00032430
Spot 1     0.00091412     0.00032460
Spot 2     0.00109045     0.00032455
20MABNDA000208_PR042
Spot 1     0.00263561     0.00045167
Spot 2     0.00296500     0.00045500
Spot 1     0.00263500     0.00045033
Spot 2     0.00328500     0.00065500
20MABNDA000208_PR046
Spot 1     0.00145920     0.00222338
Spot 2     0.00096900     0.00203150
Spot 1     0.00145880     0.00222282
Spot 2     0.00102364     0.00207455
20MABNDA000035_PR044
Spot 1     0.00073711     0.00125056
Spot 2     0.00067926     0.00124448
Spot 1     0.00073752     0.00125039
Spot 2     0.00067920     0.00124459
20MABNDA000035_PR045
Spot 1     0.00253667     0.00045897
Spot 2     0.00235957     0.00045787
Spot 1     0.00253683     0.00045901
Spot 2     0.00235950     0.00045782


****************************************************************coordonnees images transformees dans le repere MOUNT************************************************************************* 
20MABNDL000077_PR002
Spot 1     0.01228916     0.03557373    -0.07463200
Spot 2     0.01192151     0.03413986    -0.07463200
Spot 1     0.01228454     0.03557440    -0.07463200
Spot 2     0.01158509     0.03451311    -0.07463200
Spot 1     0.01228512     0.03557385    -0.07463200
Spot 2     0.01158509     0.03451311    -0.07463200
20MABNDL000077_PR003
Spot 1     0.01245775     0.03555681    -0.07463200
Spot 2     0.01260743     0.03555723    -0.07463200
Spot 1     0.01245774     0.03555680    -0.07463200
Spot 2     0.01260727     0.03555692    -0.07463200
Spot 1     0.01245784     0.03555662    -0.07463200
Spot 2     0.01260755     0.03555688    -0.07463200
20MABNDL000077_20MABNDM000168
Spot 1    -0.01259223     0.03524760    -0.00695400
Spot 2    -0.01157915     0.03417830    -0.00695400
Spot 1    -0.01259212     0.03524773    -0.00695400
Spot 2    -0.01157915     0.03417830    -0.00695400
Spot 1    -0.01259220     0.03524753    -0.00695400
Spot 2    -0.01157915     0.03417830    -0.00695400
20MABNDL000077_PR024
Spot 1    -0.01338420     0.03550291    -0.00695400
Spot 2    -0.01348357     0.03550903    -0.00695400
Spot 1    -0.01338474     0.03550273    -0.00695400
Spot 2    -0.01348339     0.03550916    -0.00695400
Spot 1    -0.01338415     0.03550269    -0.00695400
Spot 2    -0.01348397     0.03550914    -0.00695400
20MABNDM000020_PR013
Spot 1    -0.01273289    -0.03548712    -0.00523500
Spot 2    -0.01288561    -0.03549555    -0.00523500
Spot 1    -0.01273184    -0.03548651    -0.00523500
Spot 2    -0.01288572    -0.03549581    -0.00523500
Spot 1    -0.01273190    -0.03548641    -0.00523500
Spot 2    -0.01288607    -0.03549584    -0.00523500
20MABNDM000020_PR014
Spot 1    -0.01169684    -0.03562532    -0.00523500
Spot 2    -0.01185906    -0.03563335    -0.00523500
Spot 1    -0.01169654    -0.03562566    -0.00523500
Spot 2    -0.01185763    -0.03563361    -0.00523500
Spot 1    -0.01169652    -0.03562545    -0.00523500
Spot 2    -0.01185785    -0.03563353    -0.00523500
20MABNDM000020_20MABNDL000196
Spot 1     0.01270976    -0.03514685    -0.07583800
Spot 2     0.01334138    -0.03591348    -0.07583800
Spot 1     0.01270970    -0.03514685    -0.07583800
Spot 2     0.01238113    -0.03407361    -0.07583800
Spot 1     0.01270973    -0.03514662    -0.07583800
Spot 2     0.01238113    -0.03407361    -0.07583800
20MABNDM000020_PR035
Spot 1     0.01341784    -0.03546500    -0.07583800
Spot 2     0.01349963    -0.03549970    -0.07583800
Spot 1     0.01341790    -0.03546520    -0.07583800
Spot 2     0.01349977    -0.03549975    -0.07583800
Spot 1     0.01341748    -0.03546493    -0.07583800
Spot 2     0.01349968    -0.03549975    -0.07583800
20MABNDM000168_PR025
Spot 1    -0.01292129    -0.03484087    -0.00532900
Spot 2    -0.01292129    -0.03484087    -0.00532900
Spot 1    -0.01324206    -0.03466224    -0.00532900
Spot 2    -0.01324206    -0.03466224    -0.00532900
Spot 1    -0.01366154    -0.03478405    -0.00532900
Spot 2    -0.01292129    -0.03484087    -0.00532900
20MABNDM000168_PR026
Spot 1    -0.01173557    -0.03576096    -0.00532900
Spot 2    -0.01189706    -0.03575801    -0.00532900
Spot 1    -0.01173566    -0.03576111    -0.00532900
Spot 2    -0.01189706    -0.03575793    -0.00532900
Spot 1    -0.01173559    -0.03576100    -0.00532900
Spot 2    -0.01189723    -0.03575779    -0.00532900
20MABNDM000168_20MABNDL000077
Spot 1     0.01288370    -0.03530089    -0.07445100
Spot 2     0.01266711    -0.03530350    -0.07445100
Spot 1     0.01288393    -0.03530118    -0.07445100
Spot 2     0.01266734    -0.03530325    -0.07445100
Spot 1     0.01288402    -0.03530116    -0.07445100
Spot 2     0.01266752    -0.03530243    -0.07445100
20MABNDM000168_PR001
Spot 1     0.01361224    -0.03562994    -0.07445100
Spot 2     0.01371444    -0.03563342    -0.07445100
Spot 1     0.01361250    -0.03563000    -0.07445100
Spot 2     0.01371436    -0.03563353    -0.07445100
Spot 1     0.01361246    -0.03563012    -0.07445100
Spot 2     0.01371451    -0.03563354    -0.07445100
20MABNDL000196_PR036
Spot 1     0.01192589     0.03582501    -0.07483600
Spot 2     0.01209035     0.03582489    -0.07483600
Spot 1     0.01192593     0.03582522    -0.07483600
Spot 2     0.01209034     0.03582491    -0.07483600
Spot 1     0.01192590     0.03582514    -0.07483600
Spot 2     0.01209044     0.03582483    -0.07483600
20MABNDL000196_PR037
Spot 1     0.01344832     0.03536313    -0.07483600
Spot 2     0.01360338     0.03536224    -0.07483600
Spot 1     0.01344850     0.03536352    -0.07483600
Spot 2     0.01360311     0.03536228    -0.07483600
Spot 1     0.01344850     0.03536360    -0.07483600
Spot 2     0.01360320     0.03536220    -0.07483600
20MABNDL000196_20MABNDM000020
Spot 1    -0.01274985     0.03531245    -0.00611000
Spot 2    -0.01252866     0.03532239    -0.00611000
Spot 1    -0.01274990     0.03531309    -0.00611000
Spot 2    -0.01252852     0.03532279    -0.00611000
Spot 1    -0.01274972     0.03531298    -0.00611000
Spot 2    -0.01252868     0.03532263    -0.00611000
20MABNDL000196_PR012
Spot 1    -0.01348190     0.03559896    -0.00611000
Spot 2    -0.01355354     0.03564274    -0.00611000
Spot 1    -0.01348179     0.03559900    -0.00611000
Spot 2    -0.01355361     0.03564314    -0.00611000
Spot 1    -0.01348149     0.03559917    -0.00611000
Spot 2    -0.01355336     0.03564280    -0.00611000
20MABNDA000318_PR004
Spot 1    -0.01264492     0.01246842    -0.07310600
Spot 2    -0.01286275     0.01246809    -0.07310600
Spot 1    -0.01264503     0.01246855    -0.07310600
Spot 2    -0.01286291     0.01246833    -0.07310600
Spot 1    -0.01264485     0.01246849    -0.07310600
Spot 2    -0.01286317     0.01246843    -0.07310600
20MABNDA000334_PR005
Spot 1    -0.01311522     0.01254039    -0.07324100
Spot 2    -0.01283459     0.01253977    -0.07324100
Spot 1    -0.01311526     0.01254064    -0.07324100
Spot 2    -0.01283478     0.01253988    -0.07324100
Spot 1    -0.01311522     0.01254050    -0.07324100
Spot 2    -0.01283478     0.01253955    -0.07324100
20MABNDB000317_PR015
Spot 1    -0.01266925    -0.01250373    -0.07326100
Spot 2    -0.01245003    -0.01250760    -0.07326100
Spot 1    -0.01266922    -0.01250381    -0.07326100
Spot 2    -0.01244987    -0.01250758    -0.07326100
Spot 1    -0.01244983    -0.01250769    -0.07326100
Spot 2    -0.01266922    -0.01250375    -0.07326100
20MABNDB000146_PR016
Spot 1    -0.01276476    -0.01246910    -0.07450500
Spot 2    -0.01248828    -0.01246624    -0.07450500
Spot 1    -0.01276488    -0.01246929    -0.07450500
Spot 2    -0.01248832    -0.01246588    -0.07450500
Spot 1    -0.01276480    -0.01246911    -0.07450500
Spot 2    -0.01248845    -0.01246615    -0.07450500
20MABNDB000135_PR027
Spot 1    -0.01251461    -0.01319857    -0.07464700
Spot 2    -0.01229619    -0.01319932    -0.07464700
Spot 1    -0.01251455    -0.01319852    -0.07464700
Spot 2    -0.01229617    -0.01319939    -0.07464700
Spot 1    -0.01251448    -0.01319867    -0.07464700
Spot 2    -0.01229617    -0.01319935    -0.07464700
20MABNDB000126_PR028
Spot 1    -0.01253595    -0.01217310    -0.07500400
Spot 2    -0.01225355    -0.01216991    -0.07500400
Spot 1    -0.01253586    -0.01217312    -0.07500400
Spot 2    -0.01225359    -0.01216997    -0.07500400
Spot 1    -0.01253604    -0.01217309    -0.07500400
Spot 2    -0.01225369    -0.01216994    -0.07500400
20MABNDA000272_PR038
Spot 1    -0.01275710     0.01316106    -0.07417900
Spot 2    -0.01253612     0.01316145    -0.07417900
Spot 1    -0.01275716     0.01316129    -0.07417900
Spot 2    -0.01253598     0.01316130    -0.07417900
Spot 1    -0.01275730     0.01316173    -0.07417900
Spot 2    -0.01253615     0.01316121    -0.07417900
20MABNDA000003_PR039
Spot 1    -0.01280032     0.01212679    -0.07373400
Spot 2    -0.01307897     0.01212608    -0.07373400
Spot 1    -0.01280012     0.01212685    -0.07373400
Spot 2    -0.01307891     0.01212615    -0.07373400
Spot 1    -0.01280009     0.01212685    -0.07373400
Spot 2    -0.01307877     0.01212583    -0.07373400
20MABNDA000196_PR006
Spot 1    -0.01295378     0.01325162    -0.07967100
Spot 2    -0.01258732     0.01324910    -0.07967100
Spot 1    -0.01295382     0.01325145    -0.07967100
Spot 2    -0.01258712     0.01324916    -0.07967100
Spot 1    -0.01295377     0.01325174    -0.07967100
Spot 2    -0.01258746     0.01324930    -0.07967100
20MABNDA000324_PR007
Spot 1    -0.01234106     0.01280276    -0.07446800
Spot 2    -0.01254692     0.01280705    -0.07446800
Spot 1    -0.01234100     0.01280271    -0.07446800
Spot 2    -0.01254683     0.01280698    -0.07446800
Spot 1    -0.01234107     0.01280269    -0.07446800
Spot 2    -0.01254705     0.01280674    -0.07446800
20MABNDB000001_PR017
Spot 1    -0.01228568    -0.01355057    -0.07418400
Spot 2    -0.01191683    -0.01354597    -0.07418400
Spot 1    -0.01228570    -0.01355060    -0.07418400
Spot 2    -0.01191726    -0.01354621    -0.07418400
Spot 1    -0.01228560    -0.01355057    -0.07418400
Spot 2    -0.01191714    -0.01354567    -0.07418400
20MABNDB000260_PR019
Spot 1    -0.01241706    -0.01239678    -0.07492700
Spot 2    -0.01221285    -0.01239162    -0.07492700
Spot 1    -0.01241759    -0.01239675    -0.07492700
Spot 2    -0.01221325    -0.01239192    -0.07492700
Spot 1    -0.01241725    -0.01239666    -0.07492700
Spot 2    -0.01221249    -0.01239180    -0.07492700
20MABNDB000212_PR029
Spot 1    -0.01185967    -0.01328015    -0.07390500
Spot 2    -0.01221941    -0.01327578    -0.07390500
Spot 1    -0.01185936    -0.01328022    -0.07390500
Spot 2    -0.01221933    -0.01327609    -0.07390500
Spot 1    -0.01185925    -0.01328019    -0.07390500
Spot 2    -0.01221941    -0.01327555    -0.07390500
20MABNDB000128_PR030
Spot 1    -0.01245030    -0.01221783    -0.07353400
Spot 2    -0.01224456    -0.01222233    -0.07353400
Spot 1    -0.01245057    -0.01221778    -0.07353400
Spot 2    -0.01224445    -0.01222209    -0.07353400
Spot 1    -0.01245012    -0.01221795    -0.07353400
Spot 2    -0.01224448    -0.01222174    -0.07353400
20MABNDA000444_PR040
Spot 1    -0.01168529     0.01367504    -0.07412000
Spot 2    -0.01205273     0.01367338    -0.07412000
Spot 1    -0.01168513     0.01367504    -0.07412000
Spot 2    -0.01205249     0.01367343    -0.07412000
Spot 1    -0.01168545     0.01367521    -0.07412000
Spot 2    -0.01205295     0.01367326    -0.07412000
20MABNDA000053_PR041
Spot 1    -0.01241718     0.01212040    -0.07430100
Spot 2    -0.01220238     0.01211588    -0.07430100
Spot 1    -0.01241628     0.01212015    -0.07430100
Spot 2    -0.01220150     0.01211563    -0.07430100
Spot 1    -0.01241639     0.01212003    -0.07430100
Spot 2    -0.01220157     0.01211517    -0.07430100
20MABNDA000188_PR008
Spot 1    -0.01391227     0.01380893    -0.07502000
Spot 2    -0.01391227     0.01380893    -0.07502000
Spot 1    -0.01391227     0.01380893    -0.07502000
Spot 2    -0.01391227     0.01380893    -0.07502000
Spot 1    -0.01391227     0.01380893    -0.07502000
Spot 2    -0.01391227     0.01380893    -0.07502000
20MABNDA000188_PR018
Spot 1    -0.01272742     0.01231597    -0.07502000
Spot 2    -0.01226023     0.01231559    -0.07502000
Spot 1    -0.01272735     0.01231581    -0.07502000
Spot 2    -0.01226014     0.01231559    -0.07502000
Spot 1    -0.01272738     0.01231589    -0.07502000
Spot 2    -0.01225994     0.01231572    -0.07502000
20MABNDA000039_PR009
Spot 1    -0.01162573     0.01306429    -0.07444800
Spot 2    -0.01157833     0.01305963    -0.07444800
Spot 1    -0.01162589     0.01306439    -0.07444800
Spot 2    -0.01157881     0.01305990    -0.07444800
Spot 1    -0.01162552     0.01306417    -0.07444800
Spot 2    -0.01157845     0.01305977    -0.07444800
20MABNDA000039_PR011
Spot 1    -0.01372814     0.01396147    -0.07444800
Spot 2    -0.01355252     0.01396567    -0.07444800
Spot 1    -0.01372810     0.01396128    -0.07444800
Spot 2    -0.01355239     0.01396567    -0.07444800
Spot 1    -0.01372814     0.01396131    -0.07444800
Spot 2    -0.01355245     0.01396562    -0.07444800
20MABNDB000155_PR020
Spot 1    -0.01364317    -0.01312064    -0.07501700
Spot 2    -0.01357743    -0.01312457    -0.07501700
Spot 1    -0.01364215    -0.01312102    -0.07501700
Spot 2    -0.01357684    -0.01312515    -0.07501700
Spot 1    -0.01364265    -0.01312101    -0.07501700
Spot 2    -0.01357683    -0.01312463    -0.07501700
20MABNDB000155_PR022
Spot 1    -0.01213237    -0.01280901    -0.07501700
Spot 2    -0.01165988    -0.01280731    -0.07501700
Spot 1    -0.01213241    -0.01280917    -0.07501700
Spot 2    -0.01165983    -0.01280712    -0.07501700
Spot 1    -0.01213247    -0.01280905    -0.07501700
Spot 2    -0.01165985    -0.01280725    -0.07501700
20MABNDB000010_PR021
Spot 1    -0.01157807    -0.01292913    -0.07358200
Spot 2    -0.01175157    -0.01370524    -0.07358200
Spot 1    -0.01157850    -0.01292885    -0.07358200
Spot 2    -0.01119096    -0.01400704    -0.07358200
20MABNDB000010_PR023
Spot 1    -0.01311907    -0.01380213    -0.07358200
Spot 2    -0.01294391    -0.01380111    -0.07358200
Spot 1    -0.01311902    -0.01380218    -0.07358200
Spot 2    -0.01294385    -0.01380127    -0.07358200
20MABNDB000069_PR031
Spot 1    -0.01359333    -0.01286079    -0.07388500
Spot 2    -0.01352079    -0.01286511    -0.07388500
Spot 1    -0.01359269    -0.01286100    -0.07388500
Spot 2    -0.01352166    -0.01286481    -0.07388500
20MABNDB000069_PR033
Spot 1    -0.01202430    -0.01226529    -0.07388500
Spot 2    -0.01155352    -0.01226434    -0.07388500
Spot 1    -0.01202442    -0.01226532    -0.07388500
Spot 2    -0.01155349    -0.01226431    -0.07388500
20MABNDB000131_PR032
Spot 1    -0.01144576    -0.01303919    -0.07533000
Spot 2    -0.01138540    -0.01303589    -0.07533000
Spot 1    -0.01144555    -0.01303913    -0.07533000
Spot 2    -0.01138582    -0.01303566    -0.07533000
20MABNDB000131_PR034
Spot 1    -0.01330210    -0.01379956    -0.07533000
Spot 2    -0.01312586    -0.01379894    -0.07533000
Spot 1    -0.01330221    -0.01379952    -0.07533000
Spot 2    -0.01312589    -0.01379869    -0.07533000
20MABNDA000208_PR042
Spot 1    -0.01350677     0.01354472    -0.07273700
Spot 2    -0.01383616     0.01354110    -0.07273700
Spot 1    -0.01350616     0.01354606    -0.07273700
Spot 2    -0.01415598     0.01334082    -0.07273700
20MABNDA000208_PR046
Spot 1    -0.01232881     0.01177404    -0.07273700
Spot 2    -0.01183877     0.01196635    -0.07273700
Spot 1    -0.01232841     0.01177460    -0.07273700
Spot 2    -0.01189338     0.01192325    -0.07273700
20MABNDA000035_PR044
Spot 1    -0.01157171     0.01300668    -0.07483200
Spot 2    -0.01151382     0.01301235    -0.07483200
Spot 1    -0.01157212     0.01300685    -0.07483200
Spot 2    -0.01151376     0.01301224    -0.07483200
20MABNDA000035_PR045
Spot 1    -0.01336560     0.01381105    -0.07483200
Spot 2    -0.01318849     0.01381089    -0.07483200
Spot 1    -0.01336576     0.01381101    -0.07483200
Spot 2    -0.01318842     0.01381094    -0.07483200


*****************************************************************coordonnees du prisme dans le repere MOUNT********************************************************************************** 
20MABNDL000077_PR002
    0.04167847     0.05674250     3.70695019
    0.05010193     0.04750613     3.70691466
    0.05008774     0.04751986     3.70691466
20MABNDL000077_PR003
    0.02097291     0.02144268     3.89601803
    0.02097740     0.02145095     3.89601803
    0.02096759     0.02145623     3.89601803
20MABNDL000077_20MABNDM000168
   -0.05597943     0.07577854    -5.46843624
   -0.05598335     0.07577381    -5.46843624
   -0.05598054     0.07578106    -5.46843624
20MABNDL000077_PR024
    0.04569578     0.01710567    -5.89639807
    0.04570979     0.01710776    -5.89639807
    0.04570938     0.01710970    -5.89639807
20MABNDM000020_PR013
   -0.00363093    -0.01808867    -3.80243373
   -0.00365407    -0.01809712    -3.80243397
   -0.00364386    -0.01809889    -3.80243397
20MABNDM000020_PR014
   -0.06552036    -0.00496802    -4.74841022
   -0.06557429    -0.00494929    -4.74840975
   -0.06556818    -0.00495819    -4.74840975
20MABNDM000020_20MABNDL000196
   -0.00756884    -0.00531835     5.39470577
    0.02683698    -0.07123663     5.39469719
    0.02683591    -0.07124487     5.39469719
20MABNDM000020_PR035
   -0.04247486    -0.00669756     5.80095387
   -0.04248255    -0.00668793     5.80095387
   -0.04246292    -0.00669833     5.80095387
20MABNDM000168_PR025
   -0.00091071    -0.06043248    -3.78869867
    0.01495045    -0.06926418    -3.78854561
    0.01739160    -0.06183663    -3.78858590
20MABNDM000168_PR026
   -0.05781314    -0.01389652    -3.98429012
   -0.05781080    -0.01389469    -3.98429012
   -0.05780818    -0.01390118    -3.98429084
20MABNDM000168_20MABNDL000077
    0.01158121    -0.03870939     5.38884687
    0.01156434    -0.03870771     5.38884687
    0.01155456    -0.03873811     5.38884687
20MABNDM000168_PR001
   -0.05735078    -0.01337450     5.81470585
   -0.05735766    -0.01336820     5.81470490
   -0.05736185    -0.01336310     5.81470490
20MABNDL000196_PR036
    0.05137142     0.00610112     3.68777275
    0.05137069     0.00609547     3.68777275
    0.05136897     0.00609939     3.68777275
20MABNDL000196_PR037
   -0.02505853     0.02841775     3.88381386
   -0.02505618     0.02840638     3.88381386
   -0.02505850     0.02840638     3.88381338
20MABNDL000196_20MABNDM000020
   -0.01570575     0.03790157    -5.47473907
   -0.01570931     0.03786412    -5.47473907
   -0.01570987     0.03787418    -5.47473907
20MABNDL000196_PR012
    0.05232945     0.01446686    -5.91537189
    0.05232784     0.01445012    -5.91537189
    0.05230673     0.01445630    -5.91537189
20MABNDA000318_PR004
   -0.00856282     0.03843866     2.74965858
   -0.00855784     0.03843189     2.74965906
   -0.00855637     0.03843116     2.74965906
20MABNDA000334_PR005
   -0.00430461     0.03174675     2.14977145
   -0.00430133     0.03174161     2.14977145
   -0.00430189     0.03174832     2.14977145
20MABNDB000317_PR015
   -0.01726545    -0.03378684     2.75129199
   -0.01726893    -0.03378579     2.75129199
   -0.01726964    -0.03378489     2.75129199
20MABNDB000146_PR016
   -0.01342119    -0.03156232     2.15201473
   -0.01341888    -0.03156476     2.15201473
   -0.01341817    -0.03156346     2.15201473
20MABNDB000135_PR027
   -0.02097284    -0.00979404     2.74937153
   -0.02097431    -0.00979366     2.74937153
   -0.02097557    -0.00979163     2.74937153
20MABNDB000126_PR028
   -0.02030760    -0.03896069     2.14679527
   -0.02030832    -0.03895955     2.14679527
   -0.02030432    -0.03896038     2.14679527
20MABNDA000272_PR038
   -0.01328029     0.01077250     2.74965858
   -0.01328176     0.01077104     2.74965858
   -0.01327609     0.01076480     2.74965858
20MABNDA000003_PR039
   -0.00597105     0.04122801     2.14891577
   -0.00597477     0.04122616     2.14891577
   -0.00597719     0.04123074     2.14891577
20MABNDA000196_PR006
   -0.01012274     0.00987622     1.64206338
   -0.01012447     0.00987744     1.64206338
   -0.01012125     0.00987270     1.64206314
20MABNDA000324_PR007
   -0.02552100     0.02794987     2.95549011
   -0.02552398     0.02795221     2.95549011
   -0.02551831     0.02795717     2.95549011
20MABNDB000001_PR017
   -0.02448753    -0.00283725     1.64035726
   -0.02448258    -0.00283436     1.64035726
   -0.02448505    -0.00284056     1.64035726
20MABNDB000260_PR019
   -0.02405285    -0.03849404     2.95627499
   -0.02403445    -0.03848874     2.95627522
   -0.02405622    -0.03849312     2.95627499
20MABNDB000212_PR029
   -0.02528961    -0.00847349     1.64223862
   -0.02529384    -0.00846927     1.64223862
   -0.02529423    -0.00847552     1.64223862
20MABNDB000128_PR030
   -0.01948234    -0.04674108     2.95496345
   -0.01947917    -0.04674677     2.95496345
   -0.01948742    -0.04675034     2.95496345
20MABNDA000444_PR040
   -0.03023000     0.00092250     1.64490867
   -0.03023437     0.00092189     1.64490855
   -0.03022572     0.00092189     1.64490867
20MABNDA000053_PR041
   -0.02648377     0.05110727     2.95450425
   -0.02651892     0.05111699     2.95450401
   -0.02651516     0.05112850     2.95450354
20MABNDA000188_PR008
    0.13650158    -0.07885031     9.20339394
    0.13650158    -0.07885031     9.20339394
    0.13650158    -0.07885031     9.20339394
20MABNDA000188_PR018
   -0.01617210     0.02583532     1.28358245
   -0.01617346     0.02583671     1.28358245
   -0.01617493     0.02583492     1.28358245
20MABNDA000039_PR009
   -0.17121753     0.02558925    11.00701523
   -0.17117083     0.02556198    11.00701523
   -0.17122410     0.02558781    11.00701523
20MABNDA000039_PR011
    0.03086037    -0.02409943     3.43347454
    0.03085652    -0.02409509     3.43347478
    0.03085880    -0.02409464     3.43347454
20MABNDB000155_PR020
    0.10170117    -0.00973573     9.20028782
    0.10160153    -0.00967631     9.20029068
    0.10163204    -0.00970905     9.20028877
20MABNDB000155_PR022
   -0.02602713    -0.01802688     1.28070199
   -0.02602721    -0.01802722     1.28070199
   -0.02602652    -0.01802713     1.28070199
20MABNDB000010_PR021
   -0.15999952     0.02414226    11.00713158
   -0.20116988     0.04630442    11.00640488
20MABNDB000010_PR023
    0.00406721     0.02074316     3.43376780
    0.00406460     0.02074793     3.43376780
20MABNDB000069_PR031
    0.10229938    -0.03884842     9.20356178
    0.10231325    -0.03885391     9.20356083
20MABNDB000069_PR033
   -0.02685487    -0.02690642     1.28394055
   -0.02685402    -0.02690637     1.28394055
20MABNDB000131_PR032
   -0.18760104    -0.02944871    11.00642776
   -0.18758559    -0.02946982    11.00642776
20MABNDB000131_PR034
    0.01477595     0.01647979     3.43337536
    0.01477918     0.01647320     3.43337536
20MABNDA000208_PR042
    0.10485598    -0.04669873     9.20164967
    0.12444573    -0.03448721     9.20145035
20MABNDA000208_PR046
   -0.02344866     0.03333742     1.28210294
   -0.02298550     0.03370086     1.28210092
20MABNDA000035_PR044
   -0.18021400     0.02575680    11.00801945
   -0.18018842     0.02575224    11.00801945
20MABNDA000035_PR045
    0.01420124    -0.01952743     3.43483472
    0.01420329    -0.01952767     3.43483472


*****************************************************************coordonnees du prisme dans le repere ATLAS********************************************************************************** 
20MABNDL000077_PR002 0.00000000
    2.80029583    -3.70282722     6.48625517
    2.80953479    -3.69440675     6.48622131
    2.80952120    -3.69442105     6.48622131
20MABNDL000077_PR003 0.00000000
    2.83577442    -3.72377729     6.67526293
    2.83576632    -3.72377276     6.67526293
    2.83576107    -3.72378278     6.67526293
20MABNDL000077_20MABNDM000168 0.00000000
    2.77222872    -3.78915858    -2.68922138
    2.77223349    -3.78916240    -2.68922138
    2.77222633    -3.78915977    -2.68922138
20MABNDL000077_PR024 0.00000000
    2.83051443    -3.68697405    -3.11711478
    2.83051229    -3.68695998    -3.11711478
    2.83051038    -3.68696046    -3.11711478
20MABNDM000020_PR013 0.00000000
   -2.83422065    -3.73585296     6.48627615
   -2.83421230    -3.73582983     6.48627663
   -2.83421040    -3.73584008     6.48627663
20MABNDM000020_PR014 0.00000000
   -2.84713316    -3.67467904     7.43230200
   -2.84715176    -3.67462516     7.43230200
   -2.84714293    -3.67463136     7.43230200
20MABNDM000020_20MABNDL000196 0.00000000
   -2.84883046    -3.72491646    -2.71085501
   -2.78292274    -3.75934243    -2.71088576
   -2.78291440    -3.75934148    -2.71088576
20MABNDM000020_PR035 0.00000000
   -2.84752178    -3.68970203    -3.11707664
   -2.84753132    -3.68969417    -3.11707664
   -2.84752107    -3.68971395    -3.11707664
20MABNDM000168_PR025 0.00000000
    2.79280925    -3.74440813    -6.47932243
    2.78397346    -3.76026678    -6.47916269
    2.79140043    -3.76271009    -6.47920275
20MABNDM000168_PR026 0.00000000
    2.83934855    -3.68759060    -6.67493773
    2.83935022    -3.68759298    -6.67493773
    2.83934379    -3.68759561    -6.67493820
20MABNDM000168_20MABNDL000077 0.00000000
    2.81508613    -3.75349331     2.69822621
    2.81508780    -3.75347638     2.69822621
    2.81505752    -3.75346661     2.69822621
20MABNDM000168_PR001 0.00000000
    2.84046507    -3.68440962     3.12405801
    2.84047127    -3.68440270     3.12405682
    2.84047651    -3.68439865     3.12405682
20MABNDL000196_PR036 0.00000000
   -2.84750628    -3.69290304    -6.47909641
   -2.84751201    -3.69290376    -6.47909641
   -2.84750819    -3.69290543    -6.47909641
20MABNDL000196_PR037 0.00000000
   -2.82515836    -3.76950479    -6.67506695
   -2.82516980    -3.76950264    -6.67506695
   -2.82516980    -3.76950479    -6.67506647
20MABNDL000196_20MABNDM000020 0.00000000
   -2.81547666    -3.75144243     2.68347335
   -2.81551433    -3.75144601     2.68347335
   -2.81550407    -3.75144649     2.68347335
20MABNDL000196_PR012 0.00000000
   -2.83893371    -3.68300819     3.12404323
   -2.83895040    -3.68300986     3.12404323
   -2.83894420    -3.68303108     3.12404323
20MABNDA000318_PR004 0.00000000
    2.61444044    -4.19698858     3.83355999
    2.61444545    -4.19698811     3.83356690
    2.61444688    -4.19698811     3.83356762
20MABNDA000334_PR005 0.00000000
    2.61669397    -4.19703150     5.89751434
    2.61669731    -4.19703150     5.89751911
    2.61669660    -4.19703150     5.89751244
20MABNDB000317_PR015 0.00000000
   -2.61134171    -4.19700623     3.83622861
   -2.61133814    -4.19700623     3.83622956
   -2.61133742    -4.19700623     3.83623052
20MABNDB000146_PR016 0.00000000
   -2.61287403    -4.19702291     5.89878798
   -2.61287642    -4.19702291     5.89878559
   -2.61287713    -4.19702291     5.89878654
20MABNDB000135_PR027 0.00000000
    2.60389042    -4.19700384    -3.82556677
    2.60388899    -4.19700384    -3.82556725
    2.60388780    -4.19700384    -3.82556915
20MABNDB000126_PR028 0.00000000
    2.60560966    -4.19702101    -5.89325905
    2.60560894    -4.19702101    -5.89326048
    2.60561299    -4.19702101    -5.89325953
20MABNDA000272_PR038 0.00000000
   -2.61125660    -4.19698286    -3.82771182
   -2.61125517    -4.19698286    -3.82771325
   -2.61126089    -4.19698286    -3.82771945
20MABNDA000003_PR039 0.00000000
   -2.61576009    -4.19702101    -5.89153862
   -2.61575627    -4.19702101    -5.89154053
   -2.61575389    -4.19702101    -5.89153576
20MABNDA000196_PR006 0.00000000
    2.58458328    -4.19496536     6.54783249
    2.58458495    -4.19496536     6.54783392
    2.58458185    -4.19496584     6.54782915
20MABNDA000324_PR007 0.00000000
    2.59379387    -4.13996840     6.94796515
    2.59379077    -4.13996840     6.94796276
    2.59379649    -4.13996840     6.94795799
20MABNDB000001_PR017 0.00000000
   -2.59818888    -4.19506073     6.53816509
   -2.59818387    -4.19506073     6.53816223
   -2.59818625    -4.19506073     6.53816843
20MABNDB000260_PR019 0.00000000
   -2.60470891    -4.13995934     6.94214964
   -2.60472751    -4.13995934     6.94215536
   -2.60470557    -4.13995934     6.94215059
20MABNDB000212_PR029 0.00000000
    2.59896731    -4.19501019    -6.54746151
    2.59897161    -4.19501019    -6.54745722
    2.59897208    -4.19501019    -6.54746342
20MABNDB000128_PR030 0.00000000
    2.60937643    -4.14002657    -6.93137980
    2.60937953    -4.14002657    -6.93137455
    2.60937142    -4.14002657    -6.93137074
20MABNDA000444_PR040 0.00000000
   -2.60540247    -4.19510078    -6.54010296
   -2.60540700    -4.19510078    -6.54010201
   -2.60539818    -4.19510078    -6.54010201
20MABNDA000053_PR041 0.00000000
   -2.59405828    -4.14012671    -6.92680645
   -2.59402299    -4.14012671    -6.92679644
   -2.59402680    -4.14012718    -6.92678499
20MABNDA000188_PR008 0.00000000
    3.54951787     3.84898496     8.09023857
    3.54951787     3.84898496     8.09023857
    3.54951787     3.84898496     8.09023857
20MABNDA000188_PR018 0.00000000
    3.52096510    -4.07059622     7.89761353
    3.52096367    -4.07059622     7.89761209
    3.52096224    -4.07059622     7.89761400
20MABNDA000039_PR009 0.00000000
    3.87538958     3.64747334    12.93688297
    3.87534285     3.64747334    12.93685627
    3.87539601     3.64747334    12.93688202
20MABNDA000039_PR011 0.00000000
    3.66416359    -3.92580128    12.88473701
    3.66416764    -3.92580104    12.88474178
    3.66416526    -3.92580128    12.88474178
20MABNDB000155_PR020 0.00000000
   -3.68035316     3.84882164     7.89713144
   -3.68025374     3.84882474     7.89719105
   -3.68028426     3.84882283     7.89715815
20MABNDB000155_PR022 0.00000000
   -3.53395319    -4.07044220     7.89003229
   -3.53395319    -4.07044220     7.89003229
   -3.53395391    -4.07044220     7.89003229
20MABNDB000010_PR021 0.00000000
   -3.84588742     3.64783335    12.87767315
   -3.88707757     3.64711666    12.85554695
20MABNDB000010_PR023 0.00000000
   -3.68559957    -3.92560887    12.88453293
   -3.68560219    -3.92560887    12.88452816
20MABNDB000069_PR031 0.00000000
    3.68401623     3.84875655    -7.90155411
    3.68403006     3.84875560    -7.90154886
20MABNDB000069_PR033 0.00000000
    3.53344464    -4.07046270    -7.87876511
    3.53344536    -4.07046270    -7.87876511
20MABNDB000131_PR032 0.00000000
    3.86840367     3.64757752   -12.94009113
    3.86838818     3.64757752   -12.94011211
20MABNDB000131_PR034 0.00000000
    3.67301345    -3.92564154   -12.89146805
    3.67301011    -3.92564154   -12.89147377
20MABNDA000208_PR042 0.00000000
   -3.65490127     3.84928751    -7.95817041
   -3.67449760     3.84910679    -7.94596910
20MABNDA000208_PR046 0.00000000
   -3.53231621    -4.07031965    -7.87518072
   -3.53277946    -4.07032108    -7.87481785
20MABNDA000035_PR044 0.00000000
   -3.86945486     3.64757466   -12.93143559
   -3.86942911     3.64757466   -12.93143082
20MABNDA000035_PR045 0.00000000
   -3.67652702    -3.92565250   -12.88685703
   -3.67652488    -3.92565250   -12.88685703


*****************************************************************Rapport********************************************************************************** 
CAM-LBA-US_EBA-US-HO-H         2018.07.23.08.26.37     2.80645061    -3.69721834     6.48623260     0.00435209     0.00396608     0.00001596 0.00000000 VRAI 
CAM-LBA-US_JDA-US-H            2018.07.23.08.26.37     2.83576727    -3.72377761     6.67526293     0.00000549     0.00000409     0.00000000 0.00000000 VRAI 
CAM-LBA-US_CAM-LBC-US          2018.07.23.08.26.37     2.77222951    -3.78916025    -2.68922138     0.00000297     0.00000159     0.00000000 0.00000000 VRAI 
CAM-LBA-US_EBC-US-IP-H         2018.07.23.08.26.37     2.83051236    -3.68696483    -3.11711478     0.00000166     0.00000652     0.00000000 0.00000000 VRAI 
CAM-LBA-USA_EBA-USA-HO-H       2018.07.23.08.26.37    -2.83421445    -3.73584096     6.48627647     0.00000445     0.00000946     0.00000022 0.00000000 VRAI 
CAM-LBA-USA_JDA-USA-H          2018.07.23.08.26.37    -2.84714262    -3.67464519     7.43230200     0.00000760     0.00002407     0.00000000 0.00000000 VRAI 
CAM-LBA-USA_CAM-LBC-USA        2018.07.23.08.26.37    -2.80488920    -3.74786679    -2.71087551     0.03107116     0.01622833     0.00001450 0.00000000 VRAI 
CAM-LBA-USA_EBC-USA-IP-H       2018.07.23.08.26.37    -2.84752472    -3.68970339    -3.11707664     0.00000467     0.00000814     0.00000000 0.00000000 VRAI 
CAM-LBC-US_EBC-US-HO-H         2018.07.23.08.26.37     2.78939438    -3.75579500    -6.47922929     0.00387608     0.00811328     0.00006786 0.00000000 VRAI 
CAM-LBC-US_JDC-US-H            2018.07.23.08.26.37     2.83934752    -3.68759306    -6.67493788     0.00000273     0.00000204     0.00000022 0.00000000 VRAI 
CAM-LBC-US_CAM-LBA-US          2018.07.23.08.26.37     2.81507715    -3.75347877     2.69822621     0.00001390     0.00001103     0.00000000 0.00000000 VRAI 
CAM-LBC-US_EBA-US-IP-H         2018.07.23.08.26.37     2.84047095    -3.68440366     3.12405721     0.00000468     0.00000453     0.00000056 0.00000000 VRAI 
CAM-LBC-USA_EBC-USA-HO-H       2018.07.23.08.26.37    -2.84750883    -3.69290407    -6.47909641     0.00000238     0.00000100     0.00000000 0.00000000 VRAI 
CAM-LBC-USA_JDC-USA-H          2018.07.23.08.26.37    -2.82516599    -3.76950407    -6.67506679     0.00000539     0.00000101     0.00000022 0.00000000 VRAI 
CAM-LBC-USA_CAM-LBA-USA        2018.07.23.08.26.37    -2.81549835    -3.75144498     2.68347335     0.00001590     0.00000181     0.00000000 0.00000000 VRAI 
CAM-LBC-USA_EBA-USA-IP-H       2018.07.23.08.26.37    -2.83894277    -3.68301638     3.12404323     0.00000689     0.00001042     0.00000000 0.00000000 VRAI 
CAM-EBA-US-IP_EBA-US-IP        2018.07.23.08.26.37     2.61444426    -4.19698826     3.83356484     0.00000276     0.00000022     0.00000344 0.00000000 VRAI 
CAM-EBA-US-HO_EBA-US-HO        2018.07.23.08.26.37     2.61669596    -4.19703150     5.89751530     0.00000143     0.00000000     0.00000281 0.00000000 VRAI 
CAM-EBA-USA-IP_EBA-USA-IP      2018.07.23.08.26.37    -2.61133909    -4.19700623     3.83622956     0.00000188     0.00000000     0.00000078 0.00000000 VRAI 
CAM-EBA-USA-HO_EBA-USA-HO      2018.07.23.08.26.37    -2.61287586    -4.19702291     5.89878670     0.00000133     0.00000000     0.00000098 0.00000000 VRAI 
CAM-EBC-US-IP_EBC-US-IP        2018.07.23.08.26.37     2.60388907    -4.19700384    -3.82556772     0.00000107     0.00000000     0.00000103 0.00000000 VRAI 
CAM-EBC-US-HO_EBC-US-HO        2018.07.23.08.26.37     2.60561053    -4.19702101    -5.89325968     0.00000177     0.00000000     0.00000059 0.00000000 VRAI 
CAM-EBC-USA-IP_EBC-USA-IP      2018.07.23.08.26.37    -2.61125755    -4.19698286    -3.82771484     0.00000243     0.00000000     0.00000331 0.00000000 VRAI 
CAM-EBC-USA-HO_EBC-USA-HO      2018.07.23.08.26.37    -2.61575675    -4.19702101    -5.89153830     0.00000255     0.00000000     0.00000196 0.00000000 VRAI 
CAM-JDA-US-IP_JDA-US-IP        2018.07.23.08.26.37     2.58458336    -4.19496552     6.54783185     0.00000127     0.00000022     0.00000200 0.00000000 VRAI 
CAM-JDA-US-HO_JDA-US-HO        2018.07.23.08.26.37     2.59379371    -4.13996840     6.94796197     0.00000234     0.00000000     0.00000297 0.00000000 VRAI 
CAM-JDA-USA-IP_JDA-USA-IP      2018.07.23.08.26.37    -2.59818633    -4.19506073     6.53816525     0.00000204     0.00000000     0.00000253 0.00000000 VRAI 
CAM-JDA-USA-HO_JDA-USA-HO      2018.07.23.08.26.37    -2.60471400    -4.13995934     6.94215186     0.00000965     0.00000000     0.00000250 0.00000000 VRAI 
CAM-JDC-US-IP_JDC-US-IP        2018.07.23.08.26.37     2.59897033    -4.19501019    -6.54746071     0.00000214     0.00000000     0.00000259 0.00000000 VRAI 
CAM-JDC-US-HO_JDC-US-HO        2018.07.23.08.26.37     2.60937579    -4.14002657    -6.93137503     0.00000334     0.00000000     0.00000371 0.00000000 VRAI 
CAM-JDC-USA-IP_JDC-USA-IP      2018.07.23.08.26.37    -2.60540255    -4.19510078    -6.54010232     0.00000360     0.00000000     0.00000045 0.00000000 VRAI 
CAM-JDC-USA-HO_JDC-USA-HO      2018.07.23.08.26.37    -2.59403602    -4.14012686    -6.92679596     0.00001581     0.00000022     0.00000877 0.00000000 VRAI 
CAM-ECTA-US-IP_ECTA-US-IP-T    2018.07.23.08.26.37     3.54951787     3.84898496     8.09023857     0.00000000     0.00000000     0.00000000 0.00000000 VRAI 
CAM-ECTA-US-IP_ECTA-US-IP      2018.07.23.08.26.37     3.52096367    -4.07059622     7.89761321     0.00000117     0.00000000     0.00000081 0.00000000 VRAI 
CAM-ECTA-US-HO_ECTA-US-HO-T    2018.07.23.08.26.37     3.87537615     3.64747334    12.93687375     0.00002369     0.00000000     0.00001237 0.00000000 VRAI 
CAM-ECTA-US-HO_ECTA-US-HO      2018.07.23.08.26.37     3.66416550    -3.92580120    12.88474019     0.00000166     0.00000011     0.00000225 0.00000000 VRAI 
CAM-ECTA-USA-IP_ECTA-USA-IP-T  2018.07.23.08.26.37    -3.68029706     3.84882307     7.89716021     0.00004158     0.00000128     0.00002438 0.00000000 VRAI 
CAM-ECTA-USA-IP_ECTA-USA-IP    2018.07.23.08.26.37    -3.53395343    -4.07044220     7.89003229     0.00000034     0.00000000     0.00000000 0.00000000 VRAI 
CAM-ECTA-USA-HO_ECTA-USA-HO-T  2018.07.23.08.26.37    -3.86648250     3.64747500    12.86661005     0.02059507     0.00035834     0.01106310 0.00000000 VRAI 
CAM-ECTA-USA-HO_ECTA-USA-HO    2018.07.23.08.26.37    -3.68560088    -3.92560887    12.88453054     0.00000131     0.00000000     0.00000238 0.00000000 VRAI 
CAM-ECTC-US-IP_ECTC-US-IP-T    2018.07.23.08.26.37     3.68402314     3.84875607    -7.90155149     0.00000691     0.00000048     0.00000262 0.00000000 VRAI 
CAM-ECTC-US-IP_ECTC-US-IP      2018.07.23.08.26.37     3.53344500    -4.07046270    -7.87876511     0.00000036     0.00000000     0.00000000 0.00000000 VRAI 
CAM-ECTC-US-HO_ECTC-US-HO-T    2018.07.23.08.26.37     3.86839592     3.64757752   -12.94010162     0.00000775     0.00000000     0.00001049 0.00000000 VRAI 
CAM-ECTC-US-HO_ECTC-US-HO      2018.07.23.08.26.37     3.67301178    -3.92564154   -12.89147091     0.00000167     0.00000000     0.00000286 0.00000000 VRAI 
CAM-ECTC-USA-IP_ECTC-USA-IP-T  2018.07.23.08.26.37    -3.66469944     3.84919715    -7.95206976     0.00979817     0.00009036     0.00610065 0.00000000 VRAI 
CAM-ECTC-USA-IP_ECTC-USA-IP    2018.07.23.08.26.37    -3.53254783    -4.07032037    -7.87499928     0.00023162     0.00000072     0.00018144 0.00000000 VRAI 
CAM-ECTC-USA-HO_ECTC-USA-HO-T  2018.07.23.08.26.37    -3.86944199     3.64757466   -12.93143320     0.00001287     0.00000000     0.00000238 0.00000000 VRAI 
CAM-ECTC-USA-HO_ECTC-USA-HO    2018.07.23.08.26.37    -3.67652595    -3.92565250   -12.88685703     0.00000107     0.00000000     0.00000000 0.00000000 VRAI 
