********** Fichier qui contient une sauvegarde des coordonnees images + coordonnees images transformees dans le repere BCAM (MOUNT) + coordonnees des prismes dans le repere MOUNT********** 
********************************************************************** Unite en metres (m)************************************************************************************************** 

*******************************************************************coordonnees images dans le repere CCD *********************************************************************************** 
20MABNDL000077_PR002
Spot 1     0.00121445     0.00150136
Spot 2     0.00123500     0.00218500
Spot 1     0.00121457     0.00150102
Spot 2     0.00052500     0.00043500
Spot 1     0.00121545     0.00150018
Spot 2     0.00052500     0.00043500
20MABNDL000077_PR003
Spot 1     0.00138786     0.00148761
Spot 2     0.00153670     0.00148953
Spot 1     0.00138799     0.00148764
Spot 2     0.00153748     0.00148934
Spot 1     0.00138825     0.00148758
Spot 2     0.00153700     0.00148936
20MABNDL000077_20MABNDM000168
Spot 1     0.00175770     0.00118487
Spot 2     0.00075500     0.00010500
Spot 1     0.00175773     0.00118494
Spot 2     0.00075500     0.00010500
Spot 1     0.00175781     0.00118454
Spot 2     0.00075500     0.00010500
20MABNDL000077_PR024
Spot 1     0.00254719     0.00144786
Spot 2     0.00264653     0.00145482
Spot 1     0.00254702     0.00144766
Spot 2     0.00264668     0.00145450
Spot 1     0.00254694     0.00144767
Spot 2     0.00264657     0.00145483
20MABNDM000020_PR013
Spot 1     0.00162652     0.00152683
Spot 2     0.00147308     0.00153351
Spot 1     0.00162705     0.00152850
Spot 2     0.00147282     0.00153378
Spot 1     0.00162619     0.00152746
Spot 2     0.00147275     0.00153364
20MABNDM000020_PR014
Spot 1     0.00265840     0.00169012
Spot 2     0.00249809     0.00169412
Spot 1     0.00265848     0.00168985
Spot 2     0.00249823     0.00169566
Spot 1     0.00265914     0.00168977
Spot 2     0.00249796     0.00169380
20MABNDM000020_20MABNDL000196
Spot 1     0.00197645     0.00117843
Spot 2     0.00230500     0.00010500
Spot 1     0.00197664     0.00117824
Spot 2     0.00320500     0.00025500
Spot 1     0.00197650     0.00117841
Spot 2     0.00320500     0.00025500
20MABNDM000020_PR035
Spot 1     0.00126888     0.00149525
Spot 2     0.00118616     0.00153159
Spot 1     0.00126885     0.00149561
Spot 2     0.00118612     0.00153155
Spot 1     0.00126896     0.00149544
Spot 2     0.00118609     0.00153168
20MABNDM000168_PR025
Spot 1     0.00074500     0.00035500
Spot 2     0.00140500     0.00124500
Spot 1     0.00074500     0.00035500
Spot 2     0.00074500     0.00035500
Spot 1     0.00148500     0.00050500
Spot 2     0.00140500     0.00124500
20MABNDM000168_PR026
Spot 1     0.00266716     0.00142983
Spot 2     0.00250639     0.00142633
Spot 1     0.00266722     0.00143005
Spot 2     0.00250622     0.00142651
Spot 1     0.00266721     0.00142993
Spot 2     0.00250632     0.00142626
20MABNDM000168_20MABNDL000077
Spot 1     0.00154138     0.00130114
Spot 2     0.00175726     0.00130409
Spot 1     0.00154117     0.00130125
Spot 2     0.00175738     0.00130406
Spot 1     0.00154126     0.00130110
Spot 2     0.00175706     0.00130381
20MABNDM000168_PR001
Spot 1     0.00080825     0.00161879
Spot 2     0.00070680     0.00162159
Spot 1     0.00080831     0.00161872
Spot 2     0.00070697     0.00162161
Spot 1     0.00080817     0.00161866
Spot 2     0.00070685     0.00162167
20MABNDL000196_PR036
Spot 1     0.00094671     0.00163731
Spot 2     0.00111028     0.00163645
Spot 1     0.00094662     0.00163723
Spot 2     0.00111033     0.00163637
Spot 1     0.00094665     0.00163704
Spot 2     0.00111039     0.00163660
20MABNDL000196_PR037
Spot 1     0.00246782     0.00117233
Spot 2     0.00262223     0.00117051
Spot 1     0.00246813     0.00117223
Spot 2     0.00262225     0.00117027
Spot 1     0.00246805     0.00117234
Spot 2     0.00262233     0.00117063
20MABNDL000196_20MABNDM000020
Spot 1     0.00192612     0.00104186
Spot 2     0.00170477     0.00104695
Spot 1     0.00192606     0.00104170
Spot 2     0.00170481     0.00104720
Spot 1     0.00192610     0.00104169
Spot 2     0.00170477     0.00104754
20MABNDL000196_PR012
Spot 1     0.00265203     0.00134269
Spot 2     0.00272297     0.00138865
Spot 1     0.00265207     0.00134306
Spot 2     0.00272309     0.00138847
Spot 1     0.00265191     0.00134309
Spot 2     0.00272303     0.00138850
20MABNDA000318_PR004
Spot 1     0.00192497     0.00162757
Spot 2     0.00214304     0.00162612
Spot 1     0.00192512     0.00162779
Spot 2     0.00214293     0.00162635
Spot 1     0.00192518     0.00162753
Spot 2     0.00214326     0.00162647
20MABNDA000334_PR005
Spot 1     0.00247173     0.00158748
Spot 2     0.00219131     0.00158828
Spot 1     0.00247185     0.00158735
Spot 2     0.00219161     0.00158814
Spot 1     0.00247197     0.00158769
Spot 2     0.00219172     0.00158836
20MABNDB000317_PR015
Spot 1     0.00170412     0.00158807
Spot 2     0.00148443     0.00159326
Spot 1     0.00170456     0.00158783
Spot 2     0.00148408     0.00159355
Spot 1     0.00170403     0.00158797
Spot 2     0.00148433     0.00159324
20MABNDB000146_PR016
Spot 1     0.00144438     0.00132479
Spot 2     0.00172029     0.00132622
Spot 1     0.00144448     0.00132479
Spot 2     0.00172019     0.00132630
Spot 1     0.00144455     0.00132492
Spot 2     0.00172008     0.00132624
20MABNDB000135_PR027
Spot 1     0.00188980     0.00091488
Spot 2     0.00210799     0.00091658
Spot 1     0.00188992     0.00091476
Spot 2     0.00210801     0.00091621
Spot 1     0.00188994     0.00091492
Spot 2     0.00210799     0.00091649
20MABNDB000126_PR028
Spot 1     0.00164446     0.00200891
Spot 2     0.00192603     0.00201036
Spot 1     0.00164440     0.00200891
Spot 2     0.00192617     0.00201055
Spot 1     0.00164443     0.00200884
Spot 2     0.00192600     0.00201044
20MABNDA000272_PR038
Spot 1     0.00192168     0.00095058
Spot 2     0.00170114     0.00094904
Spot 1     0.00192137     0.00095054
Spot 2     0.00170117     0.00094935
Spot 1     0.00192153     0.00095046
Spot 2     0.00170100     0.00094891
20MABNDA000003_PR039
Spot 1     0.00199933     0.00192506
Spot 2     0.00227739     0.00192603
Spot 1     0.00199938     0.00192466
Spot 2     0.00227729     0.00192576
Spot 1     0.00199960     0.00192506
Spot 2     0.00227724     0.00192603
20MABNDA000196_PR006
Spot 1     0.00199940     0.00072723
Spot 2     0.00163313     0.00072508
Spot 1     0.00199953     0.00072721
Spot 2     0.00163327     0.00072492
Spot 1     0.00199951     0.00072739
Spot 2     0.00163320     0.00072516
20MABNDA000324_PR007
Spot 1     0.00194095     0.00121303
Spot 2     0.00173519     0.00121901
Spot 1     0.00194087     0.00121309
Spot 2     0.00173519     0.00121888
Spot 1     0.00194085     0.00121297
Spot 2     0.00173524     0.00121890
20MABNDB000001_PR017
Spot 1     0.00190487     0.00044084
Spot 2     0.00227294     0.00044985
Spot 1     0.00190489     0.00044087
Spot 2     0.00227276     0.00044993
Spot 1     0.00190495     0.00044091
Spot 2     0.00227294     0.00044985
20MABNDB000260_PR019
Spot 1     0.00191505     0.00150695
Spot 2     0.00211840     0.00150575
Spot 1     0.00191516     0.00150676
Spot 2     0.00211802     0.00150575
Spot 1     0.00191538     0.00150687
Spot 2     0.00211870     0.00150611
20MABNDB000212_PR029
Spot 1     0.00222705     0.00070188
Spot 2     0.00186773     0.00070348
Spot 1     0.00222705     0.00070188
Spot 2     0.00186790     0.00070306
Spot 1     0.00222712     0.00070214
Spot 2     0.00186790     0.00070306
20MABNDB000128_PR030
Spot 1     0.00190585     0.00199884
Spot 2     0.00211035     0.00199343
Spot 1     0.00190591     0.00199875
Spot 2     0.00211015     0.00199318
Spot 1     0.00190593     0.00199902
Spot 2     0.00211040     0.00199354
20MABNDA000444_PR040
Spot 1     0.00074492     0.00035566
Spot 2     0.00111123     0.00035239
Spot 1     0.00074468     0.00035556
Spot 2     0.00111146     0.00035269
Spot 1     0.00074483     0.00035550
Spot 2     0.00111138     0.00035254
20MABNDA000053_PR041
Spot 1     0.00165559     0.00199368
Spot 2     0.00144719     0.00199126
Spot 1     0.00165630     0.00199363
Spot 2     0.00144722     0.00199124
Spot 1     0.00165612     0.00199354
Spot 2     0.00144704     0.00199102
20MABNDA000188_PR008
Spot 1     0.00289500     0.00025500
Spot 2     0.00289500     0.00025500
Spot 1     0.00289500     0.00025500
Spot 2     0.00289500     0.00025500
Spot 1     0.00289500     0.00025500
Spot 2     0.00289500     0.00025500
20MABNDA000188_PR018
Spot 1     0.00169632     0.00173572
Spot 2     0.00122919     0.00173193
Spot 1     0.00169661     0.00173565
Spot 2     0.00122925     0.00173202
Spot 1     0.00169639     0.00173596
Spot 2     0.00122936     0.00173201
20MABNDA000039_PR009
Spot 1     0.00066376     0.00118102
Spot 2     0.00061661     0.00118540
Spot 1     0.00066395     0.00118103
Spot 2     0.00061628     0.00118528
Spot 1     0.00066368     0.00118097
Spot 2     0.00061655     0.00118532
20MABNDA000039_PR011
Spot 1     0.00276949     0.00029344
Spot 2     0.00259376     0.00028835
Spot 1     0.00276952     0.00029299
Spot 2     0.00259379     0.00028856
Spot 1     0.00276922     0.00029321
Spot 2     0.00259384     0.00028847
20MABNDB000155_PR020
Spot 1     0.00062369     0.00113394
Spot 2     0.00068629     0.00112992
Spot 1     0.00062485     0.00113393
Spot 2     0.00068669     0.00113003
Spot 1     0.00062438     0.00113400
Spot 2     0.00068750     0.00113003
20MABNDB000155_PR022
Spot 1     0.00213803     0.00142730
Spot 2     0.00261024     0.00141806
Spot 1     0.00213804     0.00142715
Spot 2     0.00261002     0.00141820
Spot 1     0.00213804     0.00142710
Spot 2     0.00261004     0.00141822
20MABNDB000010_PR021
Spot 1     0.00287261     0.00114972
Spot 2     0.00324250     0.00006500
Spot 1     0.00287242     0.00114955
Spot 2     0.00324250     0.00006500
20MABNDB000010_PR023
Spot 1     0.00131695     0.00030368
Spot 2     0.00149230     0.00030218
Spot 1     0.00131688     0.00030365
Spot 2     0.00149247     0.00030215
20MABNDB000069_PR031
Spot 1     0.00028329     0.00140688
Spot 2     0.00035519     0.00140485
Spot 1     0.00028359     0.00140712
Spot 2     0.00035516     0.00140465
20MABNDB000069_PR033
Spot 1     0.00182764     0.00206205
Spot 2     0.00229710     0.00208194
Spot 1     0.00182758     0.00206216
Spot 2     0.00229719     0.00208189
20MABNDB000131_PR032
Spot 1     0.00277462     0.00107661
Spot 2     0.00283474     0.00107955
Spot 1     0.00277476     0.00107658
Spot 2     0.00283479     0.00107951
20MABNDB000131_PR034
Spot 1     0.00091492     0.00032772
Spot 2     0.00109110     0.00032690
Spot 1     0.00091473     0.00032772
Spot 2     0.00109111     0.00032685
20MABNDA000208_PR042
Spot 1     0.00261100     0.00037675
Spot 2     0.00292441     0.00123029
Spot 1     0.00261115     0.00037654
Spot 2     0.00304500     0.00138556
20MABNDA000208_PR046
Spot 1     0.00146226     0.00223030
Spot 2     0.00098833     0.00221548
Spot 1     0.00146214     0.00222957
Spot 2     0.00098887     0.00221485
20MABNDA000035_PR044
Spot 1     0.00073658     0.00125288
Spot 2     0.00068103     0.00124724
Spot 1     0.00073640     0.00125285
Spot 2     0.00068075     0.00124711
20MABNDA000035_PR045
Spot 1     0.00253736     0.00046298
Spot 2     0.00235963     0.00046193
Spot 1     0.00253721     0.00046283
Spot 2     0.00236040     0.00046182


****************************************************************coordonnees images transformees dans le repere MOUNT************************************************************************* 
20MABNDL000077_PR002
Spot 1     0.01228477     0.03557279    -0.07463200
Spot 2     0.01231190     0.03625620    -0.07463200
Spot 1     0.01228488     0.03557245    -0.07463200
Spot 2     0.01158509     0.03451311    -0.07463200
Spot 1     0.01228576     0.03557160    -0.07463200
Spot 2     0.01158509     0.03451311    -0.07463200
20MABNDL000077_PR003
Spot 1     0.01245804     0.03555737    -0.07463200
Spot 2     0.01260689     0.03555786    -0.07463200
Spot 1     0.01245817     0.03555740    -0.07463200
Spot 2     0.01260767     0.03555766    -0.07463200
Spot 1     0.01245843     0.03555734    -0.07463200
Spot 2     0.01260719     0.03555769    -0.07463200
20MABNDL000077_20MABNDM000168
Spot 1    -0.01259285     0.03524785    -0.00695400
Spot 2    -0.01157915     0.03417830    -0.00695400
Spot 1    -0.01259288     0.03524792    -0.00695400
Spot 2    -0.01157915     0.03417830    -0.00695400
Spot 1    -0.01259296     0.03524752    -0.00695400
Spot 2    -0.01157915     0.03417830    -0.00695400
20MABNDL000077_PR024
Spot 1    -0.01338499     0.03550274    -0.00695400
Spot 2    -0.01348440     0.03550869    -0.00695400
Spot 1    -0.01338482     0.03550255    -0.00695400
Spot 2    -0.01348454     0.03550837    -0.00695400
Spot 1    -0.01338474     0.03550256    -0.00695400
Spot 2    -0.01348444     0.03550870    -0.00695400
20MABNDM000020_PR013
Spot 1    -0.01273242    -0.03548553    -0.00523500
Spot 2    -0.01288568    -0.03549560    -0.00523500
Spot 1    -0.01273186    -0.03548718    -0.00523500
Spot 2    -0.01288593    -0.03549587    -0.00523500
Spot 1    -0.01273274    -0.03548616    -0.00523500
Spot 2    -0.01288601    -0.03549573    -0.00523500
20MABNDM000020_PR014
Spot 1    -0.01169718    -0.03562596    -0.00523500
Spot 2    -0.01185737    -0.03563350    -0.00523500
Spot 1    -0.01169711    -0.03562569    -0.00523500
Spot 2    -0.01185719    -0.03563504    -0.00523500
Spot 1    -0.01169645    -0.03562559    -0.00523500
Spot 2    -0.01185750    -0.03563318    -0.00523500
20MABNDM000020_20MABNDL000196
Spot 1     0.01270983    -0.03514699    -0.07583800
Spot 2     0.01238113    -0.03407361    -0.07583800
Spot 1     0.01270964    -0.03514680    -0.07583800
Spot 2     0.01148115    -0.03422373    -0.07583800
Spot 1     0.01270978    -0.03514697    -0.07583800
Spot 2     0.01148115    -0.03422373    -0.07583800
20MABNDM000020_PR035
Spot 1     0.01341744    -0.03546372    -0.07583800
Spot 2     0.01350017    -0.03550004    -0.07583800
Spot 1     0.01341747    -0.03546408    -0.07583800
Spot 2     0.01350021    -0.03550000    -0.07583800
Spot 1     0.01341736    -0.03546391    -0.07583800
Spot 2     0.01350024    -0.03550013    -0.07583800
20MABNDM000168_PR025
Spot 1    -0.01366193    -0.03469405    -0.00532900
Spot 2    -0.01299811    -0.03558120    -0.00532900
Spot 1    -0.01366193    -0.03469405    -0.00532900
Spot 2    -0.01366193    -0.03469405    -0.00532900
Spot 1    -0.01292129    -0.03484087    -0.00532900
Spot 2    -0.01299811    -0.03558120    -0.00532900
20MABNDM000168_PR026
Spot 1    -0.01173517    -0.03576061    -0.00532900
Spot 2    -0.01189596    -0.03575780    -0.00532900
Spot 1    -0.01173511    -0.03576083    -0.00532900
Spot 2    -0.01189613    -0.03575798    -0.00532900
Spot 1    -0.01173512    -0.03576071    -0.00532900
Spot 2    -0.01189603    -0.03575773    -0.00532900
20MABNDM000168_20MABNDL000077
Spot 1     0.01288407    -0.03530177    -0.07445100
Spot 2     0.01266817    -0.03530157    -0.07445100
Spot 1     0.01288427    -0.03530189    -0.07445100
Spot 2     0.01266805    -0.03530153    -0.07445100
Spot 1     0.01288419    -0.03530174    -0.07445100
Spot 2     0.01266837    -0.03530129    -0.07445100
20MABNDM000168_PR001
Spot 1     0.01361247    -0.03563012    -0.07445100
Spot 2     0.01371387    -0.03563440    -0.07445100
Spot 1     0.01361241    -0.03563005    -0.07445100
Spot 2     0.01371370    -0.03563442    -0.07445100
Spot 1     0.01361255    -0.03562999    -0.07445100
Spot 2     0.01371382    -0.03563448    -0.07445100
20MABNDL000196_PR036
Spot 1     0.01192664     0.03582601    -0.07483600
Spot 2     0.01209021     0.03582549    -0.07483600
Spot 1     0.01192655     0.03582593    -0.07483600
Spot 2     0.01209026     0.03582541    -0.07483600
Spot 1     0.01192658     0.03582574    -0.07483600
Spot 2     0.01209032     0.03582564    -0.07483600
20MABNDL000196_PR037
Spot 1     0.01344872     0.03536420    -0.07483600
Spot 2     0.01360313     0.03536270    -0.07483600
Spot 1     0.01344903     0.03536410    -0.07483600
Spot 2     0.01360315     0.03536246    -0.07483600
Spot 1     0.01344895     0.03536421    -0.07483600
Spot 2     0.01360323     0.03536282    -0.07483600
20MABNDL000196_20MABNDM000020
Spot 1    -0.01275018     0.03531306    -0.00611000
Spot 2    -0.01252897     0.03532260    -0.00611000
Spot 1    -0.01275011     0.03531290    -0.00611000
Spot 2    -0.01252902     0.03532285    -0.00611000
Spot 1    -0.01275015     0.03531289    -0.00611000
Spot 2    -0.01252899     0.03532319    -0.00611000
20MABNDL000196_PR012
Spot 1    -0.01348199     0.03559922    -0.00611000
Spot 2    -0.01355384     0.03564375    -0.00611000
Spot 1    -0.01348204     0.03559959    -0.00611000
Spot 2    -0.01355396     0.03564356    -0.00611000
Spot 1    -0.01348188     0.03559962    -0.00611000
Spot 2    -0.01355390     0.03564359    -0.00611000
20MABNDA000318_PR004
Spot 1    -0.01264479     0.01246831    -0.07310600
Spot 2    -0.01286286     0.01246912    -0.07310600
Spot 1    -0.01264494     0.01246809    -0.07310600
Spot 2    -0.01286275     0.01246889    -0.07310600
Spot 1    -0.01264500     0.01246835    -0.07310600
Spot 2    -0.01286308     0.01246877    -0.07310600
20MABNDA000334_PR005
Spot 1    -0.01311484     0.01254091    -0.07324100
Spot 2    -0.01283442     0.01253985    -0.07324100
Spot 1    -0.01311496     0.01254104    -0.07324100
Spot 2    -0.01283472     0.01253999    -0.07324100
Spot 1    -0.01311508     0.01254070    -0.07324100
Spot 2    -0.01283483     0.01253977    -0.07324100
20MABNDB000317_PR015
Spot 1    -0.01245005    -0.01250745    -0.07326100
Spot 2    -0.01266978    -0.01250482    -0.07326100
Spot 1    -0.01244960    -0.01250769    -0.07326100
Spot 2    -0.01267014    -0.01250454    -0.07326100
Spot 1    -0.01245014    -0.01250756    -0.07326100
Spot 2    -0.01266988    -0.01250485    -0.07326100
20MABNDB000146_PR016
Spot 1    -0.01276396    -0.01246882    -0.07450500
Spot 2    -0.01248806    -0.01246678    -0.07450500
Spot 1    -0.01276386    -0.01246882    -0.07450500
Spot 2    -0.01248816    -0.01246670    -0.07450500
Spot 1    -0.01276379    -0.01246869    -0.07450500
Spot 2    -0.01248827    -0.01246676    -0.07450500
20MABNDB000135_PR027
Spot 1    -0.01251488    -0.01319813    -0.07464700
Spot 2    -0.01229669    -0.01319886    -0.07464700
Spot 1    -0.01251477    -0.01319825    -0.07464700
Spot 2    -0.01229667    -0.01319923    -0.07464700
Spot 1    -0.01251474    -0.01319809    -0.07464700
Spot 2    -0.01229669    -0.01319895    -0.07464700
20MABNDB000126_PR028
Spot 1    -0.01253507    -0.01217326    -0.07500400
Spot 2    -0.01225352    -0.01217031    -0.07500400
Spot 1    -0.01253513    -0.01217326    -0.07500400
Spot 2    -0.01225338    -0.01217012    -0.07500400
Spot 1    -0.01253510    -0.01217333    -0.07500400
Spot 2    -0.01225355    -0.01217023    -0.07500400
20MABNDA000272_PR038
Spot 1    -0.01275733     0.01316089    -0.07417900
Spot 2    -0.01253679     0.01316203    -0.07417900
Spot 1    -0.01275702     0.01316092    -0.07417900
Spot 2    -0.01253682     0.01316172    -0.07417900
Spot 1    -0.01275718     0.01316100    -0.07417900
Spot 2    -0.01253665     0.01316216    -0.07417900
20MABNDA000003_PR039
Spot 1    -0.01280041     0.01212720    -0.07373400
Spot 2    -0.01307847     0.01212694    -0.07373400
Spot 1    -0.01280046     0.01212760    -0.07373400
Spot 2    -0.01307837     0.01212721    -0.07373400
Spot 1    -0.01280068     0.01212720    -0.07373400
Spot 2    -0.01307832     0.01212694    -0.07373400
20MABNDA000196_PR006
Spot 1    -0.01295408     0.01325117    -0.07967100
Spot 2    -0.01258781     0.01324861    -0.07967100
Spot 1    -0.01295421     0.01325119    -0.07967100
Spot 2    -0.01258795     0.01324877    -0.07967100
Spot 1    -0.01295419     0.01325101    -0.07967100
Spot 2    -0.01258788     0.01324853    -0.07967100
20MABNDA000324_PR007
Spot 1    -0.01254666     0.01280860    -0.07446800
Spot 2    -0.01234086     0.01280422    -0.07446800
Spot 1    -0.01254658     0.01280854    -0.07446800
Spot 2    -0.01234086     0.01280435    -0.07446800
Spot 1    -0.01254656     0.01280866    -0.07446800
Spot 2    -0.01234091     0.01280433    -0.07446800
20MABNDB000001_PR017
Spot 1    -0.01228347    -0.01354887    -0.07418400
Spot 2    -0.01191533    -0.01354376    -0.07418400
Spot 1    -0.01228345    -0.01354884    -0.07418400
Spot 2    -0.01191550    -0.01354368    -0.07418400
Spot 1    -0.01228339    -0.01354880    -0.07418400
Spot 2    -0.01191533    -0.01354376    -0.07418400
20MABNDB000260_PR019
Spot 1    -0.01241638    -0.01239575    -0.07492700
Spot 2    -0.01221304    -0.01239278    -0.07492700
Spot 1    -0.01241626    -0.01239594    -0.07492700
Spot 2    -0.01221342    -0.01239279    -0.07492700
Spot 1    -0.01241604    -0.01239582    -0.07492700
Spot 2    -0.01221275    -0.01239241    -0.07492700
20MABNDB000212_PR029
Spot 1    -0.01186078    -0.01327932    -0.07390500
Spot 2    -0.01222007    -0.01327388    -0.07390500
Spot 1    -0.01186078    -0.01327932    -0.07390500
Spot 2    -0.01221990    -0.01327430    -0.07390500
Spot 1    -0.01186071    -0.01327906    -0.07390500
Spot 2    -0.01221990    -0.01327430    -0.07390500
20MABNDB000128_PR030
Spot 1    -0.01244926    -0.01221846    -0.07353400
Spot 2    -0.01224475    -0.01222316    -0.07353400
Spot 1    -0.01244920    -0.01221855    -0.07353400
Spot 2    -0.01224495    -0.01222341    -0.07353400
Spot 1    -0.01244918    -0.01221828    -0.07353400
Spot 2    -0.01224470    -0.01222305    -0.07353400
20MABNDA000444_PR040
Spot 1    -0.01168473     0.01367416    -0.07412000
Spot 2    -0.01205105     0.01367278    -0.07412000
Spot 1    -0.01168449     0.01367426    -0.07412000
Spot 2    -0.01205127     0.01367248    -0.07412000
Spot 1    -0.01168464     0.01367432    -0.07412000
Spot 2    -0.01205120     0.01367263    -0.07412000
20MABNDA000053_PR041
Spot 1    -0.01241231     0.01211683    -0.07430100
Spot 2    -0.01220390     0.01211518    -0.07430100
Spot 1    -0.01241302     0.01211689    -0.07430100
Spot 2    -0.01220393     0.01211520    -0.07430100
Spot 1    -0.01241284     0.01211698    -0.07430100
Spot 2    -0.01220375     0.01211542    -0.07430100
20MABNDA000188_PR008
Spot 1    -0.01391227     0.01380893    -0.07502000
Spot 2    -0.01391227     0.01380893    -0.07502000
Spot 1    -0.01391227     0.01380893    -0.07502000
Spot 2    -0.01391227     0.01380893    -0.07502000
Spot 1    -0.01391227     0.01380893    -0.07502000
Spot 2    -0.01391227     0.01380893    -0.07502000
20MABNDA000188_PR018
Spot 1    -0.01272631     0.01231800    -0.07502000
Spot 2    -0.01225917     0.01231779    -0.07502000
Spot 1    -0.01272660     0.01231807    -0.07502000
Spot 2    -0.01225923     0.01231770    -0.07502000
Spot 1    -0.01272639     0.01231776    -0.07502000
Spot 2    -0.01225934     0.01231771    -0.07502000
20MABNDA000039_PR009
Spot 1    -0.01162591     0.01306311    -0.07444800
Spot 2    -0.01157878     0.01305853    -0.07444800
Spot 1    -0.01162610     0.01306310    -0.07444800
Spot 2    -0.01157845     0.01305865    -0.07444800
Spot 1    -0.01162583     0.01306316    -0.07444800
Spot 2    -0.01157872     0.01305861    -0.07444800
20MABNDA000039_PR011
Spot 1    -0.01372778     0.01395980    -0.07444800
Spot 2    -0.01355203     0.01396413    -0.07444800
Spot 1    -0.01372781     0.01396025    -0.07444800
Spot 2    -0.01355206     0.01396392    -0.07444800
Spot 1    -0.01372751     0.01396002    -0.07444800
Spot 2    -0.01355211     0.01396401    -0.07444800
20MABNDB000155_PR020
Spot 1    -0.01364253    -0.01312338    -0.07501700
Spot 2    -0.01357988    -0.01312654    -0.07501700
Spot 1    -0.01364137    -0.01312337    -0.07501700
Spot 2    -0.01357948    -0.01312643    -0.07501700
Spot 1    -0.01364184    -0.01312331    -0.07501700
Spot 2    -0.01357867    -0.01312641    -0.07501700
20MABNDB000155_PR022
Spot 1    -0.01213234    -0.01280931    -0.07501700
Spot 2    -0.01166005    -0.01281209    -0.07501700
Spot 1    -0.01213233    -0.01280946    -0.07501700
Spot 2    -0.01166027    -0.01281195    -0.07501700
Spot 1    -0.01213233    -0.01280951    -0.07501700
Spot 2    -0.01166025    -0.01281193    -0.07501700
20MABNDB000010_PR021
Spot 1    -0.01157834    -0.01292872    -0.07358200
Spot 2    -0.01119013    -0.01400702    -0.07358200
Spot 1    -0.01157853    -0.01292890    -0.07358200
Spot 2    -0.01119013    -0.01400702    -0.07358200
20MABNDB000010_PR023
Spot 1    -0.01311945    -0.01380100    -0.07358200
Spot 2    -0.01294410    -0.01379953    -0.07358200
Spot 1    -0.01311951    -0.01380103    -0.07358200
Spot 2    -0.01294392    -0.01379955    -0.07358200
20MABNDB000069_PR031
Spot 1    -0.01359289    -0.01286075    -0.07388500
Spot 2    -0.01352113    -0.01286575    -0.07388500
Spot 1    -0.01359258    -0.01286052    -0.07388500
Spot 2    -0.01352117    -0.01286595    -0.07388500
20MABNDB000069_PR033
Spot 1    -0.01202281    -0.01226987    -0.07388500
Spot 2    -0.01155293    -0.01226937    -0.07388500
Spot 1    -0.01202287    -0.01226976    -0.07388500
Spot 2    -0.01155285    -0.01226943    -0.07388500
20MABNDB000131_PR032
Spot 1    -0.01144552    -0.01303816    -0.07533000
Spot 2    -0.01138542    -0.01303491    -0.07533000
Spot 1    -0.01144538    -0.01303818    -0.07533000
Spot 2    -0.01138537    -0.01303495    -0.07533000
20MABNDB000131_PR034
Spot 1    -0.01330143    -0.01379640    -0.07533000
Spot 2    -0.01312525    -0.01379633    -0.07533000
Spot 1    -0.01330162    -0.01379640    -0.07533000
Spot 2    -0.01312524    -0.01379638    -0.07533000
20MABNDA000208_PR042
Spot 1    -0.01348223     0.01361966    -0.07273700
Spot 2    -0.01379489     0.01276585    -0.07273700
Spot 1    -0.01348238     0.01361987    -0.07273700
Spot 2    -0.01391534     0.01261047    -0.07273700
20MABNDA000208_PR046
Spot 1    -0.01233186     0.01176712    -0.07273700
Spot 2    -0.01185794     0.01178236    -0.07273700
Spot 1    -0.01233174     0.01176785    -0.07273700
Spot 2    -0.01185848     0.01178299    -0.07273700
20MABNDA000035_PR044
Spot 1    -0.01157120     0.01300435    -0.07483200
Spot 2    -0.01151561     0.01300960    -0.07483200
Spot 1    -0.01157102     0.01300438    -0.07483200
Spot 2    -0.01151533     0.01300973    -0.07483200
20MABNDA000035_PR045
Spot 1    -0.01336631     0.01380704    -0.07483200
Spot 2    -0.01318858     0.01380683    -0.07483200
Spot 1    -0.01336616     0.01380719    -0.07483200
Spot 2    -0.01318935     0.01380695    -0.07483200


*****************************************************************coordonnees du prisme dans le repere MOUNT********************************************************************************** 
20MABNDL000077_PR002
    0.03214413     0.00449098     3.70693588
    0.05009350     0.04755438     3.70691442
    0.05007197     0.04757534     3.70691466
20MABNDL000077_PR003
    0.02097962     0.02141146     3.89601803
    0.02095604     0.02141584     3.89601803
    0.02096176     0.02141683     3.89601803
20MABNDL000077_20MABNDM000168
   -0.05595694     0.07576938    -5.46843624
   -0.05595583     0.07576687    -5.46843624
   -0.05595309     0.07578135    -5.46843624
20MABNDL000077_PR024
    0.04575872     0.01712542    -5.89639759
    0.04575774     0.01714567    -5.89639807
    0.04575047     0.01713235    -5.89639807
20MABNDM000020_PR013
   -0.00364076    -0.01812686    -3.80243397
   -0.00364852    -0.01807889    -3.80243373
   -0.00362480    -0.01810765    -3.80243397
20MABNDM000020_PR014
   -0.06556226    -0.00494342    -4.74840975
   -0.06556997    -0.00490410    -4.74840927
   -0.06558079    -0.00496468    -4.74840975
20MABNDM000020_20MABNDL000196
    0.02683232    -0.07123161     5.39469719
    0.05908205    -0.06585901     5.39454889
    0.05907703    -0.06585293     5.39454889
20MABNDM000020_PR035
   -0.04248025    -0.00673378     5.80095387
   -0.04248294    -0.00672145     5.80095387
   -0.04247986    -0.00672299     5.80095387
20MABNDM000168_PR025
    0.01930102    -0.04575779    -3.78864670
    0.03570971    -0.06768983    -3.78834677
    0.00098893    -0.04212780    -3.78876758
20MABNDM000168_PR026
   -0.05785212    -0.01391101    -3.98428988
   -0.05784930    -0.01390058    -3.98428988
   -0.05785160    -0.01391022    -3.98428988
20MABNDM000168_20MABNDL000077
    0.01153000    -0.03874709     5.38884687
    0.01152681    -0.03874417     5.38884687
    0.01151833    -0.03875841     5.38884687
20MABNDM000168_PR001
   -0.05733734    -0.01332973     5.81470585
   -0.05732845    -0.01333179     5.81470585
   -0.05733853    -0.01333165     5.81470585
20MABNDL000196_PR036
    0.05135652     0.00606181     3.68777275
    0.05135750     0.00606573     3.68777275
    0.05135529     0.00606475     3.68777275
20MABNDL000196_PR037
   -0.02506232     0.02837793     3.88381338
   -0.02507087     0.02838670     3.88381338
   -0.02507084     0.02837455     3.88381338
20MABNDL000196_20MABNDM000020
   -0.01568288     0.03787220    -5.47473907
   -0.01568353     0.03786895    -5.47473907
   -0.01568329     0.03785710    -5.47473907
20MABNDL000196_PR012
    0.05234481     0.01441781    -5.91537142
    0.05235118     0.01441055    -5.91537142
    0.05234268     0.01440805    -5.91537142
20MABNDA000318_PR004
   -0.00856313     0.03842178     2.74965906
   -0.00856242     0.03843004     2.74965906
   -0.00855526     0.03842749     2.74965906
20MABNDA000334_PR005
   -0.00431248     0.03173819     2.14977169
   -0.00430648     0.03173432     2.14977169
   -0.00430319     0.03174233     2.14977145
20MABNDB000317_PR015
   -0.01725561    -0.03376961     2.75129223
   -0.01725724    -0.03377054     2.75129223
   -0.01725218    -0.03376739     2.75129223
20MABNDB000146_PR016
   -0.01343586    -0.03155861     2.15201473
   -0.01343586    -0.03155977     2.15201473
   -0.01343528    -0.03156077     2.15201473
20MABNDB000135_PR027
   -0.02095873    -0.00981070     2.74937153
   -0.02096120    -0.00980169     2.74937153
   -0.02096128    -0.00980976     2.74937153
20MABNDB000126_PR028
   -0.02032061    -0.03895263     2.14679527
   -0.02032174    -0.03895535     2.14679527
   -0.02031976    -0.03895277     2.14679527
20MABNDA000272_PR038
   -0.01326381     0.01076514     2.74965858
   -0.01326893     0.01077010     2.74965858
   -0.01326913     0.01076057     2.74965858
20MABNDA000003_PR039
   -0.00597681     0.04120988     2.14891577
   -0.00597755     0.04120030     2.14891577
   -0.00597510     0.04120987     2.14891577
20MABNDA000196_PR006
   -0.01011408     0.00988660     1.64206338
   -0.01011116     0.00988459     1.64206338
   -0.01011208     0.00988919     1.64206338
20MABNDA000324_PR007
   -0.02553042     0.02789056     2.95549059
   -0.02553199     0.02788917     2.95549059
   -0.02553138     0.02788721     2.95549059
20MABNDB000001_PR017
   -0.02452809    -0.00288000     1.64035702
   -0.02452635    -0.00288122     1.64035702
   -0.02452897    -0.00288075     1.64035702
20MABNDB000260_PR019
   -0.02406256    -0.03849167     2.95627499
   -0.02405732    -0.03848782     2.95627499
   -0.02407485    -0.03849744     2.95627499
20MABNDB000212_PR029
   -0.02527019    -0.00850341     1.64223897
   -0.02527200    -0.00849879     1.64223897
   -0.02527280    -0.00850163     1.64223897
20MABNDB000128_PR030
   -0.01949895    -0.04671244     2.95496368
   -0.01949622    -0.04670575     2.95496392
   -0.01950149    -0.04671815     2.95496368
20MABNDA000444_PR040
   -0.03025452     0.00093873     1.64490855
   -0.03025466     0.00094092     1.64490855
   -0.03025387     0.00093863     1.64490855
20MABNDA000053_PR041
   -0.02654948     0.05119102     2.95450282
   -0.02653498     0.05118936     2.95450282
   -0.02654217     0.05118341     2.95450282
20MABNDA000188_PR008
    0.13650158    -0.07885031     9.20339394
    0.13650158    -0.07885031     9.20339394
    0.13650158    -0.07885031     9.20339394
20MABNDA000188_PR018
   -0.01619065     0.02579911     1.28358293
   -0.01618765     0.02579925     1.28358293
   -0.01618857     0.02580183     1.28358269
20MABNDA000039_PR009
   -0.17117071     0.02575578    11.00701523
   -0.17118099     0.02574778    11.00701523
   -0.17118099     0.02574632    11.00701523
20MABNDA000039_PR011
    0.03084131    -0.02402614     3.43347549
    0.03084266    -0.02403162     3.43347549
    0.03083697    -0.02402863     3.43347549
20MABNDB000155_PR020
    0.10181139    -0.00944627     9.20028687
    0.10171573    -0.00945371     9.20028782
    0.10169491    -0.00945830     9.20028782
20MABNDB000155_PR022
   -0.02602584    -0.01798345     1.28070235
   -0.02602405    -0.01798334     1.28070235
   -0.02602422    -0.01798308     1.28070235
20MABNDB000010_PR021
   -0.20124248     0.04629436    11.00640392
   -0.20122871     0.04630709    11.00640392
20MABNDB000010_PR023
    0.00408019     0.02068078     3.43376851
    0.00407788     0.02068212     3.43376851
20MABNDB000069_PR031
    0.10229291    -0.03881194     9.20356178
    0.10227626    -0.03881371     9.20356178
20MABNDB000069_PR033
   -0.02687254    -0.02682422     1.28394127
   -0.02687282    -0.02682472     1.28394127
20MABNDB000131_PR032
   -0.18761638    -0.02959565    11.00642776
   -0.18763030    -0.02959061    11.00642776
20MABNDB000131_PR034
    0.01474677     0.01634838     3.43337655
    0.01475086     0.01634954     3.43337655
20MABNDA000208_PR042
    0.10081924    -0.00371565     9.20187855
    0.10822074     0.00580839     9.20179749
20MABNDA000208_PR046
   -0.02325857     0.03496834     1.28207767
   -0.02325497     0.03495672     1.28207779
20MABNDA000035_PR044
   -0.18012068     0.02612771    11.00802040
   -0.18015441     0.02611625    11.00802040
20MABNDA000035_PR045
    0.01421967    -0.01934341     3.43483639
    0.01423378    -0.01934944     3.43483615


*****************************************************************coordonnees du prisme dans le repere ATLAS********************************************************************************** 
20MABNDL000077_PR002 0.00000000
    2.85254431    -3.71237826     6.48617792
    2.80948663    -3.69441509     6.48622084
    2.80946565    -3.69443679     6.48622131
20MABNDL000077_PR003 0.00000000
    2.83580565    -3.72377062     6.67526293
    2.83580136    -3.72379422     6.67526293
    2.83580041    -3.72378850     6.67526293
20MABNDL000077_20MABNDM000168 0.00000000
    2.77223802    -3.78913617    -2.68922138
    2.77224040    -3.78913498    -2.68922138
    2.77222610    -3.78913236    -2.68922138
20MABNDL000077_PR024 0.00000000
    2.83049464    -3.68691111    -3.11711431
    2.83047438    -3.68691206    -3.11711478
    2.83048773    -3.68691945    -3.11711478
20MABNDM000020_PR013 0.00000000
   -2.83418250    -3.73584318     6.48627663
   -2.83423042    -3.73583555     6.48627615
   -2.83420181    -3.73585916     6.48627663
20MABNDM000020_PR014 0.00000000
   -2.84715772    -3.67463708     7.43230200
   -2.84719706    -3.67462945     7.43230152
   -2.84713650    -3.67461872     7.43230200
20MABNDM000020_20MABNDL000196 0.00000000
   -2.78292775    -3.75933790    -2.71088576
   -2.78831005    -3.79158592    -2.71076083
   -2.78831625    -3.79158092    -2.71076083
20MABNDM000020_PR035 0.00000000
   -2.84748554    -3.68969655    -3.11707664
   -2.84749794    -3.68969393    -3.11707664
   -2.84749627    -3.68969703    -3.11707664
20MABNDM000168_PR025 0.00000000
    2.80747867    -3.76462364    -6.47926378
    2.78554225    -3.78102636    -6.47895622
    2.81111360    -3.74631262    -6.47939157
20MABNDM000168_PR026 0.00000000
    2.83933401    -3.68755174    -6.67493725
    2.83934450    -3.68755460    -6.67493725
    2.83933473    -3.68755221    -6.67493725
20MABNDM000168_20MABNDL000077 0.00000000
    2.81504846    -3.75344205     2.69822598
    2.81505132    -3.75343895     2.69822598
    2.81503701    -3.75343037     2.69822598
20MABNDM000168_PR001 0.00000000
    2.84050989    -3.68442321     3.12405801
    2.84050775    -3.68443203     3.12405801
    2.84050798    -3.68442202     3.12405801
20MABNDL000196_PR036 0.00000000
   -2.84754562    -3.69291782    -6.47909641
   -2.84754181    -3.69291687    -6.47909641
   -2.84754276    -3.69291925    -6.47909641
20MABNDL000196_PR037 0.00000000
   -2.82519817    -3.76950860    -6.67506647
   -2.82518959    -3.76951718    -6.67506647
   -2.82520175    -3.76951718    -6.67506647
20MABNDL000196_20MABNDM000020 0.00000000
   -2.81550622    -3.75141954     2.68347335
   -2.81550932    -3.75142026     2.68347335
   -2.81552124    -3.75142002     2.68347335
20MABNDL000196_PR012 0.00000000
   -2.83898258    -3.68299294     3.12404275
   -2.83898997    -3.68298650     3.12404275
   -2.83899236    -3.68299508     3.12404275
20MABNDA000318_PR004 0.00000000
    2.61444020    -4.19698811     3.83357692
    2.61444068    -4.19698811     3.83356857
    2.61444807    -4.19698811     3.83357120
20MABNDA000334_PR005 0.00000000
    2.61668611    -4.19703150     5.89752293
    2.61669207    -4.19703150     5.89752674
    2.61669540    -4.19703150     5.89751863
20MABNDB000317_PR015 0.00000000
   -2.61135149    -4.19700623     3.83624578
   -2.61134982    -4.19700623     3.83624482
   -2.61135507    -4.19700623     3.83624816
20MABNDB000146_PR016 0.00000000
   -2.61285949    -4.19702291     5.89879179
   -2.61285949    -4.19702291     5.89879036
   -2.61285996    -4.19702291     5.89878941
20MABNDB000135_PR027 0.00000000
    2.60390449    -4.19700384    -3.82555008
    2.60390210    -4.19700384    -3.82555914
    2.60390210    -4.19700384    -3.82555103
20MABNDB000126_PR028 0.00000000
    2.60559654    -4.19702101    -5.89326715
    2.60559559    -4.19702101    -5.89326477
    2.60559750    -4.19702101    -5.89326715
20MABNDA000272_PR038 0.00000000
   -2.61127305    -4.19698286    -3.82771921
   -2.61126804    -4.19698286    -3.82771420
   -2.61126781    -4.19698286    -3.82772374
20MABNDA000003_PR039 0.00000000
   -2.61575437    -4.19702101    -5.89155674
   -2.61575365    -4.19702101    -5.89156628
   -2.61575603    -4.19702101    -5.89155674
20MABNDA000196_PR006 0.00000000
    2.58457470    -4.19496536     6.54784298
    2.58457160    -4.19496536     6.54784107
    2.58457255    -4.19496536     6.54784584
20MABNDA000324_PR007 0.00000000
    2.59378433    -4.13996792     6.94802475
    2.59378290    -4.13996792     6.94802570
    2.59378338    -4.13996792     6.94802809
20MABNDB000001_PR017 0.00000000
   -2.59822941    -4.19506073     6.53820801
   -2.59822774    -4.19506073     6.53820944
   -2.59823036    -4.19506073     6.53820896
20MABNDB000260_PR019 0.00000000
   -2.60469937    -4.13995934     6.94215202
   -2.60470462    -4.13995934     6.94215584
   -2.60468698    -4.13995934     6.94214630
20MABNDB000212_PR029 0.00000000
    2.59894800    -4.19500971    -6.54749107
    2.59894967    -4.19500971    -6.54748678
    2.59895062    -4.19500971    -6.54748964
20MABNDB000128_PR030 0.00000000
    2.60935974    -4.14002609    -6.93140888
    2.60936260    -4.14002609    -6.93141556
    2.60935736    -4.14002609    -6.93140316
20MABNDA000444_PR040 0.00000000
   -2.60542703    -4.19510078    -6.54011917
   -2.60542727    -4.19510078    -6.54012108
   -2.60542631    -4.19510078    -6.54011869
20MABNDA000053_PR041 0.00000000
   -2.59399247    -4.14012766    -6.92672253
   -2.59400702    -4.14012766    -6.92672396
   -2.59399986    -4.14012766    -6.92673016
20MABNDA000188_PR008 0.00000000
    3.54951787     3.84898496     8.09023857
    3.54951787     3.84898496     8.09023857
    3.54951787     3.84898496     8.09023857
20MABNDA000188_PR018 0.00000000
    3.52094603    -4.07059622     7.89764977
    3.52094889    -4.07059622     7.89764929
    3.52094793    -4.07059669     7.89764690
20MABNDA000039_PR009 0.00000000
    3.87534261     3.64747334    12.93704987
    3.87535286     3.64747334    12.93704224
    3.87535286     3.64747334    12.93704033
20MABNDA000039_PR011 0.00000000
    3.66418266    -3.92580032    12.88481045
    3.66418147    -3.92580032    12.88480473
    3.66418719    -3.92580032    12.88480759
20MABNDB000155_PR020 0.00000000
   -3.68046355     3.84882045     7.89742088
   -3.68036795     3.84882164     7.89741373
   -3.68034720     3.84882188     7.89740896
20MABNDB000155_PR022 0.00000000
   -3.53395462    -4.07044172     7.89007568
   -3.53395629    -4.07044172     7.89007616
   -3.53395605    -4.07044172     7.89007616
20MABNDB000010_PR021 0.00000000
   -3.88715005     3.64711595    12.85555744
   -3.88713622     3.64711571    12.85554504
20MABNDB000010_PR023 0.00000000
   -3.68558669    -3.92560816    12.88459492
   -3.68558884    -3.92560816    12.88459396
20MABNDB000069_PR031 0.00000000
    3.68400955     3.84875655    -7.90159082
    3.68399310     3.84875655    -7.90158892
20MABNDB000069_PR033 0.00000000
    3.53342676    -4.07046223    -7.87884712
    3.53342652    -4.07046223    -7.87884665
20MABNDB000131_PR032 0.00000000
    3.86841893     3.64757752   -12.94023800
    3.86843276     3.64757752   -12.94023323
20MABNDB000131_PR034 0.00000000
    3.67304254    -3.92564034   -12.89159870
    3.67303848    -3.92564034   -12.89159775
20MABNDA000208_PR042 0.00000000
   -3.65088725     3.84952927    -7.91518497
   -3.65829396     3.84945703    -7.90566492
20MABNDA000208_PR046 0.00000000
   -3.53250718    -4.07034397    -7.87354994
   -3.53251076    -4.07034397    -7.87356186
20MABNDA000035_PR044 0.00000000
   -3.86936164     3.64757562   -12.93180656
   -3.86939526     3.64757562   -12.93179512
20MABNDA000035_PR045 0.00000000
   -3.67650867    -3.92565084   -12.88704109
   -3.67649460    -3.92565107   -12.88703442


*****************************************************************Rapport********************************************************************************** 
CAM-LBA-US_EBA-US-HO-H         2018.04.21.20.30.27     2.82383219    -3.70041005     6.48620669     0.02030253     0.00846281     0.00002034 0.00000000 VRAI 
CAM-LBA-US_JDA-US-H            2018.04.21.20.30.27     2.83580248    -3.72378445     6.67526293     0.00000228     0.00001005     0.00000000 0.00000000 VRAI 
CAM-LBA-US_CAM-LBC-US          2018.04.21.20.30.27     2.77223484    -3.78913450    -2.68922138     0.00000626     0.00000159     0.00000000 0.00000000 VRAI 
CAM-LBA-US_EBC-US-IP-H         2018.04.21.20.30.27     2.83048558    -3.68691421    -3.11711462     0.00000841     0.00000373     0.00000022 0.00000000 VRAI 
CAM-LBA-USA_EBA-USA-HO-H       2018.04.21.20.30.27    -2.83420491    -3.73584596     6.48627647     0.00001969     0.00000983     0.00000022 0.00000000 VRAI 
CAM-LBA-USA_JDA-USA-H          2018.04.21.20.30.27    -2.84716376    -3.67462842     7.43230184     0.00002509     0.00000753     0.00000022 0.00000000 VRAI 
CAM-LBA-USA_CAM-LBC-USA        2018.04.21.20.30.27    -2.78651802    -3.78083491    -2.71080248     0.00253870     0.01520068     0.00005889 0.00000000 VRAI 
CAM-LBA-USA_EBC-USA-IP-H       2018.04.21.20.30.27    -2.84749325    -3.68969584    -3.11707664     0.00000549     0.00000136     0.00000000 0.00000000 VRAI 
CAM-LBC-US_EBC-US-HO-H         2018.04.21.20.30.27     2.80137817    -3.76398754    -6.47920386     0.01129559     0.01417896     0.00018271 0.00000000 VRAI 
CAM-LBC-US_JDC-US-H            2018.04.21.20.30.27     2.83933775    -3.68755285    -6.67493725     0.00000479     0.00000125     0.00000000 0.00000000 VRAI 
CAM-LBC-US_CAM-LBA-US          2018.04.21.20.30.27     2.81504560    -3.75343712     2.69822598     0.00000618     0.00000494     0.00000000 0.00000000 VRAI 
CAM-LBC-US_EBA-US-IP-H         2018.04.21.20.30.27     2.84050854    -3.68442575     3.12405801     0.00000096     0.00000447     0.00000000 0.00000000 VRAI 
CAM-LBC-USA_EBC-USA-HO-H       2018.04.21.20.30.27    -2.84754340    -3.69291798    -6.47909641     0.00000162     0.00000098     0.00000000 0.00000000 VRAI 
CAM-LBC-USA_JDC-USA-H          2018.04.21.20.30.27    -2.82519650    -3.76951432    -6.67506647     0.00000510     0.00000405     0.00000000 0.00000000 VRAI 
CAM-LBC-USA_CAM-LBA-USA        2018.04.21.20.30.27    -2.81551226    -3.75141994     2.68347335     0.00000647     0.00000030     0.00000000 0.00000000 VRAI 
CAM-LBC-USA_EBA-USA-IP-H       2018.04.21.20.30.27    -2.83898830    -3.68299150     3.12404275     0.00000416     0.00000365     0.00000000 0.00000000 VRAI 
CAM-EBA-US-IP_EBA-US-IP        2018.04.21.20.30.27     2.61444298    -4.19698811     3.83357223     0.00000360     0.00000000     0.00000348 0.00000000 VRAI 
CAM-EBA-US-HO_EBA-US-HO        2018.04.21.20.30.27     2.61669119    -4.19703150     5.89752277     0.00000385     0.00000000     0.00000331 0.00000000 VRAI 
CAM-EBA-USA-IP_EBA-USA-IP      2018.04.21.20.30.27    -2.61135213    -4.19700623     3.83624625     0.00000219     0.00000000     0.00000140 0.00000000 VRAI 
CAM-EBA-USA-HO_EBA-USA-HO      2018.04.21.20.30.27    -2.61285965    -4.19702291     5.89879052     0.00000022     0.00000000     0.00000098 0.00000000 VRAI 
CAM-EBC-US-IP_EBC-US-IP        2018.04.21.20.30.27     2.60390290    -4.19700384    -3.82555342     0.00000112     0.00000000     0.00000406 0.00000000 VRAI 
CAM-EBC-US-HO_EBC-US-HO        2018.04.21.20.30.27     2.60559654    -4.19702101    -5.89326636     0.00000078     0.00000000     0.00000112 0.00000000 VRAI 
CAM-EBC-USA-IP_EBC-USA-IP      2018.04.21.20.30.27    -2.61126963    -4.19698286    -3.82771905     0.00000242     0.00000000     0.00000389 0.00000000 VRAI 
CAM-EBC-USA-HO_EBC-USA-HO      2018.04.21.20.30.27    -2.61575468    -4.19702101    -5.89155992     0.00000100     0.00000000     0.00000450 0.00000000 VRAI 
CAM-JDA-US-IP_JDA-US-IP        2018.04.21.20.30.27     2.58457295    -4.19496536     6.54784330     0.00000130     0.00000000     0.00000196 0.00000000 VRAI 
CAM-JDA-US-HO_JDA-US-HO        2018.04.21.20.30.27     2.59378354    -4.13996792     6.94802618     0.00000059     0.00000000     0.00000140 0.00000000 VRAI 
CAM-JDA-USA-IP_JDA-USA-IP      2018.04.21.20.30.27    -2.59822917    -4.19506073     6.53820880     0.00000108     0.00000000     0.00000059 0.00000000 VRAI 
CAM-JDA-USA-HO_JDA-USA-HO      2018.04.21.20.30.27    -2.60469699    -4.13995934     6.94215139     0.00000740     0.00000000     0.00000392 0.00000000 VRAI 
CAM-JDC-US-IP_JDC-US-IP        2018.04.21.20.30.27     2.59894943    -4.19500971    -6.54748917     0.00000108     0.00000000     0.00000178 0.00000000 VRAI 
CAM-JDC-US-HO_JDC-US-HO        2018.04.21.20.30.27     2.60935990    -4.14002609    -6.93140920     0.00000214     0.00000000     0.00000507 0.00000000 VRAI 
CAM-JDC-USA-IP_JDC-USA-IP      2018.04.21.20.30.27    -2.60542687    -4.19510078    -6.54011965     0.00000041     0.00000000     0.00000103 0.00000000 VRAI 
CAM-JDC-USA-HO_JDC-USA-HO      2018.04.21.20.30.27    -2.59399978    -4.14012766    -6.92672555     0.00000594     0.00000000     0.00000331 0.00000000 VRAI 
CAM-ECTA-US-IP_ECTA-US-IP-T    2018.04.21.20.30.27     3.54951787     3.84898496     8.09023857     0.00000000     0.00000000     0.00000000 0.00000000 VRAI 
CAM-ECTA-US-IP_ECTA-US-IP      2018.04.21.20.30.27     3.52094762    -4.07059638     7.89764865     0.00000119     0.00000022     0.00000125 0.00000000 VRAI 
CAM-ECTA-US-HO_ECTA-US-HO-T    2018.04.21.20.30.27     3.87534944     3.64747334    12.93704414     0.00000483     0.00000000     0.00000412 0.00000000 VRAI 
CAM-ECTA-US-HO_ECTA-US-HO      2018.04.21.20.30.27     3.66418378    -3.92580032    12.88480759     0.00000246     0.00000000     0.00000234 0.00000000 VRAI 
CAM-ECTA-USA-IP_ECTA-USA-IP-T  2018.04.21.20.30.27    -3.68039290     3.84882132     7.89741453     0.00005067     0.00000063     0.00000490 0.00000000 VRAI 
CAM-ECTA-USA-IP_ECTA-USA-IP    2018.04.21.20.30.27    -3.53395565    -4.07044172     7.89007600     0.00000074     0.00000000     0.00000022 0.00000000 VRAI 
CAM-ECTA-USA-HO_ECTA-USA-HO-T  2018.04.21.20.30.27    -3.88714314     3.64711583    12.85555124     0.00000691     0.00000012     0.00000620 0.00000000 VRAI 
CAM-ECTA-USA-HO_ECTA-USA-HO    2018.04.21.20.30.27    -3.68558776    -3.92560816    12.88459444     0.00000107     0.00000000     0.00000048 0.00000000 VRAI 
CAM-ECTC-US-IP_ECTC-US-IP-T    2018.04.21.20.30.27     3.68400133     3.84875655    -7.90158987     0.00000823     0.00000000     0.00000095 0.00000000 VRAI 
CAM-ECTC-US-IP_ECTC-US-IP      2018.04.21.20.30.27     3.53342664    -4.07046223    -7.87884688     0.00000012     0.00000000     0.00000024 0.00000000 VRAI 
CAM-ECTC-US-HO_ECTC-US-HO-T    2018.04.21.20.30.27     3.86842585     3.64757752   -12.94023561     0.00000691     0.00000000     0.00000238 0.00000000 VRAI 
CAM-ECTC-US-HO_ECTC-US-HO      2018.04.21.20.30.27     3.67304051    -3.92564034   -12.89159822     0.00000203     0.00000000     0.00000048 0.00000000 VRAI 
CAM-ECTC-USA-IP_ECTC-USA-IP-T  2018.04.21.20.30.27    -3.65459061     3.84949315    -7.91042495     0.00370336     0.00003612     0.00476003 0.00000000 VRAI 
CAM-ECTC-USA-IP_ECTC-USA-IP    2018.04.21.20.30.27    -3.53250897    -4.07034397    -7.87355590     0.00000179     0.00000000     0.00000596 0.00000000 VRAI 
CAM-ECTC-USA-HO_ECTC-USA-HO-T  2018.04.21.20.30.27    -3.86937845     3.64757562   -12.93180084     0.00001681     0.00000000     0.00000572 0.00000000 VRAI 
CAM-ECTC-USA-HO_ECTC-USA-HO    2018.04.21.20.30.27    -3.67650163    -3.92565095   -12.88703775     0.00000703     0.00000012     0.00000334 0.00000000 VRAI 
