********** Fichier qui contient une sauvegarde des coordonnees images + coordonnees images transformees dans le repere BCAM (MOUNT) + coordonnees des prismes dans le repere MOUNT********** 
********************************************************************** Unite en metres (m)************************************************************************************************** 

*******************************************************************coordonnees images dans le repere CCD *********************************************************************************** 
20MABNDL000077_PR002
Spot 1     0.00121377     0.00150135
Spot 2     0.00052500     0.00043500
Spot 1     0.00121409     0.00150045
Spot 2     0.00052500     0.00043500
Spot 1     0.00121429     0.00149891
Spot 2     0.00052500     0.00043500
20MABNDL000077_PR003
Spot 1     0.00138729     0.00148734
Spot 2     0.00153665     0.00148908
Spot 1     0.00138748     0.00148725
Spot 2     0.00153694     0.00148905
Spot 1     0.00138754     0.00148744
Spot 2     0.00153686     0.00148909
20MABNDL000077_20MABNDM000168
Spot 1     0.00175708     0.00118487
Spot 2     0.00075500     0.00010500
Spot 1     0.00175721     0.00118461
Spot 2     0.00075500     0.00010500
Spot 1     0.00175786     0.00118460
Spot 2     0.00075500     0.00010500
20MABNDL000077_PR024
Spot 1     0.00254631     0.00144798
Spot 2     0.00264573     0.00145568
Spot 1     0.00254634     0.00144814
Spot 2     0.00264578     0.00145531
Spot 1     0.00254646     0.00144805
Spot 2     0.00264631     0.00145540
20MABNDM000020_PR013
Spot 1     0.00162656     0.00152820
Spot 2     0.00147312     0.00153467
Spot 1     0.00162603     0.00152714
Spot 2     0.00147278     0.00153382
Spot 1     0.00162775     0.00152619
Spot 2     0.00147218     0.00153431
20MABNDM000020_PR014
Spot 1     0.00265958     0.00168954
Spot 2     0.00249782     0.00169414
Spot 1     0.00265900     0.00169011
Spot 2     0.00249779     0.00169442
Spot 1     0.00265894     0.00168894
Spot 2     0.00249728     0.00169362
20MABNDM000020_20MABNDL000196
Spot 1     0.00197667     0.00117825
Spot 2     0.00230500     0.00010500
Spot 1     0.00197668     0.00117827
Spot 2     0.00320500     0.00025500
Spot 1     0.00197661     0.00117827
Spot 2     0.00230500     0.00010500
20MABNDM000020_PR035
Spot 1     0.00126886     0.00149608
Spot 2     0.00118698     0.00153124
Spot 1     0.00126900     0.00149593
Spot 2     0.00118693     0.00153110
Spot 1     0.00126944     0.00149593
Spot 2     0.00118704     0.00153131
20MABNDM000168_PR025
Spot 1     0.00170500     0.00084500
Spot 2     0.00170500     0.00084500
Spot 1     0.00066500     0.00028500
Spot 2     0.00148500     0.00050500
Spot 1     0.00066500     0.00028500
Spot 2     0.00066500     0.00028500
20MABNDM000168_PR026
Spot 1     0.00266726     0.00143034
Spot 2     0.00250592     0.00142697
Spot 1     0.00266745     0.00143060
Spot 2     0.00250609     0.00142717
Spot 1     0.00266733     0.00143050
Spot 2     0.00250587     0.00142709
20MABNDM000168_20MABNDL000077
Spot 1     0.00154146     0.00130066
Spot 2     0.00175801     0.00130619
Spot 1     0.00154152     0.00130053
Spot 2     0.00175781     0.00130583
Spot 1     0.00154135     0.00130072
Spot 2     0.00175747     0.00130554
20MABNDM000168_PR001
Spot 1     0.00080851     0.00161875
Spot 2     0.00070618     0.00162094
Spot 1     0.00080826     0.00161860
Spot 2     0.00070609     0.00162085
Spot 1     0.00080832     0.00161881
Spot 2     0.00070636     0.00162098
20MABNDL000196_PR036
Spot 1     0.00094585     0.00163703
Spot 2     0.00111076     0.00163606
Spot 1     0.00094584     0.00163701
Spot 2     0.00111050     0.00163628
Spot 1     0.00094586     0.00163701
Spot 2     0.00111058     0.00163659
20MABNDL000196_PR037
Spot 1     0.00246768     0.00117183
Spot 2     0.00262296     0.00117034
Spot 1     0.00246783     0.00117217
Spot 2     0.00262287     0.00117058
Spot 1     0.00246786     0.00117214
Spot 2     0.00262279     0.00117039
20MABNDL000196_20MABNDM000020
Spot 1     0.00192580     0.00104110
Spot 2     0.00170489     0.00104637
Spot 1     0.00192588     0.00104098
Spot 2     0.00170490     0.00104652
Spot 1     0.00192567     0.00104095
Spot 2     0.00170484     0.00104666
20MABNDL000196_PR012
Spot 1     0.00265167     0.00134172
Spot 2     0.00272448     0.00138801
Spot 1     0.00265147     0.00134184
Spot 2     0.00272470     0.00138827
Spot 1     0.00265132     0.00134165
Spot 2     0.00272449     0.00138794
20MABNDA000318_PR004
Spot 1     0.00192535     0.00162659
Spot 2     0.00214354     0.00162599
Spot 1     0.00192528     0.00162650
Spot 2     0.00214346     0.00162597
Spot 1     0.00192526     0.00162641
Spot 2     0.00214340     0.00162592
20MABNDA000334_PR005
Spot 1     0.00247158     0.00158754
Spot 2     0.00219123     0.00158820
Spot 1     0.00247165     0.00158788
Spot 2     0.00219100     0.00158825
Spot 1     0.00247167     0.00158797
Spot 2     0.00219120     0.00158814
20MABNDB000317_PR015
Spot 1     0.00170460     0.00158758
Spot 2     0.00148469     0.00159399
Spot 1     0.00170457     0.00158747
Spot 2     0.00148455     0.00159399
Spot 1     0.00170451     0.00158751
Spot 2     0.00148483     0.00159405
20MABNDB000146_PR016
Spot 1     0.00144436     0.00132486
Spot 2     0.00172014     0.00132702
Spot 1     0.00144434     0.00132478
Spot 2     0.00172009     0.00132708
Spot 1     0.00144444     0.00132483
Spot 2     0.00172026     0.00132699
20MABNDB000135_PR027
Spot 1     0.00189033     0.00091422
Spot 2     0.00210816     0.00091596
Spot 1     0.00189008     0.00091424
Spot 2     0.00210826     0.00091603
Spot 1     0.00189030     0.00091425
Spot 2     0.00210835     0.00091599
20MABNDB000126_PR028
Spot 1     0.00164394     0.00200868
Spot 2     0.00192656     0.00201052
Spot 1     0.00164401     0.00200865
Spot 2     0.00192652     0.00201044
Spot 1     0.00164391     0.00200858
Spot 2     0.00192667     0.00201063
20MABNDA000272_PR038
Spot 1     0.00192130     0.00095097
Spot 2     0.00170009     0.00094907
Spot 1     0.00192120     0.00095069
Spot 2     0.00170005     0.00094904
Spot 1     0.00192137     0.00095047
Spot 2     0.00170000     0.00094896
20MABNDA000003_PR039
Spot 1     0.00199881     0.00192506
Spot 2     0.00227691     0.00192648
Spot 1     0.00199883     0.00192511
Spot 2     0.00227674     0.00192665
Spot 1     0.00199873     0.00192517
Spot 2     0.00227735     0.00192691
20MABNDA000196_PR006
Spot 1     0.00199946     0.00072690
Spot 2     0.00163327     0.00072480
Spot 1     0.00199953     0.00072695
Spot 2     0.00163309     0.00072480
Spot 1     0.00199943     0.00072691
Spot 2     0.00163336     0.00072461
20MABNDA000324_PR007
Spot 1     0.00194113     0.00121476
Spot 2     0.00173530     0.00122067
Spot 1     0.00194116     0.00121479
Spot 2     0.00173506     0.00122067
Spot 1     0.00194094     0.00121495
Spot 2     0.00173528     0.00122094
20MABNDB000001_PR017
Spot 1     0.00190163     0.00043865
Spot 2     0.00226986     0.00044743
Spot 1     0.00190163     0.00043868
Spot 2     0.00226980     0.00044740
Spot 1     0.00190178     0.00043871
Spot 2     0.00227000     0.00044724
20MABNDB000260_PR019
Spot 1     0.00191516     0.00150728
Spot 2     0.00211880     0.00150640
Spot 1     0.00191500     0.00150702
Spot 2     0.00211878     0.00150633
Spot 1     0.00191538     0.00150720
Spot 2     0.00211853     0.00150618
20MABNDB000212_PR029
Spot 1     0.00222862     0.00070148
Spot 2     0.00186817     0.00070159
Spot 1     0.00222866     0.00070142
Spot 2     0.00186809     0.00070160
Spot 1     0.00222845     0.00070141
Spot 2     0.00186821     0.00070143
20MABNDB000128_PR030
Spot 1     0.00190524     0.00199961
Spot 2     0.00211051     0.00199394
Spot 1     0.00190519     0.00199931
Spot 2     0.00211031     0.00199398
Spot 1     0.00190547     0.00199925
Spot 2     0.00211052     0.00199392
20MABNDA000444_PR040
Spot 1     0.00074633     0.00035507
Spot 2     0.00111357     0.00035227
Spot 1     0.00074647     0.00035523
Spot 2     0.00111331     0.00035162
Spot 1     0.00074605     0.00035491
Spot 2     0.00111367     0.00035200
20MABNDA000053_PR041
Spot 1     0.00165903     0.00199068
Spot 2     0.00144597     0.00198966
Spot 1     0.00165818     0.00199165
Spot 2     0.00144540     0.00199097
Spot 1     0.00165803     0.00199148
Spot 2     0.00144485     0.00199103
20MABNDA000188_PR008
Spot 1     0.00297500     0.00011500
Spot 2     0.00297500     0.00011500
Spot 1     0.00297500     0.00011500
Spot 2     0.00297500     0.00011500
Spot 1     0.00297500     0.00011500
Spot 2     0.00297500     0.00011500
20MABNDA000188_PR018
Spot 1     0.00169676     0.00173525
Spot 2     0.00122927     0.00173143
Spot 1     0.00169663     0.00173542
Spot 2     0.00122919     0.00173146
Spot 1     0.00169666     0.00173513
Spot 2     0.00122923     0.00173155
20MABNDA000039_PR009
Spot 1     0.00066421     0.00118017
Spot 2     0.00061663     0.00118421
Spot 1     0.00066425     0.00118002
Spot 2     0.00061619     0.00118411
Spot 1     0.00066407     0.00118057
Spot 2     0.00061658     0.00118426
20MABNDA000039_PR011
Spot 1     0.00276984     0.00029196
Spot 2     0.00259411     0.00028682
Spot 1     0.00276985     0.00029196
Spot 2     0.00259417     0.00028667
Spot 1     0.00276994     0.00029208
Spot 2     0.00259423     0.00028659
20MABNDB000155_PR020
Spot 1     0.00062438     0.00113536
Spot 2     0.00068914     0.00113076
Spot 1     0.00062403     0.00113528
Spot 2     0.00068921     0.00113113
Spot 1     0.00062432     0.00113564
Spot 2     0.00068863     0.00113115
20MABNDB000155_PR022
Spot 1     0.00213913     0.00142552
Spot 2     0.00261201     0.00142077
Spot 1     0.00213906     0.00142552
Spot 2     0.00261187     0.00142097
20MABNDB000010_PR021
Spot 1     0.00287163     0.00114950
Spot 2     0.00268800     0.00037600
Spot 1     0.00287178     0.00114942
Spot 2     0.00268900     0.00037700
20MABNDB000010_PR023
Spot 1     0.00131714     0.00030265
Spot 2     0.00149333     0.00030218
Spot 1     0.00131714     0.00030276
Spot 2     0.00149347     0.00030203
20MABNDB000069_PR031
Spot 1     0.00028330     0.00140626
Spot 2     0.00035526     0.00140493
Spot 1     0.00028283     0.00140579
Spot 2     0.00035477     0.00140509
20MABNDB000069_PR033
Spot 1     0.00182536     0.00206469
Spot 2     0.00229604     0.00208494
Spot 1     0.00182541     0.00206480
Spot 2     0.00229635     0.00208506
20MABNDB000131_PR032
Spot 1     0.00277421     0.00107593
Spot 2     0.00283491     0.00107877
Spot 1     0.00277437     0.00107541
Spot 2     0.00283452     0.00107890
20MABNDB000131_PR034
Spot 1     0.00091433     0.00032518
Spot 2     0.00109060     0.00032500
Spot 1     0.00091414     0.00032509
Spot 2     0.00109074     0.00032495
20MABNDA000208_PR042
Spot 1     0.00263808     0.00044538
Spot 2     0.00289167     0.00052333
Spot 1     0.00263797     0.00044932
Spot 2     0.00303147     0.00077853
20MABNDA000208_PR046
Spot 1     0.00143775     0.00225550
Spot 2     0.00102913     0.00215421
Spot 1     0.00143779     0.00225576
Spot 2     0.00102009     0.00217974
20MABNDA000035_PR044
Spot 1     0.00073795     0.00125042
Spot 2     0.00067984     0.00124430
Spot 1     0.00073819     0.00125026
Spot 2     0.00067997     0.00124452
20MABNDA000035_PR045
Spot 1     0.00253688     0.00045945
Spot 2     0.00235976     0.00045837
Spot 1     0.00253691     0.00045953
Spot 2     0.00235976     0.00045833


****************************************************************coordonnees images transformees dans le repere MOUNT************************************************************************* 
20MABNDL000077_PR002
Spot 1     0.01228409     0.03557279    -0.07463200
Spot 2     0.01158509     0.03451311    -0.07463200
Spot 1     0.01228440     0.03557188    -0.07463200
Spot 2     0.01158509     0.03451311    -0.07463200
Spot 1     0.01228458     0.03557034    -0.07463200
Spot 2     0.01158509     0.03451311    -0.07463200
20MABNDL000077_PR003
Spot 1     0.01245746     0.03555711    -0.07463200
Spot 2     0.01260683     0.03555741    -0.07463200
Spot 1     0.01245765     0.03555702    -0.07463200
Spot 2     0.01260712     0.03555738    -0.07463200
Spot 1     0.01245772     0.03555721    -0.07463200
Spot 2     0.01260704     0.03555742    -0.07463200
20MABNDL000077_20MABNDM000168
Spot 1    -0.01259223     0.03524786    -0.00695400
Spot 2    -0.01157915     0.03417830    -0.00695400
Spot 1    -0.01259236     0.03524759    -0.00695400
Spot 2    -0.01157915     0.03417830    -0.00695400
Spot 1    -0.01259301     0.03524758    -0.00695400
Spot 2    -0.01157915     0.03417830    -0.00695400
20MABNDL000077_PR024
Spot 1    -0.01338411     0.03550287    -0.00695400
Spot 2    -0.01348361     0.03550956    -0.00695400
Spot 1    -0.01338414     0.03550303    -0.00695400
Spot 2    -0.01348365     0.03550918    -0.00695400
Spot 1    -0.01338426     0.03550294    -0.00695400
Spot 2    -0.01348418     0.03550927    -0.00695400
20MABNDM000020_PR013
Spot 1    -0.01273235    -0.03548689    -0.00523500
Spot 2    -0.01288561    -0.03549676    -0.00523500
Spot 1    -0.01273291    -0.03548585    -0.00523500
Spot 2    -0.01288597    -0.03549591    -0.00523500
Spot 1    -0.01273121    -0.03548486    -0.00523500
Spot 2    -0.01288656    -0.03549642    -0.00523500
20MABNDM000020_PR014
Spot 1    -0.01169602    -0.03562535    -0.00523500
Spot 2    -0.01185764    -0.03563353    -0.00523500
Spot 1    -0.01169659    -0.03562593    -0.00523500
Spot 2    -0.01185766    -0.03563381    -0.00523500
Spot 1    -0.01169667    -0.03562477    -0.00523500
Spot 2    -0.01185819    -0.03563302    -0.00523500
20MABNDM000020_20MABNDL000196
Spot 1     0.01270961    -0.03514681    -0.07583800
Spot 2     0.01238113    -0.03407361    -0.07583800
Spot 1     0.01270960    -0.03514683    -0.07583800
Spot 2     0.01148115    -0.03422373    -0.07583800
Spot 1     0.01270967    -0.03514683    -0.07583800
Spot 2     0.01238113    -0.03407361    -0.07583800
20MABNDM000020_PR035
Spot 1     0.01341746    -0.03546455    -0.07583800
Spot 2     0.01349935    -0.03549969    -0.07583800
Spot 1     0.01341732    -0.03546440    -0.07583800
Spot 2     0.01349940    -0.03549955    -0.07583800
Spot 1     0.01341688    -0.03546440    -0.07583800
Spot 2     0.01349929    -0.03549976    -0.07583800
20MABNDM000168_PR025
Spot 1    -0.01269984    -0.03517992    -0.00532900
Spot 2    -0.01269984    -0.03517992    -0.00532900
Spot 1    -0.01374223    -0.03462439    -0.00532900
Spot 2    -0.01292129    -0.03484087    -0.00532900
Spot 1    -0.01374223    -0.03462439    -0.00532900
Spot 2    -0.01374223    -0.03462439    -0.00532900
20MABNDM000168_PR026
Spot 1    -0.01173507    -0.03576112    -0.00532900
Spot 2    -0.01189642    -0.03575844    -0.00532900
Spot 1    -0.01173488    -0.03576138    -0.00532900
Spot 2    -0.01189625    -0.03575864    -0.00532900
Spot 1    -0.01173500    -0.03576128    -0.00532900
Spot 2    -0.01189647    -0.03575856    -0.00532900
20MABNDM000168_20MABNDL000077
Spot 1     0.01288399    -0.03530129    -0.07445100
Spot 2     0.01266739    -0.03530365    -0.07445100
Spot 1     0.01288393    -0.03530116    -0.07445100
Spot 2     0.01266759    -0.03530330    -0.07445100
Spot 1     0.01288410    -0.03530135    -0.07445100
Spot 2     0.01266793    -0.03530301    -0.07445100
20MABNDM000168_PR001
Spot 1     0.01361221    -0.03563007    -0.07445100
Spot 2     0.01371450    -0.03563376    -0.07445100
Spot 1     0.01361246    -0.03562993    -0.07445100
Spot 2     0.01371459    -0.03563367    -0.07445100
Spot 1     0.01361240    -0.03563014    -0.07445100
Spot 2     0.01371432    -0.03563380    -0.07445100
20MABNDL000196_PR036
Spot 1     0.01192578     0.03582573    -0.07483600
Spot 2     0.01209069     0.03582510    -0.07483600
Spot 1     0.01192577     0.03582571    -0.07483600
Spot 2     0.01209043     0.03582532    -0.07483600
Spot 1     0.01192579     0.03582571    -0.07483600
Spot 2     0.01209051     0.03582563    -0.07483600
20MABNDL000196_PR037
Spot 1     0.01344858     0.03536370    -0.07483600
Spot 2     0.01360386     0.03536254    -0.07483600
Spot 1     0.01344873     0.03536404    -0.07483600
Spot 2     0.01360377     0.03536278    -0.07483600
Spot 1     0.01344876     0.03536401    -0.07483600
Spot 2     0.01360369     0.03536259    -0.07483600
20MABNDL000196_20MABNDM000020
Spot 1    -0.01274984     0.03531230    -0.00611000
Spot 2    -0.01252908     0.03532202    -0.00611000
Spot 1    -0.01274992     0.03531218    -0.00611000
Spot 2    -0.01252910     0.03532217    -0.00611000
Spot 1    -0.01274971     0.03531216    -0.00611000
Spot 2    -0.01252904     0.03532231    -0.00611000
20MABNDL000196_PR012
Spot 1    -0.01348161     0.03559826    -0.00611000
Spot 2    -0.01355534     0.03564308    -0.00611000
Spot 1    -0.01348142     0.03559838    -0.00611000
Spot 2    -0.01355556     0.03564333    -0.00611000
Spot 1    -0.01348126     0.03559820    -0.00611000
Spot 2    -0.01355535     0.03564300    -0.00611000
20MABNDA000318_PR004
Spot 1    -0.01264517     0.01246929    -0.07310600
Spot 2    -0.01286336     0.01246925    -0.07310600
Spot 1    -0.01264510     0.01246938    -0.07310600
Spot 2    -0.01286328     0.01246927    -0.07310600
Spot 1    -0.01264508     0.01246947    -0.07310600
Spot 2    -0.01286322     0.01246932    -0.07310600
20MABNDA000334_PR005
Spot 1    -0.01311469     0.01254085    -0.07324100
Spot 2    -0.01283434     0.01253993    -0.07324100
Spot 1    -0.01311476     0.01254051    -0.07324100
Spot 2    -0.01283411     0.01253988    -0.07324100
Spot 1    -0.01311478     0.01254042    -0.07324100
Spot 2    -0.01283431     0.01253999    -0.07324100
20MABNDB000317_PR015
Spot 1    -0.01244956    -0.01250794    -0.07326100
Spot 2    -0.01266953    -0.01250409    -0.07326100
Spot 1    -0.01244959    -0.01250805    -0.07326100
Spot 2    -0.01266967    -0.01250409    -0.07326100
Spot 1    -0.01244965    -0.01250801    -0.07326100
Spot 2    -0.01266939    -0.01250403    -0.07326100
20MABNDB000146_PR016
Spot 1    -0.01276398    -0.01246875    -0.07450500
Spot 2    -0.01248821    -0.01246598    -0.07450500
Spot 1    -0.01276400    -0.01246883    -0.07450500
Spot 2    -0.01248826    -0.01246592    -0.07450500
Spot 1    -0.01276390    -0.01246878    -0.07450500
Spot 2    -0.01248809    -0.01246601    -0.07450500
20MABNDB000135_PR027
Spot 1    -0.01251436    -0.01319879    -0.07464700
Spot 2    -0.01229653    -0.01319948    -0.07464700
Spot 1    -0.01251461    -0.01319877    -0.07464700
Spot 2    -0.01229642    -0.01319941    -0.07464700
Spot 1    -0.01251439    -0.01319876    -0.07464700
Spot 2    -0.01229633    -0.01319945    -0.07464700
20MABNDB000126_PR028
Spot 1    -0.01253559    -0.01217350    -0.07500400
Spot 2    -0.01225299    -0.01217015    -0.07500400
Spot 1    -0.01253552    -0.01217352    -0.07500400
Spot 2    -0.01225303    -0.01217023    -0.07500400
Spot 1    -0.01253562    -0.01217360    -0.07500400
Spot 2    -0.01225288    -0.01217004    -0.07500400
20MABNDA000272_PR038
Spot 1    -0.01275695     0.01316049    -0.07417900
Spot 2    -0.01253574     0.01316200    -0.07417900
Spot 1    -0.01275685     0.01316077    -0.07417900
Spot 2    -0.01253570     0.01316203    -0.07417900
Spot 1    -0.01275702     0.01316099    -0.07417900
Spot 2    -0.01253565     0.01316211    -0.07417900
20MABNDA000003_PR039
Spot 1    -0.01279989     0.01212720    -0.07373400
Spot 2    -0.01307799     0.01212649    -0.07373400
Spot 1    -0.01279991     0.01212715    -0.07373400
Spot 2    -0.01307782     0.01212632    -0.07373400
Spot 1    -0.01279981     0.01212709    -0.07373400
Spot 2    -0.01307844     0.01212606    -0.07373400
20MABNDA000196_PR006
Spot 1    -0.01295413     0.01325150    -0.07967100
Spot 2    -0.01258795     0.01324889    -0.07967100
Spot 1    -0.01295421     0.01325145    -0.07967100
Spot 2    -0.01258777     0.01324889    -0.07967100
Spot 1    -0.01295410     0.01325149    -0.07967100
Spot 2    -0.01258804     0.01324908    -0.07967100
20MABNDA000324_PR007
Spot 1    -0.01254682     0.01280687    -0.07446800
Spot 2    -0.01234095     0.01280256    -0.07446800
Spot 1    -0.01254685     0.01280684    -0.07446800
Spot 2    -0.01234071     0.01280257    -0.07446800
Spot 1    -0.01254663     0.01280668    -0.07446800
Spot 2    -0.01234093     0.01280229    -0.07446800
20MABNDB000001_PR017
Spot 1    -0.01228673    -0.01355103    -0.07418400
Spot 2    -0.01191843    -0.01354615    -0.07418400
Spot 1    -0.01228673    -0.01355100    -0.07418400
Spot 2    -0.01191849    -0.01354618    -0.07418400
Spot 1    -0.01228658    -0.01355097    -0.07418400
Spot 2    -0.01191829    -0.01354634    -0.07418400
20MABNDB000260_PR019
Spot 1    -0.01241627    -0.01239542    -0.07492700
Spot 2    -0.01221266    -0.01239212    -0.07492700
Spot 1    -0.01241643    -0.01239568    -0.07492700
Spot 2    -0.01221268    -0.01239219    -0.07492700
Spot 1    -0.01241605    -0.01239549    -0.07492700
Spot 2    -0.01221292    -0.01239235    -0.07492700
20MABNDB000212_PR029
Spot 1    -0.01185922    -0.01327973    -0.07390500
Spot 2    -0.01221965    -0.01327578    -0.07390500
Spot 1    -0.01185918    -0.01327980    -0.07390500
Spot 2    -0.01221973    -0.01327577    -0.07390500
Spot 1    -0.01185939    -0.01327980    -0.07390500
Spot 2    -0.01221961    -0.01327594    -0.07390500
20MABNDB000128_PR030
Spot 1    -0.01244988    -0.01221769    -0.07353400
Spot 2    -0.01224459    -0.01222265    -0.07353400
Spot 1    -0.01244993    -0.01221799    -0.07353400
Spot 2    -0.01224479    -0.01222261    -0.07353400
Spot 1    -0.01244965    -0.01221805    -0.07353400
Spot 2    -0.01224458    -0.01222267    -0.07353400
20MABNDA000444_PR040
Spot 1    -0.01168614     0.01367473    -0.07412000
Spot 2    -0.01205339     0.01367287    -0.07412000
Spot 1    -0.01168628     0.01367457    -0.07412000
Spot 2    -0.01205314     0.01367352    -0.07412000
Spot 1    -0.01168587     0.01367489    -0.07412000
Spot 2    -0.01205349     0.01367314    -0.07412000
20MABNDA000053_PR041
Spot 1    -0.01241569     0.01211990    -0.07430100
Spot 2    -0.01220265     0.01211676    -0.07430100
Spot 1    -0.01241486     0.01211891    -0.07430100
Spot 2    -0.01220211     0.01211544    -0.07430100
Spot 1    -0.01241471     0.01211908    -0.07430100
Spot 2    -0.01220156     0.01211537    -0.07430100
20MABNDA000188_PR008
Spot 1    -0.01399107     0.01394961    -0.07502000
Spot 2    -0.01399107     0.01394961    -0.07502000
Spot 1    -0.01399107     0.01394961    -0.07502000
Spot 2    -0.01399107     0.01394961    -0.07502000
Spot 1    -0.01399107     0.01394961    -0.07502000
Spot 2    -0.01399107     0.01394961    -0.07502000
20MABNDA000188_PR018
Spot 1    -0.01272675     0.01231848    -0.07502000
Spot 2    -0.01225924     0.01231829    -0.07502000
Spot 1    -0.01272662     0.01231830    -0.07502000
Spot 2    -0.01225917     0.01231826    -0.07502000
Spot 1    -0.01272665     0.01231859    -0.07502000
Spot 2    -0.01225921     0.01231817    -0.07502000
20MABNDA000039_PR009
Spot 1    -0.01162636     0.01306397    -0.07444800
Spot 2    -0.01157880     0.01305972    -0.07444800
Spot 1    -0.01162640     0.01306412    -0.07444800
Spot 2    -0.01157836     0.01305982    -0.07444800
Spot 1    -0.01162622     0.01306356    -0.07444800
Spot 2    -0.01157875     0.01305967    -0.07444800
20MABNDA000039_PR011
Spot 1    -0.01372813     0.01396128    -0.07444800
Spot 2    -0.01355238     0.01396566    -0.07444800
Spot 1    -0.01372814     0.01396128    -0.07444800
Spot 2    -0.01355244     0.01396581    -0.07444800
Spot 1    -0.01372823     0.01396116    -0.07444800
Spot 2    -0.01355250     0.01396589    -0.07444800
20MABNDB000155_PR020
Spot 1    -0.01364186    -0.01312195    -0.07501700
Spot 2    -0.01357704    -0.01312566    -0.07501700
Spot 1    -0.01364221    -0.01312203    -0.07501700
Spot 2    -0.01357697    -0.01312529    -0.07501700
Spot 1    -0.01364192    -0.01312167    -0.07501700
Spot 2    -0.01357755    -0.01312528    -0.07501700
20MABNDB000155_PR022
Spot 1    -0.01213122    -0.01281108    -0.07501700
Spot 2    -0.01165832    -0.01280936    -0.07501700
Spot 1    -0.01213129    -0.01281108    -0.07501700
Spot 2    -0.01165846    -0.01280916    -0.07501700
20MABNDB000010_PR021
Spot 1    -0.01157932    -0.01292896    -0.07358200
Spot 2    -0.01174982    -0.01370546    -0.07358200
Spot 1    -0.01157917    -0.01292904    -0.07358200
Spot 2    -0.01174883    -0.01370444    -0.07358200
20MABNDB000010_PR023
Spot 1    -0.01311924    -0.01380202    -0.07358200
Spot 2    -0.01294307    -0.01379951    -0.07358200
Spot 1    -0.01311924    -0.01380191    -0.07358200
Spot 2    -0.01294292    -0.01379966    -0.07358200
20MABNDB000069_PR031
Spot 1    -0.01359290    -0.01286137    -0.07388500
Spot 2    -0.01352106    -0.01286567    -0.07388500
Spot 1    -0.01359339    -0.01286182    -0.07388500
Spot 2    -0.01352154    -0.01286549    -0.07388500
20MABNDB000069_PR033
Spot 1    -0.01202498    -0.01226714    -0.07388500
Spot 2    -0.01155387    -0.01226633    -0.07388500
Spot 1    -0.01202493    -0.01226703    -0.07388500
Spot 2    -0.01155355    -0.01226622    -0.07388500
20MABNDB000131_PR032
Spot 1    -0.01144593    -0.01303884    -0.07533000
Spot 2    -0.01138525    -0.01303569    -0.07533000
Spot 1    -0.01144577    -0.01303936    -0.07533000
Spot 2    -0.01138564    -0.01303556    -0.07533000
20MABNDB000131_PR034
Spot 1    -0.01330201    -0.01379894    -0.07533000
Spot 2    -0.01312574    -0.01379823    -0.07533000
Spot 1    -0.01330220    -0.01379903    -0.07533000
Spot 2    -0.01312560    -0.01379828    -0.07533000
20MABNDA000208_PR042
Spot 1    -0.01350924     0.01355101    -0.07273700
Spot 2    -0.01376277     0.01347284    -0.07273700
Spot 1    -0.01350913     0.01354707    -0.07273700
Spot 2    -0.01390234     0.01321751    -0.07273700
20MABNDA000208_PR046
Spot 1    -0.01230733     0.01174194    -0.07273700
Spot 2    -0.01189880     0.01184359    -0.07273700
Spot 1    -0.01230737     0.01174168    -0.07273700
Spot 2    -0.01188973     0.01181807    -0.07273700
20MABNDA000035_PR044
Spot 1    -0.01157255     0.01300682    -0.07483200
Spot 2    -0.01151440     0.01301253    -0.07483200
Spot 1    -0.01157279     0.01300699    -0.07483200
Spot 2    -0.01151453     0.01301231    -0.07483200
20MABNDA000035_PR045
Spot 1    -0.01336581     0.01381057    -0.07483200
Spot 2    -0.01318869     0.01381039    -0.07483200
Spot 1    -0.01336584     0.01381049    -0.07483200
Spot 2    -0.01318869     0.01381043    -0.07483200


*****************************************************************coordonnees du prisme dans le repere MOUNT********************************************************************************** 
20MABNDL000077_PR002
    0.05011318     0.04754604     3.70691442
    0.05010549     0.04756835     3.70691442
    0.05010092     0.04760643     3.70691442
20MABNDL000077_PR003
    0.02099590     0.02143000     3.89601803
    0.02098347     0.02143323     3.89601803
    0.02098393     0.02142726     3.89601803
20MABNDL000077_20MABNDM000168
   -0.05597933     0.07576916    -5.46843624
   -0.05597474     0.07577859    -5.46843624
   -0.05595127     0.07577919    -5.46843624
20MABNDL000077_PR024
    0.04569363     0.01708654    -5.89639807
    0.04569667     0.01709476    -5.89639807
    0.04572201     0.01709502    -5.89639807
20MABNDM000020_PR013
   -0.00364413    -0.01806414    -3.80243373
   -0.00362150    -0.01811105    -3.80243397
   -0.00364903    -0.01812307    -3.80243397
20MABNDM000020_PR014
   -0.06559020    -0.00496148    -4.74840927
   -0.06557181    -0.00493461    -4.74840975
   -0.06555273    -0.00499551    -4.74841022
20MABNDM000020_20MABNDL000196
    0.02684020    -0.07123806     5.39469719
    0.05908348    -0.06585794     5.39454889
    0.02683805    -0.07123734     5.39469719
20MABNDM000020_PR035
   -0.04244942    -0.00671528     5.80095387
   -0.04244596    -0.00672645     5.80095387
   -0.04242478    -0.00671836     5.80095482
20MABNDM000168_PR025
   -0.01186195    -0.04366633    -3.78878975
    0.01938617    -0.06578372    -3.78853941
    0.03967901    -0.07113322    -3.78826189
20MABNDM000168_PR026
   -0.05784261    -0.01388103    -3.98428988
   -0.05785203    -0.01386910    -3.98428988
   -0.05784317    -0.01387375    -3.98428988
20MABNDM000168_20MABNDL000077
    0.01156066    -0.03868933     5.38884687
    0.01155538    -0.03870686     5.38884687
    0.01153700    -0.03871018     5.38884687
20MABNDM000168_PR001
   -0.05735168    -0.01335626     5.81470585
   -0.05736499    -0.01336538     5.81470490
   -0.05735201    -0.01335238     5.81470585
20MABNDL000196_PR036
    0.05136582     0.00607827     3.68777275
    0.05137245     0.00607338     3.68777251
    0.05137002     0.00606576     3.68777251
20MABNDL000196_PR037
   -0.02507761     0.02839522     3.88381338
   -0.02507913     0.02838022     3.88381338
   -0.02507785     0.02838591     3.88381338
20MABNDL000196_20MABNDM000020
   -0.01569103     0.03792019    -5.47473907
   -0.01568777     0.03791918    -5.47473907
   -0.01569739     0.03791503    -5.47473907
20MABNDL000196_PR012
    0.05238824     0.01448126    -5.91537142
    0.05238931     0.01446651    -5.91537142
    0.05237492     0.01448644    -5.91537142
20MABNDA000318_PR004
   -0.00854693     0.03840147     2.74965906
   -0.00854967     0.03839944     2.74965906
   -0.00855113     0.03839687     2.74965906
20MABNDA000334_PR005
   -0.00431576     0.03173791     2.14977169
   -0.00431804     0.03174348     2.14977169
   -0.00431490     0.03174319     2.14977145
20MABNDB000317_PR015
   -0.01726903    -0.03377414     2.75129223
   -0.01726596    -0.03377210     2.75129223
   -0.01726995    -0.03377397     2.75129223
20MABNDB000146_PR016
   -0.01343339    -0.03157112     2.15201473
   -0.01343238    -0.03157083     2.15201473
   -0.01343627    -0.03157026     2.15201473
20MABNDB000135_PR027
   -0.02097130    -0.00978709     2.74937153
   -0.02096857    -0.00978877     2.74937153
   -0.02097424    -0.00978816     2.74937153
20MABNDB000126_PR028
   -0.02032076    -0.03895164     2.14679527
   -0.02032120    -0.03895007     2.14679527
   -0.02032190    -0.03895178     2.14679527
20MABNDA000272_PR038
   -0.01329000     0.01077289     2.74965858
   -0.01329258     0.01076721     2.74965858
   -0.01329039     0.01076171     2.74965858
20MABNDA000003_PR039
   -0.00599109     0.04121634     2.14891577
   -0.00599322     0.04121949     2.14891577
   -0.00598592     0.04122405     2.14891577
20MABNDA000196_PR006
   -0.01011198     0.00987991     1.64206314
   -0.01011318     0.00988047     1.64206338
   -0.01011135     0.00987793     1.64206314
20MABNDA000324_PR007
   -0.02552524     0.02795731     2.95549011
   -0.02552937     0.02795787     2.95549011
   -0.02552944     0.02796633     2.95549011
20MABNDB000001_PR017
   -0.02445849    -0.00283035     1.64035749
   -0.02445783    -0.00283035     1.64035749
   -0.02446164    -0.00282889     1.64035726
20MABNDB000260_PR019
   -0.02407220    -0.03851117     2.95627499
   -0.02406879    -0.03850460     2.95627499
   -0.02407134    -0.03850525     2.95627499
20MABNDB000212_PR029
   -0.02529196    -0.00847807     1.64223862
   -0.02529151    -0.00847752     1.64223862
   -0.02529051    -0.00847556     1.64223862
20MABNDB000128_PR030
   -0.01949002    -0.04673757     2.95496345
   -0.01948512    -0.04673244     2.95496368
   -0.01949476    -0.04673012     2.95496368
20MABNDA000444_PR040
   -0.03021336     0.00093147     1.64490891
   -0.03021461     0.00092609     1.64490891
   -0.03021527     0.00092674     1.64490891
20MABNDA000053_PR041
   -0.02650768     0.05109989     2.95450425
   -0.02653467     0.05114518     2.95450330
   -0.02654845     0.05114328     2.95450330
20MABNDA000188_PR008
    0.14616936    -0.09611703     9.20304298
    0.14616936    -0.09611703     9.20304298
    0.14616936    -0.09611703     9.20304298
20MABNDA000188_PR018
   -0.01618627     0.02579077     1.28358293
   -0.01618805     0.02579249     1.28358293
   -0.01618747     0.02579078     1.28358293
20MABNDA000039_PR009
   -0.17113702     0.02560645    11.00701618
   -0.17116633     0.02558829    11.00701523
   -0.17115076     0.02563942    11.00701618
20MABNDA000039_PR011
    0.03085697    -0.02409486     3.43347478
    0.03085855    -0.02409828     3.43347454
    0.03086198    -0.02409739     3.43347454
20MABNDB000155_PR020
    0.10159602    -0.00958797     9.20029068
    0.10161345    -0.00960554     9.20029068
    0.10163155    -0.00962862     9.20028877
20MABNDB000155_PR022
   -0.02605025    -0.01799173     1.28070199
   -0.02604843    -0.01799341     1.28070199
20MABNDB000010_PR021
   -0.16003707     0.02414603    11.00713062
   -0.16012044     0.02407697    11.00712967
20MABNDB000010_PR023
    0.00405182     0.02070392     3.43376851
    0.00404860     0.02070478     3.43376851
20MABNDB000069_PR031
    0.10228937    -0.03877865     9.20356178
    0.10234897    -0.03876208     9.20356083
20MABNDB000069_PR033
   -0.02684599    -0.02687358     1.28394103
   -0.02684915    -0.02687542     1.28394091
20MABNDB000131_PR032
   -0.18759939    -0.02948889    11.00642776
   -0.18758276    -0.02946031    11.00642872
20MABNDB000131_PR034
    0.01477109     0.01644969     3.43337536
    0.01477222     0.01645288     3.43337536
20MABNDA000208_PR042
    0.10050438    -0.04289516     9.20172787
    0.10906401    -0.02698196     9.20170212
20MABNDA000208_PR046
   -0.02311916     0.03466037     1.28208411
   -0.02319622     0.03488059     1.28207958
20MABNDA000035_PR044
   -0.18011034     0.02573266    11.00802231
   -0.18008325     0.02573686    11.00802231
20MABNDA000035_PR045
    0.01421053    -0.01950514     3.43483520
    0.01421122    -0.01950423     3.43483520


*****************************************************************coordonnees du prisme dans le repere ATLAS********************************************************************************** 
20MABNDL000077_PR002 0.00000000
    2.80949497    -3.69439554     6.48622084
    2.80947280    -3.69440317     6.48622084
    2.80943465    -3.69440770     6.48622084
20MABNDL000077_PR003 0.00000000
    2.83578730    -3.72375441     6.67526293
    2.83578396    -3.72376680     6.67526293
    2.83578992    -3.72376633     6.67526293
20MABNDL000077_20MABNDM000168 0.00000000
    2.77223825    -3.78915858    -2.68922138
    2.77222872    -3.78915381    -2.68922138
    2.77222824    -3.78913045    -2.68922138
20MABNDL000077_PR024 0.00000000
    2.83053350    -3.68697619    -3.11711478
    2.83052516    -3.68697309    -3.11711478
    2.83052492    -3.68694782    -3.11711478
20MABNDM000020_PR013 0.00000000
   -2.83424520    -3.73583984     6.48627615
   -2.83419824    -3.73586249     6.48627663
   -2.83418632    -3.73583508     6.48627663
20MABNDM000020_PR014 0.00000000
   -2.84713960    -3.67460918     7.43230152
   -2.84716654    -3.67462754     7.43230200
   -2.84710550    -3.67464662     7.43230200
20MABNDM000020_20MABNDL000196 0.00000000
   -2.78292131    -3.75934577    -2.71088576
   -2.78831124    -3.79158735    -2.71076083
   -2.78292203    -3.75934362    -2.71088576
20MABNDM000020_PR035 0.00000000
   -2.84750414    -3.68972731    -3.11707664
   -2.84749293    -3.68973088    -3.11707664
   -2.84750104    -3.68975210    -3.11707759
20MABNDM000168_PR025 0.00000000
    2.80957842    -3.73346138    -6.47941828
    2.78745270    -3.76470351    -6.47915506
    2.78209782    -3.78499484    -6.47886992
20MABNDM000168_PR026 0.00000000
    2.83936405    -3.68756127    -6.67493725
    2.83937597    -3.68755174    -6.67493725
    2.83937120    -3.68756056    -6.67493725
20MABNDM000168_20MABNDL000077 0.00000000
    2.81510615    -3.75347281     2.69822621
    2.81508875    -3.75346756     2.69822621
    2.81508541    -3.75344920     2.69822598
20MABNDM000168_PR001 0.00000000
    2.84048343    -3.68440890     3.12405777
    2.84047413    -3.68439555     3.12405682
    2.84048724    -3.68440843     3.12405777
20MABNDL000196_PR036 0.00000000
   -2.84752917    -3.69290853    -6.47909641
   -2.84753418    -3.69290209    -6.47909594
   -2.84754181    -3.69290447    -6.47909594
20MABNDL000196_PR037 0.00000000
   -2.82518101    -3.76952386    -6.67506599
   -2.82519603    -3.76952553    -6.67506599
   -2.82519031    -3.76952434    -6.67506599
20MABNDL000196_20MABNDM000020 0.00000000
   -2.81545806    -3.75142765     2.68347335
   -2.81545925    -3.75142431     2.68347335
   -2.81546330    -3.75143409     2.68347335
20MABNDL000196_PR012 0.00000000
   -2.83891916    -3.68294954     3.12404275
   -2.83893394    -3.68294835     3.12404275
   -2.83891392    -3.68296289     3.12404275
20MABNDA000318_PR004 0.00000000
    2.61445642    -4.19698858     3.83359718
    2.61445355    -4.19698858     3.83359933
    2.61445212    -4.19698858     3.83360171
20MABNDA000334_PR005 0.00000000
    2.61668277    -4.19703150     5.89752293
    2.61668062    -4.19703150     5.89751720
    2.61668372    -4.19703150     5.89751768
20MABNDB000317_PR015 0.00000000
   -2.61133814    -4.19700623     3.83624125
   -2.61134124    -4.19700623     3.83624339
   -2.61133718    -4.19700623     3.83624148
20MABNDB000146_PR016 0.00000000
   -2.61286187    -4.19702291     5.89877892
   -2.61286283    -4.19702291     5.89877939
   -2.61285901    -4.19702291     5.89877987
20MABNDB000135_PR027 0.00000000
    2.60389209    -4.19700384    -3.82557368
    2.60389471    -4.19700384    -3.82557201
    2.60388899    -4.19700384    -3.82557273
20MABNDB000126_PR028 0.00000000
    2.60559654    -4.19702101    -5.89326811
    2.60559607    -4.19702101    -5.89327002
    2.60559535    -4.19702101    -5.89326811
20MABNDA000272_PR038 0.00000000
   -2.61124682    -4.19698286    -3.82771134
   -2.61124444    -4.19698286    -3.82771707
   -2.61124659    -4.19698286    -3.82772255
20MABNDA000003_PR039 0.00000000
   -2.61574006    -4.19702101    -5.89155054
   -2.61573792    -4.19702101    -5.89154720
   -2.61574531    -4.19702101    -5.89154243
20MABNDA000196_PR006 0.00000000
    2.58457255    -4.19496584     6.54783630
    2.58457375    -4.19496536     6.54783678
    2.58457184    -4.19496584     6.54783440
20MABNDA000324_PR007 0.00000000
    2.59378958    -4.13996840     6.94795799
    2.59378552    -4.13996840     6.94795704
    2.59378529    -4.13996840     6.94794893
20MABNDB000001_PR017 0.00000000
   -2.59815979    -4.19506025     6.53815842
   -2.59815907    -4.19506025     6.53815842
   -2.59816289    -4.19506073     6.53815699
20MABNDB000260_PR019 0.00000000
   -2.60468960    -4.13995934     6.94213295
   -2.60469317    -4.13995934     6.94213915
   -2.60469055    -4.13995934     6.94213867
20MABNDB000212_PR029 0.00000000
    2.59896970    -4.19501019    -6.54746580
    2.59896922    -4.19501019    -6.54746532
    2.59896827    -4.19501019    -6.54746342
20MABNDB000128_PR030 0.00000000
    2.60936880    -4.14002657    -6.93138361
    2.60937357    -4.14002609    -6.93138885
    2.60936403    -4.14002609    -6.93139076
20MABNDA000444_PR040 0.00000000
   -2.60538578    -4.19510031    -6.54011154
   -2.60538721    -4.19510031    -6.54010630
   -2.60538769    -4.19510031    -6.54010677
20MABNDA000053_PR041 0.00000000
   -2.59403419    -4.14012671    -6.92681360
   -2.59400725    -4.14012718    -6.92676830
   -2.59399343    -4.14012718    -6.92677021
20MABNDA000188_PR008 0.00000000
    3.55893064     3.84859109     8.10764503
    3.55893064     3.84859109     8.10764503
    3.55893064     3.84859109     8.10764503
20MABNDA000188_PR018 0.00000000
    3.52095008    -4.07059622     7.89765787
    3.52094841    -4.07059622     7.89765644
    3.52094889    -4.07059622     7.89765787
20MABNDA000039_PR009 0.00000000
    3.87530899     3.64747429    12.93690014
    3.87533832     3.64747334    12.93688202
    3.87532282     3.64747429    12.93693352
20MABNDA000039_PR011 0.00000000
    3.66416717    -3.92580104    12.88474178
    3.66416550    -3.92580128    12.88473797
    3.66416216    -3.92580128    12.88473892
20MABNDB000155_PR020 0.00000000
   -3.68024826     3.84882498     7.89727926
   -3.68026567     3.84882474     7.89726162
   -3.68028378     3.84882283     7.89723873
20MABNDB000155_PR022 0.00000000
   -3.53393006    -4.07044172     7.89006758
   -3.53393197    -4.07044172     7.89006615
20MABNDB000010_PR021 0.00000000
   -3.84592485     3.64783239    12.87766933
   -3.84600830     3.64783168    12.87773895
20MABNDB000010_PR023 0.00000000
   -3.68561506    -3.92560816    12.88457203
   -3.68561816    -3.92560816    12.88457108
20MABNDB000069_PR031 0.00000000
    3.68400621     3.84875631    -7.90162420
    3.68406558     3.84875512    -7.90164042
20MABNDB000069_PR033 0.00000000
    3.53345346    -4.07046223    -7.87879801
    3.53345037    -4.07046223    -7.87879610
20MABNDB000131_PR032 0.00000000
    3.86840200     3.64757752   -12.94013119
    3.86838531     3.64757848   -12.94010258
20MABNDB000131_PR034 0.00000000
    3.67301822    -3.92564154   -12.89149761
    3.67301702    -3.92564154   -12.89149475
20MABNDA000208_PR042 0.00000000
   -3.65055156     3.84936404    -7.95436430
   -3.65911961     3.84935021    -7.93845606
20MABNDA000208_PR046 0.00000000
   -3.53264642    -4.07033777    -7.87385798
   -3.53256941    -4.07034206    -7.87363768
20MABNDA000035_PR044 0.00000000
   -3.86935115     3.64757752   -12.93141174
   -3.86932397     3.64757752   -12.93141556
20MABNDA000035_PR045 0.00000000
   -3.67651772    -3.92565203   -12.88687897
   -3.67651701    -3.92565203   -12.88687992


*****************************************************************Rapport********************************************************************************** 
CAM-LBA-US_EBA-US-HO-H         2018.09.23.13.17.53     2.80946747    -3.69440214     6.48622084     0.00002491     0.00000502     0.00000000 0.00000000 VRAI 
CAM-LBA-US_JDA-US-H            2018.09.23.13.17.53     2.83578706    -3.72376251     6.67526293     0.00000244     0.00000574     0.00000000 0.00000000 VRAI 
CAM-LBA-US_CAM-LBC-US          2018.09.23.13.17.53     2.77223174    -3.78914762    -2.68922138     0.00000461     0.00001229     0.00000000 0.00000000 VRAI 
CAM-LBA-US_EBC-US-IP-H         2018.09.23.13.17.53     2.83052786    -3.68696570    -3.11711478     0.00000399     0.00001271     0.00000000 0.00000000 VRAI 
CAM-LBA-USA_EBA-USA-HO-H       2018.09.23.13.17.53    -2.83420992    -3.73584580     6.48627647     0.00002542     0.00001196     0.00000022 0.00000000 VRAI 
CAM-LBA-USA_JDA-USA-H          2018.09.23.13.17.53    -2.84713721    -3.67462778     7.43230184     0.00002497     0.00001528     0.00000022 0.00000000 VRAI 
CAM-LBA-USA_CAM-LBC-USA        2018.09.23.13.17.53    -2.78471820    -3.77009225    -2.71084412     0.00254067     0.01519933     0.00005889 0.00000000 VRAI 
CAM-LBA-USA_EBC-USA-IP-H       2018.09.23.13.17.53    -2.84749937    -3.68973676    -3.11707695     0.00000472     0.00001094     0.00000045 0.00000000 VRAI 
CAM-LBC-US_EBC-US-HO-H         2018.09.23.13.17.53     2.79304298    -3.76105324    -6.47914775     0.01189494     0.02119619     0.00022393 0.00000000 VRAI 
CAM-LBC-US_JDC-US-H            2018.09.23.13.17.53     2.83937041    -3.68755786    -6.67493725     0.00000490     0.00000434     0.00000000 0.00000000 VRAI 
CAM-LBC-US_CAM-LBA-US          2018.09.23.13.17.53     2.81509344    -3.75346319     2.69822613     0.00000909     0.00001012     0.00000011 0.00000000 VRAI 
CAM-LBC-US_EBA-US-IP-H         2018.09.23.13.17.53     2.84048160    -3.68440429     3.12405745     0.00000551     0.00000618     0.00000045 0.00000000 VRAI 
CAM-LBC-USA_EBC-USA-HO-H       2018.09.23.13.17.53    -2.84753505    -3.69290503    -6.47909609     0.00000520     0.00000266     0.00000022 0.00000000 VRAI 
CAM-LBC-USA_JDC-USA-H          2018.09.23.13.17.53    -2.82518911    -3.76952457    -6.67506599     0.00000619     0.00000070     0.00000000 0.00000000 VRAI 
CAM-LBC-USA_CAM-LBA-USA        2018.09.23.13.17.53    -2.81546021    -3.75142868     2.68347335     0.00000225     0.00000406     0.00000000 0.00000000 VRAI 
CAM-LBC-USA_EBA-USA-IP-H       2018.09.23.13.17.53    -2.83892234    -3.68295360     3.12404275     0.00000848     0.00000659     0.00000000 0.00000000 VRAI 
CAM-EBA-US-IP_EBA-US-IP        2018.09.23.13.17.53     2.61445403    -4.19698858     3.83359941     0.00000178     0.00000000     0.00000185 0.00000000 VRAI 
CAM-EBA-US-HO_EBA-US-HO        2018.09.23.13.17.53     2.61668237    -4.19703150     5.89751927     0.00000130     0.00000000     0.00000259 0.00000000 VRAI 
CAM-EBA-USA-IP_EBA-USA-IP      2018.09.23.13.17.53    -2.61133885    -4.19700623     3.83624204     0.00000173     0.00000000     0.00000096 0.00000000 VRAI 
CAM-EBA-USA-HO_EBA-USA-HO      2018.09.23.13.17.53    -2.61286124    -4.19702291     5.89877939     0.00000162     0.00000000     0.00000039 0.00000000 VRAI 
CAM-EBC-US-IP_EBC-US-IP        2018.09.23.13.17.53     2.60389193    -4.19700384    -3.82557281     0.00000234     0.00000000     0.00000068 0.00000000 VRAI 
CAM-EBC-US-HO_EBC-US-HO        2018.09.23.13.17.53     2.60559599    -4.19702101    -5.89326874     0.00000049     0.00000000     0.00000090 0.00000000 VRAI 
CAM-EBC-USA-IP_EBC-USA-IP      2018.09.23.13.17.53    -2.61124595    -4.19698286    -3.82771699     0.00000107     0.00000000     0.00000458 0.00000000 VRAI 
CAM-EBC-USA-HO_EBC-USA-HO      2018.09.23.13.17.53    -2.61574109    -4.19702101    -5.89154673     0.00000310     0.00000000     0.00000333 0.00000000 VRAI 
CAM-JDA-US-IP_JDA-US-IP        2018.09.23.13.17.53     2.58457271    -4.19496568     6.54783583     0.00000079     0.00000022     0.00000103 0.00000000 VRAI 
CAM-JDA-US-HO_JDA-US-HO        2018.09.23.13.17.53     2.59378680    -4.13996840     6.94795465     0.00000197     0.00000000     0.00000406 0.00000000 VRAI 
CAM-JDA-USA-IP_JDA-USA-IP      2018.09.23.13.17.53    -2.59816058    -4.19506041     6.53815794     0.00000166     0.00000022     0.00000067 0.00000000 VRAI 
CAM-JDA-USA-HO_JDA-USA-HO      2018.09.23.13.17.53    -2.60469111    -4.13995934     6.94213692     0.00000151     0.00000000     0.00000282 0.00000000 VRAI 
CAM-JDC-US-IP_JDC-US-IP        2018.09.23.13.17.53     2.59896906    -4.19501019    -6.54746485     0.00000059     0.00000000     0.00000103 0.00000000 VRAI 
CAM-JDC-US-HO_JDC-US-HO        2018.09.23.13.17.53     2.60936880    -4.14002625    -6.93138774     0.00000389     0.00000022     0.00000302 0.00000000 VRAI 
CAM-JDC-USA-IP_JDC-USA-IP      2018.09.23.13.17.53    -2.60538689    -4.19510031    -6.54010820     0.00000081     0.00000000     0.00000237 0.00000000 VRAI 
CAM-JDC-USA-HO_JDC-USA-HO      2018.09.23.13.17.53    -2.59401162    -4.14012702    -6.92678404     0.00001693     0.00000022     0.00002092 0.00000000 VRAI 
CAM-ECTA-US-IP_ECTA-US-IP-T    2018.09.23.13.17.53     3.55893064     3.84859109     8.10764503     0.00000000     0.00000000     0.00000000 0.00000000 VRAI 
CAM-ECTA-US-IP_ECTA-US-IP      2018.09.23.13.17.53     3.52094913    -4.07059622     7.89765739     0.00000070     0.00000000     0.00000067 0.00000000 VRAI 
CAM-ECTA-US-HO_ECTA-US-HO-T    2018.09.23.13.17.53     3.87532338     3.64747397    12.93690523     0.00001198     0.00000045     0.00002133 0.00000000 VRAI 
CAM-ECTA-US-HO_ECTA-US-HO      2018.09.23.13.17.53     3.66416494    -3.92580120    12.88473956     0.00000208     0.00000011     0.00000162 0.00000000 VRAI 
CAM-ECTA-USA-IP_ECTA-USA-IP-T  2018.09.23.13.17.53    -3.68026590     3.84882418     7.89725987     0.00001450     0.00000096     0.00001659 0.00000000 VRAI 
CAM-ECTA-USA-IP_ECTA-USA-IP    2018.09.23.13.17.53    -3.53393102    -4.07044172     7.89006686     0.00000095     0.00000000     0.00000072 0.00000000 VRAI 
CAM-ECTA-USA-HO_ECTA-USA-HO-T  2018.09.23.13.17.53    -3.84596658     3.64783204    12.87770414     0.00004172     0.00000036     0.00003481 0.00000000 VRAI 
CAM-ECTA-USA-HO_ECTA-USA-HO    2018.09.23.13.17.53    -3.68561661    -3.92560816    12.88457155     0.00000155     0.00000000     0.00000048 0.00000000 VRAI 
CAM-ECTC-US-IP_ECTC-US-IP-T    2018.09.23.13.17.53     3.68403590     3.84875572    -7.90163231     0.00002968     0.00000060     0.00000811 0.00000000 VRAI 
CAM-ECTC-US-IP_ECTC-US-IP      2018.09.23.13.17.53     3.53345191    -4.07046223    -7.87879705     0.00000155     0.00000000     0.00000095 0.00000000 VRAI 
CAM-ECTC-US-HO_ECTC-US-HO-T    2018.09.23.13.17.53     3.86839366     3.64757800   -12.94011688     0.00000834     0.00000048     0.00001431 0.00000000 VRAI 
CAM-ECTC-US-HO_ECTC-US-HO      2018.09.23.13.17.53     3.67301762    -3.92564154   -12.89149618     0.00000060     0.00000000     0.00000143 0.00000000 VRAI 
CAM-ECTC-USA-IP_ECTC-USA-IP-T  2018.09.23.13.17.53    -3.65483558     3.84935713    -7.94641018     0.00428402     0.00000691     0.00795412 0.00000000 VRAI 
CAM-ECTC-USA-IP_ECTC-USA-IP    2018.09.23.13.17.53    -3.53260791    -4.07033992    -7.87374783     0.00003850     0.00000215     0.00011015 0.00000000 VRAI 
CAM-ECTC-USA-HO_ECTC-USA-HO-T  2018.09.23.13.17.53    -3.86933756     3.64757752   -12.93141365     0.00001359     0.00000000     0.00000191 0.00000000 VRAI 
CAM-ECTC-USA-HO_ECTC-USA-HO    2018.09.23.13.17.53    -3.67651737    -3.92565203   -12.88687944     0.00000036     0.00000000     0.00000048 0.00000000 VRAI 
