********** Fichier qui contient une sauvegarde des coordonnees images + coordonnees images transformees dans le repere BCAM (MOUNT) + coordonnees des prismes dans le repere MOUNT********** 
********************************************************************** Unite en metres (m)************************************************************************************************** 

*******************************************************************coordonnees images dans le repere CCD *********************************************************************************** 
20MABNDL000077_PR002
Spot 1     0.00121594     0.00149130
Spot 2     0.00052500     0.00043500
Spot 1     0.00121663     0.00148718
Spot 2     0.00086500     0.00006500
Spot 1     0.00121843     0.00149098
Spot 2     0.00052500     0.00043500
20MABNDL000077_PR003
Spot 1     0.00138219     0.00148673
Spot 2     0.00153356     0.00148814
Spot 1     0.00138199     0.00148664
Spot 2     0.00153331     0.00148807
Spot 1     0.00138214     0.00148685
Spot 2     0.00153320     0.00148799
20MABNDL000077_20MABNDM000168
Spot 1     0.00175500     0.00118444
Spot 2     0.00157791     0.00121075
Spot 1     0.00175494     0.00118439
Spot 2     0.00157762     0.00121304
Spot 1     0.00175494     0.00118427
Spot 2     0.00157778     0.00121094
20MABNDL000077_PR024
Spot 1     0.00254557     0.00144845
Spot 2     0.00264469     0.00145510
Spot 1     0.00254523     0.00144824
Spot 2     0.00264464     0.00145495
Spot 1     0.00254513     0.00144823
Spot 2     0.00264466     0.00145489
20MABNDM000020_PR013
Spot 1     0.00163025     0.00152383
Spot 2     0.00147631     0.00152990
Spot 1     0.00163004     0.00152355
Spot 2     0.00147637     0.00152964
Spot 1     0.00163029     0.00152322
Spot 2     0.00147624     0.00152948
20MABNDM000020_PR014
Spot 1     0.00266047     0.00168772
Spot 2     0.00249679     0.00169105
Spot 1     0.00266045     0.00168753
Spot 2     0.00249673     0.00169102
Spot 1     0.00266049     0.00168771
Spot 2     0.00249680     0.00169085
20MABNDM000020_20MABNDL000196
Spot 1     0.00198023     0.00117915
Spot 2     0.00230500     0.00010500
Spot 1     0.00198029     0.00117899
Spot 2     0.00230500     0.00010500
Spot 1     0.00198017     0.00117891
Spot 2     0.00230500     0.00010500
20MABNDM000020_PR035
Spot 1     0.00126849     0.00149899
Spot 2     0.00118919     0.00153115
Spot 1     0.00126867     0.00149904
Spot 2     0.00118938     0.00153128
Spot 1     0.00126869     0.00149914
Spot 2     0.00118935     0.00153109
20MABNDM000168_PR025
Spot 1     0.00117697     0.00129837
Spot 2     0.00102259     0.00129917
Spot 1     0.00117693     0.00129854
Spot 2     0.00102251     0.00129927
Spot 1     0.00117701     0.00129852
Spot 2     0.00102250     0.00129946
20MABNDM000168_PR026
Spot 1     0.00266760     0.00142954
Spot 2     0.00250630     0.00142620
Spot 1     0.00266776     0.00142961
Spot 2     0.00250626     0.00142596
Spot 1     0.00266758     0.00142950
Spot 2     0.00250611     0.00142611
20MABNDM000168_20MABNDL000077
Spot 1     0.00154326     0.00130038
Spot 2     0.00175957     0.00130486
Spot 1     0.00154319     0.00130036
Spot 2     0.00175972     0.00130573
Spot 1     0.00154314     0.00130042
Spot 2     0.00176004     0.00130632
20MABNDM000168_PR001
Spot 1     0.00080943     0.00161876
Spot 2     0.00070560     0.00162049
Spot 1     0.00080959     0.00161852
Spot 2     0.00070660     0.00162115
Spot 1     0.00080964     0.00161857
Spot 2     0.00070636     0.00162104
20MABNDL000196_PR036
Spot 1     0.00094481     0.00163308
Spot 2     0.00111002     0.00163246
Spot 1     0.00094479     0.00163302
Spot 2     0.00110979     0.00163207
Spot 1     0.00094495     0.00163289
Spot 2     0.00110989     0.00163247
20MABNDL000196_PR037
Spot 1     0.00246375     0.00116930
Spot 2     0.00262070     0.00116744
Spot 1     0.00246386     0.00116916
Spot 2     0.00262053     0.00116752
Spot 1     0.00246370     0.00116952
Spot 2     0.00262047     0.00116755
20MABNDL000196_20MABNDM000020
Spot 1     0.00192203     0.00104401
Spot 2     0.00170083     0.00104979
Spot 1     0.00192197     0.00104386
Spot 2     0.00170090     0.00104945
Spot 1     0.00192222     0.00104393
Spot 2     0.00170092     0.00104945
20MABNDL000196_PR012
Spot 1     0.00264714     0.00134382
Spot 2     0.00272098     0.00139050
Spot 1     0.00264744     0.00134372
Spot 2     0.00272087     0.00139051
Spot 1     0.00264735     0.00134372
Spot 2     0.00272097     0.00139045
20MABNDA000318_PR004
Spot 1     0.00192526     0.00162827
Spot 2     0.00214448     0.00162712
Spot 1     0.00192548     0.00162829
Spot 2     0.00214469     0.00162699
Spot 1     0.00192523     0.00162823
Spot 2     0.00214461     0.00162685
20MABNDA000334_PR005
Spot 1     0.00247402     0.00159079
Spot 2     0.00219369     0.00159162
Spot 1     0.00247400     0.00159074
Spot 2     0.00219380     0.00159190
Spot 1     0.00247401     0.00159082
Spot 2     0.00219361     0.00159180
20MABNDB000317_PR015
Spot 1     0.00170542     0.00158643
Spot 2     0.00148471     0.00159324
Spot 1     0.00170534     0.00158662
Spot 2     0.00148459     0.00159321
Spot 1     0.00170540     0.00158666
Spot 2     0.00148438     0.00159321
20MABNDB000146_PR016
Spot 1     0.00144251     0.00132749
Spot 2     0.00171938     0.00132983
Spot 1     0.00144227     0.00132752
Spot 2     0.00171930     0.00132977
Spot 1     0.00144237     0.00132760
Spot 2     0.00171909     0.00132995
20MABNDB000135_PR027
Spot 1     0.00188821     0.00091570
Spot 2     0.00210645     0.00091790
Spot 1     0.00188816     0.00091553
Spot 2     0.00210643     0.00091786
Spot 1     0.00188822     0.00091554
Spot 2     0.00210637     0.00091789
20MABNDB000126_PR028
Spot 1     0.00164152     0.00201013
Spot 2     0.00192479     0.00201061
Spot 1     0.00164142     0.00201012
Spot 2     0.00192479     0.00201060
Spot 1     0.00164148     0.00201026
Spot 2     0.00192505     0.00201082
20MABNDA000272_PR038
Spot 1     0.00192206     0.00095022
Spot 2     0.00169844     0.00094894
Spot 1     0.00192206     0.00095016
Spot 2     0.00169831     0.00094895
Spot 1     0.00192223     0.00095029
Spot 2     0.00169843     0.00094916
20MABNDA000003_PR039
Spot 1     0.00199929     0.00192512
Spot 2     0.00227794     0.00192546
Spot 1     0.00199926     0.00192518
Spot 2     0.00227783     0.00192546
Spot 1     0.00199932     0.00192506
Spot 2     0.00227799     0.00192558
20MABNDA000196_PR006
Spot 1     0.00199951     0.00072324
Spot 2     0.00163267     0.00072064
Spot 1     0.00199946     0.00072343
Spot 2     0.00163271     0.00072065
Spot 1     0.00199931     0.00072325
Spot 2     0.00163267     0.00072102
20MABNDA000324_PR007
Spot 1     0.00194151     0.00122014
Spot 2     0.00173363     0.00122529
Spot 1     0.00173352     0.00122522
Spot 2     0.00194159     0.00122027
Spot 1     0.00194155     0.00121997
Spot 2     0.00173347     0.00122537
20MABNDB000001_PR017
Spot 1     0.00189520     0.00043522
Spot 2     0.00226386     0.00044455
Spot 1     0.00189513     0.00043523
Spot 2     0.00226442     0.00044442
Spot 1     0.00189520     0.00043518
Spot 2     0.00226380     0.00044460
20MABNDB000260_PR019
Spot 1     0.00191811     0.00151131
Spot 2     0.00212232     0.00151061
Spot 1     0.00191799     0.00151145
Spot 2     0.00212284     0.00151041
Spot 1     0.00191803     0.00151162
Spot 2     0.00212243     0.00151071
20MABNDB000212_PR029
Spot 1     0.00222873     0.00070218
Spot 2     0.00186716     0.00070254
Spot 1     0.00222870     0.00070217
Spot 2     0.00186718     0.00070244
Spot 1     0.00222860     0.00070234
Spot 2     0.00186726     0.00070252
20MABNDB000128_PR030
Spot 1     0.00190589     0.00200525
Spot 2     0.00211186     0.00199830
Spot 1     0.00190589     0.00200510
Spot 2     0.00211187     0.00199844
Spot 1     0.00190619     0.00200516
Spot 2     0.00211199     0.00199861
20MABNDA000444_PR040
Spot 1     0.00074285     0.00035574
Spot 2     0.00111100     0.00035240
Spot 1     0.00074295     0.00035582
Spot 2     0.00111060     0.00035320
Spot 1     0.00074271     0.00035584
Spot 2     0.00111088     0.00035206
20MABNDA000053_PR041
Spot 1     0.00165508     0.00199412
Spot 2     0.00144446     0.00199194
Spot 1     0.00165536     0.00199384
Spot 2     0.00144434     0.00199169
Spot 1     0.00165497     0.00199426
Spot 2     0.00144486     0.00199066
20MABNDA000188_PR008
Spot 1     0.00297500     0.00011500
Spot 2     0.00297500     0.00011500
Spot 1     0.00297500     0.00011500
Spot 2     0.00297500     0.00011500
Spot 1     0.00297500     0.00011500
Spot 2     0.00297500     0.00011500
20MABNDA000188_PR018
Spot 1     0.00159461     0.00152481
Spot 2     0.00112623     0.00152147
Spot 1     0.00159481     0.00152513
Spot 2     0.00112627     0.00152163
Spot 1     0.00159467     0.00152507
Spot 2     0.00112617     0.00152170
20MABNDA000039_PR009
Spot 1     0.00066000     0.00121000
Spot 2     0.00061015     0.00121350
Spot 1     0.00066035     0.00120987
Spot 2     0.00061002     0.00121383
Spot 1     0.00066054     0.00120953
Spot 2     0.00061041     0.00121354
20MABNDA000039_PR011
Spot 1     0.00276023     0.00036457
Spot 2     0.00258367     0.00035960
Spot 1     0.00276045     0.00036466
Spot 2     0.00258363     0.00035966
Spot 1     0.00276035     0.00036463
Spot 2     0.00258359     0.00035973
20MABNDB000155_PR020
Spot 1     0.00067102     0.00109946
Spot 2     0.00074197     0.00109574
Spot 1     0.00067063     0.00109952
Spot 2     0.00074168     0.00109602
Spot 1     0.00067093     0.00110004
Spot 2     0.00074169     0.00109624
20MABNDB000155_PR022
Spot 1     0.00225315     0.00119859
Spot 2     0.00272786     0.00119218
Spot 1     0.00225317     0.00119855
Spot 2     0.00272795     0.00119209
Spot 1     0.00225291     0.00119851
Spot 2     0.00272802     0.00119204
20MABNDB000010_PR021
Spot 1     0.00286527     0.00118199
Spot 2     0.00270304     0.00094356
Spot 1     0.00286527     0.00118161
Spot 2     0.00270269     0.00094345
Spot 1     0.00286518     0.00118181
Spot 2     0.00270335     0.00094412
20MABNDB000010_PR023
Spot 1     0.00130758     0.00038433
Spot 2     0.00148547     0.00038063
Spot 1     0.00130772     0.00038438
Spot 2     0.00148527     0.00038095
Spot 1     0.00130755     0.00038448
Spot 2     0.00148546     0.00038094
20MABNDB000069_PR031
Spot 1     0.00032096     0.00138140
Spot 2     0.00038948     0.00138395
Spot 1     0.00032041     0.00138284
Spot 2     0.00038875     0.00138521
Spot 1     0.00032090     0.00138188
Spot 2     0.00038882     0.00138468
20MABNDB000069_PR033
Spot 1     0.00190776     0.00183247
Spot 2     0.00237890     0.00185239
Spot 1     0.00190780     0.00183237
Spot 2     0.00237880     0.00185260
Spot 1     0.00190768     0.00183240
Spot 2     0.00237877     0.00185234
20MABNDB000131_PR032
Spot 1     0.00277406     0.00111067
Spot 2     0.00283445     0.00111413
Spot 1     0.00277375     0.00111095
Spot 2     0.00283422     0.00111392
Spot 1     0.00277398     0.00111088
Spot 2     0.00283426     0.00111402
20MABNDB000131_PR034
Spot 1     0.00091388     0.00041802
Spot 2     0.00109029     0.00041723
Spot 1     0.00091364     0.00041803
Spot 2     0.00109015     0.00041740
Spot 1     0.00091392     0.00041792
Spot 2     0.00109033     0.00041738
20MABNDA000208_PR042
Spot 1     0.00300369     0.00093079
Spot 2     0.00304500     0.00138500
Spot 1     0.00300457     0.00093055
Spot 2     0.00304500     0.00138500
20MABNDA000208_PR046
Spot 1     0.00130870     0.00200505
Spot 2     0.00090309     0.00193790
Spot 1     0.00131163     0.00201160
Spot 2     0.00087892     0.00197653
20MABNDA000035_PR044
Spot 1     0.00073956     0.00128171
Spot 2     0.00067773     0.00127664
Spot 1     0.00073939     0.00128168
Spot 2     0.00067782     0.00127641
20MABNDA000035_PR045
Spot 1     0.00253584     0.00054263
Spot 2     0.00235845     0.00054095
Spot 1     0.00253586     0.00054265
Spot 2     0.00235814     0.00054119


****************************************************************coordonnees images transformees dans le repere MOUNT************************************************************************* 
20MABNDL000077_PR002
Spot 1     0.01228616     0.03556272    -0.07463200
Spot 2     0.01158509     0.03451311    -0.07463200
Spot 1     0.01228681     0.03555859    -0.07463200
Spot 2     0.01192151     0.03413986    -0.07463200
Spot 1     0.01228865     0.03556237    -0.07463200
Spot 2     0.01158509     0.03451311    -0.07463200
20MABNDL000077_PR003
Spot 1     0.01245236     0.03555655    -0.07463200
Spot 2     0.01260374     0.03555650    -0.07463200
Spot 1     0.01245216     0.03555646    -0.07463200
Spot 2     0.01260349     0.03555643    -0.07463200
Spot 1     0.01245231     0.03555667    -0.07463200
Spot 2     0.01260337     0.03555635    -0.07463200
20MABNDL000077_20MABNDM000168
Spot 1    -0.01259015     0.03524745    -0.00695400
Spot 2    -0.01241333     0.03527557    -0.00695400
Spot 1    -0.01259009     0.03524740    -0.00695400
Spot 2    -0.01241307     0.03527786    -0.00695400
Spot 1    -0.01259008     0.03524728    -0.00695400
Spot 2    -0.01241321     0.03527576    -0.00695400
20MABNDL000077_PR024
Spot 1    -0.01338338     0.03550335    -0.00695400
Spot 2    -0.01348256     0.03550899    -0.00695400
Spot 1    -0.01338303     0.03550314    -0.00695400
Spot 2    -0.01348251     0.03550884    -0.00695400
Spot 1    -0.01338293     0.03550314    -0.00695400
Spot 2    -0.01348253     0.03550878    -0.00695400
20MABNDM000020_PR013
Spot 1    -0.01272876    -0.03548244    -0.00523500
Spot 2    -0.01288253    -0.03549192    -0.00523500
Spot 1    -0.01272898    -0.03548217    -0.00523500
Spot 2    -0.01288247    -0.03549166    -0.00523500
Spot 1    -0.01272873    -0.03548183    -0.00523500
Spot 2    -0.01288261    -0.03549150    -0.00523500
20MABNDM000020_PR014
Spot 1    -0.01169517    -0.03562351    -0.00523500
Spot 2    -0.01185873    -0.03563046    -0.00523500
Spot 1    -0.01169519    -0.03562332    -0.00523500
Spot 2    -0.01185880    -0.03563043    -0.00523500
Spot 1    -0.01169515    -0.03562350    -0.00523500
Spot 2    -0.01185873    -0.03563026    -0.00523500
20MABNDM000020_20MABNDL000196
Spot 1     0.01270605    -0.03514771    -0.07583800
Spot 2     0.01238113    -0.03407361    -0.07583800
Spot 1     0.01270599    -0.03514755    -0.07583800
Spot 2     0.01238113    -0.03407361    -0.07583800
Spot 1     0.01270611    -0.03514747    -0.07583800
Spot 2     0.01238113    -0.03407361    -0.07583800
20MABNDM000020_PR035
Spot 1     0.01341783    -0.03546746    -0.07583800
Spot 2     0.01349714    -0.03549960    -0.07583800
Spot 1     0.01341765    -0.03546751    -0.07583800
Spot 2     0.01349695    -0.03549973    -0.07583800
Spot 1     0.01341763    -0.03546761    -0.07583800
Spot 2     0.01349698    -0.03549954    -0.07583800
20MABNDM000168_PR025
Spot 1    -0.01322591    -0.03563555    -0.00532900
Spot 2    -0.01338029    -0.03563702    -0.00532900
Spot 1    -0.01322595    -0.03563572    -0.00532900
Spot 2    -0.01338037    -0.03563712    -0.00532900
Spot 1    -0.01322587    -0.03563570    -0.00532900
Spot 2    -0.01338038    -0.03563731    -0.00532900
20MABNDM000168_PR026
Spot 1    -0.01173473    -0.03576032    -0.00532900
Spot 2    -0.01189605    -0.03575767    -0.00532900
Spot 1    -0.01173457    -0.03576039    -0.00532900
Spot 2    -0.01189609    -0.03575743    -0.00532900
Spot 1    -0.01173475    -0.03576028    -0.00532900
Spot 2    -0.01189624    -0.03575758    -0.00532900
20MABNDM000168_20MABNDL000077
Spot 1     0.01288220    -0.03530099    -0.07445100
Spot 2     0.01266584    -0.03530230    -0.07445100
Spot 1     0.01288227    -0.03530097    -0.07445100
Spot 2     0.01266568    -0.03530317    -0.07445100
Spot 1     0.01288232    -0.03530103    -0.07445100
Spot 2     0.01266535    -0.03530375    -0.07445100
20MABNDM000168_PR001
Spot 1     0.01361129    -0.03563007    -0.07445100
Spot 2     0.01371508    -0.03563332    -0.07445100
Spot 1     0.01361113    -0.03562983    -0.07445100
Spot 2     0.01371407    -0.03563396    -0.07445100
Spot 1     0.01361108    -0.03562988    -0.07445100
Spot 2     0.01371432    -0.03563386    -0.07445100
20MABNDL000196_PR036
Spot 1     0.01192475     0.03582177    -0.07483600
Spot 2     0.01208996     0.03582150    -0.07483600
Spot 1     0.01192473     0.03582171    -0.07483600
Spot 2     0.01208973     0.03582111    -0.07483600
Spot 1     0.01192489     0.03582158    -0.07483600
Spot 2     0.01208983     0.03582151    -0.07483600
20MABNDL000196_PR037
Spot 1     0.01344465     0.03536116    -0.07483600
Spot 2     0.01360161     0.03535963    -0.07483600
Spot 1     0.01344476     0.03536102    -0.07483600
Spot 2     0.01360144     0.03535971    -0.07483600
Spot 1     0.01344460     0.03536138    -0.07483600
Spot 2     0.01360138     0.03535974    -0.07483600
20MABNDL000196_20MABNDM000020
Spot 1    -0.01274613     0.03531529    -0.00611000
Spot 2    -0.01252509     0.03532552    -0.00611000
Spot 1    -0.01274607     0.03531514    -0.00611000
Spot 2    -0.01252516     0.03532518    -0.00611000
Spot 1    -0.01274632     0.03531521    -0.00611000
Spot 2    -0.01252518     0.03532518    -0.00611000
20MABNDL000196_PR012
Spot 1    -0.01347713     0.03560045    -0.00611000
Spot 2    -0.01355189     0.03564564    -0.00611000
Spot 1    -0.01347742     0.03560034    -0.00611000
Spot 2    -0.01355178     0.03564565    -0.00611000
Spot 1    -0.01347733     0.03560035    -0.00611000
Spot 2    -0.01355188     0.03564559    -0.00611000
20MABNDA000318_PR004
Spot 1    -0.01264507     0.01246761    -0.07310600
Spot 2    -0.01286430     0.01246812    -0.07310600
Spot 1    -0.01264529     0.01246759    -0.07310600
Spot 2    -0.01286451     0.01246825    -0.07310600
Spot 1    -0.01264504     0.01246765    -0.07310600
Spot 2    -0.01286443     0.01246839    -0.07310600
20MABNDA000334_PR005
Spot 1    -0.01311714     0.01253761    -0.07324100
Spot 2    -0.01283681     0.01253651    -0.07324100
Spot 1    -0.01311712     0.01253766    -0.07324100
Spot 2    -0.01283692     0.01253623    -0.07324100
Spot 1    -0.01311713     0.01253758    -0.07324100
Spot 2    -0.01283673     0.01253633    -0.07324100
20MABNDB000317_PR015
Spot 1    -0.01244873    -0.01250908    -0.07326100
Spot 2    -0.01266950    -0.01250484    -0.07326100
Spot 1    -0.01244881    -0.01250889    -0.07326100
Spot 2    -0.01266962    -0.01250487    -0.07326100
Spot 1    -0.01244875    -0.01250885    -0.07326100
Spot 2    -0.01266983    -0.01250487    -0.07326100
20MABNDB000146_PR016
Spot 1    -0.01276584    -0.01246613    -0.07450500
Spot 2    -0.01248898    -0.01246317    -0.07450500
Spot 1    -0.01276608    -0.01246610    -0.07450500
Spot 2    -0.01248906    -0.01246323    -0.07450500
Spot 1    -0.01276598    -0.01246602    -0.07450500
Spot 2    -0.01248927    -0.01246305    -0.07450500
20MABNDB000135_PR027
Spot 1    -0.01251646    -0.01319729    -0.07464700
Spot 2    -0.01229821    -0.01319752    -0.07464700
Spot 1    -0.01251652    -0.01319746    -0.07464700
Spot 2    -0.01229823    -0.01319756    -0.07464700
Spot 1    -0.01251646    -0.01319745    -0.07464700
Spot 2    -0.01229829    -0.01319753    -0.07464700
20MABNDB000126_PR028
Spot 1    -0.01253802    -0.01217206    -0.07500400
Spot 2    -0.01225476    -0.01217007    -0.07500400
Spot 1    -0.01253812    -0.01217207    -0.07500400
Spot 2    -0.01225476    -0.01217008    -0.07500400
Spot 1    -0.01253806    -0.01217193    -0.07500400
Spot 2    -0.01225450    -0.01216985    -0.07500400
20MABNDA000272_PR038
Spot 1    -0.01275771     0.01316125    -0.07417900
Spot 2    -0.01253409     0.01316213    -0.07417900
Spot 1    -0.01275771     0.01316131    -0.07417900
Spot 2    -0.01253396     0.01316212    -0.07417900
Spot 1    -0.01275788     0.01316118    -0.07417900
Spot 2    -0.01253408     0.01316191    -0.07417900
20MABNDA000003_PR039
Spot 1    -0.01280037     0.01212714    -0.07373400
Spot 2    -0.01307902     0.01212751    -0.07373400
Spot 1    -0.01280034     0.01212708    -0.07373400
Spot 2    -0.01307891     0.01212751    -0.07373400
Spot 1    -0.01280040     0.01212720    -0.07373400
Spot 2    -0.01307907     0.01212739    -0.07373400
20MABNDA000196_PR006
Spot 1    -0.01295414     0.01325516    -0.07967100
Spot 2    -0.01258729     0.01325304    -0.07967100
Spot 1    -0.01295409     0.01325497    -0.07967100
Spot 2    -0.01258733     0.01325303    -0.07967100
Spot 1    -0.01295394     0.01325514    -0.07967100
Spot 2    -0.01258730     0.01325266    -0.07967100
20MABNDA000324_PR007
Spot 1    -0.01254716     0.01280148    -0.07446800
Spot 2    -0.01233925     0.01279796    -0.07446800
Spot 1    -0.01233914     0.01279803    -0.07446800
Spot 2    -0.01254724     0.01280135    -0.07446800
Spot 1    -0.01254720     0.01280165    -0.07446800
Spot 2    -0.01233909     0.01279788    -0.07446800
20MABNDB000001_PR017
Spot 1    -0.01229320    -0.01355439    -0.07418400
Spot 2    -0.01192446    -0.01354896    -0.07418400
Spot 1    -0.01229327    -0.01355438    -0.07418400
Spot 2    -0.01192390    -0.01354910    -0.07418400
Spot 1    -0.01229320    -0.01355443    -0.07418400
Spot 2    -0.01192452    -0.01354891    -0.07418400
20MABNDB000260_PR019
Spot 1    -0.01241341    -0.01239133    -0.07492700
Spot 2    -0.01220922    -0.01238784    -0.07492700
Spot 1    -0.01241353    -0.01239119    -0.07492700
Spot 2    -0.01220870    -0.01238803    -0.07492700
Spot 1    -0.01241349    -0.01239102    -0.07492700
Spot 2    -0.01220912    -0.01238774    -0.07492700
20MABNDB000212_PR029
Spot 1    -0.01185910    -0.01327904    -0.07390500
Spot 2    -0.01222065    -0.01327482    -0.07390500
Spot 1    -0.01185913    -0.01327905    -0.07390500
Spot 2    -0.01222063    -0.01327492    -0.07390500
Spot 1    -0.01185923    -0.01327887    -0.07390500
Spot 2    -0.01222055    -0.01327484    -0.07390500
20MABNDB000128_PR030
Spot 1    -0.01244925    -0.01221205    -0.07353400
Spot 2    -0.01224325    -0.01221828    -0.07353400
Spot 1    -0.01244925    -0.01221220    -0.07353400
Spot 2    -0.01224324    -0.01221814    -0.07353400
Spot 1    -0.01244895    -0.01221214    -0.07353400
Spot 2    -0.01224312    -0.01221797    -0.07353400
20MABNDA000444_PR040
Spot 1    -0.01168266     0.01367410    -0.07412000
Spot 2    -0.01205082     0.01367277    -0.07412000
Spot 1    -0.01168275     0.01367402    -0.07412000
Spot 2    -0.01205041     0.01367198    -0.07412000
Spot 1    -0.01168251     0.01367401    -0.07412000
Spot 2    -0.01205070     0.01367311    -0.07412000
20MABNDA000053_PR041
Spot 1    -0.01241181     0.01211638    -0.07430100
Spot 2    -0.01220119     0.01211445    -0.07430100
Spot 1    -0.01241209     0.01211667    -0.07430100
Spot 2    -0.01220106     0.01211470    -0.07430100
Spot 1    -0.01241170     0.01211624    -0.07430100
Spot 2    -0.01220156     0.01211574    -0.07430100
20MABNDA000188_PR008
Spot 1    -0.01399107     0.01394961    -0.07502000
Spot 2    -0.01399107     0.01394961    -0.07502000
Spot 1    -0.01399107     0.01394961    -0.07502000
Spot 2    -0.01399107     0.01394961    -0.07502000
Spot 1    -0.01399107     0.01394961    -0.07502000
Spot 2    -0.01399107     0.01394961    -0.07502000
20MABNDA000188_PR018
Spot 1    -0.01262280     0.01252803    -0.07502000
Spot 2    -0.01215441     0.01252736    -0.07502000
Spot 1    -0.01262300     0.01252771    -0.07502000
Spot 2    -0.01215445     0.01252720    -0.07502000
Spot 1    -0.01262286     0.01252777    -0.07502000
Spot 2    -0.01215435     0.01252713    -0.07502000
20MABNDA000039_PR009
Spot 1    -0.01162228     0.01303412    -0.07444800
Spot 2    -0.01157244     0.01303040    -0.07444800
Spot 1    -0.01162263     0.01303425    -0.07444800
Spot 2    -0.01157232     0.01303007    -0.07444800
Spot 1    -0.01162282     0.01303459    -0.07444800
Spot 2    -0.01157271     0.01303036    -0.07444800
20MABNDA000039_PR011
Spot 1    -0.01371883     0.01388863    -0.07444800
Spot 2    -0.01354225     0.01389283    -0.07444800
Spot 1    -0.01371905     0.01388854    -0.07444800
Spot 2    -0.01354221     0.01389277    -0.07444800
Spot 1    -0.01371895     0.01388857    -0.07444800
Spot 2    -0.01354217     0.01389270    -0.07444800
20MABNDB000155_PR020
Spot 1    -0.01359473    -0.01315721    -0.07501700
Spot 2    -0.01352374    -0.01315996    -0.07501700
Spot 1    -0.01359512    -0.01315715    -0.07501700
Spot 2    -0.01352403    -0.01315968    -0.07501700
Spot 1    -0.01359483    -0.01315663    -0.07501700
Spot 2    -0.01352402    -0.01315946    -0.07501700
20MABNDB000155_PR022
Spot 1    -0.01201410    -0.01303643    -0.07501700
Spot 2    -0.01153935    -0.01303634    -0.07501700
Spot 1    -0.01201408    -0.01303647    -0.07501700
Spot 2    -0.01153926    -0.01303643    -0.07501700
Spot 1    -0.01201434    -0.01303651    -0.07501700
Spot 2    -0.01153919    -0.01303648    -0.07501700
20MABNDB000010_PR021
Spot 1    -0.01158623    -0.01289658    -0.07358200
Spot 2    -0.01174439    -0.01313773    -0.07358200
Spot 1    -0.01158622    -0.01289696    -0.07358200
Spot 2    -0.01174474    -0.01313784    -0.07358200
Spot 1    -0.01158631    -0.01289677    -0.07358200
Spot 2    -0.01174409    -0.01313716    -0.07358200
20MABNDB000010_PR023
Spot 1    -0.01313018    -0.01372052    -0.07358200
Spot 2    -0.01295225    -0.01372120    -0.07358200
Spot 1    -0.01313004    -0.01372046    -0.07358200
Spot 2    -0.01295246    -0.01372089    -0.07358200
Spot 1    -0.01313021    -0.01372037    -0.07358200
Spot 2    -0.01295227    -0.01372089    -0.07358200
20MABNDB000069_PR031
Spot 1    -0.01355630    -0.01288777    -0.07388500
Spot 2    -0.01348773    -0.01288804    -0.07388500
Spot 1    -0.01355679    -0.01288630    -0.07388500
Spot 2    -0.01348841    -0.01288676    -0.07388500
Spot 1    -0.01355634    -0.01288728    -0.07388500
Spot 2    -0.01348836    -0.01288729    -0.07388500
20MABNDB000069_PR033
Spot 1    -0.01195224    -0.01250256    -0.07388500
Spot 2    -0.01148068    -0.01250210    -0.07388500
Spot 1    -0.01195220    -0.01250266    -0.07388500
Spot 2    -0.01148077    -0.01250189    -0.07388500
Spot 1    -0.01195232    -0.01250263    -0.07388500
Spot 2    -0.01148081    -0.01250215    -0.07388500
20MABNDB000131_PR032
Spot 1    -0.01144626    -0.01300410    -0.07533000
Spot 2    -0.01138588    -0.01300033    -0.07533000
Spot 1    -0.01144657    -0.01300382    -0.07533000
Spot 2    -0.01138611    -0.01300055    -0.07533000
Spot 1    -0.01144634    -0.01300389    -0.07533000
Spot 2    -0.01138607    -0.01300045    -0.07533000
20MABNDB000131_PR034
Spot 1    -0.01330292    -0.01370611    -0.07533000
Spot 2    -0.01312651    -0.01370601    -0.07533000
Spot 1    -0.01330316    -0.01370610    -0.07533000
Spot 2    -0.01312665    -0.01370584    -0.07533000
Spot 1    -0.01330288    -0.01370621    -0.07533000
Spot 2    -0.01312647    -0.01370586    -0.07533000
20MABNDA000208_PR042
Spot 1    -0.01387443     0.01306528    -0.07273700
Spot 2    -0.01391534     0.01261103    -0.07273700
Spot 1    -0.01387531     0.01306552    -0.07273700
Spot 2    -0.01391534     0.01261103    -0.07273700
20MABNDA000208_PR046
Spot 1    -0.01217850     0.01199250    -0.07273700
Spot 2    -0.01177295     0.01206001    -0.07273700
Spot 1    -0.01218142     0.01198595    -0.07273700
Spot 2    -0.01174874     0.01202140    -0.07273700
20MABNDA000035_PR044
Spot 1    -0.01157438     0.01297555    -0.07483200
Spot 2    -0.01151252     0.01298018    -0.07483200
Spot 1    -0.01157421     0.01297558    -0.07483200
Spot 2    -0.01151261     0.01298041    -0.07483200
20MABNDA000035_PR045
Spot 1    -0.01336536     0.01372739    -0.07483200
Spot 2    -0.01318796     0.01372780    -0.07483200
Spot 1    -0.01336538     0.01372737    -0.07483200
Spot 2    -0.01318765     0.01372756    -0.07483200


*****************************************************************coordonnees du prisme dans le repere MOUNT********************************************************************************** 
20MABNDL000077_PR002
    0.05006197     0.04779479     3.70691419
    0.04173639     0.05711641     3.70694757
    0.05000055     0.04780329     3.70691466
20MABNDL000077_PR003
    0.02120889     0.02146819     3.89601755
    0.02122061     0.02147223     3.89601755
    0.02121954     0.02146887     3.89601755
20MABNDL000077_20MABNDM000168
   -0.02592934     0.03615682    -5.46874046
   -0.02594115     0.03607579    -5.46874046
   -0.02593619     0.03615603    -5.46874046
20MABNDL000077_PR024
    0.04562421     0.01709012    -5.89639902
    0.04560887     0.01710399    -5.89639902
    0.04560572     0.01710669    -5.89639902
20MABNDM000020_PR013
   -0.00380978    -0.01829465    -3.80243516
   -0.00380577    -0.01830796    -3.80243516
   -0.00380847    -0.01832018    -3.80243516
20MABNDM000020_PR014
   -0.06558252    -0.00511411    -4.74841070
   -0.06557988    -0.00512090    -4.74841070
   -0.06558332    -0.00512066    -4.74841070
20MABNDM000020_20MABNDL000196
    0.02696775    -0.07120579     5.39469719
    0.02696990    -0.07121153     5.39469719
    0.02696560    -0.07121439     5.39469719
20MABNDM000020_PR035
   -0.04237855    -0.00660663     5.80095387
   -0.04236431    -0.00659969     5.80095482
   -0.04236469    -0.00660316     5.80095482
20MABNDM000168_PR025
    0.01796936    -0.02109881    -3.78864098
    0.01797230    -0.02109212    -3.78864098
    0.01797055    -0.02108792    -3.78864098
20MABNDM000168_PR026
   -0.05786118    -0.01392198    -3.98428988
   -0.05786429    -0.01392642    -3.98428988
   -0.05785570    -0.01392534    -3.98429012
20MABNDM000168_20MABNDL000077
    0.01168051    -0.03874893     5.38884687
    0.01168383    -0.03871844     5.38884687
    0.01169387    -0.03869523     5.38884687
20MABNDM000168_PR001
   -0.05733875    -0.01337351     5.81470585
   -0.05729356    -0.01335789     5.81470633
   -0.05730096    -0.01336011     5.81470633
20MABNDL000196_PR036
    0.05140914     0.00626371     3.68777370
    0.05141526     0.00627477     3.68777394
    0.05140889     0.00626812     3.68777394
20MABNDL000196_PR037
   -0.02491788     0.02853594     3.88381529
   -0.02491633     0.02853750     3.88381529
   -0.02491062     0.02852742     3.88381529
20MABNDL000196_20MABNDM000020
   -0.01596772     0.03768715    -5.47473860
   -0.01596771     0.03770476    -5.47473860
   -0.01595796     0.03770244    -5.47473860
20MABNDL000196_PR012
    0.05207985     0.01429663    -5.91537428
    0.05208715     0.01430028    -5.91537380
    0.05208749     0.01430262    -5.91537380
20MABNDA000318_PR004
   -0.00853149     0.03845306     2.74965858
   -0.00852359     0.03845107     2.74965858
   -0.00852964     0.03844738     2.74965858
20MABNDA000334_PR005
   -0.00424566     0.03183314     2.14977074
   -0.00424437     0.03183642     2.14977026
   -0.00424694     0.03183614     2.14977026
20MABNDB000317_PR015
   -0.01728473    -0.03373973     2.75129223
   -0.01728105    -0.03374260     2.75129223
   -0.01727832    -0.03374330     2.75129223
20MABNDB000146_PR016
   -0.01339569    -0.03164925     2.15201378
   -0.01339109    -0.03164881     2.15201426
   -0.01338950    -0.03165254     2.15201378
20MABNDB000135_PR027
   -0.02090178    -0.00985058     2.74937153
   -0.02090045    -0.00984674     2.74937153
   -0.02090046    -0.00984748     2.74937153
20MABNDB000126_PR028
   -0.02026093    -0.03897326     2.14679527
   -0.02025950    -0.03897297     2.14679527
   -0.02026404    -0.03897813     2.14679527
20MABNDA000272_PR038
   -0.01330634     0.01075679     2.74965858
   -0.01330872     0.01075588     2.74965858
   -0.01330340     0.01076210     2.74965858
20MABNDA000003_PR039
   -0.00596954     0.04120257     2.14891577
   -0.00597154     0.04120343     2.14891577
   -0.00596840     0.04120342     2.14891577
20MABNDA000196_PR006
   -0.01011909     0.00979456     1.64206314
   -0.01011917     0.00979675     1.64206314
   -0.01012122     0.00979885     1.64206314
20MABNDA000324_PR007
   -0.02555215     0.02815390     2.95548916
   -0.02555271     0.02815507     2.95548916
   -0.02555450     0.02815211     2.95548916
20MABNDB000001_PR017
   -0.02432192    -0.00276282     1.64035797
   -0.02432726    -0.00276146     1.64035797
   -0.02432127    -0.00276294     1.64035797
20MABNDB000260_PR019
   -0.02419625    -0.03867599     2.95627308
   -0.02420415    -0.03867497     2.95627308
   -0.02419667    -0.03868408     2.95627308
20MABNDB000212_PR029
   -0.02528228    -0.00849626     1.64223886
   -0.02528216    -0.00849506     1.64223886
   -0.02528197    -0.00849780     1.64223886
20MABNDB000128_PR030
   -0.01952865    -0.04693426     2.95496106
   -0.01952885    -0.04693406     2.95496106
   -0.01953709    -0.04693861     2.95496106
20MABNDA000444_PR040
   -0.03027972     0.00093939     1.64490819
   -0.03028313     0.00094899     1.64490819
   -0.03028254     0.00093673     1.64490819
20MABNDA000053_PR041
   -0.02661265     0.05121424     2.95450211
   -0.02660972     0.05120377     2.95450211
   -0.02660740     0.05119175     2.95450258
20MABNDA000188_PR008
    0.14616936    -0.09611703     9.20304298
    0.14616936    -0.09611703     9.20304298
    0.14616936    -0.09611703     9.20304298
20MABNDA000188_PR018
   -0.01797359     0.02220740     1.28360724
   -0.01797150     0.02221150     1.28360724
   -0.01797355     0.02221160     1.28360724
20MABNDA000039_PR009
   -0.17189983     0.02993324    11.00699902
   -0.17188370     0.02994780    11.00699997
   -0.17184146     0.02990155    11.00699997
20MABNDA000039_PR011
    0.03041450    -0.02077706     3.43351460
    0.03041862    -0.02077365     3.43351460
    0.03041543    -0.02077273     3.43351460
20MABNDB000155_PR020
    0.09543120    -0.00531802     9.20036125
    0.09547323    -0.00533832     9.20036125
    0.09545482    -0.00538401     9.20036125
20MABNDB000155_PR022
   -0.02806745    -0.01412652     1.28068817
   -0.02806840    -0.01412542     1.28068817
   -0.02806679    -0.01412463     1.28068817
20MABNDB000010_PR021
   -0.15992865    -0.01997175    11.00719261
   -0.15990353    -0.01993529    11.00719261
   -0.15994434    -0.01999995    11.00719261
20MABNDB000010_PR023
    0.00451357     0.01703970     3.43380022
    0.00451508     0.01703124     3.43380022
    0.00451466     0.01702917     3.43380022
20MABNDB000069_PR031
    0.09800147    -0.03578790     9.20362282
    0.09807306    -0.03595659     9.20362091
    0.09804252    -0.03586387     9.20362091
20MABNDB000069_PR033
   -0.02809427    -0.02284433     1.28396344
   -0.02809379    -0.02284529     1.28396344
   -0.02809243    -0.02284338     1.28396344
20MABNDB000131_PR032
   -0.18752891    -0.03461052    11.00641918
   -0.18748944    -0.03461544    11.00642014
   -0.18750912    -0.03461773    11.00641918
20MABNDB000131_PR034
    0.01480992     0.01223202     3.43340921
    0.01481860     0.01222796     3.43340921
    0.01480810     0.01223087     3.43340921
20MABNDA000208_PR042
    0.13227895     0.03981383     9.20141411
    0.13233295     0.03979915     9.20141315
20MABNDA000208_PR046
   -0.02529571     0.03067076     1.28212547
   -0.02547747     0.03105655     1.28211832
20MABNDA000035_PR044
   -0.18011370     0.03038684    11.00801468
   -0.18011968     0.03036787    11.00801468
20MABNDA000035_PR045
    0.01418407    -0.01572235     3.43486929
    0.01417750    -0.01571637     3.43486929


*****************************************************************coordonnees du prisme dans le repere ATLAS********************************************************************************** 
20MABNDL000077_PR002 0.00000000
    2.80924630    -3.69444656     6.48622084
    2.79992199    -3.70276928     6.48625326
    2.80923772    -3.69450808     6.48622131
20MABNDL000077_PR003 0.00000000
    2.83574915    -3.72354126     6.67526245
    2.83574510    -3.72352958     6.67526245
    2.83574843    -3.72353077     6.67526245
20MABNDL000077_20MABNDM000168 0.00000000
    2.81185985    -3.75912070    -2.68952751
    2.81194091    -3.75913262    -2.68952751
    2.81186056    -3.75912762    -2.68952751
20MABNDL000077_PR024 0.00000000
    2.83052993    -3.68704557    -3.11711597
    2.83051586    -3.68706107    -3.11711597
    2.83051324    -3.68706417    -3.11711597
20MABNDM000020_PR013 0.00000000
   -2.83401465    -3.73567438     6.48627806
   -2.83400130    -3.73567820     6.48627806
   -2.83398914    -3.73567557     6.48627758
20MABNDM000020_PR014 0.00000000
   -2.84698701    -3.67461705     7.43230247
   -2.84698033    -3.67461967     7.43230247
   -2.84698057    -3.67461610     7.43230247
20MABNDM000020_20MABNDL000196 0.00000000
   -2.78295350    -3.75947332    -2.71088576
   -2.78294778    -3.75947547    -2.71088576
   -2.78294492    -3.75947118    -2.71088576
20MABNDM000020_PR035 0.00000000
   -2.84761262    -3.68979812    -3.11707664
   -2.84761977    -3.68981242    -3.11707759
   -2.84761620    -3.68981218    -3.11707759
20MABNDM000168_PR025 0.00000000
    2.83213806    -3.76329851    -6.47925997
    2.83214474    -3.76330137    -6.47925997
    2.83214903    -3.76329970    -6.47925997
20MABNDM000168_PR026 0.00000000
    2.83932304    -3.68754268    -6.67493725
    2.83931851    -3.68753958    -6.67493725
    2.83931971    -3.68754816    -6.67493773
20MABNDM000168_20MABNDL000077 0.00000000
    2.81504655    -3.75359249     2.69822621
    2.81507707    -3.75359583     2.69822621
    2.81510019    -3.75360608     2.69822621
20MABNDM000168_PR001 0.00000000
    2.84046602    -3.68442178     3.12405801
    2.84048176    -3.68446684     3.12405849
    2.84047937    -3.68445945     3.12405849
20MABNDL000196_PR036 0.00000000
   -2.84734392    -3.69286513    -6.47909737
   -2.84733272    -3.69285917    -6.47909737
   -2.84733939    -3.69286537    -6.47909737
20MABNDL000196_PR037 0.00000000
   -2.82504034    -3.76936412    -6.67506838
   -2.82503867    -3.76936269    -6.67506838
   -2.82504892    -3.76935697    -6.67506838
20MABNDL000196_20MABNDM000020 0.00000000
   -2.81569099    -3.75170445     2.68347311
   -2.81567335    -3.75170445     2.68347311
   -2.81567574    -3.75169468     2.68347311
20MABNDL000196_PR012 0.00000000
   -2.83910370    -3.68325806     3.12404585
   -2.83910012    -3.68325067     3.12404537
   -2.83909774    -3.68325019     3.12404537
20MABNDA000318_PR004 0.00000000
    2.61447167    -4.19698811     3.83354568
    2.61447954    -4.19698811     3.83354759
    2.61447358    -4.19698858     3.83355117
20MABNDA000334_PR005 0.00000000
    2.61675286    -4.19703245     5.89742756
    2.61675429    -4.19703293     5.89742470
    2.61675167    -4.19703293     5.89742470
20MABNDB000317_PR015 0.00000000
   -2.61132240    -4.19700670     3.83627582
   -2.61132598    -4.19700670     3.83627295
   -2.61132884    -4.19700670     3.83627224
20MABNDB000146_PR016 0.00000000
   -2.61289954    -4.19702435     5.89870119
   -2.61290407    -4.19702387     5.89870119
   -2.61290574    -4.19702435     5.89869785
20MABNDB000135_PR027 0.00000000
    2.60396147    -4.19700384    -3.82551026
    2.60396290    -4.19700384    -3.82551408
    2.60396290    -4.19700384    -3.82551336
20MABNDB000126_PR028 0.00000000
    2.60565639    -4.19702101    -5.89324665
    2.60565782    -4.19702101    -5.89324713
    2.60565329    -4.19702101    -5.89324188
20MABNDA000272_PR038 0.00000000
   -2.61123061    -4.19698286    -3.82772756
   -2.61122823    -4.19698286    -3.82772851
   -2.61123347    -4.19698286    -3.82772231
20MABNDA000003_PR039 0.00000000
   -2.61576152    -4.19702101    -5.89156389
   -2.61575961    -4.19702101    -5.89156342
   -2.61576271    -4.19702101    -5.89156342
20MABNDA000196_PR006 0.00000000
    2.58457971    -4.19496584     6.54775095
    2.58457971    -4.19496584     6.54775333
    2.58458185    -4.19496584     6.54775524
20MABNDA000324_PR007 0.00000000
    2.59376264    -4.13996935     6.94776106
    2.59376216    -4.13996983     6.94776011
    2.59376025    -4.13996983     6.94776297
20MABNDB000001_PR017 0.00000000
   -2.59802318    -4.19506025     6.53809071
   -2.59802866    -4.19506025     6.53808975
   -2.59802246    -4.19506025     6.53809118
20MABNDB000260_PR019 0.00000000
   -2.60456562    -4.13996124     6.94196796
   -2.60455775    -4.13996124     6.94196892
   -2.60456514    -4.13996124     6.94195986
20MABNDB000212_PR029 0.00000000
    2.59895992    -4.19500971    -6.54748392
    2.59895992    -4.19500971    -6.54748297
    2.59895968    -4.19500971    -6.54748583
20MABNDB000128_PR030 0.00000000
    2.60933018    -4.14002848    -6.93118668
    2.60932994    -4.14002848    -6.93118715
    2.60932159    -4.14002848    -6.93118238
20MABNDA000444_PR040 0.00000000
   -2.60545230    -4.19510126    -6.54011965
   -2.60545564    -4.19510126    -6.54012918
   -2.60545516    -4.19510126    -6.54011679
20MABNDA000053_PR041 0.00000000
   -2.59392929    -4.14012861    -6.92669916
   -2.59393215    -4.14012861    -6.92670965
   -2.59393454    -4.14012814    -6.92672157
20MABNDA000188_PR008 0.00000000
    3.55893064     3.84859109     8.10764503
    3.55893064     3.84859109     8.10764503
    3.55893064     3.84859109     8.10764503
20MABNDA000188_PR018 0.00000000
    3.51910925    -4.07063913     7.90121412
    3.51911139    -4.07063866     7.90120983
    3.51910949    -4.07063866     7.90120983
20MABNDA000039_PR009 0.00000000
    3.87607121     3.64745474    12.94122696
    3.87605524     3.64745593    12.94124222
    3.87601304     3.64745593    12.94119549
20MABNDA000039_PR011 0.00000000
    3.66460919    -3.92576289    12.88805962
    3.66460514    -3.92576289    12.88806343
    3.66460824    -3.92576289    12.88806438
20MABNDB000155_PR020 0.00000000
   -3.67408490     3.84891057     7.90155125
   -3.67412710     3.84891057     7.90153122
   -3.67410851     3.84891057     7.90148544
20MABNDB000155_PR022 0.00000000
   -3.53191423    -4.07045031     7.89393330
   -3.53191328    -4.07045031     7.89393473
   -3.53191495    -4.07045031     7.89393520
20MABNDB000010_PR021 0.00000000
   -3.84577775     3.64791536    12.92178726
   -3.84575272     3.64791536    12.92175007
   -3.84579349     3.64791536    12.92181492
20MABNDB000010_PR023 0.00000000
   -3.68514991    -3.92557502    12.88823605
   -3.68514848    -3.92557502    12.88824463
   -3.68514895    -3.92557502    12.88824654
20MABNDB000069_PR031 0.00000000
    3.67971683     3.84881592    -7.90461302
    3.67978859     3.84881449    -7.90444422
    3.67975783     3.84881425    -7.90453672
20MABNDB000069_PR033 0.00000000
    3.53220320    -4.07045412    -7.88282633
    3.53220367    -4.07045412    -7.88282537
    3.53220487    -4.07045412    -7.88282728
20MABNDB000131_PR032 0.00000000
    3.86832976     3.64756727   -12.94525337
    3.86829042     3.64756799   -12.94525814
    3.86830997     3.64756703   -12.94526005
20MABNDB000131_PR034 0.00000000
    3.67297816    -3.92560911   -12.89571571
    3.67296934    -3.92560911   -12.89571953
    3.67297983    -3.92560911   -12.89571667
20MABNDA000208_PR042 0.00000000
   -3.68237066     3.84910321    -7.87167263
   -3.68242455     3.84910226    -7.87168694
20MABNDA000208_PR046 0.00000000
   -3.53046751    -4.07029915    -7.87784672
   -3.53028607    -4.07030630    -7.87746048
20MABNDA000035_PR044 0.00000000
   -3.86935544     3.64757013   -12.93606567
   -3.86936140     3.64757013   -12.93604660
20MABNDA000035_PR045 0.00000000
   -3.67654490    -3.92561769   -12.89066219
   -3.67655134    -3.92561769   -12.89066792


*****************************************************************Rapport********************************************************************************** 
CAM-LBA-US_EBA-US-HO-H         2018.12.11.23.56.12     2.80613534    -3.69724131     6.48623180     0.00439350     0.00390895     0.00001517 0.00000000 VRAI 
CAM-LBA-US_JDA-US-H            2018.12.11.23.56.12     2.83574756    -3.72353387     6.67526245     0.00000177     0.00000525     0.00000000 0.00000000 VRAI 
CAM-LBA-US_CAM-LBC-US          2018.12.11.23.56.12     2.81188711    -3.75912698    -2.68952751     0.00003805     0.00000489     0.00000000 0.00000000 VRAI 
CAM-LBA-US_EBC-US-IP-H         2018.12.11.23.56.12     2.83051968    -3.68705694    -3.11711597     0.00000733     0.00000814     0.00000000 0.00000000 VRAI 
CAM-LBA-USA_EBA-USA-HO-H       2018.12.11.23.56.12    -2.83400170    -3.73567605     6.48627790     0.00001042     0.00000159     0.00000022 0.00000000 VRAI 
CAM-LBA-USA_JDA-USA-H          2018.12.11.23.56.12    -2.84698264    -3.67461761     7.43230247     0.00000309     0.00000151     0.00000000 0.00000000 VRAI 
CAM-LBA-USA_CAM-LBC-USA        2018.12.11.23.56.12    -2.78294873    -3.75947332    -2.71088576     0.00000357     0.00000175     0.00000000 0.00000000 VRAI 
CAM-LBA-USA_EBC-USA-IP-H       2018.12.11.23.56.12    -2.84761620    -3.68980757    -3.11707727     0.00000292     0.00000669     0.00000045 0.00000000 VRAI 
CAM-LBC-US_EBC-US-HO-H         2018.12.11.23.56.12     2.83214394    -3.76329986    -6.47925997     0.00000451     0.00000117     0.00000000 0.00000000 VRAI 
CAM-LBC-US_JDC-US-H            2018.12.11.23.56.12     2.83932042    -3.68754347    -6.67493741     0.00000192     0.00000355     0.00000022 0.00000000 VRAI 
CAM-LBC-US_CAM-LBA-US          2018.12.11.23.56.12     2.81507460    -3.75359813     2.69822621     0.00002197     0.00000578     0.00000000 0.00000000 VRAI 
CAM-LBC-US_EBA-US-IP-H         2018.12.11.23.56.12     2.84047572    -3.68444935     3.12405833     0.00000692     0.00001973     0.00000022 0.00000000 VRAI 
CAM-LBC-USA_EBC-USA-HO-H       2018.12.11.23.56.12    -2.84733868    -3.69286323    -6.47909737     0.00000460     0.00000287     0.00000000 0.00000000 VRAI 
CAM-LBC-USA_JDC-USA-H          2018.12.11.23.56.12    -2.82504265    -3.76936126    -6.67506838     0.00000449     0.00000309     0.00000000 0.00000000 VRAI 
CAM-LBC-USA_CAM-LBA-USA        2018.12.11.23.56.12    -2.81568003    -3.75170120     2.68347311     0.00000782     0.00000461     0.00000000 0.00000000 VRAI 
CAM-LBC-USA_EBA-USA-IP-H       2018.12.11.23.56.12    -2.83910052    -3.68325297     3.12404553     0.00000245     0.00000360     0.00000022 0.00000000 VRAI 
CAM-EBA-US-IP_EBA-US-IP        2018.12.11.23.56.12     2.61447493    -4.19698826     3.83354815     0.00000335     0.00000022     0.00000227 0.00000000 VRAI 
CAM-EBA-US-HO_EBA-US-HO        2018.12.11.23.56.12     2.61675294    -4.19703277     5.89742565     0.00000107     0.00000022     0.00000135 0.00000000 VRAI 
CAM-EBA-USA-IP_EBA-USA-IP      2018.12.11.23.56.12    -2.61132574    -4.19700670     3.83627367     0.00000263     0.00000000     0.00000155 0.00000000 VRAI 
CAM-EBA-USA-HO_EBA-USA-HO      2018.12.11.23.56.12    -2.61290312    -4.19702419     5.89870008     0.00000262     0.00000022     0.00000157 0.00000000 VRAI 
CAM-EBC-US-IP_EBC-US-IP        2018.12.11.23.56.12     2.60396242    -4.19700384    -3.82551257     0.00000067     0.00000000     0.00000166 0.00000000 VRAI 
CAM-EBC-US-HO_EBC-US-HO        2018.12.11.23.56.12     2.60565583    -4.19702101    -5.89324522     0.00000189     0.00000000     0.00000237 0.00000000 VRAI 
CAM-EBC-USA-IP_EBC-USA-IP      2018.12.11.23.56.12    -2.61123077    -4.19698286    -3.82772613     0.00000214     0.00000000     0.00000273 0.00000000 VRAI 
CAM-EBC-USA-HO_EBC-USA-HO      2018.12.11.23.56.12    -2.61576128    -4.19702101    -5.89156357     0.00000128     0.00000000     0.00000022 0.00000000 VRAI 
CAM-JDA-US-IP_JDA-US-IP        2018.12.11.23.56.12     2.58458042    -4.19496584     6.54775318     0.00000101     0.00000000     0.00000176 0.00000000 VRAI 
CAM-JDA-US-HO_JDA-US-HO        2018.12.11.23.56.12     2.59376168    -4.13996967     6.94776138     0.00000103     0.00000022     0.00000119 0.00000000 VRAI 
CAM-JDA-USA-IP_JDA-USA-IP      2018.12.11.23.56.12    -2.59802477    -4.19506025     6.53809055     0.00000277     0.00000000     0.00000059 0.00000000 VRAI 
CAM-JDA-USA-HO_JDA-USA-HO      2018.12.11.23.56.12    -2.60456284    -4.13996124     6.94196558     0.00000360     0.00000000     0.00000406 0.00000000 VRAI 
CAM-JDC-US-IP_JDC-US-IP        2018.12.11.23.56.12     2.59895984    -4.19500971    -6.54748424     0.00000011     0.00000000     0.00000119 0.00000000 VRAI 
CAM-JDC-US-HO_JDC-US-HO        2018.12.11.23.56.12     2.60932724    -4.14002848    -6.93118540     0.00000399     0.00000000     0.00000214 0.00000000 VRAI 
CAM-JDC-USA-IP_JDC-USA-IP      2018.12.11.23.56.12    -2.60545437    -4.19510126    -6.54012187     0.00000147     0.00000000     0.00000530 0.00000000 VRAI 
CAM-JDC-USA-HO_JDC-USA-HO      2018.12.11.23.56.12    -2.59393199    -4.14012845    -6.92671013     0.00000214     0.00000022     0.00000916 0.00000000 VRAI 
CAM-ECTA-US-IP_ECTA-US-IP-T    2018.12.11.23.56.12     3.55893064     3.84859109     8.10764503     0.00000000     0.00000000     0.00000000 0.00000000 VRAI 
CAM-ECTA-US-IP_ECTA-US-IP      2018.12.11.23.56.12     3.51911004    -4.07063882     7.90121126     0.00000096     0.00000022     0.00000202 0.00000000 VRAI 
CAM-ECTA-US-HO_ECTA-US-HO-T    2018.12.11.23.56.12     3.87604650     3.64745553    12.94122156     0.00002454     0.00000056     0.00001946 0.00000000 VRAI 
CAM-ECTA-US-HO_ECTA-US-HO      2018.12.11.23.56.12     3.66460752    -3.92576289    12.88806248     0.00000173     0.00000000     0.00000206 0.00000000 VRAI 
CAM-ECTA-USA-IP_ECTA-USA-IP-T  2018.12.11.23.56.12    -3.67410684     3.84891057     7.90152264     0.00001727     0.00000000     0.00002754 0.00000000 VRAI 
CAM-ECTA-USA-IP_ECTA-USA-IP    2018.12.11.23.56.12    -3.53191415    -4.07045031     7.89393441     0.00000068     0.00000000     0.00000081 0.00000000 VRAI 
CAM-ECTA-USA-HO_ECTA-USA-HO-T  2018.12.11.23.56.12    -3.84577465     3.64791536    12.92178408     0.00001679     0.00000000     0.00002657 0.00000000 VRAI 
CAM-ECTA-USA-HO_ECTA-USA-HO    2018.12.11.23.56.12    -3.68514911    -3.92557502    12.88824240     0.00000059     0.00000000     0.00000456 0.00000000 VRAI 
CAM-ECTC-US-IP_ECTC-US-IP-T    2018.12.11.23.56.12     3.67975442     3.84881488    -7.90453132     0.00002940     0.00000074     0.00006902 0.00000000 VRAI 
CAM-ECTC-US-IP_ECTC-US-IP      2018.12.11.23.56.12     3.53220391    -4.07045412    -7.88282633     0.00000070     0.00000000     0.00000078 0.00000000 VRAI 
CAM-ECTC-US-HO_ECTC-US-HO-T    2018.12.11.23.56.12     3.86831005     3.64756743   -12.94525719     0.00001606     0.00000041     0.00000281 0.00000000 VRAI 
CAM-ECTC-US-HO_ECTC-US-HO      2018.12.11.23.56.12     3.67297578    -3.92560911   -12.89571730     0.00000460     0.00000000     0.00000162 0.00000000 VRAI 
CAM-ECTC-USA-IP_ECTC-USA-IP-T  2018.12.11.23.56.12    -3.68239760     3.84910274    -7.87167978     0.00002694     0.00000048     0.00000715 0.00000000 VRAI 
CAM-ECTC-USA-IP_ECTC-USA-IP    2018.12.11.23.56.12    -3.53037679    -4.07030272    -7.87765360     0.00009072     0.00000358     0.00019312 0.00000000 VRAI 
CAM-ECTC-USA-HO_ECTC-USA-HO-T  2018.12.11.23.56.12    -3.86935842     3.64757013   -12.93605614     0.00000298     0.00000000     0.00000954 0.00000000 VRAI 
CAM-ECTC-USA-HO_ECTC-USA-HO    2018.12.11.23.56.12    -3.67654812    -3.92561769   -12.89066505     0.00000322     0.00000000     0.00000286 0.00000000 VRAI 
