********** Fichier qui contient une sauvegarde des coordonnees images + coordonnees images transformees dans le repere BCAM (MOUNT) + coordonnees des prismes dans le repere MOUNT********** 
********************************************************************** Unite en metres (m)************************************************************************************************** 

*******************************************************************coordonnees images dans le repere CCD *********************************************************************************** 
20MABNDL000077_PR002
Spot 1     0.00121450     0.00150299
Spot 2     0.00052500     0.00043500
Spot 1     0.00121462     0.00150392
Spot 2     0.00052500     0.00043500
Spot 1     0.00121472     0.00150234
Spot 2     0.00086500     0.00136500
20MABNDL000077_PR003
Spot 1     0.00138662     0.00148734
Spot 2     0.00153564     0.00148914
Spot 1     0.00138600     0.00148740
Spot 2     0.00153544     0.00148927
Spot 1     0.00138612     0.00148754
Spot 2     0.00153544     0.00148922
20MABNDL000077_20MABNDM000168
Spot 1     0.00175719     0.00118410
Spot 2     0.00075500     0.00010500
Spot 1     0.00175704     0.00118404
Spot 2     0.00075500     0.00010500
Spot 1     0.00175719     0.00118403
Spot 2     0.00075500     0.00010500
20MABNDL000077_PR024
Spot 1     0.00254624     0.00144943
Spot 2     0.00264599     0.00145594
Spot 1     0.00254622     0.00144913
Spot 2     0.00264596     0.00145596
Spot 1     0.00254611     0.00144918
Spot 2     0.00264608     0.00145563
20MABNDM000020_PR013
Spot 1     0.00162985     0.00153071
Spot 2     0.00147647     0.00153645
Spot 1     0.00163056     0.00152940
Spot 2     0.00147627     0.00153635
Spot 1     0.00162985     0.00153041
Spot 2     0.00147670     0.00153539
20MABNDM000020_PR014
Spot 1     0.00266105     0.00168930
Spot 2     0.00249937     0.00169756
Spot 1     0.00266116     0.00169045
Spot 2     0.00249976     0.00169698
Spot 1     0.00266096     0.00169152
Spot 2     0.00250028     0.00169539
20MABNDM000020_20MABNDL000196
Spot 1     0.00197677     0.00117839
Spot 2     0.00230500     0.00010500
Spot 1     0.00197675     0.00117850
Spot 2     0.00230500     0.00010500
Spot 1     0.00197671     0.00117822
Spot 2     0.00230500     0.00010500
20MABNDM000020_PR035
Spot 1     0.00127014     0.00149537
Spot 2     0.00118679     0.00153118
Spot 1     0.00126967     0.00149554
Spot 2     0.00118684     0.00153108
Spot 1     0.00127027     0.00149541
Spot 2     0.00118652     0.00153112
20MABNDM000168_PR025
Spot 1     0.00117534     0.00130165
Spot 2     0.00102180     0.00130175
Spot 1     0.00117506     0.00130113
Spot 2     0.00102152     0.00130197
Spot 1     0.00117522     0.00130132
Spot 2     0.00102157     0.00130205
20MABNDM000168_PR026
Spot 1     0.00266915     0.00143154
Spot 2     0.00250791     0.00142809
Spot 1     0.00266900     0.00143168
Spot 2     0.00250780     0.00142827
Spot 1     0.00266887     0.00143191
Spot 2     0.00250809     0.00142836
20MABNDM000168_20MABNDL000077
Spot 1     0.00154167     0.00130014
Spot 2     0.00175774     0.00130482
Spot 1     0.00154164     0.00130020
Spot 2     0.00175771     0.00130461
Spot 1     0.00154180     0.00130011
Spot 2     0.00175755     0.00130386
20MABNDM000168_PR001
Spot 1     0.00080895     0.00161895
Spot 2     0.00070754     0.00162108
Spot 1     0.00080889     0.00161885
Spot 2     0.00070751     0.00162102
Spot 1     0.00080872     0.00161887
Spot 2     0.00070746     0.00162111
20MABNDL000196_PR036
Spot 1     0.00094498     0.00163562
Spot 2     0.00110917     0.00163533
Spot 1     0.00094490     0.00163560
Spot 2     0.00110892     0.00163506
Spot 1     0.00094487     0.00163579
Spot 2     0.00110879     0.00163533
20MABNDL000196_PR037
Spot 1     0.00246698     0.00117292
Spot 2     0.00262162     0.00117101
Spot 1     0.00246686     0.00117281
Spot 2     0.00262146     0.00117122
Spot 1     0.00246677     0.00117303
Spot 2     0.00262141     0.00117103
20MABNDL000196_20MABNDM000020
Spot 1     0.00192618     0.00104090
Spot 2     0.00170490     0.00104586
Spot 1     0.00192628     0.00104093
Spot 2     0.00170469     0.00104618
Spot 1     0.00192621     0.00104099
Spot 2     0.00170506     0.00104603
20MABNDL000196_PR012
Spot 1     0.00265122     0.00134132
Spot 2     0.00272400     0.00138871
Spot 1     0.00265089     0.00134129
Spot 2     0.00272427     0.00138899
Spot 1     0.00265136     0.00134118
Spot 2     0.00272449     0.00138927
20MABNDA000318_PR004
Spot 1     0.00192279     0.00163024
Spot 2     0.00214065     0.00162961
Spot 1     0.00192262     0.00163021
Spot 2     0.00214060     0.00162959
Spot 1     0.00192269     0.00163030
Spot 2     0.00214067     0.00162942
20MABNDA000334_PR005
Spot 1     0.00247043     0.00159121
Spot 2     0.00218996     0.00159182
Spot 1     0.00247050     0.00159101
Spot 2     0.00218988     0.00159185
Spot 1     0.00247053     0.00159099
Spot 2     0.00219000     0.00159172
20MABNDB000317_PR015
Spot 1     0.00170844     0.00159007
Spot 2     0.00148872     0.00159675
Spot 1     0.00170876     0.00159029
Spot 2     0.00148854     0.00159691
Spot 1     0.00170853     0.00159028
Spot 2     0.00148877     0.00159686
20MABNDB000146_PR016
Spot 1     0.00144660     0.00132789
Spot 2     0.00172258     0.00133000
Spot 1     0.00144642     0.00132784
Spot 2     0.00172265     0.00133000
Spot 1     0.00144662     0.00132774
Spot 2     0.00172256     0.00133019
20MABNDB000135_PR027
Spot 1     0.00189201     0.00091789
Spot 2     0.00211038     0.00092010
Spot 1     0.00189208     0.00091806
Spot 2     0.00211030     0.00092010
Spot 1     0.00189205     0.00091799
Spot 2     0.00211032     0.00092005
20MABNDB000126_PR028
Spot 1     0.00164617     0.00200887
Spot 2     0.00192809     0.00201027
Spot 1     0.00164609     0.00200873
Spot 2     0.00192812     0.00201029
Spot 1     0.00164603     0.00200882
Spot 2     0.00192808     0.00201041
20MABNDA000272_PR038
Spot 1     0.00191723     0.00095357
Spot 2     0.00169589     0.00095321
Spot 1     0.00191729     0.00095357
Spot 2     0.00169611     0.00095315
Spot 1     0.00191715     0.00095348
Spot 2     0.00169580     0.00095328
20MABNDA000003_PR039
Spot 1     0.00199626     0.00192525
Spot 2     0.00227438     0.00192582
Spot 1     0.00199651     0.00192530
Spot 2     0.00227394     0.00192596
Spot 1     0.00199646     0.00192494
Spot 2     0.00227416     0.00192584
20MABNDA000196_PR006
Spot 1     0.00200290     0.00072482
Spot 2     0.00163728     0.00072256
Spot 1     0.00200318     0.00072482
Spot 2     0.00163708     0.00072254
Spot 1     0.00200340     0.00072488
Spot 2     0.00163708     0.00072260
20MABNDA000324_PR007
Spot 1     0.00193855     0.00122033
Spot 2     0.00173230     0.00122619
Spot 1     0.00193844     0.00122027
Spot 2     0.00173214     0.00122597
Spot 1     0.00193858     0.00122027
Spot 2     0.00173223     0.00122599
20MABNDB000001_PR017
Spot 1     0.00189425     0.00043742
Spot 2     0.00226226     0.00044613
Spot 1     0.00189430     0.00043750
Spot 2     0.00226214     0.00044595
Spot 1     0.00189427     0.00043749
Spot 2     0.00226221     0.00044582
20MABNDB000260_PR019
Spot 1     0.00192077     0.00151260
Spot 2     0.00212398     0.00151246
Spot 1     0.00192070     0.00151278
Spot 2     0.00212375     0.00151214
Spot 1     0.00192065     0.00151283
Spot 2     0.00212417     0.00151250
20MABNDB000212_PR029
Spot 1     0.00222490     0.00070480
Spot 2     0.00186462     0.00070454
Spot 1     0.00222495     0.00070505
Spot 2     0.00186492     0.00070477
Spot 1     0.00222495     0.00070495
Spot 2     0.00186470     0.00070470
20MABNDB000128_PR030
Spot 1     0.00190860     0.00200492
Spot 2     0.00211370     0.00199928
Spot 1     0.00190866     0.00200487
Spot 2     0.00211364     0.00199911
Spot 1     0.00190883     0.00200491
Spot 2     0.00211395     0.00199943
20MABNDA000444_PR040
Spot 1     0.00074736     0.00035966
Spot 2     0.00111403     0.00035583
Spot 1     0.00074696     0.00035966
Spot 2     0.00111401     0.00035599
Spot 1     0.00074711     0.00035997
Spot 2     0.00111401     0.00035599
20MABNDA000053_PR041
Spot 1     0.00165398     0.00199532
Spot 2     0.00144382     0.00199345
Spot 1     0.00165396     0.00199494
Spot 2     0.00144348     0.00199424
Spot 1     0.00165317     0.00199512
Spot 2     0.00144479     0.00199344
20MABNDA000188_PR008
Spot 1     0.00297500     0.00011500
Spot 2     0.00297500     0.00011500
Spot 1     0.00297500     0.00011500
Spot 2     0.00297500     0.00011500
Spot 1     0.00297500     0.00011500
Spot 2     0.00297500     0.00011500
20MABNDA000188_PR018
Spot 1     0.00159364     0.00153068
Spot 2     0.00112671     0.00152776
Spot 1     0.00159356     0.00153077
Spot 2     0.00112666     0.00152751
Spot 1     0.00159340     0.00153075
Spot 2     0.00112660     0.00152778
20MABNDA000039_PR009
Spot 1     0.00065893     0.00120839
Spot 2     0.00061212     0.00121253
Spot 1     0.00065897     0.00120869
Spot 2     0.00061214     0.00121261
Spot 1     0.00065940     0.00120845
Spot 2     0.00061205     0.00121245
20MABNDA000039_PR011
Spot 1     0.00275932     0.00036437
Spot 2     0.00258371     0.00035977
Spot 1     0.00275929     0.00036446
Spot 2     0.00258374     0.00035998
Spot 1     0.00275936     0.00036460
Spot 2     0.00258357     0.00035983
20MABNDB000155_PR020
Spot 1     0.00067490     0.00110007
Spot 2     0.00074056     0.00109716
Spot 1     0.00067446     0.00110027
Spot 2     0.00074037     0.00109723
Spot 1     0.00067458     0.00110024
Spot 2     0.00073997     0.00109725
20MABNDB000155_PR022
Spot 1     0.00225216     0.00120467
Spot 2     0.00272574     0.00119953
Spot 1     0.00225206     0.00120483
Spot 2     0.00272578     0.00119951
Spot 1     0.00225202     0.00120483
Spot 2     0.00272559     0.00119953
20MABNDB000010_PR021
Spot 1     0.00286638     0.00117971
Spot 2     0.00291808     0.00118115
Spot 1     0.00286611     0.00117954
Spot 2     0.00291824     0.00118176
Spot 1     0.00286622     0.00117972
Spot 2     0.00291885     0.00118115
20MABNDB000010_PR023
Spot 1     0.00130909     0.00038380
Spot 2     0.00148383     0.00038072
Spot 1     0.00130906     0.00038379
Spot 2     0.00148388     0.00038083
Spot 1     0.00130911     0.00038379
Spot 2     0.00148390     0.00038084
20MABNDB000069_PR031
Spot 1     0.00032147     0.00138267
Spot 2     0.00038856     0.00138565
Spot 1     0.00032000     0.00138252
Spot 2     0.00038781     0.00138585
20MABNDB000069_PR033
Spot 1     0.00190518     0.00184274
Spot 2     0.00237477     0.00186146
Spot 1     0.00190500     0.00184259
Spot 2     0.00237475     0.00186144
20MABNDB000131_PR032
Spot 1     0.00277462     0.00110832
Spot 2     0.00283396     0.00111203
Spot 1     0.00277462     0.00110829
Spot 2     0.00283373     0.00111198
20MABNDB000131_PR034
Spot 1     0.00091553     0.00041521
Spot 2     0.00109148     0.00041457
Spot 1     0.00091557     0.00041537
Spot 2     0.00109160     0.00041457
20MABNDA000208_PR042
Spot 1     0.00300437     0.00093285
Spot 2     0.00304500     0.00138500
Spot 1     0.00300413     0.00093181
Spot 2     0.00304500     0.00138500
20MABNDA000208_PR046
Spot 1     0.00022500     0.00124500
Spot 2     0.00088452     0.00194479
Spot 1     0.00022500     0.00124500
Spot 2     0.00089566     0.00184987
20MABNDA000035_PR044
Spot 1     0.00073698     0.00128030
Spot 2     0.00068082     0.00127496
Spot 1     0.00073699     0.00128038
Spot 2     0.00068088     0.00127518
20MABNDA000035_PR045
Spot 1     0.00253595     0.00054097
Spot 2     0.00235904     0.00053964
Spot 1     0.00253572     0.00054074
Spot 2     0.00235910     0.00053956


****************************************************************coordonnees images transformees dans le repere MOUNT************************************************************************* 
20MABNDL000077_PR002
Spot 1     0.01228483     0.03557442    -0.07463200
Spot 2     0.01158509     0.03451311    -0.07463200
Spot 1     0.01228496     0.03557535    -0.07463200
Spot 2     0.01158509     0.03451311    -0.07463200
Spot 1     0.01228505     0.03557377    -0.07463200
Spot 2     0.01193402     0.03543980    -0.07463200
20MABNDL000077_PR003
Spot 1     0.01245679     0.03555711    -0.07463200
Spot 2     0.01260583     0.03555748    -0.07463200
Spot 1     0.01245618     0.03555718    -0.07463200
Spot 2     0.01260563     0.03555761    -0.07463200
Spot 1     0.01245630     0.03555732    -0.07463200
Spot 2     0.01260563     0.03555756    -0.07463200
20MABNDL000077_20MABNDM000168
Spot 1    -0.01259233     0.03524708    -0.00695400
Spot 2    -0.01157915     0.03417830    -0.00695400
Spot 1    -0.01259218     0.03524703    -0.00695400
Spot 2    -0.01157915     0.03417830    -0.00695400
Spot 1    -0.01259233     0.03524701    -0.00695400
Spot 2    -0.01157915     0.03417830    -0.00695400
20MABNDL000077_PR024
Spot 1    -0.01338406     0.03550432    -0.00695400
Spot 2    -0.01348387     0.03550981    -0.00695400
Spot 1    -0.01338403     0.03550402    -0.00695400
Spot 2    -0.01348384     0.03550983    -0.00695400
Spot 1    -0.01338392     0.03550408    -0.00695400
Spot 2    -0.01348396     0.03550950    -0.00695400
20MABNDM000020_PR013
Spot 1    -0.01272901    -0.03548933    -0.00523500
Spot 2    -0.01288222    -0.03549846    -0.00523500
Spot 1    -0.01272833    -0.03548801    -0.00523500
Spot 2    -0.01288243    -0.03549837    -0.00523500
Spot 1    -0.01272902    -0.03548903    -0.00523500
Spot 2    -0.01288202    -0.03549740    -0.00523500
20MABNDM000020_PR014
Spot 1    -0.01169455    -0.03562508    -0.00523500
Spot 2    -0.01185601    -0.03563691    -0.00523500
Spot 1    -0.01169442    -0.03562623    -0.00523500
Spot 2    -0.01185563    -0.03563632    -0.00523500
Spot 1    -0.01169459    -0.03562730    -0.00523500
Spot 2    -0.01185515    -0.03563472    -0.00523500
20MABNDM000020_20MABNDL000196
Spot 1     0.01270951    -0.03514695    -0.07583800
Spot 2     0.01238113    -0.03407361    -0.07583800
Spot 1     0.01270953    -0.03514706    -0.07583800
Spot 2     0.01238113    -0.03407361    -0.07583800
Spot 1     0.01270957    -0.03514678    -0.07583800
Spot 2     0.01238113    -0.03407361    -0.07583800
20MABNDM000020_PR035
Spot 1     0.01341618    -0.03546384    -0.07583800
Spot 2     0.01349954    -0.03549963    -0.07583800
Spot 1     0.01341665    -0.03546401    -0.07583800
Spot 2     0.01349949    -0.03549953    -0.07583800
Spot 1     0.01341605    -0.03546388    -0.07583800
Spot 2     0.01349981    -0.03549957    -0.07583800
20MABNDM000168_PR025
Spot 1    -0.01322753    -0.03563884    -0.00532900
Spot 2    -0.01338107    -0.03563960    -0.00532900
Spot 1    -0.01322781    -0.03563832    -0.00532900
Spot 2    -0.01338135    -0.03563982    -0.00532900
Spot 1    -0.01322765    -0.03563851    -0.00532900
Spot 2    -0.01338130    -0.03563990    -0.00532900
20MABNDM000168_PR026
Spot 1    -0.01173318    -0.03576231    -0.00532900
Spot 2    -0.01189443    -0.03575956    -0.00532900
Spot 1    -0.01173332    -0.03576245    -0.00532900
Spot 2    -0.01189454    -0.03575974    -0.00532900
Spot 1    -0.01173345    -0.03576268    -0.00532900
Spot 2    -0.01189425    -0.03575982    -0.00532900
20MABNDM000168_20MABNDL000077
Spot 1     0.01288379    -0.03530077    -0.07445100
Spot 2     0.01266768    -0.03530229    -0.07445100
Spot 1     0.01288382    -0.03530083    -0.07445100
Spot 2     0.01266771    -0.03530208    -0.07445100
Spot 1     0.01288366    -0.03530074    -0.07445100
Spot 2     0.01266788    -0.03530133    -0.07445100
20MABNDM000168_PR001
Spot 1     0.01361177    -0.03563027    -0.07445100
Spot 2     0.01371314    -0.03563388    -0.07445100
Spot 1     0.01361183    -0.03563017    -0.07445100
Spot 2     0.01371317    -0.03563382    -0.07445100
Spot 1     0.01361200    -0.03563019    -0.07445100
Spot 2     0.01371322    -0.03563391    -0.07445100
20MABNDL000196_PR036
Spot 1     0.01192491     0.03582431    -0.07483600
Spot 2     0.01208910     0.03582437    -0.07483600
Spot 1     0.01192483     0.03582429    -0.07483600
Spot 2     0.01208885     0.03582410    -0.07483600
Spot 1     0.01192480     0.03582448    -0.07483600
Spot 2     0.01208872     0.03582437    -0.07483600
20MABNDL000196_PR037
Spot 1     0.01344788     0.03536479    -0.07483600
Spot 2     0.01360252     0.03536320    -0.07483600
Spot 1     0.01344776     0.03536468    -0.07483600
Spot 2     0.01360236     0.03536341    -0.07483600
Spot 1     0.01344766     0.03536490    -0.07483600
Spot 2     0.01360231     0.03536322    -0.07483600
20MABNDL000196_20MABNDM000020
Spot 1    -0.01275022     0.03531210    -0.00611000
Spot 2    -0.01252908     0.03532151    -0.00611000
Spot 1    -0.01275032     0.03531212    -0.00611000
Spot 2    -0.01252888     0.03532183    -0.00611000
Spot 1    -0.01275025     0.03531219    -0.00611000
Spot 2    -0.01252925     0.03532167    -0.00611000
20MABNDL000196_PR012
Spot 1    -0.01348116     0.03559787    -0.00611000
Spot 2    -0.01355487     0.03564378    -0.00611000
Spot 1    -0.01348082     0.03559785    -0.00611000
Spot 2    -0.01355515     0.03564406    -0.00611000
Spot 1    -0.01348129     0.03559773    -0.00611000
Spot 2    -0.01355538     0.03564433    -0.00611000
20MABNDA000318_PR004
Spot 1    -0.01264260     0.01246565    -0.07310600
Spot 2    -0.01286046     0.01246564    -0.07310600
Spot 1    -0.01264243     0.01246568    -0.07310600
Spot 2    -0.01286041     0.01246566    -0.07310600
Spot 1    -0.01264250     0.01246559    -0.07310600
Spot 2    -0.01286048     0.01246583    -0.07310600
20MABNDA000334_PR005
Spot 1    -0.01311355     0.01253718    -0.07324100
Spot 2    -0.01283308     0.01253631    -0.07324100
Spot 1    -0.01311362     0.01253738    -0.07324100
Spot 2    -0.01283300     0.01253628    -0.07324100
Spot 1    -0.01311365     0.01253740    -0.07324100
Spot 2    -0.01283312     0.01253641    -0.07324100
20MABNDB000317_PR015
Spot 1    -0.01244575    -0.01250540    -0.07326100
Spot 2    -0.01266553    -0.01250128    -0.07326100
Spot 1    -0.01244543    -0.01250518    -0.07326100
Spot 2    -0.01266571    -0.01250113    -0.07326100
Spot 1    -0.01244566    -0.01250519    -0.07326100
Spot 2    -0.01266548    -0.01250117    -0.07326100
20MABNDB000146_PR016
Spot 1    -0.01276175    -0.01246572    -0.07450500
Spot 2    -0.01248578    -0.01246300    -0.07450500
Spot 1    -0.01276193    -0.01246577    -0.07450500
Spot 2    -0.01248571    -0.01246300    -0.07450500
Spot 1    -0.01276173    -0.01246587    -0.07450500
Spot 2    -0.01248580    -0.01246281    -0.07450500
20MABNDB000135_PR027
Spot 1    -0.01251264    -0.01319514    -0.07464700
Spot 2    -0.01229426    -0.01319536    -0.07464700
Spot 1    -0.01251257    -0.01319497    -0.07464700
Spot 2    -0.01229434    -0.01319536    -0.07464700
Spot 1    -0.01251260    -0.01319504    -0.07464700
Spot 2    -0.01229432    -0.01319541    -0.07464700
20MABNDB000126_PR028
Spot 1    -0.01253336    -0.01217329    -0.07500400
Spot 2    -0.01225145    -0.01217039    -0.07500400
Spot 1    -0.01253344    -0.01217343    -0.07500400
Spot 2    -0.01225142    -0.01217037    -0.07500400
Spot 1    -0.01253350    -0.01217334    -0.07500400
Spot 2    -0.01225147    -0.01217025    -0.07500400
20MABNDA000272_PR038
Spot 1    -0.01275289     0.01315789    -0.07417900
Spot 2    -0.01253155     0.01315786    -0.07417900
Spot 1    -0.01275295     0.01315789    -0.07417900
Spot 2    -0.01253177     0.01315792    -0.07417900
Spot 1    -0.01275281     0.01315798    -0.07417900
Spot 2    -0.01253146     0.01315779    -0.07417900
20MABNDA000003_PR039
Spot 1    -0.01279734     0.01212700    -0.07373400
Spot 2    -0.01307546     0.01212714    -0.07373400
Spot 1    -0.01279759     0.01212696    -0.07373400
Spot 2    -0.01307502     0.01212700    -0.07373400
Spot 1    -0.01279754     0.01212732    -0.07373400
Spot 2    -0.01307524     0.01212712    -0.07373400
20MABNDA000196_PR006
Spot 1    -0.01295755     0.01325362    -0.07967100
Spot 2    -0.01259193     0.01325118    -0.07967100
Spot 1    -0.01295783     0.01325362    -0.07967100
Spot 2    -0.01259173     0.01325120    -0.07967100
Spot 1    -0.01295805     0.01325357    -0.07967100
Spot 2    -0.01259173     0.01325114    -0.07967100
20MABNDA000324_PR007
Spot 1    -0.01254420     0.01280132    -0.07446800
Spot 2    -0.01233791     0.01279707    -0.07446800
Spot 1    -0.01254409     0.01280138    -0.07446800
Spot 2    -0.01233775     0.01279729    -0.07446800
Spot 1    -0.01254423     0.01280138    -0.07446800
Spot 2    -0.01233784     0.01279727    -0.07446800
20MABNDB000001_PR017
Spot 1    -0.01229413    -0.01355218    -0.07418400
Spot 2    -0.01192604    -0.01354737    -0.07418400
Spot 1    -0.01229408    -0.01355210    -0.07418400
Spot 2    -0.01192617    -0.01354755    -0.07418400
Spot 1    -0.01229411    -0.01355211    -0.07418400
Spot 2    -0.01192610    -0.01354768    -0.07418400
20MABNDB000260_PR019
Spot 1    -0.01241077    -0.01238998    -0.07492700
Spot 2    -0.01220760    -0.01238596    -0.07492700
Spot 1    -0.01241085    -0.01238980    -0.07492700
Spot 2    -0.01220783    -0.01238628    -0.07492700
Spot 1    -0.01241090    -0.01238975    -0.07492700
Spot 2    -0.01220741    -0.01238591    -0.07492700
20MABNDB000212_PR029
Spot 1    -0.01186290    -0.01327638    -0.07390500
Spot 2    -0.01222317    -0.01327279    -0.07390500
Spot 1    -0.01186285    -0.01327613    -0.07390500
Spot 2    -0.01222286    -0.01327256    -0.07390500
Spot 1    -0.01186285    -0.01327623    -0.07390500
Spot 2    -0.01222308    -0.01327263    -0.07390500
20MABNDB000128_PR030
Spot 1    -0.01244654    -0.01221237    -0.07353400
Spot 2    -0.01224142    -0.01221730    -0.07353400
Spot 1    -0.01244648    -0.01221242    -0.07353400
Spot 2    -0.01224148    -0.01221747    -0.07353400
Spot 1    -0.01244631    -0.01221238    -0.07353400
Spot 2    -0.01224117    -0.01221715    -0.07353400
20MABNDA000444_PR040
Spot 1    -0.01168712     0.01367013    -0.07412000
Spot 2    -0.01205380     0.01366930    -0.07412000
Spot 1    -0.01168672     0.01367013    -0.07412000
Spot 2    -0.01205378     0.01366914    -0.07412000
Spot 1    -0.01168686     0.01366982    -0.07412000
Spot 2    -0.01205378     0.01366914    -0.07412000
20MABNDA000053_PR041
Spot 1    -0.01241073     0.01211516    -0.07430100
Spot 2    -0.01220058     0.01211293    -0.07430100
Spot 1    -0.01241071     0.01211554    -0.07430100
Spot 2    -0.01220025     0.01211213    -0.07430100
Spot 1    -0.01240992     0.01211534    -0.07430100
Spot 2    -0.01220155     0.01211296    -0.07430100
20MABNDA000188_PR008
Spot 1    -0.01399107     0.01394961    -0.07502000
Spot 2    -0.01399107     0.01394961    -0.07502000
Spot 1    -0.01399107     0.01394961    -0.07502000
Spot 2    -0.01399107     0.01394961    -0.07502000
Spot 1    -0.01399107     0.01394961    -0.07502000
Spot 2    -0.01399107     0.01394961    -0.07502000
20MABNDA000188_PR018
Spot 1    -0.01262188     0.01252215    -0.07502000
Spot 2    -0.01215494     0.01252108    -0.07502000
Spot 1    -0.01262180     0.01252206    -0.07502000
Spot 2    -0.01215489     0.01252133    -0.07502000
Spot 1    -0.01262164     0.01252208    -0.07502000
Spot 2    -0.01215483     0.01252106    -0.07502000
20MABNDA000039_PR009
Spot 1    -0.01162120     0.01303572    -0.07444800
Spot 2    -0.01157441     0.01303138    -0.07444800
Spot 1    -0.01162124     0.01303542    -0.07444800
Spot 2    -0.01157443     0.01303130    -0.07444800
Spot 1    -0.01162167     0.01303567    -0.07444800
Spot 2    -0.01157434     0.01303146    -0.07444800
20MABNDA000039_PR011
Spot 1    -0.01371792     0.01388882    -0.07444800
Spot 2    -0.01354229     0.01389266    -0.07444800
Spot 1    -0.01371789     0.01388873    -0.07444800
Spot 2    -0.01354232     0.01389245    -0.07444800
Spot 1    -0.01371796     0.01388859    -0.07444800
Spot 2    -0.01354215     0.01389260    -0.07444800
20MABNDB000155_PR020
Spot 1    -0.01359086    -0.01315654    -0.07501700
Spot 2    -0.01352516    -0.01315855    -0.07501700
Spot 1    -0.01359130    -0.01315635    -0.07501700
Spot 2    -0.01352536    -0.01315849    -0.07501700
Spot 1    -0.01359118    -0.01315638    -0.07501700
Spot 2    -0.01352576    -0.01315847    -0.07501700
20MABNDB000155_PR022
Spot 1    -0.01201518    -0.01303036    -0.07501700
Spot 2    -0.01154157    -0.01302902    -0.07501700
Spot 1    -0.01201528    -0.01303020    -0.07501700
Spot 2    -0.01154153    -0.01302904    -0.07501700
Spot 1    -0.01201532    -0.01303020    -0.07501700
Spot 2    -0.01154172    -0.01302902    -0.07501700
20MABNDB000010_PR021
Spot 1    -0.01158508    -0.01289884    -0.07358200
Spot 2    -0.01153341    -0.01289653    -0.07358200
Spot 1    -0.01158534    -0.01289902    -0.07358200
Spot 2    -0.01153326    -0.01289592    -0.07358200
Spot 1    -0.01158524    -0.01289884    -0.07358200
Spot 2    -0.01153264    -0.01289652    -0.07358200
20MABNDB000010_PR023
Spot 1    -0.01312866    -0.01372102    -0.07358200
Spot 2    -0.01295389    -0.01372114    -0.07358200
Spot 1    -0.01312869    -0.01372103    -0.07358200
Spot 2    -0.01295385    -0.01372103    -0.07358200
Spot 1    -0.01312864    -0.01372103    -0.07358200
Spot 2    -0.01295383    -0.01372102    -0.07358200
20MABNDB000069_PR031
Spot 1    -0.01355574    -0.01288652    -0.07388500
Spot 2    -0.01348858    -0.01288631    -0.07388500
Spot 1    -0.01355721    -0.01288661    -0.07388500
Spot 2    -0.01348932    -0.01288608    -0.07388500
20MABNDB000069_PR033
Spot 1    -0.01195439    -0.01249219    -0.07388500
Spot 2    -0.01148443    -0.01249287    -0.07388500
Spot 1    -0.01195458    -0.01249234    -0.07388500
Spot 2    -0.01148445    -0.01249289    -0.07388500
20MABNDB000131_PR032
Spot 1    -0.01144568    -0.01300645    -0.07533000
Spot 2    -0.01138636    -0.01300244    -0.07533000
Spot 1    -0.01144568    -0.01300648    -0.07533000
Spot 2    -0.01138659    -0.01300249    -0.07533000
20MABNDB000131_PR034
Spot 1    -0.01330126    -0.01370891    -0.07533000
Spot 2    -0.01312531    -0.01370866    -0.07533000
Spot 1    -0.01330122    -0.01370875    -0.07533000
Spot 2    -0.01312519    -0.01370866    -0.07533000
20MABNDA000208_PR042
Spot 1    -0.01387511     0.01306322    -0.07273700
Spot 2    -0.01391534     0.01261103    -0.07273700
Spot 1    -0.01387487     0.01306426    -0.07273700
Spot 2    -0.01391534     0.01261103    -0.07273700
20MABNDA000208_PR046
Spot 1    -0.01109546     0.01275351    -0.07273700
Spot 2    -0.01175437     0.01205314    -0.07273700
Spot 1    -0.01109546     0.01275351    -0.07273700
Spot 2    -0.01176559     0.01214805    -0.07273700
20MABNDA000035_PR044
Spot 1    -0.01157179     0.01297694    -0.07483200
Spot 2    -0.01151560     0.01298188    -0.07483200
Spot 1    -0.01157180     0.01297686    -0.07483200
Spot 2    -0.01151566     0.01298166    -0.07483200
20MABNDA000035_PR045
Spot 1    -0.01336546     0.01372905    -0.07483200
Spot 2    -0.01318854     0.01372912    -0.07483200
Spot 1    -0.01336523     0.01372927    -0.07483200
Spot 2    -0.01318860     0.01372920    -0.07483200


*****************************************************************coordonnees du prisme dans le repere MOUNT********************************************************************************** 
20MABNDL000077_PR002
    0.05009476     0.04750571     3.70691466
    0.05009158     0.04748277     3.70691466
    0.04147131     0.02463216     3.70699167
20MABNDL000077_PR003
    0.02103949     0.02142802     3.89601803
    0.02106073     0.02142288     3.89601803
    0.02105759     0.02142058     3.89601803
20MABNDL000077_20MABNDM000168
   -0.05597565     0.07579700    -5.46843624
   -0.05598108     0.07579911    -5.46843529
   -0.05597567     0.07579952    -5.46843624
20MABNDL000077_PR024
    0.04570172     0.01701996    -5.89639807
    0.04569966     0.01703085    -5.89639807
    0.04569994     0.01704177    -5.89639807
20MABNDM000020_PR013
   -0.00381120    -0.01796137    -3.80243373
   -0.00382308    -0.01799663    -3.80243373
   -0.00381616    -0.01799523    -3.80243373
20MABNDM000020_PR014
   -0.06568633    -0.00486470    -4.74840832
   -0.06570227    -0.00484729    -4.74840736
   -0.06571186    -0.00486363    -4.74840736
20MABNDM000020_20MABNDL000196
    0.02684379    -0.07123304     5.39469719
    0.02684307    -0.07122910     5.39469719
    0.02684164    -0.07123914     5.39469719
20MABNDM000020_PR035
   -0.04240743    -0.00674493     5.80095482
   -0.04242362    -0.00674224     5.80095482
   -0.04241283    -0.00674571     5.80095482
20MABNDM000168_PR025
    0.01802856    -0.02095367    -3.78863955
    0.01804244    -0.02096103    -3.78863955
    0.01803722    -0.02095437    -3.78863955
20MABNDM000168_PR026
   -0.05794385    -0.01382109    -3.98428845
   -0.05793712    -0.01381273    -3.98428845
   -0.05794132    -0.01380442    -3.98428845
20MABNDM000168_20MABNDL000077
    0.01155751    -0.03875719     5.38884687
    0.01155528    -0.03876255     5.38884687
    0.01155484    -0.03879272     5.38884687
20MABNDM000168_PR001
   -0.05728173    -0.01334410     5.81470633
   -0.05728530    -0.01335026     5.81470633
   -0.05729377    -0.01334587     5.81470633
20MABNDL000196_PR036
    0.05142610     0.00613094     3.68777251
    0.05143418     0.00613807     3.68777251
    0.05143814     0.00612679     3.68777251
20MABNDL000196_PR037
   -0.02502477     0.02834982     3.88381386
   -0.02501753     0.02834725     3.88381386
   -0.02501391     0.02834649     3.88381386
20MABNDL000196_20MABNDM000020
   -0.01567753     0.03794598    -5.47473907
   -0.01568123     0.03793333    -5.47473907
   -0.01567052     0.03793678    -5.47473907
20MABNDL000196_PR012
    0.05235234     0.01446888    -5.91537142
    0.05235020     0.01445912    -5.91537142
    0.05237715     0.01445305    -5.91537142
20MABNDA000318_PR004
   -0.00864730     0.03853454     2.74965811
   -0.00865133     0.03853361     2.74965811
   -0.00864876     0.03853215     2.74965811
20MABNDA000334_PR005
   -0.00435025     0.03184210     2.14977074
   -0.00435039     0.03183967     2.14977074
   -0.00434825     0.03183752     2.14977074
20MABNDB000317_PR015
   -0.01741119    -0.03387138     2.75129128
   -0.01741366    -0.03387832     2.75129128
   -0.01741367    -0.03387723     2.75129128
20MABNDB000146_PR016
   -0.01350049    -0.03165767     2.15201378
   -0.01349891    -0.03165695     2.15201378
   -0.01350049    -0.03165825     2.15201378
20MABNDB000135_PR027
   -0.02104440    -0.00992949     2.74937105
   -0.02104425    -0.00993261     2.74937105
   -0.02104404    -0.00993041     2.74937105
20MABNDB000126_PR028
   -0.02037435    -0.03895106     2.14679527
   -0.02037365    -0.03894935     2.14679527
   -0.02037221    -0.03895234     2.14679527
20MABNDA000272_PR038
   -0.01344132     0.01089665     2.74965858
   -0.01343619     0.01089555     2.74965858
   -0.01344443     0.01089629     2.74965858
20MABNDA000003_PR039
   -0.00606370     0.04120981     2.14891624
   -0.00606641     0.04121254     2.14891624
   -0.00606400     0.04120567     2.14891624
20MABNDA000196_PR006
   -0.01003121     0.00983167     1.64206314
   -0.01003034     0.00983144     1.64206314
   -0.01002792     0.00983272     1.64206314
20MABNDA000324_PR007
   -0.02563674     0.02817469     2.95548868
   -0.02564201     0.02816913     2.95548868
   -0.02563749     0.02816956     2.95548868
20MABNDB000001_PR017
   -0.02429450    -0.00280443     1.64035845
   -0.02429372    -0.00280334     1.64035845
   -0.02429414    -0.00280181     1.64035845
20MABNDB000260_PR019
   -0.02428003    -0.03873955     2.95627189
   -0.02427418    -0.03873667     2.95627189
   -0.02428130    -0.03874490     2.95627189
20MABNDB000212_PR029
   -0.02521298    -0.00854766     1.64223957
   -0.02521688    -0.00855289     1.64223957
   -0.02521445    -0.00855105     1.64223957
20MABNDB000128_PR030
   -0.01961805    -0.04694734     2.95496082
   -0.01961806    -0.04694302     2.95496082
   -0.01962747    -0.04695012     2.95496082
20MABNDA000444_PR040
   -0.03019818     0.00102093     1.64490962
   -0.03020281     0.00102262     1.64490962
   -0.03020121     0.00102604     1.64490962
20MABNDA000053_PR041
   -0.02664576     0.05126809     2.95450139
   -0.02665268     0.05127628     2.95450139
   -0.02664270     0.05126391     2.95450139
20MABNDA000188_PR008
    0.14616936    -0.09611703     9.20304298
    0.14616936    -0.09611703     9.20304298
    0.14616936    -0.09611703     9.20304298
20MABNDA000188_PR018
   -0.01797689     0.02231152     1.28360653
   -0.01797801     0.02231016     1.28360653
   -0.01797988     0.02231232     1.28360653
20MABNDA000039_PR009
   -0.17183483     0.02974429    11.00700092
   -0.17183033     0.02977205    11.00700092
   -0.17180561     0.02974270    11.00700092
20MABNDA000039_PR011
    0.03039465    -0.02077766     3.43351507
    0.03039469    -0.02077082     3.43351507
    0.03039240    -0.02077104     3.43351507
20MABNDB000155_PR020
    0.09528130    -0.00544471     9.20036316
    0.09532020    -0.00546075     9.20036316
    0.09533738    -0.00545990     9.20036316
20MABNDB000155_PR022
   -0.02803931    -0.01424090     1.28068841
   -0.02803878    -0.01424209     1.28068841
   -0.02803681    -0.01424224     1.28068841
20MABNDB000010_PR021
   -0.17552027    -0.03753706    11.00694847
   -0.17551164    -0.03756927    11.00694847
   -0.17556509    -0.03753855    11.00694752
20MABNDB000010_PR023
    0.00451637     0.01704984     3.43380022
    0.00451595     0.01704754     3.43380022
    0.00451435     0.01704728     3.43380022
20MABNDB000069_PR031
    0.09801906    -0.03597093     9.20362091
    0.09815495    -0.03597961     9.20361996
20MABNDB000069_PR033
   -0.02804375    -0.02301194     1.28396297
   -0.02804198    -0.02301056     1.28396297
20MABNDB000131_PR032
   -0.18753567    -0.03428541    11.00642014
   -0.18751889    -0.03427948    11.00642014
20MABNDB000131_PR034
    0.01474456     0.01235636     3.43340874
    0.01474093     0.01235270     3.43340874
20MABNDA000208_PR042
    0.13232054     0.03994030     9.20141220
    0.13230589     0.03987646     9.20141315
20MABNDA000208_PR046
   -0.03470787     0.02422635     1.28207040
   -0.03461213     0.02341546     1.28207898
20MABNDA000035_PR044
   -0.18007803     0.03016058    11.00801659
   -0.18007274     0.03018248    11.00801659
20MABNDA000035_PR045
    0.01419956    -0.01579024     3.43486834
    0.01419563    -0.01579728     3.43486834


*****************************************************************coordonnees du prisme dans le repere ATLAS********************************************************************************** 
20MABNDL000077_PR002 0.00000000
    2.80953526    -3.69441390     6.48622131
    2.80955815    -3.69441700     6.48622131
    2.83240628    -3.70304465     6.48626518
20MABNDL000077_PR003 0.00000000
    2.83578920    -3.72371078     6.67526293
    2.83579445    -3.72368956     6.67526293
    2.83579659    -3.72369266     6.67526293
20MABNDL000077_20MABNDM000168 0.00000000
    2.77221036    -3.78915477    -2.68922138
    2.77220821    -3.78916025    -2.68922043
    2.77220774    -3.78915477    -2.68922138
20MABNDL000077_PR024 0.00000000
    2.83060002    -3.68696809    -3.11711502
    2.83058906    -3.68697023    -3.11711502
    2.83057833    -3.68697000    -3.11711478
20MABNDM000020_PR013 0.00000000
   -2.83434796    -3.73567271     6.48627663
   -2.83431268    -3.73566079     6.48627663
   -2.83431411    -3.73566771     6.48627663
20MABNDM000020_PR014 0.00000000
   -2.84723639    -3.67451310     7.43230057
   -2.84725380    -3.67449713     7.43229961
   -2.84723735    -3.67448759     7.43229961
20MABNDM000020_20MABNDL000196 0.00000000
   -2.78292632    -3.75934935    -2.71088576
   -2.78293014    -3.75934863    -2.71088576
   -2.78292012    -3.75934720    -2.71088576
20MABNDM000020_PR035 0.00000000
   -2.84747434    -3.68976927    -3.11707759
   -2.84747720    -3.68975329    -3.11707759
   -2.84747362    -3.68976402    -3.11707759
20MABNDM000168_PR025 0.00000000
    2.83228326    -3.76335788    -6.47925854
    2.83227587    -3.76337171    -6.47925854
    2.83228254    -3.76336646    -6.47925854
20MABNDM000168_PR026 0.00000000
    2.83942389    -3.68745995    -6.67493582
    2.83943224    -3.68746662    -6.67493582
    2.83944058    -3.68746257    -6.67493582
20MABNDM000168_20MABNDL000077 0.00000000
    2.81503820    -3.75346971     2.69822621
    2.81503296    -3.75346732     2.69822621
    2.81500268    -3.75346684     2.69822621
20MABNDM000168_PR001 0.00000000
    2.84049535    -3.68447876     3.12405849
    2.84048939    -3.68447518     3.12405849
    2.84049368    -3.68446660     3.12405849
20MABNDL000196_PR036 0.00000000
   -2.84747672    -3.69284821    -6.47909594
   -2.84746957    -3.69284034    -6.47909594
   -2.84748077    -3.69283628    -6.47909594
20MABNDL000196_PR037 0.00000000
   -2.82522631    -3.76947117    -6.67506695
   -2.82522893    -3.76946402    -6.67506695
   -2.82522964    -3.76946020    -6.67506695
20MABNDL000196_20MABNDM000020 0.00000000
   -2.81543231    -3.75141406     2.68347335
   -2.81544495    -3.75141788     2.68347335
   -2.81544161    -3.75140715     2.68347335
20MABNDL000196_PR012 0.00000000
   -2.83893156    -3.68298531     3.12404275
   -2.83894134    -3.68298745     3.12404275
   -2.83894753    -3.68296051     3.12404275
20MABNDA000318_PR004 0.00000000
    2.61435580    -4.19698763     3.83346415
    2.61435175    -4.19698763     3.83346510
    2.61435437    -4.19698763     3.83346653
20MABNDA000334_PR005 0.00000000
    2.61664844    -4.19703245     5.89741898
    2.61664820    -4.19703245     5.89742136
    2.61665034    -4.19703245     5.89742327
20MABNDB000317_PR015 0.00000000
   -2.61119604    -4.19700575     3.83614397
   -2.61119342    -4.19700575     3.83613706
   -2.61119342    -4.19700575     3.83613825
20MABNDB000146_PR016 0.00000000
   -2.61279464    -4.19702387     5.89869261
   -2.61279631    -4.19702387     5.89869308
   -2.61279464    -4.19702387     5.89869213
20MABNDB000135_PR027 0.00000000
    2.60381889    -4.19700432    -3.82543135
    2.60381913    -4.19700432    -3.82542825
    2.60381913    -4.19700432    -3.82543039
20MABNDB000126_PR028 0.00000000
    2.60554290    -4.19702101    -5.89326859
    2.60554361    -4.19702101    -5.89327049
    2.60554504    -4.19702101    -5.89326763
20MABNDA000272_PR038 0.00000000
   -2.61109567    -4.19698286    -3.82758760
   -2.61110067    -4.19698286    -3.82758880
   -2.61109257    -4.19698286    -3.82758808
20MABNDA000003_PR039 0.00000000
   -2.61566734    -4.19702053    -5.89155674
   -2.61566472    -4.19702053    -5.89155436
   -2.61566710    -4.19702053    -5.89156103
20MABNDA000196_PR006 0.00000000
    2.58449173    -4.19496584     6.54778814
    2.58449101    -4.19496584     6.54778814
    2.58448839    -4.19496584     6.54778910
20MABNDA000324_PR007 0.00000000
    2.59367800    -4.13997030     6.94774055
    2.59367275    -4.13997030     6.94774580
    2.59367728    -4.13997030     6.94774532
20MABNDB000001_PR017 0.00000000
   -2.59799576    -4.19505978     6.53813267
   -2.59799504    -4.19505978     6.53813124
   -2.59799552    -4.19505978     6.53812981
20MABNDB000260_PR019 0.00000000
   -2.60448170    -4.13996220     6.94190454
   -2.60448766    -4.13996220     6.94190741
   -2.60448050    -4.13996220     6.94189882
20MABNDB000212_PR029 0.00000000
    2.59889078    -4.19500923    -6.54753542
    2.59889460    -4.19500923    -6.54754066
    2.59889221    -4.19500923    -6.54753876
20MABNDB000128_PR030 0.00000000
    2.60924077    -4.14002848    -6.93117380
    2.60924053    -4.14002848    -6.93117809
    2.60923123    -4.14002848    -6.93117094
20MABNDA000444_PR040 0.00000000
   -2.60537076    -4.19509983    -6.54020119
   -2.60537529    -4.19509983    -6.54020262
   -2.60537386    -4.19509983    -6.54020643
20MABNDA000053_PR041 0.00000000
   -2.59389615    -4.14012909    -6.92664528
   -2.59388924    -4.14012909    -6.92663717
   -2.59389925    -4.14012909    -6.92664957
20MABNDA000188_PR008 0.00000000
    3.55893064     3.84859109     8.10764503
    3.55893064     3.84859109     8.10764503
    3.55893064     3.84859109     8.10764503
20MABNDA000188_PR018 0.00000000
    3.51910758    -4.07063866     7.90110970
    3.51910639    -4.07063866     7.90111113
    3.51910448    -4.07063866     7.90110874
20MABNDA000039_PR009 0.00000000
    3.87600636     3.64745688    12.94103813
    3.87600183     3.64745688    12.94106579
    3.87597704     3.64745688    12.94103718
20MABNDA000039_PR011 0.00000000
    3.66462922    -3.92576241    12.88805866
    3.66462898    -3.92576241    12.88806629
    3.66463137    -3.92576241    12.88806534
20MABNDB000155_PR020 0.00000000
   -3.67393494     3.84891272     7.90142488
   -3.67397404     3.84891272     7.90140867
   -3.67399120     3.84891272     7.90140963
20MABNDB000155_PR022 0.00000000
   -3.53194237    -4.07045031     7.89381933
   -3.53194284    -4.07045031     7.89381790
   -3.53194475    -4.07045031     7.89381790
20MABNDB000010_PR021 0.00000000
   -3.86135411     3.64768744    12.93936634
   -3.86134553     3.64768744    12.93939877
   -3.86139894     3.64768648    12.93936729
20MABNDB000010_PR023 0.00000000
   -3.68514729    -3.92557502    12.88822556
   -3.68514752    -3.92557502    12.88822842
   -3.68514919    -3.92557502    12.88822842
20MABNDB000069_PR031 0.00000000
    3.67973447     3.84881473    -7.90442991
    3.67987037     3.84881353    -7.90442133
20MABNDB000069_PR033 0.00000000
    3.53225374    -4.07045412    -7.88265896
    3.53225541    -4.07045412    -7.88266039
20MABNDB000131_PR032 0.00000000
    3.86833668     3.64756823   -12.94492817
    3.86831999     3.64756823   -12.94492245
20MABNDB000131_PR034 0.00000000
    3.67304349    -3.92560959   -12.89559078
    3.67304707    -3.92560959   -12.89559460
20MABNDA000208_PR042 0.00000000
   -3.68241239     3.84910131    -7.87154579
   -3.68239760     3.84910226    -7.87160969
20MABNDA000208_PR046 0.00000000
   -3.52105212    -4.07036352    -7.88428593
   -3.52114725    -4.07035494    -7.88509703
20MABNDA000035_PR044 0.00000000
   -3.86931968     3.64757204   -12.93583965
   -3.86931443     3.64757204   -12.93586159
20MABNDA000035_PR045 0.00000000
   -3.67652941    -3.92561865   -12.89059448
   -3.67653322    -3.92561865   -12.89058685


*****************************************************************Rapport********************************************************************************** 
CAM-LBA-US_EBA-US-HO-H         2018.12.01.03.13.01     2.81716657    -3.69729185     6.48623594     0.01077611     0.00406785     0.00002068 0.00000000 VRAI 
CAM-LBA-US_JDA-US-H            2018.12.01.03.13.01     2.83579342    -3.72369766     6.67526293     0.00000310     0.00000936     0.00000000 0.00000000 VRAI 
CAM-LBA-US_CAM-LBC-US          2018.12.01.03.13.01     2.77220877    -3.78915660    -2.68922106     0.00000114     0.00000259     0.00000045 0.00000000 VRAI 
CAM-LBA-US_EBC-US-IP-H         2018.12.01.03.13.01     2.83058914    -3.68696944    -3.11711494     0.00000886     0.00000096     0.00000011 0.00000000 VRAI 
CAM-LBA-USA_EBA-USA-HO-H       2018.12.01.03.13.01    -2.83432492    -3.73566707     6.48627663     0.00001631     0.00000489     0.00000000 0.00000000 VRAI 
CAM-LBA-USA_JDA-USA-H          2018.12.01.03.13.01    -2.84724251    -3.67449927     7.43229993     0.00000799     0.00001052     0.00000045 0.00000000 VRAI 
CAM-LBA-USA_CAM-LBC-USA        2018.12.01.03.13.01    -2.78292553    -3.75934839    -2.71088576     0.00000413     0.00000089     0.00000000 0.00000000 VRAI 
CAM-LBA-USA_EBC-USA-IP-H       2018.12.01.03.13.01    -2.84747505    -3.68976219    -3.11707759     0.00000155     0.00000665     0.00000000 0.00000000 VRAI 
CAM-LBC-US_EBC-US-HO-H         2018.12.01.03.13.01     2.83228056    -3.76336535    -6.47925854     0.00000333     0.00000570     0.00000000 0.00000000 VRAI 
CAM-LBC-US_JDC-US-H            2018.12.01.03.13.01     2.83943224    -3.68746305    -6.67493582     0.00000681     0.00000275     0.00000000 0.00000000 VRAI 
CAM-LBC-US_CAM-LBA-US          2018.12.01.03.13.01     2.81502461    -3.75346796     2.69822621     0.00001566     0.00000125     0.00000000 0.00000000 VRAI 
CAM-LBC-US_EBA-US-IP-H         2018.12.01.03.13.01     2.84049280    -3.68447351     3.12405849     0.00000251     0.00000510     0.00000000 0.00000000 VRAI 
CAM-LBC-USA_EBC-USA-HO-H       2018.12.01.03.13.01    -2.84747569    -3.69284161    -6.47909594     0.00000463     0.00000495     0.00000000 0.00000000 VRAI 
CAM-LBC-USA_JDC-USA-H          2018.12.01.03.13.01    -2.82522829    -3.76946513    -6.67506695     0.00000143     0.00000455     0.00000000 0.00000000 VRAI 
CAM-LBC-USA_CAM-LBA-USA        2018.12.01.03.13.01    -2.81543962    -3.75141303     2.68347335     0.00000535     0.00000444     0.00000000 0.00000000 VRAI 
CAM-LBC-USA_EBA-USA-IP-H       2018.12.01.03.13.01    -2.83894014    -3.68297776     3.12404275     0.00000658     0.00001223     0.00000000 0.00000000 VRAI 
CAM-EBA-US-IP_EBA-US-IP        2018.12.01.03.13.01     2.61435397    -4.19698763     3.83346526     0.00000168     0.00000000     0.00000098 0.00000000 VRAI 
CAM-EBA-US-HO_EBA-US-HO        2018.12.01.03.13.01     2.61664899    -4.19703245     5.89742120     0.00000096     0.00000000     0.00000176 0.00000000 VRAI 
CAM-EBA-USA-IP_EBA-USA-IP      2018.12.01.03.13.01    -2.61119429    -4.19700575     3.83613976     0.00000124     0.00000000     0.00000302 0.00000000 VRAI 
CAM-EBA-USA-HO_EBA-USA-HO      2018.12.01.03.13.01    -2.61279519    -4.19702387     5.89869261     0.00000079     0.00000000     0.00000039 0.00000000 VRAI 
CAM-EBC-US-IP_EBC-US-IP        2018.12.01.03.13.01     2.60381905    -4.19700432    -3.82543000     0.00000011     0.00000000     0.00000130 0.00000000 VRAI 
CAM-EBC-US-HO_EBC-US-HO        2018.12.01.03.13.01     2.60554385    -4.19702101    -5.89326890     0.00000089     0.00000000     0.00000119 0.00000000 VRAI 
CAM-EBC-USA-IP_EBC-USA-IP      2018.12.01.03.13.01    -2.61109630    -4.19698286    -3.82758816     0.00000334     0.00000000     0.00000049 0.00000000 VRAI 
CAM-EBC-USA-HO_EBC-USA-HO      2018.12.01.03.13.01    -2.61566639    -4.19702053    -5.89155738     0.00000118     0.00000000     0.00000276 0.00000000 VRAI 
CAM-JDA-US-IP_JDA-US-IP        2018.12.01.03.13.01     2.58449038    -4.19496584     6.54778846     0.00000143     0.00000000     0.00000045 0.00000000 VRAI 
CAM-JDA-US-HO_JDA-US-HO        2018.12.01.03.13.01     2.59367601    -4.13997030     6.94774389     0.00000232     0.00000000     0.00000237 0.00000000 VRAI 
CAM-JDA-USA-IP_JDA-USA-IP      2018.12.01.03.13.01    -2.59799544    -4.19505978     6.53813124     0.00000030     0.00000000     0.00000117 0.00000000 VRAI 
CAM-JDA-USA-HO_JDA-USA-HO      2018.12.01.03.13.01    -2.60448329    -4.13996220     6.94190359     0.00000313     0.00000000     0.00000357 0.00000000 VRAI 
CAM-JDC-US-IP_JDC-US-IP        2018.12.01.03.13.01     2.59889253    -4.19500923    -6.54753828     0.00000157     0.00000000     0.00000217 0.00000000 VRAI 
CAM-JDC-US-HO_JDC-US-HO        2018.12.01.03.13.01     2.60923751    -4.14002848    -6.93117428     0.00000444     0.00000000     0.00000294 0.00000000 VRAI 
CAM-JDC-USA-IP_JDC-USA-IP      2018.12.01.03.13.01    -2.60537330    -4.19509983    -6.54020341     0.00000189     0.00000000     0.00000221 0.00000000 VRAI 
CAM-JDC-USA-HO_JDC-USA-HO      2018.12.01.03.13.01    -2.59389488    -4.14012909    -6.92664401     0.00000419     0.00000000     0.00000514 0.00000000 VRAI 
CAM-ECTA-US-IP_ECTA-US-IP-T    2018.12.01.03.13.01     3.55893064     3.84859109     8.10764503     0.00000000     0.00000000     0.00000000 0.00000000 VRAI 
CAM-ECTA-US-IP_ECTA-US-IP      2018.12.01.03.13.01     3.51910615    -4.07063866     7.90110985     0.00000128     0.00000000     0.00000098 0.00000000 VRAI 
CAM-ECTA-US-HO_ECTA-US-HO-T    2018.12.01.03.13.01     3.87599508     3.64745688    12.94104703     0.00001289     0.00000000     0.00001327 0.00000000 VRAI 
CAM-ECTA-US-HO_ECTA-US-HO      2018.12.01.03.13.01     3.66462986    -3.92576241    12.88806343     0.00000107     0.00000000     0.00000339 0.00000000 VRAI 
CAM-ECTA-USA-IP_ECTA-USA-IP-T  2018.12.01.03.13.01    -3.67396673     3.84891272     7.90141439     0.00002355     0.00000000     0.00000743 0.00000000 VRAI 
CAM-ECTA-USA-IP_ECTA-USA-IP    2018.12.01.03.13.01    -3.53194332    -4.07045031     7.89381838     0.00000103     0.00000000     0.00000067 0.00000000 VRAI 
CAM-ECTA-USA-HO_ECTA-USA-HO-T  2018.12.01.03.13.01    -3.86136619     3.64768712    12.93937747     0.00002342     0.00000045     0.00001507 0.00000000 VRAI 
CAM-ECTA-USA-HO_ECTA-USA-HO    2018.12.01.03.13.01    -3.68514800    -3.92557502    12.88822746     0.00000085     0.00000000     0.00000135 0.00000000 VRAI 
CAM-ECTC-US-IP_ECTC-US-IP-T    2018.12.01.03.13.01     3.67980242     3.84881413    -7.90442562     0.00006795     0.00000060     0.00000429 0.00000000 VRAI 
CAM-ECTC-US-IP_ECTC-US-IP      2018.12.01.03.13.01     3.53225458    -4.07045412    -7.88265967     0.00000083     0.00000000     0.00000072 0.00000000 VRAI 
CAM-ECTC-US-HO_ECTC-US-HO-T    2018.12.01.03.13.01     3.86832833     3.64756823   -12.94492531     0.00000834     0.00000000     0.00000286 0.00000000 VRAI 
CAM-ECTC-US-HO_ECTC-US-HO      2018.12.01.03.13.01     3.67304528    -3.92560959   -12.89559269     0.00000179     0.00000000     0.00000191 0.00000000 VRAI 
CAM-ECTC-USA-IP_ECTC-USA-IP-T  2018.12.01.03.13.01    -3.68240499     3.84910178    -7.87157774     0.00000739     0.00000048     0.00003195 0.00000000 VRAI 
CAM-ECTC-USA-IP_ECTC-USA-IP    2018.12.01.03.13.01    -3.52109969    -4.07035923    -7.88469148     0.00004756     0.00000429     0.00040555 0.00000000 VRAI 
CAM-ECTC-USA-HO_ECTC-USA-HO-T  2018.12.01.03.13.01    -3.86931705     3.64757204   -12.93585062     0.00000262     0.00000000     0.00001097 0.00000000 VRAI 
CAM-ECTC-USA-HO_ECTC-USA-HO    2018.12.01.03.13.01    -3.67653131    -3.92561865   -12.89059067     0.00000191     0.00000000     0.00000381 0.00000000 VRAI 
