********** Fichier qui contient une sauvegarde des coordonnees images + coordonnees images transformees dans le repere BCAM (MOUNT) + coordonnees des prismes dans le repere MOUNT********** 
********************************************************************** Unite en metres (m)************************************************************************************************** 

*******************************************************************coordonnees images dans le repere CCD *********************************************************************************** 
20MABNDL000077_PR002
Spot 1     0.00121412     0.00150308
Spot 2     0.00086500     0.00006500
Spot 1     0.00121465     0.00150258
Spot 2     0.00086500     0.00006500
Spot 1     0.00121459     0.00150296
Spot 2     0.00086500     0.00006500
20MABNDL000077_PR003
Spot 1     0.00138742     0.00148751
Spot 2     0.00153705     0.00148925
Spot 1     0.00138734     0.00148734
Spot 2     0.00153705     0.00148923
Spot 1     0.00138799     0.00148740
Spot 2     0.00153721     0.00148932
20MABNDL000077_20MABNDM000168
Spot 1     0.00175756     0.00118437
Spot 2     0.00075500     0.00010500
Spot 1     0.00175700     0.00118429
Spot 2     0.00075500     0.00010500
Spot 1     0.00175683     0.00118435
Spot 2     0.00075500     0.00010500
20MABNDL000077_PR024
Spot 1     0.00254593     0.00144773
Spot 2     0.00264585     0.00145538
Spot 1     0.00254592     0.00144775
Spot 2     0.00264601     0.00145522
Spot 1     0.00254596     0.00144774
Spot 2     0.00264634     0.00145519
20MABNDM000020_PR013
Spot 1     0.00162643     0.00152841
Spot 2     0.00147411     0.00153295
Spot 1     0.00162643     0.00152906
Spot 2     0.00147304     0.00153393
Spot 1     0.00162666     0.00152755
Spot 2     0.00147274     0.00153433
20MABNDM000020_PR014
Spot 1     0.00265784     0.00168952
Spot 2     0.00249731     0.00169351
Spot 1     0.00265877     0.00168839
Spot 2     0.00249746     0.00169347
Spot 1     0.00265942     0.00168926
Spot 2     0.00249813     0.00169340
20MABNDM000020_20MABNDL000196
Spot 1     0.00197691     0.00117816
Spot 2     0.00230500     0.00010500
Spot 1     0.00197690     0.00117820
Spot 2     0.00230500     0.00010500
Spot 1     0.00197691     0.00117811
Spot 2     0.00230500     0.00010500
20MABNDM000020_PR035
Spot 1     0.00126896     0.00149599
Spot 2     0.00118675     0.00153139
Spot 1     0.00126945     0.00149584
Spot 2     0.00118684     0.00153120
Spot 1     0.00126908     0.00149621
Spot 2     0.00118677     0.00153142
20MABNDM000168_PR025
Spot 1     0.00148500     0.00050500
Spot 2     0.00148500     0.00050500
Spot 1     0.00148500     0.00050500
Spot 2     0.00148500     0.00050500
Spot 1     0.00148500     0.00050500
Spot 2     0.00148500     0.00050500
20MABNDM000168_PR026
Spot 1     0.00266693     0.00143036
Spot 2     0.00250581     0.00142662
Spot 1     0.00266742     0.00143034
Spot 2     0.00250565     0.00142672
Spot 1     0.00266690     0.00143041
Spot 2     0.00250582     0.00142665
20MABNDM000168_20MABNDL000077
Spot 1     0.00154152     0.00130016
Spot 2     0.00175839     0.00130669
Spot 1     0.00154162     0.00130007
Spot 2     0.00175826     0.00130651
Spot 1     0.00154163     0.00130011
Spot 2     0.00175804     0.00130627
20MABNDM000168_PR001
Spot 1     0.00080869     0.00161882
Spot 2     0.00070619     0.00162071
Spot 1     0.00080847     0.00161894
Spot 2     0.00070605     0.00162075
Spot 1     0.00080838     0.00161895
Spot 2     0.00070607     0.00162063
20MABNDL000196_PR036
Spot 1     0.00094594     0.00163700
Spot 2     0.00111028     0.00163652
Spot 1     0.00094593     0.00163700
Spot 2     0.00111052     0.00163608
Spot 1     0.00094594     0.00163711
Spot 2     0.00111054     0.00163634
20MABNDL000196_PR037
Spot 1     0.00246832     0.00117179
Spot 2     0.00262337     0.00117038
Spot 1     0.00246833     0.00117204
Spot 2     0.00262337     0.00117043
Spot 1     0.00246852     0.00117189
Spot 2     0.00262342     0.00117048
20MABNDL000196_20MABNDM000020
Spot 1     0.00192577     0.00104096
Spot 2     0.00170470     0.00104639
Spot 1     0.00192592     0.00104103
Spot 2     0.00170470     0.00104651
Spot 1     0.00192582     0.00104105
Spot 2     0.00170488     0.00104628
20MABNDL000196_PR012
Spot 1     0.00265183     0.00134200
Spot 2     0.00272490     0.00138796
Spot 1     0.00265200     0.00134183
Spot 2     0.00272481     0.00138774
Spot 1     0.00265195     0.00134195
Spot 2     0.00272514     0.00138798
20MABNDA000318_PR004
Spot 1     0.00192515     0.00162674
Spot 2     0.00214333     0.00162616
Spot 1     0.00192519     0.00162688
Spot 2     0.00214342     0.00162635
Spot 1     0.00192509     0.00162676
Spot 2     0.00214321     0.00162657
20MABNDA000334_PR005
Spot 1     0.00247108     0.00158760
Spot 2     0.00219138     0.00158838
Spot 1     0.00247155     0.00158778
Spot 2     0.00219112     0.00158833
Spot 1     0.00247147     0.00158759
Spot 2     0.00219086     0.00158813
20MABNDB000317_PR015
Spot 1     0.00148474     0.00159386
Spot 2     0.00170465     0.00158753
Spot 1     0.00148487     0.00159421
Spot 2     0.00170454     0.00158732
Spot 1     0.00148458     0.00159396
Spot 2     0.00170463     0.00158747
20MABNDB000146_PR016
Spot 1     0.00144416     0.00132480
Spot 2     0.00171992     0.00132715
Spot 1     0.00144426     0.00132474
Spot 2     0.00172011     0.00132713
Spot 1     0.00144411     0.00132478
Spot 2     0.00172008     0.00132732
20MABNDB000135_PR027
Spot 1     0.00189057     0.00091394
Spot 2     0.00210832     0.00091560
Spot 1     0.00189037     0.00091403
Spot 2     0.00210837     0.00091560
Spot 1     0.00189043     0.00091387
Spot 2     0.00210839     0.00091565
20MABNDB000126_PR028
Spot 1     0.00164381     0.00200904
Spot 2     0.00192653     0.00201075
Spot 1     0.00164393     0.00200909
Spot 2     0.00192642     0.00201067
Spot 1     0.00164397     0.00200906
Spot 2     0.00192635     0.00201087
20MABNDA000272_PR038
Spot 1     0.00192139     0.00094954
Spot 2     0.00170034     0.00094890
Spot 1     0.00192111     0.00095000
Spot 2     0.00170008     0.00094873
Spot 1     0.00192123     0.00094975
Spot 2     0.00170017     0.00094881
20MABNDA000003_PR039
Spot 1     0.00199897     0.00192539
Spot 2     0.00227703     0.00192661
Spot 1     0.00199877     0.00192534
Spot 2     0.00227716     0.00192664
Spot 1     0.00199890     0.00192530
Spot 2     0.00227685     0.00192657
20MABNDA000196_PR006
Spot 1     0.00199968     0.00072683
Spot 2     0.00163350     0.00072429
Spot 1     0.00199973     0.00072676
Spot 2     0.00163332     0.00072442
Spot 1     0.00199951     0.00072668
Spot 2     0.00163317     0.00072444
20MABNDA000324_PR007
Spot 1     0.00194118     0.00121476
Spot 2     0.00173487     0.00122030
Spot 1     0.00194144     0.00121500
Spot 2     0.00173482     0.00122055
Spot 1     0.00194126     0.00121463
Spot 2     0.00173505     0.00122045
20MABNDB000001_PR017
Spot 1     0.00190200     0.00043844
Spot 2     0.00226992     0.00044722
Spot 1     0.00190201     0.00043833
Spot 2     0.00227031     0.00044703
Spot 1     0.00190190     0.00043849
Spot 2     0.00227022     0.00044717
20MABNDB000260_PR019
Spot 1     0.00191540     0.00150739
Spot 2     0.00211866     0.00150598
Spot 1     0.00191557     0.00150756
Spot 2     0.00211841     0.00150682
Spot 1     0.00191532     0.00150749
Spot 2     0.00211908     0.00150663
20MABNDB000212_PR029
Spot 1     0.00222888     0.00070121
Spot 2     0.00186818     0.00070112
Spot 1     0.00222885     0.00070132
Spot 2     0.00186815     0.00070113
Spot 1     0.00222887     0.00070143
Spot 2     0.00186822     0.00070128
20MABNDB000128_PR030
Spot 1     0.00190513     0.00199946
Spot 2     0.00211037     0.00199421
Spot 1     0.00190491     0.00199964
Spot 2     0.00211023     0.00199426
Spot 1     0.00190513     0.00199966
Spot 2     0.00211048     0.00199418
20MABNDA000444_PR040
Spot 1     0.00074729     0.00035646
Spot 2     0.00111418     0.00035295
Spot 1     0.00074733     0.00035623
Spot 2     0.00111431     0.00035319
Spot 1     0.00074738     0.00035640
Spot 2     0.00111443     0.00035371
20MABNDA000053_PR041
Spot 1     0.00165720     0.00199079
Spot 2     0.00144529     0.00198976
Spot 1     0.00165757     0.00199104
Spot 2     0.00144627     0.00198936
Spot 1     0.00165707     0.00199107
Spot 2     0.00144617     0.00198956
20MABNDA000188_PR008
Spot 1     0.00266500     0.00126500
Spot 2     0.00266500     0.00126500
Spot 1     0.00266500     0.00126500
Spot 2     0.00266500     0.00126500
Spot 1     0.00297500     0.00011500
Spot 2     0.00297500     0.00011500
20MABNDA000188_PR018
Spot 1     0.00169635     0.00173850
Spot 2     0.00122901     0.00173475
Spot 1     0.00169634     0.00173829
Spot 2     0.00122880     0.00173470
Spot 1     0.00169637     0.00173854
Spot 2     0.00122889     0.00173484
20MABNDA000039_PR009
Spot 1     0.00066446     0.00117956
Spot 2     0.00061716     0.00118392
Spot 1     0.00066420     0.00117952
Spot 2     0.00061701     0.00118404
Spot 1     0.00066426     0.00117957
Spot 2     0.00061667     0.00118394
20MABNDA000039_PR011
Spot 1     0.00276989     0.00029047
Spot 2     0.00259418     0.00028504
Spot 1     0.00276989     0.00029070
Spot 2     0.00259427     0.00028513
Spot 1     0.00276989     0.00029037
Spot 2     0.00259422     0.00028513
20MABNDB000155_PR020
Spot 1     0.00062321     0.00113603
Spot 2     0.00068949     0.00113136
Spot 1     0.00062337     0.00113594
Spot 2     0.00068942     0.00113138
Spot 1     0.00062333     0.00113593
Spot 2     0.00068908     0.00113152
20MABNDB000155_PR022
Spot 1     0.00213853     0.00142863
Spot 2     0.00261131     0.00142420
Spot 1     0.00213852     0.00142852
Spot 2     0.00261151     0.00142407
20MABNDB000010_PR021
Spot 1     0.00287174     0.00114892
Spot 2     0.00329500     0.00013500
Spot 1     0.00287155     0.00114904
Spot 2     0.00329500     0.00013500
20MABNDB000010_PR023
Spot 1     0.00131697     0.00030124
Spot 2     0.00149223     0.00029908
Spot 1     0.00131717     0.00030135
Spot 2     0.00149222     0.00029887
20MABNDB000069_PR031
Spot 1     0.00028362     0.00140594
Spot 2     0.00035585     0.00140459
Spot 1     0.00028374     0.00140569
Spot 2     0.00035566     0.00140438
20MABNDB000069_PR033
Spot 1     0.00182721     0.00206807
Spot 2     0.00229746     0.00208851
Spot 1     0.00182704     0.00206809
Spot 2     0.00229747     0.00208841
20MABNDB000131_PR032
Spot 1     0.00277473     0.00107513
Spot 2     0.00283466     0.00107841
Spot 1     0.00277478     0.00107513
Spot 2     0.00283462     0.00107849
20MABNDB000131_PR034
Spot 1     0.00091407     0.00032321
Spot 2     0.00109059     0.00032310
Spot 1     0.00091392     0.00032315
Spot 2     0.00109050     0.00032309
20MABNDA000208_PR042
Spot 1     0.00264300     0.00068775
Spot 2     0.00276833     0.00015000
Spot 1     0.00261192     0.00039269
Spot 2     0.00277071     0.00014786
20MABNDA000208_PR046
Spot 1     0.00145758     0.00223578
Spot 2     0.00102429     0.00208086
Spot 1     0.00145706     0.00223584
Spot 2     0.00096658     0.00226570
20MABNDA000035_PR044
Spot 1     0.00073813     0.00124976
Spot 2     0.00067987     0.00124437
Spot 1     0.00073805     0.00124986
Spot 2     0.00068019     0.00124432
20MABNDA000035_PR045
Spot 1     0.00253703     0.00045772
Spot 2     0.00235937     0.00045585
Spot 1     0.00253697     0.00045747
Spot 2     0.00235982     0.00045588


****************************************************************coordonnees images transformees dans le repere MOUNT************************************************************************* 
20MABNDL000077_PR002
Spot 1     0.01228445     0.03557451    -0.07463200
Spot 2     0.01192151     0.03413986    -0.07463200
Spot 1     0.01228498     0.03557401    -0.07463200
Spot 2     0.01192151     0.03413986    -0.07463200
Spot 1     0.01228492     0.03557439    -0.07463200
Spot 2     0.01192151     0.03413986    -0.07463200
20MABNDL000077_PR003
Spot 1     0.01245760     0.03555728    -0.07463200
Spot 2     0.01260724     0.03555758    -0.07463200
Spot 1     0.01245751     0.03555711    -0.07463200
Spot 2     0.01260724     0.03555756    -0.07463200
Spot 1     0.01245817     0.03555716    -0.07463200
Spot 2     0.01260740     0.03555765    -0.07463200
20MABNDL000077_20MABNDM000168
Spot 1    -0.01259271     0.03524735    -0.00695400
Spot 2    -0.01157915     0.03417830    -0.00695400
Spot 1    -0.01259214     0.03524728    -0.00695400
Spot 2    -0.01157915     0.03417830    -0.00695400
Spot 1    -0.01259197     0.03524734    -0.00695400
Spot 2    -0.01157915     0.03417830    -0.00695400
20MABNDL000077_PR024
Spot 1    -0.01338373     0.03550263    -0.00695400
Spot 2    -0.01348372     0.03550925    -0.00695400
Spot 1    -0.01338372     0.03550265    -0.00695400
Spot 2    -0.01348388     0.03550909    -0.00695400
Spot 1    -0.01338376     0.03550264    -0.00695400
Spot 2    -0.01348421     0.03550906    -0.00695400
20MABNDM000020_PR013
Spot 1    -0.01273248    -0.03548711    -0.00523500
Spot 2    -0.01288466    -0.03549501    -0.00523500
Spot 1    -0.01273246    -0.03548776    -0.00523500
Spot 2    -0.01288571    -0.03549602    -0.00523500
Spot 1    -0.01273227    -0.03548624    -0.00523500
Spot 2    -0.01288600    -0.03549642    -0.00523500
20MABNDM000020_PR014
Spot 1    -0.01169776    -0.03562537    -0.00523500
Spot 2    -0.01185816    -0.03563291    -0.00523500
Spot 1    -0.01169685    -0.03562422    -0.00523500
Spot 2    -0.01185801    -0.03563287    -0.00523500
Spot 1    -0.01169618    -0.03562507    -0.00523500
Spot 2    -0.01185734    -0.03563278    -0.00523500
20MABNDM000020_20MABNDL000196
Spot 1     0.01270937    -0.03514672    -0.07583800
Spot 2     0.01238113    -0.03407361    -0.07583800
Spot 1     0.01270938    -0.03514676    -0.07583800
Spot 2     0.01238113    -0.03407361    -0.07583800
Spot 1     0.01270937    -0.03514667    -0.07583800
Spot 2     0.01238113    -0.03407361    -0.07583800
20MABNDM000020_PR035
Spot 1     0.01341736    -0.03546446    -0.07583800
Spot 2     0.01349958    -0.03549984    -0.07583800
Spot 1     0.01341687    -0.03546431    -0.07583800
Spot 2     0.01349949    -0.03549965    -0.07583800
Spot 1     0.01341724    -0.03546468    -0.07583800
Spot 2     0.01349956    -0.03549987    -0.07583800
20MABNDM000168_PR025
Spot 1    -0.01292129    -0.03484087    -0.00532900
Spot 2    -0.01292129    -0.03484087    -0.00532900
Spot 1    -0.01292129    -0.03484087    -0.00532900
Spot 2    -0.01292129    -0.03484087    -0.00532900
Spot 1    -0.01292129    -0.03484087    -0.00532900
Spot 2    -0.01292129    -0.03484087    -0.00532900
20MABNDM000168_PR026
Spot 1    -0.01173540    -0.03576114    -0.00532900
Spot 2    -0.01189653    -0.03575809    -0.00532900
Spot 1    -0.01173491    -0.03576112    -0.00532900
Spot 2    -0.01189669    -0.03575819    -0.00532900
Spot 1    -0.01173543    -0.03576119    -0.00532900
Spot 2    -0.01189652    -0.03575812    -0.00532900
20MABNDM000168_20MABNDL000077
Spot 1     0.01288394    -0.03530079    -0.07445100
Spot 2     0.01266700    -0.03530415    -0.07445100
Spot 1     0.01288384    -0.03530070    -0.07445100
Spot 2     0.01266713    -0.03530397    -0.07445100
Spot 1     0.01288383    -0.03530074    -0.07445100
Spot 2     0.01266735    -0.03530373    -0.07445100
20MABNDM000168_PR001
Spot 1     0.01361203    -0.03563014    -0.07445100
Spot 2     0.01371449    -0.03563353    -0.07445100
Spot 1     0.01361225    -0.03563026    -0.07445100
Spot 2     0.01371463    -0.03563357    -0.07445100
Spot 1     0.01361234    -0.03563027    -0.07445100
Spot 2     0.01371461    -0.03563345    -0.07445100
20MABNDL000196_PR036
Spot 1     0.01192587     0.03582570    -0.07483600
Spot 2     0.01209021     0.03582556    -0.07483600
Spot 1     0.01192586     0.03582570    -0.07483600
Spot 2     0.01209045     0.03582512    -0.07483600
Spot 1     0.01192587     0.03582581    -0.07483600
Spot 2     0.01209047     0.03582538    -0.07483600
20MABNDL000196_PR037
Spot 1     0.01344922     0.03536366    -0.07483600
Spot 2     0.01360427     0.03536258    -0.07483600
Spot 1     0.01344923     0.03536391    -0.07483600
Spot 2     0.01360427     0.03536263    -0.07483600
Spot 1     0.01344942     0.03536376    -0.07483600
Spot 2     0.01360432     0.03536268    -0.07483600
20MABNDL000196_20MABNDM000020
Spot 1    -0.01274981     0.03531217    -0.00611000
Spot 2    -0.01252889     0.03532204    -0.00611000
Spot 1    -0.01274996     0.03531223    -0.00611000
Spot 2    -0.01252890     0.03532216    -0.00611000
Spot 1    -0.01274986     0.03531225    -0.00611000
Spot 2    -0.01252907     0.03532193    -0.00611000
20MABNDL000196_PR012
Spot 1    -0.01348178     0.03559854    -0.00611000
Spot 2    -0.01355576     0.03564302    -0.00611000
Spot 1    -0.01348195     0.03559836    -0.00611000
Spot 2    -0.01355566     0.03564280    -0.00611000
Spot 1    -0.01348190     0.03559848    -0.00611000
Spot 2    -0.01355600     0.03564303    -0.00611000
20MABNDA000318_PR004
Spot 1    -0.01264497     0.01246914    -0.07310600
Spot 2    -0.01286315     0.01246908    -0.07310600
Spot 1    -0.01264501     0.01246900    -0.07310600
Spot 2    -0.01286324     0.01246889    -0.07310600
Spot 1    -0.01264491     0.01246912    -0.07310600
Spot 2    -0.01286303     0.01246867    -0.07310600
20MABNDA000334_PR005
Spot 1    -0.01311419     0.01254079    -0.07324100
Spot 2    -0.01283449     0.01253975    -0.07324100
Spot 1    -0.01311466     0.01254061    -0.07324100
Spot 2    -0.01283423     0.01253980    -0.07324100
Spot 1    -0.01311458     0.01254080    -0.07324100
Spot 2    -0.01283397     0.01254000    -0.07324100
20MABNDB000317_PR015
Spot 1    -0.01266948    -0.01250422    -0.07326100
Spot 2    -0.01244951    -0.01250799    -0.07326100
Spot 1    -0.01266935    -0.01250387    -0.07326100
Spot 2    -0.01244962    -0.01250820    -0.07326100
Spot 1    -0.01266964    -0.01250412    -0.07326100
Spot 2    -0.01244953    -0.01250805    -0.07326100
20MABNDB000146_PR016
Spot 1    -0.01276418    -0.01246881    -0.07450500
Spot 2    -0.01248843    -0.01246585    -0.07450500
Spot 1    -0.01276408    -0.01246887    -0.07450500
Spot 2    -0.01248824    -0.01246587    -0.07450500
Spot 1    -0.01276423    -0.01246883    -0.07450500
Spot 2    -0.01248827    -0.01246568    -0.07450500
20MABNDB000135_PR027
Spot 1    -0.01251412    -0.01319908    -0.07464700
Spot 2    -0.01229637    -0.01319984    -0.07464700
Spot 1    -0.01251432    -0.01319898    -0.07464700
Spot 2    -0.01229632    -0.01319984    -0.07464700
Spot 1    -0.01251427    -0.01319914    -0.07464700
Spot 2    -0.01229630    -0.01319979    -0.07464700
20MABNDB000126_PR028
Spot 1    -0.01253572    -0.01217314    -0.07500400
Spot 2    -0.01225302    -0.01216992    -0.07500400
Spot 1    -0.01253560    -0.01217309    -0.07500400
Spot 2    -0.01225313    -0.01217000    -0.07500400
Spot 1    -0.01253556    -0.01217312    -0.07500400
Spot 2    -0.01225320    -0.01216980    -0.07500400
20MABNDA000272_PR038
Spot 1    -0.01275704     0.01316192    -0.07417900
Spot 2    -0.01253599     0.01316217    -0.07417900
Spot 1    -0.01275676     0.01316146    -0.07417900
Spot 2    -0.01253573     0.01316234    -0.07417900
Spot 1    -0.01275688     0.01316171    -0.07417900
Spot 2    -0.01253582     0.01316226    -0.07417900
20MABNDA000003_PR039
Spot 1    -0.01280005     0.01212687    -0.07373400
Spot 2    -0.01307811     0.01212636    -0.07373400
Spot 1    -0.01279985     0.01212692    -0.07373400
Spot 2    -0.01307824     0.01212633    -0.07373400
Spot 1    -0.01279998     0.01212696    -0.07373400
Spot 2    -0.01307793     0.01212640    -0.07373400
20MABNDA000196_PR006
Spot 1    -0.01295435     0.01325157    -0.07967100
Spot 2    -0.01258817     0.01324940    -0.07967100
Spot 1    -0.01295440     0.01325164    -0.07967100
Spot 2    -0.01258799     0.01324927    -0.07967100
Spot 1    -0.01295418     0.01325172    -0.07967100
Spot 2    -0.01258784     0.01324925    -0.07967100
20MABNDA000324_PR007
Spot 1    -0.01254687     0.01280687    -0.07446800
Spot 2    -0.01234053     0.01280294    -0.07446800
Spot 1    -0.01254713     0.01280662    -0.07446800
Spot 2    -0.01234047     0.01280269    -0.07446800
Spot 1    -0.01254695     0.01280700    -0.07446800
Spot 2    -0.01234070     0.01280279    -0.07446800
20MABNDB000001_PR017
Spot 1    -0.01228637    -0.01355124    -0.07418400
Spot 2    -0.01191837    -0.01354636    -0.07418400
Spot 1    -0.01228636    -0.01355135    -0.07418400
Spot 2    -0.01191799    -0.01354655    -0.07418400
Spot 1    -0.01228647    -0.01355119    -0.07418400
Spot 2    -0.01191807    -0.01354641    -0.07418400
20MABNDB000260_PR019
Spot 1    -0.01241603    -0.01239530    -0.07492700
Spot 2    -0.01221279    -0.01239254    -0.07492700
Spot 1    -0.01241587    -0.01239513    -0.07492700
Spot 2    -0.01221306    -0.01239171    -0.07492700
Spot 1    -0.01241612    -0.01239520    -0.07492700
Spot 2    -0.01221238    -0.01239188    -0.07492700
20MABNDB000212_PR029
Spot 1    -0.01185896    -0.01328001    -0.07390500
Spot 2    -0.01221964    -0.01327625    -0.07390500
Spot 1    -0.01185899    -0.01327990    -0.07390500
Spot 2    -0.01221967    -0.01327624    -0.07390500
Spot 1    -0.01185897    -0.01327979    -0.07390500
Spot 2    -0.01221960    -0.01327609    -0.07390500
20MABNDB000128_PR030
Spot 1    -0.01244999    -0.01221784    -0.07353400
Spot 2    -0.01224473    -0.01222238    -0.07353400
Spot 1    -0.01245021    -0.01221766    -0.07353400
Spot 2    -0.01224487    -0.01222233    -0.07353400
Spot 1    -0.01244999    -0.01221764    -0.07353400
Spot 2    -0.01224462    -0.01222241    -0.07353400
20MABNDA000444_PR040
Spot 1    -0.01168709     0.01367333    -0.07412000
Spot 2    -0.01205399     0.01367218    -0.07412000
Spot 1    -0.01168713     0.01367356    -0.07412000
Spot 2    -0.01205412     0.01367194    -0.07412000
Spot 1    -0.01168718     0.01367339    -0.07412000
Spot 2    -0.01205423     0.01367142    -0.07412000
20MABNDA000053_PR041
Spot 1    -0.01241387     0.01211975    -0.07430100
Spot 2    -0.01220198     0.01211664    -0.07430100
Spot 1    -0.01241424     0.01211951    -0.07430100
Spot 2    -0.01220295     0.01211706    -0.07430100
Spot 1    -0.01241374     0.01211947    -0.07430100
Spot 2    -0.01220285     0.01211686    -0.07430100
20MABNDA000188_PR008
Spot 1    -0.01369093     0.01279700    -0.07502000
Spot 2    -0.01369093     0.01279700    -0.07502000
Spot 1    -0.01369093     0.01279700    -0.07502000
Spot 2    -0.01369093     0.01279700    -0.07502000
Spot 1    -0.01399107     0.01394961    -0.07502000
Spot 2    -0.01399107     0.01394961    -0.07502000
20MABNDA000188_PR018
Spot 1    -0.01272637     0.01231522    -0.07502000
Spot 2    -0.01225901     0.01231497    -0.07502000
Spot 1    -0.01272636     0.01231543    -0.07502000
Spot 2    -0.01225880     0.01231502    -0.07502000
Spot 1    -0.01272639     0.01231518    -0.07502000
Spot 2    -0.01225889     0.01231488    -0.07502000
20MABNDA000039_PR009
Spot 1    -0.01162661     0.01306458    -0.07444800
Spot 2    -0.01157933     0.01306001    -0.07444800
Spot 1    -0.01162635     0.01306462    -0.07444800
Spot 2    -0.01157918     0.01305989    -0.07444800
Spot 1    -0.01162641     0.01306457    -0.07444800
Spot 2    -0.01157884     0.01305999    -0.07444800
20MABNDA000039_PR011
Spot 1    -0.01372817     0.01396277    -0.07444800
Spot 2    -0.01355244     0.01396744    -0.07444800
Spot 1    -0.01372817     0.01396254    -0.07444800
Spot 2    -0.01355253     0.01396735    -0.07444800
Spot 1    -0.01372817     0.01396287    -0.07444800
Spot 2    -0.01355248     0.01396735    -0.07444800
20MABNDB000155_PR020
Spot 1    -0.01364304    -0.01312129    -0.07501700
Spot 2    -0.01357670    -0.01312506    -0.07501700
Spot 1    -0.01364287    -0.01312138    -0.07501700
Spot 2    -0.01357677    -0.01312504    -0.07501700
Spot 1    -0.01364291    -0.01312139    -0.07501700
Spot 2    -0.01357711    -0.01312490    -0.07501700
20MABNDB000155_PR022
Spot 1    -0.01213186    -0.01280798    -0.07501700
Spot 2    -0.01165907    -0.01280594    -0.07501700
Spot 1    -0.01213187    -0.01280809    -0.07501700
Spot 2    -0.01165887    -0.01280606    -0.07501700
20MABNDB000010_PR021
Spot 1    -0.01157920    -0.01292954    -0.07358200
Spot 2    -0.01113882    -0.01393614    -0.07358200
Spot 1    -0.01157939    -0.01292942    -0.07358200
Spot 2    -0.01113882    -0.01393614    -0.07358200
20MABNDB000010_PR023
Spot 1    -0.01311938    -0.01380344    -0.07358200
Spot 2    -0.01294411    -0.01380263    -0.07358200
Spot 1    -0.01311919    -0.01380332    -0.07358200
Spot 2    -0.01294412    -0.01380284    -0.07358200
20MABNDB000069_PR031
Spot 1    -0.01359259    -0.01286171    -0.07388500
Spot 2    -0.01352048    -0.01286603    -0.07388500
Spot 1    -0.01359248    -0.01286196    -0.07388500
Spot 2    -0.01352068    -0.01286624    -0.07388500
20MABNDB000069_PR033
Spot 1    -0.01202300    -0.01226384    -0.07388500
Spot 2    -0.01155230    -0.01226282    -0.07388500
Spot 1    -0.01202316    -0.01226381    -0.07388500
Spot 2    -0.01155230    -0.01226292    -0.07388500
20MABNDB000131_PR032
Spot 1    -0.01144541    -0.01303963    -0.07533000
Spot 2    -0.01138549    -0.01303605    -0.07533000
Spot 1    -0.01144536    -0.01303963    -0.07533000
Spot 2    -0.01138553    -0.01303597    -0.07533000
20MABNDB000131_PR034
Spot 1    -0.01330226    -0.01380091    -0.07533000
Spot 2    -0.01312574    -0.01380014    -0.07533000
Spot 1    -0.01330241    -0.01380097    -0.07533000
Spot 2    -0.01312583    -0.01380015    -0.07533000
20MABNDA000208_PR042
Spot 1    -0.01351395     0.01330863    -0.07273700
Spot 2    -0.01363975     0.01384627    -0.07273700
Spot 1    -0.01348313     0.01360372    -0.07273700
Spot 2    -0.01364214     0.01384841    -0.07273700
20MABNDA000208_PR046
Spot 1    -0.01232717     0.01176164    -0.07273700
Spot 2    -0.01189402     0.01191694    -0.07273700
Spot 1    -0.01232665     0.01176158    -0.07273700
Spot 2    -0.01183615     0.01173215    -0.07273700
20MABNDA000035_PR044
Spot 1    -0.01157273     0.01300749    -0.07483200
Spot 2    -0.01151443     0.01301246    -0.07483200
Spot 1    -0.01157265     0.01300738    -0.07483200
Spot 2    -0.01151475     0.01301251    -0.07483200
20MABNDA000035_PR045
Spot 1    -0.01336595     0.01381230    -0.07483200
Spot 2    -0.01318828     0.01381291    -0.07483200
Spot 1    -0.01336588     0.01381255    -0.07483200
Spot 2    -0.01318873     0.01381288    -0.07483200


*****************************************************************coordonnees du prisme dans le repere MOUNT********************************************************************************** 
20MABNDL000077_PR002
    0.04179462     0.05672310     3.70694900
    0.04178165     0.05673557     3.70694900
    0.04178304     0.05672617     3.70694923
20MABNDL000077_PR003
    0.02098205     0.02142130     3.89601803
    0.02098418     0.02142622     3.89601803
    0.02096311     0.02142252     3.89601803
20MABNDL000077_20MABNDM000168
   -0.05596218     0.07578739    -5.46843624
   -0.05598244     0.07579007    -5.46843624
   -0.05598855     0.07578784    -5.46843624
20MABNDL000077_PR024
    0.04568328     0.01710787    -5.89639854
    0.04568908     0.01711339    -5.89639854
    0.04570348     0.01711510    -5.89639807
20MABNDM000020_PR013
   -0.00366464    -0.01810207    -3.80243397
   -0.00363899    -0.01806105    -3.80243373
   -0.00363664    -0.01808855    -3.80243373
20MABNDM000020_PR014
   -0.06551975    -0.00498014    -4.74841022
   -0.06555256    -0.00501730    -4.74841022
   -0.06559417    -0.00499331    -4.74840975
20MABNDM000020_20MABNDL000196
    0.02684880    -0.07124128     5.39469719
    0.02684844    -0.07123985     5.39469719
    0.02684880    -0.07124308     5.39469719
20MABNDM000020_PR035
   -0.04245444    -0.00671297     5.80095387
   -0.04243210    -0.00672606     5.80095482
   -0.04244904    -0.00670334     5.80095387
20MABNDM000168_PR025
   -0.00091071    -0.06043248    -3.78869867
   -0.00091071    -0.06043248    -3.78869867
   -0.00091071    -0.06043248    -3.78869867
20MABNDM000168_PR026
   -0.05783113    -0.01388957    -3.98429012
   -0.05783972    -0.01388753    -3.98428988
   -0.05783061    -0.01388749    -3.98429012
20MABNDM000168_20MABNDL000077
    0.01157647    -0.03868956     5.38884687
    0.01157525    -0.03869925     5.38884687
    0.01156760    -0.03870632     5.38884687
20MABNDM000168_PR001
   -0.05734440    -0.01336257     5.81470585
   -0.05735826    -0.01335617     5.81470490
   -0.05736104    -0.01336039     5.81470490
20MABNDL000196_PR036
    0.05137541     0.00606774     3.68777251
    0.05136974     0.00607853     3.68777275
    0.05136903     0.00606944     3.68777251
20MABNDL000196_PR037
   -0.02510475     0.02839516     3.88381290
   -0.02510499     0.02838741     3.88381290
   -0.02511120     0.02838998     3.88381290
20MABNDL000196_20MABNDM000020
   -0.01569902     0.03792434    -5.47473907
   -0.01569349     0.03791763    -5.47473907
   -0.01569077     0.03792523    -5.47473907
20MABNDL000196_PR012
    0.05241095     0.01447278    -5.91537094
    0.05241375     0.01448800    -5.91537094
    0.05242491     0.01447423    -5.91537094
20MABNDA000318_PR004
   -0.00855447     0.03840732     2.74965906
   -0.00855210     0.03841338     2.74965906
   -0.00855779     0.03841520     2.74965906
20MABNDA000334_PR005
   -0.00432076     0.03174134     2.14977169
   -0.00431776     0.03174320     2.14977169
   -0.00432262     0.03173763     2.14977169
20MABNDB000317_PR015
   -0.01727092    -0.03377088     2.75129223
   -0.01727125    -0.03377344     2.75129223
   -0.01726764    -0.03377157     2.75129223
20MABNDB000146_PR016
   -0.01342735    -0.03157211     2.15201473
   -0.01343152    -0.03157097     2.15201473
   -0.01342893    -0.03157427     2.15201473
20MABNDB000135_PR027
   -0.02097850    -0.00977528     2.74937105
   -0.02097577    -0.00977696     2.74937153
   -0.02097722    -0.00977492     2.74937153
20MABNDB000126_PR028
   -0.02031843    -0.03896003     2.14679527
   -0.02031858    -0.03895960     2.14679527
   -0.02031814    -0.03896203     2.14679527
20MABNDA000272_PR038
   -0.01328382     0.01074356     2.74965858
   -0.01329371     0.01074889     2.74965858
   -0.01328987     0.01074577     2.74965858
20MABNDA000003_PR039
   -0.00598707     0.04122290     2.14891577
   -0.00598807     0.04122262     2.14891577
   -0.00599065     0.04122106     2.14891577
20MABNDA000196_PR006
   -0.01010715     0.00987351     1.64206314
   -0.01010856     0.00987418     1.64206314
   -0.01011261     0.00987358     1.64206314
20MABNDA000324_PR007
   -0.02553266     0.02794997     2.95549011
   -0.02552860     0.02795965     2.95549011
   -0.02552755     0.02795041     2.95549011
20MABNDB000001_PR017
   -0.02446314    -0.00282571     1.64035726
   -0.02446748    -0.00282238     1.64035726
   -0.02446533    -0.00282569     1.64035726
20MABNDB000260_PR019
   -0.02407429    -0.03850511     2.95627499
   -0.02407231    -0.03852496     2.95627475
   -0.02408069    -0.03852001     2.95627475
20MABNDB000212_PR029
   -0.02529483    -0.00846992     1.64223862
   -0.02529419    -0.00847124     1.64223862
   -0.02529521    -0.00847408     1.64223862
20MABNDB000128_PR030
   -0.01948510    -0.04673991     2.95496345
   -0.01947800    -0.04674441     2.95496345
   -0.01948725    -0.04674326     2.95496345
20MABNDA000444_PR040
   -0.03019646     0.00095436     1.64490914
   -0.03019460     0.00095449     1.64490938
   -0.03019283     0.00096207     1.64490938
20MABNDA000053_PR041
   -0.02655686     0.05110497     2.95450401
   -0.02653042     0.05110151     2.95450401
   -0.02654211     0.05110625     2.95450401
20MABNDA000188_PR008
    0.10933864     0.04538462     9.20419693
    0.10933864     0.04538462     9.20419693
    0.14616936    -0.09611703     9.20304298
20MABNDA000188_PR018
   -0.01619152     0.02584705     1.28358221
   -0.01619342     0.02584484     1.28358221
   -0.01619237     0.02584817     1.28358221
20MABNDA000039_PR009
   -0.17108028     0.02554039    11.00701714
   -0.17111021     0.02554637    11.00701618
   -0.17113072     0.02554280    11.00701618
20MABNDA000039_PR011
    0.03085937    -0.02416945     3.43347383
    0.03086146    -0.02416215     3.43347383
    0.03086029    -0.02416968     3.43347383
20MABNDB000155_PR020
    0.10164741    -0.00966524     9.20028877
    0.10164183    -0.00966102     9.20028877
    0.10166526    -0.00966868     9.20028877
20MABNDB000155_PR022
   -0.02603838    -0.01804746     1.28070188
   -0.02604003    -0.01804543     1.28070188
20MABNDB000010_PR021
   -0.20495048     0.04114364    11.00636673
   -0.20493636     0.04113505    11.00636673
20MABNDB000010_PR023
    0.00407918     0.02080780     3.43376732
    0.00407479     0.02081002     3.43376732
20MABNDB000069_PR031
    0.10223529    -0.03873590     9.20356369
    0.10224074    -0.03870790     9.20356369
20MABNDB000069_PR033
   -0.02687638    -0.02693180     1.28393996
   -0.02687498    -0.02693117     1.28394008
20MABNDB000131_PR032
   -0.18761954    -0.02940423    11.00642776
   -0.18762024    -0.02941008    11.00642776
20MABNDB000131_PR034
    0.01477680     0.01653791     3.43337488
    0.01478226     0.01653954     3.43337488
20MABNDA000208_PR042
    0.09324343    -0.05093958     9.20176220
    0.09149641    -0.06918204     9.20163727
20MABNDA000208_PR046
   -0.02299049     0.03386547     1.28209817
   -0.02348918     0.03544440     1.28206754
20MABNDA000035_PR044
   -0.18009529     0.02568940    11.00802231
   -0.18007770     0.02569294    11.00802231
20MABNDA000035_PR045
    0.01420435    -0.01960207     3.43483400
    0.01421322    -0.01960716     3.43483400


*****************************************************************coordonnees du prisme dans le repere ATLAS********************************************************************************** 
20MABNDL000077_PR002 0.00000000
    2.80031538    -3.70271111     6.48625422
    2.80030274    -3.70272422     6.48625422
    2.80031228    -3.70272279     6.48625469
20MABNDL000077_PR003 0.00000000
    2.83579588    -3.72376823     6.67526293
    2.83579111    -3.72376609     6.67526293
    2.83579469    -3.72378707     6.67526293
20MABNDL000077_20MABNDM000168 0.00000000
    2.77221990    -3.78914142    -2.68922138
    2.77221727    -3.78916168    -2.68922138
    2.77221942    -3.78916764    -2.68922138
20MABNDL000077_PR024 0.00000000
    2.83051205    -3.68698668    -3.11711526
    2.83050656    -3.68698072    -3.11711526
    2.83050489    -3.68696642    -3.11711478
20MABNDM000020_PR013 0.00000000
   -2.83420730    -3.73581934     6.48627663
   -2.83424830    -3.73584509     6.48627615
   -2.83422089    -3.73584747     6.48627615
20MABNDM000020_PR014 0.00000000
   -2.84712100    -3.67467976     7.43230200
   -2.84708381    -3.67464685     7.43230200
   -2.84710789    -3.67460537     7.43230200
20MABNDM000020_20MABNDL000196 0.00000000
   -2.78291798    -3.75935435    -2.71088576
   -2.78291941    -3.75935388    -2.71088576
   -2.78291631    -3.75935435    -2.71088576
20MABNDM000020_PR035 0.00000000
   -2.84750628    -3.68972230    -3.11707664
   -2.84749317    -3.68974471    -3.11707759
   -2.84751606    -3.68972778    -3.11707664
20MABNDM000168_PR025 0.00000000
    2.79280925    -3.74440813    -6.47932243
    2.79280925    -3.74440813    -6.47932243
    2.79280925    -3.74440813    -6.47932243
20MABNDM000168_PR026 0.00000000
    2.83935547    -3.68757272    -6.67493773
    2.83935738    -3.68756413    -6.67493725
    2.83935761    -3.68757319    -6.67493773
20MABNDM000168_20MABNDL000077 0.00000000
    2.81510592    -3.75348854     2.69822621
    2.81509614    -3.75348735     2.69822621
    2.81508923    -3.75347972     2.69822621
20MABNDM000168_PR001 0.00000000
    2.84047699    -3.68441606     3.12405801
    2.84048343    -3.68440223     3.12405682
    2.84047914    -3.68439937     3.12405682
20MABNDL000196_PR036 0.00000000
   -2.84753966    -3.69289899    -6.47909594
   -2.84752893    -3.69290471    -6.47909641
   -2.84753799    -3.69290543    -6.47909594
20MABNDL000196_PR037 0.00000000
   -2.82518101    -3.76955104    -6.67506552
   -2.82518888    -3.76955128    -6.67506552
   -2.82518625    -3.76955748    -6.67506552
20MABNDL000196_20MABNDM000020 0.00000000
   -2.81545401    -3.75143576     2.68347335
   -2.81546068    -3.75143003     2.68347335
   -2.81545305    -3.75142741     2.68347335
20MABNDL000196_PR012 0.00000000
   -2.83892775    -3.68292665     3.12404227
   -2.83891249    -3.68292403     3.12404227
   -2.83892632    -3.68291283     3.12404227
20MABNDA000318_PR004 0.00000000
    2.61444879    -4.19698858     3.83359146
    2.61445117    -4.19698811     3.83358526
    2.61444545    -4.19698811     3.83358359
20MABNDA000334_PR005 0.00000000
    2.61667776    -4.19703150     5.89751959
    2.61668086    -4.19703150     5.89751768
    2.61667585    -4.19703150     5.89752340
20MABNDB000317_PR015 0.00000000
   -2.61133623    -4.19700623     3.83624458
   -2.61133599    -4.19700623     3.83624196
   -2.61133957    -4.19700623     3.83624387
20MABNDB000146_PR016 0.00000000
   -2.61286783    -4.19702291     5.89877796
   -2.61286378    -4.19702291     5.89877939
   -2.61286640    -4.19702291     5.89877605
20MABNDB000135_PR027 0.00000000
    2.60388494    -4.19700432    -3.82558560
    2.60388756    -4.19700384    -3.82558393
    2.60388613    -4.19700384    -3.82558584
20MABNDB000126_PR028 0.00000000
    2.60559893    -4.19702101    -5.89326000
    2.60559869    -4.19702101    -5.89326048
    2.60559916    -4.19702101    -5.89325809
20MABNDA000272_PR038 0.00000000
   -2.61125302    -4.19698286    -3.82774067
   -2.61124325    -4.19698286    -3.82773542
   -2.61124706    -4.19698286    -3.82773852
20MABNDA000003_PR039 0.00000000
   -2.61574411    -4.19702101    -5.89154387
   -2.61574316    -4.19702101    -5.89154387
   -2.61574054    -4.19702101    -5.89154577
20MABNDA000196_PR006 0.00000000
    2.58456779    -4.19496584     6.54783010
    2.58456922    -4.19496584     6.54783058
    2.58457327    -4.19496584     6.54783010
20MABNDA000324_PR007 0.00000000
    2.59378219    -4.13996840     6.94796515
    2.59378624    -4.13996840     6.94795561
    2.59378719    -4.13996840     6.94796467
20MABNDB000001_PR017 0.00000000
   -2.59816456    -4.19506073     6.53815365
   -2.59816885    -4.19506073     6.53815031
   -2.59816670    -4.19506073     6.53815365
20MABNDB000260_PR019 0.00000000
   -2.60468745    -4.13995934     6.94213867
   -2.60468960    -4.13995981     6.94211912
   -2.60468125    -4.13995981     6.94212389
20MABNDB000212_PR029 0.00000000
    2.59897256    -4.19501019    -6.54745770
    2.59897184    -4.19501019    -6.54745913
    2.59897304    -4.19501019    -6.54746199
20MABNDB000128_PR030 0.00000000
    2.60937357    -4.14002657    -6.93138123
    2.60938072    -4.14002657    -6.93137693
    2.60937142    -4.14002657    -6.93137789
20MABNDA000444_PR040 0.00000000
   -2.60536909    -4.19510031    -6.54013443
   -2.60536718    -4.19509983    -6.54013491
   -2.60536528    -4.19509983    -6.54014254
20MABNDA000053_PR041 0.00000000
   -2.59398508    -4.14012671    -6.92680836
   -2.59401155    -4.14012671    -6.92681217
   -2.59399986    -4.14012671    -6.92680740
20MABNDA000188_PR008 0.00000000
    3.52420664     3.85074425     7.96562338
    3.52420664     3.85074425     7.96562338
    3.55893064     3.84859109     8.10764503
20MABNDA000188_PR018 0.00000000
    3.52094579    -4.07059669     7.89760160
    3.52094388    -4.07059669     7.89760399
    3.52094483    -4.07059669     7.89760065
20MABNDA000039_PR009 0.00000000
    3.87525225     3.64747548    12.93683434
    3.87528229     3.64747429    12.93684006
    3.87530279     3.64747429    12.93683720
20MABNDA000039_PR011 0.00000000
    3.66416478    -3.92580199    12.88466740
    3.66416264    -3.92580199    12.88467407
    3.66416383    -3.92580199    12.88466740
20MABNDB000155_PR020 0.00000000
   -3.68029952     3.84882283     7.89720201
   -3.68029404     3.84882283     7.89720631
   -3.68031740     3.84882283     7.89719868
20MABNDB000155_PR022 0.00000000
   -3.53394198    -4.07044220     7.89001179
   -3.53394032    -4.07044220     7.89001417
20MABNDB000010_PR021 0.00000000
   -3.89085364     3.64708304    12.86071110
   -3.89083934     3.64708304    12.86071968
20MABNDB000010_PR023 0.00000000
   -3.68558764    -3.92560935    12.88446808
   -3.68559217    -3.92560935    12.88446617
20MABNDB000069_PR031 0.00000000
    3.68395209     3.84875822    -7.90166664
    3.68395734     3.84875798    -7.90169477
20MABNDB000069_PR033 0.00000000
    3.53342319    -4.07046318    -7.87873936
    3.53342438    -4.07046270    -7.87874031
20MABNDB000131_PR032 0.00000000
    3.86842203     3.64757776   -12.94004726
    3.86842275     3.64757776   -12.94005299
20MABNDB000131_PR034 0.00000000
    3.67301250    -3.92564201   -12.89140987
    3.67300701    -3.92564201   -12.89140797
20MABNDA000208_PR042 0.00000000
   -3.64328623     3.84939027    -7.96240520
   -3.64152956     3.84925747    -7.98064661
20MABNDA000208_PR046 0.00000000
   -3.53277445    -4.07032394    -7.87465286
   -3.53227687    -4.07035398    -7.87307405
20MABNDA000035_PR044 0.00000000
   -3.86933613     3.64757752   -12.93136883
   -3.86931849     3.64757752   -12.93137169
20MABNDA000035_PR045 0.00000000
   -3.67652392    -3.92565322   -12.88678265
   -3.67651510    -3.92565322   -12.88677692


*****************************************************************Rapport********************************************************************************** 
CAM-LBA-US_EBA-US-HO-H         2018.11.13.03.28.35     2.80031013    -3.70271937     6.48625437     0.00000538     0.00000587     0.00000022 0.00000000 VRAI 
CAM-LBA-US_JDA-US-H            2018.11.13.03.28.35     2.83579389    -3.72377380     6.67526293     0.00000203     0.00000943     0.00000000 0.00000000 VRAI 
CAM-LBA-US_CAM-LBC-US          2018.11.13.03.28.35     2.77221886    -3.78915691    -2.68922138     0.00000114     0.00001123     0.00000000 0.00000000 VRAI 
CAM-LBA-US_EBC-US-IP-H         2018.11.13.03.28.35     2.83050783    -3.68697794    -3.11711510     0.00000306     0.00000850     0.00000022 0.00000000 VRAI 
CAM-LBA-USA_EBA-USA-HO-H       2018.11.13.03.28.35    -2.83422550    -3.73583730     6.48627631     0.00001706     0.00001274     0.00000022 0.00000000 VRAI 
CAM-LBA-USA_JDA-USA-H          2018.11.13.03.28.35    -2.84710423    -3.67464399     7.43230200     0.00001540     0.00003044     0.00000000 0.00000000 VRAI 
CAM-LBA-USA_CAM-LBC-USA        2018.11.13.03.28.35    -2.78291790    -3.75935419    -2.71088576     0.00000127     0.00000022     0.00000000 0.00000000 VRAI 
CAM-LBA-USA_EBC-USA-IP-H       2018.11.13.03.28.35    -2.84750517    -3.68973160    -3.11707695     0.00000938     0.00000954     0.00000045 0.00000000 VRAI 
CAM-LBC-US_EBC-US-HO-H         2018.11.13.03.28.35     2.79280925    -3.74440813    -6.47932243     0.00000000     0.00000000     0.00000000 0.00000000 VRAI 
CAM-LBC-US_JDC-US-H            2018.11.13.03.28.35     2.83935682    -3.68757002    -6.67493757     0.00000096     0.00000416     0.00000022 0.00000000 VRAI 
CAM-LBC-US_CAM-LBA-US          2018.11.13.03.28.35     2.81509709    -3.75348520     2.69822621     0.00000685     0.00000391     0.00000000 0.00000000 VRAI 
CAM-LBC-US_EBA-US-IP-H         2018.11.13.03.28.35     2.84047985    -3.68440588     3.12405721     0.00000268     0.00000729     0.00000056 0.00000000 VRAI 
CAM-LBC-USA_EBC-USA-HO-H       2018.11.13.03.28.35    -2.84753553    -3.69290304    -6.47909609     0.00000471     0.00000288     0.00000022 0.00000000 VRAI 
CAM-LBC-USA_JDC-USA-H          2018.11.13.03.28.35    -2.82518538    -3.76955326    -6.67506552     0.00000327     0.00000298     0.00000000 0.00000000 VRAI 
CAM-LBC-USA_CAM-LBA-USA        2018.11.13.03.28.35    -2.81545591    -3.75143107     2.68347335     0.00000339     0.00000348     0.00000000 0.00000000 VRAI 
CAM-LBC-USA_EBA-USA-IP-H       2018.11.13.03.28.35    -2.83892218    -3.68292117     3.12404227     0.00000688     0.00000600     0.00000000 0.00000000 VRAI 
CAM-EBA-US-IP_EBA-US-IP        2018.11.13.03.28.35     2.61444847    -4.19698826     3.83358677     0.00000235     0.00000022     0.00000338 0.00000000 VRAI 
CAM-EBA-US-HO_EBA-US-HO        2018.11.13.03.28.35     2.61667816    -4.19703150     5.89752022     0.00000206     0.00000000     0.00000238 0.00000000 VRAI 
CAM-EBA-USA-IP_EBA-USA-IP      2018.11.13.03.28.35    -2.61133726    -4.19700623     3.83624347     0.00000163     0.00000000     0.00000111 0.00000000 VRAI 
CAM-EBA-USA-HO_EBA-USA-HO      2018.11.13.03.28.35    -2.61286600    -4.19702291     5.89877780     0.00000168     0.00000000     0.00000137 0.00000000 VRAI 
CAM-EBC-US-IP_EBC-US-IP        2018.11.13.03.28.35     2.60388621    -4.19700400    -3.82558513     0.00000107     0.00000022     0.00000085 0.00000000 VRAI 
CAM-EBC-US-HO_EBC-US-HO        2018.11.13.03.28.35     2.60559893    -4.19702101    -5.89325953     0.00000019     0.00000000     0.00000103 0.00000000 VRAI 
CAM-EBC-USA-IP_EBC-USA-IP      2018.11.13.03.28.35    -2.61124778    -4.19698286    -3.82773821     0.00000402     0.00000000     0.00000215 0.00000000 VRAI 
CAM-EBC-USA-HO_EBC-USA-HO      2018.11.13.03.28.35    -2.61574260    -4.19702101    -5.89154450     0.00000151     0.00000000     0.00000090 0.00000000 VRAI 
CAM-JDA-US-IP_JDA-US-IP        2018.11.13.03.28.35     2.58457009    -4.19496584     6.54783026     0.00000232     0.00000000     0.00000022 0.00000000 VRAI 
CAM-JDA-US-HO_JDA-US-HO        2018.11.13.03.28.35     2.59378521    -4.13996840     6.94796181     0.00000217     0.00000000     0.00000439 0.00000000 VRAI 
CAM-JDA-USA-IP_JDA-USA-IP      2018.11.13.03.28.35    -2.59816670    -4.19506073     6.53815254     0.00000175     0.00000000     0.00000157 0.00000000 VRAI 
CAM-JDA-USA-HO_JDA-USA-HO      2018.11.13.03.28.35    -2.60468610    -4.13995965     6.94212723     0.00000354     0.00000022     0.00000832 0.00000000 VRAI 
CAM-JDC-US-IP_JDC-US-IP        2018.11.13.03.28.35     2.59897248    -4.19501019    -6.54745960     0.00000049     0.00000000     0.00000178 0.00000000 VRAI 
CAM-JDC-US-HO_JDC-US-HO        2018.11.13.03.28.35     2.60937524    -4.14002657    -6.93137868     0.00000398     0.00000000     0.00000184 0.00000000 VRAI 
CAM-JDC-USA-IP_JDC-USA-IP      2018.11.13.03.28.35    -2.60536718    -4.19509999    -6.54013729     0.00000156     0.00000022     0.00000371 0.00000000 VRAI 
CAM-JDC-USA-HO_JDC-USA-HO      2018.11.13.03.28.35    -2.59399883    -4.14012671    -6.92680931     0.00001083     0.00000000     0.00000206 0.00000000 VRAI 
CAM-ECTA-US-IP_ECTA-US-IP-T    2018.11.13.03.28.35     3.53578130     3.85002653     8.01296393     0.01636905     0.00101501     0.06694965 0.00000000 VRAI 
CAM-ECTA-US-IP_ECTA-US-IP      2018.11.13.03.28.35     3.52094483    -4.07059669     7.89760208     0.00000078     0.00000000     0.00000140 0.00000000 VRAI 
CAM-ECTA-US-HO_ECTA-US-HO-T    2018.11.13.03.28.35     3.87527911     3.64747469    12.93683720     0.00002076     0.00000056     0.00000234 0.00000000 VRAI 
CAM-ECTA-US-HO_ECTA-US-HO      2018.11.13.03.28.35     3.66416375    -3.92580199    12.88466962     0.00000088     0.00000000     0.00000315 0.00000000 VRAI 
CAM-ECTA-USA-IP_ECTA-USA-IP-T  2018.11.13.03.28.35    -3.68030365     3.84882283     7.89720233     0.00000998     0.00000000     0.00000312 0.00000000 VRAI 
CAM-ECTA-USA-IP_ECTA-USA-IP    2018.11.13.03.28.35    -3.53394115    -4.07044220     7.89001298     0.00000083     0.00000000     0.00000119 0.00000000 VRAI 
CAM-ECTA-USA-HO_ECTA-USA-HO-T  2018.11.13.03.28.35    -3.89084649     3.64708304    12.86071539     0.00000715     0.00000000     0.00000429 0.00000000 VRAI 
CAM-ECTA-USA-HO_ECTA-USA-HO    2018.11.13.03.28.35    -3.68558991    -3.92560935    12.88446712     0.00000226     0.00000000     0.00000095 0.00000000 VRAI 
CAM-ECTC-US-IP_ECTC-US-IP-T    2018.11.13.03.28.35     3.68395472     3.84875810    -7.90168071     0.00000262     0.00000012     0.00001407 0.00000000 VRAI 
CAM-ECTC-US-IP_ECTC-US-IP      2018.11.13.03.28.35     3.53342378    -4.07046294    -7.87873983     0.00000060     0.00000024     0.00000048 0.00000000 VRAI 
CAM-ECTC-US-HO_ECTC-US-HO-T    2018.11.13.03.28.35     3.86842239     3.64757776   -12.94005013     0.00000036     0.00000000     0.00000286 0.00000000 VRAI 
CAM-ECTC-US-HO_ECTC-US-HO      2018.11.13.03.28.35     3.67300975    -3.92564201   -12.89140892     0.00000274     0.00000000     0.00000095 0.00000000 VRAI 
CAM-ECTC-USA-IP_ECTC-USA-IP-T  2018.11.13.03.28.35    -3.64240789     3.84932387    -7.97152591     0.00087833     0.00006640     0.00912070 0.00000000 VRAI 
CAM-ECTC-USA-IP_ECTC-USA-IP    2018.11.13.03.28.35    -3.53252566    -4.07033896    -7.87386346     0.00024879     0.00001502     0.00078940 0.00000000 VRAI 
CAM-ECTC-USA-HO_ECTC-USA-HO-T  2018.11.13.03.28.35    -3.86932731     3.64757752   -12.93137026     0.00000882     0.00000000     0.00000143 0.00000000 VRAI 
CAM-ECTC-USA-HO_ECTC-USA-HO    2018.11.13.03.28.35    -3.67651951    -3.92565322   -12.88677979     0.00000441     0.00000000     0.00000286 0.00000000 VRAI 
