********** Fichier qui contient une sauvegarde des coordonnees images + coordonnees images transformees dans le repere BCAM (MOUNT) + coordonnees des prismes dans le repere MOUNT********** 
********************************************************************** Unite en metres (m)************************************************************************************************** 

*******************************************************************coordonnees images dans le repere CCD *********************************************************************************** 
20MABNDL000077_PR002
Spot 1     0.00052500     0.00043500
Spot 2     0.00052500     0.00043500
Spot 1     0.00121481     0.00149984
Spot 2     0.00052500     0.00043500
Spot 1     0.00121479     0.00150021
Spot 2     0.00052500     0.00043500
20MABNDL000077_PR003
Spot 1     0.00138747     0.00148697
Spot 2     0.00153719     0.00148890
Spot 1     0.00138714     0.00148691
Spot 2     0.00153663     0.00148872
Spot 1     0.00138757     0.00148688
Spot 2     0.00153683     0.00148862
20MABNDL000077_20MABNDM000168
Spot 1     0.00175760     0.00118490
Spot 2     0.00075500     0.00010500
Spot 1     0.00175684     0.00118480
Spot 2     0.00075500     0.00010500
Spot 1     0.00175672     0.00118460
Spot 2     0.00075500     0.00010500
20MABNDL000077_PR024
Spot 1     0.00254618     0.00144778
Spot 2     0.00264526     0.00145546
Spot 1     0.00254629     0.00144762
Spot 2     0.00264530     0.00145548
Spot 1     0.00254621     0.00144783
Spot 2     0.00264552     0.00145510
20MABNDM000020_PR013
Spot 1     0.00162568     0.00152699
Spot 2     0.00147336     0.00153362
Spot 1     0.00162711     0.00152694
Spot 2     0.00147324     0.00153381
Spot 1     0.00162675     0.00152580
Spot 2     0.00147248     0.00153411
20MABNDM000020_PR014
Spot 1     0.00265905     0.00168880
Spot 2     0.00249805     0.00169488
Spot 1     0.00265920     0.00168941
Spot 2     0.00249789     0.00169362
Spot 1     0.00265868     0.00168885
Spot 2     0.00249773     0.00169343
20MABNDM000020_20MABNDL000196
Spot 1     0.00197658     0.00117824
Spot 2     0.00230500     0.00010500
Spot 1     0.00197679     0.00117814
Spot 2     0.00230500     0.00010500
Spot 1     0.00197663     0.00117839
Spot 2     0.00230500     0.00010500
20MABNDM000020_PR035
Spot 1     0.00126890     0.00149669
Spot 2     0.00118674     0.00153113
Spot 1     0.00126903     0.00149660
Spot 2     0.00118678     0.00153141
Spot 1     0.00126891     0.00149669
Spot 2     0.00118672     0.00153137
20MABNDM000168_PR025
Spot 1     0.00170500     0.00021500
Spot 2     0.00170500     0.00021500
Spot 1     0.00170500     0.00021500
Spot 2     0.00170500     0.00021500
Spot 1     0.00170500     0.00021500
Spot 2     0.00170500     0.00021500
20MABNDM000168_PR026
Spot 1     0.00266681     0.00143020
Spot 2     0.00250570     0.00142652
Spot 1     0.00266688     0.00142990
Spot 2     0.00250565     0.00142655
Spot 1     0.00266705     0.00143027
Spot 2     0.00250581     0.00142645
20MABNDM000168_20MABNDL000077
Spot 1     0.00154164     0.00130052
Spot 2     0.00175814     0.00130559
Spot 1     0.00154179     0.00130056
Spot 2     0.00175804     0.00130540
Spot 1     0.00154165     0.00130060
Spot 2     0.00175765     0.00130483
20MABNDM000168_PR001
Spot 1     0.00080822     0.00161856
Spot 2     0.00070644     0.00162078
Spot 1     0.00080813     0.00161866
Spot 2     0.00070637     0.00162085
Spot 1     0.00080798     0.00161889
Spot 2     0.00070642     0.00162096
20MABNDL000196_PR036
Spot 1     0.00094583     0.00163623
Spot 2     0.00111035     0.00163542
Spot 1     0.00094577     0.00163655
Spot 2     0.00111021     0.00163551
Spot 1     0.00094572     0.00163638
Spot 2     0.00111009     0.00163542
20MABNDL000196_PR037
Spot 1     0.00246703     0.00117155
Spot 2     0.00262198     0.00117005
Spot 1     0.00246710     0.00117190
Spot 2     0.00262215     0.00116996
Spot 1     0.00246728     0.00117165
Spot 2     0.00262206     0.00117001
20MABNDL000196_20MABNDM000020
Spot 1     0.00192576     0.00104192
Spot 2     0.00170440     0.00104675
Spot 1     0.00192553     0.00104175
Spot 2     0.00170459     0.00104699
Spot 1     0.00192553     0.00104200
Spot 2     0.00170459     0.00104711
20MABNDL000196_PR012
Spot 1     0.00265176     0.00134275
Spot 2     0.00272292     0.00138776
Spot 1     0.00265207     0.00134255
Spot 2     0.00272297     0.00138794
Spot 1     0.00265201     0.00134255
Spot 2     0.00272321     0.00138809
20MABNDA000318_PR004
Spot 1     0.00192516     0.00162732
Spot 2     0.00214318     0.00162668
Spot 1     0.00192526     0.00162726
Spot 2     0.00214319     0.00162655
Spot 1     0.00192515     0.00162724
Spot 2     0.00214337     0.00162657
20MABNDA000334_PR005
Spot 1     0.00247232     0.00158774
Spot 2     0.00219183     0.00158858
Spot 1     0.00247233     0.00158797
Spot 2     0.00219185     0.00158855
Spot 1     0.00247242     0.00158800
Spot 2     0.00219196     0.00158868
20MABNDB000317_PR015
Spot 1     0.00170440     0.00158779
Spot 2     0.00148489     0.00159423
Spot 1     0.00170415     0.00158790
Spot 2     0.00148492     0.00159407
Spot 1     0.00170412     0.00158760
Spot 2     0.00148483     0.00159433
20MABNDB000146_PR016
Spot 1     0.00144340     0.00132457
Spot 2     0.00171951     0.00132670
Spot 1     0.00144350     0.00132460
Spot 2     0.00171981     0.00132701
Spot 1     0.00144341     0.00132449
Spot 2     0.00171977     0.00132674
20MABNDB000135_PR027
Spot 1     0.00188960     0.00091460
Spot 2     0.00210810     0.00091603
Spot 1     0.00188982     0.00091441
Spot 2     0.00210816     0.00091607
Spot 1     0.00188968     0.00091444
Spot 2     0.00210820     0.00091612
20MABNDB000126_PR028
Spot 1     0.00164359     0.00200916
Spot 2     0.00192588     0.00201074
Spot 1     0.00164355     0.00200916
Spot 2     0.00192594     0.00201079
Spot 1     0.00164349     0.00200923
Spot 2     0.00192585     0.00201073
20MABNDA000272_PR038
Spot 1     0.00192167     0.00095012
Spot 2     0.00170070     0.00094939
Spot 1     0.00192178     0.00095012
Spot 2     0.00170065     0.00094954
Spot 1     0.00192144     0.00094998
Spot 2     0.00170051     0.00094939
20MABNDA000003_PR039
Spot 1     0.00199917     0.00192560
Spot 2     0.00227779     0.00192712
Spot 1     0.00199917     0.00192554
Spot 2     0.00227762     0.00192694
Spot 1     0.00199912     0.00192551
Spot 2     0.00227764     0.00192718
20MABNDA000196_PR006
Spot 1     0.00199892     0.00072655
Spot 2     0.00163222     0.00072425
Spot 1     0.00199874     0.00072645
Spot 2     0.00163246     0.00072431
Spot 1     0.00199882     0.00072662
Spot 2     0.00163239     0.00072442
20MABNDA000324_PR007
Spot 1     0.00194141     0.00121453
Spot 2     0.00173585     0.00122029
Spot 1     0.00194135     0.00121459
Spot 2     0.00173564     0.00122045
Spot 1     0.00194147     0.00121446
Spot 2     0.00173538     0.00122045
20MABNDB000001_PR017
Spot 1     0.00190291     0.00043895
Spot 2     0.00227156     0.00044719
Spot 1     0.00190288     0.00043895
Spot 2     0.00227151     0.00044722
Spot 1     0.00190279     0.00043891
Spot 2     0.00227135     0.00044706
20MABNDB000260_PR019
Spot 1     0.00191386     0.00150576
Spot 2     0.00211778     0.00150611
Spot 1     0.00191390     0.00150577
Spot 2     0.00211783     0.00150632
Spot 1     0.00191386     0.00150559
Spot 2     0.00211759     0.00150611
20MABNDB000212_PR029
Spot 1     0.00222846     0.00070067
Spot 2     0.00186818     0.00070136
Spot 1     0.00222849     0.00070072
Spot 2     0.00186827     0.00070153
Spot 1     0.00222856     0.00070081
Spot 2     0.00186820     0.00070120
20MABNDB000128_PR030
Spot 1     0.00190477     0.00199961
Spot 2     0.00211069     0.00199451
Spot 1     0.00190505     0.00199929
Spot 2     0.00211079     0.00199424
Spot 1     0.00190477     0.00199938
Spot 2     0.00211052     0.00199456
20MABNDA000444_PR040
Spot 1     0.00074563     0.00035430
Spot 2     0.00111274     0.00035194
Spot 1     0.00074541     0.00035451
Spot 2     0.00111246     0.00035183
Spot 1     0.00074538     0.00035431
Spot 2     0.00111250     0.00035172
20MABNDA000053_PR041
Spot 1     0.00166082     0.00198959
Spot 2     0.00144540     0.00199035
Spot 1     0.00165996     0.00199015
Spot 2     0.00144500     0.00199164
Spot 1     0.00166005     0.00199010
Spot 2     0.00144478     0.00199174
20MABNDA000188_PR008
Spot 1     0.00289500     0.00025500
Spot 2     0.00303500     0.00230500
Spot 1     0.00289500     0.00025500
Spot 2     0.00303500     0.00230500
Spot 1     0.00289500     0.00025500
Spot 2     0.00303500     0.00230500
20MABNDA000188_PR018
Spot 1     0.00169742     0.00173742
Spot 2     0.00123023     0.00173364
Spot 1     0.00169751     0.00173730
Spot 2     0.00123002     0.00173384
Spot 1     0.00169728     0.00173750
Spot 2     0.00123011     0.00173369
20MABNDA000039_PR009
Spot 1     0.00066352     0.00117969
Spot 2     0.00061637     0.00118422
Spot 1     0.00066335     0.00117986
Spot 2     0.00061628     0.00118406
Spot 1     0.00066357     0.00117998
Spot 2     0.00061636     0.00118414
20MABNDA000039_PR011
Spot 1     0.00276977     0.00029119
Spot 2     0.00259389     0.00028624
Spot 1     0.00276977     0.00029141
Spot 2     0.00259385     0.00028584
Spot 1     0.00276981     0.00029174
Spot 2     0.00259398     0.00028598
20MABNDB000155_PR020
Spot 1     0.00062352     0.00113524
Spot 2     0.00068913     0.00113101
Spot 1     0.00062277     0.00113568
Spot 2     0.00068793     0.00113141
Spot 1     0.00062404     0.00113586
Spot 2     0.00068962     0.00113101
20MABNDB000155_PR022
Spot 1     0.00213795     0.00142692
Spot 2     0.00261058     0.00142214
Spot 1     0.00213787     0.00142689
Spot 2     0.00261058     0.00142211
Spot 1     0.00213781     0.00142688
Spot 2     0.00261059     0.00142209
20MABNDB000010_PR021
Spot 1     0.00287270     0.00114939
Spot 2     0.00268750     0.00037750
Spot 1     0.00287251     0.00114912
Spot 2     0.00268750     0.00037750
Spot 1     0.00287249     0.00114934
Spot 2     0.00268750     0.00037750
20MABNDB000010_PR023
Spot 1     0.00131732     0.00030222
Spot 2     0.00149265     0.00030052
Spot 1     0.00131745     0.00030224
Spot 2     0.00149278     0.00030064
20MABNDB000069_PR031
Spot 1     0.00028289     0.00140579
Spot 2     0.00035558     0.00140462
Spot 1     0.00028268     0.00140577
Spot 2     0.00035541     0.00140491
20MABNDB000069_PR033
Spot 1     0.00182587     0.00206631
Spot 2     0.00229621     0.00208639
Spot 1     0.00182603     0.00206614
Spot 2     0.00229638     0.00208644
20MABNDB000131_PR032
Spot 1     0.00277446     0.00107540
Spot 2     0.00283447     0.00107862
Spot 1     0.00277473     0.00107554
Spot 2     0.00283504     0.00107858
20MABNDB000131_PR034
Spot 1     0.00091399     0.00032435
Spot 2     0.00109052     0.00032405
Spot 1     0.00091394     0.00032431
Spot 2     0.00109051     0.00032412
20MABNDA000208_PR042
Spot 1     0.00263615     0.00045000
Spot 2     0.00282750     0.00063000
Spot 1     0.00263603     0.00044914
Spot 2     0.00283000     0.00063000
20MABNDA000208_PR046
Spot 1     0.00143852     0.00225629
Spot 2     0.00104296     0.00216718
Spot 1     0.00145904     0.00222188
Spot 2     0.00102380     0.00207340
20MABNDA000035_PR044
Spot 1     0.00073696     0.00125032
Spot 2     0.00067937     0.00124446
Spot 1     0.00073694     0.00125045
Spot 2     0.00067921     0.00124459
20MABNDA000035_PR045
Spot 1     0.00253661     0.00045891
Spot 2     0.00235953     0.00045757
Spot 1     0.00253689     0.00045878
Spot 2     0.00235972     0.00045748


****************************************************************coordonnees images transformees dans le repere MOUNT************************************************************************* 
20MABNDL000077_PR002
Spot 1     0.01158509     0.03451311    -0.07463200
Spot 2     0.01158509     0.03451311    -0.07463200
Spot 1     0.01228511     0.03557127    -0.07463200
Spot 2     0.01158509     0.03451311    -0.07463200
Spot 1     0.01228510     0.03557164    -0.07463200
Spot 2     0.01158509     0.03451311    -0.07463200
20MABNDL000077_PR003
Spot 1     0.01245764     0.03555674    -0.07463200
Spot 2     0.01260737     0.03555723    -0.07463200
Spot 1     0.01245731     0.03555668    -0.07463200
Spot 2     0.01260681     0.03555705    -0.07463200
Spot 1     0.01245774     0.03555665    -0.07463200
Spot 2     0.01260701     0.03555695    -0.07463200
20MABNDL000077_20MABNDM000168
Spot 1    -0.01259275     0.03524788    -0.00695400
Spot 2    -0.01157915     0.03417830    -0.00695400
Spot 1    -0.01259199     0.03524779    -0.00695400
Spot 2    -0.01157915     0.03417830    -0.00695400
Spot 1    -0.01259187     0.03524759    -0.00695400
Spot 2    -0.01157915     0.03417830    -0.00695400
20MABNDL000077_PR024
Spot 1    -0.01338398     0.03550267    -0.00695400
Spot 2    -0.01348313     0.03550934    -0.00695400
Spot 1    -0.01338409     0.03550251    -0.00695400
Spot 2    -0.01348317     0.03550936    -0.00695400
Spot 1    -0.01338401     0.03550272    -0.00695400
Spot 2    -0.01348339     0.03550898    -0.00695400
20MABNDM000020_PR013
Spot 1    -0.01273326    -0.03548570    -0.00523500
Spot 2    -0.01288540    -0.03549570    -0.00523500
Spot 1    -0.01273183    -0.03548562    -0.00523500
Spot 2    -0.01288551    -0.03549589    -0.00523500
Spot 1    -0.01273222    -0.03548449    -0.00523500
Spot 2    -0.01288626    -0.03549621    -0.00523500
20MABNDM000020_PR014
Spot 1    -0.01169656    -0.03562462    -0.00523500
Spot 2    -0.01185739    -0.03563426    -0.00523500
Spot 1    -0.01169640    -0.03562523    -0.00523500
Spot 2    -0.01185758    -0.03563301    -0.00523500
Spot 1    -0.01169693    -0.03562468    -0.00523500
Spot 2    -0.01185774    -0.03563282    -0.00523500
20MABNDM000020_20MABNDL000196
Spot 1     0.01270970    -0.03514680    -0.07583800
Spot 2     0.01238113    -0.03407361    -0.07583800
Spot 1     0.01270949    -0.03514670    -0.07583800
Spot 2     0.01238113    -0.03407361    -0.07583800
Spot 1     0.01270965    -0.03514695    -0.07583800
Spot 2     0.01238113    -0.03407361    -0.07583800
20MABNDM000020_PR035
Spot 1     0.01341742    -0.03546516    -0.07583800
Spot 2     0.01349959    -0.03549958    -0.07583800
Spot 1     0.01341729    -0.03546507    -0.07583800
Spot 2     0.01349955    -0.03549986    -0.07583800
Spot 1     0.01341741    -0.03546516    -0.07583800
Spot 2     0.01349961    -0.03549982    -0.07583800
20MABNDM000168_PR025
Spot 1    -0.01270254    -0.03454993    -0.00532900
Spot 2    -0.01270254    -0.03454993    -0.00532900
Spot 1    -0.01270254    -0.03454993    -0.00532900
Spot 2    -0.01270254    -0.03454993    -0.00532900
Spot 1    -0.01270254    -0.03454993    -0.00532900
Spot 2    -0.01270254    -0.03454993    -0.00532900
20MABNDM000168_PR026
Spot 1    -0.01173552    -0.03576098    -0.00532900
Spot 2    -0.01189665    -0.03575799    -0.00532900
Spot 1    -0.01173545    -0.03576068    -0.00532900
Spot 2    -0.01189670    -0.03575802    -0.00532900
Spot 1    -0.01173528    -0.03576105    -0.00532900
Spot 2    -0.01189654    -0.03575792    -0.00532900
20MABNDM000168_20MABNDL000077
Spot 1     0.01288381    -0.03530115    -0.07445100
Spot 2     0.01266726    -0.03530305    -0.07445100
Spot 1     0.01288366    -0.03530119    -0.07445100
Spot 2     0.01266737    -0.03530286    -0.07445100
Spot 1     0.01288380    -0.03530123    -0.07445100
Spot 2     0.01266777    -0.03530230    -0.07445100
20MABNDM000168_PR001
Spot 1     0.01361250    -0.03562989    -0.07445100
Spot 2     0.01371424    -0.03563360    -0.07445100
Spot 1     0.01361259    -0.03562999    -0.07445100
Spot 2     0.01371431    -0.03563367    -0.07445100
Spot 1     0.01361274    -0.03563022    -0.07445100
Spot 2     0.01371426    -0.03563378    -0.07445100
20MABNDL000196_PR036
Spot 1     0.01192576     0.03582493    -0.07483600
Spot 2     0.01209028     0.03582446    -0.07483600
Spot 1     0.01192570     0.03582525    -0.07483600
Spot 2     0.01209014     0.03582455    -0.07483600
Spot 1     0.01192565     0.03582508    -0.07483600
Spot 2     0.01209002     0.03582446    -0.07483600
20MABNDL000196_PR037
Spot 1     0.01344793     0.03536342    -0.07483600
Spot 2     0.01360288     0.03536224    -0.07483600
Spot 1     0.01344800     0.03536377    -0.07483600
Spot 2     0.01360305     0.03536215    -0.07483600
Spot 1     0.01344818     0.03536352    -0.07483600
Spot 2     0.01360296     0.03536220    -0.07483600
20MABNDL000196_20MABNDM000020
Spot 1    -0.01274982     0.03531313    -0.00611000
Spot 2    -0.01252860     0.03532241    -0.00611000
Spot 1    -0.01274958     0.03531296    -0.00611000
Spot 2    -0.01252880     0.03532264    -0.00611000
Spot 1    -0.01274959     0.03531321    -0.00611000
Spot 2    -0.01252880     0.03532276    -0.00611000
20MABNDL000196_PR012
Spot 1    -0.01348172     0.03559929    -0.00611000
Spot 2    -0.01355378     0.03564286    -0.00611000
Spot 1    -0.01348203     0.03559908    -0.00611000
Spot 2    -0.01355383     0.03564304    -0.00611000
Spot 1    -0.01348197     0.03559908    -0.00611000
Spot 2    -0.01355407     0.03564318    -0.00611000
20MABNDA000318_PR004
Spot 1    -0.01264498     0.01246856    -0.07310600
Spot 2    -0.01286300     0.01246856    -0.07310600
Spot 1    -0.01264508     0.01246862    -0.07310600
Spot 2    -0.01286301     0.01246869    -0.07310600
Spot 1    -0.01264497     0.01246864    -0.07310600
Spot 2    -0.01286319     0.01246867    -0.07310600
20MABNDA000334_PR005
Spot 1    -0.01311543     0.01254065    -0.07324100
Spot 2    -0.01283494     0.01253955    -0.07324100
Spot 1    -0.01311544     0.01254042    -0.07324100
Spot 2    -0.01283496     0.01253958    -0.07324100
Spot 1    -0.01311553     0.01254039    -0.07324100
Spot 2    -0.01283507     0.01253945    -0.07324100
20MABNDB000317_PR015
Spot 1    -0.01244976    -0.01250773    -0.07326100
Spot 2    -0.01266933    -0.01250385    -0.07326100
Spot 1    -0.01245001    -0.01250762    -0.07326100
Spot 2    -0.01266930    -0.01250401    -0.07326100
Spot 1    -0.01245004    -0.01250792    -0.07326100
Spot 2    -0.01266939    -0.01250375    -0.07326100
20MABNDB000146_PR016
Spot 1    -0.01276494    -0.01246904    -0.07450500
Spot 2    -0.01248884    -0.01246630    -0.07450500
Spot 1    -0.01276484    -0.01246901    -0.07450500
Spot 2    -0.01248854    -0.01246599    -0.07450500
Spot 1    -0.01276493    -0.01246912    -0.07450500
Spot 2    -0.01248858    -0.01246626    -0.07450500
20MABNDB000135_PR027
Spot 1    -0.01251509    -0.01319840    -0.07464700
Spot 2    -0.01229658    -0.01319941    -0.07464700
Spot 1    -0.01251487    -0.01319860    -0.07464700
Spot 2    -0.01229652    -0.01319937    -0.07464700
Spot 1    -0.01251501    -0.01319857    -0.07464700
Spot 2    -0.01229648    -0.01319932    -0.07464700
20MABNDB000126_PR028
Spot 1    -0.01253594    -0.01217302    -0.07500400
Spot 2    -0.01225367    -0.01216993    -0.07500400
Spot 1    -0.01253598    -0.01217302    -0.07500400
Spot 2    -0.01225361    -0.01216988    -0.07500400
Spot 1    -0.01253605    -0.01217295    -0.07500400
Spot 2    -0.01225370    -0.01216994    -0.07500400
20MABNDA000272_PR038
Spot 1    -0.01275732     0.01316135    -0.07417900
Spot 2    -0.01253635     0.01316168    -0.07417900
Spot 1    -0.01275743     0.01316135    -0.07417900
Spot 2    -0.01253630     0.01316153    -0.07417900
Spot 1    -0.01275709     0.01316148    -0.07417900
Spot 2    -0.01253616     0.01316168    -0.07417900
20MABNDA000003_PR039
Spot 1    -0.01280025     0.01212666    -0.07373400
Spot 2    -0.01307888     0.01212585    -0.07373400
Spot 1    -0.01280025     0.01212672    -0.07373400
Spot 2    -0.01307871     0.01212603    -0.07373400
Spot 1    -0.01280020     0.01212675    -0.07373400
Spot 2    -0.01307873     0.01212579    -0.07373400
20MABNDA000196_PR006
Spot 1    -0.01295359     0.01325184    -0.07967100
Spot 2    -0.01258689     0.01324943    -0.07967100
Spot 1    -0.01295341     0.01325194    -0.07967100
Spot 2    -0.01258713     0.01324937    -0.07967100
Spot 1    -0.01295349     0.01325177    -0.07967100
Spot 2    -0.01258706     0.01324926    -0.07967100
20MABNDA000324_PR007
Spot 1    -0.01254710     0.01280709    -0.07446800
Spot 2    -0.01234151     0.01280294    -0.07446800
Spot 1    -0.01254704     0.01280703    -0.07446800
Spot 2    -0.01234129     0.01280278    -0.07446800
Spot 1    -0.01254716     0.01280716    -0.07446800
Spot 2    -0.01234103     0.01280278    -0.07446800
20MABNDB000001_PR017
Spot 1    -0.01228545    -0.01355074    -0.07418400
Spot 2    -0.01191673    -0.01354641    -0.07418400
Spot 1    -0.01228548    -0.01355074    -0.07418400
Spot 2    -0.01191678    -0.01354638    -0.07418400
Spot 1    -0.01228557    -0.01355078    -0.07418400
Spot 2    -0.01191695    -0.01354653    -0.07418400
20MABNDB000260_PR019
Spot 1    -0.01241754    -0.01239696    -0.07492700
Spot 2    -0.01221367    -0.01239243    -0.07492700
Spot 1    -0.01241750    -0.01239695    -0.07492700
Spot 2    -0.01221363    -0.01239222    -0.07492700
Spot 1    -0.01241754    -0.01239713    -0.07492700
Spot 2    -0.01221386    -0.01239243    -0.07492700
20MABNDB000212_PR029
Spot 1    -0.01185939    -0.01328054    -0.07390500
Spot 2    -0.01221964    -0.01327601    -0.07390500
Spot 1    -0.01185936    -0.01328049    -0.07390500
Spot 2    -0.01221955    -0.01327584    -0.07390500
Spot 1    -0.01185929    -0.01328040    -0.07390500
Spot 2    -0.01221962    -0.01327617    -0.07390500
20MABNDB000128_PR030
Spot 1    -0.01245035    -0.01221769    -0.07353400
Spot 2    -0.01224441    -0.01222208    -0.07353400
Spot 1    -0.01245007    -0.01221801    -0.07353400
Spot 2    -0.01224431    -0.01222235    -0.07353400
Spot 1    -0.01245035    -0.01221792    -0.07353400
Spot 2    -0.01224458    -0.01222203    -0.07353400
20MABNDA000444_PR040
Spot 1    -0.01168545     0.01367551    -0.07412000
Spot 2    -0.01205256     0.01367321    -0.07412000
Spot 1    -0.01168523     0.01367530    -0.07412000
Spot 2    -0.01205229     0.01367332    -0.07412000
Spot 1    -0.01168520     0.01367550    -0.07412000
Spot 2    -0.01205233     0.01367343    -0.07412000
20MABNDA000053_PR041
Spot 1    -0.01241746     0.01212102    -0.07430100
Spot 2    -0.01220210     0.01211606    -0.07430100
Spot 1    -0.01241661     0.01212045    -0.07430100
Spot 2    -0.01220172     0.01211476    -0.07430100
Spot 1    -0.01241670     0.01212050    -0.07430100
Spot 2    -0.01220150     0.01211465    -0.07430100
20MABNDA000188_PR008
Spot 1    -0.01391227     0.01380893    -0.07502000
Spot 2    -0.01406982     0.01176021    -0.07502000
Spot 1    -0.01391227     0.01380893    -0.07502000
Spot 2    -0.01406982     0.01176021    -0.07502000
Spot 1    -0.01391227     0.01380893    -0.07502000
Spot 2    -0.01406982     0.01176021    -0.07502000
20MABNDA000188_PR018
Spot 1    -0.01272743     0.01231631    -0.07502000
Spot 2    -0.01226022     0.01231609    -0.07502000
Spot 1    -0.01272752     0.01231643    -0.07502000
Spot 2    -0.01226002     0.01231589    -0.07502000
Spot 1    -0.01272729     0.01231623    -0.07502000
Spot 2    -0.01226010     0.01231604    -0.07502000
20MABNDA000039_PR009
Spot 1    -0.01162567     0.01306444    -0.07444800
Spot 2    -0.01157854     0.01305971    -0.07444800
Spot 1    -0.01162550     0.01306427    -0.07444800
Spot 2    -0.01157845     0.01305987    -0.07444800
Spot 1    -0.01162572     0.01306415    -0.07444800
Spot 2    -0.01157853     0.01305979    -0.07444800
20MABNDA000039_PR011
Spot 1    -0.01372805     0.01396205    -0.07444800
Spot 2    -0.01355215     0.01396624    -0.07444800
Spot 1    -0.01372806     0.01396183    -0.07444800
Spot 2    -0.01355211     0.01396664    -0.07444800
Spot 1    -0.01372810     0.01396150    -0.07444800
Spot 2    -0.01355224     0.01396650    -0.07444800
20MABNDB000155_PR020
Spot 1    -0.01364271    -0.01312208    -0.07501700
Spot 2    -0.01357705    -0.01312541    -0.07501700
Spot 1    -0.01364347    -0.01312165    -0.07501700
Spot 2    -0.01357826    -0.01312503    -0.07501700
Spot 1    -0.01364220    -0.01312145    -0.07501700
Spot 2    -0.01357656    -0.01312541    -0.07501700
20MABNDB000155_PR022
Spot 1    -0.01213242    -0.01280970    -0.07501700
Spot 2    -0.01165977    -0.01280801    -0.07501700
Spot 1    -0.01213250    -0.01280973    -0.07501700
Spot 2    -0.01165977    -0.01280804    -0.07501700
Spot 1    -0.01213256    -0.01280974    -0.07501700
Spot 2    -0.01165976    -0.01280806    -0.07501700
20MABNDB000010_PR021
Spot 1    -0.01157825    -0.01292905    -0.07358200
Spot 2    -0.01175034    -0.01370397    -0.07358200
Spot 1    -0.01157843    -0.01292933    -0.07358200
Spot 2    -0.01175034    -0.01370397    -0.07358200
Spot 1    -0.01157845    -0.01292911    -0.07358200
Spot 2    -0.01175034    -0.01370397    -0.07358200
20MABNDB000010_PR023
Spot 1    -0.01311905    -0.01380245    -0.07358200
Spot 2    -0.01294372    -0.01380118    -0.07358200
Spot 1    -0.01311892    -0.01380243    -0.07358200
Spot 2    -0.01294359    -0.01380106    -0.07358200
20MABNDB000069_PR031
Spot 1    -0.01359333    -0.01286182    -0.07388500
Spot 2    -0.01352075    -0.01286599    -0.07388500
Spot 1    -0.01359354    -0.01286184    -0.07388500
Spot 2    -0.01352091    -0.01286570    -0.07388500
20MABNDB000069_PR033
Spot 1    -0.01202441    -0.01226554    -0.07388500
Spot 2    -0.01155364    -0.01226489    -0.07388500
Spot 1    -0.01202425    -0.01226572    -0.07388500
Spot 2    -0.01155347    -0.01226485    -0.07388500
20MABNDB000131_PR032
Spot 1    -0.01144568    -0.01303937    -0.07533000
Spot 2    -0.01138569    -0.01303584    -0.07533000
Spot 1    -0.01144541    -0.01303922    -0.07533000
Spot 2    -0.01138512    -0.01303588    -0.07533000
20MABNDB000131_PR034
Spot 1    -0.01330234    -0.01379977    -0.07533000
Spot 2    -0.01312581    -0.01379919    -0.07533000
Spot 1    -0.01330239    -0.01379981    -0.07533000
Spot 2    -0.01312582    -0.01379912    -0.07533000
20MABNDA000208_PR042
Spot 1    -0.01350731     0.01354639    -0.07273700
Spot 2    -0.01369850     0.01336622    -0.07273700
Spot 1    -0.01350719     0.01354725    -0.07273700
Spot 2    -0.01370100     0.01336622    -0.07273700
20MABNDA000208_PR046
Spot 1    -0.01230810     0.01174115    -0.07273700
Spot 2    -0.01191261     0.01183061    -0.07273700
Spot 1    -0.01232865     0.01177554    -0.07273700
Spot 2    -0.01189354     0.01192440    -0.07273700
20MABNDA000035_PR044
Spot 1    -0.01157156     0.01300692    -0.07483200
Spot 2    -0.01151393     0.01301237    -0.07483200
Spot 1    -0.01157154     0.01300679    -0.07483200
Spot 2    -0.01151377     0.01301224    -0.07483200
20MABNDA000035_PR045
Spot 1    -0.01336553     0.01381111    -0.07483200
Spot 2    -0.01318845     0.01381119    -0.07483200
Spot 1    -0.01336581     0.01381124    -0.07483200
Spot 2    -0.01318864     0.01381128    -0.07483200


*****************************************************************coordonnees du prisme dans le repere MOUNT********************************************************************************** 
20MABNDL000077_PR002
    0.06737348     0.07371713     3.70652628
    0.05008785     0.04758359     3.70691442
    0.05008826     0.04757445     3.70691442
20MABNDL000077_PR003
    0.02097734     0.02144445     3.89601803
    0.02100051     0.02145046     3.89601803
    0.02098418     0.02145400     3.89601803
20MABNDL000077_20MABNDM000168
   -0.05596054     0.07576826    -5.46843624
   -0.05598803     0.07577159    -5.46843624
   -0.05599243     0.07577877    -5.46843624
20MABNDL000077_PR024
    0.04567008     0.01710267    -5.89639854
    0.04567587     0.01710819    -5.89639854
    0.04568126     0.01711487    -5.89639854
20MABNDM000020_PR013
   -0.00362702    -0.01811986    -3.80243397
   -0.00365959    -0.01811710    -3.80243397
   -0.00363135    -0.01813732    -3.80243397
20MABNDM000020_PR014
   -0.06558087    -0.00496130    -4.74840975
   -0.06558011    -0.00498148    -4.74840975
   -0.06555844    -0.00500435    -4.74841022
20MABNDM000020_20MABNDL000196
    0.02683698    -0.07123841     5.39469719
    0.02684451    -0.07124200     5.39469719
    0.02683877    -0.07123304     5.39469719
20MABNDM000020_PR035
   -0.04245713    -0.00669602     5.80095387
   -0.04245058    -0.00668870     5.80095387
   -0.04245752    -0.00668677     5.80095387
20MABNDM000168_PR025
   -0.01172818    -0.07481869    -3.78859472
   -0.01172818    -0.07481869    -3.78859472
   -0.01172818    -0.07481869    -3.78859472
20MABNDM000168_PR026
   -0.05782511    -0.01389631    -3.98429012
   -0.05782560    -0.01390334    -3.98429012
   -0.05783422    -0.01389635    -3.98429012
20MABNDM000168_20MABNDL000077
    0.01157141    -0.03871608     5.38884687
    0.01157313    -0.03872149     5.38884687
    0.01155381    -0.03874025     5.38884687
20MABNDM000168_PR001
   -0.05735303    -0.01336981     5.81470585
   -0.05735914    -0.01336314     5.81470490
   -0.05736282    -0.01334990     5.81470490
20MABNDL000196_PR036
    0.05137631     0.00611365     3.68777275
    0.05138123     0.00610359     3.68777275
    0.05138539     0.00610998     3.68777275
20MABNDL000196_PR037
   -0.02503550     0.02841004     3.88381386
   -0.02504169     0.02840331     3.88381386
   -0.02504403     0.02840848     3.88381386
20MABNDL000196_20MABNDM000020
   -0.01570920     0.03787670    -5.47473907
   -0.01571059     0.03787416    -5.47473907
   -0.01571032     0.03786087    -5.47473907
20MABNDL000196_PR012
    0.05233173     0.01444981    -5.91537189
    0.05234570     0.01445087    -5.91537142
    0.05235281     0.01444518    -5.91537142
20MABNDA000318_PR004
   -0.00855709     0.03842749     2.74965906
   -0.00855507     0.03842401     2.74965906
   -0.00855378     0.03842401     2.74965906
20MABNDA000334_PR005
   -0.00429661     0.03174618     2.14977145
   -0.00429618     0.03174903     2.14977145
   -0.00429332     0.03175132     2.14977145
20MABNDB000317_PR015
   -0.01726894    -0.03378233     2.75129199
   -0.01726494    -0.03378137     2.75129199
   -0.01726277    -0.03378062     2.75129199
20MABNDB000146_PR016
   -0.01341055    -0.03156230     2.15201473
   -0.01341629    -0.03156720     2.15201473
   -0.01341443    -0.03156173     2.15201473
20MABNDB000135_PR027
   -0.02095691    -0.00979550     2.74937153
   -0.02096201    -0.00979269     2.74937153
   -0.02096019    -0.00979418     2.74937153
20MABNDB000126_PR028
   -0.02030603    -0.03896153     2.14679527
   -0.02030631    -0.03896224     2.14679527
   -0.02030417    -0.03896238     2.14679527
20MABNDA000272_PR038
   -0.01327206     0.01076314     2.74965858
   -0.01327096     0.01076589     2.74965858
   -0.01327976     0.01076059     2.74965858
20MABNDA000003_PR039
   -0.00597333     0.04123315     2.14891529
   -0.00597576     0.04122974     2.14891577
   -0.00597618     0.04123273     2.14891529
20MABNDA000196_PR006
   -0.01012948     0.00987030     1.64206338
   -0.01012883     0.00986985     1.64206338
   -0.01012868     0.00987291     1.64206338
20MABNDA000324_PR007
   -0.02550881     0.02794544     2.95549011
   -0.02551416     0.02794973     2.95549011
   -0.02551689     0.02794714     2.95549011
20MABNDB000001_PR017
   -0.02449106    -0.00283066     1.64035702
   -0.02449019    -0.00283100     1.64035702
   -0.02448744    -0.00282884     1.64035702
20MABNDB000260_PR019
   -0.02402726    -0.03847460     2.95627522
   -0.02402894    -0.03847897     2.95627522
   -0.02402359    -0.03847118     2.95627522
20MABNDB000212_PR029
   -0.02529019    -0.00846668     1.64223862
   -0.02529153    -0.00846908     1.64223862
   -0.02529151    -0.00846645     1.64223862
20MABNDB000128_PR030
   -0.01948428    -0.04674876     2.95496345
   -0.01949179    -0.04673718     2.95496345
   -0.01948095    -0.04674520     2.95496345
20MABNDA000444_PR040
   -0.03022996     0.00091921     1.64490867
   -0.03023545     0.00092024     1.64490855
   -0.03023530     0.00091684     1.64490855
20MABNDA000053_PR041
   -0.02648388     0.05109157     2.95450425
   -0.02650790     0.05112836     2.95450354
   -0.02651043     0.05112939     2.95450354
20MABNDA000188_PR008
    0.14617652     0.04690739     9.20362854
    0.14617652     0.04690739     9.20362854
    0.14617652     0.04690739     9.20362854
20MABNDA000188_PR018
   -0.01617208     0.02582814     1.28358257
   -0.01617310     0.02582883     1.28358257
   -0.01617430     0.02582927     1.28358257
20MABNDA000039_PR009
   -0.17120662     0.02557238    11.00701523
   -0.17122564     0.02557319    11.00701523
   -0.17120361     0.02558772    11.00701523
20MABNDA000039_PR011
    0.03085022    -0.02412562     3.43347454
    0.03084929    -0.02412972     3.43347454
    0.03085322    -0.02411902     3.43347454
20MABNDB000155_PR020
    0.10164952    -0.00959522     9.20028877
    0.10176992    -0.00964515     9.20028782
    0.10158806    -0.00963413     9.20029068
20MABNDB000155_PR022
   -0.02602763    -0.01801509     1.28070211
   -0.02602695    -0.01801457     1.28070211
   -0.02602653    -0.01801431     1.28070211
20MABNDB000010_PR021
   -0.16007723     0.02404315    11.00713062
   -0.16006359     0.02406323    11.00713062
   -0.16006187     0.02404709    11.00713062
20MABNDB000010_PR023
    0.00406247     0.02075202     3.43376780
    0.00405656     0.02074871     3.43376780
20MABNDB000069_PR031
    0.10229686    -0.03873108     9.20356178
    0.10231946    -0.03874859     9.20356178
20MABNDB000069_PR033
   -0.02685288    -0.02689957     1.28394055
   -0.02685566    -0.02689843     1.28394055
20MABNDB000131_PR032
   -0.18758577    -0.02943914    11.00642872
   -0.18764709    -0.02944675    11.00642776
20MABNDB000131_PR034
    0.01478046     0.01649030     3.43337536
    0.01478183     0.01648962     3.43337536
20MABNDA000208_PR042
    0.09644233    -0.03606840     9.20181656
    0.09658843    -0.03612104     9.20181370
20MABNDA000208_PR046
   -0.02299451     0.03477804     1.28208303
   -0.02298207     0.03368301     1.28210115
20MABNDA000035_PR044
   -0.18021706     0.02573781    11.00801945
   -0.18023008     0.02575692    11.00801945
20MABNDA000035_PR045
    0.01419889    -0.01953563     3.43483472
    0.01420959    -0.01954073     3.43483472


*****************************************************************coordonnees du prisme dans le repere ATLAS********************************************************************************** 
20MABNDL000077_PR002 0.00000000
    2.78332901    -3.67712641     6.48587990
    2.80945754    -3.69442081     6.48622084
    2.80946660    -3.69442034     6.48622084
20MABNDL000077_PR003 0.00000000
    2.83577275    -3.72377300     6.67526293
    2.83576679    -3.72374964     6.67526293
    2.83576322    -3.72376609     6.67526293
20MABNDL000077_20MABNDM000168 0.00000000
    2.77223921    -3.78913975    -2.68922138
    2.77223587    -3.78916717    -2.68922138
    2.77222872    -3.78917170    -2.68922138
20MABNDL000077_PR024 0.00000000
    2.83051729    -3.68699980    -3.11711526
    2.83051181    -3.68699408    -3.11711526
    2.83050513    -3.68698859    -3.11711526
20MABNDM000020_PR013 0.00000000
   -2.83418965    -3.73585701     6.48627663
   -2.83419228    -3.73582435     6.48627663
   -2.83417201    -3.73585272     6.48627663
20MABNDM000020_PR014 0.00000000
   -2.84713984    -3.67461848     7.43230200
   -2.84711957    -3.67461944     7.43230200
   -2.84709668    -3.67464113     7.43230200
20MABNDM000020_20MABNDL000196 0.00000000
   -2.78292084    -3.75934243    -2.71088576
   -2.78291726    -3.75935006    -2.71088576
   -2.78292632    -3.75934434    -2.71088576
20MABNDM000020_PR035 0.00000000
   -2.84752321    -3.68971968    -3.11707664
   -2.84753060    -3.68972611    -3.11707664
   -2.84753251    -3.68971920    -3.11707664
20MABNDM000168_PR025 0.00000000
    2.77842593    -3.73358679    -6.47922134
    2.77842593    -3.73358679    -6.47922134
    2.77842593    -3.73358679    -6.47922134
20MABNDM000168_PR026 0.00000000
    2.83934879    -3.68757868    -6.67493773
    2.83934164    -3.68757820    -6.67493773
    2.83934855    -3.68756962    -6.67493773
20MABNDM000168_20MABNDL000077 0.00000000
    2.81507945    -3.75348353     2.69822621
    2.81507397    -3.75348520     2.69822621
    2.81505537    -3.75346589     2.69822621
20MABNDM000168_PR001 0.00000000
    2.84046984    -3.68440747     3.12405777
    2.84047651    -3.68440127     3.12405682
    2.84048963    -3.68439770     3.12405682
20MABNDL000196_PR036 0.00000000
   -2.84749389    -3.69289804    -6.47909641
   -2.84750390    -3.69289327    -6.47909641
   -2.84749746    -3.69288898    -6.47909641
20MABNDL000196_PR037 0.00000000
   -2.82516623    -3.76948190    -6.67506695
   -2.82517290    -3.76948810    -6.67506695
   -2.82516766    -3.76949048    -6.67506695
20MABNDL000196_20MABNDM000020 0.00000000
   -2.81550169    -3.75144577     2.68347335
   -2.81550407    -3.75144720     2.68347335
   -2.81551743    -3.75144696     2.68347335
20MABNDL000196_PR012 0.00000000
   -2.83895063    -3.68300605     3.12404323
   -2.83894968    -3.68299198     3.12404275
   -2.83895540    -3.68298483     3.12404275
20MABNDA000318_PR004 0.00000000
    2.61444616    -4.19698811     3.83357120
    2.61444807    -4.19698811     3.83357477
    2.61444950    -4.19698811     3.83357477
20MABNDA000334_PR005 0.00000000
    2.61670208    -4.19703150     5.89751482
    2.61670232    -4.19703150     5.89751196
    2.61670518    -4.19703150     5.89750957
20MABNDB000317_PR015 0.00000000
   -2.61133814    -4.19700623     3.83623314
   -2.61134219    -4.19700623     3.83623409
   -2.61134434    -4.19700670     3.83623481
20MABNDB000146_PR016 0.00000000
   -2.61288476    -4.19702291     5.89878798
   -2.61287904    -4.19702291     5.89878321
   -2.61288071    -4.19702291     5.89878845
20MABNDB000135_PR027 0.00000000
    2.60390639    -4.19700384    -3.82556534
    2.60390139    -4.19700384    -3.82556820
    2.60390306    -4.19700384    -3.82556677
20MABNDB000126_PR028 0.00000000
    2.60561132    -4.19702101    -5.89325857
    2.60561085    -4.19702101    -5.89325762
    2.60561299    -4.19702101    -5.89325762
20MABNDA000272_PR038 0.00000000
   -2.61126494    -4.19698286    -3.82772112
   -2.61126590    -4.19698286    -3.82771850
   -2.61125708    -4.19698286    -3.82772374
20MABNDA000003_PR039 0.00000000
   -2.61575770    -4.19702148    -5.89153337
   -2.61575532    -4.19702101    -5.89153671
   -2.61575508    -4.19702148    -5.89153385
20MABNDA000196_PR006 0.00000000
    2.58458996    -4.19496536     6.54782677
    2.58458948    -4.19496536     6.54782629
    2.58458924    -4.19496536     6.54782963
20MABNDA000324_PR007 0.00000000
    2.59380603    -4.13996840     6.94796944
    2.59380078    -4.13996840     6.94796562
    2.59379792    -4.13996840     6.94796801
20MABNDB000001_PR017 0.00000000
   -2.59819245    -4.19506073     6.53815889
   -2.59819150    -4.19506073     6.53815889
   -2.59818864    -4.19506073     6.53815699
20MABNDB000260_PR019 0.00000000
   -2.60473466    -4.13995934     6.94216919
   -2.60473299    -4.13995934     6.94216490
   -2.60473824    -4.13995934     6.94217253
20MABNDB000212_PR029 0.00000000
    2.59896803    -4.19501019    -6.54745436
    2.59896922    -4.19501019    -6.54745674
    2.59896922    -4.19501019    -6.54745436
20MABNDB000128_PR030 0.00000000
    2.60937452    -4.14002657    -6.93137217
    2.60936689    -4.14002657    -6.93138409
    2.60937786    -4.14002657    -6.93137598
20MABNDA000444_PR040 0.00000000
   -2.60540247    -4.19510078    -6.54009962
   -2.60540795    -4.19510078    -6.54010057
   -2.60540771    -4.19510078    -6.54009724
20MABNDA000053_PR041 0.00000000
   -2.59405804    -4.14012671    -6.92682219
   -2.59403396    -4.14012718    -6.92678499
   -2.59403157    -4.14012718    -6.92678404
20MABNDA000188_PR008 0.00000000
    3.56106758     3.85075665     7.96465206
    3.56106758     3.85075665     7.96465206
    3.56106758     3.85075665     7.96465206
20MABNDA000188_PR018 0.00000000
    3.52096486    -4.07059622     7.89762068
    3.52096391    -4.07059622     7.89762020
    3.52096272    -4.07059622     7.89761972
20MABNDA000039_PR009 0.00000000
    3.87537861     3.64747334    12.93686676
    3.87539768     3.64747334    12.93686676
    3.87537551     3.64747334    12.93688202
20MABNDA000039_PR011 0.00000000
    3.66417384    -3.92580128    12.88471127
    3.66417480    -3.92580128    12.88470650
    3.66417074    -3.92580128    12.88471794
20MABNDB000155_PR020 0.00000000
   -3.68030167     3.84882283     7.89727211
   -3.68042207     3.84882164     7.89722204
   -3.68024015     3.84882498     7.89723301
20MABNDB000155_PR022 0.00000000
   -3.53395271    -4.07044172     7.89004421
   -3.53395343    -4.07044172     7.89004469
   -3.53395391    -4.07044172     7.89004517
20MABNDB000010_PR021 0.00000000
   -3.84596491     3.64783263    12.87777233
   -3.84595132     3.64783263    12.87775230
   -3.84594965     3.64783263    12.87776852
20MABNDB000010_PR023 0.00000000
   -3.68560433    -3.92560887    12.88452435
   -3.68561029    -3.92560887    12.88452721
20MABNDB000069_PR031 0.00000000
    3.68401361     3.84875607    -7.90167141
    3.68403625     3.84875607    -7.90165424
20MABNDB000069_PR033 0.00000000
    3.53344655    -4.07046270    -7.87877178
    3.53344369    -4.07046270    -7.87877274
20MABNDB000131_PR032 0.00000000
    3.86838841     3.64757848   -12.94008160
    3.86844969     3.64757776   -12.94008923
20MABNDB000131_PR034 0.00000000
    3.67300892    -3.92564154   -12.89145756
    3.67300749    -3.92564154   -12.89145756
20MABNDA000208_PR042 0.00000000
   -3.64649320     3.84945226    -7.94753551
   -3.64663911     3.84944963    -7.94758844
20MABNDA000208_PR046 0.00000000
   -3.53277111    -4.07033873    -7.87374067
   -3.53278279    -4.07032108    -7.87483549
20MABNDA000035_PR044 0.00000000
   -3.86945796     3.64757466   -12.93141651
   -3.86947083     3.64757466   -12.93143559
20MABNDA000035_PR045 0.00000000
   -3.67652941    -3.92565250   -12.88684845
   -3.67651868    -3.92565250   -12.88684368


*****************************************************************Rapport********************************************************************************** 
CAM-LBA-US_EBA-US-HO-H         2018.07.24.20.46.44     2.80075105    -3.68865585     6.48610719     0.01231924     0.00815255     0.00016072 0.00000000 VRAI 
CAM-LBA-US_JDA-US-H            2018.07.24.20.46.44     2.83576759    -3.72376291     6.67526293     0.00000393     0.00000980     0.00000000 0.00000000 VRAI 
CAM-LBA-US_CAM-LBC-US          2018.07.24.20.46.44     2.77223460    -3.78915954    -2.68922138     0.00000438     0.00001411     0.00000000 0.00000000 VRAI 
CAM-LBA-US_EBC-US-IP-H         2018.07.24.20.46.44     2.83051141    -3.68699416    -3.11711526     0.00000497     0.00000458     0.00000000 0.00000000 VRAI 
CAM-LBA-USA_EBA-USA-HO-H       2018.07.24.20.46.44    -2.83418465    -3.73584469     6.48627663     0.00000900     0.00001449     0.00000000 0.00000000 VRAI 
CAM-LBA-USA_JDA-USA-H          2018.07.24.20.46.44    -2.84711870    -3.67462635     7.43230200     0.00001763     0.00001046     0.00000000 0.00000000 VRAI 
CAM-LBA-USA_CAM-LBC-USA        2018.07.24.20.46.44    -2.78292147    -3.75934561    -2.71088576     0.00000373     0.00000324     0.00000000 0.00000000 VRAI 
CAM-LBA-USA_EBC-USA-IP-H       2018.07.24.20.46.44    -2.84752878    -3.68972166    -3.11707664     0.00000401     0.00000315     0.00000000 0.00000000 VRAI 
CAM-LBC-US_EBC-US-HO-H         2018.07.24.20.46.44     2.77842593    -3.73358679    -6.47922134     0.00000000     0.00000000     0.00000000 0.00000000 VRAI 
CAM-LBC-US_JDC-US-H            2018.07.24.20.46.44     2.83934633    -3.68757550    -6.67493773     0.00000332     0.00000416     0.00000000 0.00000000 VRAI 
CAM-LBC-US_CAM-LBA-US          2018.07.24.20.46.44     2.81506960    -3.75347821     2.69822621     0.00001031     0.00000874     0.00000000 0.00000000 VRAI 
CAM-LBC-US_EBA-US-IP-H         2018.07.24.20.46.44     2.84047866    -3.68440215     3.12405713     0.00000822     0.00000404     0.00000045 0.00000000 VRAI 
CAM-LBC-USA_EBC-USA-HO-H       2018.07.24.20.46.44    -2.84749842    -3.69289343    -6.47909641     0.00000414     0.00000370     0.00000000 0.00000000 VRAI 
CAM-LBC-USA_JDC-USA-H          2018.07.24.20.46.44    -2.82516893    -3.76948682    -6.67506695     0.00000287     0.00000362     0.00000000 0.00000000 VRAI 
CAM-LBC-USA_CAM-LBA-USA        2018.07.24.20.46.44    -2.81550773    -3.75144664     2.68347335     0.00000692     0.00000063     0.00000000 0.00000000 VRAI 
CAM-LBC-USA_EBA-USA-IP-H       2018.07.24.20.46.44    -2.83895191    -3.68299429     3.12404291     0.00000250     0.00000881     0.00000022 0.00000000 VRAI 
CAM-EBA-US-IP_EBA-US-IP        2018.07.24.20.46.44     2.61444791    -4.19698811     3.83357358     0.00000137     0.00000000     0.00000169 0.00000000 VRAI 
CAM-EBA-US-HO_EBA-US-HO        2018.07.24.20.46.44     2.61670319    -4.19703150     5.89751212     0.00000141     0.00000000     0.00000214 0.00000000 VRAI 
CAM-EBA-USA-IP_EBA-USA-IP      2018.07.24.20.46.44    -2.61134156    -4.19700638     3.83623401     0.00000257     0.00000022     0.00000068 0.00000000 VRAI 
CAM-EBA-USA-HO_EBA-USA-HO      2018.07.24.20.46.44    -2.61288150    -4.19702291     5.89878654     0.00000240     0.00000000     0.00000237 0.00000000 VRAI 
CAM-EBC-US-IP_EBC-US-IP        2018.07.24.20.46.44     2.60390361    -4.19700384    -3.82556677     0.00000208     0.00000000     0.00000117 0.00000000 VRAI 
CAM-EBC-US-HO_EBC-US-HO        2018.07.24.20.46.44     2.60561172    -4.19702101    -5.89325794     0.00000092     0.00000000     0.00000045 0.00000000 VRAI 
CAM-EBC-USA-IP_EBC-USA-IP      2018.07.24.20.46.44    -2.61126264    -4.19698286    -3.82772112     0.00000395     0.00000000     0.00000214 0.00000000 VRAI 
CAM-EBC-USA-HO_EBC-USA-HO      2018.07.24.20.46.44    -2.61575603    -4.19702133    -5.89153465     0.00000118     0.00000022     0.00000147 0.00000000 VRAI 
CAM-JDA-US-IP_JDA-US-IP        2018.07.24.20.46.44     2.58458956    -4.19496536     6.54782756     0.00000030     0.00000000     0.00000147 0.00000000 VRAI 
CAM-JDA-US-HO_JDA-US-HO        2018.07.24.20.46.44     2.59380158    -4.13996840     6.94796769     0.00000336     0.00000000     0.00000157 0.00000000 VRAI 
CAM-JDA-USA-IP_JDA-USA-IP      2018.07.24.20.46.44    -2.59819086    -4.19506073     6.53815826     0.00000162     0.00000000     0.00000090 0.00000000 VRAI 
CAM-JDA-USA-HO_JDA-USA-HO      2018.07.24.20.46.44    -2.60473529    -4.13995934     6.94216887     0.00000219     0.00000000     0.00000312 0.00000000 VRAI 
CAM-JDC-US-IP_JDC-US-IP        2018.07.24.20.46.44     2.59896882    -4.19501019    -6.54745515     0.00000056     0.00000000     0.00000112 0.00000000 VRAI 
CAM-JDC-US-HO_JDC-US-HO        2018.07.24.20.46.44     2.60937309    -4.14002657    -6.93137741     0.00000459     0.00000000     0.00000497 0.00000000 VRAI 
CAM-JDC-USA-IP_JDC-USA-IP      2018.07.24.20.46.44    -2.60540605    -4.19510078    -6.54009914     0.00000253     0.00000000     0.00000140 0.00000000 VRAI 
CAM-JDC-USA-HO_JDC-USA-HO      2018.07.24.20.46.44    -2.59404119    -4.14012702    -6.92679707     0.00001195     0.00000022     0.00001776 0.00000000 VRAI 
CAM-ECTA-US-IP_ECTA-US-IP-T    2018.07.24.20.46.44     3.56106758     3.85075665     7.96465206     0.00000000     0.00000000     0.00000000 0.00000000 VRAI 
CAM-ECTA-US-IP_ECTA-US-IP      2018.07.24.20.46.44     3.52096383    -4.07059622     7.89762020     0.00000088     0.00000000     0.00000039 0.00000000 VRAI 
CAM-ECTA-US-HO_ECTA-US-HO-T    2018.07.24.20.46.44     3.87538393     3.64747334    12.93687185     0.00000980     0.00000000     0.00000719 0.00000000 VRAI 
CAM-ECTA-US-HO_ECTA-US-HO      2018.07.24.20.46.44     3.66417313    -3.92580128    12.88471190     0.00000173     0.00000000     0.00000469 0.00000000 VRAI 
CAM-ECTA-USA-IP_ECTA-USA-IP-T  2018.07.24.20.46.44    -3.68032130     3.84882315     7.89724239     0.00007555     0.00000138     0.00002149 0.00000000 VRAI 
CAM-ECTA-USA-IP_ECTA-USA-IP    2018.07.24.20.46.44    -3.53395335    -4.07044172     7.89004469     0.00000049     0.00000000     0.00000039 0.00000000 VRAI 
CAM-ECTA-USA-HO_ECTA-USA-HO-T  2018.07.24.20.46.44    -3.84595529     3.64783263    12.87776438     0.00000683     0.00000000     0.00000868 0.00000000 VRAI 
CAM-ECTA-USA-HO_ECTA-USA-HO    2018.07.24.20.46.44    -3.68560731    -3.92560887    12.88452578     0.00000298     0.00000000     0.00000143 0.00000000 VRAI 
CAM-ECTC-US-IP_ECTC-US-IP-T    2018.07.24.20.46.44     3.68402493     3.84875607    -7.90166283     0.00001132     0.00000000     0.00000858 0.00000000 VRAI 
CAM-ECTC-US-IP_ECTC-US-IP      2018.07.24.20.46.44     3.53344512    -4.07046270    -7.87877226     0.00000143     0.00000000     0.00000048 0.00000000 VRAI 
CAM-ECTC-US-HO_ECTC-US-HO-T    2018.07.24.20.46.44     3.86841905     3.64757812   -12.94008541     0.00003064     0.00000036     0.00000381 0.00000000 VRAI 
CAM-ECTC-US-HO_ECTC-US-HO      2018.07.24.20.46.44     3.67300820    -3.92564154   -12.89145756     0.00000072     0.00000000     0.00000000 0.00000000 VRAI 
CAM-ECTC-USA-IP_ECTC-USA-IP-T  2018.07.24.20.46.44    -3.64656615     3.84945095    -7.94756198     0.00007296     0.00000131     0.00002646 0.00000000 VRAI 
CAM-ECTC-USA-IP_ECTC-USA-IP    2018.07.24.20.46.44    -3.53277695    -4.07032990    -7.87428808     0.00000584     0.00000882     0.00054741 0.00000000 VRAI 
CAM-ECTC-USA-HO_ECTC-USA-HO-T  2018.07.24.20.46.44    -3.86946440     3.64757466   -12.93142605     0.00000644     0.00000000     0.00000954 0.00000000 VRAI 
CAM-ECTC-USA-HO_ECTC-USA-HO    2018.07.24.20.46.44    -3.67652404    -3.92565250   -12.88684607     0.00000536     0.00000000     0.00000238 0.00000000 VRAI 
