********** Fichier qui contient une sauvegarde des coordonnees images + coordonnees images transformees dans le repere BCAM (MOUNT) + coordonnees des prismes dans le repere MOUNT********** 
********************************************************************** Unite en metres (m)************************************************************************************************** 

*******************************************************************coordonnees images dans le repere CCD *********************************************************************************** 
20MABNDL000077_PR002
Spot 1     0.00121789     0.00150784
Spot 2     0.00052500     0.00043500
Spot 1     0.00121869     0.00150852
Spot 2     0.00052500     0.00043500
Spot 1     0.00122281     0.00150863
Spot 2     0.00052500     0.00043500
20MABNDL000077_PR003
Spot 1     0.00138326     0.00148820
Spot 2     0.00153395     0.00148991
Spot 1     0.00138315     0.00148831
Spot 2     0.00153391     0.00148977
Spot 1     0.00138313     0.00148836
Spot 2     0.00153400     0.00148986
20MABNDL000077_20MABNDM000168
Spot 1     0.00175628     0.00118439
Spot 2     0.00075500     0.00010500
Spot 1     0.00175616     0.00118432
Spot 2     0.00075500     0.00010500
Spot 1     0.00175610     0.00118479
Spot 2     0.00075500     0.00010500
20MABNDL000077_PR024
Spot 1     0.00254628     0.00144771
Spot 2     0.00264533     0.00145516
Spot 1     0.00254640     0.00144774
Spot 2     0.00264556     0.00145511
Spot 1     0.00254622     0.00144786
Spot 2     0.00264561     0.00145517
20MABNDM000020_PR013
Spot 1     0.00162966     0.00152597
Spot 2     0.00147519     0.00153208
Spot 1     0.00162993     0.00152584
Spot 2     0.00147515     0.00153232
Spot 1     0.00162989     0.00152585
Spot 2     0.00147518     0.00153224
20MABNDM000020_PR014
Spot 1     0.00265963     0.00168931
Spot 2     0.00249513     0.00169293
Spot 1     0.00265953     0.00168929
Spot 2     0.00249527     0.00169275
Spot 1     0.00265953     0.00168911
Spot 2     0.00249526     0.00169298
20MABNDM000020_20MABNDL000196
Spot 1     0.00197877     0.00117910
Spot 2     0.00230500     0.00010500
Spot 1     0.00197886     0.00117891
Spot 2     0.00230500     0.00010500
Spot 1     0.00197895     0.00117899
Spot 2     0.00230500     0.00010500
20MABNDM000020_PR035
Spot 1     0.00126988     0.00149819
Spot 2     0.00118902     0.00153006
Spot 1     0.00126902     0.00149765
Spot 2     0.00118893     0.00152990
Spot 1     0.00126998     0.00149815
Spot 2     0.00118879     0.00153000
20MABNDM000168_PR025
Spot 1     0.00117593     0.00130079
Spot 2     0.00102163     0.00130082
Spot 1     0.00117606     0.00130071
Spot 2     0.00102156     0.00130090
Spot 1     0.00117603     0.00130058
Spot 2     0.00102132     0.00130120
20MABNDM000168_PR026
Spot 1     0.00266698     0.00143074
Spot 2     0.00250463     0.00142741
Spot 1     0.00266687     0.00143051
Spot 2     0.00250485     0.00142755
Spot 1     0.00266707     0.00143082
Spot 2     0.00250481     0.00142743
20MABNDM000168_20MABNDL000077
Spot 1     0.00154186     0.00130142
Spot 2     0.00175932     0.00130768
Spot 1     0.00154183     0.00130159
Spot 2     0.00175916     0.00130787
Spot 1     0.00154175     0.00130152
Spot 2     0.00175899     0.00130754
20MABNDM000168_PR001
Spot 1     0.00080833     0.00161833
Spot 2     0.00070167     0.00162034
Spot 1     0.00080819     0.00161828
Spot 2     0.00070160     0.00162052
Spot 1     0.00080824     0.00161805
Spot 2     0.00070141     0.00162045
20MABNDL000196_PR036
Spot 1     0.00094666     0.00163532
Spot 2     0.00111256     0.00163495
Spot 1     0.00094669     0.00163506
Spot 2     0.00111224     0.00163480
Spot 1     0.00094667     0.00163517
Spot 2     0.00111237     0.00163461
20MABNDL000196_PR037
Spot 1     0.00246609     0.00117266
Spot 2     0.00262279     0.00117073
Spot 1     0.00246587     0.00117233
Spot 2     0.00262265     0.00117073
Spot 1     0.00246599     0.00117246
Spot 2     0.00262266     0.00117079
20MABNDL000196_20MABNDM000020
Spot 1     0.00192399     0.00104384
Spot 2     0.00170308     0.00104929
Spot 1     0.00192400     0.00104368
Spot 2     0.00170320     0.00104927
Spot 1     0.00192384     0.00104366
Spot 2     0.00170302     0.00104933
20MABNDL000196_PR012
Spot 1     0.00264914     0.00134301
Spot 2     0.00272363     0.00139007
Spot 1     0.00264948     0.00134323
Spot 2     0.00272396     0.00139012
Spot 1     0.00264942     0.00134334
Spot 2     0.00272368     0.00139019
20MABNDA000318_PR004
Spot 1     0.00192450     0.00162564
Spot 2     0.00214514     0.00162563
Spot 1     0.00192461     0.00162550
Spot 2     0.00214527     0.00162568
Spot 1     0.00192464     0.00162544
Spot 2     0.00214528     0.00162576
20MABNDA000334_PR005
Spot 1     0.00247449     0.00158869
Spot 2     0.00219438     0.00158923
Spot 1     0.00247476     0.00158862
Spot 2     0.00219408     0.00158904
Spot 1     0.00247449     0.00158865
Spot 2     0.00219438     0.00158871
20MABNDB000317_PR015
Spot 1     0.00170495     0.00158337
Spot 2     0.00148370     0.00159078
Spot 1     0.00170488     0.00158335
Spot 2     0.00148380     0.00159082
Spot 1     0.00170512     0.00158356
Spot 2     0.00148369     0.00159083
20MABNDB000146_PR016
Spot 1     0.00144156     0.00132484
Spot 2     0.00171865     0.00132722
Spot 1     0.00144170     0.00132483
Spot 2     0.00171886     0.00132746
Spot 1     0.00144149     0.00132490
Spot 2     0.00171916     0.00132731
20MABNDB000135_PR027
Spot 1     0.00188827     0.00091522
Spot 2     0.00210654     0.00091789
Spot 1     0.00188820     0.00091506
Spot 2     0.00210667     0.00091784
Spot 1     0.00188815     0.00091513
Spot 2     0.00210655     0.00091795
20MABNDB000126_PR028
Spot 1     0.00164106     0.00201188
Spot 2     0.00192473     0.00201228
Spot 1     0.00164101     0.00201189
Spot 2     0.00192456     0.00201225
Spot 1     0.00164103     0.00201201
Spot 2     0.00192489     0.00201235
20MABNDA000272_PR038
Spot 1     0.00192263     0.00095129
Spot 2     0.00169750     0.00094972
Spot 1     0.00192254     0.00095139
Spot 2     0.00169744     0.00094960
Spot 1     0.00192251     0.00095135
Spot 2     0.00169761     0.00095000
20MABNDA000003_PR039
Spot 1     0.00199934     0.00192616
Spot 2     0.00227835     0.00192738
Spot 1     0.00199943     0.00192598
Spot 2     0.00227819     0.00192733
Spot 1     0.00199929     0.00192604
Spot 2     0.00227839     0.00192720
20MABNDA000196_PR006
Spot 1     0.00199882     0.00072621
Spot 2     0.00163205     0.00072329
Spot 1     0.00199888     0.00072610
Spot 2     0.00163203     0.00072305
Spot 1     0.00199883     0.00072617
Spot 2     0.00163206     0.00072331
20MABNDA000324_PR007
Spot 1     0.00194242     0.00121758
Spot 2     0.00173382     0.00122275
Spot 1     0.00194264     0.00121769
Spot 2     0.00173383     0.00122256
Spot 1     0.00173382     0.00122281
Spot 2     0.00194257     0.00121781
20MABNDB000001_PR017
Spot 1     0.00189612     0.00043790
Spot 2     0.00226585     0.00044671
Spot 1     0.00189611     0.00043804
Spot 2     0.00226572     0.00044681
Spot 1     0.00189600     0.00043798
Spot 2     0.00226585     0.00044659
20MABNDB000260_PR019
Spot 1     0.00191715     0.00150760
Spot 2     0.00212100     0.00150600
Spot 1     0.00191730     0.00150757
Spot 2     0.00212029     0.00150559
Spot 1     0.00191728     0.00150754
Spot 2     0.00212026     0.00150605
20MABNDB000212_PR029
Spot 1     0.00223006     0.00070032
Spot 2     0.00186889     0.00070049
Spot 1     0.00223017     0.00070039
Spot 2     0.00186907     0.00070029
Spot 1     0.00223030     0.00070048
Spot 2     0.00186908     0.00070056
20MABNDB000128_PR030
Spot 1     0.00190515     0.00200505
Spot 2     0.00211153     0.00199871
Spot 1     0.00190515     0.00200490
Spot 2     0.00211153     0.00199857
Spot 1     0.00190524     0.00200510
Spot 2     0.00211148     0.00199852
20MABNDA000444_PR040
Spot 1     0.00074056     0.00035342
Spot 2     0.00110889     0.00035019
Spot 1     0.00074045     0.00035311
Spot 2     0.00110892     0.00034990
Spot 1     0.00074045     0.00035313
Spot 2     0.00110908     0.00035031
20MABNDA000053_PR041
Spot 1     0.00165670     0.00199467
Spot 2     0.00144630     0.00199188
Spot 1     0.00165723     0.00199465
Spot 2     0.00144623     0.00199175
Spot 1     0.00165719     0.00199465
Spot 2     0.00144610     0.00199218
20MABNDA000188_PR008
Spot 1     0.00266500     0.00126500
Spot 2     0.00266500     0.00126500
Spot 1     0.00289500     0.00025500
Spot 2     0.00266500     0.00126500
Spot 1     0.00266500     0.00126500
Spot 2     0.00266500     0.00126500
20MABNDA000188_PR018
Spot 1     0.00158828     0.00153793
Spot 2     0.00111944     0.00153403
Spot 1     0.00158793     0.00153805
Spot 2     0.00111940     0.00153380
Spot 1     0.00158810     0.00153793
Spot 2     0.00111926     0.00153407
20MABNDA000039_PR009
Spot 1     0.00065087     0.00120399
Spot 2     0.00059906     0.00120809
Spot 1     0.00065062     0.00120394
Spot 2     0.00059910     0.00120786
Spot 1     0.00065061     0.00120397
Spot 2     0.00059894     0.00120808
20MABNDA000039_PR011
Spot 1     0.00275327     0.00035935
Spot 2     0.00257649     0.00035407
Spot 1     0.00275325     0.00035924
Spot 2     0.00257646     0.00035414
Spot 1     0.00275324     0.00035943
Spot 2     0.00257664     0.00035433
20MABNDB000155_PR020
Spot 1     0.00066967     0.00110799
Spot 2     0.00074113     0.00110440
Spot 1     0.00066979     0.00110756
Spot 2     0.00074071     0.00110430
Spot 1     0.00066927     0.00110766
Spot 2     0.00074087     0.00110438
20MABNDB000155_PR022
Spot 1     0.00224745     0.00121569
Spot 2     0.00272128     0.00121243
Spot 1     0.00224756     0.00121590
Spot 2     0.00272137     0.00121201
Spot 1     0.00224749     0.00121584
Spot 2     0.00272146     0.00121228
20MABNDB000010_PR021
Spot 1     0.00287841     0.00117228
Spot 2     0.00270993     0.00093382
Spot 1     0.00287829     0.00117228
Spot 2     0.00271016     0.00093349
Spot 1     0.00287841     0.00117227
Spot 2     0.00270981     0.00093348
20MABNDB000010_PR023
Spot 1     0.00132422     0.00037355
Spot 2     0.00150097     0.00037137
Spot 1     0.00132443     0.00037340
Spot 2     0.00150093     0.00037110
Spot 1     0.00132432     0.00037370
Spot 2     0.00150091     0.00037111
20MABNDB000069_PR031
Spot 1     0.00032081     0.00137395
Spot 2     0.00038984     0.00137818
Spot 1     0.00032111     0.00137407
Spot 2     0.00038969     0.00137803
20MABNDB000069_PR033
Spot 1     0.00190952     0.00182743
Spot 2     0.00238068     0.00184753
Spot 1     0.00190949     0.00182742
Spot 2     0.00238079     0.00184767
20MABNDB000131_PR032
Spot 1     0.00277423     0.00111014
Spot 2     0.00283519     0.00111343
Spot 1     0.00277418     0.00111015
Spot 2     0.00283518     0.00111360
20MABNDB000131_PR034
Spot 1     0.00091355     0.00041700
Spot 2     0.00109033     0.00041657
Spot 1     0.00091379     0.00041708
Spot 2     0.00109037     0.00041651
20MABNDA000208_PR042
Spot 1     0.00296536     0.00081107
Spot 2     0.00304500     0.00138500
Spot 1     0.00300395     0.00092753
Spot 2     0.00304500     0.00138500
20MABNDA000208_PR046
Spot 1     0.00131442     0.00201655
Spot 2     0.00089731     0.00183469
Spot 1     0.00131552     0.00201420
Spot 2     0.00089750     0.00183453
20MABNDA000035_PR044
Spot 1     0.00073868     0.00128129
Spot 2     0.00067710     0.00127570
Spot 1     0.00073890     0.00128089
Spot 2     0.00067736     0.00127577
20MABNDA000035_PR045
Spot 1     0.00253605     0.00054217
Spot 2     0.00235853     0.00054058
Spot 1     0.00253593     0.00054224
Spot 2     0.00235847     0.00054048


****************************************************************coordonnees images transformees dans le repere MOUNT************************************************************************* 
20MABNDL000077_PR002
Spot 1     0.01228827     0.03557924    -0.07463200
Spot 2     0.01158509     0.03451311    -0.07463200
Spot 1     0.01228908     0.03557991    -0.07463200
Spot 2     0.01158509     0.03451311    -0.07463200
Spot 1     0.01229320     0.03557998    -0.07463200
Spot 2     0.01158509     0.03451311    -0.07463200
20MABNDL000077_PR003
Spot 1     0.01245344     0.03555801    -0.07463200
Spot 2     0.01260414     0.03555827    -0.07463200
Spot 1     0.01245333     0.03555812    -0.07463200
Spot 2     0.01260410     0.03555813    -0.07463200
Spot 1     0.01245331     0.03555817    -0.07463200
Spot 2     0.01260419     0.03555822    -0.07463200
20MABNDL000077_20MABNDM000168
Spot 1    -0.01259143     0.03524738    -0.00695400
Spot 2    -0.01157915     0.03417830    -0.00695400
Spot 1    -0.01259130     0.03524731    -0.00695400
Spot 2    -0.01157915     0.03417830    -0.00695400
Spot 1    -0.01259125     0.03524779    -0.00695400
Spot 2    -0.01157915     0.03417830    -0.00695400
20MABNDL000077_PR024
Spot 1    -0.01338408     0.03550260    -0.00695400
Spot 2    -0.01348320     0.03550904    -0.00695400
Spot 1    -0.01338420     0.03550263    -0.00695400
Spot 2    -0.01348343     0.03550899    -0.00695400
Spot 1    -0.01338402     0.03550275    -0.00695400
Spot 2    -0.01348348     0.03550905    -0.00695400
20MABNDM000020_PR013
Spot 1    -0.01272930    -0.03548460    -0.00523500
Spot 2    -0.01288360    -0.03549412    -0.00523500
Spot 1    -0.01272904    -0.03548446    -0.00523500
Spot 2    -0.01288364    -0.03549436    -0.00523500
Spot 1    -0.01272908    -0.03548447    -0.00523500
Spot 2    -0.01288361    -0.03549428    -0.00523500
20MABNDM000020_PR014
Spot 1    -0.01169597    -0.03562512    -0.00523500
Spot 2    -0.01186035    -0.03563238    -0.00523500
Spot 1    -0.01169607    -0.03562510    -0.00523500
Spot 2    -0.01186022    -0.03563219    -0.00523500
Spot 1    -0.01169608    -0.03562492    -0.00523500
Spot 2    -0.01186022    -0.03563242    -0.00523500
20MABNDM000020_20MABNDL000196
Spot 1     0.01270751    -0.03514766    -0.07583800
Spot 2     0.01238113    -0.03407361    -0.07583800
Spot 1     0.01270742    -0.03514747    -0.07583800
Spot 2     0.01238113    -0.03407361    -0.07583800
Spot 1     0.01270733    -0.03514755    -0.07583800
Spot 2     0.01238113    -0.03407361    -0.07583800
20MABNDM000020_PR035
Spot 1     0.01341644    -0.03546666    -0.07583800
Spot 2     0.01349731    -0.03549851    -0.07583800
Spot 1     0.01341730    -0.03546612    -0.07583800
Spot 2     0.01349740    -0.03549835    -0.07583800
Spot 1     0.01341634    -0.03546662    -0.07583800
Spot 2     0.01349754    -0.03549845    -0.07583800
20MABNDM000168_PR025
Spot 1    -0.01322694    -0.03563798    -0.00532900
Spot 2    -0.01338124    -0.03563867    -0.00532900
Spot 1    -0.01322681    -0.03563790    -0.00532900
Spot 2    -0.01338131    -0.03563875    -0.00532900
Spot 1    -0.01322684    -0.03563777    -0.00532900
Spot 2    -0.01338155    -0.03563905    -0.00532900
20MABNDM000168_PR026
Spot 1    -0.01173535    -0.03576152    -0.00532900
Spot 2    -0.01189771    -0.03575889    -0.00532900
Spot 1    -0.01173546    -0.03576129    -0.00532900
Spot 2    -0.01189749    -0.03575903    -0.00532900
Spot 1    -0.01173526    -0.03576160    -0.00532900
Spot 2    -0.01189753    -0.03575891    -0.00532900
20MABNDM000168_20MABNDL000077
Spot 1     0.01288358    -0.03530205    -0.07445100
Spot 2     0.01266605    -0.03530513    -0.07445100
Spot 1     0.01288361    -0.03530222    -0.07445100
Spot 2     0.01266621    -0.03530532    -0.07445100
Spot 1     0.01288369    -0.03530215    -0.07445100
Spot 2     0.01266639    -0.03530499    -0.07445100
20MABNDM000168_PR001
Spot 1     0.01361240    -0.03562966    -0.07445100
Spot 2     0.01371902    -0.03563323    -0.07445100
Spot 1     0.01361254    -0.03562961    -0.07445100
Spot 2     0.01371908    -0.03563341    -0.07445100
Spot 1     0.01361249    -0.03562938    -0.07445100
Spot 2     0.01371927    -0.03563334    -0.07445100
20MABNDL000196_PR036
Spot 1     0.01192659     0.03582402    -0.07483600
Spot 2     0.01209249     0.03582399    -0.07483600
Spot 1     0.01192662     0.03582376    -0.07483600
Spot 2     0.01209217     0.03582384    -0.07483600
Spot 1     0.01192660     0.03582387    -0.07483600
Spot 2     0.01209230     0.03582365    -0.07483600
20MABNDL000196_PR037
Spot 1     0.01344699     0.03536453    -0.07483600
Spot 2     0.01360369     0.03536293    -0.07483600
Spot 1     0.01344677     0.03536420    -0.07483600
Spot 2     0.01360355     0.03536293    -0.07483600
Spot 1     0.01344689     0.03536433    -0.07483600
Spot 2     0.01360356     0.03536299    -0.07483600
20MABNDL000196_20MABNDM000020
Spot 1    -0.01274809     0.03531508    -0.00611000
Spot 2    -0.01252733     0.03532497    -0.00611000
Spot 1    -0.01274809     0.03531492    -0.00611000
Spot 2    -0.01252745     0.03532495    -0.00611000
Spot 1    -0.01274793     0.03531490    -0.00611000
Spot 2    -0.01252727     0.03532502    -0.00611000
20MABNDL000196_PR012
Spot 1    -0.01347911     0.03559960    -0.00611000
Spot 2    -0.01355453     0.03564515    -0.00611000
Spot 1    -0.01347945     0.03559981    -0.00611000
Spot 2    -0.01355486     0.03564520    -0.00611000
Spot 1    -0.01347940     0.03559992    -0.00611000
Spot 2    -0.01355458     0.03564527    -0.00611000
20MABNDA000318_PR004
Spot 1    -0.01264432     0.01247024    -0.07310600
Spot 2    -0.01286496     0.01246961    -0.07310600
Spot 1    -0.01264443     0.01247038    -0.07310600
Spot 2    -0.01286509     0.01246956    -0.07310600
Spot 1    -0.01264446     0.01247044    -0.07310600
Spot 2    -0.01286510     0.01246948    -0.07310600
20MABNDA000334_PR005
Spot 1    -0.01311760     0.01253971    -0.07324100
Spot 2    -0.01283749     0.01253890    -0.07324100
Spot 1    -0.01311787     0.01253978    -0.07324100
Spot 2    -0.01283719     0.01253909    -0.07324100
Spot 1    -0.01311760     0.01253975    -0.07324100
Spot 2    -0.01283749     0.01253942    -0.07324100
20MABNDB000317_PR015
Spot 1    -0.01244916    -0.01251214    -0.07326100
Spot 2    -0.01267048    -0.01250731    -0.07326100
Spot 1    -0.01244923    -0.01251217    -0.07326100
Spot 2    -0.01267038    -0.01250727    -0.07326100
Spot 1    -0.01244899    -0.01251195    -0.07326100
Spot 2    -0.01267049    -0.01250726    -0.07326100
20MABNDB000146_PR016
Spot 1    -0.01276678    -0.01246878    -0.07450500
Spot 2    -0.01248970    -0.01246578    -0.07450500
Spot 1    -0.01276664    -0.01246879    -0.07450500
Spot 2    -0.01248949    -0.01246554    -0.07450500
Spot 1    -0.01276685    -0.01246872    -0.07450500
Spot 2    -0.01248919    -0.01246569    -0.07450500
20MABNDB000135_PR027
Spot 1    -0.01251641    -0.01319777    -0.07464700
Spot 2    -0.01229812    -0.01319753    -0.07464700
Spot 1    -0.01251648    -0.01319793    -0.07464700
Spot 2    -0.01229799    -0.01319758    -0.07464700
Spot 1    -0.01251653    -0.01319786    -0.07464700
Spot 2    -0.01229811    -0.01319747    -0.07464700
20MABNDB000126_PR028
Spot 1    -0.01253849    -0.01217031    -0.07500400
Spot 2    -0.01225483    -0.01216840    -0.07500400
Spot 1    -0.01253854    -0.01217030    -0.07500400
Spot 2    -0.01225500    -0.01216843    -0.07500400
Spot 1    -0.01253852    -0.01217018    -0.07500400
Spot 2    -0.01225467    -0.01216833    -0.07500400
20MABNDA000272_PR038
Spot 1    -0.01275828     0.01316018    -0.07417900
Spot 2    -0.01253315     0.01316135    -0.07417900
Spot 1    -0.01275819     0.01316008    -0.07417900
Spot 2    -0.01253309     0.01316147    -0.07417900
Spot 1    -0.01275816     0.01316012    -0.07417900
Spot 2    -0.01253326     0.01316107    -0.07417900
20MABNDA000003_PR039
Spot 1    -0.01280042     0.01212610    -0.07373400
Spot 2    -0.01307944     0.01212559    -0.07373400
Spot 1    -0.01280051     0.01212628    -0.07373400
Spot 2    -0.01307928     0.01212564    -0.07373400
Spot 1    -0.01280037     0.01212622    -0.07373400
Spot 2    -0.01307948     0.01212577    -0.07373400
20MABNDA000196_PR006
Spot 1    -0.01295349     0.01325218    -0.07967100
Spot 2    -0.01258671     0.01325038    -0.07967100
Spot 1    -0.01295354     0.01325229    -0.07967100
Spot 2    -0.01258669     0.01325062    -0.07967100
Spot 1    -0.01295350     0.01325222    -0.07967100
Spot 2    -0.01258672     0.01325036    -0.07967100
20MABNDA000324_PR007
Spot 1    -0.01254809     0.01280404    -0.07446800
Spot 2    -0.01233946     0.01280049    -0.07446800
Spot 1    -0.01254831     0.01280392    -0.07446800
Spot 2    -0.01233947     0.01280068    -0.07446800
Spot 1    -0.01233946     0.01280043    -0.07446800
Spot 2    -0.01254824     0.01280381    -0.07446800
20MABNDB000001_PR017
Spot 1    -0.01229225    -0.01355172    -0.07418400
Spot 2    -0.01192245    -0.01354683    -0.07418400
Spot 1    -0.01229226    -0.01355158    -0.07418400
Spot 2    -0.01192258    -0.01354672    -0.07418400
Spot 1    -0.01229237    -0.01355164    -0.07418400
Spot 2    -0.01192245    -0.01354695    -0.07418400
20MABNDB000260_PR019
Spot 1    -0.01241429    -0.01239505    -0.07492700
Spot 2    -0.01221045    -0.01239247    -0.07492700
Spot 1    -0.01241414    -0.01239508    -0.07492700
Spot 2    -0.01221115    -0.01239290    -0.07492700
Spot 1    -0.01241416    -0.01239511    -0.07492700
Spot 2    -0.01221119    -0.01239244    -0.07492700
20MABNDB000212_PR029
Spot 1    -0.01185779    -0.01328091    -0.07390500
Spot 2    -0.01221894    -0.01327688    -0.07390500
Spot 1    -0.01185768    -0.01328084    -0.07390500
Spot 2    -0.01221876    -0.01327709    -0.07390500
Spot 1    -0.01185755    -0.01328075    -0.07390500
Spot 2    -0.01221875    -0.01327682    -0.07390500
20MABNDB000128_PR030
Spot 1    -0.01244999    -0.01221225    -0.07353400
Spot 2    -0.01224358    -0.01221788    -0.07353400
Spot 1    -0.01244999    -0.01221240    -0.07353400
Spot 2    -0.01224358    -0.01221802    -0.07353400
Spot 1    -0.01244990    -0.01221220    -0.07353400
Spot 2    -0.01224363    -0.01221807    -0.07353400
20MABNDA000444_PR040
Spot 1    -0.01168039     0.01367645    -0.07412000
Spot 2    -0.01204874     0.01367501    -0.07412000
Spot 1    -0.01168029     0.01367676    -0.07412000
Spot 2    -0.01204877     0.01367530    -0.07412000
Spot 1    -0.01168029     0.01367674    -0.07412000
Spot 2    -0.01204892     0.01367489    -0.07412000
20MABNDA000053_PR041
Spot 1    -0.01241344     0.01211586    -0.07430100
Spot 2    -0.01220303     0.01211454    -0.07430100
Spot 1    -0.01241397     0.01211589    -0.07430100
Spot 2    -0.01220295     0.01211467    -0.07430100
Spot 1    -0.01241393     0.01211589    -0.07430100
Spot 2    -0.01220283     0.01211424    -0.07430100
20MABNDA000188_PR008
Spot 1    -0.01369093     0.01279700    -0.07502000
Spot 2    -0.01369093     0.01279700    -0.07502000
Spot 1    -0.01391227     0.01380893    -0.07502000
Spot 2    -0.01369093     0.01279700    -0.07502000
Spot 1    -0.01369093     0.01279700    -0.07502000
Spot 2    -0.01369093     0.01279700    -0.07502000
20MABNDA000188_PR018
Spot 1    -0.01261658     0.01251486    -0.07502000
Spot 2    -0.01214773     0.01251474    -0.07502000
Spot 1    -0.01261624     0.01251474    -0.07502000
Spot 2    -0.01214769     0.01251497    -0.07502000
Spot 1    -0.01261640     0.01251486    -0.07502000
Spot 2    -0.01214755     0.01251470    -0.07502000
20MABNDA000039_PR009
Spot 1    -0.01161312     0.01304009    -0.07444800
Spot 2    -0.01156133     0.01303576    -0.07444800
Spot 1    -0.01161287     0.01304014    -0.07444800
Spot 2    -0.01156137     0.01303599    -0.07444800
Spot 1    -0.01161286     0.01304011    -0.07444800
Spot 2    -0.01156121     0.01303577    -0.07444800
20MABNDA000039_PR011
Spot 1    -0.01371185     0.01389382    -0.07444800
Spot 2    -0.01353505     0.01389833    -0.07444800
Spot 1    -0.01371183     0.01389393    -0.07444800
Spot 2    -0.01353502     0.01389826    -0.07444800
Spot 1    -0.01371182     0.01389374    -0.07444800
Spot 2    -0.01353520     0.01389807    -0.07444800
20MABNDB000155_PR020
Spot 1    -0.01359620    -0.01314870    -0.07501700
Spot 2    -0.01352469    -0.01315131    -0.07501700
Spot 1    -0.01359607    -0.01314912    -0.07501700
Spot 2    -0.01352511    -0.01315141    -0.07501700
Spot 1    -0.01359659    -0.01314903    -0.07501700
Spot 2    -0.01352495    -0.01315133    -0.07501700
20MABNDB000155_PR022
Spot 1    -0.01202004    -0.01301941    -0.07501700
Spot 2    -0.01154621    -0.01301618    -0.07501700
Spot 1    -0.01201993    -0.01301920    -0.07501700
Spot 2    -0.01154611    -0.01301660    -0.07501700
Spot 1    -0.01202000    -0.01301926    -0.07501700
Spot 2    -0.01154603    -0.01301633    -0.07501700
20MABNDB000010_PR021
Spot 1    -0.01157292    -0.01290607    -0.07358200
Spot 2    -0.01173734    -0.01314735    -0.07358200
Spot 1    -0.01157304    -0.01290607    -0.07358200
Spot 2    -0.01173710    -0.01314768    -0.07358200
Spot 1    -0.01157292    -0.01290608    -0.07358200
Spot 2    -0.01173745    -0.01314769    -0.07358200
20MABNDB000010_PR023
Spot 1    -0.01311336    -0.01373101    -0.07358200
Spot 2    -0.01293660    -0.01373020    -0.07358200
Spot 1    -0.01311315    -0.01373116    -0.07358200
Spot 2    -0.01293663    -0.01373047    -0.07358200
Spot 1    -0.01311326    -0.01373086    -0.07358200
Spot 2    -0.01293665    -0.01373046    -0.07358200
20MABNDB000069_PR031
Spot 1    -0.01355676    -0.01289520    -0.07388500
Spot 2    -0.01348761    -0.01289382    -0.07388500
Spot 1    -0.01355645    -0.01289510    -0.07388500
Spot 2    -0.01348777    -0.01289397    -0.07388500
20MABNDB000069_PR033
Spot 1    -0.01195069    -0.01250767    -0.07388500
Spot 2    -0.01147910    -0.01250703    -0.07388500
Spot 1    -0.01195072    -0.01250768    -0.07388500
Spot 2    -0.01147898    -0.01250690    -0.07388500
20MABNDB000131_PR032
Spot 1    -0.01144608    -0.01300463    -0.07533000
Spot 2    -0.01138514    -0.01300103    -0.07533000
Spot 1    -0.01144613    -0.01300462    -0.07533000
Spot 2    -0.01138515    -0.01300086    -0.07533000
20MABNDB000131_PR034
Spot 1    -0.01330325    -0.01370713    -0.07533000
Spot 2    -0.01312647    -0.01370667    -0.07533000
Spot 1    -0.01330301    -0.01370705    -0.07533000
Spot 2    -0.01312643    -0.01370673    -0.07533000
20MABNDA000208_PR042
Spot 1    -0.01383620     0.01318503    -0.07273700
Spot 2    -0.01391534     0.01261103    -0.07273700
Spot 1    -0.01387469     0.01306854    -0.07273700
Spot 2    -0.01391534     0.01261103    -0.07273700
20MABNDA000208_PR046
Spot 1    -0.01218421     0.01198100    -0.07273700
Spot 2    -0.01176726     0.01216323    -0.07273700
Spot 1    -0.01218531     0.01198335    -0.07273700
Spot 2    -0.01176745     0.01216339    -0.07273700
20MABNDA000035_PR044
Spot 1    -0.01157350     0.01297596    -0.07483200
Spot 2    -0.01151188     0.01298111    -0.07483200
Spot 1    -0.01157372     0.01297636    -0.07483200
Spot 2    -0.01151214     0.01298104    -0.07483200
20MABNDA000035_PR045
Spot 1    -0.01336557     0.01372785    -0.07483200
Spot 2    -0.01318804     0.01372817    -0.07483200
Spot 1    -0.01336545     0.01372778    -0.07483200
Spot 2    -0.01318798     0.01372827    -0.07483200


*****************************************************************coordonnees du prisme dans le repere MOUNT********************************************************************************** 
20MABNDL000077_PR002
    0.05000989     0.04738672     3.70691586
    0.04998997     0.04737012     3.70691633
    0.04988819     0.04736838     3.70691729
20MABNDL000077_PR003
    0.02117018     0.02138445     3.89601755
    0.02117408     0.02138519     3.89601755
    0.02117223     0.02138157     3.89601707
20MABNDL000077_20MABNDM000168
   -0.05600839     0.07578619    -5.46843529
   -0.05601275     0.07578867    -5.46843529
   -0.05601475     0.07577167    -5.46843529
20MABNDL000077_PR024
    0.04567657     0.01711716    -5.89639854
    0.04569019     0.01711808    -5.89639854
    0.04568520     0.01711101    -5.89639854
20MABNDM000020_PR013
   -0.00376974    -0.01818655    -3.80243444
   -0.00377550    -0.01818394    -3.80243444
   -0.00377522    -0.01818568    -3.80243444
20MABNDM000020_PR014
   -0.06550714    -0.00500444    -4.74841070
   -0.06550825    -0.00501069    -4.74841070
   -0.06550798    -0.00500913    -4.74841070
20MABNDM000020_20MABNDL000196
    0.02691544    -0.07120760     5.39469719
    0.02691866    -0.07121440     5.39469719
    0.02692189    -0.07121153     5.39469719
20MABNDM000020_PR035
   -0.04233155    -0.00667943     5.80095530
   -0.04236814    -0.00670640     5.80095482
   -0.04233656    -0.00668328     5.80095530
20MABNDM000168_PR025
    0.01801837    -0.02099797    -3.78863955
    0.01801689    -0.02099798    -3.78864002
    0.01802354    -0.02099374    -3.78863955
20MABNDM000168_PR026
   -0.05780185    -0.01385899    -3.98429012
   -0.05780470    -0.01386134    -3.98429012
   -0.05780888    -0.01385642    -3.98429012
20MABNDM000168_20MABNDL000077
    0.01162327    -0.03860941     5.38884687
    0.01161663    -0.03859638     5.38884687
    0.01160744    -0.03861061     5.38884687
20MABNDM000168_PR001
   -0.05753401    -0.01339315     5.81470346
   -0.05754207    -0.01338799     5.81470346
   -0.05754767    -0.01339954     5.81470346
20MABNDL000196_PR036
    0.05130161     0.00614736     3.68777394
    0.05130871     0.00615744     3.68777394
    0.05130601     0.00615940     3.68777394
20MABNDL000196_PR037
   -0.02503204     0.02836377     3.88381386
   -0.02502275     0.02837232     3.88381386
   -0.02502610     0.02836740     3.88381386
20MABNDL000196_20MABNDM000020
   -0.01581697     0.03771426    -5.47473907
   -0.01581243     0.03772082    -5.47473907
   -0.01582462     0.03771914    -5.47473907
20MABNDL000196_PR012
    0.05225953     0.01434845    -5.91537189
    0.05228578     0.01433849    -5.91537189
    0.05227270     0.01433123    -5.91537189
20MABNDA000318_PR004
   -0.00853310     0.03837748     2.74965906
   -0.00852869     0.03837584     2.74965906
   -0.00852796     0.03837621     2.74965906
20MABNDA000334_PR005
   -0.00422915     0.03176897     2.14977098
   -0.00422958     0.03176526     2.14977098
   -0.00422915     0.03176097     2.14977098
20MABNDB000317_PR015
   -0.01725896    -0.03363893     2.75129318
   -0.01725950    -0.03363930     2.75129318
   -0.01726182    -0.03364334     2.75129318
20MABNDB000146_PR016
   -0.01337170    -0.03157357     2.15201473
   -0.01337673    -0.03157689     2.15201473
   -0.01337802    -0.03157574     2.15201473
20MABNDB000135_PR027
   -0.02090443    -0.00984156     2.74937153
   -0.02090548    -0.00983770     2.74937153
   -0.02090240    -0.00984104     2.74937153
20MABNDB000126_PR028
   -0.02025325    -0.03902196     2.14679480
   -0.02025012    -0.03902166     2.14679480
   -0.02025509    -0.03902482     2.14679480
20MABNDA000272_PR038
   -0.01331306     0.01079070     2.74965858
   -0.01331581     0.01079034     2.74965858
   -0.01331323     0.01079693     2.74965858
20MABNDA000003_PR039
   -0.00596286     0.04124485     2.14891529
   -0.00596387     0.04124156     2.14891529
   -0.00596302     0.04124056     2.14891529
20MABNDA000196_PR006
   -0.01013261     0.00985614     1.64206314
   -0.01013222     0.00985231     1.64206314
   -0.01013239     0.00985591     1.64206314
20MABNDA000324_PR007
   -0.02552973     0.02805371     2.95548964
   -0.02552519     0.02805217     2.95548964
   -0.02552678     0.02805944     2.95548964
20MABNDB000001_PR017
   -0.02435429    -0.00281538     1.64035809
   -0.02435279    -0.00281802     1.64035809
   -0.02435297    -0.00281496     1.64035809
20MABNDB000260_PR019
   -0.02415472    -0.03851128     2.95627451
   -0.02414388    -0.03850240     2.95627475
   -0.02414272    -0.03851084     2.95627475
20MABNDB000212_PR029
   -0.02531538    -0.00845303     1.64223850
   -0.02531854    -0.00845157     1.64223850
   -0.02532012    -0.00845551     1.64223850
20MABNDB000128_PR030
   -0.01950760    -0.04693831     2.95496106
   -0.01950762    -0.04693262     2.95496130
   -0.01950840    -0.04693557     2.95496106
20MABNDA000444_PR040
   -0.03032727     0.00088918     1.64490747
   -0.03032807     0.00088260     1.64490724
   -0.03032637     0.00088733     1.64490747
20MABNDA000053_PR041
   -0.02654454     0.05122253     2.95450258
   -0.02653557     0.05121941     2.95450258
   -0.02653874     0.05122792     2.95450258
20MABNDA000188_PR008
    0.10933864     0.04538462     9.20419693
    0.12292409    -0.01673691     9.20401478
    0.10933864     0.04538462     9.20419693
20MABNDA000188_PR018
   -0.01808401     0.02242817     1.28360510
   -0.01808735     0.02242726     1.28360510
   -0.01808708     0.02242854     1.28360510
20MABNDA000039_PR009
   -0.17338184     0.02910447    11.00697994
   -0.17339727     0.02908406    11.00697994
   -0.17340961     0.02910239    11.00697899
20MABNDA000039_PR011
    0.03009094    -0.02102088     3.43351626
    0.03008979    -0.02102179     3.43351626
    0.03009370    -0.02101314     3.43351626
20MABNDB000155_PR020
    0.09558007    -0.00637141     9.20036030
    0.09559804    -0.00633862     9.20036030
    0.09562029    -0.00634937     9.20036030
20MABNDB000155_PR022
   -0.02795817    -0.01444421     1.28068912
   -0.02795990    -0.01444244     1.28068912
   -0.02796005    -0.01444423     1.28068912
20MABNDB000010_PR021
   -0.16142491    -0.01856700    11.00717258
   -0.16143340    -0.01854288    11.00717258
   -0.16141653    -0.01854112    11.00717258
20MABNDB000010_PR023
    0.00376891     0.01748667     3.43379974
    0.00376484     0.01749623     3.43379974
    0.00376795     0.01748918     3.43379974
20MABNDB000069_PR031
    0.09802207    -0.03497728     9.20362473
    0.09801297    -0.03497506     9.20362473
20MABNDB000069_PR033
   -0.02812102    -0.02275849     1.28396380
   -0.02812175    -0.02275958     1.28396380
20MABNDB000131_PR032
   -0.18759581    -0.03452099    11.00641823
   -0.18759137    -0.03453412    11.00641823
20MABNDB000131_PR034
    0.01481633     0.01227034     3.43340874
    0.01480996     0.01226985     3.43340874
20MABNDA000208_PR042
    0.12993366     0.03246379     9.20146847
    0.13229507     0.03961375     9.20141411
20MABNDA000208_PR046
   -0.02529564     0.02988725     1.28213596
   -0.02528460     0.02986582     1.28213644
20MABNDA000035_PR044
   -0.18022481     0.03028816    11.00801277
   -0.18018991     0.03026377    11.00801373
20MABNDA000035_PR045
    0.01419055    -0.01574134     3.43486881
    0.01418644    -0.01574199     3.43486881


*****************************************************************coordonnees du prisme dans le repere ATLAS********************************************************************************** 
20MABNDL000077_PR002 0.00000000
    2.80965424    -3.69449878     6.48622227
    2.80967093    -3.69451880     6.48622274
    2.80967259    -3.69462061     6.48622322
20MABNDL000077_PR003 0.00000000
    2.83583283    -3.72358012     6.67526245
    2.83583212    -3.72357631     6.67526245
    2.83583570    -3.72357798     6.67526197
20MABNDL000077_20MABNDM000168 0.00000000
    2.77222109    -3.78918743    -2.68922043
    2.77221870    -3.78919196    -2.68922043
    2.77223563    -3.78919387    -2.68922043
20MABNDL000077_PR024 0.00000000
    2.83050275    -3.68699336    -3.11711526
    2.83050203    -3.68697977    -3.11711526
    2.83050895    -3.68698478    -3.11711526
20MABNDM000020_PR013 0.00000000
   -2.83412290    -3.73571420     6.48627710
   -2.83412552    -3.73570848     6.48627710
   -2.83412361    -3.73570871     6.48627710
20MABNDM000020_PR014 0.00000000
   -2.84709668    -3.67469239     7.43230247
   -2.84709048    -3.67469120     7.43230247
   -2.84709191    -3.67469144     7.43230247
20MABNDM000020_20MABNDL000196 0.00000000
   -2.78295159    -3.75942087    -2.71088576
   -2.78294492    -3.75942421    -2.71088576
   -2.78294778    -3.75942731    -2.71088576
20MABNDM000020_PR035 0.00000000
   -2.84753990    -3.68984532    -3.11707807
   -2.84751296    -3.68980861    -3.11707759
   -2.84753609    -3.68984032    -3.11707807
20MABNDM000168_PR025 0.00000000
    2.83223891    -3.76334763    -6.47925854
    2.83223891    -3.76334620    -6.47925901
    2.83224297    -3.76335263    -6.47925854
20MABNDM000168_PR026 0.00000000
    2.83938599    -3.68760204    -6.67493773
    2.83938360    -3.68759918    -6.67493773
    2.83938861    -3.68759489    -6.67493773
20MABNDM000168_20MABNDL000077 0.00000000
    2.81518602    -3.75353551     2.69822621
    2.81519914    -3.75352883     2.69822621
    2.81518483    -3.75351954     2.69822621
20MABNDM000168_PR001 0.00000000
    2.84044647    -3.68422651     3.12405539
    2.84045172    -3.68421841     3.12405539
    2.84044003    -3.68421268     3.12405539
20MABNDL000196_PR036 0.00000000
   -2.84746003    -3.69297290    -6.47909737
   -2.84745002    -3.69296575    -6.47909737
   -2.84744811    -3.69296837    -6.47909737
20MABNDL000196_PR037 0.00000000
   -2.82521248    -3.76947832    -6.67506695
   -2.82520390    -3.76946902    -6.67506695
   -2.82520890    -3.76947260    -6.67506695
20MABNDL000196_20MABNDM000020 0.00000000
   -2.81566405    -3.75155377     2.68347359
   -2.81565738    -3.75154924     2.68347359
   -2.81565905    -3.75156140     2.68347359
20MABNDL000196_PR012 0.00000000
   -2.83905196    -3.68307829     3.12404323
   -2.83906198    -3.68305206     3.12404323
   -2.83906913    -3.68306518     3.12404323
20MABNDA000318_PR004 0.00000000
    2.61447024    -4.19698858     3.83362126
    2.61447453    -4.19698858     3.83362293
    2.61447525    -4.19698858     3.83362246
20MABNDA000334_PR005 0.00000000
    2.61676955    -4.19703197     5.89749193
    2.61676908    -4.19703197     5.89749575
    2.61676931    -4.19703197     5.89750004
20MABNDB000317_PR015 0.00000000
   -2.61134815    -4.19700718     3.83637643
   -2.61134768    -4.19700718     3.83637619
   -2.61134529    -4.19700718     3.83637214
20MABNDB000146_PR016 0.00000000
   -2.61292362    -4.19702291     5.89877653
   -2.61291862    -4.19702291     5.89877319
   -2.61291718    -4.19702291     5.89877462
20MABNDB000135_PR027 0.00000000
    2.60395885    -4.19700384    -3.82551932
    2.60395789    -4.19700384    -3.82552314
    2.60396099    -4.19700384    -3.82551980
20MABNDB000126_PR028 0.00000000
    2.60566401    -4.19702148    -5.89319801
    2.60566711    -4.19702148    -5.89319801
    2.60566211    -4.19702148    -5.89319515
20MABNDA000272_PR038 0.00000000
   -2.61122394    -4.19698286    -3.82769370
   -2.61122108    -4.19698286    -3.82769394
   -2.61122370    -4.19698286    -3.82768750
20MABNDA000003_PR039 0.00000000
   -2.61576819    -4.19702148    -5.89152193
   -2.61576724    -4.19702148    -5.89152527
   -2.61576819    -4.19702148    -5.89152622
20MABNDA000196_PR006 0.00000000
    2.58459306    -4.19496584     6.54781246
    2.58459282    -4.19496584     6.54780865
    2.58459306    -4.19496584     6.54781246
20MABNDA000324_PR007 0.00000000
    2.59378505    -4.13996887     6.94786119
    2.59378958    -4.13996887     6.94786310
    2.59378815    -4.13996887     6.94785547
20MABNDB000001_PR017 0.00000000
   -2.59805560    -4.19505978     6.53814363
   -2.59805417    -4.19505978     6.53814602
   -2.59805417    -4.19505978     6.53814316
20MABNDB000260_PR019 0.00000000
   -2.60460711    -4.13995981     6.94213247
   -2.60461807    -4.13995981     6.94214153
   -2.60461903    -4.13995981     6.94213295
20MABNDB000212_PR029 0.00000000
    2.59899306    -4.19501019    -6.54744101
    2.59899640    -4.19501019    -6.54743958
    2.59899783    -4.19501019    -6.54744339
20MABNDB000128_PR030 0.00000000
    2.60935116    -4.14002848    -6.93118286
    2.60935116    -4.14002800    -6.93118858
    2.60935020    -4.14002848    -6.93118572
20MABNDA000444_PR040 0.00000000
   -2.60549974    -4.19510174    -6.54006958
   -2.60550070    -4.19510221    -6.54006290
   -2.60549879    -4.19510174    -6.54006767
20MABNDA000053_PR041 0.00000000
   -2.59399748    -4.14012814    -6.92669106
   -2.59400630    -4.14012814    -6.92669392
   -2.59400320    -4.14012814    -6.92668581
20MABNDA000188_PR008 0.00000000
    3.52420664     3.85074425     7.96562338
    3.53686285     3.85008383     8.02793789
    3.52420664     3.85074425     7.96562338
20MABNDA000188_PR018 0.00000000
    3.51900220    -4.07064056     7.90099144
    3.51899886    -4.07064056     7.90099239
    3.51899910    -4.07064056     7.90099096
20MABNDA000039_PR009 0.00000000
    3.87755346     3.64743423    12.94039917
    3.87756872     3.64743423    12.94037819
    3.87758112     3.64743328    12.94039631
20MABNDA000039_PR011 0.00000000
    3.66493297    -3.92576146    12.88781548
    3.66493392    -3.92576146    12.88781452
    3.66493011    -3.92576146    12.88782406
20MABNDB000155_PR020 0.00000000
   -3.67423344     3.84890914     7.90049791
   -3.67425156     3.84890914     7.90053082
   -3.67427373     3.84890914     7.90051985
20MABNDB000155_PR022 0.00000000
   -3.53202343    -4.07044983     7.89361572
   -3.53202152    -4.07044983     7.89361763
   -3.53202152    -4.07044983     7.89361572
20MABNDB000010_PR021 0.00000000
   -3.84727526     3.64789534    12.92038345
   -3.84728384     3.64789534    12.92035961
   -3.84726691     3.64789534    12.92035770
20MABNDB000010_PR023 0.00000000
   -3.68589497    -3.92557526    12.88778973
   -3.68589902    -3.92557526    12.88778019
   -3.68589592    -3.92557526    12.88778687
20MABNDB000069_PR031 0.00000000
    3.67973709     3.84881425    -7.90542364
    3.67972803     3.84881425    -7.90542555
20MABNDB000069_PR033 0.00000000
    3.53217626    -4.07045412    -7.88291216
    3.53217554    -4.07045412    -7.88291121
20MABNDB000131_PR032 0.00000000
    3.86839676     3.64756632   -12.94516373
    3.86839223     3.64756632   -12.94517708
20MABNDB000131_PR034 0.00000000
    3.67297173    -3.92560959   -12.89567661
    3.67297816    -3.92560959   -12.89567757
20MABNDA000208_PR042 0.00000000
   -3.68002129     3.84915328    -7.87902117
   -3.68238664     3.84910321    -7.87187243
20MABNDA000208_PR046 0.00000000
   -3.53046727    -4.07028913    -7.87863016
   -3.53047824    -4.07028866    -7.87865162
20MABNDA000035_PR044 0.00000000
   -3.86946630     3.64756846   -12.93596745
   -3.86943150     3.64756918   -12.93594265
20MABNDA000035_PR045 0.00000000
   -3.67653847    -3.92561817   -12.89064312
   -3.67654252    -3.92561817   -12.89064217


*****************************************************************Rapport********************************************************************************** 
CAM-LBA-US_EBA-US-HO-H         2018.12.21.01.09.28     2.80966592    -3.69454606     6.48622274     0.00000829     0.00005334     0.00000039 0.00000000 VRAI 
CAM-LBA-US_JDA-US-H            2018.12.21.01.09.28     2.83583355    -3.72357814     6.67526229     0.00000155     0.00000156     0.00000022 0.00000000 VRAI 
CAM-LBA-US_CAM-LBC-US          2018.12.21.01.09.28     2.77222514    -3.78919109    -2.68922043     0.00000748     0.00000270     0.00000000 0.00000000 VRAI 
CAM-LBA-US_EBC-US-IP-H         2018.12.21.01.09.28     2.83050458    -3.68698597    -3.11711526     0.00000310     0.00000561     0.00000000 0.00000000 VRAI 
CAM-LBA-USA_EBA-USA-HO-H       2018.12.21.01.09.28    -2.83412401    -3.73571046     6.48627710     0.00000111     0.00000264     0.00000000 0.00000000 VRAI 
CAM-LBA-USA_JDA-USA-H          2018.12.21.01.09.28    -2.84709303    -3.67469168     7.43230247     0.00000265     0.00000052     0.00000000 0.00000000 VRAI 
CAM-LBA-USA_CAM-LBC-USA        2018.12.21.01.09.28    -2.78294810    -3.75942413    -2.71088576     0.00000273     0.00000263     0.00000000 0.00000000 VRAI 
CAM-LBA-USA_EBC-USA-IP-H       2018.12.21.01.09.28    -2.84752965    -3.68983142    -3.11707791     0.00001190     0.00001626     0.00000022 0.00000000 VRAI 
CAM-LBC-US_EBC-US-HO-H         2018.12.21.01.09.28     2.83224026    -3.76334882    -6.47925870     0.00000191     0.00000276     0.00000022 0.00000000 VRAI 
CAM-LBC-US_JDC-US-H            2018.12.21.01.09.28     2.83938607    -3.68759871    -6.67493773     0.00000204     0.00000294     0.00000000 0.00000000 VRAI 
CAM-LBC-US_CAM-LBA-US          2018.12.21.01.09.28     2.81519000    -3.75352796     2.69822621     0.00000648     0.00000655     0.00000000 0.00000000 VRAI 
CAM-LBC-US_EBA-US-IP-H         2018.12.21.01.09.28     2.84044607    -3.68421920     3.12405539     0.00000478     0.00000567     0.00000000 0.00000000 VRAI 
CAM-LBC-USA_EBC-USA-HO-H       2018.12.21.01.09.28    -2.84745272    -3.69296900    -6.47909737     0.00000523     0.00000295     0.00000000 0.00000000 VRAI 
CAM-LBC-USA_JDC-USA-H          2018.12.21.01.09.28    -2.82520843    -3.76947331    -6.67506695     0.00000352     0.00000383     0.00000000 0.00000000 VRAI 
CAM-LBC-USA_CAM-LBA-USA        2018.12.21.01.09.28    -2.81566016    -3.75155481     2.68347359     0.00000284     0.00000502     0.00000000 0.00000000 VRAI 
CAM-LBC-USA_EBA-USA-IP-H       2018.12.21.01.09.28    -2.83906102    -3.68306518     3.12404323     0.00000704     0.00001071     0.00000000 0.00000000 VRAI 
CAM-EBA-US-IP_EBA-US-IP        2018.12.21.01.09.28     2.61447334    -4.19698858     3.83362222     0.00000221     0.00000000     0.00000070 0.00000000 VRAI 
CAM-EBA-US-HO_EBA-US-HO        2018.12.21.01.09.28     2.61676931    -4.19703197     5.89749591     0.00000019     0.00000000     0.00000331 0.00000000 VRAI 
CAM-EBA-USA-IP_EBA-USA-IP      2018.12.21.01.09.28    -2.61134704    -4.19700718     3.83637492     0.00000125     0.00000000     0.00000197 0.00000000 VRAI 
CAM-EBA-USA-HO_EBA-USA-HO      2018.12.21.01.09.28    -2.61291981    -4.19702291     5.89877478     0.00000276     0.00000000     0.00000137 0.00000000 VRAI 
CAM-EBC-US-IP_EBC-US-IP        2018.12.21.01.09.28     2.60395924    -4.19700384    -3.82552075     0.00000130     0.00000000     0.00000170 0.00000000 VRAI 
CAM-EBC-US-HO_EBC-US-HO        2018.12.21.01.09.28     2.60566441    -4.19702148    -5.89319706     0.00000206     0.00000000     0.00000135 0.00000000 VRAI 
CAM-EBC-USA-IP_EBC-USA-IP      2018.12.21.01.09.28    -2.61122290    -4.19698286    -3.82769171     0.00000130     0.00000000     0.00000298 0.00000000 VRAI 
CAM-EBC-USA-HO_EBC-USA-HO      2018.12.21.01.09.28    -2.61576788    -4.19702148    -5.89152447     0.00000045     0.00000000     0.00000184 0.00000000 VRAI 
CAM-JDA-US-IP_JDA-US-IP        2018.12.21.01.09.28     2.58459298    -4.19496584     6.54781119     0.00000011     0.00000000     0.00000180 0.00000000 VRAI 
CAM-JDA-US-HO_JDA-US-HO        2018.12.21.01.09.28     2.59378759    -4.13996887     6.94785992     0.00000189     0.00000000     0.00000324 0.00000000 VRAI 
CAM-JDA-USA-IP_JDA-USA-IP      2018.12.21.01.09.28    -2.59805465    -4.19505978     6.53814427     0.00000067     0.00000000     0.00000125 0.00000000 VRAI 
CAM-JDA-USA-HO_JDA-USA-HO      2018.12.21.01.09.28    -2.60461473    -4.13995981     6.94213565     0.00000541     0.00000000     0.00000416 0.00000000 VRAI 
CAM-JDC-US-IP_JDC-US-IP        2018.12.21.01.09.28     2.59899577    -4.19501019    -6.54744132     0.00000200     0.00000000     0.00000157 0.00000000 VRAI 
CAM-JDC-US-HO_JDC-US-HO        2018.12.21.01.09.28     2.60935084    -4.14002832    -6.93118572     0.00000045     0.00000022     0.00000234 0.00000000 VRAI 
CAM-JDC-USA-IP_JDC-USA-IP      2018.12.21.01.09.28    -2.60549974    -4.19510190    -6.54006672     0.00000078     0.00000022     0.00000281 0.00000000 VRAI 
CAM-JDC-USA-HO_JDC-USA-HO      2018.12.21.01.09.28    -2.59400233    -4.14012814    -6.92669026     0.00000365     0.00000000     0.00000336 0.00000000 VRAI 
CAM-ECTA-US-IP_ECTA-US-IP-T    2018.12.21.01.09.28     3.52842538     3.85052411     7.98639488     0.00596620     0.00031132     0.02937534 0.00000000 VRAI 
CAM-ECTA-US-IP_ECTA-US-IP      2018.12.21.01.09.28     3.51900005    -4.07064056     7.90099160     0.00000152     0.00000000     0.00000059 0.00000000 VRAI 
CAM-ECTA-US-HO_ECTA-US-HO-T    2018.12.21.01.09.28     3.87756777     3.64743392    12.94039122     0.00001131     0.00000045     0.00000929 0.00000000 VRAI 
CAM-ECTA-US-HO_ECTA-US-HO      2018.12.21.01.09.28     3.66493233    -3.92576146    12.88781802     0.00000162     0.00000000     0.00000429 0.00000000 VRAI 
CAM-ECTA-USA-IP_ECTA-USA-IP-T  2018.12.21.01.09.28    -3.67425291     3.84890914     7.90051619     0.00001648     0.00000000     0.00001368 0.00000000 VRAI 
CAM-ECTA-USA-IP_ECTA-USA-IP    2018.12.21.01.09.28    -3.53202216    -4.07044983     7.89361636     0.00000090     0.00000000     0.00000090 0.00000000 VRAI 
CAM-ECTA-USA-HO_ECTA-USA-HO-T  2018.12.21.01.09.28    -3.84727534     3.64789534    12.92036692     0.00000691     0.00000000     0.00001171 0.00000000 VRAI 
CAM-ECTA-USA-HO_ECTA-USA-HO    2018.12.21.01.09.28    -3.68589664    -3.92557526    12.88778559     0.00000173     0.00000000     0.00000400 0.00000000 VRAI 
CAM-ECTC-US-IP_ECTC-US-IP-T    2018.12.21.01.09.28     3.67973256     3.84881425    -7.90542459     0.00000453     0.00000000     0.00000095 0.00000000 VRAI 
CAM-ECTC-US-IP_ECTC-US-IP      2018.12.21.01.09.28     3.53217590    -4.07045412    -7.88291168     0.00000036     0.00000000     0.00000048 0.00000000 VRAI 
CAM-ECTC-US-HO_ECTC-US-HO-T    2018.12.21.01.09.28     3.86839449     3.64756632   -12.94517040     0.00000226     0.00000000     0.00000668 0.00000000 VRAI 
CAM-ECTC-US-HO_ECTC-US-HO      2018.12.21.01.09.28     3.67297494    -3.92560959   -12.89567709     0.00000322     0.00000000     0.00000048 0.00000000 VRAI 
CAM-ECTC-USA-IP_ECTC-USA-IP-T  2018.12.21.01.09.28    -3.68120396     3.84912825    -7.87544680     0.00118268     0.00002503     0.00357437 0.00000000 VRAI 
CAM-ECTC-USA-IP_ECTC-USA-IP    2018.12.21.01.09.28    -3.53047276    -4.07028890    -7.87864089     0.00000548     0.00000024     0.00001073 0.00000000 VRAI 
CAM-ECTC-USA-HO_ECTC-USA-HO-T  2018.12.21.01.09.28    -3.86944890     3.64756882   -12.93595505     0.00001740     0.00000036     0.00001240 0.00000000 VRAI 
CAM-ECTC-USA-HO_ECTC-USA-HO    2018.12.21.01.09.28    -3.67654049    -3.92561817   -12.89064264     0.00000203     0.00000000     0.00000048 0.00000000 VRAI 
