********** Fichier qui contient une sauvegarde des coordonnees images + coordonnees images transformees dans le repere BCAM (MOUNT) + coordonnees des prismes dans le repere MOUNT********** 
********************************************************************** Unite en metres (m)************************************************************************************************** 

*******************************************************************coordonnees images dans le repere CCD *********************************************************************************** 
20MABNDL000077_PR002
Spot 1     0.00121428     0.00150012
Spot 2     0.00086500     0.00006500
Spot 1     0.00121460     0.00150129
Spot 2     0.00052500     0.00043500
Spot 1     0.00121481     0.00150204
Spot 2     0.00052500     0.00043500
20MABNDL000077_PR003
Spot 1     0.00138651     0.00148724
Spot 2     0.00153586     0.00148917
Spot 1     0.00138638     0.00148738
Spot 2     0.00153562     0.00148916
Spot 1     0.00138656     0.00148742
Spot 2     0.00153528     0.00148896
20MABNDL000077_20MABNDM000168
Spot 1     0.00175792     0.00118435
Spot 2     0.00075500     0.00010500
Spot 1     0.00175790     0.00118453
Spot 2     0.00075500     0.00010500
Spot 1     0.00175793     0.00118440
Spot 2     0.00075500     0.00010500
20MABNDL000077_PR024
Spot 1     0.00254676     0.00144917
Spot 2     0.00264658     0.00145582
Spot 1     0.00254663     0.00144926
Spot 2     0.00264663     0.00145560
Spot 1     0.00254668     0.00144946
Spot 2     0.00264662     0.00145559
20MABNDM000020_PR013
Spot 1     0.00162898     0.00152949
Spot 2     0.00147543     0.00153595
Spot 1     0.00162879     0.00152984
Spot 2     0.00147587     0.00153554
Spot 1     0.00162964     0.00152937
Spot 2     0.00147587     0.00153502
20MABNDM000020_PR014
Spot 1     0.00266060     0.00169148
Spot 2     0.00249982     0.00169570
Spot 1     0.00266107     0.00169103
Spot 2     0.00249976     0.00169584
Spot 1     0.00266125     0.00169185
Spot 2     0.00249981     0.00169596
20MABNDM000020_20MABNDL000196
Spot 1     0.00197717     0.00117886
Spot 2     0.00230500     0.00010500
Spot 1     0.00197699     0.00117882
Spot 2     0.00230500     0.00010500
Spot 1     0.00197701     0.00117873
Spot 2     0.00320500     0.00025500
20MABNDM000020_PR035
Spot 1     0.00126951     0.00149497
Spot 2     0.00118608     0.00153179
Spot 1     0.00126980     0.00149520
Spot 2     0.00118584     0.00153157
Spot 1     0.00126986     0.00149512
Spot 2     0.00118597     0.00153160
20MABNDM000168_PR025
Spot 1     0.00117505     0.00130101
Spot 2     0.00102178     0.00130119
Spot 1     0.00117505     0.00130100
Spot 2     0.00102160     0.00130145
Spot 1     0.00117489     0.00130102
Spot 2     0.00102177     0.00130137
20MABNDM000168_PR026
Spot 1     0.00266862     0.00143129
Spot 2     0.00250826     0.00142793
Spot 1     0.00266878     0.00143113
Spot 2     0.00250817     0.00142798
Spot 1     0.00266891     0.00143141
Spot 2     0.00250821     0.00142798
20MABNDM000168_20MABNDL000077
Spot 1     0.00154141     0.00130088
Spot 2     0.00175697     0.00130267
Spot 1     0.00154151     0.00130088
Spot 2     0.00175668     0.00130247
Spot 1     0.00154145     0.00130075
Spot 2     0.00175689     0.00130296
20MABNDM000168_PR001
Spot 1     0.00080878     0.00161870
Spot 2     0.00070723     0.00162121
Spot 1     0.00080871     0.00161858
Spot 2     0.00070722     0.00162113
Spot 1     0.00080876     0.00161884
Spot 2     0.00070735     0.00162129
20MABNDL000196_PR036
Spot 1     0.00094552     0.00163609
Spot 2     0.00110869     0.00163526
Spot 1     0.00094543     0.00163588
Spot 2     0.00110884     0.00163525
Spot 1     0.00094525     0.00163593
Spot 2     0.00110872     0.00163536
20MABNDL000196_PR037
Spot 1     0.00246668     0.00117257
Spot 2     0.00262107     0.00117098
Spot 1     0.00246675     0.00117264
Spot 2     0.00262115     0.00117093
Spot 1     0.00246677     0.00117272
Spot 2     0.00262114     0.00117092
20MABNDL000196_20MABNDM000020
Spot 1     0.00192578     0.00104165
Spot 2     0.00170444     0.00104686
Spot 1     0.00192576     0.00104185
Spot 2     0.00170454     0.00104702
Spot 1     0.00192577     0.00104193
Spot 2     0.00170460     0.00104714
20MABNDL000196_PR012
Spot 1     0.00265018     0.00134180
Spot 2     0.00272353     0.00138970
Spot 1     0.00265015     0.00134164
Spot 2     0.00272389     0.00138984
Spot 1     0.00265011     0.00134190
Spot 2     0.00272404     0.00138977
20MABNDA000318_PR004
Spot 1     0.00192254     0.00163090
Spot 2     0.00214032     0.00163019
Spot 1     0.00192270     0.00163103
Spot 2     0.00214070     0.00163044
Spot 1     0.00192280     0.00163095
Spot 2     0.00214073     0.00163085
20MABNDA000334_PR005
Spot 1     0.00247090     0.00159009
Spot 2     0.00219004     0.00159097
Spot 1     0.00247082     0.00159026
Spot 2     0.00219022     0.00159101
Spot 1     0.00247059     0.00159004
Spot 2     0.00219036     0.00159114
20MABNDB000317_PR015
Spot 1     0.00170810     0.00159032
Spot 2     0.00148779     0.00159626
Spot 1     0.00170794     0.00159049
Spot 2     0.00148796     0.00159635
Spot 1     0.00170807     0.00159039
Spot 2     0.00148801     0.00159640
20MABNDB000146_PR016
Spot 1     0.00144725     0.00132707
Spot 2     0.00172300     0.00132905
Spot 1     0.00144731     0.00132692
Spot 2     0.00172281     0.00132898
Spot 1     0.00144732     0.00132704
Spot 2     0.00172288     0.00132899
20MABNDB000135_PR027
Spot 1     0.00189176     0.00091898
Spot 2     0.00211005     0.00092112
Spot 1     0.00189173     0.00091906
Spot 2     0.00211002     0.00092104
Spot 1     0.00189174     0.00091885
Spot 2     0.00210988     0.00092102
20MABNDB000126_PR028
Spot 1     0.00164611     0.00200757
Spot 2     0.00192781     0.00200941
Spot 1     0.00164627     0.00200759
Spot 2     0.00192780     0.00200938
Spot 1     0.00164621     0.00200759
Spot 2     0.00192774     0.00200935
20MABNDA000272_PR038
Spot 1     0.00191736     0.00095345
Spot 2     0.00169670     0.00095248
Spot 1     0.00191730     0.00095334
Spot 2     0.00169664     0.00095254
Spot 1     0.00191760     0.00095336
Spot 2     0.00169657     0.00095250
20MABNDA000003_PR039
Spot 1     0.00199681     0.00192350
Spot 2     0.00227360     0.00192407
Spot 1     0.00199675     0.00192350
Spot 2     0.00227381     0.00192417
Spot 1     0.00199683     0.00192329
Spot 2     0.00227394     0.00192447
20MABNDA000196_PR006
Spot 1     0.00200286     0.00072645
Spot 2     0.00163722     0.00072389
Spot 1     0.00200302     0.00072632
Spot 2     0.00163694     0.00072410
Spot 1     0.00200301     0.00072648
Spot 2     0.00163709     0.00072392
20MABNDA000324_PR007
Spot 1     0.00193788     0.00121769
Spot 2     0.00173171     0.00122341
Spot 1     0.00193777     0.00121783
Spot 2     0.00173172     0.00122350
Spot 1     0.00193799     0.00121790
Spot 2     0.00173205     0.00122355
20MABNDB000001_PR017
Spot 1     0.00189371     0.00043939
Spot 2     0.00226097     0.00044792
Spot 1     0.00189371     0.00043935
Spot 2     0.00226117     0.00044821
Spot 1     0.00189363     0.00043924
Spot 2     0.00226130     0.00044796
20MABNDB000260_PR019
Spot 1     0.00192053     0.00151018
Spot 2     0.00212467     0.00151033
Spot 1     0.00192035     0.00151016
Spot 2     0.00212409     0.00151027
Spot 1     0.00192056     0.00151014
Spot 2     0.00212407     0.00150963
20MABNDB000212_PR029
Spot 1     0.00222318     0.00070576
Spot 2     0.00186423     0.00070551
Spot 1     0.00222313     0.00070584
Spot 2     0.00186417     0.00070611
Spot 1     0.00222304     0.00070563
Spot 2     0.00186444     0.00070556
20MABNDB000128_PR030
Spot 1     0.00190917     0.00200415
Spot 2     0.00211322     0.00199846
Spot 1     0.00190907     0.00200425
Spot 2     0.00211321     0.00199849
Spot 1     0.00190908     0.00200431
Spot 2     0.00211331     0.00199849
20MABNDA000444_PR040
Spot 1     0.00074701     0.00036025
Spot 2     0.00111349     0.00035664
Spot 1     0.00074716     0.00036040
Spot 2     0.00111300     0.00035713
Spot 1     0.00074679     0.00036052
Spot 2     0.00111340     0.00035700
20MABNDA000053_PR041
Spot 1     0.00165247     0.00199567
Spot 2     0.00144454     0.00199250
Spot 1     0.00165240     0.00199592
Spot 2     0.00144411     0.00199383
Spot 1     0.00165227     0.00199571
Spot 2     0.00144379     0.00199415
20MABNDA000188_PR008
Spot 1     0.00289500     0.00025500
Spot 2     0.00289500     0.00025500
Spot 1     0.00289500     0.00025500
Spot 2     0.00289500     0.00025500
Spot 1     0.00289500     0.00025500
Spot 2     0.00289500     0.00025500
20MABNDA000188_PR018
Spot 1     0.00159133     0.00151857
Spot 2     0.00112457     0.00151543
Spot 1     0.00159127     0.00151878
Spot 2     0.00112452     0.00151537
Spot 1     0.00159129     0.00151866
Spot 2     0.00112457     0.00151543
20MABNDA000039_PR009
Spot 1     0.00065791     0.00121148
Spot 2     0.00061094     0.00121500
Spot 1     0.00065823     0.00121132
Spot 2     0.00061082     0.00121528
Spot 1     0.00065802     0.00121156
Spot 2     0.00061098     0.00121491
20MABNDA000039_PR011
Spot 1     0.00275813     0.00037204
Spot 2     0.00258246     0.00036706
Spot 1     0.00275790     0.00037201
Spot 2     0.00258266     0.00036711
Spot 1     0.00275792     0.00037187
Spot 2     0.00258250     0.00036697
20MABNDB000155_PR020
Spot 1     0.00067612     0.00109723
Spot 2     0.00074008     0.00109566
Spot 1     0.00067642     0.00109737
Spot 2     0.00074009     0.00109564
Spot 1     0.00067601     0.00109751
Spot 2     0.00073938     0.00109579
20MABNDB000155_PR022
Spot 1     0.00225143     0.00118324
Spot 2     0.00272396     0.00117965
Spot 1     0.00225153     0.00118308
Spot 2     0.00272386     0.00117985
Spot 1     0.00225145     0.00118302
Spot 2     0.00272387     0.00117975
20MABNDB000010_PR021
Spot 1     0.00286683     0.00118168
Spot 2     0.00268800     0.00037800
Spot 1     0.00286709     0.00118207
Spot 2     0.00268750     0.00037750
Spot 1     0.00286706     0.00118122
Spot 2     0.00268800     0.00037800
20MABNDB000010_PR023
Spot 1     0.00130884     0.00039111
Spot 2     0.00148337     0.00038837
Spot 1     0.00130883     0.00039103
Spot 2     0.00148334     0.00038822
Spot 1     0.00130867     0.00039095
Spot 2     0.00148319     0.00038847
20MABNDB000069_PR031
Spot 1     0.00032193     0.00138016
Spot 2     0.00038827     0.00137951
Spot 1     0.00032101     0.00138070
Spot 2     0.00038912     0.00138015
20MABNDB000069_PR033
Spot 1     0.00190417     0.00181496
Spot 2     0.00237319     0.00183378
Spot 1     0.00190410     0.00181520
Spot 2     0.00237319     0.00183386
20MABNDB000131_PR032
Spot 1     0.00277486     0.00111309
Spot 2     0.00283435     0.00111731
Spot 1     0.00277509     0.00111309
Spot 2     0.00283446     0.00111747
20MABNDB000131_PR034
Spot 1     0.00091708     0.00042876
Spot 2     0.00109277     0.00042791
Spot 1     0.00091709     0.00042874
Spot 2     0.00109297     0.00042766
20MABNDA000208_PR042
Spot 1     0.00266727     0.00052000
Spot 2     0.00288708     0.00235083
Spot 1     0.00269621     0.00064076
Spot 2     0.00288885     0.00235077
20MABNDA000208_PR046
Spot 1     0.00132283     0.00197574
Spot 2     0.00084892     0.00197038
Spot 1     0.00132319     0.00197611
Spot 2     0.00084858     0.00197500
20MABNDA000035_PR044
Spot 1     0.00073528     0.00128759
Spot 2     0.00068112     0.00128218
Spot 1     0.00073591     0.00128806
Spot 2     0.00068099     0.00128239
20MABNDA000035_PR045
Spot 1     0.00253530     0.00055774
Spot 2     0.00235818     0.00055640
Spot 1     0.00253515     0.00055769
Spot 2     0.00235810     0.00055634


****************************************************************coordonnees images transformees dans le repere MOUNT************************************************************************* 
20MABNDL000077_PR002
Spot 1     0.01228459     0.03557155    -0.07463200
Spot 2     0.01192151     0.03413986    -0.07463200
Spot 1     0.01228492     0.03557272    -0.07463200
Spot 2     0.01158509     0.03451311    -0.07463200
Spot 1     0.01228513     0.03557347    -0.07463200
Spot 2     0.01158509     0.03451311    -0.07463200
20MABNDL000077_PR003
Spot 1     0.01245668     0.03555702    -0.07463200
Spot 2     0.01260605     0.03555751    -0.07463200
Spot 1     0.01245656     0.03555716    -0.07463200
Spot 2     0.01260581     0.03555750    -0.07463200
Spot 1     0.01245674     0.03555720    -0.07463200
Spot 2     0.01260546     0.03555730    -0.07463200
20MABNDL000077_20MABNDM000168
Spot 1    -0.01259306     0.03524733    -0.00695400
Spot 2    -0.01157915     0.03417830    -0.00695400
Spot 1    -0.01259305     0.03524751    -0.00695400
Spot 2    -0.01157915     0.03417830    -0.00695400
Spot 1    -0.01259308     0.03524738    -0.00695400
Spot 2    -0.01157915     0.03417830    -0.00695400
20MABNDL000077_PR024
Spot 1    -0.01338457     0.03550406    -0.00695400
Spot 2    -0.01348446     0.03550969    -0.00695400
Spot 1    -0.01338445     0.03550415    -0.00695400
Spot 2    -0.01348450     0.03550947    -0.00695400
Spot 1    -0.01338450     0.03550435    -0.00695400
Spot 2    -0.01348449     0.03550946    -0.00695400
20MABNDM000020_PR013
Spot 1    -0.01272991    -0.03548813    -0.00523500
Spot 2    -0.01288327    -0.03549798    -0.00523500
Spot 1    -0.01273009    -0.03548848    -0.00523500
Spot 2    -0.01288284    -0.03549756    -0.00523500
Spot 1    -0.01272925    -0.03548800    -0.00523500
Spot 2    -0.01288286    -0.03549705    -0.00523500
20MABNDM000020_PR014
Spot 1    -0.01169496    -0.03562727    -0.00523500
Spot 2    -0.01185560    -0.03563504    -0.00523500
Spot 1    -0.01169450    -0.03562681    -0.00523500
Spot 2    -0.01185566    -0.03563518    -0.00523500
Spot 1    -0.01169430    -0.03562762    -0.00523500
Spot 2    -0.01185561    -0.03563530    -0.00523500
20MABNDM000020_20MABNDL000196
Spot 1     0.01270911    -0.03514742    -0.07583800
Spot 2     0.01238113    -0.03407361    -0.07583800
Spot 1     0.01270929    -0.03514738    -0.07583800
Spot 2     0.01238113    -0.03407361    -0.07583800
Spot 1     0.01270927    -0.03514729    -0.07583800
Spot 2     0.01148115    -0.03422373    -0.07583800
20MABNDM000020_PR035
Spot 1     0.01341681    -0.03546344    -0.07583800
Spot 2     0.01350025    -0.03550024    -0.07583800
Spot 1     0.01341652    -0.03546367    -0.07583800
Spot 2     0.01350049    -0.03550002    -0.07583800
Spot 1     0.01341646    -0.03546359    -0.07583800
Spot 2     0.01350036    -0.03550005    -0.07583800
20MABNDM000168_PR025
Spot 1    -0.01322782    -0.03563820    -0.00532900
Spot 2    -0.01338109    -0.03563904    -0.00532900
Spot 1    -0.01322782    -0.03563819    -0.00532900
Spot 2    -0.01338127    -0.03563930    -0.00532900
Spot 1    -0.01322798    -0.03563821    -0.00532900
Spot 2    -0.01338110    -0.03563922    -0.00532900
20MABNDM000168_PR026
Spot 1    -0.01173371    -0.03576206    -0.00532900
Spot 2    -0.01189408    -0.03575939    -0.00532900
Spot 1    -0.01173355    -0.03576190    -0.00532900
Spot 2    -0.01189417    -0.03575944    -0.00532900
Spot 1    -0.01173342    -0.03576218    -0.00532900
Spot 2    -0.01189413    -0.03575944    -0.00532900
20MABNDM000168_20MABNDL000077
Spot 1     0.01288404    -0.03530151    -0.07445100
Spot 2     0.01266848    -0.03530015    -0.07445100
Spot 1     0.01288394    -0.03530151    -0.07445100
Spot 2     0.01266877    -0.03529995    -0.07445100
Spot 1     0.01288400    -0.03530138    -0.07445100
Spot 2     0.01266855    -0.03530044    -0.07445100
20MABNDM000168_PR001
Spot 1     0.01361194    -0.03563002    -0.07445100
Spot 2     0.01371344    -0.03563401    -0.07445100
Spot 1     0.01361201    -0.03562990    -0.07445100
Spot 2     0.01371346    -0.03563393    -0.07445100
Spot 1     0.01361196    -0.03563016    -0.07445100
Spot 2     0.01371332    -0.03563409    -0.07445100
20MABNDL000196_PR036
Spot 1     0.01192545     0.03582479    -0.07483600
Spot 2     0.01208862     0.03582430    -0.07483600
Spot 1     0.01192536     0.03582458    -0.07483600
Spot 2     0.01208877     0.03582429    -0.07483600
Spot 1     0.01192518     0.03582463    -0.07483600
Spot 2     0.01208865     0.03582440    -0.07483600
20MABNDL000196_PR037
Spot 1     0.01344758     0.03536444    -0.07483600
Spot 2     0.01360197     0.03536317    -0.07483600
Spot 1     0.01344765     0.03536451    -0.07483600
Spot 2     0.01360205     0.03536312    -0.07483600
Spot 1     0.01344767     0.03536459    -0.07483600
Spot 2     0.01360204     0.03536311    -0.07483600
20MABNDL000196_20MABNDM000020
Spot 1    -0.01274983     0.03531285    -0.00611000
Spot 2    -0.01252864     0.03532252    -0.00611000
Spot 1    -0.01274982     0.03531306    -0.00611000
Spot 2    -0.01252875     0.03532267    -0.00611000
Spot 1    -0.01274983     0.03531313    -0.00611000
Spot 2    -0.01252881     0.03532279    -0.00611000
20MABNDL000196_PR012
Spot 1    -0.01348013     0.03559837    -0.00611000
Spot 2    -0.01355442     0.03564478    -0.00611000
Spot 1    -0.01348009     0.03559821    -0.00611000
Spot 2    -0.01355479     0.03564492    -0.00611000
Spot 1    -0.01348006     0.03559847    -0.00611000
Spot 2    -0.01355494     0.03564484    -0.00611000
20MABNDA000318_PR004
Spot 1    -0.01264235     0.01246499    -0.07310600
Spot 2    -0.01286013     0.01246506    -0.07310600
Spot 1    -0.01264251     0.01246486    -0.07310600
Spot 2    -0.01286051     0.01246481    -0.07310600
Spot 1    -0.01264261     0.01246494    -0.07310600
Spot 2    -0.01286054     0.01246440    -0.07310600
20MABNDA000334_PR005
Spot 1    -0.01311401     0.01253830    -0.07324100
Spot 2    -0.01283316     0.01253716    -0.07324100
Spot 1    -0.01311394     0.01253813    -0.07324100
Spot 2    -0.01283334     0.01253712    -0.07324100
Spot 1    -0.01311370     0.01253835    -0.07324100
Spot 2    -0.01283348     0.01253699    -0.07324100
20MABNDB000317_PR015
Spot 1    -0.01244609    -0.01250516    -0.07326100
Spot 2    -0.01266646    -0.01250179    -0.07326100
Spot 1    -0.01244625    -0.01250499    -0.07326100
Spot 2    -0.01266629    -0.01250169    -0.07326100
Spot 1    -0.01244612    -0.01250509    -0.07326100
Spot 2    -0.01266624    -0.01250164    -0.07326100
20MABNDB000146_PR016
Spot 1    -0.01276110    -0.01246654    -0.07450500
Spot 2    -0.01248535    -0.01246394    -0.07450500
Spot 1    -0.01276104    -0.01246669    -0.07450500
Spot 2    -0.01248554    -0.01246402    -0.07450500
Spot 1    -0.01276103    -0.01246657    -0.07450500
Spot 2    -0.01248547    -0.01246401    -0.07450500
20MABNDB000135_PR027
Spot 1    -0.01251288    -0.01319405    -0.07464700
Spot 2    -0.01229458    -0.01319434    -0.07464700
Spot 1    -0.01251291    -0.01319397    -0.07464700
Spot 2    -0.01229461    -0.01319442    -0.07464700
Spot 1    -0.01251290    -0.01319418    -0.07464700
Spot 2    -0.01229475    -0.01319444    -0.07464700
20MABNDB000126_PR028
Spot 1    -0.01253342    -0.01217459    -0.07500400
Spot 2    -0.01225173    -0.01217125    -0.07500400
Spot 1    -0.01253326    -0.01217457    -0.07500400
Spot 2    -0.01225174    -0.01217128    -0.07500400
Spot 1    -0.01253332    -0.01217457    -0.07500400
Spot 2    -0.01225180    -0.01217131    -0.07500400
20MABNDA000272_PR038
Spot 1    -0.01275302     0.01315801    -0.07417900
Spot 2    -0.01253236     0.01315859    -0.07417900
Spot 1    -0.01275296     0.01315812    -0.07417900
Spot 2    -0.01253230     0.01315853    -0.07417900
Spot 1    -0.01275326     0.01315810    -0.07417900
Spot 2    -0.01253223     0.01315857    -0.07417900
20MABNDA000003_PR039
Spot 1    -0.01279789     0.01212876    -0.07373400
Spot 2    -0.01307468     0.01212889    -0.07373400
Spot 1    -0.01279783     0.01212876    -0.07373400
Spot 2    -0.01307489     0.01212879    -0.07373400
Spot 1    -0.01279791     0.01212897    -0.07373400
Spot 2    -0.01307502     0.01212849    -0.07373400
20MABNDA000196_PR006
Spot 1    -0.01295753     0.01325199    -0.07967100
Spot 2    -0.01259189     0.01324985    -0.07967100
Spot 1    -0.01295769     0.01325212    -0.07967100
Spot 2    -0.01259161     0.01324964    -0.07967100
Spot 1    -0.01295768     0.01325196    -0.07967100
Spot 2    -0.01259176     0.01324982    -0.07967100
20MABNDA000324_PR007
Spot 1    -0.01254355     0.01280396    -0.07446800
Spot 2    -0.01233734     0.01279985    -0.07446800
Spot 1    -0.01254344     0.01280382    -0.07446800
Spot 2    -0.01233735     0.01279976    -0.07446800
Spot 1    -0.01254366     0.01280375    -0.07446800
Spot 2    -0.01233768     0.01279971    -0.07446800
20MABNDB000001_PR017
Spot 1    -0.01229465    -0.01355021    -0.07418400
Spot 2    -0.01192732    -0.01354556    -0.07418400
Spot 1    -0.01229465    -0.01355025    -0.07418400
Spot 2    -0.01192711    -0.01354528    -0.07418400
Spot 1    -0.01229473    -0.01355035    -0.07418400
Spot 2    -0.01192699    -0.01354553    -0.07418400
20MABNDB000260_PR019
Spot 1    -0.01241096    -0.01239241    -0.07492700
Spot 2    -0.01220687    -0.01238807    -0.07492700
Spot 1    -0.01241114    -0.01239243    -0.07492700
Spot 2    -0.01220745    -0.01238814    -0.07492700
Spot 1    -0.01241093    -0.01239245    -0.07492700
Spot 2    -0.01220745    -0.01238878    -0.07492700
20MABNDB000212_PR029
Spot 1    -0.01186461    -0.01327540    -0.07390500
Spot 2    -0.01222355    -0.01327182    -0.07390500
Spot 1    -0.01186466    -0.01327532    -0.07390500
Spot 2    -0.01222360    -0.01327121    -0.07390500
Spot 1    -0.01186475    -0.01327553    -0.07390500
Spot 2    -0.01222334    -0.01327177    -0.07390500
20MABNDB000128_PR030
Spot 1    -0.01244596    -0.01221314    -0.07353400
Spot 2    -0.01224189    -0.01221812    -0.07353400
Spot 1    -0.01244606    -0.01221304    -0.07353400
Spot 2    -0.01224190    -0.01221809    -0.07353400
Spot 1    -0.01244605    -0.01221298    -0.07353400
Spot 2    -0.01224180    -0.01221809    -0.07353400
20MABNDA000444_PR040
Spot 1    -0.01168676     0.01366954    -0.07412000
Spot 2    -0.01205325     0.01366850    -0.07412000
Spot 1    -0.01168691     0.01366939    -0.07412000
Spot 2    -0.01205276     0.01366802    -0.07412000
Spot 1    -0.01168653     0.01366927    -0.07412000
Spot 2    -0.01205316     0.01366814    -0.07412000
20MABNDA000053_PR041
Spot 1    -0.01240923     0.01211478    -0.07430100
Spot 2    -0.01220128     0.01211389    -0.07430100
Spot 1    -0.01240917     0.01211453    -0.07430100
Spot 2    -0.01220088     0.01211255    -0.07430100
Spot 1    -0.01240903     0.01211474    -0.07430100
Spot 2    -0.01220056     0.01211223    -0.07430100
20MABNDA000188_PR008
Spot 1    -0.01391227     0.01380893    -0.07502000
Spot 2    -0.01391227     0.01380893    -0.07502000
Spot 1    -0.01391227     0.01380893    -0.07502000
Spot 2    -0.01391227     0.01380893    -0.07502000
Spot 1    -0.01391227     0.01380893    -0.07502000
Spot 2    -0.01391227     0.01380893    -0.07502000
20MABNDA000188_PR018
Spot 1    -0.01261947     0.01253424    -0.07502000
Spot 2    -0.01215270     0.01253339    -0.07502000
Spot 1    -0.01261941     0.01253403    -0.07502000
Spot 2    -0.01215265     0.01253345    -0.07502000
Spot 1    -0.01261943     0.01253415    -0.07502000
Spot 2    -0.01215270     0.01253339    -0.07502000
20MABNDA000039_PR009
Spot 1    -0.01162020     0.01303263    -0.07444800
Spot 2    -0.01157324     0.01302891    -0.07444800
Spot 1    -0.01162052     0.01303279    -0.07444800
Spot 2    -0.01157312     0.01302862    -0.07444800
Spot 1    -0.01162031     0.01303255    -0.07444800
Spot 2    -0.01157328     0.01302900    -0.07444800
20MABNDA000039_PR011
Spot 1    -0.01371676     0.01388115    -0.07444800
Spot 2    -0.01354107     0.01388537    -0.07444800
Spot 1    -0.01371653     0.01388118    -0.07444800
Spot 2    -0.01354127     0.01388532    -0.07444800
Spot 1    -0.01371655     0.01388132    -0.07444800
Spot 2    -0.01354111     0.01388546    -0.07444800
20MABNDB000155_PR020
Spot 1    -0.01358960    -0.01315937    -0.07501700
Spot 2    -0.01352562    -0.01316006    -0.07501700
Spot 1    -0.01358930    -0.01315922    -0.07501700
Spot 2    -0.01352561    -0.01316008    -0.07501700
Spot 1    -0.01358971    -0.01315909    -0.07501700
Spot 2    -0.01352633    -0.01315994    -0.07501700
20MABNDB000155_PR022
Spot 1    -0.01201561    -0.01305180    -0.07501700
Spot 2    -0.01154308    -0.01304892    -0.07501700
Spot 1    -0.01201551    -0.01305196    -0.07501700
Spot 2    -0.01154318    -0.01304872    -0.07501700
Spot 1    -0.01201559    -0.01305202    -0.07501700
Spot 2    -0.01154317    -0.01304882    -0.07501700
20MABNDB000010_PR021
Spot 1    -0.01158466    -0.01289687    -0.07358200
Spot 2    -0.01174985    -0.01370346    -0.07358200
Spot 1    -0.01158441    -0.01289647    -0.07358200
Spot 2    -0.01175034    -0.01370397    -0.07358200
Spot 1    -0.01158442    -0.01289732    -0.07358200
Spot 2    -0.01174985    -0.01370346    -0.07358200
20MABNDB000010_PR023
Spot 1    -0.01312904    -0.01371372    -0.07358200
Spot 2    -0.01295448    -0.01371350    -0.07358200
Spot 1    -0.01312904    -0.01371380    -0.07358200
Spot 2    -0.01295451    -0.01371365    -0.07358200
Spot 1    -0.01312920    -0.01371388    -0.07358200
Spot 2    -0.01295467    -0.01371340    -0.07358200
20MABNDB000069_PR031
Spot 1    -0.01355538    -0.01288904    -0.07388500
Spot 2    -0.01348912    -0.01289243    -0.07388500
Spot 1    -0.01355628    -0.01288847    -0.07388500
Spot 2    -0.01348825    -0.01289183    -0.07388500
20MABNDB000069_PR033
Spot 1    -0.01195655    -0.01251991    -0.07388500
Spot 2    -0.01148715    -0.01252046    -0.07388500
Spot 1    -0.01195661    -0.01251967    -0.07388500
Spot 2    -0.01148715    -0.01252038    -0.07388500
20MABNDB000131_PR032
Spot 1    -0.01144547    -0.01300167    -0.07533000
Spot 2    -0.01138600    -0.01299716    -0.07533000
Spot 1    -0.01144524    -0.01300167    -0.07533000
Spot 2    -0.01138589    -0.01299699    -0.07533000
20MABNDB000131_PR034
Spot 1    -0.01329978    -0.01369535    -0.07533000
Spot 2    -0.01312409    -0.01369532    -0.07533000
Spot 1    -0.01329977    -0.01369537    -0.07533000
Spot 2    -0.01312389    -0.01369556    -0.07533000
20MABNDA000208_PR042
Spot 1    -0.01353837     0.01347636    -0.07273700
Spot 2    -0.01375657     0.01164534    -0.07273700
Spot 1    -0.01356720     0.01335558    -0.07273700
Spot 2    -0.01375834     0.01164540    -0.07273700
20MABNDA000208_PR046
Spot 1    -0.01219265     0.01202180    -0.07273700
Spot 2    -0.01171875     0.01202758    -0.07273700
Spot 1    -0.01219301     0.01202143    -0.07273700
Spot 2    -0.01171840     0.01202296    -0.07273700
20MABNDA000035_PR044
Spot 1    -0.01157015     0.01296964    -0.07483200
Spot 2    -0.01151595     0.01297466    -0.07483200
Spot 1    -0.01157078     0.01296917    -0.07483200
Spot 2    -0.01151582     0.01297445    -0.07483200
20MABNDA000035_PR045
Spot 1    -0.01336493     0.01371227    -0.07483200
Spot 2    -0.01318780     0.01371235    -0.07483200
Spot 1    -0.01336478     0.01371232    -0.07483200
Spot 2    -0.01318772     0.01371241    -0.07483200


*****************************************************************coordonnees du prisme dans le repere MOUNT********************************************************************************** 
20MABNDL000077_PR002
    0.04179137     0.05679625     3.70694876
    0.05009269     0.04754772     3.70691442
    0.05008733     0.04752925     3.70691466
20MABNDL000077_PR003
    0.02103665     0.02142986     3.89601803
    0.02104623     0.02142640     3.89601803
    0.02105042     0.02143051     3.89601803
20MABNDL000077_20MABNDM000168
   -0.05594919     0.07578824    -5.46843624
   -0.05594985     0.07578173    -5.46843624
   -0.05594881     0.07578644    -5.46843624
20MABNDL000077_PR024
    0.04574483     0.01703522    -5.89639759
    0.04574167     0.01704025    -5.89639759
    0.04574330     0.01703286    -5.89639759
20MABNDM000020_PR013
   -0.00376288    -0.01800299    -3.80243373
   -0.00376905    -0.01800461    -3.80243373
   -0.00378959    -0.01802964    -3.80243397
20MABNDM000020_PR014
   -0.06568653    -0.00485467    -4.74840832
   -0.06569909    -0.00486461    -4.74840736
   -0.06570689    -0.00483551    -4.74840736
20MABNDM000020_20MABNDL000196
    0.02685812    -0.07121620     5.39469719
    0.02685167    -0.07121763     5.39469719
    0.05909530    -0.06584146     5.39454889
20MABNDM000020_PR035
   -0.04245906    -0.00673685     5.80095387
   -0.04245713    -0.00673647     5.80095387
   -0.04244981    -0.00673840     5.80095387
20MABNDM000168_PR025
    0.01803635    -0.02098330    -3.78863955
    0.01804078    -0.02097710    -3.78863955
    0.01804054    -0.02097859    -3.78863955
20MABNDM000168_PR026
   -0.05793912    -0.01383174    -3.98428869
   -0.05794093    -0.01383461    -3.98428869
   -0.05794539    -0.01382734    -3.98428845
20MABNDM000168_20MABNDL000077
    0.01151977    -0.03880730     5.38884687
    0.01151284    -0.03881438     5.38884687
    0.01151842    -0.03880153     5.38884687
20MABNDM000168_PR001
   -0.05730040    -0.01334848     5.81470633
   -0.05730361    -0.01335619     5.81470633
   -0.05729640    -0.01334001     5.81470633
20MABNDL000196_PR036
    0.05142464     0.00612112     3.68777251
    0.05142316     0.00612651     3.68777251
    0.05143053     0.00612260     3.68777251
20MABNDL000196_PR037
   -0.02500282     0.02835969     3.88381386
   -0.02500670     0.02835917     3.88381386
   -0.02500695     0.02835736     3.88381386
20MABNDL000196_20MABNDM000020
   -0.01570716     0.03788249    -5.47473907
   -0.01570403     0.03786962    -5.47473907
   -0.01570137     0.03786249    -5.47473907
20MABNDL000196_PR012
    0.05229482     0.01441058    -5.91537189
    0.05230762     0.01441162    -5.91537189
    0.05231205     0.01440432    -5.91537189
20MABNDA000318_PR004
   -0.00865801     0.03855725     2.74965763
   -0.00864812     0.03856425     2.74965763
   -0.00864576     0.03857031     2.74965763
20MABNDA000334_PR005
   -0.00434241     0.03181394     2.14977098
   -0.00434098     0.03181694     2.14977098
   -0.00434227     0.03181566     2.14977098
20MABNDB000317_PR015
   -0.01738812    -0.03386674     2.75129128
   -0.01738825    -0.03387147     2.75129128
   -0.01739153    -0.03387060     2.75129128
20MABNDB000146_PR016
   -0.01351593    -0.03163226     2.15201426
   -0.01351407    -0.03162909     2.15201426
   -0.01351521    -0.03163096     2.15201426
20MABNDB000135_PR027
   -0.02103420    -0.00996830     2.74937153
   -0.02103310    -0.00996831     2.74937153
   -0.02103067    -0.00996412     2.74937153
20MABNDB000126_PR028
   -0.02036968    -0.03892026     2.14679575
   -0.02037181    -0.03892013     2.14679575
   -0.02037011    -0.03891969     2.14679575
20MABNDA000272_PR038
   -0.01342412     0.01088105     2.74965858
   -0.01342632     0.01088014     2.74965858
   -0.01342211     0.01087976     2.74965858
20MABNDA000003_PR039
   -0.00606711     0.04115982     2.14891672
   -0.00606496     0.04116124     2.14891672
   -0.00606196     0.04116251     2.14891672
20MABNDA000196_PR006
   -0.01003189     0.00986402     1.64206314
   -0.01003319     0.00986491     1.64206314
   -0.01003166     0.00986467     1.64206314
20MABNDA000324_PR007
   -0.02566070     0.02806783     2.95548916
   -0.02566271     0.02807235     2.95548916
   -0.02565190     0.02807479     2.95548916
20MABNDB000001_PR017
   -0.02427493    -0.00284573     1.64035869
   -0.02427715    -0.00284844     1.64035869
   -0.02427765    -0.00284450     1.64035869
20MABNDB000260_PR019
   -0.02429073    -0.03865016     2.95627308
   -0.02427580    -0.03864828     2.95627308
   -0.02427980    -0.03863536     2.95627308
20MABNDB000212_PR029
   -0.02519008    -0.00856907     1.64223981
   -0.02518895    -0.00857654     1.64223981
   -0.02519084    -0.00856819     1.64223981
20MABNDB000128_PR030
   -0.01961992    -0.04691609     2.95496106
   -0.01961775    -0.04691864     2.95496106
   -0.01961991    -0.04691983     2.95496106
20MABNDA000444_PR040
   -0.03020813     0.00103614     1.64490962
   -0.03021194     0.00104310     1.64490962
   -0.03021161     0.00104299     1.64490962
20MABNDA000053_PR041
   -0.02666150     0.05125662     2.95450139
   -0.02667071     0.05128782     2.95450115
   -0.02667950     0.05129015     2.95450068
20MABNDA000188_PR008
    0.13650158    -0.07885031     9.20339394
    0.13650158    -0.07885031     9.20339394
    0.13650158    -0.07885031     9.20339394
20MABNDA000188_PR018
   -0.01801678     0.02210265     1.28360796
   -0.01801771     0.02210394     1.28360772
   -0.01801712     0.02210343     1.28360796
20MABNDA000039_PR009
   -0.17199394     0.03015158    11.00699806
   -0.17197926     0.03016029    11.00699806
   -0.17198294     0.03015080    11.00699806
20MABNDA000039_PR011
    0.03034053    -0.02043623     3.43351889
    0.03033984    -0.02043577     3.43351889
    0.03033662    -0.02044215     3.43351889
20MABNDB000155_PR020
    0.09523223    -0.00517891     9.20036316
    0.09521331    -0.00518654     9.20036316
    0.09528230    -0.00520340     9.20036316
20MABNDB000155_PR022
   -0.02802270    -0.01388765     1.28068888
   -0.02802269    -0.01388799     1.28068888
   -0.02802211    -0.01388662     1.28068888
20MABNDB000010_PR021
   -0.15964185     0.02163966    11.00714302
   -0.15962435     0.02164805    11.00714397
   -0.15965933     0.02167318    11.00714302
20MABNDB000010_PR023
    0.00453848     0.01670715     3.43380284
    0.00453930     0.01671244     3.43380284
    0.00454648     0.01670866     3.43380284
20MABNDB000069_PR031
    0.09803056    -0.03544045     9.20362377
    0.09803185    -0.03551294     9.20362282
20MABNDB000069_PR033
   -0.02800210    -0.02253901     1.28396702
   -0.02800161    -0.02254177     1.28396690
20MABNDB000131_PR032
   -0.18757796    -0.03501995    11.00641823
   -0.18760274    -0.03503176    11.00641823
20MABNDB000131_PR034
    0.01468296     0.01174320     3.43341351
    0.01467814     0.01174933     3.43341351
20MABNDA000208_PR042
    0.10191130     0.07385470     9.20168018
    0.10378879     0.08126424     9.20160389
20MABNDA000208_PR046
   -0.02563782     0.03069749     1.28212154
   -0.02563769     0.03074012     1.28212118
20MABNDA000035_PR044
   -0.18017282     0.03122257    11.00801277
   -0.18013589     0.03127204    11.00801277
20MABNDA000035_PR045
    0.01417059    -0.01502487     3.43487501
    0.01416533    -0.01502735     3.43487501


*****************************************************************coordonnees du prisme dans le repere ATLAS********************************************************************************** 
20MABNDL000077_PR002 0.00000000
    2.80024219    -3.70271444     6.48625422
    2.80949330    -3.69441605     6.48622084
    2.80951190    -3.69442129     6.48622131
20MABNDL000077_PR003 0.00000000
    2.83578730    -3.72371364     6.67526293
    2.83579087    -3.72370410     6.67526293
    2.83578682    -3.72369981     6.67526293
20MABNDL000077_20MABNDM000168 0.00000000
    2.77221918    -3.78912830    -2.68922138
    2.77222562    -3.78912902    -2.68922138
    2.77222085    -3.78912807    -2.68922138
20MABNDL000077_PR024 0.00000000
    2.83058476    -3.68692517    -3.11711431
    2.83057976    -3.68692827    -3.11711431
    2.83058715    -3.68692660    -3.11711431
20MABNDM000020_PR013 0.00000000
   -2.83430648    -3.73572111     6.48627663
   -2.83430481    -3.73571491     6.48627663
   -2.83427978    -3.73569441     6.48627663
20MABNDM000020_PR014 0.00000000
   -2.84724641    -3.67451286     7.43230057
   -2.84723639    -3.67450023     7.43229961
   -2.84726548    -3.67449260     7.43229961
20MABNDM000020_20MABNDL000196 0.00000000
   -2.78294301    -3.75936365    -2.71088576
   -2.78294158    -3.75935721    -2.71088576
   -2.78832769    -3.79159927    -2.71076083
20MABNDM000020_PR035 0.00000000
   -2.84748244    -3.68971777    -3.11707664
   -2.84748292    -3.68971968    -3.11707664
   -2.84748101    -3.68972707    -3.11707664
20MABNDM000168_PR025 0.00000000
    2.83225346    -3.76336551    -6.47925854
    2.83225965    -3.76337004    -6.47925854
    2.83225822    -3.76336980    -6.47925854
20MABNDM000168_PR026 0.00000000
    2.83941340    -3.68746471    -6.67493629
    2.83941054    -3.68746281    -6.67493629
    2.83941770    -3.68745852    -6.67493582
20MABNDM000168_20MABNDL000077 0.00000000
    2.81498814    -3.75343180     2.69822598
    2.81498122    -3.75342488     2.69822598
    2.81499410    -3.75343060     2.69822598
20MABNDM000168_PR001 0.00000000
    2.84049106    -3.68446016     3.12405849
    2.84048343    -3.68445683     3.12405849
    2.84049964    -3.68446398     3.12405849
20MABNDL000196_PR036 0.00000000
   -2.84748650    -3.69284987    -6.47909594
   -2.84748101    -3.69285131    -6.47909594
   -2.84748483    -3.69284391    -6.47909594
20MABNDL000196_PR037 0.00000000
   -2.82521653    -3.76944923    -6.67506695
   -2.82521701    -3.76945305    -6.67506695
   -2.82521892    -3.76945329    -6.67506695
20MABNDL000196_20MABNDM000020 0.00000000
   -2.81549597    -3.75144386     2.68347335
   -2.81550860    -3.75144076     2.68347335
   -2.81551576    -3.75143814     2.68347335
20MABNDL000196_PR012 0.00000000
   -2.83898997    -3.68304300     3.12404323
   -2.83898878    -3.68303013     3.12404323
   -2.83899617    -3.68302560     3.12404323
20MABNDA000318_PR004 0.00000000
    2.61434507    -4.19698811     3.83344150
    2.61435509    -4.19698811     3.83343434
    2.61435747    -4.19698763     3.83342838
20MABNDA000334_PR005 0.00000000
    2.61665606    -4.19703197     5.89744711
    2.61665750    -4.19703197     5.89744377
    2.61665630    -4.19703197     5.89744520
20MABNDB000317_PR015 0.00000000
   -2.61121893    -4.19700575     3.83614874
   -2.61121893    -4.19700575     3.83614397
   -2.61121559    -4.19700575     3.83614492
20MABNDB000146_PR016 0.00000000
   -2.61277938    -4.19702339     5.89871788
   -2.61278105    -4.19702339     5.89872122
   -2.61278009    -4.19702339     5.89871931
20MABNDB000135_PR027 0.00000000
    2.60382915    -4.19700384    -3.82539248
    2.60383010    -4.19700384    -3.82539248
    2.60383272    -4.19700384    -3.82539678
20MABNDB000126_PR028 0.00000000
    2.60554767    -4.19702053    -5.89329958
    2.60554552    -4.19702053    -5.89329958
    2.60554719    -4.19702053    -5.89330006
20MABNDA000272_PR038 0.00000000
   -2.61111283    -4.19698286    -3.82760334
   -2.61111045    -4.19698286    -3.82760429
   -2.61111474    -4.19698286    -3.82760453
20MABNDA000003_PR039 0.00000000
   -2.61566401    -4.19702053    -5.89160681
   -2.61566615    -4.19702053    -5.89160538
   -2.61566925    -4.19702053    -5.89160395
20MABNDA000196_PR006 0.00000000
    2.58449244    -4.19496584     6.54782057
    2.58449364    -4.19496584     6.54782152
    2.58449221    -4.19496584     6.54782104
20MABNDA000324_PR007 0.00000000
    2.59365416    -4.13996983     6.94784737
    2.59365225    -4.13996983     6.94784260
    2.59366298    -4.13996983     6.94784021
20MABNDB000001_PR017 0.00000000
   -2.59797621    -4.19505930     6.53817368
   -2.59797835    -4.19505930     6.53817654
   -2.59797907    -4.19505930     6.53817272
20MABNDB000260_PR019 0.00000000
   -2.60447097    -4.13996124     6.94199371
   -2.60448599    -4.13996124     6.94199562
   -2.60448194    -4.13996124     6.94200850
20MABNDB000212_PR029 0.00000000
    2.59886789    -4.19500875    -6.54755688
    2.59886670    -4.19500875    -6.54756451
    2.59886861    -4.19500875    -6.54755592
20MABNDB000128_PR030 0.00000000
    2.60923886    -4.14002848    -6.93120527
    2.60924101    -4.14002848    -6.93120241
    2.60923886    -4.14002848    -6.93120146
20MABNDA000444_PR040 0.00000000
   -2.60538077    -4.19509983    -6.54021645
   -2.60538459    -4.19509983    -6.54022312
   -2.60538411    -4.19509983    -6.54022312
20MABNDA000053_PR041 0.00000000
   -2.59388041    -4.14012909    -6.92665672
   -2.59387136    -4.14012909    -6.92662573
   -2.59386253    -4.14012957    -6.92662334
20MABNDA000188_PR008 0.00000000
    3.54951787     3.84898496     8.09023857
    3.54951787     3.84898496     8.09023857
    3.54951787     3.84898496     8.09023857
20MABNDA000188_PR018 0.00000000
    3.51906466    -4.07064009     7.90131807
    3.51906371    -4.07064009     7.90131664
    3.51906419    -4.07064009     7.90131712
20MABNDA000039_PR009 0.00000000
    3.87616539     3.64745378    12.94144535
    3.87615061     3.64745378    12.94145393
    3.87615442     3.64745378    12.94144535
20MABNDA000039_PR011 0.00000000
    3.66468310    -3.92575884    12.88840008
    3.66468382    -3.92575884    12.88840103
    3.66468716    -3.92575884    12.88839436
20MABNDB000155_PR020 0.00000000
   -3.67388606     3.84891295     7.90169048
   -3.67386723     3.84891295     7.90168285
   -3.67393613     3.84891295     7.90166616
20MABNDB000155_PR022 0.00000000
   -3.53195906    -4.07044983     7.89417219
   -3.53195906    -4.07044983     7.89417219
   -3.53195953    -4.07044983     7.89417362
20MABNDB000010_PR021 0.00000000
   -3.84552741     3.64784575    12.88017559
   -3.84551001     3.64784670    12.88016701
   -3.84554505     3.64784575    12.88014221
20MABNDB000010_PR023 0.00000000
   -3.68512487    -3.92557216    12.88856792
   -3.68512392    -3.92557216    12.88856316
   -3.68511677    -3.92557216    12.88856697
20MABNDB000069_PR031 0.00000000
    3.67974567     3.84881520    -7.90496016
    3.67974710     3.84881449    -7.90488768
20MABNDB000069_PR033 0.00000000
    3.53229523    -4.07045221    -7.88313198
    3.53229570    -4.07045221    -7.88312912
20MABNDB000131_PR032 0.00000000
    3.86837888     3.64756608   -12.94566250
    3.86840367     3.64756608   -12.94567394
20MABNDB000131_PR034 0.00000000
    3.67310500    -3.92560482   -12.89620399
    3.67310977    -3.92560482   -12.89619827
20MABNDA000208_PR042 0.00000000
   -3.65202117     3.84935999    -7.83761549
   -3.65390253     3.84928775    -7.83020687
20MABNDA000208_PR046 0.00000000
   -3.53012562    -4.07030344    -7.87781954
   -3.53012562    -4.07030392    -7.87777710
20MABNDA000035_PR044 0.00000000
   -3.86941457     3.64756846   -12.93690205
   -3.86937761     3.64756846   -12.93695068
20MABNDA000035_PR045 0.00000000
   -3.67655849    -3.92561173   -12.89135933
   -3.67656374    -3.92561173   -12.89135647


*****************************************************************Rapport********************************************************************************** 
CAM-LBA-US_EBA-US-HO-H         2018.04.09.04.32.32     2.80641580    -3.69718393     6.48623212     0.00436541     0.00391067     0.00001562 0.00000000 VRAI 
CAM-LBA-US_JDA-US-H            2018.04.09.04.32.32     2.83578833    -3.72370585     6.67526293     0.00000181     0.00000578     0.00000000 0.00000000 VRAI 
CAM-LBA-US_CAM-LBC-US          2018.04.09.04.32.32     2.77222188    -3.78912846    -2.68922138     0.00000273     0.00000041     0.00000000 0.00000000 VRAI 
CAM-LBA-US_EBC-US-IP-H         2018.04.09.04.32.32     2.83058389    -3.68692668    -3.11711431     0.00000308     0.00000127     0.00000000 0.00000000 VRAI 
CAM-LBA-USA_EBA-USA-HO-H       2018.04.09.04.32.32    -2.83429702    -3.73571014     6.48627663     0.00001221     0.00001141     0.00000000 0.00000000 VRAI 
CAM-LBA-USA_JDA-USA-H          2018.04.09.04.32.32    -2.84724943    -3.67450190     7.43229993     0.00001207     0.00000836     0.00000045 0.00000000 VRAI 
CAM-LBA-USA_CAM-LBC-USA        2018.04.09.04.32.32    -2.78473743    -3.77010671    -2.71084412     0.00253870     0.01519754     0.00005889 0.00000000 VRAI 
CAM-LBA-USA_EBC-USA-IP-H       2018.04.09.04.32.32    -2.84748212    -3.68972150    -3.11707664     0.00000081     0.00000401     0.00000000 0.00000000 VRAI 
CAM-LBC-US_EBC-US-HO-H         2018.04.09.04.32.32     2.83225711    -3.76336845    -6.47925854     0.00000265     0.00000208     0.00000000 0.00000000 VRAI 
CAM-LBC-US_JDC-US-H            2018.04.09.04.32.32     2.83941388    -3.68746201    -6.67493614     0.00000294     0.00000259     0.00000022 0.00000000 VRAI 
CAM-LBC-US_CAM-LBA-US          2018.04.09.04.32.32     2.81498782    -3.75342909     2.69822598     0.00000526     0.00000302     0.00000000 0.00000000 VRAI 
CAM-LBC-US_EBA-US-IP-H         2018.04.09.04.32.32     2.84049137    -3.68446032     3.12405849     0.00000662     0.00000292     0.00000000 0.00000000 VRAI 
CAM-LBC-USA_EBC-USA-HO-H       2018.04.09.04.32.32    -2.84748411    -3.69284836    -6.47909594     0.00000230     0.00000320     0.00000000 0.00000000 VRAI 
CAM-LBC-USA_JDC-USA-H          2018.04.09.04.32.32    -2.82521749    -3.76945186    -6.67506695     0.00000103     0.00000186     0.00000000 0.00000000 VRAI 
CAM-LBC-USA_CAM-LBA-USA        2018.04.09.04.32.32    -2.81550678    -3.75144092     2.68347335     0.00000818     0.00000234     0.00000000 0.00000000 VRAI 
CAM-LBC-USA_EBA-USA-IP-H       2018.04.09.04.32.32    -2.83899164    -3.68303291     3.12404323     0.00000324     0.00000737     0.00000000 0.00000000 VRAI 
CAM-EBA-US-IP_EBA-US-IP        2018.04.09.04.32.32     2.61435254    -4.19698795     3.83343474     0.00000537     0.00000022     0.00000536 0.00000000 VRAI 
CAM-EBA-US-HO_EBA-US-HO        2018.04.09.04.32.32     2.61665662    -4.19703197     5.89744536     0.00000063     0.00000000     0.00000137 0.00000000 VRAI 
CAM-EBA-USA-IP_EBA-USA-IP      2018.04.09.04.32.32    -2.61121782    -4.19700575     3.83614588     0.00000157     0.00000000     0.00000206 0.00000000 VRAI 
CAM-EBA-USA-HO_EBA-USA-HO      2018.04.09.04.32.32    -2.61278017    -4.19702339     5.89871947     0.00000068     0.00000000     0.00000137 0.00000000 VRAI 
CAM-EBC-US-IP_EBC-US-IP        2018.04.09.04.32.32     2.60383066    -4.19700384    -3.82539392     0.00000151     0.00000000     0.00000202 0.00000000 VRAI 
CAM-EBC-US-HO_EBC-US-HO        2018.04.09.04.32.32     2.60554679    -4.19702053    -5.89329974     0.00000092     0.00000000     0.00000022 0.00000000 VRAI 
CAM-EBC-USA-IP_EBC-USA-IP      2018.04.09.04.32.32    -2.61111267    -4.19698286    -3.82760406     0.00000176     0.00000000     0.00000052 0.00000000 VRAI 
CAM-EBC-USA-HO_EBC-USA-HO      2018.04.09.04.32.32    -2.61566647    -4.19702053    -5.89160538     0.00000215     0.00000000     0.00000117 0.00000000 VRAI 
CAM-JDA-US-IP_JDA-US-IP        2018.04.09.04.32.32     2.58449276    -4.19496584     6.54782104     0.00000063     0.00000000     0.00000039 0.00000000 VRAI 
CAM-JDA-US-HO_JDA-US-HO        2018.04.09.04.32.32     2.59365646    -4.13996983     6.94784339     0.00000467     0.00000000     0.00000297 0.00000000 VRAI 
CAM-JDA-USA-IP_JDA-USA-IP      2018.04.09.04.32.32    -2.59797788    -4.19505930     6.53817431     0.00000122     0.00000000     0.00000162 0.00000000 VRAI 
CAM-JDA-USA-HO_JDA-USA-HO      2018.04.09.04.32.32    -2.60447963    -4.13996124     6.94199928     0.00000634     0.00000000     0.00000657 0.00000000 VRAI 
CAM-JDC-US-IP_JDC-US-IP        2018.04.09.04.32.32     2.59886773    -4.19500875    -6.54755910     0.00000079     0.00000000     0.00000384 0.00000000 VRAI 
CAM-JDC-US-HO_JDC-US-HO        2018.04.09.04.32.32     2.60923958    -4.14002848    -6.93120305     0.00000101     0.00000000     0.00000162 0.00000000 VRAI 
CAM-JDC-USA-IP_JDC-USA-IP      2018.04.09.04.32.32    -2.60538316    -4.19509983    -6.54022090     0.00000170     0.00000000     0.00000315 0.00000000 VRAI 
CAM-JDC-USA-HO_JDC-USA-HO      2018.04.09.04.32.32    -2.59387143    -4.14012925    -6.92663527     0.00000730     0.00000022     0.00001520 0.00000000 VRAI 
CAM-ECTA-US-IP_ECTA-US-IP-T    2018.04.09.04.32.32     3.54951787     3.84898496     8.09023857     0.00000000     0.00000000     0.00000000 0.00000000 VRAI 
CAM-ECTA-US-IP_ECTA-US-IP      2018.04.09.04.32.32     3.51906419    -4.07064009     7.90131728     0.00000039     0.00000000     0.00000059 0.00000000 VRAI 
CAM-ECTA-US-HO_ECTA-US-HO-T    2018.04.09.04.32.32     3.87615681     3.64745378    12.94144821     0.00000627     0.00000000     0.00000405 0.00000000 VRAI 
CAM-ECTA-US-HO_ECTA-US-HO      2018.04.09.04.32.32     3.66468469    -3.92575884    12.88839849     0.00000177     0.00000000     0.00000295 0.00000000 VRAI 
CAM-ECTA-USA-IP_ECTA-USA-IP-T  2018.04.09.04.32.32    -3.67389647     3.84891295     7.90167983     0.00002908     0.00000000     0.00001016 0.00000000 VRAI 
CAM-ECTA-USA-IP_ECTA-USA-IP    2018.04.09.04.32.32    -3.53195922    -4.07044983     7.89417267     0.00000022     0.00000000     0.00000067 0.00000000 VRAI 
CAM-ECTA-USA-HO_ECTA-USA-HO-T  2018.04.09.04.32.32    -3.84552749     3.64784606    12.88016160     0.00001431     0.00000045     0.00001415 0.00000000 VRAI 
CAM-ECTA-USA-HO_ECTA-USA-HO    2018.04.09.04.32.32    -3.68512185    -3.92557216    12.88856602     0.00000362     0.00000000     0.00000206 0.00000000 VRAI 
CAM-ECTC-US-IP_ECTC-US-IP-T    2018.04.09.04.32.32     3.67974639     3.84881485    -7.90492392     0.00000072     0.00000036     0.00003624 0.00000000 VRAI 
CAM-ECTC-US-IP_ECTC-US-IP      2018.04.09.04.32.32     3.53229547    -4.07045221    -7.88313055     0.00000024     0.00000000     0.00000143 0.00000000 VRAI 
CAM-ECTC-US-HO_ECTC-US-HO-T    2018.04.09.04.32.32     3.86839128     3.64756608   -12.94566822     0.00001240     0.00000000     0.00000572 0.00000000 VRAI 
CAM-ECTC-US-HO_ECTC-US-HO      2018.04.09.04.32.32     3.67310739    -3.92560482   -12.89620113     0.00000238     0.00000000     0.00000286 0.00000000 VRAI 
CAM-ECTC-USA-IP_ECTC-USA-IP-T  2018.04.09.04.32.32    -3.65296185     3.84932387    -7.83391118     0.00094068     0.00003612     0.00370431 0.00000000 VRAI 
CAM-ECTC-USA-IP_ECTC-USA-IP    2018.04.09.04.32.32    -3.53012562    -4.07030368    -7.87779832     0.00000000     0.00000024     0.00002122 0.00000000 VRAI 
CAM-ECTC-USA-HO_ECTC-USA-HO-T  2018.04.09.04.32.32    -3.86939609     3.64756846   -12.93692636     0.00001848     0.00000000     0.00002432 0.00000000 VRAI 
CAM-ECTC-USA-HO_ECTC-USA-HO    2018.04.09.04.32.32    -3.67656112    -3.92561173   -12.89135790     0.00000262     0.00000000     0.00000143 0.00000000 VRAI 
