********** Fichier qui contient une sauvegarde des coordonnees images + coordonnees images transformees dans le repere BCAM (MOUNT) + coordonnees des prismes dans le repere MOUNT********** 
********************************************************************** Unite en metres (m)************************************************************************************************** 

*******************************************************************coordonnees images dans le repere CCD *********************************************************************************** 
20MABNDL000077_PR002
Spot 1     0.00121344     0.00150328
Spot 2     0.00052500     0.00043500
Spot 1     0.00121356     0.00150262
Spot 2     0.00052500     0.00043500
Spot 1     0.00121375     0.00150163
Spot 2     0.00052500     0.00043500
20MABNDL000077_PR003
Spot 1     0.00138783     0.00148778
Spot 2     0.00153659     0.00148956
Spot 1     0.00138794     0.00148769
Spot 2     0.00153698     0.00148950
Spot 1     0.00138790     0.00148780
Spot 2     0.00153687     0.00148943
20MABNDL000077_20MABNDM000168
Spot 1     0.00175788     0.00118474
Spot 2     0.00075500     0.00010500
Spot 1     0.00175780     0.00118481
Spot 2     0.00075500     0.00010500
Spot 1     0.00175766     0.00118487
Spot 2     0.00075500     0.00010500
20MABNDL000077_PR024
Spot 1     0.00254693     0.00144779
Spot 2     0.00264684     0.00145494
Spot 1     0.00254692     0.00144791
Spot 2     0.00264645     0.00145500
Spot 1     0.00254676     0.00144773
Spot 2     0.00264645     0.00145506
20MABNDM000020_PR013
Spot 1     0.00162652     0.00152788
Spot 2     0.00147319     0.00153321
Spot 1     0.00162665     0.00152873
Spot 2     0.00147281     0.00153366
Spot 1     0.00162630     0.00152759
Spot 2     0.00147258     0.00153398
20MABNDM000020_PR014
Spot 1     0.00265891     0.00168980
Spot 2     0.00249812     0.00169456
Spot 1     0.00265869     0.00169054
Spot 2     0.00249810     0.00169386
Spot 1     0.00265903     0.00169058
Spot 2     0.00249774     0.00169487
20MABNDM000020_20MABNDL000196
Spot 1     0.00197655     0.00117862
Spot 2     0.00230500     0.00010500
Spot 1     0.00197643     0.00117861
Spot 2     0.00230500     0.00010500
Spot 1     0.00197646     0.00117871
Spot 2     0.00230500     0.00010500
20MABNDM000020_PR035
Spot 1     0.00126880     0.00149579
Spot 2     0.00118626     0.00153172
Spot 1     0.00126909     0.00149570
Spot 2     0.00118636     0.00153177
Spot 1     0.00126914     0.00149557
Spot 2     0.00118653     0.00153171
20MABNDM000168_PR025
Spot 1     0.00117392     0.00129873
Spot 2     0.00102058     0.00129887
Spot 1     0.00117397     0.00129889
Spot 2     0.00102062     0.00129913
Spot 1     0.00117380     0.00129883
Spot 2     0.00102046     0.00129918
20MABNDM000168_PR026
Spot 1     0.00266723     0.00142984
Spot 2     0.00250656     0.00142641
Spot 1     0.00266721     0.00142982
Spot 2     0.00250653     0.00142628
Spot 1     0.00266670     0.00142982
Spot 2     0.00250637     0.00142642
20MABNDM000168_20MABNDL000077
Spot 1     0.00154136     0.00130133
Spot 2     0.00175773     0.00130414
Spot 1     0.00154135     0.00130128
Spot 2     0.00175762     0.00130388
Spot 1     0.00154124     0.00130131
Spot 2     0.00175724     0.00130390
20MABNDM000168_PR001
Spot 1     0.00080845     0.00161876
Spot 2     0.00070666     0.00162126
Spot 1     0.00080823     0.00161906
Spot 2     0.00070663     0.00162160
Spot 1     0.00080810     0.00161875
Spot 2     0.00070642     0.00162130
20MABNDL000196_PR036
Spot 1     0.00094698     0.00163712
Spot 2     0.00111034     0.00163710
Spot 1     0.00094683     0.00163687
Spot 2     0.00111034     0.00163613
Spot 1     0.00094683     0.00163709
Spot 2     0.00111032     0.00163651
20MABNDL000196_PR037
Spot 1     0.00246811     0.00117230
Spot 2     0.00262235     0.00117068
Spot 1     0.00246807     0.00117234
Spot 2     0.00262226     0.00117077
Spot 1     0.00246803     0.00117228
Spot 2     0.00262222     0.00117089
20MABNDL000196_20MABNDM000020
Spot 1     0.00192583     0.00104178
Spot 2     0.00170461     0.00104730
Spot 1     0.00192568     0.00104197
Spot 2     0.00170460     0.00104724
Spot 1     0.00192579     0.00104195
Spot 2     0.00170477     0.00104741
20MABNDL000196_PR012
Spot 1     0.00265140     0.00134285
Spot 2     0.00272290     0.00138864
Spot 1     0.00265142     0.00134282
Spot 2     0.00272321     0.00138878
Spot 1     0.00265140     0.00134277
Spot 2     0.00272303     0.00138879
20MABNDA000318_PR004
Spot 1     0.00192547     0.00162781
Spot 2     0.00214348     0.00162652
Spot 1     0.00192522     0.00162775
Spot 2     0.00214343     0.00162729
Spot 1     0.00192530     0.00162790
Spot 2     0.00214295     0.00162705
20MABNDA000334_PR005
Spot 1     0.00247170     0.00158723
Spot 2     0.00219153     0.00158839
Spot 1     0.00247173     0.00158746
Spot 2     0.00219152     0.00158830
Spot 1     0.00247189     0.00158751
Spot 2     0.00219150     0.00158830
20MABNDB000317_PR015
Spot 1     0.00170451     0.00158766
Spot 2     0.00148445     0.00159311
Spot 1     0.00170440     0.00158738
Spot 2     0.00148453     0.00159338
Spot 1     0.00170435     0.00158757
Spot 2     0.00148458     0.00159309
20MABNDB000146_PR016
Spot 1     0.00144449     0.00132470
Spot 2     0.00172043     0.00132633
Spot 1     0.00144466     0.00132468
Spot 2     0.00172034     0.00132632
Spot 1     0.00144456     0.00132458
Spot 2     0.00172036     0.00132641
20MABNDB000135_PR027
Spot 1     0.00188994     0.00091472
Spot 2     0.00210810     0.00091667
Spot 1     0.00188996     0.00091484
Spot 2     0.00210831     0.00091649
Spot 1     0.00189000     0.00091468
Spot 2     0.00210824     0.00091645
20MABNDB000126_PR028
Spot 1     0.00164462     0.00200872
Spot 2     0.00192609     0.00201043
Spot 1     0.00164449     0.00200888
Spot 2     0.00192609     0.00201035
Spot 1     0.00164442     0.00200873
Spot 2     0.00192619     0.00201040
20MABNDA000272_PR038
Spot 1     0.00192149     0.00095092
Spot 2     0.00170116     0.00094938
Spot 1     0.00192142     0.00095085
Spot 2     0.00170095     0.00094959
Spot 1     0.00192126     0.00095069
Spot 2     0.00170102     0.00094951
20MABNDA000003_PR039
Spot 1     0.00199950     0.00192478
Spot 2     0.00227695     0.00192594
Spot 1     0.00199936     0.00192478
Spot 2     0.00227708     0.00192572
Spot 1     0.00199938     0.00192483
Spot 2     0.00227697     0.00192566
20MABNDA000196_PR006
Spot 1     0.00199953     0.00072724
Spot 2     0.00163344     0.00072500
Spot 1     0.00199971     0.00072720
Spot 2     0.00163336     0.00072500
Spot 1     0.00199964     0.00072722
Spot 2     0.00163345     0.00072507
20MABNDA000324_PR007
Spot 1     0.00194093     0.00121297
Spot 2     0.00173506     0.00121887
Spot 1     0.00194094     0.00121300
Spot 2     0.00173530     0.00121877
Spot 1     0.00194071     0.00121294
Spot 2     0.00173543     0.00121893
20MABNDB000001_PR017
Spot 1     0.00190461     0.00044073
Spot 2     0.00227250     0.00044984
Spot 1     0.00190471     0.00044071
Spot 2     0.00227266     0.00044953
Spot 1     0.00190469     0.00044073
Spot 2     0.00227250     0.00044984
20MABNDB000260_PR019
Spot 1     0.00191524     0.00150646
Spot 2     0.00211849     0.00150570
Spot 1     0.00191593     0.00150665
Spot 2     0.00211833     0.00150598
Spot 1     0.00191555     0.00150653
Spot 2     0.00211765     0.00150582
20MABNDB000212_PR029
Spot 1     0.00222682     0.00070227
Spot 2     0.00186737     0.00070289
Spot 1     0.00222650     0.00070217
Spot 2     0.00186776     0.00070328
Spot 1     0.00222676     0.00070216
Spot 2     0.00186737     0.00070289
20MABNDB000128_PR030
Spot 1     0.00190596     0.00199892
Spot 2     0.00211020     0.00199302
Spot 1     0.00190580     0.00199896
Spot 2     0.00211015     0.00199311
Spot 1     0.00190593     0.00199880
Spot 2     0.00211044     0.00199315
20MABNDA000444_PR040
Spot 1     0.00074476     0.00035589
Spot 2     0.00111146     0.00035269
Spot 1     0.00074477     0.00035585
Spot 2     0.00111152     0.00035283
Spot 1     0.00074492     0.00035584
Spot 2     0.00111156     0.00035297
20MABNDA000053_PR041
Spot 1     0.00165576     0.00199308
Spot 2     0.00144744     0.00199079
Spot 1     0.00165632     0.00199352
Spot 2     0.00144771     0.00199132
Spot 1     0.00165573     0.00199346
Spot 2     0.00144773     0.00199041
20MABNDA000188_PR008
Spot 1     0.00289500     0.00025500
Spot 2     0.00289500     0.00025500
Spot 1     0.00289500     0.00025500
Spot 2     0.00289500     0.00025500
Spot 1     0.00289500     0.00025500
Spot 2     0.00289500     0.00025500
20MABNDA000188_PR018
Spot 1     0.00169654     0.00173374
Spot 2     0.00122942     0.00173029
Spot 1     0.00169653     0.00173370
Spot 2     0.00122951     0.00173019
Spot 1     0.00169642     0.00173364
Spot 2     0.00122955     0.00173020
20MABNDA000039_PR009
Spot 1     0.00066435     0.00118132
Spot 2     0.00061639     0.00118551
Spot 1     0.00066361     0.00118109
Spot 2     0.00061674     0.00118546
Spot 1     0.00066373     0.00118153
Spot 2     0.00061666     0.00118537
20MABNDA000039_PR011
Spot 1     0.00276899     0.00029404
Spot 2     0.00259355     0.00028905
Spot 1     0.00276888     0.00029406
Spot 2     0.00259346     0.00028935
Spot 1     0.00276908     0.00029401
Spot 2     0.00259339     0.00028928
20MABNDB000155_PR020
Spot 1     0.00062426     0.00113289
Spot 2     0.00068790     0.00113006
Spot 1     0.00062405     0.00113346
Spot 2     0.00068799     0.00112974
Spot 1     0.00062349     0.00113373
Spot 2     0.00068708     0.00112995
20MABNDB000155_PR022
Spot 1     0.00213800     0.00142192
Spot 2     0.00261043     0.00141565
Spot 1     0.00213789     0.00142181
Spot 2     0.00261045     0.00141568
Spot 1     0.00213801     0.00142154
Spot 2     0.00261057     0.00141561
20MABNDB000010_PR021
Spot 1     0.00287192     0.00115013
Spot 2     0.00324167     0.00006667
Spot 1     0.00287231     0.00114971
Spot 2     0.00324250     0.00006500
Spot 1     0.00287179     0.00115011
Spot 2     0.00268833     0.00037833
20MABNDB000010_PR023
Spot 1     0.00131676     0.00030511
Spot 2     0.00149157     0.00030319
Spot 1     0.00131682     0.00030457
Spot 2     0.00149151     0.00030316
20MABNDB000069_PR031
Spot 1     0.00028454     0.00140780
Spot 2     0.00035486     0.00140519
Spot 1     0.00028496     0.00140788
Spot 2     0.00035555     0.00140500
20MABNDB000069_PR033
Spot 1     0.00182773     0.00205995
Spot 2     0.00229713     0.00207937
Spot 1     0.00182773     0.00205992
Spot 2     0.00229742     0.00207940
20MABNDB000131_PR032
Spot 1     0.00277463     0.00107708
Spot 2     0.00283446     0.00108023
Spot 1     0.00277481     0.00107738
Spot 2     0.00283483     0.00108043
20MABNDB000131_PR034
Spot 1     0.00091515     0.00032935
Spot 2     0.00109092     0.00032869
Spot 1     0.00091515     0.00032925
Spot 2     0.00109118     0.00032838
20MABNDA000208_PR042
Spot 1     0.00261071     0.00037357
Spot 2     0.00313167     0.00030167
Spot 1     0.00261000     0.00037400
Spot 2     0.00316500     0.00043500
20MABNDA000208_PR046
Spot 1     0.00145905     0.00222815
Spot 2     0.00098579     0.00221258
Spot 1     0.00145900     0.00221558
Spot 2     0.00098576     0.00221272
20MABNDA000035_PR044
Spot 1     0.00073666     0.00125306
Spot 2     0.00068075     0.00124753
Spot 1     0.00073694     0.00125329
Spot 2     0.00068055     0.00124777
20MABNDA000035_PR045
Spot 1     0.00253741     0.00046455
Spot 2     0.00236005     0.00046341
Spot 1     0.00253756     0.00046451
Spot 2     0.00235998     0.00046372


****************************************************************coordonnees images transformees dans le repere MOUNT************************************************************************* 
20MABNDL000077_PR002
Spot 1     0.01228378     0.03557472    -0.07463200
Spot 2     0.01158509     0.03451311    -0.07463200
Spot 1     0.01228389     0.03557406    -0.07463200
Spot 2     0.01158509     0.03451311    -0.07463200
Spot 1     0.01228407     0.03557307    -0.07463200
Spot 2     0.01158509     0.03451311    -0.07463200
20MABNDL000077_PR003
Spot 1     0.01245801     0.03555754    -0.07463200
Spot 2     0.01260678     0.03555789    -0.07463200
Spot 1     0.01245812     0.03555745    -0.07463200
Spot 2     0.01260717     0.03555783    -0.07463200
Spot 1     0.01245808     0.03555756    -0.07463200
Spot 2     0.01260706     0.03555776    -0.07463200
20MABNDL000077_20MABNDM000168
Spot 1    -0.01259303     0.03524772    -0.00695400
Spot 2    -0.01157915     0.03417830    -0.00695400
Spot 1    -0.01259295     0.03524779    -0.00695400
Spot 2    -0.01157915     0.03417830    -0.00695400
Spot 1    -0.01259281     0.03524785    -0.00695400
Spot 2    -0.01157915     0.03417830    -0.00695400
20MABNDL000077_PR024
Spot 1    -0.01338473     0.03550268    -0.00695400
Spot 2    -0.01348471     0.03550880    -0.00695400
Spot 1    -0.01338472     0.03550280    -0.00695400
Spot 2    -0.01348432     0.03550887    -0.00695400
Spot 1    -0.01338456     0.03550262    -0.00695400
Spot 2    -0.01348432     0.03550893    -0.00695400
20MABNDM000020_PR013
Spot 1    -0.01273240    -0.03548658    -0.00523500
Spot 2    -0.01288557    -0.03549529    -0.00523500
Spot 1    -0.01273225    -0.03548742    -0.00523500
Spot 2    -0.01288594    -0.03549575    -0.00523500
Spot 1    -0.01273263    -0.03548629    -0.00523500
Spot 2    -0.01288617    -0.03549608    -0.00523500
20MABNDM000020_PR014
Spot 1    -0.01169668    -0.03562563    -0.00523500
Spot 2    -0.01185733    -0.03563394    -0.00523500
Spot 1    -0.01169689    -0.03562637    -0.00523500
Spot 2    -0.01185736    -0.03563324    -0.00523500
Spot 1    -0.01169654    -0.03562640    -0.00523500
Spot 2    -0.01185770    -0.03563426    -0.00523500
20MABNDM000020_20MABNDL000196
Spot 1     0.01270973    -0.03514718    -0.07583800
Spot 2     0.01238113    -0.03407361    -0.07583800
Spot 1     0.01270985    -0.03514717    -0.07583800
Spot 2     0.01238113    -0.03407361    -0.07583800
Spot 1     0.01270982    -0.03514727    -0.07583800
Spot 2     0.01238113    -0.03407361    -0.07583800
20MABNDM000020_PR035
Spot 1     0.01341752    -0.03546426    -0.07583800
Spot 2     0.01350007    -0.03550017    -0.07583800
Spot 1     0.01341723    -0.03546417    -0.07583800
Spot 2     0.01349997    -0.03550022    -0.07583800
Spot 1     0.01341718    -0.03546404    -0.07583800
Spot 2     0.01349980    -0.03550016    -0.07583800
20MABNDM000168_PR025
Spot 1    -0.01322896    -0.03563593    -0.00532900
Spot 2    -0.01338230    -0.03563672    -0.00532900
Spot 1    -0.01322891    -0.03563609    -0.00532900
Spot 2    -0.01338226    -0.03563698    -0.00532900
Spot 1    -0.01322908    -0.03563603    -0.00532900
Spot 2    -0.01338242    -0.03563704    -0.00532900
20MABNDM000168_PR026
Spot 1    -0.01173510    -0.03576062    -0.00532900
Spot 2    -0.01189579    -0.03575788    -0.00532900
Spot 1    -0.01173512    -0.03576060    -0.00532900
Spot 2    -0.01189582    -0.03575775    -0.00532900
Spot 1    -0.01173563    -0.03576060    -0.00532900
Spot 2    -0.01189598    -0.03575789    -0.00532900
20MABNDM000168_20MABNDL000077
Spot 1     0.01288408    -0.03530196    -0.07445100
Spot 2     0.01266770    -0.03530161    -0.07445100
Spot 1     0.01288409    -0.03530191    -0.07445100
Spot 2     0.01266781    -0.03530135    -0.07445100
Spot 1     0.01288420    -0.03530195    -0.07445100
Spot 2     0.01266819    -0.03530138    -0.07445100
20MABNDM000168_PR001
Spot 1     0.01361227    -0.03563008    -0.07445100
Spot 2     0.01371401    -0.03563407    -0.07445100
Spot 1     0.01361249    -0.03563039    -0.07445100
Spot 2     0.01371404    -0.03563441    -0.07445100
Spot 1     0.01361262    -0.03563008    -0.07445100
Spot 2     0.01371425    -0.03563412    -0.07445100
20MABNDL000196_PR036
Spot 1     0.01192691     0.03582582    -0.07483600
Spot 2     0.01209027     0.03582614    -0.07483600
Spot 1     0.01192676     0.03582557    -0.07483600
Spot 2     0.01209027     0.03582517    -0.07483600
Spot 1     0.01192676     0.03582579    -0.07483600
Spot 2     0.01209025     0.03582555    -0.07483600
20MABNDL000196_PR037
Spot 1     0.01344901     0.03536417    -0.07483600
Spot 2     0.01360325     0.03536287    -0.07483600
Spot 1     0.01344897     0.03536421    -0.07483600
Spot 2     0.01360316     0.03536296    -0.07483600
Spot 1     0.01344893     0.03536415    -0.07483600
Spot 2     0.01360312     0.03536308    -0.07483600
20MABNDL000196_20MABNDM000020
Spot 1    -0.01274989     0.03531298    -0.00611000
Spot 2    -0.01252882     0.03532295    -0.00611000
Spot 1    -0.01274974     0.03531318    -0.00611000
Spot 2    -0.01252881     0.03532289    -0.00611000
Spot 1    -0.01274985     0.03531315    -0.00611000
Spot 2    -0.01252898     0.03532306    -0.00611000
20MABNDL000196_PR012
Spot 1    -0.01348137     0.03559939    -0.00611000
Spot 2    -0.01355377     0.03564374    -0.00611000
Spot 1    -0.01348139     0.03559936    -0.00611000
Spot 2    -0.01355409     0.03564387    -0.00611000
Spot 1    -0.01348136     0.03559931    -0.00611000
Spot 2    -0.01355391     0.03564388    -0.00611000
20MABNDA000318_PR004
Spot 1    -0.01264529     0.01246807    -0.07310600
Spot 2    -0.01286330     0.01246872    -0.07310600
Spot 1    -0.01264504     0.01246813    -0.07310600
Spot 2    -0.01286325     0.01246795    -0.07310600
Spot 1    -0.01264511     0.01246798    -0.07310600
Spot 2    -0.01286277     0.01246819    -0.07310600
20MABNDA000334_PR005
Spot 1    -0.01311481     0.01254116    -0.07324100
Spot 2    -0.01283464     0.01253974    -0.07324100
Spot 1    -0.01311484     0.01254093    -0.07324100
Spot 2    -0.01283463     0.01253983    -0.07324100
Spot 1    -0.01311500     0.01254088    -0.07324100
Spot 2    -0.01283461     0.01253983    -0.07324100
20MABNDB000317_PR015
Spot 1    -0.01244965    -0.01250786    -0.07326100
Spot 2    -0.01266976    -0.01250497    -0.07326100
Spot 1    -0.01244976    -0.01250814    -0.07326100
Spot 2    -0.01266968    -0.01250470    -0.07326100
Spot 1    -0.01244981    -0.01250795    -0.07326100
Spot 2    -0.01266963    -0.01250499    -0.07326100
20MABNDB000146_PR016
Spot 1    -0.01276385    -0.01246891    -0.07450500
Spot 2    -0.01248792    -0.01246667    -0.07450500
Spot 1    -0.01276368    -0.01246893    -0.07450500
Spot 2    -0.01248801    -0.01246668    -0.07450500
Spot 1    -0.01276378    -0.01246903    -0.07450500
Spot 2    -0.01248799    -0.01246659    -0.07450500
20MABNDB000135_PR027
Spot 1    -0.01251475    -0.01319829    -0.07464700
Spot 2    -0.01229658    -0.01319877    -0.07464700
Spot 1    -0.01251472    -0.01319817    -0.07464700
Spot 2    -0.01229637    -0.01319895    -0.07464700
Spot 1    -0.01251469    -0.01319833    -0.07464700
Spot 2    -0.01229644    -0.01319899    -0.07464700
20MABNDB000126_PR028
Spot 1    -0.01253491    -0.01217345    -0.07500400
Spot 2    -0.01225346    -0.01217024    -0.07500400
Spot 1    -0.01253504    -0.01217329    -0.07500400
Spot 2    -0.01225346    -0.01217032    -0.07500400
Spot 1    -0.01253511    -0.01217344    -0.07500400
Spot 2    -0.01225336    -0.01217027    -0.07500400
20MABNDA000272_PR038
Spot 1    -0.01275714     0.01316054    -0.07417900
Spot 2    -0.01253681     0.01316169    -0.07417900
Spot 1    -0.01275707     0.01316061    -0.07417900
Spot 2    -0.01253660     0.01316148    -0.07417900
Spot 1    -0.01275691     0.01316077    -0.07417900
Spot 2    -0.01253667     0.01316156    -0.07417900
20MABNDA000003_PR039
Spot 1    -0.01280058     0.01212748    -0.07373400
Spot 2    -0.01307803     0.01212703    -0.07373400
Spot 1    -0.01280044     0.01212748    -0.07373400
Spot 2    -0.01307816     0.01212725    -0.07373400
Spot 1    -0.01280046     0.01212743    -0.07373400
Spot 2    -0.01307805     0.01212731    -0.07373400
20MABNDA000196_PR006
Spot 1    -0.01295421     0.01325116    -0.07967100
Spot 2    -0.01258812     0.01324869    -0.07967100
Spot 1    -0.01295439     0.01325120    -0.07967100
Spot 2    -0.01258804     0.01324869    -0.07967100
Spot 1    -0.01295432     0.01325118    -0.07967100
Spot 2    -0.01258813     0.01324862    -0.07967100
20MABNDA000324_PR007
Spot 1    -0.01254664     0.01280866    -0.07446800
Spot 2    -0.01234073     0.01280437    -0.07446800
Spot 1    -0.01254665     0.01280863    -0.07446800
Spot 2    -0.01234097     0.01280446    -0.07446800
Spot 1    -0.01254642     0.01280869    -0.07446800
Spot 2    -0.01234110     0.01280430    -0.07446800
20MABNDB000001_PR017
Spot 1    -0.01228373    -0.01354898    -0.07418400
Spot 2    -0.01191577    -0.01354377    -0.07418400
Spot 1    -0.01228363    -0.01354900    -0.07418400
Spot 2    -0.01191561    -0.01354408    -0.07418400
Spot 1    -0.01228365    -0.01354898    -0.07418400
Spot 2    -0.01191577    -0.01354377    -0.07418400
20MABNDB000260_PR019
Spot 1    -0.01241618    -0.01239623    -0.07492700
Spot 2    -0.01221295    -0.01239283    -0.07492700
Spot 1    -0.01241549    -0.01239603    -0.07492700
Spot 2    -0.01221312    -0.01239255    -0.07492700
Spot 1    -0.01241587    -0.01239616    -0.07492700
Spot 2    -0.01221379    -0.01239272    -0.07492700
20MABNDB000212_PR029
Spot 1    -0.01186101    -0.01327893    -0.07390500
Spot 2    -0.01222043    -0.01327447    -0.07390500
Spot 1    -0.01186133    -0.01327902    -0.07390500
Spot 2    -0.01222004    -0.01327408    -0.07390500
Spot 1    -0.01186107    -0.01327904    -0.07390500
Spot 2    -0.01222043    -0.01327447    -0.07390500
20MABNDB000128_PR030
Spot 1    -0.01244915    -0.01221838    -0.07353400
Spot 2    -0.01224490    -0.01222357    -0.07353400
Spot 1    -0.01244931    -0.01221834    -0.07353400
Spot 2    -0.01224495    -0.01222348    -0.07353400
Spot 1    -0.01244918    -0.01221850    -0.07353400
Spot 2    -0.01224466    -0.01222344    -0.07353400
20MABNDA000444_PR040
Spot 1    -0.01168456     0.01367393    -0.07412000
Spot 2    -0.01205127     0.01367248    -0.07412000
Spot 1    -0.01168457     0.01367397    -0.07412000
Spot 2    -0.01205133     0.01367233    -0.07412000
Spot 1    -0.01168472     0.01367398    -0.07412000
Spot 2    -0.01205137     0.01367219    -0.07412000
20MABNDA000053_PR041
Spot 1    -0.01241247     0.01211743    -0.07430100
Spot 2    -0.01220415     0.01211566    -0.07430100
Spot 1    -0.01241304     0.01211701    -0.07430100
Spot 2    -0.01220443     0.01211513    -0.07430100
Spot 1    -0.01241245     0.01211705    -0.07430100
Spot 2    -0.01220443     0.01211604    -0.07430100
20MABNDA000188_PR008
Spot 1    -0.01391227     0.01380893    -0.07502000
Spot 2    -0.01391227     0.01380893    -0.07502000
Spot 1    -0.01391227     0.01380893    -0.07502000
Spot 2    -0.01391227     0.01380893    -0.07502000
Spot 1    -0.01391227     0.01380893    -0.07502000
Spot 2    -0.01391227     0.01380893    -0.07502000
20MABNDA000188_PR018
Spot 1    -0.01272652     0.01231998    -0.07502000
Spot 2    -0.01225939     0.01231943    -0.07502000
Spot 1    -0.01272651     0.01232002    -0.07502000
Spot 2    -0.01225947     0.01231953    -0.07502000
Spot 1    -0.01272640     0.01232008    -0.07502000
Spot 2    -0.01225951     0.01231952    -0.07502000
20MABNDA000039_PR009
Spot 1    -0.01162651     0.01306282    -0.07444800
Spot 2    -0.01157856     0.01305842    -0.07444800
Spot 1    -0.01162576     0.01306304    -0.07444800
Spot 2    -0.01157891     0.01305847    -0.07444800
Spot 1    -0.01162589     0.01306260    -0.07444800
Spot 2    -0.01157883     0.01305856    -0.07444800
20MABNDA000039_PR011
Spot 1    -0.01372729     0.01395919    -0.07444800
Spot 2    -0.01355183     0.01396342    -0.07444800
Spot 1    -0.01372718     0.01395917    -0.07444800
Spot 2    -0.01355174     0.01396312    -0.07444800
Spot 1    -0.01372738     0.01395922    -0.07444800
Spot 2    -0.01355167     0.01396319    -0.07444800
20MABNDB000155_PR020
Spot 1    -0.01364194    -0.01312442    -0.07501700
Spot 2    -0.01357827    -0.01312638    -0.07501700
Spot 1    -0.01364216    -0.01312385    -0.07501700
Spot 2    -0.01357818    -0.01312670    -0.07501700
Spot 1    -0.01364272    -0.01312359    -0.07501700
Spot 2    -0.01357909    -0.01312650    -0.07501700
20MABNDB000155_PR022
Spot 1    -0.01213230    -0.01281469    -0.07501700
Spot 2    -0.01165983    -0.01281450    -0.07501700
Spot 1    -0.01213241    -0.01281481    -0.07501700
Spot 2    -0.01165981    -0.01281447    -0.07501700
Spot 1    -0.01213229    -0.01281507    -0.07501700
Spot 2    -0.01165969    -0.01281453    -0.07501700
20MABNDB000010_PR021
Spot 1    -0.01157904    -0.01292833    -0.07358200
Spot 2    -0.01119099    -0.01400537    -0.07358200
Spot 1    -0.01157864    -0.01292874    -0.07358200
Spot 2    -0.01119013    -0.01400702    -0.07358200
Spot 1    -0.01157917    -0.01292835    -0.07358200
Spot 2    -0.01174953    -0.01370313    -0.07358200
20MABNDB000010_PR023
Spot 1    -0.01311966    -0.01379957    -0.07358200
Spot 2    -0.01294484    -0.01379853    -0.07358200
Spot 1    -0.01311959    -0.01380011    -0.07358200
Spot 2    -0.01294490    -0.01379856    -0.07358200
20MABNDB000069_PR031
Spot 1    -0.01359160    -0.01285988    -0.07388500
Spot 2    -0.01352145    -0.01286539    -0.07388500
Spot 1    -0.01359118    -0.01285982    -0.07388500
Spot 2    -0.01352076    -0.01286561    -0.07388500
20MABNDB000069_PR033
Spot 1    -0.01202281    -0.01227197    -0.07388500
Spot 2    -0.01155301    -0.01227194    -0.07388500
Spot 1    -0.01202281    -0.01227200    -0.07388500
Spot 2    -0.01155272    -0.01227192    -0.07388500
20MABNDB000131_PR032
Spot 1    -0.01144552    -0.01303769    -0.07533000
Spot 2    -0.01138570    -0.01303423    -0.07533000
Spot 1    -0.01144534    -0.01303738    -0.07533000
Spot 2    -0.01138533    -0.01303403    -0.07533000
20MABNDB000131_PR034
Spot 1    -0.01330121    -0.01379477    -0.07533000
Spot 2    -0.01312544    -0.01379454    -0.07533000
Spot 1    -0.01330121    -0.01379487    -0.07533000
Spot 2    -0.01312518    -0.01379485    -0.07533000
20MABNDA000208_PR042
Spot 1    -0.01348194     0.01362284    -0.07273700
Spot 2    -0.01400296     0.01369428    -0.07273700
Spot 1    -0.01348123     0.01362241    -0.07273700
Spot 2    -0.01403617     0.01356093    -0.07273700
20MABNDA000208_PR046
Spot 1    -0.01232865     0.01176927    -0.07273700
Spot 2    -0.01185541     0.01178526    -0.07273700
Spot 1    -0.01232861     0.01178184    -0.07273700
Spot 2    -0.01185538     0.01178512    -0.07273700
20MABNDA000035_PR044
Spot 1    -0.01157128     0.01300418    -0.07483200
Spot 2    -0.01151533     0.01300931    -0.07483200
Spot 1    -0.01157156     0.01300395    -0.07483200
Spot 2    -0.01151513     0.01300907    -0.07483200
20MABNDA000035_PR045
Spot 1    -0.01336637     0.01380547    -0.07483200
Spot 2    -0.01318901     0.01380535    -0.07483200
Spot 1    -0.01336652     0.01380552    -0.07483200
Spot 2    -0.01318894     0.01380504    -0.07483200


*****************************************************************coordonnees du prisme dans le repere MOUNT********************************************************************************** 
20MABNDL000077_PR002
    0.05012087     0.04749829     3.70691442
    0.05011807     0.04751462     3.70691442
    0.05011361     0.04753912     3.70691442
20MABNDL000077_PR003
    0.02098321     0.02140624     3.89601803
    0.02097026     0.02141025     3.89601803
    0.02097415     0.02140918     3.89601803
20MABNDL000077_20MABNDM000168
   -0.05595049     0.07577415    -5.46843624
   -0.05595335     0.07577159    -5.46843624
   -0.05595839     0.07576936    -5.46843624
20MABNDL000077_PR024
    0.04576069     0.01712349    -5.89639759
    0.04574518     0.01711631    -5.89639807
    0.04573889     0.01712092    -5.89639807
20MABNDM000020_PR013
   -0.00364390    -0.01810832    -3.80243397
   -0.00363841    -0.01807593    -3.80243373
   -0.00362357    -0.01809596    -3.80243373
20MABNDM000020_PR014
   -0.06557915    -0.00494007    -4.74840927
   -0.06557171    -0.00493863    -4.74840975
   -0.06557181    -0.00490598    -4.74840927
20MABNDM000020_20MABNDL000196
    0.02683590    -0.07122480     5.39469719
    0.02683160    -0.07122517     5.39469719
    0.02683268    -0.07122158     5.39469719
20MABNDM000020_PR035
   -0.04247948    -0.00670796     5.80095387
   -0.04246445    -0.00670950     5.80095387
   -0.04245598    -0.00671682     5.80095387
20MABNDM000168_PR025
    0.01809445    -0.02109679    -3.78863955
    0.01809218    -0.02108642    -3.78863955
    0.01810034    -0.02108663    -3.78863955
20MABNDM000168_PR026
   -0.05785838    -0.01390869    -3.98428988
   -0.05785706    -0.01391259    -3.98428988
   -0.05783964    -0.01390887    -3.98429012
20MABNDM000168_20MABNDL000077
    0.01154629    -0.03873871     5.38884687
    0.01154181    -0.03874978     5.38884687
    0.01152424    -0.03874772     5.38884687
20MABNDM000168_PR001
   -0.05733521    -0.01334371     5.81470585
   -0.05734453    -0.01331877     5.81470490
   -0.05735806    -0.01334222     5.81470490
20MABNDL000196_PR036
    0.05134845     0.00605050     3.68777275
    0.05135207     0.00608046     3.68777275
    0.05135259     0.00606573     3.68777275
20MABNDL000196_PR037
   -0.02507291     0.02837429     3.88381338
   -0.02506954     0.02837093     3.88381338
   -0.02506747     0.02836939     3.88381338
20MABNDL000196_20MABNDM000020
   -0.01569885     0.03786218    -5.47473907
   -0.01570450     0.03785739    -5.47473907
   -0.01569433     0.03785221    -5.47473907
20MABNDL000196_PR012
    0.05231773     0.01441143    -5.91537189
    0.05233064     0.01440742    -5.91537142
    0.05232284     0.01440881    -5.91537189
20MABNDA000318_PR004
   -0.00854592     0.03843357     2.74965858
   -0.00855146     0.03844658     2.74965858
   -0.00855880     0.03844491     2.74965858
20MABNDA000334_PR005
   -0.00430976     0.03173619     2.14977169
   -0.00430947     0.03173818     2.14977169
   -0.00430747     0.03173890     2.14977169
20MABNDB000317_PR015
   -0.01726320    -0.03375950     2.75129223
   -0.01726265    -0.03375932     2.75129223
   -0.01726267    -0.03375750     2.75129223
20MABNDB000146_PR016
   -0.01343946    -0.03155891     2.15201473
   -0.01344061    -0.03155848     2.15201473
   -0.01343946    -0.03155833     2.15201473
20MABNDB000135_PR027
   -0.02096330    -0.00980937     2.74937153
   -0.02096750    -0.00980822     2.74937153
   -0.02096691    -0.00980456     2.74937153
20MABNDB000126_PR028
   -0.02032376    -0.03895094     2.14679527
   -0.02032190    -0.03895207     2.14679527
   -0.02032233    -0.03895064     2.14679527
20MABNDA000272_PR038
   -0.01326690     0.01077761     2.74965858
   -0.01327203     0.01078018     2.74965858
   -0.01327369     0.01077579     2.74965858
20MABNDA000003_PR039
   -0.00598068     0.04120460     2.14891577
   -0.00598083     0.04120146     2.14891577
   -0.00598212     0.04120132     2.14891577
20MABNDA000196_PR006
   -0.01010929     0.00988577     1.64206338
   -0.01010820     0.00988532     1.64206338
   -0.01010797     0.00988630     1.64206338
20MABNDA000324_PR007
   -0.02553334     0.02788660     2.95549059
   -0.02552842     0.02788526     2.95549059
   -0.02553040     0.02788721     2.95549059
20MABNDB000001_PR017
   -0.02452043    -0.00287877     1.64035726
   -0.02452323    -0.00287513     1.64035702
   -0.02452130    -0.00287876     1.64035726
20MABNDB000260_PR019
   -0.02406829    -0.03848116     2.95627522
   -0.02407853    -0.03849062     2.95627499
   -0.02405778    -0.03848469     2.95627522
20MABNDB000212_PR029
   -0.02526370    -0.00850129     1.64223897
   -0.02526450    -0.00850446     1.64223897
   -0.02526303    -0.00850009     1.64223897
20MABNDB000128_PR030
   -0.01949819    -0.04670595     2.95496368
   -0.01949405    -0.04670849     2.95496368
   -0.01950232    -0.04670616     2.95496368
20MABNDA000444_PR040
   -0.03025383     0.00094454     1.64490855
   -0.03025308     0.00094565     1.64490855
   -0.03025102     0.00094710     1.64490855
20MABNDA000053_PR041
   -0.02654165     0.05116986     2.95450306
   -0.02652498     0.05118857     2.95450282
   -0.02653654     0.05116975     2.95450306
20MABNDA000188_PR008
    0.13650158    -0.07885031     9.20339394
    0.13650158    -0.07885031     9.20339394
    0.13650158    -0.07885031     9.20339394
20MABNDA000188_PR018
   -0.01618706     0.02576809     1.28358305
   -0.01618639     0.02576688     1.28358305
   -0.01618699     0.02576646     1.28358305
20MABNDA000039_PR009
   -0.17114353     0.02578565    11.00701523
   -0.17117214     0.02576530    11.00701523
   -0.17116910     0.02579088    11.00701523
20MABNDA000039_PR011
    0.03082525    -0.02399643     3.43347621
    0.03082072    -0.02398911     3.43347621
    0.03082368    -0.02399186     3.43347621
20MABNDB000155_PR020
    0.10167682    -0.00939223     9.20028877
    0.10168441    -0.00940748     9.20028877
    0.10177502    -0.00943571     9.20028687
20MABNDB000155_PR022
   -0.02602812    -0.01791691     1.28070259
   -0.02602737    -0.01791621     1.28070259
   -0.02602946    -0.01791334     1.28070259
20MABNDB000010_PR021
   -0.20112821     0.04614339    11.00640774
   -0.20122042     0.04629547    11.00640392
   -0.16006944     0.02392931    11.00713062
20MABNDB000010_PR023
    0.00410223     0.02062520     3.43376875
    0.00410201     0.02063826     3.43376875
20MABNDB000069_PR031
    0.10223334    -0.03888683     9.20356178
    0.10216561    -0.03887728     9.20356369
20MABNDB000069_PR033
   -0.02687192    -0.02678428     1.28394163
   -0.02687440    -0.02678417     1.28394163
20MABNDB000131_PR032
   -0.18759623    -0.02967958    11.00642776
   -0.18763623    -0.02971631    11.00642586
20MABNDB000131_PR034
    0.01474603     0.01627043     3.43337727
    0.01474005     0.01627975     3.43337727
20MABNDA000208_PR042
    0.11356692    -0.06089407     9.20143032
    0.11556230    -0.05268288     9.20146561
20MABNDA000208_PR046
   -0.02330766     0.03492515     1.28207803
   -0.02330827     0.03481897     1.28207970
20MABNDA000035_PR044
   -0.18013506     0.02616220    11.00802040
   -0.18012896     0.02619653    11.00802040
20MABNDA000035_PR045
    0.01423090    -0.01927389     3.43483686
    0.01423277    -0.01926774     3.43483734


*****************************************************************coordonnees du prisme dans le repere ATLAS********************************************************************************** 
20MABNDL000077_PR002 0.00000000
    2.80954266    -3.69438791     6.48622084
    2.80952644    -3.69439054     6.48622084
    2.80950189    -3.69439507     6.48622084
20MABNDL000077_PR003 0.00000000
    2.83581090    -3.72376704     6.67526293
    2.83580685    -3.72377992     6.67526293
    2.83580804    -3.72377610     6.67526293
20MABNDL000077_20MABNDM000168 0.00000000
    2.77223325    -3.78912973    -2.68922138
    2.77223587    -3.78913260    -2.68922138
    2.77223802    -3.78913760    -2.68922138
20MABNDL000077_PR024 0.00000000
    2.83049655    -3.68690920    -3.11711431
    2.83050370    -3.68692470    -3.11711478
    2.83049917    -3.68693089    -3.11711478
20MABNDM000020_PR013 0.00000000
   -2.83420110    -3.73584008     6.48627663
   -2.83423352    -3.73584557     6.48627615
   -2.83421350    -3.73586035     6.48627615
20MABNDM000020_PR014 0.00000000
   -2.84716105    -3.67462039     7.43230152
   -2.84716249    -3.67462778     7.43230200
   -2.84719515    -3.67462754     7.43230152
20MABNDM000020_20MABNDL000196 0.00000000
   -2.78293443    -3.75934148    -2.71088576
   -2.78293419    -3.75933719    -2.71088576
   -2.78293777    -3.75933814    -2.71088576
20MABNDM000020_PR035 0.00000000
   -2.84751129    -3.68969727    -3.11707664
   -2.84750986    -3.68971229    -3.11707664
   -2.84750247    -3.68972087    -3.11707664
20MABNDM000168_PR025 0.00000000
    2.83213997    -3.76342368    -6.47925854
    2.83215046    -3.76342130    -6.47925854
    2.83215022    -3.76342964    -6.47925854
20MABNDM000168_PR026 0.00000000
    2.83933640    -3.68754554    -6.67493725
    2.83933234    -3.68754673    -6.67493725
    2.83933616    -3.68756413    -6.67493773
20MABNDM000168_20MABNDL000077 0.00000000
    2.81505680    -3.75345826     2.69822621
    2.81504583    -3.75345397     2.69822621
    2.81504774    -3.75343633     2.69822598
20MABNDM000168_PR001 0.00000000
    2.84049582    -3.68442535     3.12405801
    2.84052086    -3.68441606     3.12405682
    2.84049726    -3.68440247     3.12405682
20MABNDL000196_PR036 0.00000000
   -2.84755707    -3.69292593    -6.47909641
   -2.84752703    -3.69292235    -6.47909641
   -2.84754181    -3.69292188    -6.47909641
20MABNDL000196_PR037 0.00000000
   -2.82520199    -3.76951933    -6.67506647
   -2.82520533    -3.76951599    -6.67506647
   -2.82520676    -3.76951385    -6.67506647
20MABNDL000196_20MABNDM000020 0.00000000
   -2.81551623    -3.75143552     2.68347335
   -2.81552100    -3.75144124     2.68347335
   -2.81552625    -3.75143099     2.68347335
20MABNDL000196_PR012 0.00000000
   -2.83898902    -3.68302011     3.12404323
   -2.83899307    -3.68300700     3.12404275
   -2.83899164    -3.68301487     3.12404323
20MABNDA000318_PR004 0.00000000
    2.61445737    -4.19698858     3.83356500
    2.61445165    -4.19698858     3.83355212
    2.61444449    -4.19698858     3.83355379
20MABNDA000334_PR005 0.00000000
    2.61668873    -4.19703150     5.89752483
    2.61668921    -4.19703150     5.89752293
    2.61669111    -4.19703150     5.89752197
20MABNDB000317_PR015 0.00000000
   -2.61134386    -4.19700670     3.83625603
   -2.61134458    -4.19700670     3.83625627
   -2.61134458    -4.19700670     3.83625793
20MABNDB000146_PR016 0.00000000
   -2.61285567    -4.19702291     5.89879131
   -2.61285472    -4.19702291     5.89879179
   -2.61285567    -4.19702291     5.89879179
20MABNDB000135_PR027 0.00000000
    2.60389996    -4.19700384    -3.82555151
    2.60389590    -4.19700384    -3.82555270
    2.60389638    -4.19700384    -3.82555628
20MABNDB000126_PR028 0.00000000
    2.60559344    -4.19702101    -5.89326906
    2.60559535    -4.19702101    -5.89326763
    2.60559487    -4.19702101    -5.89326906
20MABNDA000272_PR038 0.00000000
   -2.61126995    -4.19698286    -3.82770681
   -2.61126494    -4.19698286    -3.82770419
   -2.61126328    -4.19698286    -3.82770848
20MABNDA000003_PR039 0.00000000
   -2.61575055    -4.19702101    -5.89156199
   -2.61575031    -4.19702101    -5.89156532
   -2.61574912    -4.19702101    -5.89156532
20MABNDA000196_PR006 0.00000000
    2.58456993    -4.19496536     6.54784250
    2.58456874    -4.19496536     6.54784203
    2.58456850    -4.19496536     6.54784298
20MABNDA000324_PR007 0.00000000
    2.59378147    -4.13996792     6.94802856
    2.59378648    -4.13996792     6.94802999
    2.59378433    -4.13996792     6.94802809
20MABNDB000001_PR017 0.00000000
   -2.59822178    -4.19506025     6.53820658
   -2.59822464    -4.19506073     6.53820324
   -2.59822273    -4.19506025     6.53820658
20MABNDB000260_PR019 0.00000000
   -2.60469365    -4.13995934     6.94216251
   -2.60468340    -4.13995934     6.94215345
   -2.60470414    -4.13995934     6.94215918
20MABNDB000212_PR029 0.00000000
    2.59894133    -4.19500971    -6.54748917
    2.59894228    -4.19500971    -6.54749250
    2.59894085    -4.19500971    -6.54748774
20MABNDB000128_PR030 0.00000000
    2.60936046    -4.14002657    -6.93141508
    2.60936475    -4.14002657    -6.93141270
    2.60935640    -4.14002657    -6.93141508
20MABNDA000444_PR040 0.00000000
   -2.60542631    -4.19510078    -6.54012489
   -2.60542560    -4.19510078    -6.54012585
   -2.60542345    -4.19510078    -6.54012728
20MABNDA000053_PR041 0.00000000
   -2.59400034    -4.14012766    -6.92674351
   -2.59401703    -4.14012766    -6.92672491
   -2.59400535    -4.14012766    -6.92674398
20MABNDA000188_PR008 0.00000000
    3.54951787     3.84898496     8.09023857
    3.54951787     3.84898496     8.09023857
    3.54951787     3.84898496     8.09023857
20MABNDA000188_PR018 0.00000000
    3.52094913    -4.07059622     7.89768076
    3.52094960    -4.07059622     7.89768171
    3.52094913    -4.07059669     7.89768219
20MABNDA000039_PR009 0.00000000
    3.87531543     3.64747334    12.93707943
    3.87534404     3.64747334    12.93705940
    3.87534094     3.64747334    12.93708515
20MABNDA000039_PR011 0.00000000
    3.66419888    -3.92579985    12.88484001
    3.66420341    -3.92579985    12.88484764
    3.66420031    -3.92579985    12.88484478
20MABNDB000155_PR020 0.00000000
   -3.68032908     3.84882283     7.89747524
   -3.68033671     3.84882283     7.89745998
   -3.68042731     3.84882069     7.89743137
20MABNDB000155_PR022 0.00000000
   -3.53395224    -4.07044125     7.89014244
   -3.53395295    -4.07044125     7.89014292
   -3.53395104    -4.07044125     7.89014626
20MABNDB000010_PR021 0.00000000
   -3.88703561     3.64711976    12.85570812
   -3.88712811     3.64711571    12.85555649
   -3.84595704     3.64783263    12.87788582
20MABNDB000010_PR023 0.00000000
   -3.68556452    -3.92560792    12.88465118
   -3.68556476    -3.92560792    12.88463783
20MABNDB000069_PR031 0.00000000
    3.68395019     3.84875703    -7.90151596
    3.68388247     3.84875894    -7.90152550
20MABNDB000069_PR033 0.00000000
    3.53342748    -4.07046223    -7.87888718
    3.53342509    -4.07046223    -7.87888718
20MABNDB000131_PR032 0.00000000
    3.86839867     3.64757752   -12.94032192
    3.86843872     3.64757562   -12.94035912
20MABNDB000131_PR034 0.00000000
    3.67304325    -3.92563963   -12.89167690
    3.67304921    -3.92563963   -12.89166737
20MABNDA000208_PR042 0.00000000
   -3.66360474     3.84906936    -7.97237015
   -3.66560435     3.84910893    -7.96415997
20MABNDA000208_PR046 0.00000000
   -3.53245807    -4.07034397    -7.87359333
   -3.53245735    -4.07034206    -7.87369919
20MABNDA000035_PR044 0.00000000
   -3.86937594     3.64757562   -12.93184090
   -3.86936975     3.64757562   -12.93187523
20MABNDA000035_PR045 0.00000000
   -3.67649746    -3.92565036   -12.88711071
   -3.67649555    -3.92564988   -12.88711643


*****************************************************************Rapport********************************************************************************** 
CAM-LBA-US_EBA-US-HO-H         2018.04.12.03.59.59     2.80952366    -3.69439117     6.48622084     0.00001676     0.00000295     0.00000000 0.00000000 VRAI 
CAM-LBA-US_JDA-US-H            2018.04.12.03.59.59     2.83580860    -3.72377435     6.67526293     0.00000170     0.00000540     0.00000000 0.00000000 VRAI 
CAM-LBA-US_CAM-LBC-US          2018.04.12.03.59.59     2.77223571    -3.78913331    -2.68922138     0.00000195     0.00000325     0.00000000 0.00000000 VRAI 
CAM-LBA-US_EBC-US-IP-H         2018.04.12.03.59.59     2.83049981    -3.68692160    -3.11711462     0.00000295     0.00000912     0.00000022 0.00000000 VRAI 
CAM-LBA-USA_EBA-USA-HO-H       2018.04.12.03.59.59    -2.83421604    -3.73584867     6.48627631     0.00001336     0.00000856     0.00000022 0.00000000 VRAI 
CAM-LBA-USA_JDA-USA-H          2018.04.12.03.59.59    -2.84717290    -3.67462524     7.43230168     0.00001575     0.00000343     0.00000022 0.00000000 VRAI 
CAM-LBA-USA_CAM-LBC-USA        2018.04.12.03.59.59    -2.78293546    -3.75933894    -2.71088576     0.00000163     0.00000184     0.00000000 0.00000000 VRAI 
CAM-LBA-USA_EBC-USA-IP-H       2018.04.12.03.59.59    -2.84750787    -3.68971014    -3.11707664     0.00000387     0.00000975     0.00000000 0.00000000 VRAI 
CAM-LBC-US_EBC-US-HO-H         2018.04.12.03.59.59     2.83214688    -3.76342487    -6.47925854     0.00000489     0.00000351     0.00000000 0.00000000 VRAI 
CAM-LBC-US_JDC-US-H            2018.04.12.03.59.59     2.83933496    -3.68755213    -6.67493741     0.00000186     0.00000850     0.00000022 0.00000000 VRAI 
CAM-LBC-US_CAM-LBA-US          2018.04.12.03.59.59     2.81505013    -3.75344952     2.69822613     0.00000478     0.00000949     0.00000011 0.00000000 VRAI 
CAM-LBC-US_EBA-US-IP-H         2018.04.12.03.59.59     2.84050465    -3.68441463     3.12405721     0.00001148     0.00000940     0.00000056 0.00000000 VRAI 
CAM-LBC-USA_EBC-USA-HO-H       2018.04.12.03.59.59    -2.84754197    -3.69292339    -6.47909641     0.00001226     0.00000181     0.00000000 0.00000000 VRAI 
CAM-LBC-USA_JDC-USA-H          2018.04.12.03.59.59    -2.82520469    -3.76951639    -6.67506647     0.00000200     0.00000226     0.00000000 0.00000000 VRAI 
CAM-LBC-USA_CAM-LBA-USA        2018.04.12.03.59.59    -2.81552116    -3.75143592     2.68347335     0.00000409     0.00000419     0.00000000 0.00000000 VRAI 
CAM-LBC-USA_EBA-USA-IP-H       2018.04.12.03.59.59    -2.83899124    -3.68301400     3.12404307     0.00000168     0.00000539     0.00000022 0.00000000 VRAI 
CAM-EBA-US-IP_EBA-US-IP        2018.04.12.03.59.59     2.61445117    -4.19698858     3.83355697     0.00000527     0.00000000     0.00000572 0.00000000 VRAI 
CAM-EBA-US-HO_EBA-US-HO        2018.04.12.03.59.59     2.61668968    -4.19703150     5.89752324     0.00000103     0.00000000     0.00000119 0.00000000 VRAI 
CAM-EBA-USA-IP_EBA-USA-IP      2018.04.12.03.59.59    -2.61134434    -4.19700670     3.83625674     0.00000034     0.00000000     0.00000085 0.00000000 VRAI 
CAM-EBA-USA-HO_EBA-USA-HO      2018.04.12.03.59.59    -2.61285535    -4.19702291     5.89879163     0.00000045     0.00000000     0.00000022 0.00000000 VRAI 
CAM-EBC-US-IP_EBC-US-IP        2018.04.12.03.59.59     2.60389741    -4.19700384    -3.82555350     0.00000181     0.00000000     0.00000203 0.00000000 VRAI 
CAM-EBC-US-HO_EBC-US-HO        2018.04.12.03.59.59     2.60559456    -4.19702101    -5.89326859     0.00000081     0.00000000     0.00000067 0.00000000 VRAI 
CAM-EBC-USA-IP_EBC-USA-IP      2018.04.12.03.59.59    -2.61126606    -4.19698286    -3.82770650     0.00000284     0.00000000     0.00000177 0.00000000 VRAI 
CAM-EBC-USA-HO_EBC-USA-HO      2018.04.12.03.59.59    -2.61574999    -4.19702101    -5.89156421     0.00000063     0.00000000     0.00000157 0.00000000 VRAI 
CAM-JDA-US-IP_JDA-US-IP        2018.04.12.03.59.59     2.58456906    -4.19496536     6.54784250     0.00000063     0.00000000     0.00000039 0.00000000 VRAI 
CAM-JDA-US-HO_JDA-US-HO        2018.04.12.03.59.59     2.59378409    -4.13996792     6.94802888     0.00000205     0.00000000     0.00000081 0.00000000 VRAI 
CAM-JDA-USA-IP_JDA-USA-IP      2018.04.12.03.59.59    -2.59822305    -4.19506041     6.53820546     0.00000119     0.00000022     0.00000157 0.00000000 VRAI 
CAM-JDA-USA-HO_JDA-USA-HO      2018.04.12.03.59.59    -2.60469373    -4.13995934     6.94215838     0.00000847     0.00000000     0.00000374 0.00000000 VRAI 
CAM-JDC-US-IP_JDC-US-IP        2018.04.12.03.59.59     2.59894149    -4.19500971    -6.54748980     0.00000059     0.00000000     0.00000200 0.00000000 VRAI 
CAM-JDC-US-HO_JDC-US-HO        2018.04.12.03.59.59     2.60936054    -4.14002657    -6.93141429     0.00000341     0.00000000     0.00000112 0.00000000 VRAI 
CAM-JDC-USA-IP_JDC-USA-IP      2018.04.12.03.59.59    -2.60542512    -4.19510078    -6.54012601     0.00000122     0.00000000     0.00000098 0.00000000 VRAI 
CAM-JDC-USA-HO_JDC-USA-HO      2018.04.12.03.59.59    -2.59400757    -4.14012766    -6.92673747     0.00000699     0.00000000     0.00000888 0.00000000 VRAI 
CAM-ECTA-US-IP_ECTA-US-IP-T    2018.04.12.03.59.59     3.54951787     3.84898496     8.09023857     0.00000000     0.00000000     0.00000000 0.00000000 VRAI 
CAM-ECTA-US-IP_ECTA-US-IP      2018.04.12.03.59.59     3.52094928    -4.07059638     7.89768155     0.00000022     0.00000022     0.00000059 0.00000000 VRAI 
CAM-ECTA-US-HO_ECTA-US-HO-T    2018.04.12.03.59.59     3.87533347     3.64747334    12.93707466     0.00001282     0.00000000     0.00001104 0.00000000 VRAI 
CAM-ECTA-US-HO_ECTA-US-HO      2018.04.12.03.59.59     3.66420086    -3.92579985    12.88484414     0.00000189     0.00000000     0.00000315 0.00000000 VRAI 
CAM-ECTA-USA-IP_ECTA-USA-IP-T  2018.04.12.03.59.59    -3.68036437     3.84882212     7.89745553     0.00004462     0.00000101     0.00001818 0.00000000 VRAI 
CAM-ECTA-USA-IP_ECTA-USA-IP    2018.04.12.03.59.59    -3.53395208    -4.07044125     7.89014387     0.00000079     0.00000000     0.00000170 0.00000000 VRAI 
CAM-ECTA-USA-HO_ECTA-USA-HO-T  2018.04.12.03.59.59    -3.87337359     3.64735603    12.86305014     0.01938646     0.00033701     0.01049059 0.00000000 VRAI 
CAM-ECTA-USA-HO_ECTA-USA-HO    2018.04.12.03.59.59    -3.68556464    -3.92560792    12.88464451     0.00000012     0.00000000     0.00000668 0.00000000 VRAI 
CAM-ECTC-US-IP_ECTC-US-IP-T    2018.04.12.03.59.59     3.68391633     3.84875798    -7.90152073     0.00003386     0.00000095     0.00000477 0.00000000 VRAI 
CAM-ECTC-US-IP_ECTC-US-IP      2018.04.12.03.59.59     3.53342628    -4.07046223    -7.87888718     0.00000119     0.00000000     0.00000000 0.00000000 VRAI 
CAM-ECTC-US-HO_ECTC-US-HO-T    2018.04.12.03.59.59     3.86841869     3.64757657   -12.94034052     0.00002003     0.00000095     0.00001860 0.00000000 VRAI 
CAM-ECTC-US-HO_ECTC-US-HO      2018.04.12.03.59.59     3.67304623    -3.92563963   -12.89167213     0.00000298     0.00000000     0.00000477 0.00000000 VRAI 
CAM-ECTC-USA-IP_ECTC-USA-IP-T  2018.04.12.03.59.59    -3.66460454     3.84908915    -7.96826506     0.00099981     0.00001979     0.00410509 0.00000000 VRAI 
CAM-ECTC-USA-IP_ECTC-USA-IP    2018.04.12.03.59.59    -3.53245771    -4.07034302    -7.87364626     0.00000036     0.00000095     0.00005293 0.00000000 VRAI 
CAM-ECTC-USA-HO_ECTC-USA-HO-T  2018.04.12.03.59.59    -3.86937284     3.64757562   -12.93185806     0.00000310     0.00000000     0.00001717 0.00000000 VRAI 
CAM-ECTC-USA-HO_ECTC-USA-HO    2018.04.12.03.59.59    -3.67649651    -3.92565012   -12.88711357     0.00000095     0.00000024     0.00000286 0.00000000 VRAI 
