********** Fichier qui contient une sauvegarde des coordonnees images + coordonnees images transformees dans le repere BCAM (MOUNT) + coordonnees des prismes dans le repere MOUNT********** 
********************************************************************** Unite en metres (m)************************************************************************************************** 

*******************************************************************coordonnees images dans le repere CCD *********************************************************************************** 
20MABNDL000077_PR002
Spot 1     0.00052500     0.00043500
Spot 2     0.00123500     0.00218500
Spot 1     0.00121457     0.00150102
Spot 2     0.00052500     0.00043500
Spot 1     0.00121458     0.00149913
Spot 2     0.00052500     0.00043500
20MABNDL000077_PR003
Spot 1     0.00138753     0.00148658
Spot 2     0.00153696     0.00148842
Spot 1     0.00138740     0.00148686
Spot 2     0.00153695     0.00148850
Spot 1     0.00138751     0.00148660
Spot 2     0.00153759     0.00148852
20MABNDL000077_20MABNDM000168
Spot 1     0.00175691     0.00118480
Spot 2     0.00075500     0.00010500
Spot 1     0.00175664     0.00118461
Spot 2     0.00075500     0.00010500
Spot 1     0.00175741     0.00118475
Spot 2     0.00075500     0.00010500
20MABNDL000077_PR024
Spot 1     0.00254605     0.00144787
Spot 2     0.00264516     0.00145537
Spot 1     0.00254601     0.00144766
Spot 2     0.00264527     0.00145538
Spot 1     0.00254598     0.00144776
Spot 2     0.00264568     0.00145515
20MABNDM000020_PR013
Spot 1     0.00162739     0.00153058
Spot 2     0.00147404     0.00153455
Spot 1     0.00162746     0.00152720
Spot 2     0.00147396     0.00153404
Spot 1     0.00162726     0.00152767
Spot 2     0.00147400     0.00153356
20MABNDM000020_PR014
Spot 1     0.00265949     0.00168949
Spot 2     0.00249835     0.00169362
Spot 1     0.00265973     0.00168912
Spot 2     0.00249810     0.00169414
Spot 1     0.00265986     0.00168917
Spot 2     0.00249811     0.00169358
20MABNDM000020_20MABNDL000196
Spot 1     0.00197676     0.00117826
Spot 2     0.00320500     0.00025500
Spot 1     0.00197657     0.00117809
Spot 2     0.00320500     0.00025500
Spot 1     0.00197686     0.00117809
Spot 2     0.00320500     0.00025500
20MABNDM000020_PR035
Spot 1     0.00126928     0.00149622
Spot 2     0.00118702     0.00153130
Spot 1     0.00126940     0.00149639
Spot 2     0.00118727     0.00153165
Spot 1     0.00126994     0.00149642
Spot 2     0.00118715     0.00153142
20MABNDM000168_PR025
Spot 1     0.00125500     0.00012500
Spot 2     0.00125500     0.00012500
Spot 1     0.00125500     0.00012500
Spot 2     0.00125500     0.00012500
Spot 1     0.00064500     0.00011500
Spot 2     0.00064500     0.00011500
20MABNDM000168_PR026
Spot 1     0.00266671     0.00142990
Spot 2     0.00250556     0.00142602
Spot 1     0.00266698     0.00143007
Spot 2     0.00250554     0.00142637
Spot 1     0.00266694     0.00142982
Spot 2     0.00250564     0.00142611
20MABNDM000168_20MABNDL000077
Spot 1     0.00154183     0.00130046
Spot 2     0.00175820     0.00130578
Spot 1     0.00154180     0.00130059
Spot 2     0.00175757     0.00130513
Spot 1     0.00154193     0.00130067
Spot 2     0.00175765     0.00130456
20MABNDM000168_PR001
Spot 1     0.00080840     0.00161885
Spot 2     0.00070638     0.00162064
Spot 1     0.00080838     0.00161880
Spot 2     0.00070645     0.00162091
Spot 1     0.00080855     0.00161881
Spot 2     0.00070633     0.00162085
20MABNDL000196_PR036
Spot 1     0.00094628     0.00163623
Spot 2     0.00111071     0.00163559
Spot 1     0.00094614     0.00163628
Spot 2     0.00111060     0.00163524
Spot 1     0.00094606     0.00163612
Spot 2     0.00111063     0.00163514
20MABNDL000196_PR037
Spot 1     0.00246770     0.00117157
Spot 2     0.00262233     0.00116979
Spot 1     0.00246779     0.00117170
Spot 2     0.00262245     0.00116995
Spot 1     0.00246779     0.00117182
Spot 2     0.00262247     0.00116994
20MABNDL000196_20MABNDM000020
Spot 1     0.00192563     0.00104168
Spot 2     0.00170461     0.00104677
Spot 1     0.00192570     0.00104170
Spot 2     0.00170426     0.00104693
Spot 1     0.00192564     0.00104170
Spot 2     0.00170426     0.00104706
20MABNDL000196_PR012
Spot 1     0.00265137     0.00134246
Spot 2     0.00272340     0.00138833
Spot 1     0.00265125     0.00134290
Spot 2     0.00272313     0.00138854
Spot 1     0.00265129     0.00134268
Spot 2     0.00272316     0.00138835
20MABNDA000318_PR004
Spot 1     0.00192560     0.00162748
Spot 2     0.00214372     0.00162711
Spot 1     0.00192541     0.00162741
Spot 2     0.00214379     0.00162697
Spot 1     0.00192545     0.00162728
Spot 2     0.00214351     0.00162676
20MABNDA000334_PR005
Spot 1     0.00247253     0.00158784
Spot 2     0.00219220     0.00158860
Spot 1     0.00247253     0.00158784
Spot 2     0.00219222     0.00158810
Spot 1     0.00247249     0.00158789
Spot 2     0.00219226     0.00158806
20MABNDB000317_PR015
Spot 1     0.00170440     0.00158800
Spot 2     0.00148476     0.00159476
Spot 1     0.00170421     0.00158803
Spot 2     0.00148500     0.00159459
Spot 1     0.00170427     0.00158766
Spot 2     0.00148484     0.00159464
20MABNDB000146_PR016
Spot 1     0.00144338     0.00132448
Spot 2     0.00171966     0.00132733
Spot 1     0.00144345     0.00132451
Spot 2     0.00171984     0.00132736
Spot 1     0.00144339     0.00132450
Spot 2     0.00171971     0.00132752
20MABNDB000135_PR027
Spot 1     0.00188972     0.00091480
Spot 2     0.00210798     0.00091652
Spot 1     0.00188974     0.00091468
Spot 2     0.00210782     0.00091626
Spot 1     0.00188971     0.00091480
Spot 2     0.00210807     0.00091645
20MABNDB000126_PR028
Spot 1     0.00164334     0.00200957
Spot 2     0.00192578     0.00201109
Spot 1     0.00164347     0.00200962
Spot 2     0.00192584     0.00201092
Spot 1     0.00164340     0.00200971
Spot 2     0.00192579     0.00201098
20MABNDA000272_PR038
Spot 1     0.00192185     0.00095027
Spot 2     0.00170128     0.00094978
Spot 1     0.00192223     0.00094975
Spot 2     0.00170080     0.00094973
Spot 1     0.00192202     0.00095000
Spot 2     0.00170087     0.00094959
20MABNDA000003_PR039
Spot 1     0.00199943     0.00192534
Spot 2     0.00227801     0.00192642
Spot 1     0.00199931     0.00192523
Spot 2     0.00227783     0.00192642
Spot 1     0.00199938     0.00192540
Spot 2     0.00227813     0.00192616
20MABNDA000196_PR006
Spot 1     0.00199856     0.00072683
Spot 2     0.00163188     0.00072465
Spot 1     0.00199844     0.00072682
Spot 2     0.00163179     0.00072442
Spot 1     0.00199842     0.00072695
Spot 2     0.00163164     0.00072450
20MABNDA000324_PR007
Spot 1     0.00173588     0.00122024
Spot 2     0.00194147     0.00121416
Spot 1     0.00173587     0.00122006
Spot 2     0.00194157     0.00121441
Spot 1     0.00194153     0.00121446
Spot 2     0.00173554     0.00122015
20MABNDB000001_PR017
Spot 1     0.00190338     0.00043923
Spot 2     0.00227230     0.00044754
Spot 1     0.00190341     0.00043916
Spot 2     0.00227203     0.00044781
Spot 1     0.00190341     0.00043903
Spot 2     0.00227194     0.00044742
20MABNDB000260_PR019
Spot 1     0.00191331     0.00150636
Spot 2     0.00211769     0.00150692
Spot 1     0.00191403     0.00150608
Spot 2     0.00211794     0.00150676
Spot 1     0.00191388     0.00150589
Spot 2     0.00211809     0.00150718
20MABNDB000212_PR029
Spot 1     0.00222892     0.00070052
Spot 2     0.00186895     0.00070128
Spot 1     0.00222894     0.00070067
Spot 2     0.00186880     0.00070120
Spot 1     0.00222886     0.00070055
Spot 2     0.00186908     0.00070112
20MABNDB000128_PR030
Spot 1     0.00190454     0.00199956
Spot 2     0.00211043     0.00199424
Spot 1     0.00190458     0.00199944
Spot 2     0.00211027     0.00199402
Spot 1     0.00190455     0.00199936
Spot 2     0.00211031     0.00199413
20MABNDA000444_PR040
Spot 1     0.00074454     0.00035462
Spot 2     0.00111152     0.00035212
Spot 1     0.00074437     0.00035460
Spot 2     0.00111121     0.00035167
Spot 1     0.00074438     0.00035469
Spot 2     0.00111152     0.00035152
20MABNDA000053_PR041
Spot 1     0.00165850     0.00199093
Spot 2     0.00144512     0.00199156
Spot 1     0.00165978     0.00199059
Spot 2     0.00144607     0.00199036
Spot 1     0.00165854     0.00199132
Spot 2     0.00144487     0.00199220
20MABNDA000188_PR008
Spot 1     0.00289500     0.00025500
Spot 2     0.00289500     0.00025500
Spot 1     0.00289500     0.00025500
Spot 2     0.00289500     0.00025500
Spot 1     0.00289500     0.00025500
Spot 2     0.00289500     0.00025500
20MABNDA000188_PR018
Spot 1     0.00169794     0.00173550
Spot 2     0.00123076     0.00173185
Spot 1     0.00169778     0.00173561
Spot 2     0.00123090     0.00173170
Spot 1     0.00169805     0.00173545
Spot 2     0.00123070     0.00173186
20MABNDA000039_PR009
Spot 1     0.00066338     0.00118019
Spot 2     0.00061580     0.00118440
Spot 1     0.00066347     0.00118002
Spot 2     0.00061607     0.00118439
Spot 1     0.00066345     0.00118047
Spot 2     0.00061600     0.00118445
20MABNDA000039_PR011
Spot 1     0.00276968     0.00029175
Spot 2     0.00259392     0.00028695
Spot 1     0.00276970     0.00029194
Spot 2     0.00259407     0.00028695
Spot 1     0.00276964     0.00029200
Spot 2     0.00259405     0.00028695
20MABNDB000155_PR020
Spot 1     0.00062298     0.00113515
Spot 2     0.00068946     0.00113114
Spot 1     0.00062348     0.00113551
Spot 2     0.00068922     0.00113129
Spot 1     0.00062315     0.00113540
Spot 2     0.00068900     0.00113103
20MABNDB000155_PR022
Spot 1     0.00213724     0.00142585
Spot 2     0.00261012     0.00142095
Spot 1     0.00213715     0.00142588
Spot 2     0.00261024     0.00142099
Spot 1     0.00213712     0.00142583
Spot 2     0.00261012     0.00142101
20MABNDB000010_PR021
Spot 1     0.00287189     0.00114952
Spot 2     0.00268750     0.00037750
Spot 1     0.00287201     0.00114951
Spot 2     0.00324167     0.00006500
20MABNDB000010_PR023
Spot 1     0.00131751     0.00030233
Spot 2     0.00149285     0.00030053
Spot 1     0.00131745     0.00030240
Spot 2     0.00149270     0.00030030
20MABNDB000069_PR031
Spot 1     0.00028231     0.00140610
Spot 2     0.00035577     0.00140505
Spot 1     0.00028274     0.00140620
Spot 2     0.00035465     0.00140426
20MABNDB000069_PR033
Spot 1     0.00182476     0.00206445
Spot 2     0.00229494     0.00208477
Spot 1     0.00182450     0.00206461
Spot 2     0.00229506     0.00208500
20MABNDB000131_PR032
Spot 1     0.00277500     0.00107573
Spot 2     0.00283483     0.00107903
Spot 1     0.00277532     0.00107560
Spot 2     0.00283487     0.00107890
20MABNDB000131_PR034
Spot 1     0.00091464     0.00032524
Spot 2     0.00109079     0.00032475
Spot 1     0.00091452     0.00032532
Spot 2     0.00109066     0.00032468
20MABNDA000208_PR042
Spot 1     0.00262623     0.00042254
Spot 2     0.00308000     0.00048500
Spot 1     0.00263342     0.00044263
Spot 2     0.00289500     0.00039167
20MABNDA000208_PR046
Spot 1     0.00146204     0.00220310
Spot 2     0.00058722     0.00208944
Spot 1     0.00146245     0.00221043
Spot 2     0.00058722     0.00208907
20MABNDA000035_PR044
Spot 1     0.00073748     0.00125060
Spot 2     0.00067935     0.00124494
Spot 1     0.00073770     0.00125070
Spot 2     0.00067915     0.00124500
20MABNDA000035_PR045
Spot 1     0.00253678     0.00045947
Spot 2     0.00235943     0.00045826
Spot 1     0.00253683     0.00045950
Spot 2     0.00235946     0.00045837


****************************************************************coordonnees images transformees dans le repere MOUNT************************************************************************* 
20MABNDL000077_PR002
Spot 1     0.01158509     0.03451311    -0.07463200
Spot 2     0.01231190     0.03625620    -0.07463200
Spot 1     0.01228488     0.03557245    -0.07463200
Spot 2     0.01158509     0.03451311    -0.07463200
Spot 1     0.01228488     0.03557056    -0.07463200
Spot 2     0.01158509     0.03451311    -0.07463200
20MABNDL000077_PR003
Spot 1     0.01245770     0.03555635    -0.07463200
Spot 2     0.01260714     0.03555675    -0.07463200
Spot 1     0.01245757     0.03555663    -0.07463200
Spot 2     0.01260713     0.03555683    -0.07463200
Spot 1     0.01245768     0.03555637    -0.07463200
Spot 2     0.01260777     0.03555684    -0.07463200
20MABNDL000077_20MABNDM000168
Spot 1    -0.01259206     0.03524779    -0.00695400
Spot 2    -0.01157915     0.03417830    -0.00695400
Spot 1    -0.01259179     0.03524760    -0.00695400
Spot 2    -0.01157915     0.03417830    -0.00695400
Spot 1    -0.01259256     0.03524773    -0.00695400
Spot 2    -0.01157915     0.03417830    -0.00695400
20MABNDL000077_PR024
Spot 1    -0.01338385     0.03550277    -0.00695400
Spot 2    -0.01348303     0.03550925    -0.00695400
Spot 1    -0.01338381     0.03550256    -0.00695400
Spot 2    -0.01348314     0.03550926    -0.00695400
Spot 1    -0.01338378     0.03550266    -0.00695400
Spot 2    -0.01348355     0.03550903    -0.00695400
20MABNDM000020_PR013
Spot 1    -0.01273147    -0.03548926    -0.00523500
Spot 2    -0.01288470    -0.03549662    -0.00523500
Spot 1    -0.01273148    -0.03548587    -0.00523500
Spot 2    -0.01288479    -0.03549611    -0.00523500
Spot 1    -0.01273167    -0.03548635    -0.00523500
Spot 2    -0.01288476    -0.03549563    -0.00523500
20MABNDM000020_PR014
Spot 1    -0.01169611    -0.03562530    -0.00523500
Spot 2    -0.01185712    -0.03563300    -0.00523500
Spot 1    -0.01169588    -0.03562493    -0.00523500
Spot 2    -0.01185736    -0.03563352    -0.00523500
Spot 1    -0.01169575    -0.03562498    -0.00523500
Spot 2    -0.01185736    -0.03563296    -0.00523500
20MABNDM000020_20MABNDL000196
Spot 1     0.01270952    -0.03514682    -0.07583800
Spot 2     0.01148115    -0.03422373    -0.07583800
Spot 1     0.01270971    -0.03514665    -0.07583800
Spot 2     0.01148115    -0.03422373    -0.07583800
Spot 1     0.01270942    -0.03514665    -0.07583800
Spot 2     0.01148115    -0.03422373    -0.07583800
20MABNDM000020_PR035
Spot 1     0.01341704    -0.03546469    -0.07583800
Spot 2     0.01349931    -0.03549975    -0.07583800
Spot 1     0.01341692    -0.03546486    -0.07583800
Spot 2     0.01349906    -0.03550010    -0.07583800
Spot 1     0.01341638    -0.03546489    -0.07583800
Spot 2     0.01349918    -0.03549987    -0.07583800
20MABNDM000168_PR025
Spot 1    -0.01315292    -0.03446186    -0.00532900
Spot 2    -0.01315292    -0.03446186    -0.00532900
Spot 1    -0.01315292    -0.03446186    -0.00532900
Spot 2    -0.01315292    -0.03446186    -0.00532900
Spot 1    -0.01376296    -0.03445448    -0.00532900
Spot 2    -0.01376296    -0.03445448    -0.00532900
20MABNDM000168_PR026
Spot 1    -0.01173562    -0.03576068    -0.00532900
Spot 2    -0.01189679    -0.03575750    -0.00532900
Spot 1    -0.01173535    -0.03576085    -0.00532900
Spot 2    -0.01189681    -0.03575785    -0.00532900
Spot 1    -0.01173539    -0.03576060    -0.00532900
Spot 2    -0.01189671    -0.03575758    -0.00532900
20MABNDM000168_20MABNDL000077
Spot 1     0.01288363    -0.03530109    -0.07445100
Spot 2     0.01266720    -0.03530324    -0.07445100
Spot 1     0.01288365    -0.03530122    -0.07445100
Spot 2     0.01266784    -0.03530260    -0.07445100
Spot 1     0.01288352    -0.03530130    -0.07445100
Spot 2     0.01266777    -0.03530203    -0.07445100
20MABNDM000168_PR001
Spot 1     0.01361232    -0.03563017    -0.07445100
Spot 2     0.01371430    -0.03563346    -0.07445100
Spot 1     0.01361234    -0.03563012    -0.07445100
Spot 2     0.01371423    -0.03563373    -0.07445100
Spot 1     0.01361217    -0.03563013    -0.07445100
Spot 2     0.01371435    -0.03563367    -0.07445100
20MABNDL000196_PR036
Spot 1     0.01192621     0.03582493    -0.07483600
Spot 2     0.01209064     0.03582463    -0.07483600
Spot 1     0.01192607     0.03582498    -0.07483600
Spot 2     0.01209053     0.03582428    -0.07483600
Spot 1     0.01192599     0.03582482    -0.07483600
Spot 2     0.01209056     0.03582418    -0.07483600
20MABNDL000196_PR037
Spot 1     0.01344860     0.03536344    -0.07483600
Spot 2     0.01360323     0.03536198    -0.07483600
Spot 1     0.01344869     0.03536357    -0.07483600
Spot 2     0.01360335     0.03536215    -0.07483600
Spot 1     0.01344869     0.03536369    -0.07483600
Spot 2     0.01360337     0.03536214    -0.07483600
20MABNDL000196_20MABNDM000020
Spot 1    -0.01274968     0.03531289    -0.00611000
Spot 2    -0.01252881     0.03532242    -0.00611000
Spot 1    -0.01274975     0.03531291    -0.00611000
Spot 2    -0.01252846     0.03532259    -0.00611000
Spot 1    -0.01274969     0.03531291    -0.00611000
Spot 2    -0.01252847     0.03532272    -0.00611000
20MABNDL000196_PR012
Spot 1    -0.01348133     0.03559901    -0.00611000
Spot 2    -0.01355427     0.03564342    -0.00611000
Spot 1    -0.01348122     0.03559945    -0.00611000
Spot 2    -0.01355400     0.03564363    -0.00611000
Spot 1    -0.01348125     0.03559923    -0.00611000
Spot 2    -0.01355403     0.03564344    -0.00611000
20MABNDA000318_PR004
Spot 1    -0.01264542     0.01246840    -0.07310600
Spot 2    -0.01286354     0.01246813    -0.07310600
Spot 1    -0.01264523     0.01246847    -0.07310600
Spot 2    -0.01286361     0.01246827    -0.07310600
Spot 1    -0.01264527     0.01246860    -0.07310600
Spot 2    -0.01286333     0.01246848    -0.07310600
20MABNDA000334_PR005
Spot 1    -0.01311564     0.01254055    -0.07324100
Spot 2    -0.01283531     0.01253953    -0.07324100
Spot 1    -0.01311564     0.01254055    -0.07324100
Spot 2    -0.01283533     0.01254003    -0.07324100
Spot 1    -0.01311560     0.01254050    -0.07324100
Spot 2    -0.01283537     0.01254007    -0.07324100
20MABNDB000317_PR015
Spot 1    -0.01244977    -0.01250752    -0.07326100
Spot 2    -0.01266947    -0.01250332    -0.07326100
Spot 1    -0.01244996    -0.01250749    -0.07326100
Spot 2    -0.01266923    -0.01250349    -0.07326100
Spot 1    -0.01244989    -0.01250786    -0.07326100
Spot 2    -0.01266939    -0.01250344    -0.07326100
20MABNDB000146_PR016
Spot 1    -0.01276496    -0.01246913    -0.07450500
Spot 2    -0.01248869    -0.01246567    -0.07450500
Spot 1    -0.01276489    -0.01246910    -0.07450500
Spot 2    -0.01248851    -0.01246564    -0.07450500
Spot 1    -0.01276495    -0.01246911    -0.07450500
Spot 2    -0.01248864    -0.01246548    -0.07450500
20MABNDB000135_PR027
Spot 1    -0.01251496    -0.01319821    -0.07464700
Spot 2    -0.01229670    -0.01319892    -0.07464700
Spot 1    -0.01251495    -0.01319833    -0.07464700
Spot 2    -0.01229686    -0.01319917    -0.07464700
Spot 1    -0.01251497    -0.01319821    -0.07464700
Spot 2    -0.01229661    -0.01319899    -0.07464700
20MABNDB000126_PR028
Spot 1    -0.01253620    -0.01217261    -0.07500400
Spot 2    -0.01225377    -0.01216958    -0.07500400
Spot 1    -0.01253607    -0.01217256    -0.07500400
Spot 2    -0.01225371    -0.01216975    -0.07500400
Spot 1    -0.01253614    -0.01217247    -0.07500400
Spot 2    -0.01225376    -0.01216969    -0.07500400
20MABNDA000272_PR038
Spot 1    -0.01275750     0.01316120    -0.07417900
Spot 2    -0.01253693     0.01316130    -0.07417900
Spot 1    -0.01275788     0.01316172    -0.07417900
Spot 2    -0.01253645     0.01316134    -0.07417900
Spot 1    -0.01275767     0.01316147    -0.07417900
Spot 2    -0.01253652     0.01316148    -0.07417900
20MABNDA000003_PR039
Spot 1    -0.01280051     0.01212692    -0.07373400
Spot 2    -0.01307909     0.01212655    -0.07373400
Spot 1    -0.01280039     0.01212703    -0.07373400
Spot 2    -0.01307891     0.01212655    -0.07373400
Spot 1    -0.01280046     0.01212686    -0.07373400
Spot 2    -0.01307921     0.01212681    -0.07373400
20MABNDA000196_PR006
Spot 1    -0.01295323     0.01325156    -0.07967100
Spot 2    -0.01258656     0.01324902    -0.07967100
Spot 1    -0.01295311     0.01325156    -0.07967100
Spot 2    -0.01258646     0.01324925    -0.07967100
Spot 1    -0.01295310     0.01325143    -0.07967100
Spot 2    -0.01258631     0.01324917    -0.07967100
20MABNDA000324_PR007
Spot 1    -0.01234154     0.01280299    -0.07446800
Spot 2    -0.01254717     0.01280746    -0.07446800
Spot 1    -0.01234153     0.01280317    -0.07446800
Spot 2    -0.01254727     0.01280721    -0.07446800
Spot 1    -0.01254722     0.01280716    -0.07446800
Spot 2    -0.01234120     0.01280308    -0.07446800
20MABNDB000001_PR017
Spot 1    -0.01228498    -0.01355047    -0.07418400
Spot 2    -0.01191599    -0.01354606    -0.07418400
Spot 1    -0.01228495    -0.01355054    -0.07418400
Spot 2    -0.01191626    -0.01354579    -0.07418400
Spot 1    -0.01228495    -0.01355067    -0.07418400
Spot 2    -0.01191635    -0.01354618    -0.07418400
20MABNDB000260_PR019
Spot 1    -0.01241810    -0.01239637    -0.07492700
Spot 2    -0.01221378    -0.01239162    -0.07492700
Spot 1    -0.01241738    -0.01239664    -0.07492700
Spot 2    -0.01221352    -0.01239178    -0.07492700
Spot 1    -0.01241752    -0.01239683    -0.07492700
Spot 2    -0.01221338    -0.01239135    -0.07492700
20MABNDB000212_PR029
Spot 1    -0.01185893    -0.01328070    -0.07390500
Spot 2    -0.01221887    -0.01327610    -0.07390500
Spot 1    -0.01185891    -0.01328055    -0.07390500
Spot 2    -0.01221902    -0.01327617    -0.07390500
Spot 1    -0.01185899    -0.01328067    -0.07390500
Spot 2    -0.01221874    -0.01327626    -0.07390500
20MABNDB000128_PR030
Spot 1    -0.01245058    -0.01221774    -0.07353400
Spot 2    -0.01224467    -0.01222235    -0.07353400
Spot 1    -0.01245054    -0.01221786    -0.07353400
Spot 2    -0.01224483    -0.01222257    -0.07353400
Spot 1    -0.01245057    -0.01221794    -0.07353400
Spot 2    -0.01224479    -0.01222246    -0.07353400
20MABNDA000444_PR040
Spot 1    -0.01168436     0.01367520    -0.07412000
Spot 2    -0.01205134     0.01367304    -0.07412000
Spot 1    -0.01168419     0.01367522    -0.07412000
Spot 2    -0.01205104     0.01367350    -0.07412000
Spot 1    -0.01168420     0.01367513    -0.07412000
Spot 2    -0.01205135     0.01367364    -0.07412000
20MABNDA000053_PR041
Spot 1    -0.01241517     0.01211964    -0.07430100
Spot 2    -0.01220184     0.01211484    -0.07430100
Spot 1    -0.01241644     0.01212000    -0.07430100
Spot 2    -0.01220277     0.01211606    -0.07430100
Spot 1    -0.01241522     0.01211925    -0.07430100
Spot 2    -0.01220160     0.01211420    -0.07430100
20MABNDA000188_PR008
Spot 1    -0.01391227     0.01380893    -0.07502000
Spot 2    -0.01391227     0.01380893    -0.07502000
Spot 1    -0.01391227     0.01380893    -0.07502000
Spot 2    -0.01391227     0.01380893    -0.07502000
Spot 1    -0.01391227     0.01380893    -0.07502000
Spot 2    -0.01391227     0.01380893    -0.07502000
20MABNDA000188_PR018
Spot 1    -0.01272793     0.01231824    -0.07502000
Spot 2    -0.01226074     0.01231788    -0.07502000
Spot 1    -0.01272777     0.01231812    -0.07502000
Spot 2    -0.01226088     0.01231804    -0.07502000
Spot 1    -0.01272804     0.01231829    -0.07502000
Spot 2    -0.01226068     0.01231787    -0.07502000
20MABNDA000039_PR009
Spot 1    -0.01162553     0.01306394    -0.07444800
Spot 2    -0.01157797     0.01305953    -0.07444800
Spot 1    -0.01162562     0.01306411    -0.07444800
Spot 2    -0.01157824     0.01305954    -0.07444800
Spot 1    -0.01162560     0.01306366    -0.07444800
Spot 2    -0.01157817     0.01305948    -0.07444800
20MABNDA000039_PR011
Spot 1    -0.01372797     0.01396149    -0.07444800
Spot 2    -0.01355219     0.01396553    -0.07444800
Spot 1    -0.01372799     0.01396130    -0.07444800
Spot 2    -0.01355234     0.01396553    -0.07444800
Spot 1    -0.01372793     0.01396124    -0.07444800
Spot 2    -0.01355232     0.01396553    -0.07444800
20MABNDB000155_PR020
Spot 1    -0.01364325    -0.01312218    -0.07501700
Spot 2    -0.01357672    -0.01312528    -0.07501700
Spot 1    -0.01364276    -0.01312181    -0.07501700
Spot 2    -0.01357697    -0.01312513    -0.07501700
Spot 1    -0.01364309    -0.01312193    -0.07501700
Spot 2    -0.01357718    -0.01312539    -0.07501700
20MABNDB000155_PR022
Spot 1    -0.01213311    -0.01281078    -0.07501700
Spot 2    -0.01166021    -0.01280920    -0.07501700
Spot 1    -0.01213321    -0.01281075    -0.07501700
Spot 2    -0.01166009    -0.01280916    -0.07501700
Spot 1    -0.01213323    -0.01281080    -0.07501700
Spot 2    -0.01166021    -0.01280914    -0.07501700
20MABNDB000010_PR021
Spot 1    -0.01157906    -0.01292894    -0.07358200
Spot 2    -0.01175034    -0.01370397    -0.07358200
Spot 1    -0.01157894    -0.01292894    -0.07358200
Spot 2    -0.01119096    -0.01400704    -0.07358200
20MABNDB000010_PR023
Spot 1    -0.01311886    -0.01380234    -0.07358200
Spot 2    -0.01294352    -0.01380117    -0.07358200
Spot 1    -0.01311892    -0.01380227    -0.07358200
Spot 2    -0.01294366    -0.01380140    -0.07358200
20MABNDB000069_PR031
Spot 1    -0.01359390    -0.01286149    -0.07388500
Spot 2    -0.01352054    -0.01286557    -0.07388500
Spot 1    -0.01359346    -0.01286141    -0.07388500
Spot 2    -0.01352169    -0.01286631    -0.07388500
20MABNDB000069_PR033
Spot 1    -0.01202559    -0.01226735    -0.07388500
Spot 2    -0.01155497    -0.01226646    -0.07388500
Spot 1    -0.01202585    -0.01226718    -0.07388500
Spot 2    -0.01155484    -0.01226623    -0.07388500
20MABNDB000131_PR032
Spot 1    -0.01144514    -0.01303903    -0.07533000
Spot 2    -0.01138533    -0.01303543    -0.07533000
Spot 1    -0.01144482    -0.01303916    -0.07533000
Spot 2    -0.01138529    -0.01303556    -0.07533000
20MABNDB000131_PR034
Spot 1    -0.01330170    -0.01379888    -0.07533000
Spot 2    -0.01312555    -0.01379848    -0.07533000
Spot 1    -0.01330182    -0.01379880    -0.07533000
Spot 2    -0.01312568    -0.01379855    -0.07533000
20MABNDA000208_PR042
Spot 1    -0.01349741     0.01357386    -0.07273700
Spot 2    -0.01395113     0.01351100    -0.07273700
Spot 1    -0.01350459     0.01355376    -0.07273700
Spot 2    -0.01376621     0.01360449    -0.07273700
20MABNDA000208_PR046
Spot 1    -0.01233166     0.01179432    -0.07273700
Spot 2    -0.01145694     0.01190875    -0.07273700
Spot 1    -0.01233207     0.01178699    -0.07273700
Spot 2    -0.01145694     0.01190912    -0.07273700
20MABNDA000035_PR044
Spot 1    -0.01157208     0.01300664    -0.07483200
Spot 2    -0.01151391     0.01301189    -0.07483200
Spot 1    -0.01157230     0.01300654    -0.07483200
Spot 2    -0.01151371     0.01301183    -0.07483200
20MABNDA000035_PR045
Spot 1    -0.01336571     0.01381055    -0.07483200
Spot 2    -0.01318835     0.01381050    -0.07483200
Spot 1    -0.01336576     0.01381052    -0.07483200
Spot 2    -0.01318839     0.01381039    -0.07483200


*****************************************************************coordonnees du prisme dans le repere MOUNT********************************************************************************** 
20MABNDL000077_PR002
    0.04942705     0.03066626     3.70693541
    0.05009350     0.04755438     3.70691442
    0.05009370     0.04760107     3.70691442
20MABNDL000077_PR003
    0.02098197     0.02146700     3.89601803
    0.02098552     0.02145762     3.89601803
    0.02096611     0.02146403     3.89601803
20MABNDL000077_20MABNDM000168
   -0.05598550     0.07577161    -5.46843624
   -0.05599532     0.07577838    -5.46843624
   -0.05596746     0.07577361    -5.46843624
20MABNDL000077_PR024
    0.04566111     0.01710258    -5.89639854
    0.04566377     0.01711040    -5.89639854
    0.04567853     0.01711562    -5.89639854
20MABNDM000020_PR013
   -0.00368878    -0.01800904    -3.80243373
   -0.00368640    -0.01810553    -3.80243397
   -0.00368243    -0.01810569    -3.80243397
20MABNDM000020_PR014
   -0.06560349    -0.00497951    -4.74840927
   -0.06560329    -0.00497485    -4.74840927
   -0.06560730    -0.00499080    -4.74840927
20MABNDM000020_20MABNDL000196
    0.05908635    -0.06585830     5.39454842
    0.05907954    -0.06586438     5.39454889
    0.05908993    -0.06586438     5.39454842
20MABNDM000020_PR035
   -0.04243170    -0.00670757     5.80095387
   -0.04241746    -0.00668754     5.80095387
   -0.04240128    -0.00669524     5.80095482
20MABNDM000168_PR025
    0.01054214    -0.07917209    -3.78847384
    0.01054214    -0.07917209    -3.78847384
    0.04070251    -0.07953329    -3.78815842
20MABNDM000168_PR026
   -0.05781879    -0.01391711    -3.98429084
   -0.05782534    -0.01390360    -3.98429012
   -0.05782685    -0.01391688    -3.98429012
20MABNDM000168_20MABNDL000077
    0.01158046    -0.03871154     5.38884687
    0.01155648    -0.03872987     5.38884687
    0.01156376    -0.03874758     5.38884687
20MABNDM000168_PR001
   -0.05734830    -0.01336407     5.81470585
   -0.05734624    -0.01335557     5.81470585
   -0.05734433    -0.01335753     5.81470585
20MABNDL000196_PR036
    0.05135643     0.00610943     3.68777323
    0.05136255     0.00611681     3.68777323
    0.05136377     0.00612319     3.68777323
20MABNDL000196_PR037
   -0.02506188     0.02841619     3.88381338
   -0.02506729     0.02840869     3.88381338
   -0.02506780     0.02840584     3.88381338
20MABNDL000196_20MABNDM000020
   -0.01570649     0.03788466    -5.47473907
   -0.01571641     0.03787800    -5.47473907
   -0.01571847     0.03787328    -5.47473907
20MABNDL000196_PR012
    0.05233545     0.01443900    -5.91537189
    0.05232080     0.01441344    -5.91537189
    0.05232320     0.01442942    -5.91537189
20MABNDA000318_PR004
   -0.00853915     0.03843836     2.74965858
   -0.00854134     0.03843451     2.74965858
   -0.00854572     0.03842826     2.74965906
20MABNDA000334_PR005
   -0.00428832     0.03174788     2.14977145
   -0.00428804     0.03174074     2.14977145
   -0.00428804     0.03174088     2.14977145
20MABNDB000317_PR015
   -0.01726642    -0.03379577     2.75129199
   -0.01726735    -0.03379323     2.75129199
   -0.01726560    -0.03378739     2.75129199
20MABNDB000146_PR016
   -0.01341240    -0.03157006     2.15201473
   -0.01341599    -0.03157093     2.15201473
   -0.01341326    -0.03157309     2.15201473
20MABNDB000135_PR027
   -0.02095705    -0.00980815     2.74937153
   -0.02095440    -0.00980121     2.74937153
   -0.02095850    -0.00980685     2.74937153
20MABNDB000126_PR028
   -0.02030098    -0.03897234     2.14679527
   -0.02030370    -0.03897064     2.14679527
   -0.02030198    -0.03897277     2.14679527
20MABNDA000272_PR038
   -0.01325812     0.01077301     2.74965858
   -0.01325997     0.01076257     2.74965858
   -0.01326253     0.01076459     2.74965858
20MABNDA000003_PR039
   -0.00596650     0.04121942     2.14891577
   -0.00597079     0.04121786     2.14891577
   -0.00596551     0.04121656     2.14891577
20MABNDA000196_PR006
   -0.01013703     0.00987782     1.64206338
   -0.01013936     0.00987523     1.64206338
   -0.01014118     0.00987755     1.64206338
20MABNDA000324_PR007
   -0.02550693     0.02793719     2.95549059
   -0.02550517     0.02793858     2.95549059
   -0.02551252     0.02794128     2.95549011
20MABNDB000001_PR017
   -0.02450436    -0.00283741     1.64035702
   -0.02450176    -0.00283962     1.64035702
   -0.02450071    -0.00283395     1.64035702
20MABNDB000260_PR019
   -0.02401409    -0.03850210     2.95627522
   -0.02403336    -0.03849383     2.95627522
   -0.02403327    -0.03849836     2.95627499
20MABNDB000212_PR029
   -0.02530365    -0.00846402     1.64223862
   -0.02530224    -0.00846480     1.64223862
   -0.02530440    -0.00846258     1.64223862
20MABNDB000128_PR030
   -0.01947467    -0.04674243     2.95496345
   -0.01947233    -0.04673574     2.95496368
   -0.01947253    -0.04673633     2.95496368
20MABNDA000444_PR040
   -0.03025533     0.00092437     1.64490843
   -0.03026052     0.00091915     1.64490843
   -0.03025701     0.00091854     1.64490843
20MABNDA000053_PR041
   -0.02653394     0.05114261     2.95450330
   -0.02649075     0.05111153     2.95450401
   -0.02653766     0.05116291     2.95450306
20MABNDA000188_PR008
    0.13650158    -0.07885031     9.20339394
    0.13650158    -0.07885031     9.20339394
    0.13650158    -0.07885031     9.20339394
20MABNDA000188_PR018
   -0.01616336     0.02579631     1.28358293
   -0.01616354     0.02579596     1.28358293
   -0.01616294     0.02579596     1.28358293
20MABNDA000039_PR009
   -0.17125830     0.02562233    11.00701427
   -0.17123204     0.02560905    11.00701427
   -0.17123847     0.02564638    11.00701427
20MABNDA000039_PR011
    0.03084898    -0.02409665     3.43347478
    0.03085288    -0.02409233     3.43347478
    0.03085106    -0.02409096     3.43347478
20MABNDB000155_PR020
    0.10166244    -0.00959750     9.20028877
    0.10164692    -0.00962902     9.20028877
    0.10168037    -0.00960585     9.20028877
20MABNDB000155_PR022
   -0.02601790    -0.01799565     1.28070235
   -0.02601815    -0.01799625     1.28070235
   -0.02601687    -0.01799597     1.28070235
20MABNDB000010_PR021
   -0.16001755     0.02403461    11.00713158
   -0.20113766     0.04631159    11.00640678
20MABNDB000010_PR023
    0.00405358     0.02074912     3.43376780
    0.00405833     0.02075287     3.43376780
20MABNDB000069_PR031
    0.10231887    -0.03877741     9.20356083
    0.10236290    -0.03873688     9.20356083
20MABNDB000069_PR033
   -0.02683133    -0.02687068     1.28394115
   -0.02683027    -0.02687406     1.28394115
20MABNDB000131_PR032
   -0.18765122    -0.02949353    11.00642586
   -0.18767762    -0.02947467    11.00642586
20MABNDB000131_PR034
    0.01475967     0.01645396     3.43337536
    0.01476537     0.01645376     3.43337536
20MABNDA000208_PR042
    0.11133749    -0.04663913     9.20156479
    0.10042933    -0.05114471     9.20167446
20MABNDA000208_PR046
   -0.02668646     0.03365579     1.28206658
   -0.02668300     0.03371525     1.28206563
20MABNDA000035_PR044
   -0.18018010     0.02579314    11.00802040
   -0.18017855     0.02580483    11.00802040
20MABNDA000035_PR045
    0.01420070    -0.01950712     3.43483520
    0.01420255    -0.01950394     3.43483520


*****************************************************************coordonnees du prisme dans le repere ATLAS********************************************************************************** 
20MABNDL000077_PR002 0.00000000
    2.82637453    -3.69508696     6.48622465
    2.80948663    -3.69441509     6.48622084
    2.80943990    -3.69441485     6.48622084
20MABNDL000077_PR003 0.00000000
    2.83575034    -3.72376823     6.67526293
    2.83575964    -3.72376466     6.67526293
    2.83575320    -3.72378421     6.67526293
20MABNDL000077_20MABNDM000168 0.00000000
    2.77223587    -3.78916454    -2.68922138
    2.77222896    -3.78917456    -2.68922138
    2.77223372    -3.78914666    -2.68922138
20MABNDL000077_PR024 0.00000000
    2.83051729    -3.68700886    -3.11711526
    2.83050966    -3.68700600    -3.11711526
    2.83050442    -3.68699121    -3.11711526
20MABNDM000020_PR013 0.00000000
   -2.83430028    -3.73579526     6.48627615
   -2.83420396    -3.73579764     6.48627663
   -2.83420372    -3.73580170     6.48627663
20MABNDM000020_PR014 0.00000000
   -2.84712172    -3.67459607     7.43230152
   -2.84712625    -3.67459607     7.43230152
   -2.84711027    -3.67459226     7.43230152
20MABNDM000020_20MABNDL000196 0.00000000
   -2.78831077    -3.79159021    -2.71076035
   -2.78830481    -3.79158354    -2.71076083
   -2.78830481    -3.79159379    -2.71076035
20MABNDM000020_PR035 0.00000000
   -2.84751177    -3.68974519    -3.11707664
   -2.84753180    -3.68975925    -3.11707664
   -2.84752417    -3.68977547    -3.11707759
20MABNDM000168_PR025 0.00000000
    2.77406669    -3.75585580    -6.47909212
    2.77406669    -3.75585580    -6.47909212
    2.77369761    -3.78601599    -6.47876549
20MABNDM000168_PR026 0.00000000
    2.83932781    -3.68758512    -6.67493820
    2.83934140    -3.68757844    -6.67493773
    2.83932805    -3.68757701    -6.67493773
20MABNDM000168_20MABNDL000077 0.00000000
    2.81508398    -3.75349259     2.69822621
    2.81506562    -3.75346851     2.69822621
    2.81504798    -3.75347590     2.69822621
20MABNDM000168_PR001 0.00000000
    2.84047556    -3.68441224     3.12405801
    2.84048390    -3.68441415     3.12405801
    2.84048200    -3.68441606     3.12405801
20MABNDL000196_PR036 0.00000000
   -2.84749818    -3.69291806    -6.47909689
   -2.84749079    -3.69291186    -6.47909689
   -2.84748435    -3.69291067    -6.47909689
20MABNDL000196_PR037 0.00000000
   -2.82516003    -3.76950812    -6.67506647
   -2.82516742    -3.76951361    -6.67506647
   -2.82517028    -3.76951408    -6.67506647
20MABNDL000196_20MABNDM000020 0.00000000
   -2.81549358    -3.75144315     2.68347335
   -2.81550026    -3.75145316     2.68347335
   -2.81550503    -3.75145507     2.68347335
20MABNDL000196_PR012 0.00000000
   -2.83896136    -3.68300223     3.12404323
   -2.83898711    -3.68301702     3.12404323
   -2.83897114    -3.68301463     3.12404323
20MABNDA000318_PR004 0.00000000
    2.61446404    -4.19698858     3.83356023
    2.61446190    -4.19698858     3.83356404
    2.61445761    -4.19698811     3.83357048
20MABNDA000334_PR005 0.00000000
    2.61671019    -4.19703150     5.89751291
    2.61671042    -4.19703150     5.89752007
    2.61671042    -4.19703150     5.89752007
20MABNDB000317_PR015 0.00000000
   -2.61134076    -4.19700623     3.83621979
   -2.61133981    -4.19700623     3.83622217
   -2.61134148    -4.19700623     3.83622813
20MABNDB000146_PR016 0.00000000
   -2.61288285    -4.19702291     5.89878035
   -2.61287928    -4.19702291     5.89877939
   -2.61288190    -4.19702291     5.89877701
20MABNDB000135_PR027 0.00000000
    2.60390615    -4.19700384    -3.82555270
    2.60390902    -4.19700384    -3.82555962
    2.60390472    -4.19700384    -3.82555389
20MABNDB000126_PR028 0.00000000
    2.60561633    -4.19702101    -5.89324760
    2.60561347    -4.19702101    -5.89324903
    2.60561538    -4.19702101    -5.89324713
20MABNDA000272_PR038 0.00000000
   -2.61127877    -4.19698286    -3.82771134
   -2.61127687    -4.19698286    -3.82772183
   -2.61127448    -4.19698286    -3.82771969
20MABNDA000003_PR039 0.00000000
   -2.61576462    -4.19702101    -5.89154720
   -2.61576033    -4.19702101    -5.89154863
   -2.61576557    -4.19702101    -5.89155006
20MABNDA000196_PR006 0.00000000
    2.58459759    -4.19496536     6.54783440
    2.58459997    -4.19496536     6.54783154
    2.58460164    -4.19496536     6.54783392
20MABNDA000324_PR007 0.00000000
    2.59380794    -4.13996792     6.94797802
    2.59380960    -4.13996792     6.94797659
    2.59380221    -4.13996840     6.94797373
20MABNDB000001_PR017 0.00000000
   -2.59820557    -4.19506073     6.53816557
   -2.59820318    -4.19506073     6.53816748
   -2.59820199    -4.19506073     6.53816175
20MABNDB000260_PR019 0.00000000
   -2.60474777    -4.13995934     6.94214153
   -2.60472846    -4.13995934     6.94215012
   -2.60472870    -4.13995981     6.94214535
20MABNDB000212_PR029 0.00000000
    2.59898138    -4.19501019    -6.54745197
    2.59897995    -4.19501019    -6.54745245
    2.59898210    -4.19501019    -6.54745054
20MABNDB000128_PR030 0.00000000
    2.60938406    -4.14002657    -6.93137884
    2.60938644    -4.14002609    -6.93138552
    2.60938621    -4.14002609    -6.93138456
20MABNDA000444_PR040 0.00000000
   -2.60542774    -4.19510078    -6.54010439
   -2.60543299    -4.19510078    -6.54009914
   -2.60542965    -4.19510078    -6.54009867
20MABNDA000053_PR041 0.00000000
   -2.59400797    -4.14012718    -6.92677069
   -2.59405112    -4.14012671    -6.92680216
   -2.59400439    -4.14012766    -6.92675066
20MABNDA000188_PR008 0.00000000
    3.54951787     3.84898496     8.09023857
    3.54951787     3.84898496     8.09023857
    3.54951787     3.84898496     8.09023857
20MABNDA000188_PR018 0.00000000
    3.52097321    -4.07059574     7.89765263
    3.52097297    -4.07059574     7.89765310
    3.52097368    -4.07059574     7.89765310
20MABNDA000039_PR009 0.00000000
    3.87543035     3.64747238    12.93691635
    3.87540412     3.64747238    12.93690300
    3.87541032     3.64747238    12.93694019
20MABNDA000039_PR011 0.00000000
    3.66417503    -3.92580104    12.88473988
    3.66417122    -3.92580104    12.88474464
    3.66417313    -3.92580104    12.88474560
20MABNDB000155_PR020 0.00000000
   -3.68031454     3.84882283     7.89726973
   -3.68029904     3.84882283     7.89723825
   -3.68033242     3.84882283     7.89726162
20MABNDB000155_PR022 0.00000000
   -3.53396249    -4.07044172     7.89006376
   -3.53396225    -4.07044172     7.89006329
   -3.53396344    -4.07044172     7.89006329
20MABNDB000010_PR021 0.00000000
   -3.84590530     3.64783335    12.87778091
   -3.88704538     3.64711857    12.85554028
20MABNDB000010_PR023 0.00000000
   -3.68561316    -3.92560887    12.88452721
   -3.68560839    -3.92560887    12.88452339
20MABNDB000069_PR031 0.00000000
    3.68403554     3.84875536    -7.90162516
    3.68407965     3.84875488    -7.90166569
20MABNDB000069_PR033 0.00000000
    3.53346801    -4.07046223    -7.87880087
    3.53346920    -4.07046223    -7.87879753
20MABNDB000131_PR032 0.00000000
    3.86845374     3.64757586   -12.94013596
    3.86848021     3.64757586   -12.94011688
20MABNDB000131_PR034 0.00000000
    3.67302966    -3.92564154   -12.89149380
    3.67302394    -3.92564154   -12.89149380
20MABNDA000208_PR042 0.00000000
   -3.66138268     3.84920740    -7.95811415
   -3.65047216     3.84930754    -7.96261406
20MABNDA000208_PR046 0.00000000
   -3.52907848    -4.07035828    -7.87486076
   -3.52908206    -4.07035923    -7.87480116
20MABNDA000035_PR044 0.00000000
   -3.86942101     3.64757562   -12.93147182
   -3.86941934     3.64757562   -12.93148422
20MABNDA000035_PR045 0.00000000
   -3.67652750    -3.92565203   -12.88687706
   -3.67652559    -3.92565203   -12.88687992


*****************************************************************Rapport********************************************************************************** 
CAM-LBA-US_EBA-US-HO-H         2018.07.03.09.22.07     2.81510035    -3.69463897     6.48622211     0.00797207     0.00031678     0.00000180 0.00000000 VRAI 
CAM-LBA-US_JDA-US-H            2018.07.03.09.22.07     2.83575439    -3.72377237     6.67526293     0.00000389     0.00000850     0.00000000 0.00000000 VRAI 
CAM-LBA-US_CAM-LBC-US          2018.07.03.09.22.07     2.77223285    -3.78916192    -2.68922138     0.00000289     0.00001154     0.00000000 0.00000000 VRAI 
CAM-LBA-US_EBC-US-IP-H         2018.07.03.09.22.07     2.83051046    -3.68700202    -3.11711526     0.00000529     0.00000773     0.00000000 0.00000000 VRAI 
CAM-LBA-USA_EBA-USA-HO-H       2018.07.03.09.22.07    -2.83423599    -3.73579820     6.48627647     0.00004546     0.00000266     0.00000022 0.00000000 VRAI 
CAM-LBA-USA_JDA-USA-H          2018.07.03.09.22.07    -2.84711941    -3.67459480     7.43230152     0.00000672     0.00000180     0.00000000 0.00000000 VRAI 
CAM-LBA-USA_CAM-LBC-USA        2018.07.03.09.22.07    -2.78830679    -3.79158918    -2.71076051     0.00000281     0.00000425     0.00000022 0.00000000 VRAI 
CAM-LBA-USA_EBC-USA-IP-H       2018.07.03.09.22.07    -2.84752258    -3.68975997    -3.11707695     0.00000825     0.00001237     0.00000045 0.00000000 VRAI 
CAM-LBC-US_EBC-US-HO-H         2018.07.03.09.22.07     2.77394366    -3.76590919    -6.47898324     0.00017398     0.01421765     0.00015398 0.00000000 VRAI 
CAM-LBC-US_JDC-US-H            2018.07.03.09.22.07     2.83933242    -3.68758019    -6.67493788     0.00000635     0.00000353     0.00000022 0.00000000 VRAI 
CAM-LBC-US_CAM-LBA-US          2018.07.03.09.22.07     2.81506586    -3.75347900     2.69822621     0.00001470     0.00001007     0.00000000 0.00000000 VRAI 
CAM-LBC-US_EBA-US-IP-H         2018.07.03.09.22.07     2.84048049    -3.68441415     3.12405801     0.00000357     0.00000156     0.00000000 0.00000000 VRAI 
CAM-LBC-USA_EBC-USA-HO-H       2018.07.03.09.22.07    -2.84749111    -3.69291353    -6.47909689     0.00000565     0.00000324     0.00000000 0.00000000 VRAI 
CAM-LBC-USA_JDC-USA-H          2018.07.03.09.22.07    -2.82516591    -3.76951194    -6.67506647     0.00000432     0.00000270     0.00000000 0.00000000 VRAI 
CAM-LBC-USA_CAM-LBA-USA        2018.07.03.09.22.07    -2.81549962    -3.75145046     2.68347335     0.00000469     0.00000523     0.00000000 0.00000000 VRAI 
CAM-LBC-USA_EBA-USA-IP-H       2018.07.03.09.22.07    -2.83897320    -3.68301129     3.12404323     0.00001061     0.00000648     0.00000000 0.00000000 VRAI 
CAM-EBA-US-IP_EBA-US-IP        2018.07.03.09.22.07     2.61446118    -4.19698842     3.83356492     0.00000268     0.00000022     0.00000423 0.00000000 VRAI 
CAM-EBA-US-HO_EBA-US-HO        2018.07.03.09.22.07     2.61671034    -4.19703150     5.89751768     0.00000011     0.00000000     0.00000337 0.00000000 VRAI 
CAM-EBA-USA-IP_EBA-USA-IP      2018.07.03.09.22.07    -2.61134068    -4.19700623     3.83622336     0.00000068     0.00000000     0.00000351 0.00000000 VRAI 
CAM-EBA-USA-HO_EBA-USA-HO      2018.07.03.09.22.07    -2.61288134    -4.19702291     5.89877892     0.00000151     0.00000000     0.00000140 0.00000000 VRAI 
CAM-EBC-US-IP_EBC-US-IP        2018.07.03.09.22.07     2.60390663    -4.19700384    -3.82555540     0.00000178     0.00000000     0.00000302 0.00000000 VRAI 
CAM-EBC-US-HO_EBC-US-HO        2018.07.03.09.22.07     2.60561506    -4.19702101    -5.89324792     0.00000119     0.00000000     0.00000081 0.00000000 VRAI 
CAM-EBC-USA-IP_EBC-USA-IP      2018.07.03.09.22.07    -2.61127671    -4.19698286    -3.82771762     0.00000176     0.00000000     0.00000453 0.00000000 VRAI 
CAM-EBC-USA-HO_EBC-USA-HO      2018.07.03.09.22.07    -2.61576351    -4.19702101    -5.89154863     0.00000228     0.00000000     0.00000117 0.00000000 VRAI 
CAM-JDA-US-IP_JDA-US-IP        2018.07.03.09.22.07     2.58459973    -4.19496536     6.54783328     0.00000166     0.00000000     0.00000125 0.00000000 VRAI 
CAM-JDA-US-HO_JDA-US-HO        2018.07.03.09.22.07     2.59380658    -4.13996808     6.94797611     0.00000316     0.00000022     0.00000178 0.00000000 VRAI 
CAM-JDA-USA-IP_JDA-USA-IP      2018.07.03.09.22.07    -2.59820358    -4.19506073     6.53816493     0.00000149     0.00000000     0.00000238 0.00000000 VRAI 
CAM-JDA-USA-HO_JDA-USA-HO      2018.07.03.09.22.07    -2.60473498    -4.13995949     6.94214567     0.00000905     0.00000022     0.00000351 0.00000000 VRAI 
CAM-JDC-US-IP_JDC-US-IP        2018.07.03.09.22.07     2.59898114    -4.19501019    -6.54745166     0.00000089     0.00000000     0.00000081 0.00000000 VRAI 
CAM-JDC-US-HO_JDC-US-HO        2018.07.03.09.22.07     2.60938557    -4.14002625    -6.93138297     0.00000107     0.00000022     0.00000295 0.00000000 VRAI 
CAM-JDC-USA-IP_JDC-USA-IP      2018.07.03.09.22.07    -2.60543013    -4.19510078    -6.54010073     0.00000217     0.00000000     0.00000259 0.00000000 VRAI 
CAM-JDC-USA-HO_JDC-USA-HO      2018.07.03.09.22.07    -2.59402116    -4.14012718    -6.92677450     0.00002124     0.00000039     0.00002120 0.00000000 VRAI 
CAM-ECTA-US-IP_ECTA-US-IP-T    2018.07.03.09.22.07     3.54951787     3.84898496     8.09023857     0.00000000     0.00000000     0.00000000 0.00000000 VRAI 
CAM-ECTA-US-IP_ECTA-US-IP      2018.07.03.09.22.07     3.52097329    -4.07059574     7.89765294     0.00000030     0.00000000     0.00000022 0.00000000 VRAI 
CAM-ECTA-US-HO_ECTA-US-HO-T    2018.07.03.09.22.07     3.87541493     3.64747238    12.93691985     0.00001119     0.00000000     0.00001538 0.00000000 VRAI 
CAM-ECTA-US-HO_ECTA-US-HO      2018.07.03.09.22.07     3.66417313    -3.92580104    12.88474337     0.00000156     0.00000000     0.00000250 0.00000000 VRAI 
CAM-ECTA-USA-IP_ECTA-USA-IP-T  2018.07.03.09.22.07    -3.68031534     3.84882283     7.89725653     0.00001364     0.00000000     0.00001334 0.00000000 VRAI 
CAM-ECTA-USA-IP_ECTA-USA-IP    2018.07.03.09.22.07    -3.53396273    -4.07044172     7.89006344     0.00000052     0.00000000     0.00000022 0.00000000 VRAI 
CAM-ECTA-USA-HO_ECTA-USA-HO-T  2018.07.03.09.22.07    -3.86647534     3.64747596    12.86666059     0.02057004     0.00035739     0.01112032 0.00000000 VRAI 
CAM-ECTA-USA-HO_ECTA-USA-HO    2018.07.03.09.22.07    -3.68561077    -3.92560887    12.88452530     0.00000238     0.00000000     0.00000191 0.00000000 VRAI 
CAM-ECTC-US-IP_ECTC-US-IP-T    2018.07.03.09.22.07     3.68405759     3.84875512    -7.90164542     0.00002205     0.00000024     0.00002027 0.00000000 VRAI 
CAM-ECTC-US-IP_ECTC-US-IP      2018.07.03.09.22.07     3.53346860    -4.07046223    -7.87879920     0.00000060     0.00000000     0.00000167 0.00000000 VRAI 
CAM-ECTC-US-HO_ECTC-US-HO-T    2018.07.03.09.22.07     3.86846697     3.64757586   -12.94012642     0.00001323     0.00000000     0.00000954 0.00000000 VRAI 
CAM-ECTC-US-HO_ECTC-US-HO      2018.07.03.09.22.07     3.67302680    -3.92564154   -12.89149380     0.00000286     0.00000000     0.00000000 0.00000000 VRAI 
CAM-ECTC-USA-IP_ECTC-USA-IP-T  2018.07.03.09.22.07    -3.65592742     3.84925747    -7.96036410     0.00545526     0.00005007     0.00224996 0.00000000 VRAI 
CAM-ECTC-USA-IP_ECTC-USA-IP    2018.07.03.09.22.07    -3.52908027    -4.07035875    -7.87483096     0.00000179     0.00000048     0.00002980 0.00000000 VRAI 
CAM-ECTC-USA-HO_ECTC-USA-HO-T  2018.07.03.09.22.07    -3.86942017     3.64757562   -12.93147802     0.00000083     0.00000000     0.00000620 0.00000000 VRAI 
CAM-ECTC-USA-HO_ECTC-USA-HO    2018.07.03.09.22.07    -3.67652655    -3.92565203   -12.88687849     0.00000095     0.00000000     0.00000143 0.00000000 VRAI 
