********** Fichier qui contient une sauvegarde des coordonnees images + coordonnees images transformees dans le repere BCAM (MOUNT) + coordonnees des prismes dans le repere MOUNT********** 
********************************************************************** Unite en metres (m)************************************************************************************************** 

*******************************************************************coordonnees images dans le repere CCD *********************************************************************************** 
20MABNDL000077_PR002
Spot 1     0.00121727     0.00149751
Spot 2     0.00032500     0.00012500
Spot 1     0.00121311     0.00150333
Spot 2     0.00032500     0.00012500
Spot 1     0.00121783     0.00149455
Spot 2     0.00032500     0.00012500
Spot 1     0.00121800     0.00146595
Spot 2     0.00032500     0.00012500
Spot 1     0.00121411     0.00149591
Spot 2     0.00032500     0.00012500
20MABNDL000077_PR003
Spot 1     0.00138759     0.00149485
Spot 2     0.00153765     0.00149116
Spot 1     0.00138679     0.00149500
Spot 2     0.00153665     0.00149126
Spot 1     0.00138666     0.00149537
Spot 2     0.00153732     0.00149120
Spot 1     0.00138640     0.00149562
Spot 2     0.00153748     0.00149128
Spot 1     0.00138632     0.00149577
Spot 2     0.00153708     0.00149119
20MABNDL000077_20MABNDM000168
Spot 1     0.00175739     0.00118274
Spot 2     0.00304500     0.00031500
Spot 1     0.00175749     0.00118276
Spot 2     0.00304500     0.00031500
Spot 1     0.00175758     0.00118283
Spot 2     0.00304500     0.00031500
Spot 1     0.00175736     0.00118293
Spot 2     0.00304500     0.00031500
Spot 1     0.00175742     0.00118303
Spot 2     0.00272500     0.00003071
20MABNDL000077_PR024
Spot 1     0.00254345     0.00143317
Spot 2     0.00264097     0.00144441
Spot 1     0.00254316     0.00143340
Spot 2     0.00264118     0.00144485
Spot 1     0.00254337     0.00143337
Spot 2     0.00264114     0.00144476
Spot 1     0.00254340     0.00143353
Spot 2     0.00264120     0.00144490
20MABNDM000020_PR013
Spot 1     0.00139500     0.00007500
Spot 2     0.00079500     0.00018500
Spot 1     0.00141500     0.00013500
Spot 2     0.00117233     0.00009500
Spot 1     0.00141500     0.00013500
Spot 2     0.00117591     0.00008682
Spot 1     0.00141500     0.00013500
Spot 2     0.00160500     0.00021500
20MABNDM000020_PR014
Spot 1     0.00310500     0.00034500
Spot 2     0.00310500     0.00034500
Spot 1     0.00310500     0.00034500
Spot 2     0.00310500     0.00034500
Spot 1     0.00310500     0.00034500
Spot 2     0.00310500     0.00034500
Spot 1     0.00310500     0.00034500
Spot 2     0.00310500     0.00034500
20MABNDM000020_20MABNDL000196
Spot 1     0.00197648     0.00117792
Spot 2     0.00230500     0.00010500
Spot 1     0.00197672     0.00117790
Spot 2     0.00230500     0.00010500
Spot 1     0.00197678     0.00117790
Spot 2     0.00230500     0.00010500
Spot 1     0.00197658     0.00117804
Spot 2     0.00230500     0.00010500
20MABNDM000020_PR035
Spot 1     0.00126907     0.00149467
Spot 2     0.00118698     0.00153169
Spot 1     0.00126924     0.00149456
Spot 2     0.00118685     0.00153173
Spot 1     0.00126947     0.00149468
Spot 2     0.00118700     0.00153187
Spot 1     0.00126983     0.00149434
Spot 2     0.00118710     0.00153202
20MABNDM000168_PR025
Spot 1     0.00100500     0.00023500
Spot 2     0.00100500     0.00023500
Spot 1     0.00141500     0.00013500
Spot 2     0.00141500     0.00013500
Spot 1     0.00100500     0.00023500
Spot 2     0.00141500     0.00013500
Spot 1     0.00100500     0.00023500
Spot 2     0.00100500     0.00023500
20MABNDM000168_PR026
Spot 1     0.00266710     0.00142928
Spot 2     0.00250641     0.00142582
Spot 1     0.00266731     0.00142842
Spot 2     0.00250642     0.00142523
Spot 1     0.00266750     0.00142873
Spot 2     0.00250614     0.00142542
Spot 1     0.00266720     0.00142867
Spot 2     0.00250624     0.00142512
20MABNDM000168_20MABNDL000077
Spot 1     0.00154080     0.00130076
Spot 2     0.00176021     0.00131378
Spot 1     0.00154085     0.00130085
Spot 2     0.00176061     0.00131384
Spot 1     0.00154115     0.00130073
Spot 2     0.00176067     0.00131339
Spot 1     0.00154136     0.00130027
Spot 2     0.00176064     0.00131328
20MABNDM000168_PR001
Spot 1     0.00080792     0.00162093
Spot 2     0.00070538     0.00162274
Spot 1     0.00080806     0.00162088
Spot 2     0.00070537     0.00162270
Spot 1     0.00080794     0.00162091
Spot 2     0.00070589     0.00162263
Spot 1     0.00080800     0.00162072
Spot 2     0.00070573     0.00162249
20MABNDL000196_PR036
Spot 1     0.00094613     0.00163960
Spot 2     0.00111044     0.00163854
Spot 1     0.00094623     0.00163974
Spot 2     0.00111059     0.00163882
Spot 1     0.00094626     0.00163984
Spot 2     0.00111055     0.00163851
Spot 1     0.00094593     0.00163967
Spot 2     0.00110998     0.00163822
20MABNDL000196_PR037
Spot 1     0.00246915     0.00116849
Spot 2     0.00262396     0.00116675
Spot 1     0.00246939     0.00116868
Spot 2     0.00262394     0.00116696
Spot 1     0.00246910     0.00116887
Spot 2     0.00262397     0.00116696
Spot 1     0.00246915     0.00116873
Spot 2     0.00262394     0.00116673
20MABNDL000196_20MABNDM000020
Spot 1     0.00192550     0.00104261
Spot 2     0.00170440     0.00104775
Spot 1     0.00192545     0.00104249
Spot 2     0.00170448     0.00104795
Spot 1     0.00192536     0.00104277
Spot 2     0.00170427     0.00104793
Spot 1     0.00192547     0.00104277
Spot 2     0.00170433     0.00104817
20MABNDL000196_PR012
Spot 1     0.00265122     0.00134231
Spot 2     0.00272315     0.00138723
Spot 1     0.00265127     0.00134272
Spot 2     0.00272305     0.00138738
Spot 1     0.00265107     0.00134240
Spot 2     0.00272311     0.00138722
Spot 1     0.00265131     0.00134274
Spot 2     0.00272329     0.00138743
20MABNDA000318_PR004
Spot 1     0.00214673     0.00162492
Spot 2     0.00192858     0.00162542
Spot 1     0.00214657     0.00162510
Spot 2     0.00192823     0.00162563
Spot 1     0.00214673     0.00162492
Spot 2     0.00192833     0.00162554
Spot 1     0.00214654     0.00162496
Spot 2     0.00192873     0.00162556
20MABNDA000334_PR005
Spot 1     0.00247246     0.00158522
Spot 2     0.00219226     0.00158575
Spot 1     0.00247249     0.00158529
Spot 2     0.00219248     0.00158565
Spot 1     0.00247265     0.00158511
Spot 2     0.00219219     0.00158575
Spot 1     0.00247290     0.00158517
Spot 2     0.00219223     0.00158568
20MABNDB000317_PR015
Spot 1     0.00148883     0.00160012
Spot 2     0.00170822     0.00159332
Spot 1     0.00148881     0.00160017
Spot 2     0.00170829     0.00159332
Spot 1     0.00148888     0.00160010
Spot 2     0.00170827     0.00159327
Spot 1     0.00148875     0.00160003
Spot 2     0.00170809     0.00159333
20MABNDB000146_PR016
Spot 1     0.00144901     0.00133116
Spot 2     0.00172460     0.00133555
Spot 1     0.00144930     0.00133113
Spot 2     0.00172447     0.00133511
Spot 1     0.00144913     0.00133102
Spot 2     0.00172466     0.00133549
Spot 1     0.00144904     0.00133114
Spot 2     0.00172440     0.00133540
20MABNDB000135_PR027
Spot 1     0.00189229     0.00091610
Spot 2     0.00211025     0.00091801
Spot 1     0.00189203     0.00091597
Spot 2     0.00211003     0.00091775
Spot 1     0.00189194     0.00091619
Spot 2     0.00211011     0.00091778
Spot 1     0.00189208     0.00091615
Spot 2     0.00211012     0.00091795
20MABNDB000126_PR028
Spot 1     0.00164602     0.00201059
Spot 2     0.00192808     0.00201237
Spot 1     0.00164605     0.00201062
Spot 2     0.00192812     0.00201266
Spot 1     0.00164595     0.00201071
Spot 2     0.00192813     0.00201254
Spot 1     0.00164583     0.00201071
Spot 2     0.00192807     0.00201254
20MABNDA000272_PR038
Spot 1     0.00192424     0.00095557
Spot 2     0.00170362     0.00095457
Spot 1     0.00192400     0.00095560
Spot 2     0.00170328     0.00095454
Spot 1     0.00192409     0.00095533
Spot 2     0.00170340     0.00095447
Spot 1     0.00192443     0.00095533
Spot 2     0.00170340     0.00095447
20MABNDA000003_PR039
Spot 1     0.00200101     0.00193141
Spot 2     0.00227891     0.00193196
Spot 1     0.00200093     0.00193146
Spot 2     0.00227902     0.00193193
Spot 1     0.00200105     0.00193155
Spot 2     0.00227897     0.00193206
Spot 1     0.00200117     0.00193146
Spot 2     0.00227900     0.00193200
20MABNDA000196_PR006
Spot 1     0.00198605     0.00074317
Spot 2     0.00161975     0.00074045
Spot 1     0.00198588     0.00074310
Spot 2     0.00161993     0.00074057
Spot 1     0.00198588     0.00074325
Spot 2     0.00161982     0.00074063
Spot 1     0.00198620     0.00074325
Spot 2     0.00161972     0.00074049
20MABNDA000324_PR007
Spot 1     0.00194728     0.00120347
Spot 2     0.00174193     0.00120931
Spot 1     0.00194740     0.00120339
Spot 2     0.00174176     0.00120917
Spot 1     0.00194711     0.00120371
Spot 2     0.00174188     0.00120928
Spot 1     0.00194694     0.00120332
Spot 2     0.00174179     0.00120938
20MABNDB000001_PR017
Spot 1     0.00188747     0.00043704
Spot 2     0.00225566     0.00044664
Spot 1     0.00188756     0.00043695
Spot 2     0.00225563     0.00044650
Spot 1     0.00188756     0.00043685
Spot 2     0.00225538     0.00044665
Spot 1     0.00188762     0.00043694
Spot 2     0.00225537     0.00044660
20MABNDB000260_PR019
Spot 1     0.00192212     0.00150580
Spot 2     0.00212596     0.00150617
Spot 1     0.00192206     0.00150574
Spot 2     0.00212579     0.00150612
Spot 1     0.00192238     0.00150550
Spot 2     0.00212614     0.00150614
Spot 1     0.00192249     0.00150556
Spot 2     0.00212612     0.00150601
20MABNDB000212_PR029
Spot 1     0.00223617     0.00069378
Spot 2     0.00187438     0.00069575
Spot 1     0.00223598     0.00069383
Spot 2     0.00187420     0.00069567
Spot 1     0.00223585     0.00069394
Spot 2     0.00187405     0.00069536
Spot 1     0.00223619     0.00069373
Spot 2     0.00187419     0.00069605
20MABNDB000128_PR030
Spot 1     0.00190043     0.00200190
Spot 2     0.00210510     0.00199702
Spot 1     0.00190046     0.00200210
Spot 2     0.00210521     0.00199696
Spot 1     0.00190031     0.00200191
Spot 2     0.00210544     0.00199694
Spot 1     0.00190022     0.00200186
Spot 2     0.00210544     0.00199690
20MABNDA000444_PR040
Spot 1     0.00075996     0.00035376
Spot 2     0.00112671     0.00035118
Spot 1     0.00076003     0.00035386
Spot 2     0.00112663     0.00035093
Spot 1     0.00075997     0.00035384
Spot 2     0.00112688     0.00035100
Spot 1     0.00075990     0.00035393
Spot 2     0.00112698     0.00035081
20MABNDA000053_PR041
Spot 1     0.00166250     0.00198422
Spot 2     0.00144623     0.00197846
Spot 1     0.00166299     0.00198444
Spot 2     0.00144663     0.00197849
Spot 1     0.00166254     0.00198427
Spot 2     0.00144638     0.00197831
Spot 1     0.00166264     0.00198425
Spot 2     0.00144635     0.00197849
20MABNDB000069_PR031
Spot 1     0.00021500     0.00240500
Spot 2     0.00021500     0.00240500
Spot 1     0.00021500     0.00240500
Spot 2     0.00021500     0.00240500
Spot 1     0.00021500     0.00240500
Spot 2     0.00021500     0.00240500
Spot 1     0.00021500     0.00240500
Spot 2     0.00021500     0.00240500
20MABNDB000069_PR033
Spot 1     0.00182292     0.00206057
Spot 2     0.00229268     0.00208021
Spot 1     0.00182272     0.00206049
Spot 2     0.00229284     0.00208041
Spot 1     0.00182305     0.00206068
Spot 2     0.00229271     0.00208042
Spot 1     0.00182298     0.00206068
Spot 2     0.00229262     0.00208028
20MABNDB000131_PR032
Spot 1     0.00277756     0.00107815
Spot 2     0.00283678     0.00108193
Spot 1     0.00277736     0.00107805
Spot 2     0.00283697     0.00108178
Spot 1     0.00277739     0.00107818
Spot 2     0.00283658     0.00108164
Spot 1     0.00277714     0.00107794
Spot 2     0.00283657     0.00108185
20MABNDB000131_PR034
Spot 1     0.00092449     0.00032836
Spot 2     0.00110039     0.00032718
Spot 1     0.00092432     0.00032833
Spot 2     0.00110038     0.00032725
Spot 1     0.00092424     0.00032840
Spot 2     0.00110035     0.00032726
Spot 1     0.00092423     0.00032827
Spot 2     0.00110033     0.00032717
20MABNDA000208_PR042
Spot 1     0.00305772     0.00095239
Spot 2     0.00299405     0.00095021
Spot 1     0.00305834     0.00095205
Spot 2     0.00299388     0.00094998
Spot 1     0.00305793     0.00095224
Spot 2     0.00299380     0.00094981
Spot 1     0.00305780     0.00095243
Spot 2     0.00299398     0.00094969
20MABNDA000208_PR046
Spot 1     0.00144748     0.00219236
Spot 2     0.00097410     0.00219291
Spot 1     0.00144746     0.00219241
Spot 2     0.00097414     0.00219306
Spot 1     0.00144738     0.00219227
Spot 2     0.00097411     0.00219293
Spot 1     0.00144740     0.00219227
Spot 2     0.00097416     0.00219299
20MABNDA000035_PR044
Spot 1     0.00073831     0.00125789
Spot 2     0.00068148     0.00125165
Spot 1     0.00073770     0.00125787
Spot 2     0.00068137     0.00125143
Spot 1     0.00073829     0.00125809
Spot 2     0.00068167     0.00125176
Spot 1     0.00073795     0.00125792
Spot 2     0.00068090     0.00125158
20MABNDA000035_PR045
Spot 1     0.00254565     0.00047571
Spot 2     0.00236817     0.00047445
Spot 1     0.00254553     0.00047558
Spot 2     0.00236810     0.00047459
Spot 1     0.00254547     0.00047531
Spot 2     0.00236819     0.00047463
Spot 1     0.00254552     0.00047548
Spot 2     0.00236807     0.00047454
20MABNDA000188_PR008
Spot 1     0.00289500     0.00025500
Spot 2     0.00289500     0.00025500
Spot 1     0.00289500     0.00025500
Spot 2     0.00289500     0.00025500
Spot 1     0.00289500     0.00025500
Spot 2     0.00289500     0.00025500
Spot 1     0.00289500     0.00025500
Spot 2     0.00289500     0.00025500
20MABNDA000188_PR018
Spot 1     0.00166857     0.00176043
Spot 2     0.00120156     0.00175790
Spot 1     0.00166832     0.00176078
Spot 2     0.00120149     0.00175789
Spot 1     0.00166843     0.00176049
Spot 2     0.00120137     0.00175786
Spot 1     0.00166879     0.00176056
Spot 2     0.00120136     0.00175788
20MABNDA000039_PR009
Spot 1     0.00066424     0.00117698
Spot 2     0.00061757     0.00118136
Spot 1     0.00066419     0.00117711
Spot 2     0.00061792     0.00118117
Spot 1     0.00066406     0.00117702
Spot 2     0.00061744     0.00118150
Spot 1     0.00066436     0.00117684
Spot 2     0.00061702     0.00118153
20MABNDA000039_PR011
Spot 1     0.00276759     0.00028282
Spot 2     0.00259244     0.00027827
Spot 1     0.00276786     0.00028289
Spot 2     0.00259239     0.00027813
Spot 1     0.00276790     0.00028290
Spot 2     0.00259235     0.00027828
Spot 1     0.00276783     0.00028321
Spot 2     0.00259243     0.00027813
20MABNDB000155_PR020
Spot 1     0.00062095     0.00113014
Spot 2     0.00068514     0.00112617
Spot 1     0.00062059     0.00113000
Spot 2     0.00068535     0.00112632
Spot 1     0.00062111     0.00113051
Spot 2     0.00068536     0.00112722
Spot 1     0.00062144     0.00113019
Spot 2     0.00068527     0.00112612
20MABNDB000155_PR022
Spot 1     0.00211023     0.00139601
Spot 2     0.00258326     0.00139107
Spot 1     0.00211025     0.00139595
Spot 2     0.00258331     0.00139117
Spot 1     0.00211022     0.00139609
Spot 2     0.00258340     0.00139123
Spot 1     0.00211023     0.00139616
Spot 2     0.00258330     0.00139122
20MABNDB000010_PR021
Spot 1     0.00286994     0.00115345
Spot 2     0.00292341     0.00115605
Spot 1     0.00286989     0.00115353
Spot 2     0.00292339     0.00115611
Spot 1     0.00287010     0.00115376
Spot 2     0.00292346     0.00115592
Spot 1     0.00287019     0.00115343
Spot 2     0.00292352     0.00115628
20MABNDB000010_PR023
Spot 1     0.00131242     0.00031462
Spot 2     0.00148746     0.00031350
Spot 1     0.00131212     0.00031486
Spot 2     0.00148754     0.00031354
Spot 1     0.00131235     0.00031450
Spot 2     0.00148721     0.00031347
Spot 1     0.00131226     0.00031463
Spot 2     0.00148739     0.00031331


****************************************************************coordonnees images transformees dans le repere MOUNT************************************************************************* 
20MABNDL000077_PR002
Spot 1     0.01228755     0.03556891    -0.07463200
Spot 2     0.01138211     0.03420505    -0.07463200
Spot 1     0.01228345     0.03557477    -0.07463200
Spot 2     0.01138211     0.03420505    -0.07463200
Spot 1     0.01228808     0.03556595    -0.07463200
Spot 2     0.01138211     0.03420505    -0.07463200
Spot 1     0.01228798     0.03553735    -0.07463200
Spot 2     0.01138211     0.03420505    -0.07463200
Spot 1     0.01228438     0.03556734    -0.07463200
Spot 2     0.01138211     0.03420505    -0.07463200
20MABNDL000077_PR003
Spot 1     0.01245784     0.03556462    -0.07463200
Spot 2     0.01260785     0.03555948    -0.07463200
Spot 1     0.01245704     0.03556477    -0.07463200
Spot 2     0.01260686     0.03555959    -0.07463200
Spot 1     0.01245691     0.03556514    -0.07463200
Spot 2     0.01260753     0.03555952    -0.07463200
Spot 1     0.01245665     0.03556540    -0.07463200
Spot 2     0.01260769     0.03555960    -0.07463200
Spot 1     0.01245658     0.03556555    -0.07463200
Spot 2     0.01260729     0.03555952    -0.07463200
20MABNDL000077_20MABNDM000168
Spot 1    -0.01259252     0.03524572    -0.00695400
Spot 2    -0.01387118     0.03436485    -0.00695400
Spot 1    -0.01259262     0.03524574    -0.00695400
Spot 2    -0.01387118     0.03436485    -0.00695400
Spot 1    -0.01259271     0.03524581    -0.00695400
Spot 2    -0.01387118     0.03436485    -0.00695400
Spot 1    -0.01259249     0.03524591    -0.00695400
Spot 2    -0.01387118     0.03436485    -0.00695400
Spot 1    -0.01259255     0.03524601    -0.00695400
Spot 2    -0.01354829     0.03408385    -0.00695400
20MABNDL000077_PR024
Spot 1    -0.01338110     0.03548809    -0.00695400
Spot 2    -0.01347873     0.03549833    -0.00695400
Spot 1    -0.01338081     0.03548833    -0.00695400
Spot 2    -0.01347895     0.03549877    -0.00695400
Spot 1    -0.01338102     0.03548829    -0.00695400
Spot 2    -0.01347890     0.03549868    -0.00695400
Spot 1    -0.01338105     0.03548845    -0.00695400
Spot 2    -0.01347897     0.03549882    -0.00695400
20MABNDM000020_PR013
Spot 1    -0.01299599    -0.03403917    -0.00523500
Spot 2    -0.01359341    -0.03416241    -0.00523500
Spot 1    -0.01297467    -0.03409871    -0.00523500
Spot 2    -0.01321817    -0.03406409    -0.00523500
Spot 1    -0.01297467    -0.03409871    -0.00523500
Spot 2    -0.01321477    -0.03405583    -0.00523500
Spot 1    -0.01297467    -0.03409871    -0.00523500
Spot 2    -0.01278295    -0.03417449    -0.00523500
20MABNDM000020_PR014
Spot 1    -0.01128044    -0.03427129    -0.00523500
Spot 2    -0.01128044    -0.03427129    -0.00523500
Spot 1    -0.01128044    -0.03427129    -0.00523500
Spot 2    -0.01128044    -0.03427129    -0.00523500
Spot 1    -0.01128044    -0.03427129    -0.00523500
Spot 2    -0.01128044    -0.03427129    -0.00523500
Spot 1    -0.01128044    -0.03427129    -0.00523500
Spot 2    -0.01128044    -0.03427129    -0.00523500
20MABNDM000020_20MABNDL000196
Spot 1     0.01270980    -0.03514648    -0.07583800
Spot 2     0.01238113    -0.03407361    -0.07583800
Spot 1     0.01270956    -0.03514646    -0.07583800
Spot 2     0.01238113    -0.03407361    -0.07583800
Spot 1     0.01270950    -0.03514646    -0.07583800
Spot 2     0.01238113    -0.03407361    -0.07583800
Spot 1     0.01270970    -0.03514660    -0.07583800
Spot 2     0.01238113    -0.03407361    -0.07583800
20MABNDM000020_PR035
Spot 1     0.01341725    -0.03546314    -0.07583800
Spot 2     0.01349935    -0.03550014    -0.07583800
Spot 1     0.01341708    -0.03546303    -0.07583800
Spot 2     0.01349948    -0.03550018    -0.07583800
Spot 1     0.01341685    -0.03546315    -0.07583800
Spot 2     0.01349933    -0.03550032    -0.07583800
Spot 1     0.01341649    -0.03546281    -0.07583800
Spot 2     0.01349923    -0.03550047    -0.07583800
20MABNDM000168_PR025
Spot 1    -0.01340245    -0.03457293    -0.00532900
Spot 2    -0.01340245    -0.03457293    -0.00532900
Spot 1    -0.01299288    -0.03447117    -0.00532900
Spot 2    -0.01299288    -0.03447117    -0.00532900
Spot 1    -0.01340245    -0.03457293    -0.00532900
Spot 2    -0.01299288    -0.03447117    -0.00532900
Spot 1    -0.01340245    -0.03457293    -0.00532900
Spot 2    -0.01340245    -0.03457293    -0.00532900
20MABNDM000168_PR026
Spot 1    -0.01173523    -0.03576006    -0.00532900
Spot 2    -0.01189594    -0.03575729    -0.00532900
Spot 1    -0.01173503    -0.03575920    -0.00532900
Spot 2    -0.01189593    -0.03575670    -0.00532900
Spot 1    -0.01173484    -0.03575951    -0.00532900
Spot 2    -0.01189621    -0.03575689    -0.00532900
Spot 1    -0.01173514    -0.03575945    -0.00532900
Spot 2    -0.01189611    -0.03575659    -0.00532900
20MABNDM000168_20MABNDL000077
Spot 1     0.01288465    -0.03530140    -0.07445100
Spot 2     0.01266507    -0.03531121    -0.07445100
Spot 1     0.01288460    -0.03530149    -0.07445100
Spot 2     0.01266467    -0.03531127    -0.07445100
Spot 1     0.01288430    -0.03530137    -0.07445100
Spot 2     0.01266462    -0.03531081    -0.07445100
Spot 1     0.01288410    -0.03530090    -0.07445100
Spot 2     0.01266465    -0.03531071    -0.07445100
20MABNDM000168_PR001
Spot 1     0.01361277    -0.03563226    -0.07445100
Spot 2     0.01371527    -0.03563557    -0.07445100
Spot 1     0.01361263    -0.03563221    -0.07445100
Spot 2     0.01371528    -0.03563553    -0.07445100
Spot 1     0.01361275    -0.03563224    -0.07445100
Spot 2     0.01371476    -0.03563545    -0.07445100
Spot 1     0.01361269    -0.03563205    -0.07445100
Spot 2     0.01371493    -0.03563532    -0.07445100
20MABNDL000196_PR036
Spot 1     0.01192605     0.03582830    -0.07483600
Spot 2     0.01209037     0.03582758    -0.07483600
Spot 1     0.01192615     0.03582844    -0.07483600
Spot 2     0.01209052     0.03582786    -0.07483600
Spot 1     0.01192618     0.03582854    -0.07483600
Spot 2     0.01209048     0.03582755    -0.07483600
Spot 1     0.01192585     0.03582837    -0.07483600
Spot 2     0.01208991     0.03582726    -0.07483600
20MABNDL000196_PR037
Spot 1     0.01345005     0.03536037    -0.07483600
Spot 2     0.01360487     0.03535895    -0.07483600
Spot 1     0.01345029     0.03536056    -0.07483600
Spot 2     0.01360485     0.03535916    -0.07483600
Spot 1     0.01345000     0.03536075    -0.07483600
Spot 2     0.01360488     0.03535916    -0.07483600
Spot 1     0.01345005     0.03536061    -0.07483600
Spot 2     0.01360485     0.03535893    -0.07483600
20MABNDL000196_20MABNDM000020
Spot 1    -0.01274957     0.03531382    -0.00611000
Spot 2    -0.01252862     0.03532341    -0.00611000
Spot 1    -0.01274952     0.03531370    -0.00611000
Spot 2    -0.01252870     0.03532361    -0.00611000
Spot 1    -0.01274944     0.03531398    -0.00611000
Spot 2    -0.01252849     0.03532359    -0.00611000
Spot 1    -0.01274955     0.03531398    -0.00611000
Spot 2    -0.01252856     0.03532383    -0.00611000
20MABNDL000196_PR012
Spot 1    -0.01348118     0.03559886    -0.00611000
Spot 2    -0.01355399     0.03564232    -0.00611000
Spot 1    -0.01348123     0.03559927    -0.00611000
Spot 2    -0.01355390     0.03564247    -0.00611000
Spot 1    -0.01348103     0.03559895    -0.00611000
Spot 2    -0.01355395     0.03564231    -0.00611000
Spot 1    -0.01348127     0.03559929    -0.00611000
Spot 2    -0.01355414     0.03564252    -0.00611000
20MABNDA000318_PR004
Spot 1    -0.01286655     0.01247031    -0.07310600
Spot 2    -0.01264840     0.01247045    -0.07310600
Spot 1    -0.01286639     0.01247013    -0.07310600
Spot 2    -0.01264805     0.01247024    -0.07310600
Spot 1    -0.01286655     0.01247031    -0.07310600
Spot 2    -0.01264815     0.01247033    -0.07310600
Spot 1    -0.01286636     0.01247027    -0.07310600
Spot 2    -0.01264855     0.01247031    -0.07310600
20MABNDA000334_PR005
Spot 1    -0.01311557     0.01254317    -0.07324100
Spot 2    -0.01283537     0.01254238    -0.07324100
Spot 1    -0.01311560     0.01254310    -0.07324100
Spot 2    -0.01283559     0.01254248    -0.07324100
Spot 1    -0.01311576     0.01254328    -0.07324100
Spot 2    -0.01283530     0.01254238    -0.07324100
Spot 1    -0.01311601     0.01254322    -0.07324100
Spot 2    -0.01283534     0.01254245    -0.07324100
20MABNDB000317_PR015
Spot 1    -0.01266546    -0.01249791    -0.07326100
Spot 2    -0.01244601    -0.01250216    -0.07326100
Spot 1    -0.01266548    -0.01249786    -0.07326100
Spot 2    -0.01244594    -0.01250216    -0.07326100
Spot 1    -0.01266541    -0.01249793    -0.07326100
Spot 2    -0.01244596    -0.01250221    -0.07326100
Spot 1    -0.01266554    -0.01249800    -0.07326100
Spot 2    -0.01244614    -0.01250215    -0.07326100
20MABNDB000146_PR016
Spot 1    -0.01275935    -0.01246244    -0.07450500
Spot 2    -0.01248377    -0.01245744    -0.07450500
Spot 1    -0.01275906    -0.01246247    -0.07450500
Spot 2    -0.01248390    -0.01245788    -0.07450500
Spot 1    -0.01275923    -0.01246258    -0.07450500
Spot 2    -0.01248371    -0.01245750    -0.07450500
Spot 1    -0.01275932    -0.01246246    -0.07450500
Spot 2    -0.01248397    -0.01245759    -0.07450500
20MABNDB000135_PR027
Spot 1    -0.01251238    -0.01319693    -0.07464700
Spot 2    -0.01229441    -0.01319745    -0.07464700
Spot 1    -0.01251264    -0.01319706    -0.07464700
Spot 2    -0.01229464    -0.01319771    -0.07464700
Spot 1    -0.01251273    -0.01319684    -0.07464700
Spot 2    -0.01229456    -0.01319768    -0.07464700
Spot 1    -0.01251259    -0.01319688    -0.07464700
Spot 2    -0.01229454    -0.01319751    -0.07464700
20MABNDB000126_PR028
Spot 1    -0.01253352    -0.01217157    -0.07500400
Spot 2    -0.01225148    -0.01216829    -0.07500400
Spot 1    -0.01253349    -0.01217154    -0.07500400
Spot 2    -0.01225144    -0.01216800    -0.07500400
Spot 1    -0.01253359    -0.01217145    -0.07500400
Spot 2    -0.01225143    -0.01216812    -0.07500400
Spot 1    -0.01253371    -0.01217146    -0.07500400
Spot 2    -0.01225149    -0.01216812    -0.07500400
20MABNDA000272_PR038
Spot 1    -0.01275990     0.01315590    -0.07417900
Spot 2    -0.01253928     0.01315651    -0.07417900
Spot 1    -0.01275966     0.01315587    -0.07417900
Spot 2    -0.01253894     0.01315654    -0.07417900
Spot 1    -0.01275975     0.01315614    -0.07417900
Spot 2    -0.01253906     0.01315661    -0.07417900
Spot 1    -0.01276009     0.01315614    -0.07417900
Spot 2    -0.01253906     0.01315661    -0.07417900
20MABNDA000003_PR039
Spot 1    -0.01280211     0.01212086    -0.07373400
Spot 2    -0.01308001     0.01212101    -0.07373400
Spot 1    -0.01280203     0.01212081    -0.07373400
Spot 2    -0.01308012     0.01212104    -0.07373400
Spot 1    -0.01280215     0.01212072    -0.07373400
Spot 2    -0.01308007     0.01212091    -0.07373400
Spot 1    -0.01280227     0.01212081    -0.07373400
Spot 2    -0.01308010     0.01212097    -0.07373400
20MABNDA000196_PR006
Spot 1    -0.01294094     0.01323506    -0.07967100
Spot 2    -0.01257463     0.01323307    -0.07967100
Spot 1    -0.01294076     0.01323512    -0.07967100
Spot 2    -0.01257481     0.01323295    -0.07967100
Spot 1    -0.01294077     0.01323497    -0.07967100
Spot 2    -0.01257470     0.01323289    -0.07967100
Spot 1    -0.01294109     0.01323498    -0.07967100
Spot 2    -0.01257460     0.01323303    -0.07967100
20MABNDA000324_PR007
Spot 1    -0.01255306     0.01281811    -0.07446800
Spot 2    -0.01234767     0.01281387    -0.07446800
Spot 1    -0.01255318     0.01281819    -0.07446800
Spot 2    -0.01234750     0.01281401    -0.07446800
Spot 1    -0.01255289     0.01281787    -0.07446800
Spot 2    -0.01234762     0.01281390    -0.07446800
Spot 1    -0.01255272     0.01281826    -0.07446800
Spot 2    -0.01234753     0.01281380    -0.07446800
20MABNDB000001_PR017
Spot 1    -0.01230091    -0.01355249    -0.07418400
Spot 2    -0.01193264    -0.01354679    -0.07418400
Spot 1    -0.01230082    -0.01355258    -0.07418400
Spot 2    -0.01193267    -0.01354693    -0.07418400
Spot 1    -0.01230082    -0.01355268    -0.07418400
Spot 2    -0.01193292    -0.01354677    -0.07418400
Spot 1    -0.01230076    -0.01355259    -0.07418400
Spot 2    -0.01193293    -0.01354682    -0.07418400
20MABNDB000260_PR019
Spot 1    -0.01240928    -0.01239675    -0.07492700
Spot 2    -0.01220549    -0.01239220    -0.07492700
Spot 1    -0.01240934    -0.01239681    -0.07492700
Spot 2    -0.01220566    -0.01239226    -0.07492700
Spot 1    -0.01240902    -0.01239705    -0.07492700
Spot 2    -0.01220531    -0.01239223    -0.07492700
Spot 1    -0.01240891    -0.01239698    -0.07492700
Spot 2    -0.01220533    -0.01239236    -0.07492700
20MABNDB000212_PR029
Spot 1    -0.01185175    -0.01328752    -0.07390500
Spot 2    -0.01221350    -0.01328168    -0.07390500
Spot 1    -0.01185194    -0.01328746    -0.07390500
Spot 2    -0.01221368    -0.01328176    -0.07390500
Spot 1    -0.01185207    -0.01328735    -0.07390500
Spot 2    -0.01221383    -0.01328207    -0.07390500
Spot 1    -0.01185173    -0.01328757    -0.07390500
Spot 2    -0.01221369    -0.01328138    -0.07390500
20MABNDB000128_PR030
Spot 1    -0.01245469    -0.01221542    -0.07353400
Spot 2    -0.01225001    -0.01221959    -0.07353400
Spot 1    -0.01245467    -0.01221522    -0.07353400
Spot 2    -0.01224990    -0.01221965    -0.07353400
Spot 1    -0.01245481    -0.01221541    -0.07353400
Spot 2    -0.01224967    -0.01221967    -0.07353400
Spot 1    -0.01245490    -0.01221546    -0.07353400
Spot 2    -0.01224967    -0.01221971    -0.07353400
20MABNDA000444_PR040
Spot 1    -0.01169979     0.01367587    -0.07412000
Spot 2    -0.01206654     0.01367379    -0.07412000
Spot 1    -0.01169986     0.01367577    -0.07412000
Spot 2    -0.01206647     0.01367404    -0.07412000
Spot 1    -0.01169980     0.01367579    -0.07412000
Spot 2    -0.01206671     0.01367397    -0.07412000
Spot 1    -0.01169973     0.01367570    -0.07412000
Spot 2    -0.01206682     0.01367416    -0.07412000
20MABNDA000053_PR041
Spot 1    -0.01241904     0.01212642    -0.07430100
Spot 2    -0.01220269     0.01212796    -0.07430100
Spot 1    -0.01241953     0.01212621    -0.07430100
Spot 2    -0.01220310     0.01212794    -0.07430100
Spot 1    -0.01241908     0.01212637    -0.07430100
Spot 2    -0.01220284     0.01212811    -0.07430100
Spot 1    -0.01241918     0.01212640    -0.07430100
Spot 2    -0.01220282     0.01212793    -0.07430100
20MABNDB000069_PR031
Spot 1    -0.01361993    -0.01186066    -0.07388500
Spot 2    -0.01361993    -0.01186066    -0.07388500
Spot 1    -0.01361993    -0.01186066    -0.07388500
Spot 2    -0.01361993    -0.01186066    -0.07388500
Spot 1    -0.01361993    -0.01186066    -0.07388500
Spot 2    -0.01361993    -0.01186066    -0.07388500
Spot 1    -0.01361993    -0.01186066    -0.07388500
Spot 2    -0.01361993    -0.01186066    -0.07388500
20MABNDB000069_PR033
Spot 1    -0.01202759    -0.01227116    -0.07388500
Spot 2    -0.01155742    -0.01227092    -0.07388500
Spot 1    -0.01202779    -0.01227123    -0.07388500
Spot 2    -0.01155725    -0.01227072    -0.07388500
Spot 1    -0.01202746    -0.01227105    -0.07388500
Spot 2    -0.01155738    -0.01227071    -0.07388500
Spot 1    -0.01202753    -0.01227105    -0.07388500
Spot 2    -0.01155748    -0.01227085    -0.07388500
20MABNDB000131_PR032
Spot 1    -0.01144259    -0.01303660    -0.07533000
Spot 2    -0.01138339    -0.01303252    -0.07533000
Spot 1    -0.01144279    -0.01303670    -0.07533000
Spot 2    -0.01138320    -0.01303267    -0.07533000
Spot 1    -0.01144276    -0.01303657    -0.07533000
Spot 2    -0.01138359    -0.01303281    -0.07533000
Spot 1    -0.01144301    -0.01303681    -0.07533000
Spot 2    -0.01138360    -0.01303260    -0.07533000
20MABNDB000131_PR034
Spot 1    -0.01329186    -0.01379571    -0.07533000
Spot 2    -0.01311596    -0.01379601    -0.07533000
Spot 1    -0.01329203    -0.01379574    -0.07533000
Spot 2    -0.01311597    -0.01379594    -0.07533000
Spot 1    -0.01329211    -0.01379567    -0.07533000
Spot 2    -0.01311600    -0.01379593    -0.07533000
Spot 1    -0.01329212    -0.01379580    -0.07533000
Spot 2    -0.01311602    -0.01379602    -0.07533000
20MABNDA000208_PR042
Spot 1    -0.01392844     0.01304363    -0.07273700
Spot 2    -0.01386477     0.01304587    -0.07273700
Spot 1    -0.01392906     0.01304397    -0.07273700
Spot 2    -0.01386460     0.01304610    -0.07273700
Spot 1    -0.01392865     0.01304378    -0.07273700
Spot 2    -0.01386452     0.01304627    -0.07273700
Spot 1    -0.01392852     0.01304359    -0.07273700
Spot 2    -0.01386470     0.01304639    -0.07273700
20MABNDA000208_PR046
Spot 1    -0.01231711     0.01180507    -0.07273700
Spot 2    -0.01184373     0.01180494    -0.07273700
Spot 1    -0.01231709     0.01180502    -0.07273700
Spot 2    -0.01184377     0.01180479    -0.07273700
Spot 1    -0.01231701     0.01180516    -0.07273700
Spot 2    -0.01184374     0.01180492    -0.07273700
Spot 1    -0.01231703     0.01180516    -0.07273700
Spot 2    -0.01184379     0.01180486    -0.07273700
20MABNDA000035_PR044
Spot 1    -0.01157296     0.01299936    -0.07483200
Spot 2    -0.01151609     0.01300519    -0.07483200
Spot 1    -0.01157235     0.01299937    -0.07483200
Spot 2    -0.01151598     0.01300541    -0.07483200
Spot 1    -0.01157295     0.01299916    -0.07483200
Spot 2    -0.01151628     0.01300508    -0.07483200
Spot 1    -0.01157260     0.01299932    -0.07483200
Spot 2    -0.01151551     0.01300526    -0.07483200
20MABNDA000035_PR045
Spot 1    -0.01337469     0.01379437    -0.07483200
Spot 2    -0.01319721     0.01379437    -0.07483200
Spot 1    -0.01337457     0.01379450    -0.07483200
Spot 2    -0.01319714     0.01379423    -0.07483200
Spot 1    -0.01337451     0.01379477    -0.07483200
Spot 2    -0.01319723     0.01379419    -0.07483200
Spot 1    -0.01337456     0.01379460    -0.07483200
Spot 2    -0.01319711     0.01379428    -0.07483200
20MABNDA000188_PR008
Spot 1    -0.01391227     0.01380893    -0.07502000
Spot 2    -0.01391227     0.01380893    -0.07502000
Spot 1    -0.01391227     0.01380893    -0.07502000
Spot 2    -0.01391227     0.01380893    -0.07502000
Spot 1    -0.01391227     0.01380893    -0.07502000
Spot 2    -0.01391227     0.01380893    -0.07502000
Spot 1    -0.01391227     0.01380893    -0.07502000
Spot 2    -0.01391227     0.01380893    -0.07502000
20MABNDA000188_PR018
Spot 1    -0.01269878     0.01229305    -0.07502000
Spot 2    -0.01223176     0.01229159    -0.07502000
Spot 1    -0.01269853     0.01229270    -0.07502000
Spot 2    -0.01223169     0.01229160    -0.07502000
Spot 1    -0.01269864     0.01229299    -0.07502000
Spot 2    -0.01223157     0.01229162    -0.07502000
Spot 1    -0.01269900     0.01229293    -0.07502000
Spot 2    -0.01223156     0.01229160    -0.07502000
20MABNDA000039_PR009
Spot 1    -0.01162638     0.01306716    -0.07444800
Spot 2    -0.01157973     0.01306257    -0.07444800
Spot 1    -0.01162633     0.01306703    -0.07444800
Spot 2    -0.01158007     0.01306277    -0.07444800
Spot 1    -0.01162620     0.01306711    -0.07444800
Spot 2    -0.01157960     0.01306243    -0.07444800
Spot 1    -0.01162650     0.01306730    -0.07444800
Spot 2    -0.01157918     0.01306240    -0.07444800
20MABNDA000039_PR011
Spot 1    -0.01372584     0.01397041    -0.07444800
Spot 2    -0.01355067     0.01397420    -0.07444800
Spot 1    -0.01372611     0.01397034    -0.07444800
Spot 2    -0.01355062     0.01397434    -0.07444800
Spot 1    -0.01372615     0.01397033    -0.07444800
Spot 2    -0.01355058     0.01397419    -0.07444800
Spot 1    -0.01372608     0.01397002    -0.07444800
Spot 2    -0.01355066     0.01397434    -0.07444800
20MABNDB000155_PR020
Spot 1    -0.01364521    -0.01312722    -0.07501700
Spot 2    -0.01358098    -0.01313031    -0.07501700
Spot 1    -0.01364557    -0.01312736    -0.07501700
Spot 2    -0.01358077    -0.01313015    -0.07501700
Spot 1    -0.01364506    -0.01312684    -0.07501700
Spot 2    -0.01358077    -0.01312925    -0.07501700
Spot 1    -0.01364473    -0.01312716    -0.07501700
Spot 2    -0.01358085    -0.01313035    -0.07501700
20MABNDB000155_PR022
Spot 1    -0.01215971    -0.01284098    -0.07501700
Spot 2    -0.01168666    -0.01283945    -0.07501700
Spot 1    -0.01215969    -0.01284104    -0.07501700
Spot 2    -0.01168661    -0.01283935    -0.07501700
Spot 1    -0.01215973    -0.01284090    -0.07501700
Spot 2    -0.01168652    -0.01283928    -0.07501700
Spot 1    -0.01215972    -0.01284083    -0.07501700
Spot 2    -0.01168662    -0.01283930    -0.07501700
20MABNDB000010_PR021
Spot 1    -0.01158107    -0.01292504    -0.07358200
Spot 2    -0.01152766    -0.01292154    -0.07358200
Spot 1    -0.01158112    -0.01292496    -0.07358200
Spot 2    -0.01152768    -0.01292148    -0.07358200
Spot 1    -0.01158092    -0.01292473    -0.07358200
Spot 2    -0.01152760    -0.01292166    -0.07358200
Spot 1    -0.01158082    -0.01292506    -0.07358200
Spot 2    -0.01152755    -0.01292130    -0.07358200
20MABNDB000010_PR023
Spot 1    -0.01312416    -0.01379013    -0.07358200
Spot 2    -0.01294913    -0.01378829    -0.07358200
Spot 1    -0.01312446    -0.01378990    -0.07358200
Spot 2    -0.01294905    -0.01378825    -0.07358200
Spot 1    -0.01312423    -0.01379026    -0.07358200
Spot 2    -0.01294938    -0.01378832    -0.07358200
Spot 1    -0.01312432    -0.01379013    -0.07358200
Spot 2    -0.01294919    -0.01378848    -0.07358200


*****************************************************************coordonnees du prisme dans le repere MOUNT********************************************************************************** 
20MABNDL000077_PR002
    0.05504020     0.05525048     3.70682931
    0.05514155     0.05510575     3.70682907
    0.05502706     0.05532373     3.70682907
    0.05502962     0.05603015     3.70682526
    0.05511861     0.05528925     3.70682812
20MABNDL000077_PR003
    0.02095975     0.02118137     3.89601707
    0.02100642     0.02117444     3.89601660
    0.02099232     0.02116652     3.89601660
    0.02099483     0.02115793     3.89601660
    0.02100728     0.02115626     3.89601660
20MABNDL000077_20MABNDM000168
    0.02680666     0.06910956    -5.46851063
    0.02681028     0.06910887    -5.46851063
    0.02681355     0.06910638    -5.46851063
    0.02680564     0.06910268    -5.46851063
    0.01514663     0.07924735    -5.46851158
20MABNDL000077_PR024
    0.04538625     0.01810011    -5.89640427
    0.04538340     0.01807396    -5.89640427
    0.04538998     0.01807870    -5.89640427
    0.04539361     0.01806704    -5.89640427
20MABNDM000020_PR013
    0.02045562    -0.08708823    -3.80198812
    0.01061741    -0.08805113    -3.80204964
    0.01053308    -0.08825596    -3.80204749
   -0.00017990    -0.08531326    -3.80213857
20MABNDM000020_PR014
   -0.09646920    -0.08948103    -4.74775267
   -0.09646920    -0.08948103    -4.74775267
   -0.09646920    -0.08948103    -4.74775267
   -0.09646920    -0.08948103    -4.74775267
20MABNDM000020_20MABNDL000196
    0.02683340    -0.07124989     5.39469719
    0.02684200    -0.07125060     5.39469719
    0.02684415    -0.07125060     5.39469719
    0.02683698    -0.07124558     5.39469719
20MABNDM000020_PR035
   -0.04244134    -0.00675226     5.80095482
   -0.04243980    -0.00675496     5.80095482
   -0.04242516    -0.00674494     5.80095482
   -0.04240743    -0.00675225     5.80095482
20MABNDM000168_PR025
    0.02288022    -0.07367942    -3.78843594
    0.00262866    -0.07871214    -3.78852034
    0.01275481    -0.07619587    -3.78849316
    0.02288022    -0.07367942    -3.78843594
20MABNDM000168_PR026
   -0.05785096    -0.01393859    -3.98429012
   -0.05785652    -0.01397636    -3.98429012
   -0.05785424    -0.01396333    -3.98429012
   -0.05784899    -0.01397268    -3.98429012
20MABNDM000168_20MABNDL000077
    0.01162002    -0.03841392     5.38884687
    0.01163626    -0.03840876     5.38884687
    0.01164890    -0.03842943     5.38884687
    0.01165506    -0.03845000     5.38884687
20MABNDM000168_PR001
   -0.05740327    -0.01320122     5.81470394
   -0.05739830    -0.01320478     5.81470490
   -0.05738281    -0.01320656     5.81470490
   -0.05738688    -0.01321929     5.81470490
20MABNDL000196_PR036
    0.05136705     0.00595431     3.68777180
    0.05136093     0.00594398     3.68777180
    0.05136117     0.00594914     3.68777180
    0.05138323     0.00596048     3.68777180
20MABNDL000196_PR037
   -0.02514184     0.02857426     3.88381290
   -0.02514751     0.02856391     3.88381290
   -0.02514077     0.02855901     3.88381290
   -0.02514131     0.02856857     3.88381290
20MABNDL000196_20MABNDM000020
   -0.01571732     0.03781581    -5.47473907
   -0.01571618     0.03781296    -5.47473907
   -0.01572677     0.03780340    -5.47473907
   -0.01572049     0.03779490    -5.47473907
20MABNDL000196_PR012
    0.05231893     0.01448725    -5.91537189
    0.05231743     0.01446546    -5.91537189
    0.05231161     0.01448400    -5.91537189
    0.05232836     0.01446295    -5.91537189
20MABNDA000318_PR004
   -0.00842906     0.03836072     2.74965906
   -0.00843844     0.03836785     2.74965906
   -0.00843366     0.03836291     2.74965906
   -0.00842981     0.03836402     2.74965906
20MABNDA000334_PR005
   -0.00428853     0.03166973     2.14977217
   -0.00428496     0.03166930     2.14977217
   -0.00428682     0.03166816     2.14977217
   -0.00428268     0.03166801     2.14977217
20MABNDB000317_PR015
   -0.01740781    -0.03399186     2.75129032
   -0.01740871    -0.03399278     2.75129032
   -0.01740965    -0.03399061     2.75129032
   -0.01740400    -0.03399036     2.75129032
20MABNDB000146_PR016
   -0.01356390    -0.03178462     2.15201283
   -0.01356622    -0.03177787     2.15201283
   -0.01356650    -0.03178175     2.15201283
   -0.01356146    -0.03178217     2.15201283
20MABNDB000135_PR027
   -0.02104636    -0.00985832     2.74937105
   -0.02103748    -0.00985127     2.74937105
   -0.02103735    -0.00985585     2.74937105
   -0.02104012    -0.00985821     2.74937105
20MABNDB000126_PR028
   -0.02037178    -0.03900549     2.14679456
   -0.02037276    -0.03901006     2.14679456
   -0.02037147    -0.03900962     2.14679456
   -0.02036891    -0.03900961     2.14679456
20MABNDA000272_PR038
   -0.01317112     0.01095774     2.74965882
   -0.01318175     0.01095776     2.74965882
   -0.01317791     0.01095152     2.74965882
   -0.01317168     0.01095151     2.74965882
20MABNDA000003_PR039
   -0.00593064     0.04138521     2.14891338
   -0.00593022     0.04138550     2.14891338
   -0.00592921     0.04138864     2.14891338
   -0.00592707     0.04138649     2.14891338
20MABNDA000196_PR006
   -0.01040166     0.01023235     1.64206433
   -0.01040154     0.01023290     1.64206433
   -0.01040272     0.01023521     1.64206433
   -0.01040033     0.01023365     1.64206433
20MABNDA000324_PR007
   -0.02527028     0.02751357     2.95549345
   -0.02527123     0.02750923     2.95549345
   -0.02527464     0.02751767     2.95549345
   -0.02527971     0.02751192     2.95549345
20MABNDB000001_PR017
   -0.02414829    -0.00280739     1.64035940
   -0.02414892    -0.00280487     1.64035940
   -0.02414620    -0.00280544     1.64035940
   -0.02414675    -0.00280587     1.64035940
20MABNDB000260_PR019
   -0.02435088    -0.03848320     2.95627403
   -0.02434640    -0.03848094     2.95627403
   -0.02435968    -0.03847688     2.95627403
   -0.02436148    -0.03847554     2.95627403
20MABNDB000212_PR029
   -0.02544124    -0.00832800     1.64223719
   -0.02543718    -0.00832771     1.64223719
   -0.02543408    -0.00832555     1.64223719
   -0.02543940    -0.00833076     1.64223719
20MABNDB000128_PR030
   -0.01928875    -0.04684243     2.95496273
   -0.01929149    -0.04684519     2.95496273
   -0.01929308    -0.04684107     2.95496273
   -0.01929132    -0.04683930     2.95496273
20MABNDA000444_PR040
   -0.02991988     0.00090888     1.64491177
   -0.02991997     0.00090724     1.64491177
   -0.02991789     0.00090781     1.64491177
   -0.02991755     0.00090672     1.64491177
20MABNDA000053_PR041
   -0.02644125     0.05075185     2.95450902
   -0.02642368     0.05075642     2.95450902
   -0.02643755     0.05074982     2.95450902
   -0.02643612     0.05075293     2.95450902
20MABNDB000069_PR031
    0.10999375    -0.16176865     9.20229721
    0.10999375    -0.16176865     9.20229721
    0.10999375    -0.16176865     9.20229721
    0.10999375    -0.16176865     9.20229721
20MABNDB000069_PR033
   -0.02679333    -0.02680003     1.28394246
   -0.02679303    -0.02680107     1.28394246
   -0.02679481    -0.02680270     1.28394234
   -0.02679339    -0.02680157     1.28394246
20MABNDB000131_PR032
   -0.18797870    -0.02988389    11.00642014
   -0.18797806    -0.02986562    11.00642014
   -0.18795177    -0.02986476    11.00642204
   -0.18793279    -0.02986247    11.00642204
20MABNDB000131_PR034
    0.01431706     0.01632528     3.43338013
    0.01432116     0.01632438     3.43338013
    0.01432368     0.01632258     3.43338013
    0.01432434     0.01632759     3.43338013
20MABNDA000208_PR042
    0.13249084     0.01445402     9.20144844
    0.13251850     0.01441906     9.20144844
    0.13248843     0.01442026     9.20144844
    0.13249147     0.01442456     9.20144844
20MABNDA000208_PR046
   -0.02350605     0.03445120     1.28208435
   -0.02350588     0.03445291     1.28208435
   -0.02350682     0.03445061     1.28208435
   -0.02350622     0.03445112     1.28208435
20MABNDA000035_PR044
   -0.17995638     0.02681557    11.00802326
   -0.18000913     0.02679839    11.00802231
   -0.17994377     0.02683815    11.00802326
   -0.18002512     0.02681313    11.00802231
20MABNDA000035_PR045
    0.01460786    -0.01876995     3.43483877
    0.01460352    -0.01876969     3.43483877
    0.01460417    -0.01877495     3.43483877
    0.01460259    -0.01877311     3.43483877
20MABNDA000188_PR008
    0.13650158    -0.07885031     9.20339394
    0.13650158    -0.07885031     9.20339394
    0.13650158    -0.07885031     9.20339394
    0.13650158    -0.07885031     9.20339394
20MABNDA000188_PR018
   -0.01666096     0.02623692     1.28357697
   -0.01666368     0.02623986     1.28357697
   -0.01666379     0.02623712     1.28357697
   -0.01666078     0.02623786     1.28357697
20MABNDA000039_PR009
   -0.17106800     0.02516444    11.00701714
   -0.17104609     0.02515996    11.00701714
   -0.17109063     0.02517770    11.00701714
   -0.17109945     0.02516677    11.00701714
20MABNDA000039_PR011
    0.03076577    -0.02449793     3.43347120
    0.03077078    -0.02449955     3.43347120
    0.03077080    -0.02449590     3.43347120
    0.03077104    -0.02449225     3.43347120
20MABNDB000155_PR020
    0.10204379    -0.00897953     9.20028305
    0.10205301    -0.00898002     9.20028305
    0.10202166    -0.00906702     9.20028496
    0.10200574    -0.00898005     9.20028496
20MABNDB000155_PR022
   -0.02556467    -0.01747910     1.28070879
   -0.02556526    -0.01747945     1.28070879
   -0.02556575    -0.01748117     1.28070879
   -0.02556498    -0.01748167     1.28070879
20MABNDB000010_PR021
   -0.17623764    -0.03377297    11.00694561
   -0.17623231    -0.03378318    11.00694561
   -0.17625286    -0.03378646    11.00694561
   -0.17626384    -0.03378885    11.00694561
20MABNDB000010_PR023
    0.00430368     0.02017410     3.43377209
    0.00430883     0.02016777     3.43377256
    0.00431096     0.02017767     3.43377209
    0.00430888     0.02017832     3.43377209


*****************************************************************coordonnees du prisme dans le repere ATLAS********************************************************************************** 
20MABNDL000077_PR002 0.00000000
    2.80179214    -3.68946600     6.48614931
    2.80193686    -3.68936467     6.48614931
    2.80171871    -3.68947911     6.48614931
    2.80101228    -3.68947625     6.48614597
    2.80175328    -3.68938756     6.48614836
20MABNDL000077_PR003 0.00000000
    2.83603573    -3.72379065     6.67526150
    2.83604288    -3.72374392     6.67526102
    2.83605075    -3.72375798     6.67526102
    2.83605933    -3.72375560     6.67526102
    2.83606100    -3.72374296     6.67526102
20MABNDL000077_20MABNDM000168 0.00000000
    2.77892423    -3.70637465    -2.68920016
    2.77892494    -3.70637107    -2.68920016
    2.77892733    -3.70636773    -2.68920016
    2.77893114    -3.70637560    -2.68920016
    2.76878262    -3.71803141    -2.68920565
20MABNDL000077_PR024 0.00000000
    2.82951975    -3.68728328    -3.11712050
    2.82954597    -3.68728614    -3.11712050
    2.82954121    -3.68727946    -3.11712050
    2.82955289    -3.68727589    -3.11712050
20MABNDM000020_PR013 0.00000000
   -2.76522851    -3.75996041     6.48579836
   -2.76426268    -3.75012255     6.48586750
   -2.76405787    -3.75003815     6.48586512
   -2.76699734    -3.73932457     6.48596525
20MABNDM000020_PR014 0.00000000
   -2.76261067    -3.64375567     7.43165112
   -2.76261067    -3.64375567     7.43165112
   -2.76261067    -3.64375567     7.43165112
   -2.76261067    -3.64375567     7.43165112
20MABNDM000020_20MABNDL000196 0.00000000
   -2.78290939    -3.75933886    -2.71088576
   -2.78290868    -3.75934744    -2.71088576
   -2.78290868    -3.75934958    -2.71088576
   -2.78291368    -3.75934243    -2.71088576
20MABNDM000020_PR035 0.00000000
   -2.84746718    -3.68973541    -3.11707759
   -2.84746432    -3.68973708    -3.11707759
   -2.84747434    -3.68975163    -3.11707759
   -2.84746718    -3.68976927    -3.11707759
20MABNDM000168_PR025 0.00000000
    2.77955604    -3.76819539    -6.47904968
    2.77452874    -3.74794245    -6.47914124
    2.77704239    -3.75806928    -6.47911072
    2.77955604    -3.76819539    -6.47904968
20MABNDM000168_PR026 0.00000000
    2.83930635    -3.68755293    -6.67493773
    2.83926868    -3.68754721    -6.67493773
    2.83928180    -3.68754959    -6.67493773
    2.83927226    -3.68755484    -6.67493773
20MABNDM000168_20MABNDL000077 0.00000000
    2.81538153    -3.75353217     2.69822621
    2.81538677    -3.75354838     2.69822621
    2.81536603    -3.75356102     2.69822621
    2.81534553    -3.75356722     2.69822621
20MABNDM000168_PR001 0.00000000
    2.84063840    -3.68435717     3.12405586
    2.84063482    -3.68436217     3.12405682
    2.84063292    -3.68437767     3.12405682
    2.84062028    -3.68437362     3.12405682
20MABNDL000196_PR036 0.00000000
   -2.84765315    -3.69290733    -6.47909546
   -2.84766364    -3.69291353    -6.47909546
   -2.84765840    -3.69291329    -6.47909546
   -2.84764695    -3.69289136    -6.47909546
20MABNDL000196_PR037 0.00000000
   -2.82500196    -3.76958823    -6.67506552
   -2.82501221    -3.76959372    -6.67506552
   -2.82501721    -3.76958704    -6.67506552
   -2.82500768    -3.76958752    -6.67506552
20MABNDL000196_20MABNDM000020 0.00000000
   -2.81556249    -3.75145411     2.68347335
   -2.81556535    -3.75145292     2.68347335
   -2.81557488    -3.75146341     2.68347335
   -2.81558347    -3.75145721     2.68347335
20MABNDL000196_PR012 0.00000000
   -2.83891320    -3.68301868     3.12404323
   -2.83893490    -3.68302035     3.12404323
   -2.83891654    -3.68302608     3.12404323
   -2.83893752    -3.68300939     3.12404323
20MABNDA000318_PR004 0.00000000
    2.61457419    -4.19698906     3.83363795
    2.61456490    -4.19698906     3.83363080
    2.61456966    -4.19698906     3.83363581
    2.61457348    -4.19698906     3.83363461
20MABNDA000334_PR005 0.00000000
    2.61670995    -4.19703102     5.89759111
    2.61671352    -4.19703102     5.89759159
    2.61671185    -4.19703102     5.89759254
    2.61671591    -4.19703102     5.89759302
20MABNDB000317_PR015 0.00000000
   -2.61119938    -4.19700527     3.83602357
   -2.61119843    -4.19700527     3.83602262
   -2.61119747    -4.19700527     3.83602476
   -2.61120319    -4.19700527     3.83602500
20MABNDB000146_PR016 0.00000000
   -2.61273122    -4.19702482     5.89856577
   -2.61272907    -4.19702482     5.89857244
   -2.61272860    -4.19702482     5.89856863
   -2.61273384    -4.19702482     5.89856815
20MABNDB000135_PR027 0.00000000
    2.60381699    -4.19700432    -3.82550263
    2.60382581    -4.19700432    -3.82550955
    2.60382605    -4.19700432    -3.82550502
    2.60382318    -4.19700432    -3.82550263
20MABNDB000126_PR028 0.00000000
    2.60554552    -4.19702148    -5.89321423
    2.60554457    -4.19702148    -5.89320993
    2.60554576    -4.19702148    -5.89321041
    2.60554838    -4.19702148    -5.89321041
20MABNDA000272_PR038 0.00000000
   -2.61136580    -4.19698286    -3.82752657
   -2.61135507    -4.19698286    -3.82752657
   -2.61135888    -4.19698286    -3.82753277
   -2.61136508    -4.19698286    -3.82753277
20MABNDA000003_PR039 0.00000000
   -2.61580062    -4.19702291    -5.89138126
   -2.61580086    -4.19702291    -5.89138126
   -2.61580205    -4.19702291    -5.89137793
   -2.61580420    -4.19702291    -5.89138031
20MABNDA000196_PR006 0.00000000
    2.58486223    -4.19496393     6.54818869
    2.58486199    -4.19496393     6.54818964
    2.58486319    -4.19496393     6.54819155
    2.58486080    -4.19496393     6.54819012
20MABNDA000324_PR007 0.00000000
    2.59404445    -4.13996458     6.94840145
    2.59404349    -4.13996458     6.94840574
    2.59404016    -4.13996458     6.94839764
    2.59403515    -4.13996458     6.94840336
20MABNDB000001_PR017 0.00000000
   -2.59784961    -4.19505882     6.53813553
   -2.59785032    -4.19505882     6.53813314
   -2.59784746    -4.19505882     6.53813362
   -2.59784794    -4.19505882     6.53813410
20MABNDB000260_PR019 0.00000000
   -2.60441089    -4.13996029     6.94216061
   -2.60441542    -4.13996029     6.94216299
   -2.60440230    -4.13996029     6.94216728
   -2.60440040    -4.13996029     6.94216824
20MABNDB000212_PR029 0.00000000
    2.59911895    -4.19501114    -6.54731560
    2.59911489    -4.19501114    -6.54731560
    2.59911180    -4.19501114    -6.54731321
    2.59911704    -4.19501114    -6.54731846
20MABNDB000128_PR030 0.00000000
    2.60957003    -4.14002705    -6.93127871
    2.60956717    -4.14002705    -6.93127584
    2.60956573    -4.14002705    -6.93128014
    2.60956740    -4.14002705    -6.93128157
20MABNDA000444_PR040 0.00000000
   -2.60509253    -4.19509745    -6.54008913
   -2.60509253    -4.19509745    -6.54008770
   -2.60509038    -4.19509745    -6.54008818
   -2.60509014    -4.19509745    -6.54008675
20MABNDA000053_PR041 0.00000000
   -2.59410071    -4.14012241    -6.92716169
   -2.59411836    -4.14012241    -6.92715693
   -2.59410429    -4.14012241    -6.92716360
   -2.59410572    -4.14012241    -6.92716074
20MABNDB000069_PR031 0.00000000
    3.69177032     3.84800911    -7.77863359
    3.69177032     3.84800911    -7.77863359
    3.69177032     3.84800911    -7.77863359
    3.69177032     3.84800911    -7.77863359
20MABNDB000069_PR033 0.00000000
    3.53350616    -4.07046127    -7.87887144
    3.53350639    -4.07046127    -7.87887049
    3.53350449    -4.07046127    -7.87886858
    3.53350592    -4.07046127    -7.87887001
20MABNDB000131_PR032 0.00000000
    3.86878109     3.64757013   -12.94052696
    3.86878037     3.64757013   -12.94050884
    3.86875415     3.64757204   -12.94050789
    3.86873507     3.64757204   -12.94050503
20MABNDB000131_PR034 0.00000000
    3.67347217    -3.92563629   -12.89162254
    3.67346811    -3.92563629   -12.89162350
    3.67346549    -3.92563629   -12.89162540
    3.67346501    -3.92563629   -12.89161968
20MABNDA000208_PR042 0.00000000
   -3.68256903     3.84912848    -7.89703226
   -3.68259645     3.84912848    -7.89706707
   -3.68256640     3.84912848    -7.89706612
   -3.68256950     3.84912848    -7.89706182
20MABNDA000208_PR046 0.00000000
   -3.53225923    -4.07033777    -7.87406683
   -3.53225946    -4.07033777    -7.87406540
   -3.53225851    -4.07033777    -7.87406778
   -3.53225923    -4.07033777    -7.87406731
20MABNDA000035_PR044 0.00000000
   -3.86919737     3.64757848   -12.93249416
   -3.86925006     3.64757752   -12.93247700
   -3.86918473     3.64757848   -12.93251705
   -3.86926603     3.64757752   -12.93249226
20MABNDA000035_PR045 0.00000000
   -3.67612052    -3.92564845   -12.88761425
   -3.67612481    -3.92564845   -12.88761425
   -3.67612410    -3.92564845   -12.88760948
   -3.67612576    -3.92564845   -12.88761139
20MABNDA000188_PR008 0.00000000
    3.54951787     3.84898496     8.09023857
    3.54951787     3.84898496     8.09023857
    3.54951787     3.84898496     8.09023857
    3.54951787     3.84898496     8.09023857
20MABNDA000188_PR018 0.00000000
    3.52048230    -4.07060480     7.89720488
    3.52047968    -4.07060480     7.89720154
    3.52047944    -4.07060480     7.89720440
    3.52048254    -4.07060480     7.89720392
20MABNDA000039_PR009 0.00000000
    3.87524009     3.64747548    12.93645859
    3.87521815     3.64747548    12.93645382
    3.87526274     3.64747548    12.93647194
    3.87527156     3.64747548    12.93646049
20MABNDA000039_PR011 0.00000000
    3.66425824    -3.92580462    12.88433838
    3.66425323    -3.92580462    12.88433743
    3.66425323    -3.92580462    12.88434029
    3.66425300    -3.92580462    12.88434410
20MABNDB000155_PR020 0.00000000
   -3.68069601     3.84881616     7.89788771
   -3.68070531     3.84881616     7.89788723
   -3.68067408     3.84881830     7.89779997
   -3.68065810     3.84881830     7.89788723
20MABNDB000155_PR022 0.00000000
   -3.53441596    -4.07043600     7.89058018
   -3.53441525    -4.07043600     7.89057970
   -3.53441477    -4.07043600     7.89057827
   -3.53441548    -4.07043600     7.89057732
20MABNDB000010_PR021 0.00000000
   -3.86207485     3.64768314    12.93560219
   -3.86206937     3.64768314    12.93561268
   -3.86209011     3.64768314    12.93561649
   -3.86210108     3.64768314    12.93561840
20MABNDB000010_PR023 0.00000000
   -3.68536258    -3.92560458    12.88510132
   -3.68535757    -3.92560410    12.88510799
   -3.68535542    -3.92560458    12.88509846
   -3.68535733    -3.92560458    12.88509750


*****************************************************************Rapport********************************************************************************** 
CAM-LBA-US_EBA-US-HO-H         2017.07.08.01.30.07     2.80164266    -3.68943472     6.48614845     0.00032382     0.00004859     0.00000129 0.00000000 VRAI 
CAM-LBA-US_JDA-US-H            2017.07.08.01.30.07     2.83604994    -3.72375822     6.67526112     0.00000962     0.00001730     0.00000019 0.00000000 VRAI 
CAM-LBA-US_CAM-LBC-US          2017.07.08.01.30.07     2.77689805    -3.70870409    -2.68920126     0.00405772     0.00466366     0.00000219 0.00000000 VRAI 
CAM-LBA-US_EBC-US-IP-H         2017.07.08.01.30.07     2.82953995    -3.68728119    -3.11712050     0.00001238     0.00000387     0.00000000 0.00000000 VRAI 
CAM-LBA-USA_EBA-USA-HO-H       2017.07.08.01.30.07    -2.76513660    -3.74986142     6.48587406     0.00116170     0.00729922     0.00005952 0.00000000 VRAI 
CAM-LBA-USA_JDA-USA-H          2017.07.08.01.30.07    -2.76261067    -3.64375567     7.43165112     0.00000000     0.00000000     0.00000000 0.00000000 VRAI 
CAM-LBA-USA_CAM-LBC-USA        2017.07.08.01.30.07    -2.78291011    -3.75934458    -2.71088576     0.00000209     0.00000420     0.00000000 0.00000000 VRAI 
CAM-LBA-USA_EBC-USA-IP-H       2017.07.08.01.30.07    -2.84746826    -3.68974835    -3.11707759     0.00000370     0.00001363     0.00000000 0.00000000 VRAI 
CAM-LBC-US_EBC-US-HO-H         2017.07.08.01.30.07     2.77767080    -3.76060063    -6.47908783     0.00208421     0.00839640     0.00003964 0.00000000 VRAI 
CAM-LBC-US_JDC-US-H            2017.07.08.01.30.07     2.83928227    -3.68755114    -6.67493773     0.00001471     0.00000295     0.00000000 0.00000000 VRAI 
CAM-LBC-US_CAM-LBA-US          2017.07.08.01.30.07     2.81536996    -3.75355220     2.69822621     0.00001604     0.00001341     0.00000000 0.00000000 VRAI 
CAM-LBC-US_EBA-US-IP-H         2017.07.08.01.30.07     2.84063160    -3.68436766     3.12405658     0.00000683     0.00000831     0.00000041 0.00000000 VRAI 
CAM-LBC-USA_EBC-USA-HO-H       2017.07.08.01.30.07    -2.84765553    -3.69290638    -6.47909546     0.00000619     0.00000902     0.00000000 0.00000000 VRAI 
CAM-LBC-USA_JDC-USA-H          2017.07.08.01.30.07    -2.82500976    -3.76958913    -6.67506552     0.00000563     0.00000268     0.00000000 0.00000000 VRAI 
CAM-LBC-USA_CAM-LBA-USA        2017.07.08.01.30.07    -2.81557155    -3.75145692     2.68347335     0.00000827     0.00000406     0.00000000 0.00000000 VRAI 
CAM-LBC-USA_EBA-USA-IP-H       2017.07.08.01.30.07    -2.83892554    -3.68301862     3.12404323     0.00001077     0.00000600     0.00000000 0.00000000 VRAI 
CAM-EBA-US-IP_EBA-US-IP        2017.07.08.01.30.07     2.61457056    -4.19698906     3.83363479     0.00000370     0.00000000     0.00000260 0.00000000 VRAI 
CAM-EBA-US-HO_EBA-US-HO        2017.07.08.01.30.07     2.61671281    -4.19703102     5.89759207     0.00000219     0.00000000     0.00000075 0.00000000 VRAI 
CAM-EBA-USA-IP_EBA-USA-IP      2017.07.08.01.30.07    -2.61119962    -4.19700527     3.83602399     0.00000217     0.00000000     0.00000096 0.00000000 VRAI 
CAM-EBA-USA-HO_EBA-USA-HO      2017.07.08.01.30.07    -2.61273068    -4.19702482     5.89856875     0.00000207     0.00000000     0.00000239 0.00000000 VRAI 
CAM-EBC-US-IP_EBC-US-IP        2017.07.08.01.30.07     2.60382301    -4.19700432    -3.82550496     0.00000365     0.00000000     0.00000282 0.00000000 VRAI 
CAM-EBC-US-HO_EBC-US-HO        2017.07.08.01.30.07     2.60554606    -4.19702148    -5.89321125     0.00000141     0.00000000     0.00000173 0.00000000 VRAI 
CAM-EBC-USA-IP_EBC-USA-IP      2017.07.08.01.30.07    -2.61136121    -4.19698286    -3.82752967     0.00000445     0.00000000     0.00000310 0.00000000 VRAI 
CAM-EBC-USA-HO_EBC-USA-HO      2017.07.08.01.30.07    -2.61580193    -4.19702291    -5.89138019     0.00000142     0.00000000     0.00000136 0.00000000 VRAI 
CAM-JDA-US-IP_JDA-US-IP        2017.07.08.01.30.07     2.58486205    -4.19496393     6.54819000     0.00000085     0.00000000     0.00000103 0.00000000 VRAI 
CAM-JDA-US-HO_JDA-US-HO        2017.07.08.01.30.07     2.59404081    -4.13996458     6.94840205     0.00000364     0.00000000     0.00000297 0.00000000 VRAI 
CAM-JDA-USA-IP_JDA-USA-IP      2017.07.08.01.30.07    -2.59784883    -4.19505882     6.53813410     0.00000117     0.00000000     0.00000089 0.00000000 VRAI 
CAM-JDA-USA-HO_JDA-USA-HO      2017.07.08.01.30.07    -2.60440725    -4.13996029     6.94216478     0.00000615     0.00000000     0.00000312 0.00000000 VRAI 
CAM-JDC-US-IP_JDC-US-IP        2017.07.08.01.30.07     2.59911567    -4.19501114    -6.54731572     0.00000266     0.00000000     0.00000186 0.00000000 VRAI 
CAM-JDC-US-HO_JDC-US-HO        2017.07.08.01.30.07     2.60956758    -4.14002705    -6.93127906     0.00000155     0.00000000     0.00000212 0.00000000 VRAI 
CAM-JDC-USA-IP_JDC-USA-IP      2017.07.08.01.30.07    -2.60509139    -4.19509745    -6.54008794     0.00000114     0.00000000     0.00000086 0.00000000 VRAI 
CAM-JDC-USA-HO_JDC-USA-HO      2017.07.08.01.30.07    -2.59410727    -4.14012241    -6.92716074     0.00000666     0.00000000     0.00000243 0.00000000 VRAI 
CAM-ECTC-US-IP_ECTC-US-IP-T    2017.07.08.01.30.07     3.69177032     3.84800911    -7.77863359     0.00000000     0.00000000     0.00000000 0.00000000 VRAI 
CAM-ECTC-US-IP_ECTC-US-IP      2017.07.08.01.30.07     3.53350574    -4.07046127    -7.87887013     0.00000074     0.00000000     0.00000103 0.00000000 VRAI 
CAM-ECTC-US-HO_ECTC-US-HO-T    2017.07.08.01.30.07     3.86876267     3.64757109   -12.94051218     0.00001928     0.00000095     0.00000865 0.00000000 VRAI 
CAM-ECTC-US-HO_ECTC-US-HO      2017.07.08.01.30.07     3.67346770    -3.92563629   -12.89162278     0.00000284     0.00000000     0.00000206 0.00000000 VRAI 
CAM-ECTC-USA-IP_ECTC-USA-IP-T  2017.07.08.01.30.07    -3.68257535     3.84912848    -7.89705682     0.00001224     0.00000000     0.00001432 0.00000000 VRAI 
CAM-ECTC-USA-IP_ECTC-USA-IP    2017.07.08.01.30.07    -3.53225911    -4.07033777    -7.87406683     0.00000036     0.00000000     0.00000089 0.00000000 VRAI 
CAM-ECTC-USA-HO_ECTC-USA-HO-T  2017.07.08.01.30.07    -3.86922455     3.64757800   -12.93249512     0.00003426     0.00000048     0.00001431 0.00000000 VRAI 
CAM-ECTC-USA-HO_ECTC-USA-HO    2017.07.08.01.30.07    -3.67612380    -3.92564845   -12.88761234     0.00000198     0.00000000     0.00000202 0.00000000 VRAI 
CAM-ECTA-US-IP_ECTA-US-IP-T    2017.07.08.01.30.07     3.54951787     3.84898496     8.09023857     0.00000000     0.00000000     0.00000000 0.00000000 VRAI 
CAM-ECTA-US-IP_ECTA-US-IP      2017.07.08.01.30.07     3.52048099    -4.07060480     7.89720368     0.00000144     0.00000000     0.00000128 0.00000000 VRAI 
CAM-ECTA-US-HO_ECTA-US-HO-T    2017.07.08.01.30.07     3.87524813     3.64747548    12.93646121     0.00002077     0.00000000     0.00000665 0.00000000 VRAI 
CAM-ECTA-US-HO_ECTA-US-HO      2017.07.08.01.30.07     3.66425443    -3.92580462    12.88434005     0.00000220     0.00000000     0.00000256 0.00000000 VRAI 
CAM-ECTA-USA-IP_ECTA-USA-IP-T  2017.07.08.01.30.07    -3.68068337     3.84881723     7.89786553     0.00001848     0.00000107     0.00003785 0.00000000 VRAI 
CAM-ECTA-USA-IP_ECTA-USA-IP    2017.07.08.01.30.07    -3.53441536    -4.07043600     7.89057887     0.00000043     0.00000000     0.00000114 0.00000000 VRAI 
CAM-ECTA-USA-HO_ECTA-USA-HO-T  2017.07.08.01.30.07    -3.86208385     3.64768314    12.93561244     0.00001252     0.00000000     0.00000627 0.00000000 VRAI 
CAM-ECTA-USA-HO_ECTA-USA-HO    2017.07.08.01.30.07    -3.68535823    -3.92560446    12.88510132     0.00000265     0.00000021     0.00000410 0.00000000 VRAI 
