********** Fichier qui contient une sauvegarde des coordonnees images + coordonnees images transformees dans le repere BCAM (MOUNT) + coordonnees des prismes dans le repere MOUNT********** 
********************************************************************** Unite en metres (m)************************************************************************************************** 

*******************************************************************coordonnees images dans le repere CCD *********************************************************************************** 
20MABNDA000188_PR008
Spot 1     0.00289500     0.00025500
Spot 2     0.00289500     0.00025500
Spot 1     0.00289500     0.00025500
Spot 2     0.00289500     0.00025500
Spot 1     0.00289500     0.00025500
Spot 2     0.00289500     0.00025500
Spot 1     0.00289500     0.00025500
Spot 2     0.00289500     0.00025500
Spot 1     0.00289500     0.00025500
Spot 2     0.00289500     0.00025500
20MABNDA000188_PR018
Spot 1     0.00166889     0.00176643
Spot 2     0.00120167     0.00176268
Spot 1     0.00166895     0.00176637
Spot 2     0.00120184     0.00176274
Spot 1     0.00166904     0.00176628
Spot 2     0.00120179     0.00176277
Spot 1     0.00166899     0.00176638
Spot 2     0.00120172     0.00176278
20MABNDA000039_PR009
Spot 1     0.00066489     0.00117687
Spot 2     0.00061847     0.00118056
Spot 1     0.00066522     0.00117664
Spot 2     0.00061834     0.00118097
Spot 1     0.00066526     0.00117661
Spot 2     0.00061811     0.00118081
Spot 1     0.00066515     0.00117678
Spot 2     0.00061841     0.00118088
20MABNDA000039_PR011
Spot 1     0.00276879     0.00028098
Spot 2     0.00259286     0.00027671
Spot 1     0.00276858     0.00028103
Spot 2     0.00259292     0.00027640
Spot 1     0.00276864     0.00028096
Spot 2     0.00259269     0.00027651
Spot 1     0.00276856     0.00028100
Spot 2     0.00259286     0.00027660
20MABNDB000155_PR020
Spot 1     0.00062083     0.00113153
Spot 2     0.00068404     0.00112813
Spot 1     0.00062031     0.00113133
Spot 2     0.00068381     0.00112813
Spot 1     0.00062016     0.00113112
Spot 2     0.00068438     0.00112779
Spot 1     0.00062064     0.00113149
Spot 2     0.00068477     0.00112777
20MABNDB000155_PR022
Spot 1     0.00210984     0.00140396
Spot 2     0.00258303     0.00139939
Spot 1     0.00210976     0.00140395
Spot 2     0.00258300     0.00139949
Spot 1     0.00210985     0.00140403
Spot 2     0.00258287     0.00139922
Spot 1     0.00210978     0.00140398
Spot 2     0.00258308     0.00139942
20MABNDB000010_PR021
Spot 1     0.00287044     0.00115264
Spot 2     0.00292299     0.00115530
Spot 1     0.00287025     0.00115243
Spot 2     0.00292279     0.00115524
Spot 1     0.00287034     0.00115263
Spot 2     0.00292293     0.00115510
Spot 1     0.00287028     0.00115251
Spot 2     0.00292282     0.00115518
20MABNDB000010_PR023
Spot 1     0.00131299     0.00031228
Spot 2     0.00148788     0.00031058
Spot 1     0.00131283     0.00031239
Spot 2     0.00148780     0.00031065
Spot 1     0.00131312     0.00031220
Spot 2     0.00148765     0.00031089
Spot 1     0.00131293     0.00031223
Spot 2     0.00148782     0.00031086
20MABNDL000077_PR002
Spot 1     0.00121315     0.00150400
Spot 2     0.00052500     0.00043500
Spot 1     0.00121512     0.00150304
Spot 2     0.00052500     0.00043500
Spot 1     0.00121426     0.00150397
Spot 2     0.00052500     0.00043500
Spot 1     0.00121609     0.00150059
Spot 2     0.00052500     0.00043500
20MABNDL000077_PR003
Spot 1     0.00138667     0.00149461
Spot 2     0.00153569     0.00149126
Spot 1     0.00138680     0.00149475
Spot 2     0.00153575     0.00149122
Spot 1     0.00138737     0.00149459
Spot 2     0.00153530     0.00149104
Spot 1     0.00138675     0.00149457
Spot 2     0.00153516     0.00149132
20MABNDL000077_20MABNDM000168
Spot 1     0.00175778     0.00118534
Spot 2     0.00075500     0.00010500
Spot 1     0.00175700     0.00118548
Spot 2     0.00075500     0.00010500
Spot 1     0.00175791     0.00118537
Spot 2     0.00075500     0.00010500
Spot 1     0.00175724     0.00118547
Spot 2     0.00075500     0.00010500
20MABNDL000077_PR024
Spot 1     0.00254400     0.00143547
Spot 2     0.00264135     0.00144725
Spot 1     0.00254444     0.00143576
Spot 2     0.00264145     0.00144728
Spot 1     0.00254424     0.00143565
Spot 2     0.00264110     0.00144708
Spot 1     0.00254375     0.00143563
Spot 2     0.00264100     0.00144715
20MABNDM000020_PR013
Spot 1     0.00136500     0.00011500
Spot 2     0.00136500     0.00011500
Spot 1     0.00160500     0.00021500
Spot 2     0.00136500     0.00011500
Spot 1     0.00136500     0.00011500
Spot 2     0.00136500     0.00011500
Spot 1     0.00160500     0.00021500
Spot 2     0.00136500     0.00011500
20MABNDM000020_PR014
Spot 1     0.00310500     0.00034500
Spot 2     0.00310500     0.00034500
Spot 1     0.00310500     0.00034500
Spot 2     0.00310500     0.00034500
Spot 1     0.00310500     0.00034500
Spot 2     0.00310500     0.00034500
Spot 1     0.00310500     0.00034500
Spot 2     0.00310500     0.00034500
20MABNDM000020_20MABNDL000196
Spot 1     0.00197688     0.00117827
Spot 2     0.00041500     0.00003500
Spot 1     0.00197691     0.00117811
Spot 2     0.00230500     0.00010500
Spot 1     0.00197672     0.00117831
Spot 2     0.00230500     0.00010500
Spot 1     0.00197688     0.00117825
Spot 2     0.00230500     0.00010500
20MABNDM000020_PR035
Spot 1     0.00127050     0.00149478
Spot 2     0.00118784     0.00153158
Spot 1     0.00127083     0.00149472
Spot 2     0.00118811     0.00153182
Spot 1     0.00127077     0.00149464
Spot 2     0.00118817     0.00153166
Spot 1     0.00127049     0.00149480
Spot 2     0.00118783     0.00153140
20MABNDM000168_PR025
Spot 1     0.00148500     0.00050500
Spot 2     0.00148500     0.00050500
Spot 1     0.00148500     0.00050500
Spot 2     0.00148500     0.00050500
Spot 1     0.00148500     0.00050500
Spot 2     0.00148500     0.00050500
Spot 1     0.00148500     0.00050500
Spot 2     0.00148500     0.00050500
20MABNDM000168_PR026
Spot 1     0.00266747     0.00142737
Spot 2     0.00250631     0.00142363
Spot 1     0.00266740     0.00142743
Spot 2     0.00250640     0.00142399
Spot 1     0.00266740     0.00142753
Spot 2     0.00250638     0.00142410
Spot 1     0.00266752     0.00142755
Spot 2     0.00250679     0.00142411
20MABNDM000168_20MABNDL000077
Spot 1     0.00154135     0.00130124
Spot 2     0.00175694     0.00130495
Spot 1     0.00154137     0.00130102
Spot 2     0.00175694     0.00130463
Spot 1     0.00154141     0.00130118
Spot 2     0.00175681     0.00130453
Spot 1     0.00154147     0.00130120
Spot 2     0.00175688     0.00130448
20MABNDM000168_PR001
Spot 1     0.00080850     0.00162108
Spot 2     0.00070681     0.00162313
Spot 1     0.00080857     0.00162121
Spot 2     0.00070680     0.00162320
Spot 1     0.00080857     0.00162118
Spot 2     0.00070690     0.00162310
Spot 1     0.00080872     0.00162137
Spot 2     0.00070683     0.00162328
20MABNDL000196_PR036
Spot 1     0.00094620     0.00163981
Spot 2     0.00111030     0.00163914
Spot 1     0.00094635     0.00163995
Spot 2     0.00111014     0.00163969
Spot 1     0.00094625     0.00163975
Spot 2     0.00111006     0.00163957
Spot 1     0.00094624     0.00163993
Spot 2     0.00111029     0.00163961
20MABNDL000196_PR037
Spot 1     0.00246862     0.00116866
Spot 2     0.00262381     0.00116744
Spot 1     0.00246901     0.00116888
Spot 2     0.00262365     0.00116735
Spot 1     0.00246868     0.00116908
Spot 2     0.00262373     0.00116734
Spot 1     0.00246865     0.00116936
Spot 2     0.00262377     0.00116754
20MABNDL000196_20MABNDM000020
Spot 1     0.00192525     0.00104234
Spot 2     0.00170426     0.00104756
Spot 1     0.00192532     0.00104229
Spot 2     0.00170440     0.00104749
Spot 1     0.00192536     0.00104230
Spot 2     0.00170442     0.00104756
Spot 1     0.00192529     0.00104236
Spot 2     0.00170456     0.00104753
20MABNDL000196_PR012
Spot 1     0.00265132     0.00134181
Spot 2     0.00272372     0.00138709
Spot 1     0.00265154     0.00134225
Spot 2     0.00272347     0.00138704
Spot 1     0.00265136     0.00134211
Spot 2     0.00272356     0.00138696
Spot 1     0.00265134     0.00134199
Spot 2     0.00272365     0.00138693
20MABNDA000318_PR004
Spot 1     0.00214599     0.00162414
Spot 2     0.00192819     0.00162514
Spot 1     0.00214602     0.00162447
Spot 2     0.00192795     0.00162508
Spot 1     0.00214597     0.00162437
Spot 2     0.00192817     0.00162508
Spot 1     0.00214592     0.00162429
Spot 2     0.00192806     0.00162514
20MABNDA000334_PR005
Spot 1     0.00247224     0.00158500
Spot 2     0.00219179     0.00158537
Spot 1     0.00247230     0.00158478
Spot 2     0.00219218     0.00158549
Spot 1     0.00247224     0.00158500
Spot 2     0.00219213     0.00158530
Spot 1     0.00247217     0.00158485
Spot 2     0.00219185     0.00158536
20MABNDB000317_PR015
Spot 1     0.00148839     0.00159879
Spot 2     0.00170868     0.00159231
Spot 1     0.00148857     0.00159893
Spot 2     0.00170848     0.00159245
Spot 1     0.00148859     0.00159882
Spot 2     0.00170876     0.00159247
Spot 1     0.00148844     0.00159875
Spot 2     0.00170852     0.00159217
20MABNDB000146_PR016
Spot 1     0.00144927     0.00133105
Spot 2     0.00172462     0.00133324
Spot 1     0.00144927     0.00133100
Spot 2     0.00172454     0.00133329
Spot 1     0.00144933     0.00133120
Spot 2     0.00172454     0.00133327
Spot 1     0.00144939     0.00133098
Spot 2     0.00172473     0.00133333
20MABNDB000135_PR027
Spot 1     0.00189260     0.00091584
Spot 2     0.00211041     0.00091792
Spot 1     0.00189232     0.00091600
Spot 2     0.00211042     0.00091788
Spot 1     0.00189255     0.00091568
Spot 2     0.00211057     0.00091756
Spot 1     0.00189248     0.00091581
Spot 2     0.00211052     0.00091760
20MABNDB000126_PR028
Spot 1     0.00164605     0.00201003
Spot 2     0.00192815     0.00201192
Spot 1     0.00164625     0.00201030
Spot 2     0.00192797     0.00201183
Spot 1     0.00164596     0.00201007
Spot 2     0.00192799     0.00201189
Spot 1     0.00164605     0.00201014
Spot 2     0.00192803     0.00201208
20MABNDA000272_PR038
Spot 1     0.00192373     0.00095571
Spot 2     0.00170227     0.00095341
Spot 1     0.00192388     0.00095570
Spot 2     0.00170232     0.00095354
Spot 1     0.00192364     0.00095573
Spot 2     0.00170256     0.00095386
Spot 1     0.00192382     0.00095589
Spot 2     0.00170235     0.00095341
20MABNDA000003_PR039
Spot 1     0.00200117     0.00193158
Spot 2     0.00227923     0.00193185
Spot 1     0.00200116     0.00193144
Spot 2     0.00227922     0.00193180
Spot 1     0.00200121     0.00193141
Spot 2     0.00227913     0.00193166
Spot 1     0.00200133     0.00193150
Spot 2     0.00227930     0.00193204
20MABNDA000196_PR006
Spot 1     0.00198627     0.00074348
Spot 2     0.00162014     0.00074086
Spot 1     0.00198617     0.00074360
Spot 2     0.00162027     0.00074103
Spot 1     0.00198635     0.00074342
Spot 2     0.00162021     0.00074075
Spot 1     0.00198635     0.00074353
Spot 2     0.00162000     0.00074086
20MABNDA000324_PR007
Spot 1     0.00194717     0.00120386
Spot 2     0.00174185     0.00120945
Spot 1     0.00194720     0.00120365
Spot 2     0.00174159     0.00120967
Spot 1     0.00194733     0.00120350
Spot 2     0.00174158     0.00120984
Spot 1     0.00194739     0.00120364
Spot 2     0.00174146     0.00120972
20MABNDB000001_PR017
Spot 1     0.00188713     0.00043720
Spot 2     0.00225500     0.00044746
Spot 1     0.00188709     0.00043727
Spot 2     0.00225482     0.00044714
Spot 1     0.00188703     0.00043724
Spot 2     0.00225500     0.00044679
Spot 1     0.00188718     0.00043725
Spot 2     0.00225500     0.00044722
20MABNDB000260_PR019
Spot 1     0.00192328     0.00150633
Spot 2     0.00212659     0.00150523
Spot 1     0.00192321     0.00150627
Spot 2     0.00212625     0.00150525
Spot 1     0.00192327     0.00150615
Spot 2     0.00212602     0.00150541
Spot 1     0.00192336     0.00150604
Spot 2     0.00212636     0.00150477
20MABNDB000212_PR029
Spot 1     0.00223610     0.00069353
Spot 2     0.00187375     0.00069469
Spot 1     0.00223608     0.00069347
Spot 2     0.00187409     0.00069500
Spot 1     0.00223614     0.00069366
Spot 2     0.00187412     0.00069529
Spot 1     0.00223627     0.00069352
Spot 2     0.00187403     0.00069532
20MABNDB000128_PR030
Spot 1     0.00190029     0.00200175
Spot 2     0.00210529     0.00199681
Spot 1     0.00190024     0.00200202
Spot 2     0.00210539     0.00199659
Spot 1     0.00190020     0.00200186
Spot 2     0.00210525     0.00199688
Spot 1     0.00190020     0.00200205
Spot 2     0.00210520     0.00199682
20MABNDA000444_PR040
Spot 1     0.00076044     0.00035368
Spot 2     0.00112780     0.00035033
Spot 1     0.00076096     0.00035353
Spot 2     0.00112743     0.00035041
Spot 1     0.00076100     0.00035367
Spot 2     0.00112722     0.00035056
Spot 1     0.00076064     0.00035380
Spot 2     0.00112776     0.00035053
20MABNDA000053_PR041
Spot 1     0.00166254     0.00198411
Spot 2     0.00144597     0.00197842
Spot 1     0.00166255     0.00198422
Spot 2     0.00144619     0.00197831
Spot 1     0.00166237     0.00198422
Spot 2     0.00144618     0.00197855
Spot 1     0.00166197     0.00198430
Spot 2     0.00144626     0.00197831
20MABNDB000069_PR031
Spot 1     0.00021500     0.00240500
Spot 2     0.00021500     0.00240500
Spot 1     0.00021500     0.00240500
Spot 2     0.00021500     0.00240500
Spot 1     0.00021500     0.00240500
Spot 2     0.00021500     0.00240500
Spot 1     0.00021500     0.00240500
Spot 2     0.00021500     0.00240500
20MABNDB000069_PR033
Spot 1     0.00182199     0.00207053
Spot 2     0.00229188     0.00208918
Spot 1     0.00182195     0.00207054
Spot 2     0.00229183     0.00208918
Spot 1     0.00182197     0.00207047
Spot 2     0.00229196     0.00208929
Spot 1     0.00182200     0.00207051
Spot 2     0.00229183     0.00208928
20MABNDB000131_PR032
Spot 1     0.00277726     0.00107712
Spot 2     0.00283651     0.00108026
Spot 1     0.00277724     0.00107702
Spot 2     0.00283687     0.00108039
Spot 1     0.00277699     0.00107695
Spot 2     0.00283662     0.00108068
Spot 1     0.00277726     0.00107713
Spot 2     0.00283672     0.00108044
20MABNDB000131_PR034
Spot 1     0.00092419     0.00032274
Spot 2     0.00110047     0.00032302
Spot 1     0.00092431     0.00032282
Spot 2     0.00110056     0.00032280
Spot 1     0.00092412     0.00032282
Spot 2     0.00110038     0.00032294
Spot 1     0.00092423     0.00032289
Spot 2     0.00110042     0.00032309
20MABNDA000208_PR042
Spot 1     0.00305804     0.00095397
Spot 2     0.00299191     0.00095167
Spot 1     0.00305851     0.00095411
Spot 2     0.00299176     0.00095221
Spot 1     0.00305905     0.00095431
Spot 2     0.00299269     0.00095259
Spot 1     0.00305878     0.00095372
Spot 2     0.00299147     0.00095250
20MABNDA000208_PR046
Spot 1     0.00144806     0.00220282
Spot 2     0.00097382     0.00220408
Spot 1     0.00144828     0.00220297
Spot 2     0.00097428     0.00220432
Spot 1     0.00144799     0.00220294
Spot 2     0.00097409     0.00220427
Spot 1     0.00144832     0.00220288
Spot 2     0.00097396     0.00220434
20MABNDA000035_PR044
Spot 1     0.00073800     0.00125652
Spot 2     0.00068230     0.00125049
Spot 1     0.00073747     0.00125639
Spot 2     0.00068237     0.00125045
Spot 1     0.00073827     0.00125602
Spot 2     0.00068228     0.00125039
Spot 1     0.00073816     0.00125626
Spot 2     0.00068214     0.00125046
20MABNDA000035_PR045
Spot 1     0.00254553     0.00047067
Spot 2     0.00236858     0.00047031
Spot 1     0.00254537     0.00047073
Spot 2     0.00236885     0.00047013
Spot 1     0.00254545     0.00047076
Spot 2     0.00236866     0.00046987
Spot 1     0.00254536     0.00047062
Spot 2     0.00236875     0.00046989


****************************************************************coordonnees images transformees dans le repere MOUNT************************************************************************* 
20MABNDA000188_PR008
Spot 1    -0.01391227     0.01380893    -0.07502000
Spot 2    -0.01391227     0.01380893    -0.07502000
Spot 1    -0.01391227     0.01380893    -0.07502000
Spot 2    -0.01391227     0.01380893    -0.07502000
Spot 1    -0.01391227     0.01380893    -0.07502000
Spot 2    -0.01391227     0.01380893    -0.07502000
Spot 1    -0.01391227     0.01380893    -0.07502000
Spot 2    -0.01391227     0.01380893    -0.07502000
Spot 1    -0.01391227     0.01380893    -0.07502000
Spot 2    -0.01391227     0.01380893    -0.07502000
20MABNDA000188_PR018
Spot 1    -0.01269915     0.01228706    -0.07502000
Spot 2    -0.01223191     0.01228681    -0.07502000
Spot 1    -0.01269921     0.01228712    -0.07502000
Spot 2    -0.01223208     0.01228675    -0.07502000
Spot 1    -0.01269930     0.01228721    -0.07502000
Spot 2    -0.01223203     0.01228672    -0.07502000
Spot 1    -0.01269925     0.01228711    -0.07502000
Spot 2    -0.01223196     0.01228671    -0.07502000
20MABNDA000039_PR009
Spot 1    -0.01162703     0.01306727    -0.07444800
Spot 2    -0.01158062     0.01306338    -0.07444800
Spot 1    -0.01162735     0.01306750    -0.07444800
Spot 2    -0.01158049     0.01306297    -0.07444800
Spot 1    -0.01162739     0.01306753    -0.07444800
Spot 2    -0.01158026     0.01306313    -0.07444800
Spot 1    -0.01162729     0.01306736    -0.07444800
Spot 2    -0.01158056     0.01306306    -0.07444800
20MABNDA000039_PR011
Spot 1    -0.01372703     0.01397225    -0.07444800
Spot 2    -0.01355108     0.01397576    -0.07444800
Spot 1    -0.01372682     0.01397220    -0.07444800
Spot 2    -0.01355114     0.01397607    -0.07444800
Spot 1    -0.01372688     0.01397227    -0.07444800
Spot 2    -0.01355091     0.01397596    -0.07444800
Spot 1    -0.01372680     0.01397223    -0.07444800
Spot 2    -0.01355108     0.01397587    -0.07444800
20MABNDB000155_PR020
Spot 1    -0.01364535    -0.01312583    -0.07501700
Spot 2    -0.01358210    -0.01312836    -0.07501700
Spot 1    -0.01364587    -0.01312603    -0.07501700
Spot 2    -0.01358233    -0.01312836    -0.07501700
Spot 1    -0.01364602    -0.01312625    -0.07501700
Spot 2    -0.01358176    -0.01312870    -0.07501700
Spot 1    -0.01364554    -0.01312587    -0.07501700
Spot 2    -0.01358137    -0.01312871    -0.07501700
20MABNDB000155_PR022
Spot 1    -0.01216021    -0.01283304    -0.07501700
Spot 2    -0.01168700    -0.01283113    -0.07501700
Spot 1    -0.01216029    -0.01283305    -0.07501700
Spot 2    -0.01168704    -0.01283103    -0.07501700
Spot 1    -0.01216020    -0.01283297    -0.07501700
Spot 2    -0.01168716    -0.01283130    -0.07501700
Spot 1    -0.01216027    -0.01283302    -0.07501700
Spot 2    -0.01168695    -0.01283110    -0.07501700
20MABNDB000010_PR021
Spot 1    -0.01158056    -0.01292584    -0.07358200
Spot 2    -0.01152806    -0.01292229    -0.07358200
Spot 1    -0.01158075    -0.01292606    -0.07358200
Spot 2    -0.01152826    -0.01292236    -0.07358200
Spot 1    -0.01158066    -0.01292585    -0.07358200
Spot 2    -0.01152812    -0.01292249    -0.07358200
Spot 1    -0.01158072    -0.01292597    -0.07358200
Spot 2    -0.01152823    -0.01292242    -0.07358200
20MABNDB000010_PR023
Spot 1    -0.01312355    -0.01379246    -0.07358200
Spot 2    -0.01294866    -0.01379120    -0.07358200
Spot 1    -0.01312371    -0.01379236    -0.07358200
Spot 2    -0.01294874    -0.01379113    -0.07358200
Spot 1    -0.01312342    -0.01379254    -0.07358200
Spot 2    -0.01294889    -0.01379090    -0.07358200
Spot 1    -0.01312361    -0.01379252    -0.07358200
Spot 2    -0.01294872    -0.01379092    -0.07358200
20MABNDL000077_PR002
Spot 1     0.01228349     0.03557544    -0.07463200
Spot 2     0.01158509     0.03451311    -0.07463200
Spot 1     0.01228545     0.03557446    -0.07463200
Spot 2     0.01158509     0.03451311    -0.07463200
Spot 1     0.01228460     0.03557540    -0.07463200
Spot 2     0.01158509     0.03451311    -0.07463200
Spot 1     0.01228640     0.03557201    -0.07463200
Spot 2     0.01158509     0.03451311    -0.07463200
20MABNDL000077_PR003
Spot 1     0.01245691     0.03556438    -0.07463200
Spot 2     0.01260590     0.03555960    -0.07463200
Spot 1     0.01245705     0.03556452    -0.07463200
Spot 2     0.01260596     0.03555956    -0.07463200
Spot 1     0.01245761     0.03556436    -0.07463200
Spot 2     0.01260550     0.03555938    -0.07463200
Spot 1     0.01245699     0.03556434    -0.07463200
Spot 2     0.01260537     0.03555967    -0.07463200
20MABNDL000077_20MABNDM000168
Spot 1    -0.01259294     0.03524832    -0.00695400
Spot 2    -0.01157915     0.03417830    -0.00695400
Spot 1    -0.01259216     0.03524847    -0.00695400
Spot 2    -0.01157915     0.03417830    -0.00695400
Spot 1    -0.01259307     0.03524835    -0.00695400
Spot 2    -0.01157915     0.03417830    -0.00695400
Spot 1    -0.01259240     0.03524845    -0.00695400
Spot 2    -0.01157915     0.03417830    -0.00695400
20MABNDL000077_PR024
Spot 1    -0.01338167     0.03549039    -0.00695400
Spot 2    -0.01347914     0.03550117    -0.00695400
Spot 1    -0.01338212     0.03549067    -0.00695400
Spot 2    -0.01347924     0.03550120    -0.00695400
Spot 1    -0.01338192     0.03549056    -0.00695400
Spot 2    -0.01347889     0.03550100    -0.00695400
Spot 1    -0.01338143     0.03549055    -0.00695400
Spot 2    -0.01347879     0.03550107    -0.00695400
20MABNDM000020_PR013
Spot 1    -0.01302510    -0.03407982    -0.00523500
Spot 2    -0.01302510    -0.03407982    -0.00523500
Spot 1    -0.01278295    -0.03417449    -0.00523500
Spot 2    -0.01302510    -0.03407982    -0.00523500
Spot 1    -0.01302510    -0.03407982    -0.00523500
Spot 2    -0.01302510    -0.03407982    -0.00523500
Spot 1    -0.01278295    -0.03417449    -0.00523500
Spot 2    -0.01302510    -0.03407982    -0.00523500
20MABNDM000020_PR014
Spot 1    -0.01128044    -0.03427129    -0.00523500
Spot 2    -0.01128044    -0.03427129    -0.00523500
Spot 1    -0.01128044    -0.03427129    -0.00523500
Spot 2    -0.01128044    -0.03427129    -0.00523500
Spot 1    -0.01128044    -0.03427129    -0.00523500
Spot 2    -0.01128044    -0.03427129    -0.00523500
Spot 1    -0.01128044    -0.03427129    -0.00523500
Spot 2    -0.01128044    -0.03427129    -0.00523500
20MABNDM000020_20MABNDL000196
Spot 1     0.01270940    -0.03514683    -0.07583800
Spot 2     0.01427112    -0.03400335    -0.07583800
Spot 1     0.01270937    -0.03514667    -0.07583800
Spot 2     0.01238113    -0.03407361    -0.07583800
Spot 1     0.01270956    -0.03514687    -0.07583800
Spot 2     0.01238113    -0.03407361    -0.07583800
Spot 1     0.01270940    -0.03514681    -0.07583800
Spot 2     0.01238113    -0.03407361    -0.07583800
20MABNDM000020_PR035
Spot 1     0.01341582    -0.03546325    -0.07583800
Spot 2     0.01349849    -0.03550003    -0.07583800
Spot 1     0.01341549    -0.03546319    -0.07583800
Spot 2     0.01349822    -0.03550027    -0.07583800
Spot 1     0.01341555    -0.03546311    -0.07583800
Spot 2     0.01349816    -0.03550011    -0.07583800
Spot 1     0.01341583    -0.03546327    -0.07583800
Spot 2     0.01349850    -0.03549985    -0.07583800
20MABNDM000168_PR025
Spot 1    -0.01292129    -0.03484087    -0.00532900
Spot 2    -0.01292129    -0.03484087    -0.00532900
Spot 1    -0.01292129    -0.03484087    -0.00532900
Spot 2    -0.01292129    -0.03484087    -0.00532900
Spot 1    -0.01292129    -0.03484087    -0.00532900
Spot 2    -0.01292129    -0.03484087    -0.00532900
Spot 1    -0.01292129    -0.03484087    -0.00532900
Spot 2    -0.01292129    -0.03484087    -0.00532900
20MABNDM000168_PR026
Spot 1    -0.01173487    -0.03575815    -0.00532900
Spot 2    -0.01189605    -0.03575510    -0.00532900
Spot 1    -0.01173494    -0.03575821    -0.00532900
Spot 2    -0.01189596    -0.03575546    -0.00532900
Spot 1    -0.01173494    -0.03575831    -0.00532900
Spot 2    -0.01189598    -0.03575557    -0.00532900
Spot 1    -0.01173482    -0.03575833    -0.00532900
Spot 2    -0.01189557    -0.03575558    -0.00532900
20MABNDM000168_20MABNDL000077
Spot 1     0.01288409    -0.03530187    -0.07445100
Spot 2     0.01266847    -0.03530243    -0.07445100
Spot 1     0.01288408    -0.03530165    -0.07445100
Spot 2     0.01266848    -0.03530211    -0.07445100
Spot 1     0.01288404    -0.03530181    -0.07445100
Spot 2     0.01266861    -0.03530201    -0.07445100
Spot 1     0.01288398    -0.03530183    -0.07445100
Spot 2     0.01266854    -0.03530196    -0.07445100
20MABNDM000168_PR001
Spot 1     0.01361219    -0.03563240    -0.07445100
Spot 2     0.01371384    -0.03563594    -0.07445100
Spot 1     0.01361211    -0.03563253    -0.07445100
Spot 2     0.01371384    -0.03563601    -0.07445100
Spot 1     0.01361212    -0.03563250    -0.07445100
Spot 2     0.01371375    -0.03563591    -0.07445100
Spot 1     0.01361196    -0.03563269    -0.07445100
Spot 2     0.01371381    -0.03563609    -0.07445100
20MABNDL000196_PR036
Spot 1     0.01192612     0.03582851    -0.07483600
Spot 2     0.01209023     0.03582818    -0.07483600
Spot 1     0.01192627     0.03582865    -0.07483600
Spot 2     0.01209006     0.03582873    -0.07483600
Spot 1     0.01192617     0.03582845    -0.07483600
Spot 2     0.01208998     0.03582861    -0.07483600
Spot 1     0.01192616     0.03582863    -0.07483600
Spot 2     0.01209021     0.03582865    -0.07483600
20MABNDL000196_PR037
Spot 1     0.01344952     0.03536053    -0.07483600
Spot 2     0.01360472     0.03535964    -0.07483600
Spot 1     0.01344991     0.03536076    -0.07483600
Spot 2     0.01360456     0.03535955    -0.07483600
Spot 1     0.01344958     0.03536095    -0.07483600
Spot 2     0.01360464     0.03535954    -0.07483600
Spot 1     0.01344955     0.03536123    -0.07483600
Spot 2     0.01360468     0.03535974    -0.07483600
20MABNDL000196_20MABNDM000020
Spot 1    -0.01274932     0.03531356    -0.00611000
Spot 2    -0.01252848     0.03532322    -0.00611000
Spot 1    -0.01274939     0.03531350    -0.00611000
Spot 2    -0.01252862     0.03532315    -0.00611000
Spot 1    -0.01274943     0.03531351    -0.00611000
Spot 2    -0.01252864     0.03532322    -0.00611000
Spot 1    -0.01274936     0.03531357    -0.00611000
Spot 2    -0.01252878     0.03532318    -0.00611000
20MABNDL000196_PR012
Spot 1    -0.01348127     0.03559836    -0.00611000
Spot 2    -0.01355456     0.03564217    -0.00611000
Spot 1    -0.01348149     0.03559879    -0.00611000
Spot 2    -0.01355431     0.03564213    -0.00611000
Spot 1    -0.01348131     0.03559866    -0.00611000
Spot 2    -0.01355440     0.03564204    -0.00611000
Spot 1    -0.01348129     0.03559854    -0.00611000
Spot 2    -0.01355449     0.03564201    -0.00611000
20MABNDA000318_PR004
Spot 1    -0.01286582     0.01247109    -0.07310600
Spot 2    -0.01264801     0.01247073    -0.07310600
Spot 1    -0.01286584     0.01247076    -0.07310600
Spot 2    -0.01264777     0.01247079    -0.07310600
Spot 1    -0.01286579     0.01247086    -0.07310600
Spot 2    -0.01264799     0.01247079    -0.07310600
Spot 1    -0.01286574     0.01247094    -0.07310600
Spot 2    -0.01264788     0.01247073    -0.07310600
20MABNDA000334_PR005
Spot 1    -0.01311535     0.01254339    -0.07324100
Spot 2    -0.01283490     0.01254276    -0.07324100
Spot 1    -0.01311541     0.01254361    -0.07324100
Spot 2    -0.01283529     0.01254264    -0.07324100
Spot 1    -0.01311535     0.01254339    -0.07324100
Spot 2    -0.01283524     0.01254283    -0.07324100
Spot 1    -0.01311528     0.01254354    -0.07324100
Spot 2    -0.01283496     0.01254277    -0.07324100
20MABNDB000317_PR015
Spot 1    -0.01266589    -0.01249925    -0.07326100
Spot 2    -0.01244554    -0.01250316    -0.07326100
Spot 1    -0.01266571    -0.01249911    -0.07326100
Spot 2    -0.01244574    -0.01250302    -0.07326100
Spot 1    -0.01266569    -0.01249922    -0.07326100
Spot 2    -0.01244546    -0.01250300    -0.07326100
Spot 1    -0.01266584    -0.01249929    -0.07326100
Spot 2    -0.01244569    -0.01250330    -0.07326100
20MABNDB000146_PR016
Spot 1    -0.01275909    -0.01246255    -0.07450500
Spot 2    -0.01248374    -0.01245975    -0.07450500
Spot 1    -0.01275909    -0.01246260    -0.07450500
Spot 2    -0.01248382    -0.01245970    -0.07450500
Spot 1    -0.01275903    -0.01246240    -0.07450500
Spot 2    -0.01248382    -0.01245972    -0.07450500
Spot 1    -0.01275897    -0.01246262    -0.07450500
Spot 2    -0.01248363    -0.01245966    -0.07450500
20MABNDB000135_PR027
Spot 1    -0.01251207    -0.01319720    -0.07464700
Spot 2    -0.01229425    -0.01319754    -0.07464700
Spot 1    -0.01251235    -0.01319704    -0.07464700
Spot 2    -0.01229424    -0.01319758    -0.07464700
Spot 1    -0.01251213    -0.01319736    -0.07464700
Spot 2    -0.01229410    -0.01319791    -0.07464700
Spot 1    -0.01251219    -0.01319723    -0.07464700
Spot 2    -0.01229415    -0.01319786    -0.07464700
20MABNDB000126_PR028
Spot 1    -0.01253349    -0.01217213    -0.07500400
Spot 2    -0.01225140    -0.01216874    -0.07500400
Spot 1    -0.01253329    -0.01217186    -0.07500400
Spot 2    -0.01225158    -0.01216883    -0.07500400
Spot 1    -0.01253358    -0.01217209    -0.07500400
Spot 2    -0.01225156    -0.01216877    -0.07500400
Spot 1    -0.01253349    -0.01217202    -0.07500400
Spot 2    -0.01225152    -0.01216858    -0.07500400
20MABNDA000272_PR038
Spot 1    -0.01275939     0.01315576    -0.07417900
Spot 2    -0.01253793     0.01315767    -0.07417900
Spot 1    -0.01275954     0.01315577    -0.07417900
Spot 2    -0.01253798     0.01315754    -0.07417900
Spot 1    -0.01275930     0.01315574    -0.07417900
Spot 2    -0.01253822     0.01315722    -0.07417900
Spot 1    -0.01275948     0.01315558    -0.07417900
Spot 2    -0.01253801     0.01315767    -0.07417900
20MABNDA000003_PR039
Spot 1    -0.01280227     0.01212069    -0.07373400
Spot 2    -0.01308033     0.01212112    -0.07373400
Spot 1    -0.01280226     0.01212083    -0.07373400
Spot 2    -0.01308032     0.01212117    -0.07373400
Spot 1    -0.01280231     0.01212086    -0.07373400
Spot 2    -0.01308023     0.01212131    -0.07373400
Spot 1    -0.01280243     0.01212077    -0.07373400
Spot 2    -0.01308040     0.01212093    -0.07373400
20MABNDA000196_PR006
Spot 1    -0.01294116     0.01323475    -0.07967100
Spot 2    -0.01257503     0.01323266    -0.07967100
Spot 1    -0.01294106     0.01323463    -0.07967100
Spot 2    -0.01257516     0.01323249    -0.07967100
Spot 1    -0.01294124     0.01323481    -0.07967100
Spot 2    -0.01257509     0.01323277    -0.07967100
Spot 1    -0.01294124     0.01323470    -0.07967100
Spot 2    -0.01257489     0.01323266    -0.07967100
20MABNDA000324_PR007
Spot 1    -0.01255295     0.01281772    -0.07446800
Spot 2    -0.01234759     0.01281373    -0.07446800
Spot 1    -0.01255298     0.01281793    -0.07446800
Spot 2    -0.01234733     0.01281351    -0.07446800
Spot 1    -0.01255311     0.01281808    -0.07446800
Spot 2    -0.01234732     0.01281334    -0.07446800
Spot 1    -0.01255317     0.01281794    -0.07446800
Spot 2    -0.01234720     0.01281346    -0.07446800
20MABNDB000001_PR017
Spot 1    -0.01230125    -0.01355233    -0.07418400
Spot 2    -0.01193329    -0.01354596    -0.07418400
Spot 1    -0.01230129    -0.01355225    -0.07418400
Spot 2    -0.01193347    -0.01354628    -0.07418400
Spot 1    -0.01230135    -0.01355228    -0.07418400
Spot 2    -0.01193330    -0.01354663    -0.07418400
Spot 1    -0.01230120    -0.01355228    -0.07418400
Spot 2    -0.01193329    -0.01354620    -0.07418400
20MABNDB000260_PR019
Spot 1    -0.01240813    -0.01239620    -0.07492700
Spot 2    -0.01220484    -0.01239313    -0.07492700
Spot 1    -0.01240820    -0.01239626    -0.07492700
Spot 2    -0.01220518    -0.01239312    -0.07492700
Spot 1    -0.01240814    -0.01239638    -0.07492700
Spot 2    -0.01220542    -0.01239296    -0.07492700
Spot 1    -0.01240805    -0.01239649    -0.07492700
Spot 2    -0.01220507    -0.01239359    -0.07492700
20MABNDB000212_PR029
Spot 1    -0.01185182    -0.01328776    -0.07390500
Spot 2    -0.01221414    -0.01328274    -0.07390500
Spot 1    -0.01185185    -0.01328782    -0.07390500
Spot 2    -0.01221380    -0.01328243    -0.07390500
Spot 1    -0.01185178    -0.01328763    -0.07390500
Spot 2    -0.01221377    -0.01328214    -0.07390500
Spot 1    -0.01185165    -0.01328778    -0.07390500
Spot 2    -0.01221385    -0.01328211    -0.07390500
20MABNDB000128_PR030
Spot 1    -0.01245483    -0.01221557    -0.07353400
Spot 2    -0.01224982    -0.01221980    -0.07353400
Spot 1    -0.01245489    -0.01221530    -0.07353400
Spot 2    -0.01224972    -0.01222002    -0.07353400
Spot 1    -0.01245492    -0.01221546    -0.07353400
Spot 2    -0.01224986    -0.01221973    -0.07353400
Spot 1    -0.01245493    -0.01221527    -0.07353400
Spot 2    -0.01224991    -0.01221979    -0.07353400
20MABNDA000444_PR040
Spot 1    -0.01170027     0.01367594    -0.07412000
Spot 2    -0.01206764     0.01367463    -0.07412000
Spot 1    -0.01170079     0.01367608    -0.07412000
Spot 2    -0.01206727     0.01367455    -0.07412000
Spot 1    -0.01170083     0.01367594    -0.07412000
Spot 2    -0.01206706     0.01367441    -0.07412000
Spot 1    -0.01170047     0.01367582    -0.07412000
Spot 2    -0.01206760     0.01367443    -0.07412000
20MABNDA000053_PR041
Spot 1    -0.01241907     0.01212653    -0.07430100
Spot 2    -0.01220243     0.01212800    -0.07430100
Spot 1    -0.01241909     0.01212643    -0.07430100
Spot 2    -0.01220265     0.01212811    -0.07430100
Spot 1    -0.01241891     0.01212642    -0.07430100
Spot 2    -0.01220265     0.01212787    -0.07430100
Spot 1    -0.01241851     0.01212633    -0.07430100
Spot 2    -0.01220272     0.01212811    -0.07430100
20MABNDB000069_PR031
Spot 1    -0.01361993    -0.01186066    -0.07388500
Spot 2    -0.01361993    -0.01186066    -0.07388500
Spot 1    -0.01361993    -0.01186066    -0.07388500
Spot 2    -0.01361993    -0.01186066    -0.07388500
Spot 1    -0.01361993    -0.01186066    -0.07388500
Spot 2    -0.01361993    -0.01186066    -0.07388500
Spot 1    -0.01361993    -0.01186066    -0.07388500
Spot 2    -0.01361993    -0.01186066    -0.07388500
20MABNDB000069_PR033
Spot 1    -0.01202811    -0.01226117    -0.07388500
Spot 2    -0.01155785    -0.01226192    -0.07388500
Spot 1    -0.01202815    -0.01226115    -0.07388500
Spot 2    -0.01155790    -0.01226192    -0.07388500
Spot 1    -0.01202813    -0.01226122    -0.07388500
Spot 2    -0.01155777    -0.01226182    -0.07388500
Spot 1    -0.01202810    -0.01226119    -0.07388500
Spot 2    -0.01155790    -0.01226182    -0.07388500
20MABNDB000131_PR032
Spot 1    -0.01144289    -0.01303763    -0.07533000
Spot 2    -0.01138365    -0.01303419    -0.07533000
Spot 1    -0.01144291    -0.01303773    -0.07533000
Spot 2    -0.01138329    -0.01303406    -0.07533000
Spot 1    -0.01144316    -0.01303780    -0.07533000
Spot 2    -0.01138355    -0.01303377    -0.07533000
Spot 1    -0.01144289    -0.01303762    -0.07533000
Spot 2    -0.01138344    -0.01303401    -0.07533000
20MABNDB000131_PR034
Spot 1    -0.01329214    -0.01380133    -0.07533000
Spot 2    -0.01311586    -0.01380017    -0.07533000
Spot 1    -0.01329202    -0.01380125    -0.07533000
Spot 2    -0.01311577    -0.01380038    -0.07533000
Spot 1    -0.01329221    -0.01380125    -0.07533000
Spot 2    -0.01311595    -0.01380025    -0.07533000
Spot 1    -0.01329210    -0.01380118    -0.07533000
Spot 2    -0.01311591    -0.01380010    -0.07533000
20MABNDA000208_PR042
Spot 1    -0.01392876     0.01304205    -0.07273700
Spot 2    -0.01386263     0.01304441    -0.07273700
Spot 1    -0.01392923     0.01304191    -0.07273700
Spot 2    -0.01386248     0.01304387    -0.07273700
Spot 1    -0.01392977     0.01304171    -0.07273700
Spot 2    -0.01386341     0.01304349    -0.07273700
Spot 1    -0.01392950     0.01304230    -0.07273700
Spot 2    -0.01386219     0.01304358    -0.07273700
20MABNDA000208_PR046
Spot 1    -0.01231768     0.01179461    -0.07273700
Spot 2    -0.01184344     0.01179377    -0.07273700
Spot 1    -0.01231790     0.01179446    -0.07273700
Spot 2    -0.01184390     0.01179353    -0.07273700
Spot 1    -0.01231761     0.01179449    -0.07273700
Spot 2    -0.01184371     0.01179358    -0.07273700
Spot 1    -0.01231794     0.01179455    -0.07273700
Spot 2    -0.01184358     0.01179351    -0.07273700
20MABNDA000035_PR044
Spot 1    -0.01157264     0.01300072    -0.07483200
Spot 2    -0.01151690     0.01300636    -0.07483200
Spot 1    -0.01157211     0.01300085    -0.07483200
Spot 2    -0.01151697     0.01300640    -0.07483200
Spot 1    -0.01157291     0.01300123    -0.07483200
Spot 2    -0.01151688     0.01300646    -0.07483200
Spot 1    -0.01157280     0.01300099    -0.07483200
Spot 2    -0.01151674     0.01300639    -0.07483200
20MABNDA000035_PR045
Spot 1    -0.01337454     0.01379941    -0.07483200
Spot 2    -0.01319759     0.01379851    -0.07483200
Spot 1    -0.01337438     0.01379935    -0.07483200
Spot 2    -0.01319786     0.01379870    -0.07483200
Spot 1    -0.01337446     0.01379932    -0.07483200
Spot 2    -0.01319767     0.01379895    -0.07483200
Spot 1    -0.01337437     0.01379946    -0.07483200
Spot 2    -0.01319776     0.01379894    -0.07483200


*****************************************************************coordonnees du prisme dans le repere MOUNT********************************************************************************** 
20MABNDA000188_PR008
    0.13650158    -0.07885031     9.20339394
    0.13650158    -0.07885031     9.20339394
    0.13650158    -0.07885031     9.20339394
    0.13650158    -0.07885031     9.20339394
    0.13650158    -0.07885031     9.20339394
20MABNDA000188_PR018
   -0.01665649     0.02632916     1.28357613
   -0.01665452     0.02632914     1.28357613
   -0.01665418     0.02632862     1.28357613
   -0.01665520     0.02632957     1.28357613
20MABNDA000039_PR009
   -0.17095497     0.02509740    11.00702000
   -0.17094028     0.02511051    11.00702000
   -0.17095424     0.02509667    11.00702000
   -0.17094028     0.02511416    11.00702000
20MABNDA000039_PR011
    0.03080237    -0.02457562     3.43347001
    0.03079892    -0.02458154     3.43347001
    0.03079505    -0.02458061     3.43347001
    0.03079712    -0.02457766     3.43347001
20MABNDB000155_PR020
    0.10212149    -0.00918415     9.20028305
    0.10216735    -0.00917124     9.20028305
    0.10214111    -0.00913784     9.20028305
    0.10208802    -0.00916005     9.20028305
20MABNDB000155_PR022
   -0.02555747    -0.01761804     1.28070843
   -0.02555652    -0.01761880     1.28070843
   -0.02555620    -0.01761717     1.28070843
   -0.02555737    -0.01761847     1.28070843
20MABNDB000010_PR021
   -0.17624547    -0.03365841    11.00694561
   -0.17621714    -0.03363807    11.00694561
   -0.17623396    -0.03364277    11.00694561
   -0.17622152    -0.03363962    11.00694561
20MABNDB000010_PR023
    0.00427893     0.02029430     3.43377113
    0.00428451     0.02029027     3.43377113
    0.00428132     0.02028907     3.43377113
    0.00428177     0.02028907     3.43377113
20MABNDL000077_PR002
    0.05012786     0.04748044     3.70691442
    0.05007944     0.04750462     3.70691466
    0.05010046     0.04748145     3.70691466
    0.05005606     0.04756537     3.70691466
20MABNDL000077_PR003
    0.02103455     0.02118429     3.89601660
    0.02102959     0.02118174     3.89601660
    0.02102656     0.02119060     3.89601660
    0.02104623     0.02118366     3.89601660
20MABNDL000077_20MABNDM000168
   -0.05595388     0.07575244    -5.46843719
   -0.05598200     0.07574710    -5.46843624
   -0.05594917     0.07575141    -5.46843719
   -0.05597334     0.07574755    -5.46843624
20MABNDL000077_PR024
    0.04542455     0.01790011    -5.89640379
    0.04544572     0.01788786    -5.89640331
    0.04542416     0.01789972    -5.89640379
    0.04540119     0.01789754    -5.89640379
20MABNDM000020_PR013
    0.00707881    -0.08812969    -3.80206895
    0.00107112    -0.08578172    -3.80212831
    0.00707881    -0.08812969    -3.80206895
    0.00107112    -0.08578172    -3.80212831
20MABNDM000020_PR014
   -0.09646920    -0.08948103    -4.74775267
   -0.09646920    -0.08948103    -4.74775267
   -0.09646920    -0.08948103    -4.74775267
   -0.09646920    -0.08948103    -4.74775267
20MABNDM000020_20MABNDL000196
   -0.04086363    -0.07375272     5.39443207
    0.02684880    -0.07124308     5.39469719
    0.02684200    -0.07123591     5.39469719
    0.02684773    -0.07123806     5.39469719
20MABNDM000020_PR035
   -0.04235312    -0.00675225     5.80095530
   -0.04233000    -0.00674531     5.80095530
   -0.04233000    -0.00675455     5.80095530
   -0.04235388    -0.00675841     5.80095530
20MABNDM000168_PR025
   -0.00091071    -0.06043248    -3.78869867
   -0.00091071    -0.06043248    -3.78869867
   -0.00091071    -0.06043248    -3.78869867
   -0.00091071    -0.06043248    -3.78869867
20MABNDM000168_PR026
   -0.05785754    -0.01404534    -3.98429084
   -0.05785810    -0.01403441    -3.98429084
   -0.05785761    -0.01402894    -3.98429084
   -0.05787141    -0.01402822    -3.98429084
20MABNDM000168_20MABNDL000077
    0.01151793    -0.03871242     5.38884687
    0.01151836    -0.03873183     5.38884687
    0.01151516    -0.03872962     5.38884687
    0.01151982    -0.03873077     5.38884687
20MABNDM000168_PR001
   -0.05732507    -0.01318143     5.81470490
   -0.05732264    -0.01317371     5.81470490
   -0.05731883    -0.01317880     5.81470490
   -0.05731552    -0.01316451     5.81470490
20MABNDL000196_PR036
    0.05136880     0.00593443     3.68777132
    0.05136909     0.00591749     3.68777132
    0.05137349     0.00592536     3.68777132
    0.05136810     0.00591994     3.68777132
20MABNDL000196_PR037
   -0.02512421     0.02855206     3.88381338
   -0.02513015     0.02854869     3.88381290
   -0.02512368     0.02854379     3.88381338
   -0.02512391     0.02853138     3.88381290
20MABNDL000196_20MABNDM000020
   -0.01573166     0.03783205    -5.47473907
   -0.01572420     0.03783651    -5.47473907
   -0.01572199     0.03783368    -5.47473907
   -0.01571945     0.03783266    -5.47473907
20MABNDL000196_PR012
    0.05234447     0.01451265    -5.91537189
    0.05234361     0.01449747    -5.91537189
    0.05233993     0.01450595    -5.91537189
    0.05234254     0.01451183    -5.91537189
20MABNDA000318_PR004
   -0.00844974     0.03834122     2.74965954
   -0.00845360     0.03834616     2.74965954
   -0.00845048     0.03834433     2.74965954
   -0.00845341     0.03834396     2.74965954
20MABNDA000334_PR005
   -0.00429840     0.03166116     2.14977217
   -0.00429197     0.03165973     2.14977217
   -0.00429354     0.03166016     2.14977217
   -0.00429855     0.03165888     2.14977217
20MABNDB000317_PR015
   -0.01740867    -0.03394927     2.75129056
   -0.01740825    -0.03395436     2.75129056
   -0.01741373    -0.03395279     2.75129056
   -0.01740671    -0.03394597     2.75129056
20MABNDB000146_PR016
   -0.01356800    -0.03174983     2.15201306
   -0.01356685    -0.03174983     2.15201306
   -0.01356771    -0.03175242     2.15201306
   -0.01357131    -0.03175013     2.15201306
20MABNDB000135_PR027
   -0.02105490    -0.00985181     2.74937105
   -0.02104998    -0.00985406     2.74937105
   -0.02105682    -0.00984225     2.74937105
   -0.02105465    -0.00984539     2.74937105
20MABNDB000126_PR028
   -0.02037328    -0.03899110     2.14679480
   -0.02037355    -0.03899367     2.14679480
   -0.02036972    -0.03899123     2.14679480
   -0.02037155    -0.03899494     2.14679456
20MABNDA000272_PR038
   -0.01320523     0.01093911     2.74965882
   -0.01320157     0.01094131     2.74965882
   -0.01320156     0.01094772     2.74965882
   -0.01320211     0.01094241     2.74965882
20MABNDA000003_PR039
   -0.00592378     0.04138606     2.14891338
   -0.00592408     0.04138334     2.14891338
   -0.00592465     0.04138092     2.14891386
   -0.00592049     0.04138762     2.14891338
20MABNDA000196_PR006
   -0.01039490     0.01024013     1.64206433
   -0.01039453     0.01024329     1.64206433
   -0.01039328     0.01023825     1.64206433
   -0.01039554     0.01024069     1.64206433
20MABNDA000324_PR007
   -0.02527410     0.02752397     2.95549345
   -0.02527862     0.02752413     2.95549345
   -0.02527627     0.02752454     2.95549345
   -0.02527745     0.02752493     2.95549345
20MABNDB000001_PR017
   -0.02413748    -0.00281821     1.64035964
   -0.02413505    -0.00281551     1.64035964
   -0.02413632    -0.00281134     1.64035964
   -0.02413800    -0.00281613     1.64035964
20MABNDB000260_PR019
   -0.02438629    -0.03847585     2.95627356
   -0.02437823    -0.03847490     2.95627403
   -0.02437487    -0.03847562     2.95627403
   -0.02438364    -0.03846102     2.95627403
20MABNDB000212_PR029
   -0.02543341    -0.00831372     1.64223719
   -0.02543695    -0.00831642     1.64223719
   -0.02543799    -0.00832167     1.64223719
   -0.02543841    -0.00832046     1.64223719
20MABNDB000128_PR030
   -0.01928976    -0.04683536     2.95496273
   -0.01929074    -0.04683635     2.95496273
   -0.01928719    -0.04683889     2.95496273
   -0.01928620    -0.04684144     2.95496273
20MABNDA000444_PR040
   -0.02990256     0.00089892     1.64491200
   -0.02990090     0.00089817     1.64491200
   -0.02990280     0.00090132     1.64491200
   -0.02990085     0.00090244     1.64491200
20MABNDA000053_PR041
   -0.02644562     0.05074899     2.95450902
   -0.02644111     0.05074891     2.95450902
   -0.02644475     0.05075369     2.95450902
   -0.02645109     0.05075067     2.95450902
20MABNDB000069_PR031
    0.10999375    -0.16176865     9.20229721
    0.10999375    -0.16176865     9.20229721
    0.10999375    -0.16176865     9.20229721
    0.10999375    -0.16176865     9.20229721
20MABNDB000069_PR033
   -0.02678521    -0.02696236     1.28394079
   -0.02678444    -0.02696248     1.28394079
   -0.02678574    -0.02696277     1.28394079
   -0.02678489    -0.02696306     1.28394079
20MABNDB000131_PR032
   -0.18793806    -0.02968641    11.00642204
   -0.18796289    -0.02968872    11.00642204
   -0.18792628    -0.02970461    11.00642204
   -0.18795334    -0.02970036    11.00642204
20MABNDB000131_PR034
    0.01432093     0.01654818     3.43337822
    0.01431613     0.01655135     3.43337822
    0.01432458     0.01654820     3.43337822
    0.01432118     0.01654317     3.43337822
20MABNDA000208_PR042
    0.13237900     0.01464051     9.20145035
    0.13239861     0.01468226     9.20145035
    0.13248876     0.01471794     9.20144844
    0.13239738     0.01467612     9.20145035
20MABNDA000208_PR046
   -0.02350362     0.03463597     1.28208125
   -0.02349781     0.03463931     1.28208125
   -0.02350191     0.03463862     1.28208125
   -0.02350020     0.03463871     1.28208125
20MABNDA000035_PR044
   -0.17992038     0.02663026    11.00802326
   -0.17995411     0.02661806    11.00802326
   -0.17990242     0.02658624    11.00802422
   -0.17992052     0.02660904    11.00802326
20MABNDA000035_PR045
    0.01461297    -0.01897947     3.43483686
    0.01461546    -0.01898222     3.43483686
    0.01461291    -0.01898746     3.43483686
    0.01461289    -0.01899019     3.43483639


*****************************************************************coordonnees du prisme dans le repere ATLAS********************************************************************************** 
20MABNDA000188_PR008 0.00000000
    3.54951787     3.84898496     8.09023857
    3.54951787     3.84898496     8.09023857
    3.54951787     3.84898496     8.09023857
    3.54951787     3.84898496     8.09023857
    3.54951787     3.84898496     8.09023857
20MABNDA000188_PR018 0.00000000
    3.52048826    -4.07060432     7.89711237
    3.52049017    -4.07060432     7.89711237
    3.52049041    -4.07060432     7.89711285
    3.52048945    -4.07060432     7.89711189
20MABNDA000039_PR009 0.00000000
    3.87512708     3.64747858    12.93639183
    3.87511230     3.64747858    12.93640423
    3.87512636     3.64747858    12.93639088
    3.87511230     3.64747858    12.93640804
20MABNDA000039_PR011 0.00000000
    3.66422176    -3.92580581    12.88426113
    3.66422510    -3.92580581    12.88425541
    3.66422915    -3.92580581    12.88425636
    3.66422701    -3.92580581    12.88425922
20MABNDB000155_PR020 0.00000000
   -3.68077374     3.84881616     7.89768314
   -3.68081951     3.84881592     7.89769602
   -3.68079329     3.84881592     7.89772940
   -3.68074036     3.84881616     7.89770699
20MABNDB000155_PR022 0.00000000
   -3.53442311    -4.07043648     7.89044094
   -3.53442407    -4.07043648     7.89044046
   -3.53442430    -4.07043648     7.89044189
   -3.53442311    -4.07043648     7.89044094
20MABNDB000010_PR021 0.00000000
   -3.86208272     3.64768314    12.93548775
   -3.86205435     3.64768291    12.93546772
   -3.86207128     3.64768314    12.93547249
   -3.86205888     3.64768291    12.93546963
20MABNDB000010_PR023 0.00000000
   -3.68538737    -3.92560554    12.88498116
   -3.68538189    -3.92560554    12.88498592
   -3.68538499    -3.92560554    12.88498688
   -3.68538475    -3.92560554    12.88498688
20MABNDL000077_PR002 0.00000000
    2.80956054    -3.69438076     6.48622084
    2.80953646    -3.69442916     6.48622131
    2.80955958    -3.69440818     6.48622131
    2.80947566    -3.69445252     6.48622131
20MABNDL000077_PR003 0.00000000
    2.83603287    -3.72371578     6.67526102
    2.83603549    -3.72372079     6.67526102
    2.83602667    -3.72372389     6.67526102
    2.83603358    -3.72370410     6.67526102
20MABNDL000077_20MABNDM000168 0.00000000
    2.77225494    -3.78913307    -2.68922234
    2.77226019    -3.78916121    -2.68922138
    2.77225590    -3.78912830    -2.68922234
    2.77225971    -3.78915238    -2.68922138
20MABNDL000077_PR024 0.00000000
    2.82971978    -3.68724513    -3.11712003
    2.82973194    -3.68722391    -3.11711955
    2.82972026    -3.68724537    -3.11712003
    2.82972240    -3.68726850    -3.11712003
20MABNDM000020_PR013 0.00000000
   -2.76418304    -3.74658394     6.48588943
   -2.76652908    -3.74057555     6.48595381
   -2.76418304    -3.74658394     6.48588943
   -2.76652908    -3.74057555     6.48595381
20MABNDM000020_PR014 0.00000000
   -2.76261067    -3.64375567     7.43165112
   -2.76261067    -3.64375567     7.43165112
   -2.76261067    -3.64375567     7.43165112
   -2.76261067    -3.64375567     7.43165112
20MABNDM000020_20MABNDL000196 0.00000000
   -2.78038573    -3.69164276    -2.71056962
   -2.78291631    -3.75935435    -2.71088576
   -2.78292346    -3.75934744    -2.71088576
   -2.78292131    -3.75935316    -2.71088576
20MABNDM000020_PR035 0.00000000
   -2.84746718    -3.68982363    -3.11707807
   -2.84747410    -3.68984675    -3.11707807
   -2.84746480    -3.68984675    -3.11707807
   -2.84746099    -3.68982291    -3.11707807
20MABNDM000168_PR025 0.00000000
    2.79280925    -3.74440813    -6.47932243
    2.79280925    -3.74440813    -6.47932243
    2.79280925    -3.74440813    -6.47932243
    2.79280925    -3.74440813    -6.47932243
20MABNDM000168_PR026 0.00000000
    2.83919978    -3.68754625    -6.67493820
    2.83921051    -3.68754578    -6.67493820
    2.83921599    -3.68754625    -6.67493820
    2.83921671    -3.68753242    -6.67493820
20MABNDM000168_20MABNDL000077 0.00000000
    2.81508303    -3.75343013     2.69822598
    2.81506371    -3.75343037     2.69822598
    2.81506586    -3.75342727     2.69822598
    2.81506467    -3.75343180     2.69822598
20MABNDM000168_PR001 0.00000000
    2.84065819    -3.68443537     3.12405682
    2.84066582    -3.68443799     3.12405682
    2.84066081    -3.68444180     3.12405705
    2.84067512    -3.68444490     3.12405705
20MABNDL000196_PR036 0.00000000
   -2.84767318    -3.69290566    -6.47909498
   -2.84769011    -3.69290543    -6.47909498
   -2.84768224    -3.69290090    -6.47909498
   -2.84768748    -3.69290638    -6.47909498
20MABNDL000196_PR037 0.00000000
   -2.82502413    -3.76957059    -6.67506599
   -2.82502747    -3.76957655    -6.67506552
   -2.82503247    -3.76956987    -6.67506599
   -2.82504487    -3.76957011    -6.67506552
20MABNDL000196_20MABNDM000020 0.00000000
   -2.81554627    -3.75146842     2.68347335
   -2.81554174    -3.75146079     2.68347335
   -2.81554461    -3.75145864     2.68347335
   -2.81554580    -3.75145602     2.68347335
20MABNDL000196_PR012 0.00000000
   -2.83888793    -3.68299317     3.12404323
   -2.83890295    -3.68299413     3.12404323
   -2.83889461    -3.68299770     3.12404323
   -2.83888865    -3.68299508     3.12404323
20MABNDA000318_PR004 0.00000000
    2.61455345    -4.19698858     3.83365750
    2.61454964    -4.19698858     3.83365250
    2.61455274    -4.19698858     3.83365440
    2.61454988    -4.19698858     3.83365464
20MABNDA000334_PR005 0.00000000
    2.61670017    -4.19703102     5.89759970
    2.61670661    -4.19703102     5.89760113
    2.61670494    -4.19703102     5.89760065
    2.61669993    -4.19703102     5.89760208
20MABNDB000317_PR015 0.00000000
   -2.61119843    -4.19700575     3.83606625
   -2.61119890    -4.19700575     3.83606100
   -2.61119342    -4.19700575     3.83606267
   -2.61120057    -4.19700575     3.83606958
20MABNDB000146_PR016 0.00000000
   -2.61272717    -4.19702482     5.89860058
   -2.61272836    -4.19702482     5.89860058
   -2.61272740    -4.19702482     5.89859772
   -2.61272383    -4.19702482     5.89860010
20MABNDB000135_PR027 0.00000000
    2.60380840    -4.19700432    -3.82550907
    2.60381341    -4.19700432    -3.82550669
    2.60380650    -4.19700432    -3.82551861
    2.60380864    -4.19700432    -3.82551551
20MABNDB000126_PR028 0.00000000
    2.60554409    -4.19702148    -5.89322853
    2.60554361    -4.19702148    -5.89322615
    2.60554767    -4.19702148    -5.89322853
    2.60554576    -4.19702148    -5.89322472
20MABNDA000272_PR038 0.00000000
   -2.61133170    -4.19698286    -3.82754517
   -2.61133528    -4.19698286    -3.82754302
   -2.61133528    -4.19698286    -3.82753658
   -2.61133480    -4.19698286    -3.82754183
20MABNDA000003_PR039 0.00000000
   -2.61580729    -4.19702291    -5.89138079
   -2.61580706    -4.19702291    -5.89138317
   -2.61580658    -4.19702244    -5.89138556
   -2.61581063    -4.19702291    -5.89137888
20MABNDA000196_PR006 0.00000000
    2.58485532    -4.19496393     6.54819679
    2.58485508    -4.19496393     6.54819965
    2.58485389    -4.19496393     6.54819489
    2.58485603    -4.19496393     6.54819727
20MABNDA000324_PR007 0.00000000
    2.59404063    -4.13996458     6.94839096
    2.59403610    -4.13996458     6.94839096
    2.59403849    -4.13996458     6.94839048
    2.59403729    -4.13996458     6.94839001
20MABNDB000001_PR017 0.00000000
   -2.59783888    -4.19505835     6.53814650
   -2.59783626    -4.19505835     6.53814363
   -2.59783769    -4.19505835     6.53813934
   -2.59783936    -4.19505835     6.53814411
20MABNDB000260_PR019 0.00000000
   -2.60437560    -4.13996077     6.94216824
   -2.60438371    -4.13996029     6.94216919
   -2.60438704    -4.13996029     6.94216824
   -2.60437822    -4.13996029     6.94218302
20MABNDB000212_PR029 0.00000000
    2.59911108    -4.19501114    -6.54730177
    2.59911466    -4.19501114    -6.54730415
    2.59911585    -4.19501114    -6.54730940
    2.59911609    -4.19501114    -6.54730844
20MABNDB000128_PR030 0.00000000
    2.60956907    -4.14002705    -6.93128586
    2.60956788    -4.14002705    -6.93128490
    2.60957146    -4.14002705    -6.93128204
    2.60957265    -4.14002705    -6.93127966
20MABNDA000444_PR040 0.00000000
   -2.60507512    -4.19509745    -6.54007912
   -2.60507345    -4.19509745    -6.54007864
   -2.60507536    -4.19509745    -6.54008150
   -2.60507345    -4.19509745    -6.54008293
20MABNDA000053_PR041 0.00000000
   -2.59409618    -4.14012241    -6.92716455
   -2.59410071    -4.14012241    -6.92716455
   -2.59409714    -4.14012241    -6.92715979
   -2.59409094    -4.14012241    -6.92716265
20MABNDB000069_PR031 0.00000000
    3.69177032     3.84800911    -7.77863359
    3.69177032     3.84800911    -7.77863359
    3.69177032     3.84800911    -7.77863359
    3.69177032     3.84800911    -7.77863359
20MABNDB000069_PR033 0.00000000
    3.53351426    -4.07046223    -7.87870884
    3.53351498    -4.07046223    -7.87870884
    3.53351378    -4.07046223    -7.87870884
    3.53351450    -4.07046223    -7.87870836
20MABNDB000131_PR032 0.00000000
    3.86874056     3.64757204   -12.94032955
    3.86876535     3.64757204   -12.94033146
    3.86872864     3.64757204   -12.94034767
    3.86875582     3.64757204   -12.94034290
20MABNDB000131_PR034 0.00000000
    3.67346835    -3.92563820   -12.89139938
    3.67347312    -3.92563820   -12.89139652
    3.67346478    -3.92563820   -12.89139938
    3.67346811    -3.92563820   -12.89140415
20MABNDA000208_PR042 0.00000000
   -3.68245721     3.84913039    -7.89684582
   -3.68247676     3.84913039    -7.89680386
   -3.68256688     3.84912848    -7.89676857
   -3.68247557     3.84913039    -7.89681005
20MABNDA000208_PR046 0.00000000
   -3.53226185    -4.07034063    -7.87388229
   -3.53226757    -4.07034063    -7.87387896
   -3.53226352    -4.07034063    -7.87387943
   -3.53226519    -4.07034063    -7.87387943
20MABNDA000035_PR044 0.00000000
   -3.86916137     3.64757848   -12.93230915
   -3.86919498     3.64757848   -12.93229675
   -3.86914325     3.64757943   -12.93226528
   -3.86916137     3.64757848   -12.93228817
20MABNDA000035_PR045 0.00000000
   -3.67611527    -3.92565036   -12.88740444
   -3.67611289    -3.92565036   -12.88740253
   -3.67611551    -3.92565036   -12.88739681
   -3.67611551    -3.92565084   -12.88739395


*****************************************************************Rapport********************************************************************************** 
CAM-ECTA-US-IP_ECTA-US-IP-T    2017.11.01.21.50.41     3.54951787     3.84898496     8.09023857     0.00000000     0.00000000     0.00000000 0.00000000 VRAI 
CAM-ECTA-US-IP_ECTA-US-IP      2017.11.01.21.50.41     3.52048957    -4.07060432     7.89711237     0.00000083     0.00000000     0.00000034 0.00000000 VRAI 
CAM-ECTA-US-HO_ECTA-US-HO-T    2017.11.01.21.50.41     3.87511951     3.64747858    12.93639874     0.00000722     0.00000000     0.00000752 0.00000000 VRAI 
CAM-ECTA-US-HO_ECTA-US-HO      2017.11.01.21.50.41     3.66422576    -3.92580581    12.88425803     0.00000272     0.00000000     0.00000227 0.00000000 VRAI 
CAM-ECTA-USA-IP_ECTA-USA-IP-T  2017.11.01.21.50.41    -3.68078172     3.84881604     7.89770389     0.00002888     0.00000012     0.00001697 0.00000000 VRAI 
CAM-ECTA-USA-IP_ECTA-USA-IP    2017.11.01.21.50.41    -3.53442365    -4.07043648     7.89044106     0.00000054     0.00000000     0.00000052 0.00000000 VRAI 
CAM-ECTA-USA-HO_ECTA-USA-HO-T  2017.11.01.21.50.41    -3.86206681     3.64768302    12.93547440     0.00001108     0.00000012     0.00000789 0.00000000 VRAI 
CAM-ECTA-USA-HO_ECTA-USA-HO    2017.11.01.21.50.41    -3.68538475    -3.92560554    12.88498521     0.00000194     0.00000000     0.00000237 0.00000000 VRAI 
CAM-LBA-US_EBA-US-HO-H         2017.11.01.21.50.41     2.80953306    -3.69441766     6.48622119     0.00003451     0.00002645     0.00000021 0.00000000 VRAI 
CAM-LBA-US_JDA-US-H            2017.11.01.21.50.41     2.83603215    -3.72371614     6.67526102     0.00000331     0.00000753     0.00000000 0.00000000 VRAI 
CAM-LBA-US_CAM-LBC-US          2017.11.01.21.50.41     2.77225769    -3.78914374    -2.68922186     0.00000230     0.00001353     0.00000048 0.00000000 VRAI 
CAM-LBA-US_EBC-US-IP-H         2017.11.01.21.50.41     2.82972360    -3.68724573    -3.11711991     0.00000492     0.00001577     0.00000021 0.00000000 VRAI 
CAM-LBA-USA_EBA-USA-HO-H       2017.11.01.21.50.41    -2.76535606    -3.74357975     6.48592162     0.00117302     0.00300419     0.00003219 0.00000000 VRAI 
CAM-LBA-USA_JDA-USA-H          2017.11.01.21.50.41    -2.76261067    -3.64375567     7.43165112     0.00000000     0.00000000     0.00000000 0.00000000 VRAI 
CAM-LBA-USA_CAM-LBC-USA        2017.11.01.21.50.41    -2.78228670    -3.74242443    -2.71080673     0.00109753     0.02931881     0.00013689 0.00000000 VRAI 
CAM-LBA-USA_EBC-USA-IP-H       2017.11.01.21.50.41    -2.84746677    -3.68983501    -3.11707807     0.00000478     0.00001174     0.00000000 0.00000000 VRAI 
CAM-LBC-US_EBC-US-HO-H         2017.11.01.21.50.41     2.79280925    -3.74440813    -6.47932243     0.00000000     0.00000000     0.00000000 0.00000000 VRAI 
CAM-LBC-US_JDC-US-H            2017.11.01.21.50.41     2.83921075    -3.68754268    -6.67493820     0.00000677     0.00000592     0.00000000 0.00000000 VRAI 
CAM-LBC-US_CAM-LBA-US          2017.11.01.21.50.41     2.81506932    -3.75342989     2.69822598     0.00000795     0.00000164     0.00000000 0.00000000 VRAI 
CAM-LBC-US_EBA-US-IP-H         2017.11.01.21.50.41     2.84066498    -3.68444002     3.12405694     0.00000646     0.00000363     0.00000012 0.00000000 VRAI 
CAM-LBC-USA_EBC-USA-HO-H       2017.11.01.21.50.41    -2.84768325    -3.69290459    -6.47909498     0.00000647     0.00000216     0.00000000 0.00000000 VRAI 
CAM-LBC-USA_JDC-USA-H          2017.11.01.21.50.41    -2.82503223    -3.76957178    -6.67506576     0.00000788     0.00000277     0.00000024 0.00000000 VRAI 
CAM-LBC-USA_CAM-LBA-USA        2017.11.01.21.50.41    -2.81554461    -3.75146097     2.68347335     0.00000176     0.00000462     0.00000000 0.00000000 VRAI 
CAM-LBC-USA_EBA-USA-IP-H       2017.11.01.21.50.41    -2.83889353    -3.68299502     3.12404323     0.00000602     0.00000169     0.00000000 0.00000000 VRAI 
CAM-EBA-US-IP_EBA-US-IP        2017.11.01.21.50.41     2.61455142    -4.19698858     3.83365476     0.00000169     0.00000000     0.00000179 0.00000000 VRAI 
CAM-EBA-US-HO_EBA-US-HO        2017.11.01.21.50.41     2.61670291    -4.19703102     5.89760089     0.00000292     0.00000000     0.00000086 0.00000000 VRAI 
CAM-EBA-USA-IP_EBA-USA-IP      2017.11.01.21.50.41    -2.61119783    -4.19700575     3.83606488     0.00000267     0.00000000     0.00000331 0.00000000 VRAI 
CAM-EBA-USA-HO_EBA-USA-HO      2017.11.01.21.50.41    -2.61272669    -4.19702482     5.89859974     0.00000171     0.00000000     0.00000119 0.00000000 VRAI 
CAM-EBC-US-IP_EBC-US-IP        2017.11.01.21.50.41     2.60380924    -4.19700432    -3.82551247     0.00000255     0.00000000     0.00000479 0.00000000 VRAI 
CAM-EBC-US-HO_EBC-US-HO        2017.11.01.21.50.41     2.60554528    -4.19702148    -5.89322698     0.00000159     0.00000000     0.00000163 0.00000000 VRAI 
CAM-EBC-USA-IP_EBC-USA-IP      2017.11.01.21.50.41    -2.61133426    -4.19698286    -3.82754165     0.00000149     0.00000000     0.00000316 0.00000000 VRAI 
CAM-EBC-USA-HO_EBC-USA-HO      2017.11.01.21.50.41    -2.61580789    -4.19702280    -5.89138210     0.00000160     0.00000021     0.00000251 0.00000000 VRAI 
CAM-JDA-US-IP_JDA-US-IP        2017.11.01.21.50.41     2.58485508    -4.19496393     6.54819715     0.00000077     0.00000000     0.00000170 0.00000000 VRAI 
CAM-JDA-US-HO_JDA-US-HO        2017.11.01.21.50.41     2.59403813    -4.13996458     6.94839060     0.00000167     0.00000000     0.00000040 0.00000000 VRAI 
CAM-JDA-USA-IP_JDA-USA-IP      2017.11.01.21.50.41    -2.59783804    -4.19505835     6.53814340     0.00000120     0.00000000     0.00000258 0.00000000 VRAI 
CAM-JDA-USA-HO_JDA-USA-HO      2017.11.01.21.50.41    -2.60438114    -4.13996041     6.94217217     0.00000449     0.00000021     0.00000628 0.00000000 VRAI 
CAM-JDC-US-IP_JDC-US-IP        2017.11.01.21.50.41     2.59911442    -4.19501114    -6.54730594     0.00000200     0.00000000     0.00000312 0.00000000 VRAI 
CAM-JDC-US-HO_JDC-US-HO        2017.11.01.21.50.41     2.60957026    -4.14002705    -6.93128312     0.00000188     0.00000000     0.00000244 0.00000000 VRAI 
CAM-JDC-USA-IP_JDC-USA-IP      2017.11.01.21.50.41    -2.60507435    -4.19509745    -6.54008055     0.00000090     0.00000000     0.00000175 0.00000000 VRAI 
CAM-JDC-USA-HO_JDC-USA-HO      2017.11.01.21.50.41    -2.59409624    -4.14012241    -6.92716289     0.00000350     0.00000000     0.00000195 0.00000000 VRAI 
CAM-ECTC-US-IP_ECTC-US-IP-T    2017.11.01.21.50.41     3.69177032     3.84800911    -7.77863359     0.00000000     0.00000000     0.00000000 0.00000000 VRAI 
CAM-ECTC-US-IP_ECTC-US-IP      2017.11.01.21.50.41     3.53351438    -4.07046223    -7.87870872     0.00000043     0.00000000     0.00000021 0.00000000 VRAI 
CAM-ECTC-US-HO_ECTC-US-HO-T    2017.11.01.21.50.41     3.86874759     3.64757204   -12.94033790     0.00001407     0.00000000     0.00000761 0.00000000 VRAI 
CAM-ECTC-US-HO_ECTC-US-HO      2017.11.01.21.50.41     3.67346859    -3.92563820   -12.89139986     0.00000297     0.00000000     0.00000274 0.00000000 VRAI 
CAM-ECTC-USA-IP_ECTC-USA-IP-T  2017.11.01.21.50.41    -3.68249410     3.84912992    -7.89680707     0.00004273     0.00000083     0.00002740 0.00000000 VRAI 
CAM-ECTC-USA-IP_ECTC-USA-IP    2017.11.01.21.50.41    -3.53226453    -4.07034063    -7.87388003     0.00000211     0.00000000     0.00000132 0.00000000 VRAI 
CAM-ECTC-USA-HO_ECTC-USA-HO-T  2017.11.01.21.50.41    -3.86916524     3.64757872   -12.93228984     0.00001870     0.00000041     0.00001602 0.00000000 VRAI 
CAM-ECTC-USA-HO_ECTC-USA-HO    2017.11.01.21.50.41    -3.67611480    -3.92565048   -12.88739944     0.00000111     0.00000021     0.00000423 0.00000000 VRAI 
