********** Fichier qui contient une sauvegarde des coordonnees images + coordonnees images transformees dans le repere BCAM (MOUNT) + coordonnees des prismes dans le repere MOUNT********** 
********************************************************************** Unite en metres (m)************************************************************************************************** 

*******************************************************************coordonnees images dans le repere CCD *********************************************************************************** 
20MABNDL000077_PR002
Spot 1     0.00121834     0.00150172
Spot 2     0.00123500     0.00218500
Spot 1     0.00121456     0.00150558
Spot 2     0.00123500     0.00218500
Spot 1     0.00121477     0.00150442
Spot 2     0.00123500     0.00218500
Spot 1     0.00121424     0.00150134
Spot 2     0.00123500     0.00218500
Spot 1     0.00121388     0.00149823
Spot 2     0.00123500     0.00218500
20MABNDL000077_PR003
Spot 1     0.00138753     0.00149511
Spot 2     0.00153642     0.00149104
Spot 1     0.00138719     0.00149534
Spot 2     0.00153592     0.00149158
Spot 1     0.00138698     0.00149575
Spot 2     0.00153610     0.00149152
Spot 1     0.00138681     0.00149607
Spot 2     0.00153613     0.00149177
Spot 1     0.00138650     0.00149587
Spot 2     0.00153607     0.00149163
20MABNDL000077_20MABNDM000168
Spot 1     0.00175784     0.00118236
Spot 2     0.00157823     0.00121100
Spot 1     0.00175757     0.00118277
Spot 2     0.00157808     0.00121182
Spot 1     0.00175741     0.00118313
Spot 2     0.00157813     0.00121167
Spot 1     0.00175744     0.00118320
Spot 2     0.00157797     0.00121173
Spot 1     0.00175792     0.00118329
Spot 2     0.00157816     0.00121184
20MABNDL000077_PR024
Spot 1     0.00254361     0.00143290
Spot 2     0.00264244     0.00144441
Spot 1     0.00254384     0.00143306
Spot 2     0.00264196     0.00144472
Spot 1     0.00254369     0.00143313
Spot 2     0.00264205     0.00144457
Spot 1     0.00254361     0.00143325
Spot 2     0.00264211     0.00144490
20MABNDM000020_PR013
Spot 1     0.00136500     0.00011500
Spot 2     0.00136500     0.00011500
Spot 1     0.00111500     0.00006500
Spot 2     0.00136500     0.00011500
Spot 1     0.00136500     0.00011500
Spot 2     0.00136500     0.00011500
Spot 1     0.00096500     0.00003500
Spot 2     0.00136500     0.00011500
20MABNDM000020_PR014
Spot 1     0.00310500     0.00034500
Spot 2     0.00310500     0.00034500
Spot 1     0.00310500     0.00034500
Spot 2     0.00310500     0.00034500
Spot 1     0.00310500     0.00034500
Spot 2     0.00310500     0.00034500
Spot 1     0.00310500     0.00034500
Spot 2     0.00310500     0.00034500
20MABNDM000020_20MABNDL000196
Spot 1     0.00197684     0.00117832
Spot 2     0.00230500     0.00010500
Spot 1     0.00197693     0.00117857
Spot 2     0.00230500     0.00010500
Spot 1     0.00197717     0.00117844
Spot 2     0.00230500     0.00010500
Spot 1     0.00197708     0.00117848
Spot 2     0.00230500     0.00010500
20MABNDM000020_PR035
Spot 1     0.00127065     0.00149481
Spot 2     0.00118762     0.00153195
Spot 1     0.00127062     0.00149483
Spot 2     0.00118772     0.00153218
Spot 1     0.00127084     0.00149447
Spot 2     0.00118763     0.00153223
Spot 1     0.00127063     0.00149452
Spot 2     0.00118754     0.00153206
20MABNDM000168_PR025
Spot 1     0.00056500     0.00022500
Spot 2     0.00056500     0.00022500
Spot 1     0.00056500     0.00022500
Spot 2     0.00056500     0.00022500
Spot 1     0.00056500     0.00022500
Spot 2     0.00056500     0.00022500
Spot 1     0.00056500     0.00022500
Spot 2     0.00056500     0.00022500
20MABNDM000168_PR026
Spot 1     0.00266701     0.00142843
Spot 2     0.00250665     0.00142534
Spot 1     0.00266690     0.00142811
Spot 2     0.00250660     0.00142530
Spot 1     0.00266693     0.00142804
Spot 2     0.00250669     0.00142506
Spot 1     0.00266698     0.00142800
Spot 2     0.00250659     0.00142512
20MABNDM000168_20MABNDL000077
Spot 1     0.00154113     0.00130088
Spot 2     0.00175647     0.00130429
Spot 1     0.00154115     0.00130067
Spot 2     0.00175660     0.00130410
Spot 1     0.00154110     0.00130106
Spot 2     0.00175636     0.00130360
Spot 1     0.00154108     0.00130127
Spot 2     0.00175694     0.00130443
20MABNDM000168_PR001
Spot 1     0.00080811     0.00162141
Spot 2     0.00070612     0.00162300
Spot 1     0.00080811     0.00162117
Spot 2     0.00070623     0.00162266
Spot 1     0.00080819     0.00162123
Spot 2     0.00070634     0.00162280
Spot 1     0.00080817     0.00162124
Spot 2     0.00070637     0.00162271
20MABNDL000196_PR036
Spot 1     0.00094640     0.00164001
Spot 2     0.00110998     0.00163931
Spot 1     0.00094633     0.00164009
Spot 2     0.00110988     0.00163948
Spot 1     0.00094634     0.00164020
Spot 2     0.00111002     0.00163938
Spot 1     0.00094621     0.00164003
Spot 2     0.00110978     0.00163945
20MABNDL000196_PR037
Spot 1     0.00246886     0.00116917
Spot 2     0.00262371     0.00116763
Spot 1     0.00246903     0.00116938
Spot 2     0.00262373     0.00116751
Spot 1     0.00246873     0.00116932
Spot 2     0.00262371     0.00116753
Spot 1     0.00246877     0.00116932
Spot 2     0.00262367     0.00116747
20MABNDL000196_20MABNDM000020
Spot 1     0.00192540     0.00104202
Spot 2     0.00170442     0.00104740
Spot 1     0.00192529     0.00104210
Spot 2     0.00170442     0.00104744
Spot 1     0.00192540     0.00104206
Spot 2     0.00170457     0.00104742
Spot 1     0.00192533     0.00104221
Spot 2     0.00170426     0.00104756
20MABNDL000196_PR012
Spot 1     0.00116500     0.00030500
Spot 2     0.00272390     0.00138715
Spot 1     0.00116500     0.00030500
Spot 2     0.00272398     0.00138704
Spot 1     0.00265124     0.00134213
Spot 2     0.00272395     0.00138716
Spot 1     0.00116500     0.00030500
Spot 2     0.00272397     0.00138741
20MABNDA000318_PR004
Spot 1     0.00214582     0.00162414
Spot 2     0.00192803     0.00162564
Spot 1     0.00214571     0.00162420
Spot 2     0.00192852     0.00162548
Spot 1     0.00214587     0.00162444
Spot 2     0.00192808     0.00162528
Spot 1     0.00214606     0.00162430
Spot 2     0.00192808     0.00162565
20MABNDA000334_PR005
Spot 1     0.00247212     0.00158495
Spot 2     0.00219253     0.00158552
Spot 1     0.00247202     0.00158506
Spot 2     0.00219227     0.00158551
Spot 1     0.00247214     0.00158484
Spot 2     0.00219194     0.00158561
Spot 1     0.00247210     0.00158500
Spot 2     0.00219201     0.00158582
20MABNDB000317_PR015
Spot 1     0.00148852     0.00159839
Spot 2     0.00170875     0.00159244
Spot 1     0.00148841     0.00159844
Spot 2     0.00170884     0.00159256
Spot 1     0.00148841     0.00159861
Spot 2     0.00170902     0.00159256
Spot 1     0.00148851     0.00159856
Spot 2     0.00170873     0.00159255
20MABNDB000146_PR016
Spot 1     0.00144926     0.00133091
Spot 2     0.00172450     0.00133316
Spot 1     0.00144928     0.00133095
Spot 2     0.00172456     0.00133318
Spot 1     0.00144928     0.00133105
Spot 2     0.00172438     0.00133309
Spot 1     0.00144946     0.00133093
Spot 2     0.00172472     0.00133331
20MABNDB000135_PR027
Spot 1     0.00189255     0.00091590
Spot 2     0.00211036     0.00091749
Spot 1     0.00189263     0.00091586
Spot 2     0.00211070     0.00091768
Spot 1     0.00189243     0.00091583
Spot 2     0.00211044     0.00091742
Spot 1     0.00189234     0.00091595
Spot 2     0.00211066     0.00091753
20MABNDB000126_PR028
Spot 1     0.00164616     0.00200993
Spot 2     0.00192768     0.00201176
Spot 1     0.00164598     0.00200993
Spot 2     0.00192784     0.00201180
Spot 1     0.00164601     0.00200985
Spot 2     0.00192774     0.00201183
Spot 1     0.00164595     0.00200990
Spot 2     0.00192776     0.00201196
20MABNDA000272_PR038
Spot 1     0.00192401     0.00095568
Spot 2     0.00170302     0.00095355
Spot 1     0.00192385     0.00095568
Spot 2     0.00170281     0.00095367
Spot 1     0.00192396     0.00095552
Spot 2     0.00170281     0.00095359
Spot 1     0.00192384     0.00095574
Spot 2     0.00170248     0.00095370
20MABNDA000003_PR039
Spot 1     0.00200123     0.00193150
Spot 2     0.00227941     0.00193216
Spot 1     0.00200115     0.00193171
Spot 2     0.00227929     0.00193201
Spot 1     0.00200125     0.00193163
Spot 2     0.00227935     0.00193207
Spot 1     0.00200108     0.00193177
Spot 2     0.00227936     0.00193209
20MABNDA000196_PR006
Spot 1     0.00198616     0.00074335
Spot 2     0.00162029     0.00074072
Spot 1     0.00198596     0.00074313
Spot 2     0.00162000     0.00074072
Spot 1     0.00198599     0.00074326
Spot 2     0.00162011     0.00074083
Spot 1     0.00198627     0.00074324
Spot 2     0.00162014     0.00074064
20MABNDA000324_PR007
Spot 1     0.00194736     0.00120343
Spot 2     0.00174169     0.00120924
Spot 1     0.00194732     0.00120355
Spot 2     0.00174145     0.00120971
Spot 1     0.00194735     0.00120360
Spot 2     0.00174169     0.00120930
Spot 1     0.00194735     0.00120345
Spot 2     0.00174171     0.00120943
20MABNDB000001_PR017
Spot 1     0.00188705     0.00043720
Spot 2     0.00225500     0.00044697
Spot 1     0.00188716     0.00043719
Spot 2     0.00225500     0.00044675
Spot 1     0.00188715     0.00043710
Spot 2     0.00225485     0.00044682
Spot 1     0.00188718     0.00043726
Spot 2     0.00225518     0.00044693
20MABNDB000260_PR019
Spot 1     0.00192297     0.00150555
Spot 2     0.00212628     0.00150551
Spot 1     0.00192298     0.00150541
Spot 2     0.00212595     0.00150548
Spot 1     0.00192302     0.00150549
Spot 2     0.00212675     0.00150550
Spot 1     0.00192294     0.00150569
Spot 2     0.00212603     0.00150500
20MABNDB000212_PR029
Spot 1     0.00223634     0.00069366
Spot 2     0.00187470     0.00069470
Spot 1     0.00223607     0.00069348
Spot 2     0.00187414     0.00069500
Spot 1     0.00223618     0.00069349
Spot 2     0.00187439     0.00069530
Spot 1     0.00223617     0.00069352
Spot 2     0.00187473     0.00069500
20MABNDB000128_PR030
Spot 1     0.00190027     0.00200193
Spot 2     0.00210510     0.00199672
Spot 1     0.00190029     0.00200189
Spot 2     0.00210485     0.00199684
Spot 1     0.00190029     0.00200206
Spot 2     0.00210500     0.00199683
Spot 1     0.00190012     0.00200193
Spot 2     0.00210525     0.00199659
20MABNDA000444_PR040
Spot 1     0.00076099     0.00035376
Spot 2     0.00112727     0.00034993
Spot 1     0.00076096     0.00035353
Spot 2     0.00112721     0.00035071
Spot 1     0.00076052     0.00035366
Spot 2     0.00112757     0.00035054
Spot 1     0.00076070     0.00035359
Spot 2     0.00112713     0.00035060
20MABNDA000053_PR041
Spot 1     0.00166250     0.00198476
Spot 2     0.00144643     0.00197842
Spot 1     0.00166244     0.00198416
Spot 2     0.00144597     0.00197848
Spot 1     0.00166259     0.00198438
Spot 2     0.00144638     0.00197868
Spot 1     0.00166251     0.00198440
Spot 2     0.00144655     0.00197835
20MABNDA000188_PR008
Spot 1     0.00289500     0.00025500
Spot 2     0.00289500     0.00025500
Spot 1     0.00289500     0.00025500
Spot 2     0.00289500     0.00025500
Spot 1     0.00289500     0.00025500
Spot 2     0.00289500     0.00025500
Spot 1     0.00289500     0.00025500
Spot 2     0.00289500     0.00025500
20MABNDA000188_PR018
Spot 1     0.00166889     0.00176663
Spot 2     0.00120184     0.00176274
Spot 1     0.00166901     0.00176666
Spot 2     0.00120172     0.00176287
Spot 1     0.00166863     0.00176663
Spot 2     0.00120188     0.00176307
Spot 1     0.00166880     0.00176660
Spot 2     0.00120169     0.00176302
20MABNDA000039_PR009
Spot 1     0.00066581     0.00117617
Spot 2     0.00061840     0.00118073
Spot 1     0.00066474     0.00117645
Spot 2     0.00061796     0.00118103
Spot 1     0.00066533     0.00117664
Spot 2     0.00061787     0.00118091
Spot 1     0.00066522     0.00117649
Spot 2     0.00061807     0.00118098
20MABNDA000039_PR011
Spot 1     0.00276882     0.00028062
Spot 2     0.00259296     0.00027604
Spot 1     0.00276862     0.00028061
Spot 2     0.00259308     0.00027626
Spot 1     0.00276859     0.00028053
Spot 2     0.00259300     0.00027630
Spot 1     0.00276889     0.00028065
Spot 2     0.00259295     0.00027625
20MABNDB000155_PR020
Spot 1     0.00062060     0.00113110
Spot 2     0.00068482     0.00112747
Spot 1     0.00062088     0.00113156
Spot 2     0.00068500     0.00112802
Spot 1     0.00062055     0.00113117
Spot 2     0.00068410     0.00112788
Spot 1     0.00062073     0.00113124
Spot 2     0.00068409     0.00112803
20MABNDB000155_PR022
Spot 1     0.00210976     0.00140421
Spot 2     0.00258298     0.00139969
Spot 1     0.00210986     0.00140433
Spot 2     0.00258296     0.00139965
Spot 1     0.00210978     0.00140431
Spot 2     0.00258280     0.00139963
Spot 1     0.00210993     0.00140411
Spot 2     0.00258291     0.00139967
20MABNDB000010_PR021
Spot 1     0.00287019     0.00115244
Spot 2     0.00292243     0.00115515
Spot 1     0.00287021     0.00115259
Spot 2     0.00292247     0.00115535
Spot 1     0.00287008     0.00115237
Spot 2     0.00292232     0.00115492
Spot 1     0.00287002     0.00115223
Spot 2     0.00292282     0.00115492
20MABNDB000010_PR023
Spot 1     0.00131274     0.00031221
Spot 2     0.00148771     0.00031071
Spot 1     0.00131275     0.00031222
Spot 2     0.00148784     0.00031073
Spot 1     0.00131259     0.00031238
Spot 2     0.00148779     0.00031045
Spot 1     0.00131263     0.00031216
Spot 2     0.00148772     0.00031048
20MABNDB000069_PR031
Spot 1     0.00021500     0.00240500
Spot 2     0.00021500     0.00240500
Spot 1     0.00021500     0.00240500
Spot 2     0.00021500     0.00240500
Spot 1     0.00021500     0.00240500
Spot 2     0.00021500     0.00240500
Spot 1     0.00021500     0.00240500
Spot 2     0.00021500     0.00240500
20MABNDB000069_PR033
Spot 1     0.00182228     0.00207080
Spot 2     0.00229214     0.00208953
Spot 1     0.00182244     0.00207067
Spot 2     0.00229215     0.00208965
Spot 1     0.00182245     0.00207064
Spot 2     0.00229205     0.00208960
Spot 1     0.00182222     0.00207074
Spot 2     0.00229226     0.00208957
20MABNDB000131_PR032
Spot 1     0.00277696     0.00107679
Spot 2     0.00283646     0.00108037
Spot 1     0.00277718     0.00107686
Spot 2     0.00283642     0.00108069
Spot 1     0.00277669     0.00107653
Spot 2     0.00283624     0.00108032
Spot 1     0.00277685     0.00107702
Spot 2     0.00283669     0.00108044
20MABNDB000131_PR034
Spot 1     0.00092418     0.00032273
Spot 2     0.00110061     0.00032281
Spot 1     0.00092402     0.00032269
Spot 2     0.00110028     0.00032277
Spot 1     0.00092401     0.00032267
Spot 2     0.00110037     0.00032293
Spot 1     0.00092410     0.00032269
Spot 2     0.00110045     0.00032275
20MABNDA000208_PR042
Spot 1     0.00305835     0.00095386
Spot 2     0.00328500     0.00065500
Spot 1     0.00305719     0.00095387
Spot 2     0.00299249     0.00095229
Spot 1     0.00305830     0.00095382
Spot 2     0.00299099     0.00095193
Spot 1     0.00305760     0.00095374
Spot 2     0.00299196     0.00095157
20MABNDA000208_PR046
Spot 1     0.00144714     0.00220327
Spot 2     0.00097322     0.00220380
Spot 1     0.00144737     0.00220338
Spot 2     0.00097319     0.00220376
Spot 1     0.00144743     0.00220348
Spot 2     0.00097356     0.00220400
Spot 1     0.00144732     0.00220340
Spot 2     0.00097352     0.00220370
20MABNDA000035_PR044
Spot 1     0.00073807     0.00125641
Spot 2     0.00068249     0.00125042
Spot 1     0.00073794     0.00125621
Spot 2     0.00068249     0.00125035
Spot 1     0.00073790     0.00125627
Spot 2     0.00068225     0.00125055
Spot 1     0.00073771     0.00125632
Spot 2     0.00068240     0.00125032
20MABNDA000035_PR045
Spot 1     0.00254547     0.00047058
Spot 2     0.00236870     0.00047006
Spot 1     0.00254554     0.00047073
Spot 2     0.00236870     0.00047029
Spot 1     0.00254546     0.00047065
Spot 2     0.00236875     0.00046997
Spot 1     0.00254570     0.00047095
Spot 2     0.00236894     0.00047026


****************************************************************coordonnees images transformees dans le repere MOUNT************************************************************************* 
20MABNDL000077_PR002
Spot 1     0.01228866     0.03557311    -0.07463200
Spot 2     0.01231190     0.03625620    -0.07463200
Spot 1     0.01228492     0.03557701    -0.07463200
Spot 2     0.01231190     0.03625620    -0.07463200
Spot 1     0.01228512     0.03557585    -0.07463200
Spot 2     0.01231190     0.03625620    -0.07463200
Spot 1     0.01228456     0.03557277    -0.07463200
Spot 2     0.01231190     0.03625620    -0.07463200
Spot 1     0.01228417     0.03556967    -0.07463200
Spot 2     0.01231190     0.03625620    -0.07463200
20MABNDL000077_PR003
Spot 1     0.01245778     0.03556488    -0.07463200
Spot 2     0.01260662     0.03555937    -0.07463200
Spot 1     0.01245744     0.03556511    -0.07463200
Spot 2     0.01260613     0.03555992    -0.07463200
Spot 1     0.01245724     0.03556552    -0.07463200
Spot 2     0.01260631     0.03555986    -0.07463200
Spot 1     0.01245707     0.03556584    -0.07463200
Spot 2     0.01260634     0.03556011    -0.07463200
Spot 1     0.01245676     0.03556565    -0.07463200
Spot 2     0.01260628     0.03555997    -0.07463200
20MABNDL000077_20MABNDM000168
Spot 1    -0.01259296     0.03524534    -0.00695400
Spot 2    -0.01241366     0.03527581    -0.00695400
Spot 1    -0.01259270     0.03524575    -0.00695400
Spot 2    -0.01241352     0.03527664    -0.00695400
Spot 1    -0.01259254     0.03524611    -0.00695400
Spot 2    -0.01241356     0.03527649    -0.00695400
Spot 1    -0.01259257     0.03524618    -0.00695400
Spot 2    -0.01241340     0.03527655    -0.00695400
Spot 1    -0.01259305     0.03524627    -0.00695400
Spot 2    -0.01241360     0.03527666    -0.00695400
20MABNDL000077_PR024
Spot 1    -0.01338126     0.03548782    -0.00695400
Spot 2    -0.01348020     0.03549832    -0.00695400
Spot 1    -0.01338149     0.03548798    -0.00695400
Spot 2    -0.01347972     0.03549863    -0.00695400
Spot 1    -0.01338134     0.03548805    -0.00695400
Spot 2    -0.01347981     0.03549848    -0.00695400
Spot 1    -0.01338126     0.03548817    -0.00695400
Spot 2    -0.01347988     0.03549881    -0.00695400
20MABNDM000020_PR013
Spot 1    -0.01302510    -0.03407982    -0.00523500
Spot 2    -0.01302510    -0.03407982    -0.00523500
Spot 1    -0.01327614    -0.03403536    -0.00523500
Spot 2    -0.01302510    -0.03407982    -0.00523500
Spot 1    -0.01302510    -0.03407982    -0.00523500
Spot 2    -0.01302510    -0.03407982    -0.00523500
Spot 1    -0.01342677    -0.03400869    -0.00523500
Spot 2    -0.01302510    -0.03407982    -0.00523500
20MABNDM000020_PR014
Spot 1    -0.01128044    -0.03427129    -0.00523500
Spot 2    -0.01128044    -0.03427129    -0.00523500
Spot 1    -0.01128044    -0.03427129    -0.00523500
Spot 2    -0.01128044    -0.03427129    -0.00523500
Spot 1    -0.01128044    -0.03427129    -0.00523500
Spot 2    -0.01128044    -0.03427129    -0.00523500
Spot 1    -0.01128044    -0.03427129    -0.00523500
Spot 2    -0.01128044    -0.03427129    -0.00523500
20MABNDM000020_20MABNDL000196
Spot 1     0.01270944    -0.03514688    -0.07583800
Spot 2     0.01238113    -0.03407361    -0.07583800
Spot 1     0.01270935    -0.03514713    -0.07583800
Spot 2     0.01238113    -0.03407361    -0.07583800
Spot 1     0.01270911    -0.03514700    -0.07583800
Spot 2     0.01238113    -0.03407361    -0.07583800
Spot 1     0.01270920    -0.03514704    -0.07583800
Spot 2     0.01238113    -0.03407361    -0.07583800
20MABNDM000020_PR035
Spot 1     0.01341567    -0.03546328    -0.07583800
Spot 2     0.01349871    -0.03550040    -0.07583800
Spot 1     0.01341570    -0.03546330    -0.07583800
Spot 2     0.01349861    -0.03550063    -0.07583800
Spot 1     0.01341548    -0.03546294    -0.07583800
Spot 2     0.01349870    -0.03550068    -0.07583800
Spot 1     0.01341569    -0.03546299    -0.07583800
Spot 2     0.01349879    -0.03550051    -0.07583800
20MABNDM000168_PR025
Spot 1    -0.01384249    -0.03456482    -0.00532900
Spot 2    -0.01384249    -0.03456482    -0.00532900
Spot 1    -0.01384249    -0.03456482    -0.00532900
Spot 2    -0.01384249    -0.03456482    -0.00532900
Spot 1    -0.01384249    -0.03456482    -0.00532900
Spot 2    -0.01384249    -0.03456482    -0.00532900
Spot 1    -0.01384249    -0.03456482    -0.00532900
Spot 2    -0.01384249    -0.03456482    -0.00532900
20MABNDM000168_PR026
Spot 1    -0.01173533    -0.03575921    -0.00532900
Spot 2    -0.01189570    -0.03575681    -0.00532900
Spot 1    -0.01173544    -0.03575889    -0.00532900
Spot 2    -0.01189575    -0.03575677    -0.00532900
Spot 1    -0.01173541    -0.03575882    -0.00532900
Spot 2    -0.01189566    -0.03575653    -0.00532900
Spot 1    -0.01173536    -0.03575878    -0.00532900
Spot 2    -0.01189576    -0.03575659    -0.00532900
20MABNDM000168_20MABNDL000077
Spot 1     0.01288432    -0.03530152    -0.07445100
Spot 2     0.01266895    -0.03530178    -0.07445100
Spot 1     0.01288430    -0.03530131    -0.07445100
Spot 2     0.01266883    -0.03530159    -0.07445100
Spot 1     0.01288435    -0.03530170    -0.07445100
Spot 2     0.01266907    -0.03530109    -0.07445100
Spot 1     0.01288436    -0.03530191    -0.07445100
Spot 2     0.01266848    -0.03530191    -0.07445100
20MABNDM000168_PR001
Spot 1     0.01361257    -0.03563274    -0.07445100
Spot 2     0.01371453    -0.03563582    -0.07445100
Spot 1     0.01361258    -0.03563250    -0.07445100
Spot 2     0.01371442    -0.03563548    -0.07445100
Spot 1     0.01361249    -0.03563256    -0.07445100
Spot 2     0.01371431    -0.03563562    -0.07445100
Spot 1     0.01361251    -0.03563257    -0.07445100
Spot 2     0.01371428    -0.03563553    -0.07445100
20MABNDL000196_PR036
Spot 1     0.01192632     0.03582871    -0.07483600
Spot 2     0.01208991     0.03582835    -0.07483600
Spot 1     0.01192625     0.03582879    -0.07483600
Spot 2     0.01208980     0.03582852    -0.07483600
Spot 1     0.01192626     0.03582890    -0.07483600
Spot 2     0.01208994     0.03582842    -0.07483600
Spot 1     0.01192613     0.03582873    -0.07483600
Spot 2     0.01208970     0.03582849    -0.07483600
20MABNDL000196_PR037
Spot 1     0.01344976     0.03536104    -0.07483600
Spot 2     0.01360462     0.03535983    -0.07483600
Spot 1     0.01344993     0.03536126    -0.07483600
Spot 2     0.01360464     0.03535971    -0.07483600
Spot 1     0.01344963     0.03536119    -0.07483600
Spot 2     0.01360462     0.03535973    -0.07483600
Spot 1     0.01344967     0.03536119    -0.07483600
Spot 2     0.01360458     0.03535967    -0.07483600
20MABNDL000196_20MABNDM000020
Spot 1    -0.01274946     0.03531323    -0.00611000
Spot 2    -0.01252863     0.03532306    -0.00611000
Spot 1    -0.01274935     0.03531331    -0.00611000
Spot 2    -0.01252863     0.03532310    -0.00611000
Spot 1    -0.01274946     0.03531327    -0.00611000
Spot 2    -0.01252878     0.03532307    -0.00611000
Spot 1    -0.01274939     0.03531342    -0.00611000
Spot 2    -0.01252848     0.03532322    -0.00611000
20MABNDL000196_PR012
Spot 1    -0.01197439     0.03459166    -0.00611000
Spot 2    -0.01355474     0.03564223    -0.00611000
Spot 1    -0.01197439     0.03459166    -0.00611000
Spot 2    -0.01355482     0.03564212    -0.00611000
Spot 1    -0.01348119     0.03559868    -0.00611000
Spot 2    -0.01355479     0.03564224    -0.00611000
Spot 1    -0.01197439     0.03459166    -0.00611000
Spot 2    -0.01355482     0.03564249    -0.00611000
20MABNDA000318_PR004
Spot 1    -0.01286565     0.01247109    -0.07310600
Spot 2    -0.01264785     0.01247023    -0.07310600
Spot 1    -0.01286553     0.01247103    -0.07310600
Spot 2    -0.01264834     0.01247039    -0.07310600
Spot 1    -0.01286569     0.01247079    -0.07310600
Spot 2    -0.01264790     0.01247059    -0.07310600
Spot 1    -0.01286588     0.01247093    -0.07310600
Spot 2    -0.01264790     0.01247022    -0.07310600
20MABNDA000334_PR005
Spot 1    -0.01311523     0.01254344    -0.07324100
Spot 2    -0.01283564     0.01254261    -0.07324100
Spot 1    -0.01311513     0.01254333    -0.07324100
Spot 2    -0.01283538     0.01254262    -0.07324100
Spot 1    -0.01311525     0.01254355    -0.07324100
Spot 2    -0.01283505     0.01254252    -0.07324100
Spot 1    -0.01311521     0.01254339    -0.07324100
Spot 2    -0.01283512     0.01254231    -0.07324100
20MABNDB000317_PR015
Spot 1    -0.01266575    -0.01249965    -0.07326100
Spot 2    -0.01244547    -0.01250303    -0.07326100
Spot 1    -0.01266586    -0.01249960    -0.07326100
Spot 2    -0.01244538    -0.01250291    -0.07326100
Spot 1    -0.01266586    -0.01249943    -0.07326100
Spot 2    -0.01244520    -0.01250291    -0.07326100
Spot 1    -0.01266576    -0.01249948    -0.07326100
Spot 2    -0.01244549    -0.01250292    -0.07326100
20MABNDB000146_PR016
Spot 1    -0.01275910    -0.01246269    -0.07450500
Spot 2    -0.01248386    -0.01245983    -0.07450500
Spot 1    -0.01275908    -0.01246265    -0.07450500
Spot 2    -0.01248380    -0.01245981    -0.07450500
Spot 1    -0.01275908    -0.01246255    -0.07450500
Spot 2    -0.01248398    -0.01245990    -0.07450500
Spot 1    -0.01275890    -0.01246267    -0.07450500
Spot 2    -0.01248364    -0.01245968    -0.07450500
20MABNDB000135_PR027
Spot 1    -0.01251212    -0.01319714    -0.07464700
Spot 2    -0.01229431    -0.01319797    -0.07464700
Spot 1    -0.01251204    -0.01319718    -0.07464700
Spot 2    -0.01229397    -0.01319779    -0.07464700
Spot 1    -0.01251224    -0.01319721    -0.07464700
Spot 2    -0.01229423    -0.01319804    -0.07464700
Spot 1    -0.01251233    -0.01319709    -0.07464700
Spot 2    -0.01229401    -0.01319794    -0.07464700
20MABNDB000126_PR028
Spot 1    -0.01253338    -0.01217223    -0.07500400
Spot 2    -0.01225187    -0.01216890    -0.07500400
Spot 1    -0.01253356    -0.01217223    -0.07500400
Spot 2    -0.01225171    -0.01216886    -0.07500400
Spot 1    -0.01253353    -0.01217231    -0.07500400
Spot 2    -0.01225181    -0.01216883    -0.07500400
Spot 1    -0.01253359    -0.01217226    -0.07500400
Spot 2    -0.01225179    -0.01216870    -0.07500400
20MABNDA000272_PR038
Spot 1    -0.01275967     0.01315579    -0.07417900
Spot 2    -0.01253868     0.01315753    -0.07417900
Spot 1    -0.01275951     0.01315579    -0.07417900
Spot 2    -0.01253847     0.01315741    -0.07417900
Spot 1    -0.01275962     0.01315595    -0.07417900
Spot 2    -0.01253847     0.01315749    -0.07417900
Spot 1    -0.01275950     0.01315573    -0.07417900
Spot 2    -0.01253814     0.01315738    -0.07417900
20MABNDA000003_PR039
Spot 1    -0.01280233     0.01212077    -0.07373400
Spot 2    -0.01308051     0.01212081    -0.07373400
Spot 1    -0.01280225     0.01212056    -0.07373400
Spot 2    -0.01308039     0.01212096    -0.07373400
Spot 1    -0.01280235     0.01212064    -0.07373400
Spot 2    -0.01308045     0.01212090    -0.07373400
Spot 1    -0.01280218     0.01212050    -0.07373400
Spot 2    -0.01308046     0.01212088    -0.07373400
20MABNDA000196_PR006
Spot 1    -0.01294105     0.01323488    -0.07967100
Spot 2    -0.01257517     0.01323280    -0.07967100
Spot 1    -0.01294084     0.01323509    -0.07967100
Spot 2    -0.01257488     0.01323280    -0.07967100
Spot 1    -0.01294088     0.01323497    -0.07967100
Spot 2    -0.01257500     0.01323269    -0.07967100
Spot 1    -0.01294116     0.01323499    -0.07967100
Spot 2    -0.01257502     0.01323288    -0.07967100
20MABNDA000324_PR007
Spot 1    -0.01255314     0.01281815    -0.07446800
Spot 2    -0.01234743     0.01281394    -0.07446800
Spot 1    -0.01255310     0.01281803    -0.07446800
Spot 2    -0.01234719     0.01281347    -0.07446800
Spot 1    -0.01255313     0.01281798    -0.07446800
Spot 2    -0.01234743     0.01281388    -0.07446800
Spot 1    -0.01255313     0.01281813    -0.07446800
Spot 2    -0.01234745     0.01281375    -0.07446800
20MABNDB000001_PR017
Spot 1    -0.01230133    -0.01355232    -0.07418400
Spot 2    -0.01193330    -0.01354645    -0.07418400
Spot 1    -0.01230122    -0.01355234    -0.07418400
Spot 2    -0.01193330    -0.01354667    -0.07418400
Spot 1    -0.01230123    -0.01355243    -0.07418400
Spot 2    -0.01193345    -0.01354660    -0.07418400
Spot 1    -0.01230120    -0.01355227    -0.07418400
Spot 2    -0.01193312    -0.01354649    -0.07418400
20MABNDB000260_PR019
Spot 1    -0.01240843    -0.01239698    -0.07492700
Spot 2    -0.01220516    -0.01239286    -0.07492700
Spot 1    -0.01240842    -0.01239712    -0.07492700
Spot 2    -0.01220549    -0.01239289    -0.07492700
Spot 1    -0.01240838    -0.01239704    -0.07492700
Spot 2    -0.01220469    -0.01239286    -0.07492700
Spot 1    -0.01240846    -0.01239685    -0.07492700
Spot 2    -0.01220540    -0.01239337    -0.07492700
20MABNDB000212_PR029
Spot 1    -0.01185158    -0.01328764    -0.07390500
Spot 2    -0.01221319    -0.01328274    -0.07390500
Spot 1    -0.01185186    -0.01328781    -0.07390500
Spot 2    -0.01221375    -0.01328243    -0.07390500
Spot 1    -0.01185175    -0.01328781    -0.07390500
Spot 2    -0.01221350    -0.01328213    -0.07390500
Spot 1    -0.01185175    -0.01328778    -0.07390500
Spot 2    -0.01221316    -0.01328244    -0.07390500
20MABNDB000128_PR030
Spot 1    -0.01245485    -0.01221539    -0.07353400
Spot 2    -0.01225001    -0.01221989    -0.07353400
Spot 1    -0.01245483    -0.01221543    -0.07353400
Spot 2    -0.01225026    -0.01221977    -0.07353400
Spot 1    -0.01245484    -0.01221526    -0.07353400
Spot 2    -0.01225011    -0.01221978    -0.07353400
Spot 1    -0.01245500    -0.01221539    -0.07353400
Spot 2    -0.01224986    -0.01222002    -0.07353400
20MABNDA000444_PR040
Spot 1    -0.01170082     0.01367585    -0.07412000
Spot 2    -0.01206712     0.01367503    -0.07412000
Spot 1    -0.01170079     0.01367608    -0.07412000
Spot 2    -0.01206705     0.01367426    -0.07412000
Spot 1    -0.01170035     0.01367596    -0.07412000
Spot 2    -0.01206741     0.01367442    -0.07412000
Spot 1    -0.01170053     0.01367603    -0.07412000
Spot 2    -0.01206697     0.01367437    -0.07412000
20MABNDA000053_PR041
Spot 1    -0.01241905     0.01212588    -0.07430100
Spot 2    -0.01220289     0.01212800    -0.07430100
Spot 1    -0.01241897     0.01212648    -0.07430100
Spot 2    -0.01220244     0.01212794    -0.07430100
Spot 1    -0.01241913     0.01212627    -0.07430100
Spot 2    -0.01220285     0.01212774    -0.07430100
Spot 1    -0.01241905     0.01212624    -0.07430100
Spot 2    -0.01220301     0.01212808    -0.07430100
20MABNDA000188_PR008
Spot 1    -0.01391227     0.01380893    -0.07502000
Spot 2    -0.01391227     0.01380893    -0.07502000
Spot 1    -0.01391227     0.01380893    -0.07502000
Spot 2    -0.01391227     0.01380893    -0.07502000
Spot 1    -0.01391227     0.01380893    -0.07502000
Spot 2    -0.01391227     0.01380893    -0.07502000
Spot 1    -0.01391227     0.01380893    -0.07502000
Spot 2    -0.01391227     0.01380893    -0.07502000
20MABNDA000188_PR018
Spot 1    -0.01269915     0.01228686    -0.07502000
Spot 2    -0.01223208     0.01228675    -0.07502000
Spot 1    -0.01269927     0.01228683    -0.07502000
Spot 2    -0.01223197     0.01228662    -0.07502000
Spot 1    -0.01269889     0.01228686    -0.07502000
Spot 2    -0.01223213     0.01228642    -0.07502000
Spot 1    -0.01269906     0.01228689    -0.07502000
Spot 2    -0.01223194     0.01228647    -0.07502000
20MABNDA000039_PR009
Spot 1    -0.01162794     0.01306797    -0.07444800
Spot 2    -0.01158055     0.01306321    -0.07444800
Spot 1    -0.01162687     0.01306769    -0.07444800
Spot 2    -0.01158011     0.01306291    -0.07444800
Spot 1    -0.01162746     0.01306750    -0.07444800
Spot 2    -0.01158002     0.01306303    -0.07444800
Spot 1    -0.01162735     0.01306765    -0.07444800
Spot 2    -0.01158022     0.01306296    -0.07444800
20MABNDA000039_PR011
Spot 1    -0.01372706     0.01397261    -0.07444800
Spot 2    -0.01355118     0.01397643    -0.07444800
Spot 1    -0.01372686     0.01397262    -0.07444800
Spot 2    -0.01355130     0.01397621    -0.07444800
Spot 1    -0.01372683     0.01397270    -0.07444800
Spot 2    -0.01355122     0.01397617    -0.07444800
Spot 1    -0.01372713     0.01397258    -0.07444800
Spot 2    -0.01355117     0.01397622    -0.07444800
20MABNDB000155_PR020
Spot 1    -0.01364558    -0.01312626    -0.07501700
Spot 2    -0.01358131    -0.01312901    -0.07501700
Spot 1    -0.01364530    -0.01312580    -0.07501700
Spot 2    -0.01358114    -0.01312846    -0.07501700
Spot 1    -0.01364563    -0.01312619    -0.07501700
Spot 2    -0.01358204    -0.01312861    -0.07501700
Spot 1    -0.01364545    -0.01312612    -0.07501700
Spot 2    -0.01358205    -0.01312846    -0.07501700
20MABNDB000155_PR022
Spot 1    -0.01216030    -0.01283279    -0.07501700
Spot 2    -0.01168706    -0.01283083    -0.07501700
Spot 1    -0.01216020    -0.01283267    -0.07501700
Spot 2    -0.01168708    -0.01283087    -0.07501700
Spot 1    -0.01216028    -0.01283269    -0.07501700
Spot 2    -0.01168724    -0.01283089    -0.07501700
Spot 1    -0.01216012    -0.01283289    -0.07501700
Spot 2    -0.01168713    -0.01283085    -0.07501700
20MABNDB000010_PR021
Spot 1    -0.01158081    -0.01292605    -0.07358200
Spot 2    -0.01152862    -0.01292245    -0.07358200
Spot 1    -0.01158079    -0.01292590    -0.07358200
Spot 2    -0.01152858    -0.01292225    -0.07358200
Spot 1    -0.01158092    -0.01292612    -0.07358200
Spot 2    -0.01152873    -0.01292268    -0.07358200
Spot 1    -0.01158097    -0.01292626    -0.07358200
Spot 2    -0.01152823    -0.01292268    -0.07358200
20MABNDB000010_PR023
Spot 1    -0.01312380    -0.01379254    -0.07358200
Spot 2    -0.01294883    -0.01379107    -0.07358200
Spot 1    -0.01312379    -0.01379253    -0.07358200
Spot 2    -0.01294870    -0.01379105    -0.07358200
Spot 1    -0.01312395    -0.01379237    -0.07358200
Spot 2    -0.01294874    -0.01379133    -0.07358200
Spot 1    -0.01312391    -0.01379259    -0.07358200
Spot 2    -0.01294882    -0.01379130    -0.07358200
20MABNDB000069_PR031
Spot 1    -0.01361993    -0.01186066    -0.07388500
Spot 2    -0.01361993    -0.01186066    -0.07388500
Spot 1    -0.01361993    -0.01186066    -0.07388500
Spot 2    -0.01361993    -0.01186066    -0.07388500
Spot 1    -0.01361993    -0.01186066    -0.07388500
Spot 2    -0.01361993    -0.01186066    -0.07388500
Spot 1    -0.01361993    -0.01186066    -0.07388500
Spot 2    -0.01361993    -0.01186066    -0.07388500
20MABNDB000069_PR033
Spot 1    -0.01202781    -0.01226091    -0.07388500
Spot 2    -0.01155758    -0.01226158    -0.07388500
Spot 1    -0.01202765    -0.01226104    -0.07388500
Spot 2    -0.01155756    -0.01226146    -0.07388500
Spot 1    -0.01202764    -0.01226107    -0.07388500
Spot 2    -0.01155766    -0.01226151    -0.07388500
Spot 1    -0.01202787    -0.01226097    -0.07388500
Spot 2    -0.01155745    -0.01226155    -0.07388500
20MABNDB000131_PR032
Spot 1    -0.01144319    -0.01303796    -0.07533000
Spot 2    -0.01138370    -0.01303408    -0.07533000
Spot 1    -0.01144297    -0.01303789    -0.07533000
Spot 2    -0.01138375    -0.01303376    -0.07533000
Spot 1    -0.01144345    -0.01303823    -0.07533000
Spot 2    -0.01138392    -0.01303414    -0.07533000
Spot 1    -0.01144330    -0.01303773    -0.07533000
Spot 2    -0.01138347    -0.01303401    -0.07533000
20MABNDB000131_PR034
Spot 1    -0.01329215    -0.01380134    -0.07533000
Spot 2    -0.01311572    -0.01380037    -0.07533000
Spot 1    -0.01329230    -0.01380138    -0.07533000
Spot 2    -0.01311605    -0.01380042    -0.07533000
Spot 1    -0.01329231    -0.01380140    -0.07533000
Spot 2    -0.01311596    -0.01380026    -0.07533000
Spot 1    -0.01329222    -0.01380138    -0.07533000
Spot 2    -0.01311588    -0.01380044    -0.07533000
20MABNDA000208_PR042
Spot 1    -0.01392907     0.01304216    -0.07273700
Spot 2    -0.01415598     0.01334082    -0.07273700
Spot 1    -0.01392791     0.01304215    -0.07273700
Spot 2    -0.01386321     0.01304379    -0.07273700
Spot 1    -0.01392902     0.01304220    -0.07273700
Spot 2    -0.01386171     0.01304415    -0.07273700
Spot 1    -0.01392832     0.01304228    -0.07273700
Spot 2    -0.01386268     0.01304451    -0.07273700
20MABNDA000208_PR046
Spot 1    -0.01231676     0.01179416    -0.07273700
Spot 2    -0.01184284     0.01179405    -0.07273700
Spot 1    -0.01231699     0.01179405    -0.07273700
Spot 2    -0.01184281     0.01179409    -0.07273700
Spot 1    -0.01231705     0.01179395    -0.07273700
Spot 2    -0.01184318     0.01179385    -0.07273700
Spot 1    -0.01231694     0.01179403    -0.07273700
Spot 2    -0.01184314     0.01179415    -0.07273700
20MABNDA000035_PR044
Spot 1    -0.01157271     0.01300084    -0.07483200
Spot 2    -0.01151709     0.01300643    -0.07483200
Spot 1    -0.01157258     0.01300103    -0.07483200
Spot 2    -0.01151709     0.01300650    -0.07483200
Spot 1    -0.01157254     0.01300097    -0.07483200
Spot 2    -0.01151685     0.01300630    -0.07483200
Spot 1    -0.01157235     0.01300092    -0.07483200
Spot 2    -0.01151700     0.01300653    -0.07483200
20MABNDA000035_PR045
Spot 1    -0.01337448     0.01379950    -0.07483200
Spot 2    -0.01319771     0.01379876    -0.07483200
Spot 1    -0.01337455     0.01379935    -0.07483200
Spot 2    -0.01319771     0.01379853    -0.07483200
Spot 1    -0.01337447     0.01379943    -0.07483200
Spot 2    -0.01319776     0.01379886    -0.07483200
Spot 1    -0.01337471     0.01379913    -0.07483200
Spot 2    -0.01319795     0.01379857    -0.07483200


*****************************************************************coordonnees du prisme dans le repere MOUNT********************************************************************************** 
20MABNDL000077_PR002
    0.03204796     0.00448301     3.70693636
    0.03214040     0.00438678     3.70693493
    0.03213549     0.00441548     3.70693541
    0.03214932     0.00449142     3.70693588
    0.03215896     0.00456815     3.70693636
20MABNDL000077_PR003
    0.02099320     0.02117742     3.89601660
    0.02101482     0.02115722     3.89601660
    0.02101551     0.02114813     3.89601660
    0.02101900     0.02113330     3.89601660
    0.02102869     0.02114203     3.89601660
20MABNDL000077_20MABNDM000168
   -0.02581589     0.03622408    -5.46874046
   -0.02583061     0.03617950    -5.46874046
   -0.02583450     0.03617188    -5.46874046
   -0.02583915     0.03616713    -5.46874046
   -0.02581488     0.03616016    -5.46874046
20MABNDL000077_PR024
    0.04544968     0.01811128    -5.89640379
    0.04544012     0.01809286    -5.89640379
    0.04543775     0.01809596    -5.89640379
    0.04543715     0.01807841    -5.89640379
20MABNDM000020_PR013
    0.00707881    -0.08812969    -3.80206895
    0.01330696    -0.08923197    -3.80201483
    0.00707881    -0.08812969    -3.80206895
    0.01704373    -0.08989325    -3.80197763
20MABNDM000020_PR014
   -0.09646920    -0.08948103    -4.74775267
   -0.09646920    -0.08948103    -4.74775267
   -0.09646920    -0.08948103    -4.74775267
   -0.09646920    -0.08948103    -4.74775267
20MABNDM000020_20MABNDL000196
    0.02684630    -0.07123555     5.39469719
    0.02684952    -0.07122660     5.39469719
    0.02685812    -0.07123125     5.39469719
    0.02685489    -0.07122982     5.39469719
20MABNDM000020_PR035
   -0.04235582    -0.00673683     5.80095530
   -0.04235312    -0.00672720     5.80095530
   -0.04234811    -0.00673915     5.80095530
   -0.04235967    -0.00674377     5.80095530
20MABNDM000168_PR025
    0.04463461    -0.07407759    -3.78815937
    0.04463461    -0.07407759    -3.78815937
    0.04463461    -0.07407759    -3.78815937
    0.04463461    -0.07407759    -3.78815937
20MABNDM000168_PR026
   -0.05785472    -0.01397323    -3.98429012
   -0.05785052    -0.01398258    -3.98429084
   -0.05785360    -0.01399066    -3.98429084
   -0.05785231    -0.01399013    -3.98429084
20MABNDM000168_20MABNDL000077
    0.01149261    -0.03874870     5.38884687
    0.01149779    -0.03876314     5.38884687
    0.01148731    -0.03876694     5.38884687
    0.01150797    -0.03872988     5.38884687
20MABNDM000168_PR001
   -0.05736682    -0.01317307     5.81470490
   -0.05736288    -0.01319561     5.81470490
   -0.05735540    -0.01318797     5.81470490
   -0.05735506    -0.01319107     5.81470490
20MABNDL000196_PR036
    0.05137177     0.00592535     3.68777132
    0.05137596     0.00591922     3.68777132
    0.05137227     0.00591897     3.68777132
    0.05138135     0.00592145     3.68777132
20MABNDL000196_PR037
   -0.02512779     0.02853396     3.88381290
   -0.02513270     0.02853162     3.88381290
   -0.02512443     0.02853267     3.88381290
   -0.02512443     0.02853422     3.88381290
20MABNDL000196_20MABNDM000020
   -0.01572087     0.03784952    -5.47473907
   -0.01572474     0.03784513    -5.47473907
   -0.01571544     0.03784747    -5.47473907
   -0.01572888     0.03783678    -5.47473907
20MABNDL000196_PR012
   -0.00621016     0.05363495    -5.91574430
   -0.00620714     0.05363929    -5.91574430
    0.05235060     0.01449761    -5.91537189
   -0.00620724     0.05362491    -5.91574430
20MABNDA000318_PR004
   -0.00845582     0.03835037     2.74965954
   -0.00844884     0.03834856     2.74965954
   -0.00845398     0.03834928     2.74965954
   -0.00845051     0.03835351     2.74965954
20MABNDA000334_PR005
   -0.00428954     0.03166258     2.14977217
   -0.00429468     0.03166402     2.14977217
   -0.00429769     0.03166231     2.14977217
   -0.00429725     0.03166759     2.14977217
20MABNDB000317_PR015
   -0.01741237    -0.03394440     2.75129056
   -0.01741197    -0.03394749     2.75129056
   -0.01741521    -0.03395062     2.75129056
   -0.01741176    -0.03394949     2.75129056
20MABNDB000146_PR016
   -0.01356614    -0.03174667     2.15201306
   -0.01356729    -0.03174753     2.15201306
   -0.01356470    -0.03174767     2.15201306
   -0.01357218    -0.03174912     2.15201306
20MABNDB000135_PR027
   -0.02105300    -0.00984504     2.74937105
   -0.02106073    -0.00984771     2.74937105
   -0.02105223    -0.00984249     2.74937105
   -0.02105466    -0.00984668     2.74937105
20MABNDB000126_PR028
   -0.02036817    -0.03898737     2.14679480
   -0.02036789    -0.03898794     2.14679480
   -0.02036689    -0.03898722     2.14679480
   -0.02036631    -0.03898979     2.14679480
20MABNDA000272_PR038
   -0.01318636     0.01094110     2.74965882
   -0.01319313     0.01094331     2.74965882
   -0.01319113     0.01093890     2.74965882
   -0.01319936     0.01094497     2.74965882
20MABNDA000003_PR039
   -0.00592034     0.04138933     2.14891338
   -0.00592320     0.04139020     2.14891338
   -0.00592091     0.04138990     2.14891338
   -0.00592320     0.04139220     2.14891338
20MABNDA000196_PR006
   -0.01039450     0.01023718     1.64206433
   -0.01039988     0.01023484     1.64206433
   -0.01039832     0.01023744     1.64206433
   -0.01039496     0.01023511     1.64206433
20MABNDA000324_PR007
   -0.02527341     0.02751138     2.95549345
   -0.02527901     0.02752295     2.95549345
   -0.02527364     0.02751590     2.95549345
   -0.02527324     0.02751551     2.95549345
20MABNDB000001_PR017
   -0.02413655    -0.00281287     1.64035964
   -0.02413772    -0.00281034     1.64035964
   -0.02413598    -0.00281014     1.64035964
   -0.02413994    -0.00281305     1.64035964
20MABNDB000260_PR019
   -0.02437428    -0.03846575     2.95627403
   -0.02436805    -0.03846228     2.95627403
   -0.02438455    -0.03846459     2.95627403
   -0.02436892    -0.03845836     2.95627403
20MABNDB000212_PR029
   -0.02544647    -0.00831511     1.64223695
   -0.02543739    -0.00831652     1.64223719
   -0.02544137    -0.00831988     1.64223719
   -0.02544495    -0.00831688     1.64223695
20MABNDB000128_PR030
   -0.01928562    -0.04683711     2.95496273
   -0.01928110    -0.04683867     2.95496273
   -0.01928403    -0.04684182     2.95496273
   -0.01928563    -0.04683456     2.95496273
20MABNDA000444_PR040
   -0.02990229     0.00089541     1.64491200
   -0.02990336     0.00090143     1.64491200
   -0.02990423     0.00090098     1.64491200
   -0.02990707     0.00090083     1.64491200
20MABNDA000053_PR041
   -0.02643713     0.05076159     2.95450902
   -0.02644754     0.05075119     2.95450902
   -0.02643639     0.05075922     2.95450902
   -0.02643474     0.05075310     2.95450902
20MABNDA000188_PR008
    0.13650158    -0.07885031     9.20339394
    0.13650158    -0.07885031     9.20339394
    0.13650158    -0.07885031     9.20339394
    0.13650158    -0.07885031     9.20339394
20MABNDA000188_PR018
   -0.01665501     0.02633137     1.28357613
   -0.01665500     0.02633274     1.28357613
   -0.01665687     0.02633421     1.28357613
   -0.01665705     0.02633353     1.28357613
20MABNDA000039_PR009
   -0.17089300     0.02505838    11.00702095
   -0.17100319     0.02510127    11.00701904
   -0.17096666     0.02510623    11.00702000
   -0.17096008     0.02510035    11.00702000
20MABNDA000039_PR011
    0.03080523    -0.02459913     3.43346977
    0.03080343    -0.02459433     3.43346977
    0.03080092    -0.02459523     3.43347001
    0.03080662    -0.02459366     3.43346977
20MABNDB000155_PR020
    0.10208682    -0.00911770     9.20028305
    0.10205942    -0.00918009     9.20028305
    0.10213448    -0.00914652     9.20028305
    0.10212423    -0.00916017     9.20028305
20MABNDB000155_PR022
   -0.02555629    -0.01762273     1.28070843
   -0.02555696    -0.01762342     1.28070843
   -0.02555492    -0.01762305     1.28070843
   -0.02555716    -0.01762171     1.28070843
20MABNDB000010_PR021
   -0.17618638    -0.03363167    11.00694656
   -0.17619035    -0.03365747    11.00694656
   -0.17617059    -0.03360935    11.00694656
   -0.17620310    -0.03359960    11.00694656
20MABNDB000010_PR023
    0.00428859     0.02029309     3.43377113
    0.00428539     0.02029235     3.43377113
    0.00429016     0.02029518     3.43377113
    0.00429077     0.02029955     3.43377113
20MABNDB000069_PR031
    0.10999375    -0.16176865     9.20229721
    0.10999375    -0.16176865     9.20229721
    0.10999375    -0.16176865     9.20229721
    0.10999375    -0.16176865     9.20229721
20MABNDB000069_PR033
   -0.02679013    -0.02696747     1.28394055
   -0.02679158    -0.02696732     1.28394055
   -0.02679078    -0.02696667     1.28394055
   -0.02679063    -0.02696727     1.28394055
20MABNDB000131_PR032
   -0.18791258    -0.02967020    11.00642204
   -0.18792558    -0.02969876    11.00642204
   -0.18787691    -0.02964737    11.00642300
   -0.18792123    -0.02969217    11.00642204
20MABNDB000131_PR034
    0.01431794     0.01655318     3.43337822
    0.01432910     0.01655506     3.43337822
    0.01432730     0.01655186     3.43337822
    0.01432340     0.01655549     3.43337822
20MABNDA000208_PR042
    0.15039721    -0.00355841     9.20113468
    0.13236240     0.01467241     9.20145035
    0.13233849     0.01464722     9.20145130
    0.13235509     0.01462023     9.20145130
20MABNDA000208_PR046
   -0.02351661     0.03463741     1.28208113
   -0.02351490     0.03463801     1.28208113
   -0.02351123     0.03464092     1.28208113
   -0.02351251     0.03463767     1.28208113
20MABNDA000035_PR044
   -0.17990147     0.02661696    11.00802422
   -0.17991111     0.02659728    11.00802326
   -0.17993145     0.02661644    11.00802326
   -0.17993447     0.02660329    11.00802326
20MABNDA000035_PR045
    0.01461428    -0.01898724     3.43483686
    0.01461594    -0.01897858     3.43483686
    0.01461519    -0.01898770     3.43483639
    0.01462510    -0.01897431     3.43483686


*****************************************************************coordonnees du prisme dans le repere ATLAS********************************************************************************** 
20MABNDL000077_PR002 0.00000000
    2.85255218    -3.71247435     6.48617840
    2.85264850    -3.71238208     6.48617697
    2.85261989    -3.71238685     6.48617744
    2.85254383    -3.71237302     6.48617792
    2.85246706    -3.71236348     6.48617840
20MABNDL000077_PR003 0.00000000
    2.83603978    -3.72375703     6.67526102
    2.83606005    -3.72373557     6.67526102
    2.83606911    -3.72373486     6.67526102
    2.83608389    -3.72373128     6.67526102
    2.83607531    -3.72372174     6.67526102
20MABNDL000077_20MABNDM000168 0.00000000
    2.81179261    -3.75900722    -2.68952727
    2.81183720    -3.75902200    -2.68952727
    2.81184483    -3.75902581    -2.68952727
    2.81184959    -3.75903058    -2.68952727
    2.81185651    -3.75900626    -2.68952727
20MABNDL000077_PR024 0.00000000
    2.82950854    -3.68721986    -3.11711979
    2.82952714    -3.68722939    -3.11711979
    2.82952404    -3.68723178    -3.11711979
    2.82954144    -3.68723249    -3.11712003
20MABNDM000020_PR013 0.00000000
   -2.76418304    -3.74658394     6.48588943
   -2.76308274    -3.75281239     6.48583031
   -2.76418304    -3.74658394     6.48588943
   -2.76242256    -3.75654936     6.48579025
20MABNDM000020_PR014 0.00000000
   -2.76261067    -3.64375567     7.43165112
   -2.76261067    -3.64375567     7.43165112
   -2.76261067    -3.64375567     7.43165112
   -2.76261067    -3.64375567     7.43165112
20MABNDM000020_20MABNDL000196 0.00000000
   -2.78292370    -3.75935173    -2.71088576
   -2.78293276    -3.75935507    -2.71088576
   -2.78292799    -3.75936365    -2.71088576
   -2.78292942    -3.75936031    -2.71088576
20MABNDM000020_PR035 0.00000000
   -2.84748244    -3.68982100    -3.11707807
   -2.84749222    -3.68982363    -3.11707807
   -2.84748030    -3.68982863    -3.11707807
   -2.84747553    -3.68981719    -3.11707807
20MABNDM000168_PR025 0.00000000
    2.77915215    -3.78994966    -6.47876501
    2.77915215    -3.78994966    -6.47876501
    2.77915215    -3.78994966    -6.47876501
    2.77915215    -3.78994966    -6.47876501
20MABNDM000168_PR026 0.00000000
    2.83927178    -3.68754911    -6.67493773
    2.83926249    -3.68755341    -6.67493820
    2.83925438    -3.68755031    -6.67493820
    2.83925486    -3.68755150    -6.67493820
20MABNDM000168_20MABNDL000077 0.00000000
    2.81504679    -3.75340462     2.69822598
    2.81503248    -3.75340986     2.69822598
    2.81502867    -3.75339937     2.69822598
    2.81506562    -3.75342011     2.69822598
20MABNDM000168_PR001 0.00000000
    2.84066653    -3.68439364     3.12405682
    2.84064388    -3.68439770     3.12405682
    2.84065151    -3.68440509     3.12405682
    2.84064841    -3.68440557     3.12405682
20MABNDL000196_PR036 0.00000000
   -2.84768224    -3.69290280    -6.47909498
   -2.84768820    -3.69289851    -6.47909498
   -2.84768844    -3.69290233    -6.47909498
   -2.84768605    -3.69289327    -6.47909498
20MABNDL000196_PR037 0.00000000
   -2.82504225    -3.76957417    -6.67506552
   -2.82504463    -3.76957893    -6.67506552
   -2.82504344    -3.76957083    -6.67506552
   -2.82504201    -3.76957083    -6.67506552
20MABNDL000196_20MABNDM000020 0.00000000
   -2.81552887    -3.75145745     2.68347335
   -2.81553316    -3.75146151     2.68347335
   -2.81553078    -3.75145221     2.68347335
   -2.81554151    -3.75146556     2.68347335
20MABNDL000196_PR012 0.00000000
   -2.79973817    -3.74152923     3.12446928
   -2.79973388    -3.74152637     3.12446928
   -2.83890295    -3.68298721     3.12404323
   -2.79974842    -3.74152637     3.12446928
20MABNDA000318_PR004 0.00000000
    2.61454749    -4.19698858     3.83364820
    2.61455441    -4.19698858     3.83365011
    2.61454916    -4.19698858     3.83364940
    2.61455274    -4.19698858     3.83364511
20MABNDA000334_PR005 0.00000000
    2.61670899    -4.19703102     5.89759827
    2.61670399    -4.19703102     5.89759684
    2.61670089    -4.19703102     5.89759874
    2.61670136    -4.19703102     5.89759350
20MABNDB000317_PR015 0.00000000
   -2.61119485    -4.19700575     3.83607101
   -2.61119509    -4.19700575     3.83606791
   -2.61119199    -4.19700575     3.83606482
   -2.61119533    -4.19700575     3.83606601
20MABNDB000146_PR016 0.00000000
   -2.61272907    -4.19702482     5.89860344
   -2.61272788    -4.19702482     5.89860249
   -2.61273050    -4.19702482     5.89860249
   -2.61272311    -4.19702482     5.89860106
20MABNDB000135_PR027 0.00000000
    2.60381031    -4.19700432    -3.82551575
    2.60380268    -4.19700432    -3.82551312
    2.60381103    -4.19700432    -3.82551837
    2.60380864    -4.19700432    -3.82551408
20MABNDB000126_PR028 0.00000000
    2.60554910    -4.19702148    -5.89323235
    2.60554934    -4.19702148    -5.89323187
    2.60555029    -4.19702148    -5.89323282
    2.60555100    -4.19702148    -5.89322996
20MABNDA000272_PR038 0.00000000
   -2.61135054    -4.19698286    -3.82754326
   -2.61134362    -4.19698286    -3.82754111
   -2.61134577    -4.19698286    -3.82754540
   -2.61133742    -4.19698286    -3.82753944
20MABNDA000003_PR039 0.00000000
   -2.61581087    -4.19702291    -5.89137745
   -2.61580801    -4.19702291    -5.89137650
   -2.61581016    -4.19702291    -5.89137697
   -2.61580801    -4.19702291    -5.89137459
20MABNDA000196_PR006 0.00000000
    2.58485508    -4.19496393     6.54819393
    2.58486032    -4.19496393     6.54819155
    2.58485889    -4.19496393     6.54819393
    2.58485556    -4.19496393     6.54819155
20MABNDA000324_PR007 0.00000000
    2.59404135    -4.13996458     6.94840384
    2.59403586    -4.13996458     6.94839239
    2.59404111    -4.13996458     6.94839907
    2.59404159    -4.13996458     6.94839954
20MABNDB000001_PR017 0.00000000
   -2.59783792    -4.19505835     6.53814077
   -2.59783912    -4.19505835     6.53813839
   -2.59783721    -4.19505835     6.53813839
   -2.59784126    -4.19505835     6.53814125
20MABNDB000260_PR019 0.00000000
   -2.60438752    -4.13996029     6.94217825
   -2.60439372    -4.13996029     6.94218159
   -2.60437727    -4.13996029     6.94217920
   -2.60439301    -4.13996029     6.94218540
20MABNDB000212_PR029 0.00000000
    2.59912419    -4.19501162    -6.54730272
    2.59911513    -4.19501114    -6.54730415
    2.59911919    -4.19501114    -6.54730749
    2.59912276    -4.19501162    -6.54730463
20MABNDB000128_PR030 0.00000000
    2.60957313    -4.14002705    -6.93128395
    2.60957766    -4.14002705    -6.93128252
    2.60957479    -4.14002705    -6.93127918
    2.60957313    -4.14002705    -6.93128633
20MABNDA000444_PR040 0.00000000
   -2.60507488    -4.19509745    -6.54007578
   -2.60507584    -4.19509745    -6.54008150
   -2.60507679    -4.19509745    -6.54008102
   -2.60507965    -4.19509745    -6.54008102
20MABNDA000053_PR041 0.00000000
   -2.59410477    -4.14012241    -6.92715216
   -2.59409428    -4.14012241    -6.92716217
   -2.59410548    -4.14012241    -6.92715454
   -2.59410715    -4.14012241    -6.92716026
20MABNDA000188_PR008 0.00000000
    3.54951787     3.84898496     8.09023857
    3.54951787     3.84898496     8.09023857
    3.54951787     3.84898496     8.09023857
    3.54951787     3.84898496     8.09023857
20MABNDA000188_PR018 0.00000000
    3.52048969    -4.07060432     7.89711046
    3.52048969    -4.07060432     7.89710903
    3.52048802    -4.07060432     7.89710760
    3.52048779    -4.07060432     7.89710808
20MABNDA000039_PR009 0.00000000
    3.87506509     3.64747953    12.93635273
    3.87517524     3.64747739    12.93639565
    3.87513876     3.64747858    12.93640041
    3.87513208     3.64747858    12.93639469
20MABNDA000039_PR011 0.00000000
    3.66421890    -3.92580605    12.88423729
    3.66422081    -3.92580605    12.88424206
    3.66422319    -3.92580581    12.88424110
    3.66421747    -3.92580605    12.88424301
20MABNDB000155_PR020 0.00000000
   -3.68073916     3.84881616     7.89774942
   -3.68071175     3.84881616     7.89768696
   -3.68078685     3.84881592     7.89772081
   -3.68077660     3.84881616     7.89770699
20MABNDB000155_PR022 0.00000000
   -3.53442430    -4.07043648     7.89043665
   -3.53442359    -4.07043648     7.89043570
   -3.53442550    -4.07043648     7.89043617
   -3.53442335    -4.07043648     7.89043760
20MABNDB000010_PR021 0.00000000
   -3.86202359     3.64768386    12.93546104
   -3.86202765     3.64768386    12.93548679
   -3.86200786     3.64768386    12.93543911
   -3.86204052     3.64768386    12.93542957
20MABNDB000010_PR023 0.00000000
   -3.68537784    -3.92560554    12.88498306
   -3.68538094    -3.92560554    12.88498306
   -3.68537617    -3.92560554    12.88498020
   -3.68537569    -3.92560554    12.88497639
20MABNDB000069_PR031 0.00000000
    3.69177032     3.84800911    -7.77863359
    3.69177032     3.84800911    -7.77863359
    3.69177032     3.84800911    -7.77863359
    3.69177032     3.84800911    -7.77863359
20MABNDB000069_PR033 0.00000000
    3.53350925    -4.07046270    -7.87870407
    3.53350782    -4.07046270    -7.87870407
    3.53350878    -4.07046270    -7.87870455
    3.53350878    -4.07046270    -7.87870407
20MABNDB000131_PR032 0.00000000
    3.86871505     3.64757204   -12.94031334
    3.86872792     3.64757204   -12.94034195
    3.86867929     3.64757299   -12.94029045
    3.86872363     3.64757204   -12.94033527
20MABNDB000131_PR034 0.00000000
    3.67347145    -3.92563820   -12.89139462
    3.67346025    -3.92563820   -12.89139271
    3.67346215    -3.92563820   -12.89139557
    3.67346597    -3.92563820   -12.89139175
20MABNDA000208_PR042 0.00000000
   -3.70046592     3.84882092    -7.91505432
   -3.68244052     3.84913039    -7.89681387
   -3.68241668     3.84913135    -7.89683914
   -3.68243337     3.84913135    -7.89686584
20MABNDA000208_PR046 0.00000000
   -3.53224897    -4.07034111    -7.87388086
   -3.53225064    -4.07034111    -7.87388039
   -3.53225422    -4.07034111    -7.87387753
   -3.53225303    -4.07034111    -7.87388039
20MABNDA000035_PR044 0.00000000
   -3.86914229     3.64757943   -12.93229580
   -3.86915207     3.64757848   -12.93227673
   -3.86917233     3.64757848   -12.93229580
   -3.86917543     3.64757848   -12.93228245
20MABNDA000035_PR045 0.00000000
   -3.67611408    -3.92565036   -12.88739681
   -3.67611241    -3.92565036   -12.88740540
   -3.67611313    -3.92565084   -12.88739681
   -3.67610335    -3.92565036   -12.88741016


*****************************************************************Rapport********************************************************************************** 
CAM-LBA-US_EBA-US-HO-H         2017.11.15.17.27.55     2.85256629    -3.71239595     6.48617783     0.00006353     0.00004000     0.00000056 0.00000000 VRAI 
CAM-LBA-US_JDA-US-H            2017.11.15.17.27.55     2.83606563    -3.72373610     6.67526102     0.00001509     0.00001157     0.00000000 0.00000000 VRAI 
CAM-LBA-US_CAM-LBC-US          2017.11.15.17.27.55     2.81183615    -3.75901837    -2.68952727     0.00002266     0.00000989     0.00000000 0.00000000 VRAI 
CAM-LBA-US_EBC-US-IP-H         2017.11.15.17.27.55     2.82952529    -3.68722838    -3.11711985     0.00001169     0.00000505     0.00000010 0.00000000 VRAI 
CAM-LBA-USA_EBA-USA-HO-H       2017.11.15.17.27.55    -2.76346785    -3.75063241     6.48584986     0.00075232     0.00425860     0.00004203 0.00000000 VRAI 
CAM-LBA-USA_JDA-USA-H          2017.11.15.17.27.55    -2.76261067    -3.64375567     7.43165112     0.00000000     0.00000000     0.00000000 0.00000000 VRAI 
CAM-LBA-USA_CAM-LBC-USA        2017.11.15.17.27.55    -2.78292847    -3.75935769    -2.71088576     0.00000325     0.00000460     0.00000000 0.00000000 VRAI 
CAM-LBA-USA_EBC-USA-IP-H       2017.11.15.17.27.55    -2.84748262    -3.68982261    -3.11707807     0.00000608     0.00000416     0.00000000 0.00000000 VRAI 
CAM-LBC-US_EBC-US-HO-H         2017.11.15.17.27.55     2.77915215    -3.78994966    -6.47876501     0.00000000     0.00000000     0.00000000 0.00000000 VRAI 
CAM-LBC-US_JDC-US-H            2017.11.15.17.27.55     2.83926088    -3.68755108    -6.67493808     0.00000707     0.00000158     0.00000021 0.00000000 VRAI 
CAM-LBC-US_CAM-LBA-US          2017.11.15.17.27.55     2.81504339    -3.75340849     2.69822598     0.00001450     0.00000767     0.00000000 0.00000000 VRAI 
CAM-LBC-US_EBA-US-IP-H         2017.11.15.17.27.55     2.84065259    -3.68440050     3.12405682     0.00000850     0.00000504     0.00000000 0.00000000 VRAI 
CAM-LBC-USA_EBC-USA-HO-H       2017.11.15.17.27.55    -2.84768623    -3.69289923    -6.47909498     0.00000249     0.00000382     0.00000000 0.00000000 VRAI 
CAM-LBC-USA_JDC-USA-H          2017.11.15.17.27.55    -2.82504308    -3.76957369    -6.67506552     0.00000105     0.00000332     0.00000000 0.00000000 VRAI 
CAM-LBC-USA_CAM-LBA-USA        2017.11.15.17.27.55    -2.81553358    -3.75145918     2.68347335     0.00000482     0.00000494     0.00000000 0.00000000 VRAI 
CAM-LBC-USA_EBA-USA-IP-H       2017.11.15.17.27.55    -2.80953085    -3.72689229     3.12436277     0.01695799     0.02534861     0.00018449 0.00000000 VRAI 
CAM-EBA-US-IP_EBA-US-IP        2017.11.15.17.27.55     2.61455095    -4.19698858     3.83364820     0.00000275     0.00000000     0.00000191 0.00000000 VRAI 
CAM-EBA-US-HO_EBA-US-HO        2017.11.15.17.27.55     2.61670381    -4.19703102     5.89759684     0.00000322     0.00000000     0.00000205 0.00000000 VRAI 
CAM-EBA-USA-IP_EBA-USA-IP      2017.11.15.17.27.55    -2.61119431    -4.19700575     3.83606744     0.00000135     0.00000000     0.00000234 0.00000000 VRAI 
CAM-EBA-USA-HO_EBA-USA-HO      2017.11.15.17.27.55    -2.61272764    -4.19702482     5.89860237     0.00000278     0.00000000     0.00000085 0.00000000 VRAI 
CAM-EBC-US-IP_EBC-US-IP        2017.11.15.17.27.55     2.60380816    -4.19700432    -3.82551533     0.00000328     0.00000000     0.00000199 0.00000000 VRAI 
CAM-EBC-US-HO_EBC-US-HO        2017.11.15.17.27.55     2.60554993    -4.19702148    -5.89323175     0.00000076     0.00000000     0.00000109 0.00000000 VRAI 
CAM-EBC-USA-IP_EBC-USA-IP      2017.11.15.17.27.55    -2.61134434    -4.19698286    -3.82754230     0.00000471     0.00000000     0.00000224 0.00000000 VRAI 
CAM-EBC-USA-HO_EBC-USA-HO      2017.11.15.17.27.55    -2.61580926    -4.19702291    -5.89137638     0.00000128     0.00000000     0.00000109 0.00000000 VRAI 
CAM-JDA-US-IP_JDA-US-IP        2017.11.15.17.27.55     2.58485746    -4.19496393     6.54819274     0.00000221     0.00000000     0.00000119 0.00000000 VRAI 
CAM-JDA-US-HO_JDA-US-HO        2017.11.15.17.27.55     2.59403998    -4.13996458     6.94839871     0.00000238     0.00000000     0.00000409 0.00000000 VRAI 
CAM-JDA-USA-IP_JDA-USA-IP      2017.11.15.17.27.55    -2.59783888    -4.19505835     6.53813970     0.00000154     0.00000000     0.00000132 0.00000000 VRAI 
CAM-JDA-USA-HO_JDA-USA-HO      2017.11.15.17.27.55    -2.60438788    -4.13996029     6.94218111     0.00000658     0.00000000     0.00000276 0.00000000 VRAI 
CAM-JDC-US-IP_JDC-US-IP        2017.11.15.17.27.55     2.59912032    -4.19501138    -6.54730475     0.00000351     0.00000024     0.00000173 0.00000000 VRAI 
CAM-JDC-US-HO_JDC-US-HO        2017.11.15.17.27.55     2.60957468    -4.14002705    -6.93128300     0.00000185     0.00000000     0.00000259 0.00000000 VRAI 
CAM-JDC-USA-IP_JDC-USA-IP      2017.11.15.17.27.55    -2.60507679    -4.19509745    -6.54007983     0.00000178     0.00000000     0.00000235 0.00000000 VRAI 
CAM-JDC-USA-HO_JDC-USA-HO      2017.11.15.17.27.55    -2.59410292    -4.14012241    -6.92715728     0.00000506     0.00000000     0.00000408 0.00000000 VRAI 
CAM-ECTA-US-IP_ECTA-US-IP-T    2017.11.15.17.27.55     3.54951787     3.84898496     8.09023857     0.00000000     0.00000000     0.00000000 0.00000000 VRAI 
CAM-ECTA-US-IP_ECTA-US-IP      2017.11.15.17.27.55     3.52048880    -4.07060432     7.89710879     0.00000090     0.00000000     0.00000109 0.00000000 VRAI 
CAM-ECTA-US-HO_ECTA-US-HO-T    2017.11.15.17.27.55     3.87512779     3.64747852    12.93638587     0.00003975     0.00000076     0.00001926 0.00000000 VRAI 
CAM-ECTA-US-HO_ECTA-US-HO      2017.11.15.17.27.55     3.66422009    -3.92580599    12.88424087     0.00000215     0.00000010     0.00000217 0.00000000 VRAI 
CAM-ECTA-USA-IP_ECTA-USA-IP-T  2017.11.15.17.27.55    -3.68075359     3.84881610     7.89771605     0.00002998     0.00000010     0.00002272 0.00000000 VRAI 
CAM-ECTA-USA-IP_ECTA-USA-IP    2017.11.15.17.27.55    -3.53442419    -4.07043648     7.89043653     0.00000083     0.00000000     0.00000071 0.00000000 VRAI 
CAM-ECTA-USA-HO_ECTA-USA-HO-T  2017.11.15.17.27.55    -3.86202490     3.64768386    12.93545413     0.00001166     0.00000000     0.00002204 0.00000000 VRAI 
CAM-ECTA-USA-HO_ECTA-USA-HO    2017.11.15.17.27.55    -3.68537766    -3.92560554    12.88498068     0.00000205     0.00000000     0.00000274 0.00000000 VRAI 
CAM-ECTC-US-IP_ECTC-US-IP-T    2017.11.15.17.27.55     3.69177032     3.84800911    -7.77863359     0.00000000     0.00000000     0.00000000 0.00000000 VRAI 
CAM-ECTC-US-IP_ECTC-US-IP      2017.11.15.17.27.55     3.53350866    -4.07046270    -7.87870419     0.00000052     0.00000000     0.00000021 0.00000000 VRAI 
CAM-ECTC-US-HO_ECTC-US-HO-T    2017.11.15.17.27.55     3.86871147     3.64757228   -12.94032025     0.00001915     0.00000041     0.00002020 0.00000000 VRAI 
CAM-ECTC-US-HO_ECTC-US-HO      2017.11.15.17.27.55     3.67346495    -3.92563820   -12.89139366     0.00000428     0.00000000     0.00000151 0.00000000 VRAI 
CAM-ECTC-USA-IP_ECTC-USA-IP-T  2017.11.15.17.27.55    -3.68693912     3.84905350    -7.90139329     0.00780970     0.00013428     0.00788722 0.00000000 VRAI 
CAM-ECTC-USA-IP_ECTC-USA-IP    2017.11.15.17.27.55    -3.53225172    -4.07034111    -7.87387979     0.00000204     0.00000000     0.00000132 0.00000000 VRAI 
CAM-ECTC-USA-HO_ECTC-USA-HO-T  2017.11.15.17.27.55    -3.86916053     3.64757872   -12.93228769     0.00001383     0.00000041     0.00000835 0.00000000 VRAI 
CAM-ECTC-USA-HO_ECTC-USA-HO    2017.11.15.17.27.55    -3.67611074    -3.92565048   -12.88740230     0.00000431     0.00000021     0.00000574 0.00000000 VRAI 
