********** Fichier qui contient une sauvegarde des coordonnees images + coordonnees images transformees dans le repere BCAM (MOUNT) + coordonnees des prismes dans le repere MOUNT********** 
********************************************************************** Unite en metres (m)************************************************************************************************** 

*******************************************************************coordonnees images dans le repere CCD *********************************************************************************** 
20MABNDL000077_PR002
Spot 1     0.00121713     0.00143762
Spot 2     0.00052500     0.00043500
Spot 1     0.00121940     0.00144078
Spot 2     0.00052500     0.00043500
Spot 1     0.00121520     0.00143649
Spot 2     0.00052500     0.00043500
Spot 1     0.00121873     0.00143731
Spot 2     0.00052500     0.00043500
Spot 1     0.00121934     0.00143964
Spot 2     0.00052500     0.00043500
20MABNDL000077_PR003
Spot 1     0.00139006     0.00149809
Spot 2     0.00150247     0.00148202
Spot 1     0.00138967     0.00149858
Spot 2     0.00150809     0.00149104
Spot 1     0.00138977     0.00149839
Spot 2     0.00150792     0.00149088
Spot 1     0.00138912     0.00149873
Spot 2     0.00149982     0.00148378
Spot 1     0.00138978     0.00149866
Spot 2     0.00150773     0.00149116
20MABNDL000077_20MABNDM000168
Spot 1     0.00175771     0.00118306
Spot 2     0.00304500     0.00031500
Spot 1     0.00175813     0.00118331
Spot 2     0.00304500     0.00031500
Spot 1     0.00175836     0.00118337
Spot 2     0.00304500     0.00031500
Spot 1     0.00175818     0.00118321
Spot 2     0.00304500     0.00031500
Spot 1     0.00175761     0.00118339
Spot 2     0.00304500     0.00031500
20MABNDL000077_PR024
Spot 1     0.00254378     0.00143468
Spot 2     0.00264134     0.00144560
Spot 1     0.00254336     0.00143521
Spot 2     0.00264101     0.00144590
Spot 1     0.00254406     0.00143533
Spot 2     0.00264085     0.00144617
Spot 1     0.00254348     0.00143540
Spot 2     0.00264112     0.00144606
Spot 1     0.00254386     0.00143525
Spot 2     0.00264117     0.00144598
20MABNDM000020_PR013
Spot 1     0.00162689     0.00151087
Spot 2     0.00147313     0.00151431
Spot 1     0.00162733     0.00151206
Spot 2     0.00147239     0.00151480
Spot 1     0.00162751     0.00151246
Spot 2     0.00147206     0.00151500
Spot 1     0.00162777     0.00151242
Spot 2     0.00147307     0.00151388
Spot 1     0.00162734     0.00151220
Spot 2     0.00147240     0.00151470
20MABNDM000020_PR014
Spot 1     0.00265980     0.00169099
Spot 2     0.00249817     0.00169354
Spot 1     0.00266029     0.00169153
Spot 2     0.00249867     0.00169416
Spot 1     0.00266025     0.00169092
Spot 2     0.00249820     0.00169441
Spot 1     0.00265984     0.00169134
Spot 2     0.00249845     0.00169489
Spot 1     0.00266005     0.00169185
Spot 2     0.00249903     0.00169549
20MABNDM000020_20MABNDL000196
Spot 1     0.00197659     0.00117808
Spot 2     0.00230500     0.00010500
Spot 1     0.00197661     0.00117832
Spot 2     0.00230500     0.00010500
Spot 1     0.00197636     0.00117838
Spot 2     0.00230500     0.00010500
Spot 1     0.00197637     0.00117825
Spot 2     0.00230500     0.00010500
Spot 1     0.00197666     0.00117836
Spot 2     0.00230500     0.00010500
20MABNDM000020_PR035
Spot 1     0.00127022     0.00149434
Spot 2     0.00118802     0.00153163
Spot 1     0.00127151     0.00149415
Spot 2     0.00118799     0.00153164
Spot 1     0.00127149     0.00149378
Spot 2     0.00118776     0.00153154
Spot 1     0.00127173     0.00149357
Spot 2     0.00118792     0.00153146
20MABNDM000168_PR025
Spot 1     0.00117539     0.00130433
Spot 2     0.00102219     0.00130441
Spot 1     0.00117522     0.00130395
Spot 2     0.00102186     0.00130419
Spot 1     0.00117528     0.00130388
Spot 2     0.00102199     0.00130425
Spot 1     0.00117516     0.00130390
Spot 2     0.00102205     0.00130421
20MABNDM000168_PR026
Spot 1     0.00266909     0.00142968
Spot 2     0.00250848     0.00142618
Spot 1     0.00266904     0.00142947
Spot 2     0.00250818     0.00142599
Spot 1     0.00266912     0.00142925
Spot 2     0.00250817     0.00142596
Spot 1     0.00266889     0.00142936
Spot 2     0.00250813     0.00142593
20MABNDM000168_20MABNDL000077
Spot 1     0.00154081     0.00130160
Spot 2     0.00176074     0.00131262
Spot 1     0.00154089     0.00130157
Spot 2     0.00176114     0.00131256
Spot 1     0.00154120     0.00130102
Spot 2     0.00176108     0.00131211
Spot 1     0.00154141     0.00130078
Spot 2     0.00176104     0.00131194
20MABNDM000168_PR001
Spot 1     0.00080806     0.00162106
Spot 2     0.00070598     0.00162303
Spot 1     0.00080830     0.00162118
Spot 2     0.00070634     0.00162297
Spot 1     0.00080814     0.00162114
Spot 2     0.00070615     0.00162285
Spot 1     0.00080854     0.00162113
Spot 2     0.00070613     0.00162291
20MABNDL000196_PR036
Spot 1     0.00094502     0.00163904
Spot 2     0.00110921     0.00163813
Spot 1     0.00094535     0.00163871
Spot 2     0.00110947     0.00163726
Spot 1     0.00094534     0.00163834
Spot 2     0.00110955     0.00163713
Spot 1     0.00094539     0.00163834
Spot 2     0.00110949     0.00163717
20MABNDL000196_PR037
Spot 1     0.00246800     0.00116947
Spot 2     0.00262249     0.00116772
Spot 1     0.00246815     0.00116929
Spot 2     0.00262260     0.00116763
Spot 1     0.00246825     0.00116930
Spot 2     0.00262267     0.00116756
Spot 1     0.00246817     0.00116942
Spot 2     0.00262278     0.00116758
20MABNDL000196_20MABNDM000020
Spot 1     0.00192629     0.00104343
Spot 2     0.00170515     0.00104906
Spot 1     0.00192626     0.00104322
Spot 2     0.00170480     0.00104887
Spot 1     0.00192617     0.00104282
Spot 2     0.00170476     0.00104843
Spot 1     0.00192568     0.00104330
Spot 2     0.00170468     0.00104816
20MABNDL000196_PR012
Spot 1     0.00265109     0.00134346
Spot 2     0.00272434     0.00138965
Spot 1     0.00265120     0.00134373
Spot 2     0.00272413     0.00138959
Spot 1     0.00265086     0.00134318
Spot 2     0.00272417     0.00138959
Spot 1     0.00265096     0.00134345
Spot 2     0.00272406     0.00138946
20MABNDA000318_PR004
Spot 1     0.00214338     0.00162828
Spot 2     0.00192597     0.00162900
Spot 1     0.00214354     0.00162808
Spot 2     0.00192568     0.00162899
Spot 1     0.00214347     0.00162797
Spot 2     0.00192583     0.00162941
Spot 1     0.00214342     0.00162807
Spot 2     0.00192590     0.00162921
20MABNDA000334_PR005
Spot 1     0.00247174     0.00158821
Spot 2     0.00219171     0.00158943
Spot 1     0.00247183     0.00158855
Spot 2     0.00219162     0.00158932
Spot 1     0.00247207     0.00158856
Spot 2     0.00219160     0.00158933
Spot 1     0.00247192     0.00158868
Spot 2     0.00219153     0.00158920
20MABNDB000317_PR015
Spot 1     0.00171196     0.00159676
Spot 2     0.00149210     0.00160245
Spot 1     0.00171209     0.00159685
Spot 2     0.00149228     0.00160228
Spot 1     0.00171192     0.00159653
Spot 2     0.00149252     0.00160233
Spot 1     0.00171210     0.00159674
Spot 2     0.00149207     0.00160219
20MABNDB000146_PR016
Spot 1     0.00145218     0.00133377
Spot 2     0.00172750     0.00133673
Spot 1     0.00145229     0.00133355
Spot 2     0.00172796     0.00133673
Spot 1     0.00145227     0.00133375
Spot 2     0.00172739     0.00133670
Spot 1     0.00145218     0.00133352
Spot 2     0.00172764     0.00133676
20MABNDB000135_PR027
Spot 1     0.00189414     0.00092033
Spot 2     0.00211211     0.00092237
Spot 1     0.00189402     0.00092023
Spot 2     0.00211221     0.00092236
Spot 1     0.00189405     0.00092023
Spot 2     0.00211216     0.00092241
Spot 1     0.00189397     0.00092025
Spot 2     0.00211224     0.00092249
20MABNDB000126_PR028
Spot 1     0.00164799     0.00200960
Spot 2     0.00192961     0.00201134
Spot 1     0.00164784     0.00200959
Spot 2     0.00192974     0.00201161
Spot 1     0.00164771     0.00200951
Spot 2     0.00192970     0.00201169
Spot 1     0.00164789     0.00200950
Spot 2     0.00192971     0.00201168
20MABNDA000272_PR038
Spot 1     0.00191958     0.00095920
Spot 2     0.00169826     0.00095715
Spot 1     0.00191970     0.00095872
Spot 2     0.00169858     0.00095709
Spot 1     0.00191956     0.00095877
Spot 2     0.00169829     0.00095699
Spot 1     0.00191961     0.00095915
Spot 2     0.00169847     0.00095677
20MABNDA000003_PR039
Spot 1     0.00199892     0.00193073
Spot 2     0.00227604     0.00193076
Spot 1     0.00199902     0.00193085
Spot 2     0.00227607     0.00193073
Spot 1     0.00199880     0.00193076
Spot 2     0.00227597     0.00193059
Spot 1     0.00199889     0.00193040
Spot 2     0.00227583     0.00193052
20MABNDA000196_PR006
Spot 1     0.00199018     0.00074332
Spot 2     0.00162381     0.00074065
Spot 1     0.00199011     0.00074351
Spot 2     0.00162369     0.00074068
Spot 1     0.00199009     0.00074345
Spot 2     0.00162382     0.00074067
Spot 1     0.00199025     0.00074357
Spot 2     0.00162369     0.00074071
20MABNDA000324_PR007
Spot 1     0.00194407     0.00120899
Spot 2     0.00173898     0.00121461
Spot 1     0.00194422     0.00120901
Spot 2     0.00173892     0.00121483
Spot 1     0.00194413     0.00120890
Spot 2     0.00173912     0.00121473
Spot 1     0.00194441     0.00120888
Spot 2     0.00173903     0.00121472
20MABNDB000001_PR017
Spot 1     0.00188250     0.00043879
Spot 2     0.00225107     0.00044786
Spot 1     0.00188255     0.00043871
Spot 2     0.00225081     0.00044791
Spot 1     0.00188249     0.00043876
Spot 2     0.00225095     0.00044833
Spot 1     0.00188233     0.00043875
Spot 2     0.00225107     0.00044810
20MABNDB000260_PR019
Spot 1     0.00192703     0.00151033
Spot 2     0.00213120     0.00151007
Spot 1     0.00192734     0.00150984
Spot 2     0.00213172     0.00150963
Spot 1     0.00192736     0.00150997
Spot 2     0.00213123     0.00150993
Spot 1     0.00192764     0.00150987
Spot 2     0.00213129     0.00151000
20MABNDB000212_PR029
Spot 1     0.00223134     0.00069813
Spot 2     0.00186900     0.00070005
Spot 1     0.00223104     0.00069809
Spot 2     0.00186900     0.00070011
Spot 1     0.00223129     0.00069804
Spot 2     0.00186911     0.00069963
Spot 1     0.00223107     0.00069821
Spot 2     0.00186904     0.00069989
20MABNDB000128_PR030
Spot 1     0.00190442     0.00200723
Spot 2     0.00210885     0.00200162
Spot 1     0.00190426     0.00200732
Spot 2     0.00210866     0.00200156
Spot 1     0.00190406     0.00200707
Spot 2     0.00210872     0.00200175
Spot 1     0.00190417     0.00200720
Spot 2     0.00210860     0.00200161
20MABNDA000444_PR040
Spot 1     0.00075850     0.00035829
Spot 2     0.00112500     0.00035539
Spot 1     0.00075861     0.00035833
Spot 2     0.00112526     0.00035566
Spot 1     0.00075841     0.00035826
Spot 2     0.00112527     0.00035527
Spot 1     0.00075843     0.00035829
Spot 2     0.00112513     0.00035526
20MABNDA000053_PR041
Spot 1     0.00166046     0.00198776
Spot 2     0.00144407     0.00198221
Spot 1     0.00166051     0.00198805
Spot 2     0.00144405     0.00198230
Spot 1     0.00166024     0.00198805
Spot 2     0.00144357     0.00198278
Spot 1     0.00166039     0.00198836
Spot 2     0.00144359     0.00198248
20MABNDB000069_PR031
Spot 1     0.00021500     0.00240500
Spot 2     0.00021500     0.00240500
Spot 1     0.00021500     0.00240500
Spot 2     0.00021500     0.00240500
Spot 1     0.00021500     0.00240500
Spot 2     0.00021500     0.00240500
Spot 1     0.00021500     0.00240500
Spot 2     0.00021500     0.00240500
20MABNDB000069_PR033
Spot 1     0.00190505     0.00182117
Spot 2     0.00237430     0.00184076
Spot 1     0.00190495     0.00182123
Spot 2     0.00237452     0.00184084
Spot 1     0.00190511     0.00182132
Spot 2     0.00237443     0.00184082
Spot 1     0.00190494     0.00182147
Spot 2     0.00237444     0.00184076
20MABNDB000131_PR032
Spot 1     0.00277649     0.00111371
Spot 2     0.00283643     0.00111762
Spot 1     0.00277666     0.00111369
Spot 2     0.00283638     0.00111759
Spot 1     0.00277655     0.00111366
Spot 2     0.00283636     0.00111763
Spot 1     0.00277654     0.00111372
Spot 2     0.00283640     0.00111758
20MABNDB000131_PR034
Spot 1     0.00092484     0.00042460
Spot 2     0.00110103     0.00042479
Spot 1     0.00092472     0.00042480
Spot 2     0.00110102     0.00042505
Spot 1     0.00092492     0.00042481
Spot 2     0.00110092     0.00042495
Spot 1     0.00092484     0.00042492
Spot 2     0.00110102     0.00042523
20MABNDA000208_PR042
Spot 1     0.00300973     0.00091733
Spot 2     0.00294478     0.00091653
Spot 1     0.00300933     0.00091760
Spot 2     0.00294287     0.00091578
Spot 1     0.00300931     0.00091753
Spot 2     0.00294362     0.00091688
Spot 1     0.00300932     0.00091758
Spot 2     0.00294367     0.00091602
20MABNDA000208_PR046
Spot 1     0.00132017     0.00195742
Spot 2     0.00084734     0.00196041
Spot 1     0.00132018     0.00195748
Spot 2     0.00084752     0.00196038
Spot 1     0.00131993     0.00195783
Spot 2     0.00084734     0.00196022
Spot 1     0.00131996     0.00195783
Spot 2     0.00084719     0.00196054
20MABNDA000035_PR044
Spot 1     0.00073777     0.00129065
Spot 2     0.00068229     0.00128405
Spot 1     0.00073780     0.00129061
Spot 2     0.00068193     0.00128420
Spot 1     0.00073792     0.00129060
Spot 2     0.00068273     0.00128428
Spot 1     0.00073781     0.00129043
Spot 2     0.00068242     0.00128415
20MABNDA000035_PR045
Spot 1     0.00254319     0.00056641
Spot 2     0.00236635     0.00056536
Spot 1     0.00254312     0.00056643
Spot 2     0.00236631     0.00056515
Spot 1     0.00254286     0.00056658
Spot 2     0.00236655     0.00056527
Spot 1     0.00254301     0.00056640
Spot 2     0.00236628     0.00056536
20MABNDA000188_PR008
Spot 1     0.00336500     0.00014500
Spot 2     0.00289500     0.00025500
Spot 1     0.00289500     0.00025500
Spot 2     0.00289500     0.00025500
Spot 1     0.00289500     0.00025500
Spot 2     0.00289500     0.00025500
Spot 1     0.00289500     0.00025500
Spot 2     0.00289500     0.00025500
20MABNDA000188_PR018
Spot 1     0.00156436     0.00155384
Spot 2     0.00109764     0.00155101
Spot 1     0.00156441     0.00155394
Spot 2     0.00109763     0.00155089
Spot 1     0.00156418     0.00155400
Spot 2     0.00109767     0.00155097
Spot 1     0.00156429     0.00155399
Spot 2     0.00109760     0.00155089
20MABNDA000039_PR009
Spot 1     0.00065972     0.00120542
Spot 2     0.00061275     0.00120951
Spot 1     0.00065947     0.00120534
Spot 2     0.00061265     0.00120974
Spot 1     0.00065990     0.00120562
Spot 2     0.00061264     0.00120972
Spot 1     0.00065990     0.00120527
Spot 2     0.00061257     0.00120977
20MABNDA000039_PR011
Spot 1     0.00275869     0.00035640
Spot 2     0.00258326     0.00035161
Spot 1     0.00275880     0.00035645
Spot 2     0.00258332     0.00035173
Spot 1     0.00275872     0.00035642
Spot 2     0.00258336     0.00035164
Spot 1     0.00275865     0.00035635
Spot 2     0.00258330     0.00035160
20MABNDB000155_PR020
Spot 1     0.00067106     0.00109564
Spot 2     0.00073626     0.00109159
Spot 1     0.00067145     0.00109552
Spot 2     0.00073504     0.00109147
Spot 1     0.00067128     0.00109551
Spot 2     0.00073635     0.00109132
Spot 1     0.00067079     0.00109591
Spot 2     0.00073606     0.00109127
20MABNDB000155_PR022
Spot 1     0.00222153     0.00117107
Spot 2     0.00269456     0.00116670
Spot 1     0.00222157     0.00117095
Spot 2     0.00269435     0.00116695
Spot 1     0.00222173     0.00117122
Spot 2     0.00269462     0.00116681
Spot 1     0.00222180     0.00117119
Spot 2     0.00269468     0.00116684
20MABNDB000010_PR021
Spot 1     0.00286611     0.00118351
Spot 2     0.00291853     0.00118641
Spot 1     0.00286588     0.00118374
Spot 2     0.00291896     0.00118662
Spot 1     0.00286586     0.00118384
Spot 2     0.00291866     0.00118638
Spot 1     0.00286597     0.00118407
Spot 2     0.00291868     0.00118646
20MABNDB000010_PR023
Spot 1     0.00130651     0.00039629
Spot 2     0.00148096     0.00039480
Spot 1     0.00130664     0.00039643
Spot 2     0.00148115     0.00039476
Spot 1     0.00130657     0.00039632
Spot 2     0.00148108     0.00039480
Spot 1     0.00130639     0.00039649
Spot 2     0.00148122     0.00039480


****************************************************************coordonnees images transformees dans le repere MOUNT************************************************************************* 
20MABNDL000077_PR002
Spot 1     0.01228683     0.03550903    -0.07463200
Spot 2     0.01158509     0.03451311    -0.07463200
Spot 1     0.01228913     0.03551217    -0.07463200
Spot 2     0.01158509     0.03451311    -0.07463200
Spot 1     0.01228489     0.03550792    -0.07463200
Spot 2     0.01158509     0.03451311    -0.07463200
Spot 1     0.01228843     0.03550870    -0.07463200
Spot 2     0.01158509     0.03451311    -0.07463200
Spot 1     0.01228906     0.03551103    -0.07463200
Spot 2     0.01158509     0.03451311    -0.07463200
20MABNDL000077_PR003
Spot 1     0.01246034     0.03556783    -0.07463200
Spot 2     0.01257259     0.03555068    -0.07463200
Spot 1     0.01245995     0.03556832    -0.07463200
Spot 2     0.01257829     0.03555965    -0.07463200
Spot 1     0.01246005     0.03556813    -0.07463200
Spot 2     0.01257812     0.03555949    -0.07463200
Spot 1     0.01245940     0.03556848    -0.07463200
Spot 2     0.01256996     0.03555247    -0.07463200
Spot 1     0.01246006     0.03556840    -0.07463200
Spot 2     0.01257794     0.03555977    -0.07463200
20MABNDL000077_20MABNDM000168
Spot 1    -0.01259284     0.03524604    -0.00695400
Spot 2    -0.01387118     0.03436485    -0.00695400
Spot 1    -0.01259326     0.03524628    -0.00695400
Spot 2    -0.01387118     0.03436485    -0.00695400
Spot 1    -0.01259349     0.03524634    -0.00695400
Spot 2    -0.01387118     0.03436485    -0.00695400
Spot 1    -0.01259331     0.03524618    -0.00695400
Spot 2    -0.01387118     0.03436485    -0.00695400
Spot 1    -0.01259275     0.03524637    -0.00695400
Spot 2    -0.01387118     0.03436485    -0.00695400
20MABNDL000077_PR024
Spot 1    -0.01338145     0.03548960    -0.00695400
Spot 2    -0.01347911     0.03549952    -0.00695400
Spot 1    -0.01338103     0.03549013    -0.00695400
Spot 2    -0.01347879     0.03549982    -0.00695400
Spot 1    -0.01338173     0.03549025    -0.00695400
Spot 2    -0.01347863     0.03550010    -0.00695400
Spot 1    -0.01338115     0.03549032    -0.00695400
Spot 2    -0.01347890     0.03549998    -0.00695400
Spot 1    -0.01338153     0.03549017    -0.00695400
Spot 2    -0.01347895     0.03549990    -0.00695400
20MABNDM000020_PR013
Spot 1    -0.01273241    -0.03546956    -0.00523500
Spot 2    -0.01288605    -0.03547640    -0.00523500
Spot 1    -0.01273194    -0.03547074    -0.00523500
Spot 2    -0.01288678    -0.03547691    -0.00523500
Spot 1    -0.01273175    -0.03547114    -0.00523500
Spot 2    -0.01288711    -0.03547711    -0.00523500
Spot 1    -0.01273149    -0.03547109    -0.00523500
Spot 2    -0.01288612    -0.03547597    -0.00523500
Spot 1    -0.01273193    -0.03547088    -0.00523500
Spot 2    -0.01288677    -0.03547681    -0.00523500
20MABNDM000020_PR014
Spot 1    -0.01169577    -0.03562680    -0.00523500
Spot 2    -0.01185730    -0.03563292    -0.00523500
Spot 1    -0.01169526    -0.03562733    -0.00523500
Spot 2    -0.01185679    -0.03563353    -0.00523500
Spot 1    -0.01169532    -0.03562672    -0.00523500
Spot 2    -0.01185725    -0.03563379    -0.00523500
Spot 1    -0.01169572    -0.03562715    -0.00523500
Spot 2    -0.01185699    -0.03563426    -0.00523500
Spot 1    -0.01169550    -0.03562765    -0.00523500
Spot 2    -0.01185640    -0.03563485    -0.00523500
20MABNDM000020_20MABNDL000196
Spot 1     0.01270969    -0.03514664    -0.07583800
Spot 2     0.01238113    -0.03407361    -0.07583800
Spot 1     0.01270967    -0.03514688    -0.07583800
Spot 2     0.01238113    -0.03407361    -0.07583800
Spot 1     0.01270992    -0.03514694    -0.07583800
Spot 2     0.01238113    -0.03407361    -0.07583800
Spot 1     0.01270991    -0.03514681    -0.07583800
Spot 2     0.01238113    -0.03407361    -0.07583800
Spot 1     0.01270962    -0.03514692    -0.07583800
Spot 2     0.01238113    -0.03407361    -0.07583800
20MABNDM000020_PR035
Spot 1     0.01341610    -0.03546281    -0.07583800
Spot 2     0.01349831    -0.03550008    -0.07583800
Spot 1     0.01341481    -0.03546262    -0.07583800
Spot 2     0.01349834    -0.03550009    -0.07583800
Spot 1     0.01341483    -0.03546225    -0.07583800
Spot 2     0.01349857    -0.03549999    -0.07583800
Spot 1     0.01341459    -0.03546204    -0.07583800
Spot 2     0.01349841    -0.03549991    -0.07583800
20MABNDM000168_PR025
Spot 1    -0.01322747    -0.03564152    -0.00532900
Spot 2    -0.01338067    -0.03564226    -0.00532900
Spot 1    -0.01322764    -0.03564114    -0.00532900
Spot 2    -0.01338100    -0.03564204    -0.00532900
Spot 1    -0.01322758    -0.03564107    -0.00532900
Spot 2    -0.01338087    -0.03564210    -0.00532900
Spot 1    -0.01322770    -0.03564109    -0.00532900
Spot 2    -0.01338081    -0.03564206    -0.00532900
20MABNDM000168_PR026
Spot 1    -0.01173324    -0.03576045    -0.00532900
Spot 2    -0.01189387    -0.03575764    -0.00532900
Spot 1    -0.01173329    -0.03576024    -0.00532900
Spot 2    -0.01189417    -0.03575745    -0.00532900
Spot 1    -0.01173321    -0.03576002    -0.00532900
Spot 2    -0.01189418    -0.03575742    -0.00532900
Spot 1    -0.01173344    -0.03576013    -0.00532900
Spot 2    -0.01189422    -0.03575739    -0.00532900
20MABNDM000168_20MABNDL000077
Spot 1     0.01288463    -0.03530224    -0.07445100
Spot 2     0.01266456    -0.03531004    -0.07445100
Spot 1     0.01288455    -0.03530221    -0.07445100
Spot 2     0.01266416    -0.03530998    -0.07445100
Spot 1     0.01288425    -0.03530166    -0.07445100
Spot 2     0.01266423    -0.03530953    -0.07445100
Spot 1     0.01288404    -0.03530141    -0.07445100
Spot 2     0.01266427    -0.03530936    -0.07445100
20MABNDM000168_PR001
Spot 1     0.01361263    -0.03563239    -0.07445100
Spot 2     0.01371467    -0.03563585    -0.07445100
Spot 1     0.01361239    -0.03563251    -0.07445100
Spot 2     0.01371431    -0.03563579    -0.07445100
Spot 1     0.01361255    -0.03563247    -0.07445100
Spot 2     0.01371450    -0.03563567    -0.07445100
Spot 1     0.01361215    -0.03563245    -0.07445100
Spot 2     0.01371452    -0.03563573    -0.07445100
20MABNDL000196_PR036
Spot 1     0.01192495     0.03582774    -0.07483600
Spot 2     0.01208914     0.03582717    -0.07483600
Spot 1     0.01192528     0.03582741    -0.07483600
Spot 2     0.01208940     0.03582630    -0.07483600
Spot 1     0.01192527     0.03582704    -0.07483600
Spot 2     0.01208948     0.03582617    -0.07483600
Spot 1     0.01192532     0.03582704    -0.07483600
Spot 2     0.01208942     0.03582621    -0.07483600
20MABNDL000196_PR037
Spot 1     0.01344890     0.03536134    -0.07483600
Spot 2     0.01360340     0.03535992    -0.07483600
Spot 1     0.01344905     0.03536116    -0.07483600
Spot 2     0.01360351     0.03535983    -0.07483600
Spot 1     0.01344915     0.03536117    -0.07483600
Spot 2     0.01360358     0.03535976    -0.07483600
Spot 1     0.01344907     0.03536129    -0.07483600
Spot 2     0.01360369     0.03535978    -0.07483600
20MABNDL000196_20MABNDM000020
Spot 1    -0.01275038     0.03531462    -0.00611000
Spot 2    -0.01252940     0.03532470    -0.00611000
Spot 1    -0.01275034     0.03531441    -0.00611000
Spot 2    -0.01252904     0.03532452    -0.00611000
Spot 1    -0.01275025     0.03531402    -0.00611000
Spot 2    -0.01252899     0.03532408    -0.00611000
Spot 1    -0.01274977     0.03531451    -0.00611000
Spot 2    -0.01252891     0.03532381    -0.00611000
20MABNDL000196_PR012
Spot 1    -0.01348107     0.03560001    -0.00611000
Spot 2    -0.01355523     0.03564472    -0.00611000
Spot 1    -0.01348118     0.03560028    -0.00611000
Spot 2    -0.01355502     0.03564466    -0.00611000
Spot 1    -0.01348083     0.03559974    -0.00611000
Spot 2    -0.01355506     0.03564466    -0.00611000
Spot 1    -0.01348094     0.03560000    -0.00611000
Spot 2    -0.01355495     0.03564453    -0.00611000
20MABNDA000318_PR004
Spot 1    -0.01286319     0.01246696    -0.07310600
Spot 2    -0.01264578     0.01246688    -0.07310600
Spot 1    -0.01286335     0.01246716    -0.07310600
Spot 2    -0.01264549     0.01246689    -0.07310600
Spot 1    -0.01286328     0.01246727    -0.07310600
Spot 2    -0.01264564     0.01246647    -0.07310600
Spot 1    -0.01286323     0.01246717    -0.07310600
Spot 2    -0.01264571     0.01246667    -0.07310600
20MABNDA000334_PR005
Spot 1    -0.01311485     0.01254018    -0.07324100
Spot 2    -0.01283482     0.01253870    -0.07324100
Spot 1    -0.01311494     0.01253984    -0.07324100
Spot 2    -0.01283473     0.01253881    -0.07324100
Spot 1    -0.01311518     0.01253983    -0.07324100
Spot 2    -0.01283471     0.01253880    -0.07324100
Spot 1    -0.01311503     0.01253971    -0.07324100
Spot 2    -0.01283464     0.01253893    -0.07324100
20MABNDB000317_PR015
Spot 1    -0.01244231    -0.01249867    -0.07326100
Spot 2    -0.01266222    -0.01249555    -0.07326100
Spot 1    -0.01244218    -0.01249858    -0.07326100
Spot 2    -0.01266204    -0.01249571    -0.07326100
Spot 1    -0.01244235    -0.01249890    -0.07326100
Spot 2    -0.01266180    -0.01249566    -0.07326100
Spot 1    -0.01244217    -0.01249869    -0.07326100
Spot 2    -0.01266225    -0.01249581    -0.07326100
20MABNDB000146_PR016
Spot 1    -0.01275618    -0.01245982    -0.07450500
Spot 2    -0.01248087    -0.01245625    -0.07450500
Spot 1    -0.01275607    -0.01246004    -0.07450500
Spot 2    -0.01248041    -0.01245625    -0.07450500
Spot 1    -0.01275609    -0.01245984    -0.07450500
Spot 2    -0.01248098    -0.01245629    -0.07450500
Spot 1    -0.01275618    -0.01246007    -0.07450500
Spot 2    -0.01248073    -0.01245622    -0.07450500
20MABNDB000135_PR027
Spot 1    -0.01251048    -0.01319273    -0.07464700
Spot 2    -0.01229250    -0.01319311    -0.07464700
Spot 1    -0.01251060    -0.01319282    -0.07464700
Spot 2    -0.01229240    -0.01319312    -0.07464700
Spot 1    -0.01251057    -0.01319282    -0.07464700
Spot 2    -0.01229245    -0.01319307    -0.07464700
Spot 1    -0.01251065    -0.01319280    -0.07464700
Spot 2    -0.01229237    -0.01319299    -0.07464700
20MABNDB000126_PR028
Spot 1    -0.01253155    -0.01217255    -0.07500400
Spot 2    -0.01224994    -0.01216931    -0.07500400
Spot 1    -0.01253170    -0.01217256    -0.07500400
Spot 2    -0.01224981    -0.01216904    -0.07500400
Spot 1    -0.01253183    -0.01217265    -0.07500400
Spot 2    -0.01224985    -0.01216896    -0.07500400
Spot 1    -0.01253165    -0.01217265    -0.07500400
Spot 2    -0.01224984    -0.01216897    -0.07500400
20MABNDA000272_PR038
Spot 1    -0.01275525     0.01315226    -0.07417900
Spot 2    -0.01253392     0.01315392    -0.07417900
Spot 1    -0.01275537     0.01315274    -0.07417900
Spot 2    -0.01253424     0.01315398    -0.07417900
Spot 1    -0.01275523     0.01315269    -0.07417900
Spot 2    -0.01253395     0.01315408    -0.07417900
Spot 1    -0.01275528     0.01315231    -0.07417900
Spot 2    -0.01253413     0.01315430    -0.07417900
20MABNDA000003_PR039
Spot 1    -0.01280002     0.01212153    -0.07373400
Spot 2    -0.01307714     0.01212221    -0.07373400
Spot 1    -0.01280012     0.01212141    -0.07373400
Spot 2    -0.01307717     0.01212224    -0.07373400
Spot 1    -0.01279990     0.01212150    -0.07373400
Spot 2    -0.01307706     0.01212238    -0.07373400
Spot 1    -0.01279999     0.01212186    -0.07373400
Spot 2    -0.01307692     0.01212244    -0.07373400
20MABNDA000196_PR006
Spot 1    -0.01294507     0.01323496    -0.07967100
Spot 2    -0.01257869     0.01323292    -0.07967100
Spot 1    -0.01294500     0.01323477    -0.07967100
Spot 2    -0.01257857     0.01323289    -0.07967100
Spot 1    -0.01294498     0.01323483    -0.07967100
Spot 2    -0.01257870     0.01323290    -0.07967100
Spot 1    -0.01294514     0.01323471    -0.07967100
Spot 2    -0.01257857     0.01323286    -0.07967100
20MABNDA000324_PR007
Spot 1    -0.01254981     0.01281261    -0.07446800
Spot 2    -0.01234468     0.01280859    -0.07446800
Spot 1    -0.01254996     0.01281259    -0.07446800
Spot 2    -0.01234462     0.01280837    -0.07446800
Spot 1    -0.01254987     0.01281270    -0.07446800
Spot 2    -0.01234482     0.01280847    -0.07446800
Spot 1    -0.01255015     0.01281272    -0.07446800
Spot 2    -0.01234473     0.01280848    -0.07446800
20MABNDB000001_PR017
Spot 1    -0.01230586    -0.01355069    -0.07418400
Spot 2    -0.01193722    -0.01354552    -0.07418400
Spot 1    -0.01230581    -0.01355077    -0.07418400
Spot 2    -0.01193748    -0.01354547    -0.07418400
Spot 1    -0.01230587    -0.01355072    -0.07418400
Spot 2    -0.01193733    -0.01354505    -0.07418400
Spot 1    -0.01230603    -0.01355072    -0.07418400
Spot 2    -0.01193721    -0.01354528    -0.07418400
20MABNDB000260_PR019
Spot 1    -0.01240447    -0.01239212    -0.07492700
Spot 2    -0.01220033    -0.01238820    -0.07492700
Spot 1    -0.01240415    -0.01239261    -0.07492700
Spot 2    -0.01219981    -0.01238863    -0.07492700
Spot 1    -0.01240413    -0.01239248    -0.07492700
Spot 2    -0.01220030    -0.01238834    -0.07492700
Spot 1    -0.01240385    -0.01239257    -0.07492700
Spot 2    -0.01220024    -0.01238826    -0.07492700
20MABNDB000212_PR029
Spot 1    -0.01185654    -0.01328311    -0.07390500
Spot 2    -0.01221883    -0.01327733    -0.07390500
Spot 1    -0.01185684    -0.01328315    -0.07390500
Spot 2    -0.01221883    -0.01327727    -0.07390500
Spot 1    -0.01185659    -0.01328320    -0.07390500
Spot 2    -0.01221873    -0.01327775    -0.07390500
Spot 1    -0.01185680    -0.01328303    -0.07390500
Spot 2    -0.01221880    -0.01327749    -0.07390500
20MABNDB000128_PR030
Spot 1    -0.01245072    -0.01221007    -0.07353400
Spot 2    -0.01224627    -0.01221497    -0.07353400
Spot 1    -0.01245088    -0.01220998    -0.07353400
Spot 2    -0.01224646    -0.01221504    -0.07353400
Spot 1    -0.01245108    -0.01221023    -0.07353400
Spot 2    -0.01224641    -0.01221485    -0.07353400
Spot 1    -0.01245097    -0.01221010    -0.07353400
Spot 2    -0.01224652    -0.01221499    -0.07353400
20MABNDA000444_PR040
Spot 1    -0.01169827     0.01367136    -0.07412000
Spot 2    -0.01206478     0.01366960    -0.07412000
Spot 1    -0.01169838     0.01367131    -0.07412000
Spot 2    -0.01206504     0.01366933    -0.07412000
Spot 1    -0.01169818     0.01367139    -0.07412000
Spot 2    -0.01206505     0.01366972    -0.07412000
Spot 1    -0.01169820     0.01367136    -0.07412000
Spot 2    -0.01206491     0.01366973    -0.07412000
20MABNDA000053_PR041
Spot 1    -0.01241707     0.01212285    -0.07430100
Spot 2    -0.01220061     0.01212417    -0.07430100
Spot 1    -0.01241712     0.01212256    -0.07430100
Spot 2    -0.01220059     0.01212408    -0.07430100
Spot 1    -0.01241685     0.01212255    -0.07430100
Spot 2    -0.01220012     0.01212359    -0.07430100
Spot 1    -0.01241701     0.01212224    -0.07430100
Spot 2    -0.01220013     0.01212389    -0.07430100
20MABNDB000069_PR031
Spot 1    -0.01361993    -0.01186066    -0.07388500
Spot 2    -0.01361993    -0.01186066    -0.07388500
Spot 1    -0.01361993    -0.01186066    -0.07388500
Spot 2    -0.01361993    -0.01186066    -0.07388500
Spot 1    -0.01361993    -0.01186066    -0.07388500
Spot 2    -0.01361993    -0.01186066    -0.07388500
Spot 1    -0.01361993    -0.01186066    -0.07388500
Spot 2    -0.01361993    -0.01186066    -0.07388500
20MABNDB000069_PR033
Spot 1    -0.01195541    -0.01251374    -0.07388500
Spot 2    -0.01148575    -0.01251353    -0.07388500
Spot 1    -0.01195551    -0.01251368    -0.07388500
Spot 2    -0.01148553    -0.01251346    -0.07388500
Spot 1    -0.01195534    -0.01251359    -0.07388500
Spot 2    -0.01148562    -0.01251348    -0.07388500
Spot 1    -0.01195551    -0.01251344    -0.07388500
Spot 2    -0.01148561    -0.01251354    -0.07388500
20MABNDB000131_PR032
Spot 1    -0.01144384    -0.01300105    -0.07533000
Spot 2    -0.01138392    -0.01299683    -0.07533000
Spot 1    -0.01144367    -0.01300107    -0.07533000
Spot 2    -0.01138397    -0.01299687    -0.07533000
Spot 1    -0.01144378    -0.01300110    -0.07533000
Spot 2    -0.01138399    -0.01299683    -0.07533000
Spot 1    -0.01144379    -0.01300104    -0.07533000
Spot 2    -0.01138395    -0.01299687    -0.07533000
20MABNDB000131_PR034
Spot 1    -0.01329200    -0.01369947    -0.07533000
Spot 2    -0.01311581    -0.01369839    -0.07533000
Spot 1    -0.01329212    -0.01369927    -0.07533000
Spot 2    -0.01311582    -0.01369813    -0.07533000
Spot 1    -0.01329192    -0.01369926    -0.07533000
Spot 2    -0.01311592    -0.01369823    -0.07533000
Spot 1    -0.01329200    -0.01369915    -0.07533000
Spot 2    -0.01311582    -0.01369795    -0.07533000
20MABNDA000208_PR042
Spot 1    -0.01388048     0.01307873    -0.07273700
Spot 2    -0.01381553     0.01307959    -0.07273700
Spot 1    -0.01388008     0.01307846    -0.07273700
Spot 2    -0.01381362     0.01308034    -0.07273700
Spot 1    -0.01388006     0.01307853    -0.07273700
Spot 2    -0.01381437     0.01307924    -0.07273700
Spot 1    -0.01388007     0.01307848    -0.07273700
Spot 2    -0.01381442     0.01308010    -0.07273700
20MABNDA000208_PR046
Spot 1    -0.01219001     0.01204012    -0.07273700
Spot 2    -0.01171718     0.01203755    -0.07273700
Spot 1    -0.01219002     0.01204006    -0.07273700
Spot 2    -0.01171736     0.01203758    -0.07273700
Spot 1    -0.01218977     0.01203971    -0.07273700
Spot 2    -0.01171718     0.01203774    -0.07273700
Spot 1    -0.01218980     0.01203971    -0.07273700
Spot 2    -0.01171703     0.01203742    -0.07273700
20MABNDA000035_PR044
Spot 1    -0.01157266     0.01296659    -0.07483200
Spot 2    -0.01151713     0.01297280    -0.07483200
Spot 1    -0.01157269     0.01296663    -0.07483200
Spot 2    -0.01151677     0.01297265    -0.07483200
Spot 1    -0.01157281     0.01296665    -0.07483200
Spot 2    -0.01151757     0.01297257    -0.07483200
Spot 1    -0.01157270     0.01296681    -0.07483200
Spot 2    -0.01151726     0.01297270    -0.07483200
20MABNDA000035_PR045
Spot 1    -0.01337288     0.01370366    -0.07483200
Spot 2    -0.01319604     0.01370345    -0.07483200
Spot 1    -0.01337281     0.01370364    -0.07483200
Spot 2    -0.01319599     0.01370366    -0.07483200
Spot 1    -0.01337255     0.01370349    -0.07483200
Spot 2    -0.01319624     0.01370354    -0.07483200
Spot 1    -0.01337270     0.01370367    -0.07483200
Spot 2    -0.01319597     0.01370345    -0.07483200
20MABNDA000188_PR008
Spot 1    -0.01438131     0.01392295    -0.07502000
Spot 2    -0.01391227     0.01380893    -0.07502000
Spot 1    -0.01391227     0.01380893    -0.07502000
Spot 2    -0.01391227     0.01380893    -0.07502000
Spot 1    -0.01391227     0.01380893    -0.07502000
Spot 2    -0.01391227     0.01380893    -0.07502000
Spot 1    -0.01391227     0.01380893    -0.07502000
Spot 2    -0.01391227     0.01380893    -0.07502000
20MABNDA000188_PR018
Spot 1    -0.01259280     0.01249874    -0.07502000
Spot 2    -0.01212607     0.01249758    -0.07502000
Spot 1    -0.01259285     0.01249865    -0.07502000
Spot 2    -0.01212606     0.01249770    -0.07502000
Spot 1    -0.01259262     0.01249858    -0.07502000
Spot 2    -0.01212610     0.01249762    -0.07502000
Spot 1    -0.01259273     0.01249859    -0.07502000
Spot 2    -0.01212603     0.01249770    -0.07502000
20MABNDA000039_PR009
Spot 1    -0.01162198     0.01303870    -0.07444800
Spot 2    -0.01157503     0.01303440    -0.07444800
Spot 1    -0.01162173     0.01303878    -0.07444800
Spot 2    -0.01157493     0.01303417    -0.07444800
Spot 1    -0.01162216     0.01303850    -0.07444800
Spot 2    -0.01157492     0.01303419    -0.07444800
Spot 1    -0.01162216     0.01303885    -0.07444800
Spot 2    -0.01157485     0.01303414    -0.07444800
20MABNDA000039_PR011
Spot 1    -0.01371726     0.01389679    -0.07444800
Spot 2    -0.01354181     0.01390082    -0.07444800
Spot 1    -0.01371737     0.01389674    -0.07444800
Spot 2    -0.01354187     0.01390070    -0.07444800
Spot 1    -0.01371729     0.01389677    -0.07444800
Spot 2    -0.01354191     0.01390079    -0.07444800
Spot 1    -0.01371722     0.01389684    -0.07444800
Spot 2    -0.01354185     0.01390083    -0.07444800
20MABNDB000155_PR020
Spot 1    -0.01359464    -0.01316103    -0.07501700
Spot 2    -0.01352939    -0.01316418    -0.07501700
Spot 1    -0.01359425    -0.01316114    -0.07501700
Spot 2    -0.01353061    -0.01316432    -0.07501700
Spot 1    -0.01359442    -0.01316115    -0.07501700
Spot 2    -0.01352929    -0.01316445    -0.07501700
Spot 1    -0.01359491    -0.01316076    -0.07501700
Spot 2    -0.01352958    -0.01316451    -0.07501700
20MABNDB000155_PR022
Spot 1    -0.01204535    -0.01306438    -0.07501700
Spot 2    -0.01157230    -0.01306227    -0.07501700
Spot 1    -0.01204530    -0.01306450    -0.07501700
Spot 2    -0.01157251    -0.01306202    -0.07501700
Spot 1    -0.01204515    -0.01306422    -0.07501700
Spot 2    -0.01157224    -0.01306216    -0.07501700
Spot 1    -0.01204508    -0.01306425    -0.07501700
Spot 2    -0.01157218    -0.01306213    -0.07501700
20MABNDB000010_PR021
Spot 1    -0.01158541    -0.01289505    -0.07358200
Spot 2    -0.01153305    -0.01289126    -0.07358200
Spot 1    -0.01158565    -0.01289482    -0.07358200
Spot 2    -0.01153262    -0.01289104    -0.07358200
Spot 1    -0.01158567    -0.01289472    -0.07358200
Spot 2    -0.01153292    -0.01289129    -0.07358200
Spot 1    -0.01158556    -0.01289449    -0.07358200
Spot 2    -0.01153290    -0.01289121    -0.07358200
20MABNDB000010_PR023
Spot 1    -0.01313145    -0.01370858    -0.07358200
Spot 2    -0.01295700    -0.01370711    -0.07358200
Spot 1    -0.01313133    -0.01370843    -0.07358200
Spot 2    -0.01295681    -0.01370715    -0.07358200
Spot 1    -0.01313139    -0.01370855    -0.07358200
Spot 2    -0.01295688    -0.01370711    -0.07358200
Spot 1    -0.01313158    -0.01370838    -0.07358200
Spot 2    -0.01295674    -0.01370711    -0.07358200


*****************************************************************coordonnees du prisme dans le repere MOUNT********************************************************************************** 
20MABNDL000077_PR002
    0.05004530     0.04912095     3.70691013
    0.04998848     0.04904344     3.70691061
    0.05009323     0.04914840     3.70690918
    0.05000585     0.04912899     3.70691037
    0.04999023     0.04907159     3.70691061
20MABNDL000077_PR003
    0.02181038     0.02132638     3.89601564
    0.02167223     0.02108080     3.89601517
    0.02167413     0.02108987     3.89601517
    0.02190297     0.02126317     3.89601517
    0.02167867     0.02107555     3.89601517
20MABNDL000077_20MABNDM000168
    0.02681833     0.06909811    -5.46851063
    0.02683359     0.06908925    -5.46851063
    0.02684192     0.06908716    -5.46851063
    0.02683536     0.06909288    -5.46851063
    0.02681484     0.06908616    -5.46851063
20MABNDL000077_PR024
    0.04541461     0.01799514    -5.89640379
    0.04538571     0.01796248    -5.89640427
    0.04540691     0.01794750    -5.89640379
    0.04539482     0.01794893    -5.89640379
    0.04541148     0.01795807    -5.89640379
20MABNDM000020_PR013
   -0.00363188    -0.01899927    -3.80243802
   -0.00362536    -0.01895743    -3.80243754
   -0.00362197    -0.01894246    -3.80243754
   -0.00365283    -0.01897193    -3.80243802
   -0.00362588    -0.01895645    -3.80243754
20MABNDM000020_PR014
   -0.06560852    -0.00493539    -4.74840927
   -0.06564011    -0.00489999    -4.74840832
   -0.06562401    -0.00491085    -4.74840879
   -0.06561963    -0.00488275    -4.74840879
   -0.06564496    -0.00484876    -4.74840832
20MABNDM000020_20MABNDL000196
    0.02683734    -0.07124415     5.39469719
    0.02683805    -0.07123555     5.39469719
    0.02682910    -0.07123341     5.39469719
    0.02682946    -0.07123806     5.39469719
    0.02683984    -0.07123412     5.39469719
20MABNDM000020_PR035
   -0.04235697    -0.00676727     5.80095530
   -0.04230843    -0.00677419     5.80095577
   -0.04231806    -0.00679230     5.80095577
   -0.04230265    -0.00680347     5.80095577
20MABNDM000168_PR025
    0.01801711    -0.02082169    -3.78863955
    0.01802954    -0.02083647    -3.78863883
    0.01802484    -0.02083674    -3.78863955
    0.01802633    -0.02083722    -3.78863955
20MABNDM000168_PR026
   -0.05795671    -0.01391927    -3.98428869
   -0.05794755    -0.01392964    -3.98428893
   -0.05794935    -0.01393616    -3.98428893
   -0.05794233    -0.01393405    -3.98428893
20MABNDM000168_20MABNDL000077
    0.01163925    -0.03842570     5.38884687
    0.01165644    -0.03842918     5.38884687
    0.01166490    -0.03846523     5.38884687
    0.01167079    -0.03848005     5.38884687
20MABNDM000168_PR001
   -0.05737436    -0.01318536     5.81470490
   -0.05735108    -0.01318337     5.81470490
   -0.05736473    -0.01318938     5.81470490
   -0.05734997    -0.01318766     5.81470490
20MABNDL000196_PR036
    0.05142444     0.00597825     3.68777132
    0.05140990     0.00600767     3.68777180
    0.05140816     0.00601994     3.68777180
    0.05140840     0.00601896     3.68777180
20MABNDL000196_PR037
   -0.02507400     0.02852399     3.88381386
   -0.02508074     0.02853095     3.88381386
   -0.02508513     0.02853249     3.88381338
   -0.02508590     0.02852887     3.88381338
20MABNDL000196_20MABNDM000020
   -0.01566046     0.03774041    -5.47473907
   -0.01567440     0.03775451    -5.47473907
   -0.01567968     0.03778458    -5.47473907
   -0.01570000     0.03777663    -5.47473907
20MABNDL000196_PR012
    0.05236290     0.01434937    -5.91537094
    0.05235918     0.01434113    -5.91537142
    0.05234709     0.01436227    -5.91537142
    0.05234682     0.01435682    -5.91537142
20MABNDA000318_PR004
   -0.00853878     0.03848771     2.74965835
   -0.00854115     0.03848385     2.74965835
   -0.00853970     0.03848954     2.74965835
   -0.00853933     0.03848771     2.74965835
20MABNDA000334_PR005
   -0.00430659     0.03176504     2.14977121
   -0.00430659     0.03176833     2.14977121
   -0.00430345     0.03176861     2.14977121
   -0.00430659     0.03176847     2.14977121
20MABNDB000317_PR015
   -0.01753417    -0.03409838     2.75128937
   -0.01753983    -0.03409699     2.75128937
   -0.01754116    -0.03409209     2.75128937
   -0.01753623    -0.03409331     2.75128937
20MABNDB000146_PR016
   -0.01365105    -0.03183930     2.15201211
   -0.01365926    -0.03183615     2.15201211
   -0.01365077    -0.03183858     2.15201211
   -0.01365307    -0.03183614     2.15201211
20MABNDB000135_PR027
   -0.02111613    -0.01001506     2.74937105
   -0.02111575    -0.01001305     2.74937105
   -0.02111539    -0.01001397     2.74937105
   -0.02111541    -0.01001580     2.74937105
20MABNDB000126_PR028
   -0.02042182    -0.03897697     2.14679480
   -0.02042151    -0.03898067     2.14679456
   -0.02041909    -0.03898066     2.14679456
   -0.02042180    -0.03898039     2.14679456
20MABNDA000272_PR038
   -0.01335452     0.01107186     2.74965882
   -0.01334647     0.01106195     2.74965882
   -0.01335436     0.01106104     2.74965882
   -0.01335014     0.01106397     2.74965882
20MABNDA000003_PR039
   -0.00600159     0.04135854     2.14891386
   -0.00599973     0.04135982     2.14891386
   -0.00600431     0.04135654     2.14891386
   -0.00600504     0.04135040     2.14891434
20MABNDA000196_PR006
   -0.01031215     0.01023503     1.64206421
   -0.01031420     0.01023746     1.64206421
   -0.01031300     0.01023667     1.64206421
   -0.01031265     0.01023842     1.64206421
20MABNDA000324_PR007
   -0.02539315     0.02772554     2.95549202
   -0.02539142     0.02773028     2.95549202
   -0.02538922     0.02772616     2.95549202
   -0.02538548     0.02772560     2.95549202
20MABNDB000001_PR017
   -0.02404417    -0.00284095     1.64036036
   -0.02404187    -0.00284064     1.64036036
   -0.02404280    -0.00284577     1.64036036
   -0.02404233    -0.00284315     1.64036036
20MABNDB000260_PR019
   -0.02454730    -0.03865325     2.95627165
   -0.02456402    -0.03863527     2.95627165
   -0.02455459    -0.03864355     2.95627165
   -0.02456130    -0.03864309     2.95627165
20MABNDB000212_PR029
   -0.02533031    -0.00842403     1.64223838
   -0.02532702    -0.00842429     1.64223838
   -0.02533091    -0.00841844     1.64223838
   -0.02532778    -0.00842318     1.64223838
20MABNDB000128_PR030
   -0.01944022    -0.04703813     2.95496011
   -0.01943334    -0.04703869     2.95496011
   -0.01943059    -0.04703750     2.95496011
   -0.01943039    -0.04703731     2.95496011
20MABNDA000444_PR040
   -0.02995581     0.00100416     1.64491212
   -0.02995181     0.00100761     1.64491236
   -0.02995382     0.00100254     1.64491212
   -0.02995514     0.00100275     1.64491212
20MABNDA000053_PR041
   -0.02652089     0.05089653     2.95450664
   -0.02652015     0.05090398     2.95450664
   -0.02653469     0.05091368     2.95450616
   -0.02653135     0.05091382     2.95450616
20MABNDB000069_PR031
    0.10999375    -0.16176865     9.20229721
    0.10999375    -0.16176865     9.20229721
    0.10999375    -0.16176865     9.20229721
    0.10999375    -0.16176865     9.20229721
20MABNDB000069_PR033
   -0.02802374    -0.02265100     1.28396583
   -0.02802482    -0.02265216     1.28396583
   -0.02802544    -0.02265273     1.28396583
   -0.02802411    -0.02265356     1.28396583
20MABNDB000131_PR032
   -0.18784863    -0.03508925    11.00641441
   -0.18785742    -0.03508564    11.00641441
   -0.18784791    -0.03508633    11.00641441
   -0.18785012    -0.03508707    11.00641441
20MABNDB000131_PR034
    0.01431701     0.01190730     3.43341541
    0.01432003     0.01189683     3.43341541
    0.01431774     0.01189887     3.43341541
    0.01431733     0.01188998     3.43341565
20MABNDA000208_PR042
    0.12652642     0.01022970     9.20154095
    0.12638468     0.01020012     9.20154285
    0.12642942     0.01026337     9.20154190
    0.12643315     0.01021366     9.20154190
20MABNDA000208_PR046
   -0.02567387     0.03045577     1.28212476
   -0.02567225     0.03045602     1.28212476
   -0.02567593     0.03045764     1.28212452
   -0.02567695     0.03046038     1.28212452
20MABNDA000035_PR044
   -0.17990261     0.03158125    11.00801659
   -0.17992669     0.03158947    11.00801659
   -0.17985937     0.03159411    11.00801659
   -0.17989023     0.03157239    11.00801659
20MABNDA000035_PR045
    0.01453996    -0.01462516     3.43487525
    0.01453742    -0.01462947     3.43487525
    0.01453700    -0.01462331     3.43487525
    0.01453425    -0.01462534     3.43487525
20MABNDA000188_PR008
    0.16528198    -0.08584310     9.20280933
    0.13650158    -0.07885031     9.20339394
    0.13650158    -0.07885031     9.20339394
    0.13650158    -0.07885031     9.20339394
20MABNDA000188_PR018
   -0.01847294     0.02271304     1.28360128
   -0.01847260     0.02271286     1.28360128
   -0.01847422     0.02271407     1.28360128
   -0.01847388     0.02271330     1.28360128
20MABNDA000039_PR009
   -0.17173290     0.02930579    11.00700188
   -0.17175846     0.02931687    11.00700188
   -0.17172766     0.02933575    11.00700188
   -0.17173287     0.02931383    11.00700188
20MABNDA000039_PR011
    0.03036838    -0.02114544     3.43351150
    0.03037228    -0.02114158     3.43351150
    0.03037136    -0.02114431     3.43351150
    0.03036838    -0.02114680     3.43351150
20MABNDB000155_PR020
    0.09577252    -0.00482401     9.20035744
    0.09582325    -0.00480858     9.20035648
    0.09575315    -0.00479971     9.20035744
    0.09580131    -0.00482054     9.20035648
20MABNDB000155_PR022
   -0.02751904    -0.01366609     1.28069484
   -0.02751757    -0.01366718     1.28069484
   -0.02752122    -0.01366834     1.28069484
   -0.02752234    -0.01366835     1.28069484
20MABNDB000010_PR021
   -0.17552221    -0.03820322    11.00694656
   -0.17553635    -0.03823582    11.00694656
   -0.17551300    -0.03822513    11.00694656
   -0.17552218    -0.03824808    11.00694656
20MABNDB000010_PR023
    0.00465167     0.01644282     3.43380451
    0.00464437     0.01644040     3.43380451
    0.00464755     0.01644206     3.43380451
    0.00464854     0.01643818     3.43380451


*****************************************************************coordonnees du prisme dans le repere ATLAS********************************************************************************** 
20MABNDL000077_PR002 0.00000000
    2.80791998    -3.69446278     6.48621798
    2.80799747    -3.69451976     6.48621845
    2.80789256    -3.69441485     6.48621702
    2.80791211    -3.69450235     6.48621845
    2.80796933    -3.69451785     6.48621845
20MABNDL000077_PR003 0.00000000
    2.83589101    -3.72293997     6.67526150
    2.83613658    -3.72307825     6.67526054
    2.83612752    -3.72307634     6.67526054
    2.83595443    -3.72284722     6.67526102
    2.83614182    -3.72307181     6.67526054
20MABNDL000077_20MABNDM000168 0.00000000
    2.77893567    -3.70636296    -2.68920016
    2.77894449    -3.70634770    -2.68920016
    2.77894664    -3.70633936    -2.68920016
    2.77894092    -3.70634580    -2.68920016
    2.77894759    -3.70636630    -2.68920016
20MABNDL000077_PR024 0.00000000
    2.82962465    -3.68725491    -3.11712003
    2.82965732    -3.68728375    -3.11712050
    2.82967234    -3.68726277    -3.11712003
    2.82967091    -3.68727469    -3.11712003
    2.82966185    -3.68725801    -3.11712003
20MABNDM000020_PR013 0.00000000
   -2.83331013    -3.73585248     6.48628044
   -2.83335185    -3.73585892     6.48627996
   -2.83336687    -3.73586226     6.48627996
   -2.83333755    -3.73583150     6.48628044
   -2.83335304    -3.73585844     6.48627996
20MABNDM000020_PR014 0.00000000
   -2.84716582    -3.67459083     7.43230152
   -2.84720111    -3.67455935     7.43230057
   -2.84719014    -3.67457533     7.43230104
   -2.84721828    -3.67457986     7.43230104
   -2.84725237    -3.67455435     7.43230057
20MABNDM000020_20MABNDL000196 0.00000000
   -2.78291512    -3.75934291    -2.71088576
   -2.78292370    -3.75934362    -2.71088576
   -2.78292584    -3.75933456    -2.71088576
   -2.78292131    -3.75933504    -2.71088576
   -2.78292513    -3.75934529    -2.71088576
20MABNDM000020_PR035 0.00000000
   -2.84745216    -3.68981981    -3.11707807
   -2.84744525    -3.68986845    -3.11707854
   -2.84742713    -3.68985868    -3.11707854
   -2.84741592    -3.68987417    -3.11707878
20MABNDM000168_PR025 0.00000000
    2.83241510    -3.76334643    -6.47925854
    2.83240032    -3.76335883    -6.47925758
    2.83240008    -3.76335406    -6.47925854
    2.83239961    -3.76335549    -6.47925854
20MABNDM000168_PR026 0.00000000
    2.83932567    -3.68744707    -6.67493629
    2.83931541    -3.68745637    -6.67493629
    2.83930898    -3.68745446    -6.67493629
    2.83931088    -3.68746161    -6.67493629
20MABNDM000168_20MABNDL000077 0.00000000
    2.81536984    -3.75355148     2.69822621
    2.81536627    -3.75356865     2.69822621
    2.81533027    -3.75357699     2.69822621
    2.81531549    -3.75358295     2.69822621
20MABNDM000168_PR001 0.00000000
    2.84065413    -3.68438625     3.12405682
    2.84065628    -3.68440938     3.12405682
    2.84065032    -3.68439579     3.12405682
    2.84065199    -3.68441057     3.12405682
20MABNDL000196_PR036 0.00000000
   -2.84762931    -3.69285011    -6.47909498
   -2.84759998    -3.69286466    -6.47909546
   -2.84758759    -3.69286633    -6.47909546
   -2.84758854    -3.69286609    -6.47909546
20MABNDL000196_PR037 0.00000000
   -2.82505226    -3.76952028    -6.67506695
   -2.82504535    -3.76952696    -6.67506647
   -2.82504368    -3.76953149    -6.67506599
   -2.82504725    -3.76953220    -6.67506599
20MABNDL000196_20MABNDM000020 0.00000000
   -2.81563807    -3.75139713     2.68347335
   -2.81562376    -3.75141120     2.68347335
   -2.81559372    -3.75141644     2.68347335
   -2.81560183    -3.75143671     2.68347335
20MABNDL000196_PR012 0.00000000
   -2.83905101    -3.68297482     3.12404227
   -2.83905935    -3.68297863     3.12404275
   -2.83903813    -3.68299055     3.12404275
   -2.83904362    -3.68299103     3.12404275
20MABNDA000318_PR004 0.00000000
    2.61446452    -4.19698811     3.83351088
    2.61446214    -4.19698811     3.83351493
    2.61446357    -4.19698811     3.83350921
    2.61446381    -4.19698811     3.83351088
20MABNDA000334_PR005 0.00000000
    2.61669207    -4.19703197     5.89749575
    2.61669207    -4.19703197     5.89749241
    2.61669517    -4.19703197     5.89749241
    2.61669207    -4.19703197     5.89749241
20MABNDB000317_PR015 0.00000000
   -2.61107302    -4.19700480     3.83591700
   -2.61106730    -4.19700480     3.83591843
   -2.61106610    -4.19700480     3.83592343
   -2.61107087    -4.19700480     3.83592224
20MABNDB000146_PR016 0.00000000
   -2.61264420    -4.19702578     5.89851093
   -2.61263585    -4.19702578     5.89851427
   -2.61264443    -4.19702578     5.89851189
   -2.61264205    -4.19702578     5.89851427
20MABNDB000135_PR027 0.00000000
    2.60374713    -4.19700432    -3.82534575
    2.60374761    -4.19700432    -3.82534790
    2.60374784    -4.19700432    -3.82534695
    2.60374784    -4.19700432    -3.82534504
20MABNDB000126_PR028 0.00000000
    2.60549545    -4.19702148    -5.89324284
    2.60549569    -4.19702148    -5.89323902
    2.60549808    -4.19702148    -5.89323902
    2.60549545    -4.19702148    -5.89323950
20MABNDA000272_PR038 0.00000000
   -2.61118221    -4.19698286    -3.82741261
   -2.61119032    -4.19698286    -3.82742238
   -2.61118245    -4.19698286    -3.82742333
   -2.61118674    -4.19698286    -3.82742047
20MABNDA000003_PR039 0.00000000
   -2.61572957    -4.19702244    -5.89140797
   -2.61573148    -4.19702244    -5.89140701
   -2.61572695    -4.19702244    -5.89141035
   -2.61572623    -4.19702196    -5.89141607
20MABNDA000196_PR006 0.00000000
    2.58477259    -4.19496393     6.54819155
    2.58477473    -4.19496393     6.54819393
    2.58477354    -4.19496393     6.54819298
    2.58477306    -4.19496393     6.54819489
20MABNDA000324_PR007 0.00000000
    2.59392166    -4.13996601     6.94818974
    2.59392333    -4.13996601     6.94818497
    2.59392548    -4.13996601     6.94818878
    2.59392929    -4.13996601     6.94818974
20MABNDB000001_PR017 0.00000000
   -2.59774542    -4.19505787     6.53816891
   -2.59774327    -4.19505787     6.53816891
   -2.59774423    -4.19505787     6.53817415
   -2.59774375    -4.19505787     6.53817129
20MABNDB000260_PR019 0.00000000
   -2.60421443    -4.13996220     6.94199085
   -2.60419774    -4.13996220     6.94200897
   -2.60420728    -4.13996220     6.94200039
   -2.60420060    -4.13996220     6.94200087
20MABNDB000212_PR029 0.00000000
    2.59900808    -4.19501019    -6.54741192
    2.59900475    -4.19501019    -6.54741192
    2.59900856    -4.19501019    -6.54740620
    2.59900546    -4.19501019    -6.54741096
20MABNDB000128_PR030 0.00000000
    2.60941839    -4.14002943    -6.93108320
    2.60942531    -4.14002943    -6.93108225
    2.60942817    -4.14002943    -6.93108368
    2.60942841    -4.14002943    -6.93108368
20MABNDA000444_PR040 0.00000000
   -2.60512829    -4.19509745    -6.54018450
   -2.60512424    -4.19509697    -6.54018784
   -2.60512638    -4.19509745    -6.54018259
   -2.60512757    -4.19509745    -6.54018307
20MABNDA000053_PR041 0.00000000
   -2.59402108    -4.14012480    -6.92701721
   -2.59402180    -4.14012480    -6.92700958
   -2.59400725    -4.14012527    -6.92700005
   -2.59401059    -4.14012527    -6.92699957
20MABNDB000069_PR031 0.00000000
    3.69177032     3.84800911    -7.77863359
    3.69177032     3.84800911    -7.77863359
    3.69177032     3.84800911    -7.77863359
    3.69177032     3.84800911    -7.77863359
20MABNDB000069_PR033 0.00000000
    3.53227353    -4.07045269    -7.88301992
    3.53227258    -4.07045269    -7.88301849
    3.53227186    -4.07045269    -7.88301802
    3.53227329    -4.07045269    -7.88301706
20MABNDB000131_PR032 0.00000000
    3.86864948     3.64756250   -12.94573212
    3.86865830     3.64756250   -12.94572830
    3.86864877     3.64756250   -12.94572926
    3.86865091     3.64756250   -12.94573021
20MABNDB000131_PR034 0.00000000
    3.67347097    -3.92560267   -12.89603996
    3.67346787    -3.92560267   -12.89605045
    3.67347026    -3.92560267   -12.89604855
    3.67347050    -3.92560244   -12.89605713
20MABNDA000208_PR042 0.00000000
   -3.67660213     3.84921503    -7.90125370
   -3.67646050     3.84921694    -7.90128279
   -3.67650509     3.84921598    -7.90121984
   -3.67650890     3.84921598    -7.90126944
20MABNDA000208_PR046 0.00000000
   -3.53008938    -4.07030058    -7.87806129
   -3.53009105    -4.07030058    -7.87806129
   -3.53008723    -4.07030058    -7.87805939
   -3.53008628    -4.07030058    -7.87805653
20MABNDA000035_PR044 0.00000000
   -3.86914444     3.64757228   -12.93726063
   -3.86916852     3.64757228   -12.93726826
   -3.86910129     3.64757228   -12.93727303
   -3.86913204     3.64757228   -12.93725109
20MABNDA000035_PR045 0.00000000
   -3.67618918    -3.92561150   -12.89175892
   -3.67619181    -3.92561150   -12.89175510
   -3.67619205    -3.92561150   -12.89176083
   -3.67619491    -3.92561150   -12.89175892
20MABNDA000188_PR008 0.00000000
    3.57819605     3.84876370     8.09765911
    3.54951787     3.84898496     8.09023857
    3.54951787     3.84898496     8.09023857
    3.54951787     3.84898496     8.09023857
20MABNDA000188_PR018 0.00000000
    3.51861763    -4.07064676     7.90070057
    3.51861811    -4.07064676     7.90070105
    3.51861644    -4.07064676     7.90069962
    3.51861668    -4.07064676     7.90070057
20MABNDA000039_PR009 0.00000000
    3.87590456     3.64745808    12.94059944
    3.87593007     3.64745808    12.94061089
    3.87589908     3.64745808    12.94062996
    3.87590432     3.64745808    12.94060802
20MABNDA000039_PR011 0.00000000
    3.66465545    -3.92576599    12.88769150
    3.66465163    -3.92576599    12.88769531
    3.66465235    -3.92576599    12.88769245
    3.66465545    -3.92576599    12.88768959
20MABNDB000155_PR020 0.00000000
   -3.67442656     3.84890604     7.90204525
   -3.67447710     3.84890509     7.90206051
   -3.67440701     3.84890604     7.90206957
   -3.67445517     3.84890509     7.90204859
20MABNDB000155_PR022 0.00000000
   -3.53246284    -4.07044506     7.89439392
   -3.53246427    -4.07044506     7.89439249
   -3.53246069    -4.07044506     7.89439154
   -3.53245950    -4.07044506     7.89439154
20MABNDB000010_PR021 0.00000000
   -3.86135554     3.64768577    12.94003201
   -3.86136961     3.64768577    12.94006443
   -3.86134624     3.64768577    12.94005394
   -3.86135530     3.64768577    12.94007683
20MABNDB000010_PR023 0.00000000
   -3.68501139    -3.92557049    12.88883305
   -3.68501878    -3.92557049    12.88883495
   -3.68501544    -3.92557049    12.88883305
   -3.68501449    -3.92557049    12.88883686


*****************************************************************Rapport********************************************************************************** 
CAM-LBA-US_EBA-US-HO-H         2017.06.03.12.53.46     2.80793829    -3.69448352     6.48621807     0.00003893     0.00003998     0.00000056 0.00000000 VRAI 
CAM-LBA-US_JDA-US-H            2017.06.03.12.53.46     2.83605027    -3.72300272     6.67526083     0.00010616     0.00009383     0.00000038 0.00000000 VRAI 
CAM-LBA-US_CAM-LBC-US          2017.06.03.12.53.46     2.77894306    -3.70635242    -2.68920016     0.00000435     0.00001040     0.00000000 0.00000000 VRAI 
CAM-LBA-US_EBC-US-IP-H         2017.06.03.12.53.46     2.82965741    -3.68726683    -3.11712012     0.00001731     0.00001081     0.00000019 0.00000000 VRAI 
CAM-LBA-USA_EBA-USA-HO-H       2017.06.03.12.53.46    -2.83334389    -3.73585272     6.48628016     0.00001926     0.00001107     0.00000023 0.00000000 VRAI 
CAM-LBA-USA_JDA-USA-H          2017.06.03.12.53.46    -2.84720554    -3.67457194     7.43230095     0.00002895     0.00001341     0.00000036 0.00000000 VRAI 
CAM-LBA-USA_CAM-LBC-USA        2017.06.03.12.53.46    -2.78292222    -3.75934029    -2.71088576     0.00000388     0.00000455     0.00000000 0.00000000 VRAI 
CAM-LBA-USA_EBC-USA-IP-H       2017.06.03.12.53.46    -2.84743512    -3.68985528    -3.11707848     0.00001437     0.00002121     0.00000026 0.00000000 VRAI 
CAM-LBC-US_EBC-US-HO-H         2017.06.03.12.53.46     2.83240378    -3.76335371    -6.47925830     0.00000654     0.00000454     0.00000041 0.00000000 VRAI 
CAM-LBC-US_JDC-US-H            2017.06.03.12.53.46     2.83931524    -3.68745488    -6.67493629     0.00000646     0.00000521     0.00000000 0.00000000 VRAI 
CAM-LBC-US_CAM-LBA-US          2017.06.03.12.53.46     2.81534547    -3.75357002     2.69822621     0.00002322     0.00001185     0.00000000 0.00000000 VRAI 
CAM-LBC-US_EBA-US-IP-H         2017.06.03.12.53.46     2.84065318    -3.68440050     3.12405682     0.00000224     0.00001007     0.00000000 0.00000000 VRAI 
CAM-LBC-USA_EBC-USA-HO-H       2017.06.03.12.53.46    -2.84760135    -3.69286180    -6.47909534     0.00001686     0.00000678     0.00000021 0.00000000 VRAI 
CAM-LBC-USA_JDC-USA-H          2017.06.03.12.53.46    -2.82504714    -3.76952773    -6.67506635     0.00000322     0.00000475     0.00000040 0.00000000 VRAI 
CAM-LBC-USA_CAM-LBA-USA        2017.06.03.12.53.46    -2.81561434    -3.75141537     2.68347335     0.00001756     0.00001420     0.00000000 0.00000000 VRAI 
CAM-LBC-USA_EBA-USA-IP-H       2017.06.03.12.53.46    -2.83904803    -3.68298376     3.12404263     0.00000798     0.00000716     0.00000021 0.00000000 VRAI 
CAM-EBA-US-IP_EBA-US-IP        2017.06.03.12.53.46     2.61446351    -4.19698811     3.83351147     0.00000087     0.00000000     0.00000211 0.00000000 VRAI 
CAM-EBA-US-HO_EBA-US-HO        2017.06.03.12.53.46     2.61669284    -4.19703197     5.89749324     0.00000134     0.00000000     0.00000145 0.00000000 VRAI 
CAM-EBA-USA-IP_EBA-USA-IP      2017.06.03.12.53.46    -2.61106932    -4.19700480     3.83592027     0.00000276     0.00000000     0.00000265 0.00000000 VRAI 
CAM-EBA-USA-HO_EBA-USA-HO      2017.06.03.12.53.46    -2.61264163    -4.19702578     5.89851284     0.00000346     0.00000000     0.00000147 0.00000000 VRAI 
CAM-EBC-US-IP_EBC-US-IP        2017.06.03.12.53.46     2.60374761    -4.19700432    -3.82534641     0.00000029     0.00000000     0.00000110 0.00000000 VRAI 
CAM-EBC-US-HO_EBC-US-HO        2017.06.03.12.53.46     2.60549617    -4.19702148    -5.89324009     0.00000111     0.00000000     0.00000159 0.00000000 VRAI 
CAM-EBC-USA-IP_EBC-USA-IP      2017.06.03.12.53.46    -2.61118543    -4.19698286    -3.82741970     0.00000335     0.00000000     0.00000422 0.00000000 VRAI 
CAM-EBC-USA-HO_EBC-USA-HO      2017.06.03.12.53.46    -2.61572856    -4.19702232    -5.89141035     0.00000209     0.00000021     0.00000352 0.00000000 VRAI 
CAM-JDA-US-IP_JDA-US-IP        2017.06.03.12.53.46     2.58477348    -4.19496393     6.54819334     0.00000080     0.00000000     0.00000123 0.00000000 VRAI 
CAM-JDA-US-HO_JDA-US-HO        2017.06.03.12.53.46     2.59392494    -4.13996601     6.94818830     0.00000285     0.00000000     0.00000197 0.00000000 VRAI 
CAM-JDA-USA-IP_JDA-USA-IP      2017.06.03.12.53.46    -2.59774417    -4.19505787     6.53817081     0.00000080     0.00000000     0.00000216 0.00000000 VRAI 
CAM-JDA-USA-HO_JDA-USA-HO      2017.06.03.12.53.46    -2.60420501    -4.13996220     6.94200027     0.00000645     0.00000000     0.00000642 0.00000000 VRAI 
CAM-JDC-US-IP_JDC-US-IP        2017.06.03.12.53.46     2.59900671    -4.19501019    -6.54741025     0.00000164     0.00000000     0.00000237 0.00000000 VRAI 
CAM-JDC-US-HO_JDC-US-HO        2017.06.03.12.53.46     2.60942507    -4.14002943    -6.93108320     0.00000404     0.00000000     0.00000058 0.00000000 VRAI 
CAM-JDC-USA-IP_JDC-USA-IP      2017.06.03.12.53.46    -2.60512662    -4.19509733    -6.54018450     0.00000154     0.00000021     0.00000205 0.00000000 VRAI 
CAM-JDC-USA-HO_JDC-USA-HO      2017.06.03.12.53.46    -2.59401518    -4.14012504    -6.92700660     0.00000637     0.00000024     0.00000731 0.00000000 VRAI 
CAM-ECTC-US-IP_ECTC-US-IP-T    2017.06.03.12.53.46     3.69177032     3.84800911    -7.77863359     0.00000000     0.00000000     0.00000000 0.00000000 VRAI 
CAM-ECTC-US-IP_ECTC-US-IP      2017.06.03.12.53.46     3.53227282    -4.07045269    -7.88301837     0.00000065     0.00000000     0.00000103 0.00000000 VRAI 
CAM-ECTC-US-HO_ECTC-US-HO-T    2017.06.03.12.53.46     3.86865187     3.64756250   -12.94572997     0.00000380     0.00000000     0.00000141 0.00000000 VRAI 
CAM-ECTC-US-HO_ECTC-US-HO      2017.06.03.12.53.46     3.67346990    -3.92560261   -12.89604902     0.00000120     0.00000010     0.00000613 0.00000000 VRAI 
CAM-ECTC-USA-IP_ECTC-USA-IP-T  2017.06.03.12.53.46    -3.67651916     3.84921598    -7.90125644     0.00005154     0.00000067     0.00002350 0.00000000 VRAI 
CAM-ECTC-USA-IP_ECTC-USA-IP    2017.06.03.12.53.46    -3.53008848    -4.07030058    -7.87805963     0.00000186     0.00000000     0.00000195 0.00000000 VRAI 
CAM-ECTC-USA-HO_ECTC-USA-HO-T  2017.06.03.12.53.46    -3.86913657     3.64757228   -12.93726325     0.00002423     0.00000000     0.00000830 0.00000000 VRAI 
CAM-ECTC-USA-HO_ECTC-USA-HO    2017.06.03.12.53.46    -3.67619199    -3.92561150   -12.89175844     0.00000203     0.00000000     0.00000208 0.00000000 VRAI 
CAM-ECTA-US-IP_ECTA-US-IP-T    2017.06.03.12.53.46     3.55668741     3.84892964     8.09209371     0.01241802     0.00009581     0.00321319 0.00000000 VRAI 
CAM-ECTA-US-IP_ECTA-US-IP      2017.06.03.12.53.46     3.51861721    -4.07064676     7.90070045     0.00000068     0.00000000     0.00000052 0.00000000 VRAI 
CAM-ECTA-US-HO_ECTA-US-HO-T    2017.06.03.12.53.46     3.87590951     3.64745808    12.94061208     0.00001207     0.00000000     0.00001115 0.00000000 VRAI 
CAM-ECTA-US-HO_ECTA-US-HO      2017.06.03.12.53.46     3.66465372    -3.92576599    12.88769221     0.00000175     0.00000000     0.00000206 0.00000000 VRAI 
CAM-ECTA-USA-IP_ECTA-USA-IP-T  2017.06.03.12.53.46    -3.67444146     3.84890556     7.90205598     0.00002677     0.00000048     0.00000968 0.00000000 VRAI 
CAM-ECTA-USA-IP_ECTA-USA-IP    2017.06.03.12.53.46    -3.53246182    -4.07044506     7.89439237     0.00000185     0.00000000     0.00000098 0.00000000 VRAI 
CAM-ECTA-USA-HO_ECTA-USA-HO-T  2017.06.03.12.53.46    -3.86135668     3.64768577    12.94005680     0.00000836     0.00000000     0.00001645 0.00000000 VRAI 
CAM-ECTA-USA-HO_ECTA-USA-HO    2017.06.03.12.53.46    -3.68501502    -3.92557049    12.88883448     0.00000264     0.00000000     0.00000158 0.00000000 VRAI 
