********** Fichier qui contient une sauvegarde des coordonnees images + coordonnees images transformees dans le repere BCAM (MOUNT) + coordonnees des prismes dans le repere MOUNT********** 
********************************************************************** Unite en metres (m)************************************************************************************************** 

*******************************************************************coordonnees images dans le repere CCD *********************************************************************************** 
20MABNDL000077_PR002
Spot 1     0.00121761     0.00150198
Spot 2     0.00032500     0.00012500
Spot 1     0.00121608     0.00150404
Spot 2     0.00032500     0.00012500
Spot 1     0.00121420     0.00150381
Spot 2     0.00032500     0.00012500
Spot 1     0.00121833     0.00149759
Spot 2     0.00032500     0.00012500
Spot 1     0.00121734     0.00149391
Spot 2     0.00032500     0.00012500
20MABNDL000077_PR003
Spot 1     0.00138710     0.00149438
Spot 2     0.00153666     0.00149051
Spot 1     0.00138668     0.00149474
Spot 2     0.00153648     0.00149098
Spot 1     0.00138647     0.00149508
Spot 2     0.00153639     0.00149104
Spot 1     0.00138630     0.00149513
Spot 2     0.00153654     0.00149093
Spot 1     0.00138626     0.00149513
Spot 2     0.00153631     0.00149086
20MABNDL000077_20MABNDM000168
Spot 1     0.00175719     0.00118345
Spot 2     0.00075500     0.00010500
Spot 1     0.00175685     0.00118382
Spot 2     0.00075500     0.00010500
Spot 1     0.00175716     0.00118407
Spot 2     0.00075500     0.00010500
Spot 1     0.00175689     0.00118398
Spot 2     0.00304500     0.00031500
Spot 1     0.00175702     0.00118399
Spot 2     0.00075500     0.00010500
20MABNDL000077_PR024
Spot 1     0.00254337     0.00143366
Spot 2     0.00264117     0.00144489
Spot 1     0.00254342     0.00143371
Spot 2     0.00264102     0.00144507
Spot 1     0.00254332     0.00143373
Spot 2     0.00264108     0.00144519
Spot 1     0.00254334     0.00143385
Spot 2     0.00264106     0.00144534
20MABNDM000020_PR013
Spot 1     0.00136500     0.00011500
Spot 2     0.00136500     0.00011500
Spot 1     0.00136500     0.00011500
Spot 2     0.00160500     0.00021500
Spot 1     0.00160500     0.00021500
Spot 2     0.00136500     0.00011500
Spot 1     0.00160500     0.00021500
Spot 2     0.00136500     0.00011500
20MABNDM000020_PR014
Spot 1     0.00310500     0.00034500
Spot 2     0.00310500     0.00034500
Spot 1     0.00310500     0.00034500
Spot 2     0.00310500     0.00034500
Spot 1     0.00310500     0.00034500
Spot 2     0.00310500     0.00034500
Spot 1     0.00310500     0.00034500
Spot 2     0.00310500     0.00034500
20MABNDM000020_20MABNDL000196
Spot 1     0.00197706     0.00117743
Spot 2     0.00230500     0.00010500
Spot 1     0.00197716     0.00117737
Spot 2     0.00230500     0.00010500
Spot 1     0.00197721     0.00117747
Spot 2     0.00230500     0.00010500
Spot 1     0.00197726     0.00117768
Spot 2     0.00230500     0.00010500
20MABNDM000020_PR035
Spot 1     0.00127252     0.00149459
Spot 2     0.00118817     0.00153126
Spot 1     0.00127257     0.00149445
Spot 2     0.00118796     0.00153121
Spot 1     0.00127254     0.00149479
Spot 2     0.00118797     0.00153106
Spot 1     0.00127262     0.00149461
Spot 2     0.00118813     0.00153120
20MABNDM000168_PR025
Spot 1     0.00122500     0.00029500
Spot 2     0.00100500     0.00023900
Spot 1     0.00122500     0.00029500
Spot 2     0.00122500     0.00029500
Spot 1     0.00122500     0.00029500
Spot 2     0.00122500     0.00029500
Spot 1     0.00122500     0.00029500
Spot 2     0.00122500     0.00029500
20MABNDM000168_PR026
Spot 1     0.00266772     0.00142756
Spot 2     0.00250614     0.00142398
Spot 1     0.00266780     0.00142766
Spot 2     0.00250621     0.00142385
Spot 1     0.00266792     0.00142769
Spot 2     0.00250610     0.00142402
Spot 1     0.00266780     0.00142767
Spot 2     0.00250619     0.00142405
20MABNDM000168_20MABNDL000077
Spot 1     0.00154128     0.00130091
Spot 2     0.00176096     0.00131479
Spot 1     0.00154125     0.00130105
Spot 2     0.00176102     0.00131485
Spot 1     0.00154131     0.00130095
Spot 2     0.00176119     0.00131451
Spot 1     0.00154129     0.00130098
Spot 2     0.00176130     0.00131450
20MABNDM000168_PR001
Spot 1     0.00080835     0.00162115
Spot 2     0.00070608     0.00162294
Spot 1     0.00080844     0.00162124
Spot 2     0.00070610     0.00162313
Spot 1     0.00080820     0.00162106
Spot 2     0.00070607     0.00162310
Spot 1     0.00080852     0.00162121
Spot 2     0.00070604     0.00162315
20MABNDL000196_PR036
Spot 1     0.00094615     0.00163990
Spot 2     0.00111073     0.00163878
Spot 1     0.00094603     0.00163972
Spot 2     0.00111079     0.00163926
Spot 1     0.00094624     0.00163984
Spot 2     0.00111052     0.00163858
Spot 1     0.00094605     0.00163959
Spot 2     0.00111089     0.00163812
20MABNDL000196_PR037
Spot 1     0.00246938     0.00116897
Spot 2     0.00262425     0.00116702
Spot 1     0.00246956     0.00116906
Spot 2     0.00262417     0.00116708
Spot 1     0.00246959     0.00116905
Spot 2     0.00262411     0.00116712
Spot 1     0.00246939     0.00116886
Spot 2     0.00262411     0.00116717
20MABNDL000196_20MABNDM000020
Spot 1     0.00192521     0.00104177
Spot 2     0.00170393     0.00104734
Spot 1     0.00192543     0.00104165
Spot 2     0.00170393     0.00104749
Spot 1     0.00192540     0.00104180
Spot 2     0.00170391     0.00104746
Spot 1     0.00192521     0.00104190
Spot 2     0.00170396     0.00104754
20MABNDL000196_PR012
Spot 1     0.00265036     0.00134179
Spot 2     0.00272372     0.00138699
Spot 1     0.00265052     0.00134206
Spot 2     0.00272370     0.00138708
Spot 1     0.00265031     0.00134206
Spot 2     0.00272388     0.00138745
Spot 1     0.00265049     0.00134205
Spot 2     0.00272375     0.00138745
20MABNDA000318_PR004
Spot 1     0.00214598     0.00162419
Spot 2     0.00192801     0.00162494
Spot 1     0.00214618     0.00162470
Spot 2     0.00192774     0.00162500
Spot 1     0.00214623     0.00162476
Spot 2     0.00192819     0.00162500
Spot 1     0.00214611     0.00162456
Spot 2     0.00192802     0.00162522
20MABNDA000334_PR005
Spot 1     0.00247249     0.00158473
Spot 2     0.00219256     0.00158559
Spot 1     0.00247251     0.00158478
Spot 2     0.00219266     0.00158500
Spot 1     0.00247264     0.00158490
Spot 2     0.00219264     0.00158507
Spot 1     0.00247266     0.00158475
Spot 2     0.00219212     0.00158527
20MABNDB000317_PR015
Spot 1     0.00148841     0.00159908
Spot 2     0.00170779     0.00159322
Spot 1     0.00148836     0.00159893
Spot 2     0.00170795     0.00159333
Spot 1     0.00148831     0.00159914
Spot 2     0.00170787     0.00159333
Spot 1     0.00148846     0.00159909
Spot 2     0.00170796     0.00159352
20MABNDB000146_PR016
Spot 1     0.00144897     0.00133112
Spot 2     0.00172415     0.00133358
Spot 1     0.00144899     0.00133115
Spot 2     0.00172403     0.00133352
Spot 1     0.00144907     0.00133118
Spot 2     0.00172428     0.00133355
Spot 1     0.00144889     0.00133116
Spot 2     0.00172459     0.00133382
20MABNDB000135_PR027
Spot 1     0.00189199     0.00091600
Spot 2     0.00211022     0.00091790
Spot 1     0.00189213     0.00091605
Spot 2     0.00211017     0.00091772
Spot 1     0.00189193     0.00091612
Spot 2     0.00211014     0.00091780
Spot 1     0.00189197     0.00091611
Spot 2     0.00211006     0.00091770
20MABNDB000126_PR028
Spot 1     0.00164549     0.00200983
Spot 2     0.00192769     0.00201173
Spot 1     0.00164546     0.00200997
Spot 2     0.00192776     0.00201173
Spot 1     0.00164537     0.00200991
Spot 2     0.00192766     0.00201172
Spot 1     0.00164553     0.00200989
Spot 2     0.00192783     0.00201184
20MABNDA000272_PR038
Spot 1     0.00192384     0.00095518
Spot 2     0.00170262     0.00095451
Spot 1     0.00192405     0.00095495
Spot 2     0.00170267     0.00095492
Spot 1     0.00192399     0.00095523
Spot 2     0.00170288     0.00095449
Spot 1     0.00192366     0.00095518
Spot 2     0.00170276     0.00095440
20MABNDA000003_PR039
Spot 1     0.00200147     0.00193147
Spot 2     0.00227962     0.00193224
Spot 1     0.00200144     0.00193154
Spot 2     0.00227993     0.00193218
Spot 1     0.00200152     0.00193147
Spot 2     0.00227955     0.00193220
Spot 1     0.00200159     0.00193139
Spot 2     0.00227969     0.00193227
20MABNDA000196_PR006
Spot 1     0.00198566     0.00074333
Spot 2     0.00161954     0.00074087
Spot 1     0.00198583     0.00074329
Spot 2     0.00161974     0.00074098
Spot 1     0.00198598     0.00074358
Spot 2     0.00161995     0.00074093
Spot 1     0.00198570     0.00074333
Spot 2     0.00161990     0.00074094
20MABNDA000324_PR007
Spot 1     0.00194725     0.00120365
Spot 2     0.00174197     0.00120993
Spot 1     0.00194725     0.00120367
Spot 2     0.00174209     0.00120963
Spot 1     0.00194733     0.00120375
Spot 2     0.00174181     0.00120971
Spot 1     0.00194730     0.00120379
Spot 2     0.00174210     0.00120981
20MABNDB000001_PR017
Spot 1     0.00188732     0.00043730
Spot 2     0.00225565     0.00044677
Spot 1     0.00188730     0.00043737
Spot 2     0.00225566     0.00044713
Spot 1     0.00188726     0.00043745
Spot 2     0.00225568     0.00044737
Spot 1     0.00188730     0.00043743
Spot 2     0.00225597     0.00044677
20MABNDB000260_PR019
Spot 1     0.00192292     0.00150596
Spot 2     0.00212563     0.00150531
Spot 1     0.00192264     0.00150589
Spot 2     0.00212613     0.00150486
Spot 1     0.00192270     0.00150579
Spot 2     0.00212582     0.00150568
Spot 1     0.00192276     0.00150575
Spot 2     0.00212563     0.00150500
20MABNDB000212_PR029
Spot 1     0.00223675     0.00069344
Spot 2     0.00187459     0.00069500
Spot 1     0.00223681     0.00069350
Spot 2     0.00187462     0.00069557
Spot 1     0.00223688     0.00069343
Spot 2     0.00187462     0.00069500
Spot 1     0.00223682     0.00069352
Spot 2     0.00187477     0.00069523
20MABNDB000128_PR030
Spot 1     0.00190037     0.00200231
Spot 2     0.00210490     0.00199663
Spot 1     0.00190036     0.00200205
Spot 2     0.00210490     0.00199675
Spot 1     0.00190025     0.00200221
Spot 2     0.00210480     0.00199666
Spot 1     0.00190029     0.00200224
Spot 2     0.00210485     0.00199679
20MABNDA000444_PR040
Spot 1     0.00076007     0.00035350
Spot 2     0.00112708     0.00035097
Spot 1     0.00076004     0.00035349
Spot 2     0.00112727     0.00035087
Spot 1     0.00076018     0.00035356
Spot 2     0.00112687     0.00035047
Spot 1     0.00076000     0.00035321
Spot 2     0.00112660     0.00035047
20MABNDA000053_PR041
Spot 1     0.00166281     0.00198429
Spot 2     0.00144638     0.00197800
Spot 1     0.00166270     0.00198416
Spot 2     0.00144594     0.00197800
Spot 1     0.00166278     0.00198434
Spot 2     0.00144604     0.00197807
Spot 1     0.00166277     0.00198424
Spot 2     0.00144606     0.00197798
20MABNDB000069_PR031
Spot 1     0.00021500     0.00240500
Spot 2     0.00021500     0.00240500
Spot 1     0.00021500     0.00240500
Spot 2     0.00021500     0.00240500
Spot 1     0.00021500     0.00240500
Spot 2     0.00021500     0.00240500
Spot 1     0.00021500     0.00240500
Spot 2     0.00021500     0.00240500
20MABNDB000069_PR033
Spot 1     0.00182122     0.00206793
Spot 2     0.00229139     0.00208758
Spot 1     0.00182125     0.00206819
Spot 2     0.00229148     0.00208759
Spot 1     0.00182138     0.00206814
Spot 2     0.00229142     0.00208769
Spot 1     0.00182134     0.00206819
Spot 2     0.00229134     0.00208758
20MABNDB000131_PR032
Spot 1     0.00277703     0.00107763
Spot 2     0.00283729     0.00108097
Spot 1     0.00277675     0.00107749
Spot 2     0.00283740     0.00108070
Spot 1     0.00277660     0.00107777
Spot 2     0.00283757     0.00108060
Spot 1     0.00277670     0.00107783
Spot 2     0.00283712     0.00108073
20MABNDB000131_PR034
Spot 1     0.00092386     0.00032327
Spot 2     0.00110060     0.00032380
Spot 1     0.00092388     0.00032339
Spot 2     0.00110034     0.00032368
Spot 1     0.00092391     0.00032351
Spot 2     0.00110057     0.00032369
Spot 1     0.00092407     0.00032333
Spot 2     0.00110067     0.00032380
20MABNDA000208_PR042
Spot 1     0.00306052     0.00095286
Spot 2     0.00299474     0.00095141
Spot 1     0.00306032     0.00095292
Spot 2     0.00299522     0.00095254
Spot 1     0.00306013     0.00095256
Spot 2     0.00299419     0.00095180
Spot 1     0.00306001     0.00095273
Spot 2     0.00299386     0.00095247
20MABNDA000208_PR046
Spot 1     0.00144868     0.00220211
Spot 2     0.00097566     0.00220220
Spot 1     0.00144862     0.00220219
Spot 2     0.00097576     0.00220232
Spot 1     0.00144848     0.00220219
Spot 2     0.00097536     0.00220227
Spot 1     0.00144847     0.00220208
Spot 2     0.00097544     0.00220244
20MABNDA000035_PR044
Spot 1     0.00073762     0.00125666
Spot 2     0.00068065     0.00125022
Spot 1     0.00073817     0.00125660
Spot 2     0.00068103     0.00125047
Spot 1     0.00073745     0.00125676
Spot 2     0.00068152     0.00125077
Spot 1     0.00073792     0.00125625
Spot 2     0.00068118     0.00125037
20MABNDA000035_PR045
Spot 1     0.00254568     0.00047165
Spot 2     0.00236836     0.00047102
Spot 1     0.00254561     0.00047169
Spot 2     0.00236829     0.00047095
Spot 1     0.00254565     0.00047136
Spot 2     0.00236812     0.00047110
Spot 1     0.00254566     0.00047158
Spot 2     0.00236836     0.00047084
20MABNDA000188_PR008
Spot 1     0.00289500     0.00025500
Spot 2     0.00289500     0.00025500
Spot 1     0.00289500     0.00025500
Spot 2     0.00289500     0.00025500
Spot 1     0.00289500     0.00025500
Spot 2     0.00289500     0.00025500
Spot 1     0.00289500     0.00025500
Spot 2     0.00289500     0.00025500
20MABNDA000188_PR018
Spot 1     0.00166933     0.00176506
Spot 2     0.00120217     0.00176156
Spot 1     0.00166928     0.00176500
Spot 2     0.00120209     0.00176165
Spot 1     0.00166942     0.00176489
Spot 2     0.00120212     0.00176172
Spot 1     0.00166934     0.00176495
Spot 2     0.00120204     0.00176176
20MABNDA000039_PR009
Spot 1     0.00066456     0.00117671
Spot 2     0.00061727     0.00118135
Spot 1     0.00066469     0.00117710
Spot 2     0.00061765     0.00118119
Spot 1     0.00066488     0.00117721
Spot 2     0.00061733     0.00118149
Spot 1     0.00066504     0.00117701
Spot 2     0.00061732     0.00118113
20MABNDA000039_PR011
Spot 1     0.00276857     0.00028155
Spot 2     0.00259293     0.00027688
Spot 1     0.00276841     0.00028159
Spot 2     0.00259291     0.00027714
Spot 1     0.00276831     0.00028169
Spot 2     0.00259267     0.00027686
Spot 1     0.00276827     0.00028149
Spot 2     0.00259280     0.00027687
20MABNDB000155_PR020
Spot 1     0.00062033     0.00113129
Spot 2     0.00068537     0.00112769
Spot 1     0.00062110     0.00113159
Spot 2     0.00068550     0.00112766
Spot 1     0.00062041     0.00113136
Spot 2     0.00068532     0.00112736
Spot 1     0.00062081     0.00113150
Spot 2     0.00068476     0.00112745
20MABNDB000155_PR022
Spot 1     0.00210950     0.00140244
Spot 2     0.00258245     0.00139787
Spot 1     0.00210966     0.00140260
Spot 2     0.00258269     0.00139783
Spot 1     0.00210983     0.00140263
Spot 2     0.00258276     0.00139792
Spot 1     0.00210995     0.00140248
Spot 2     0.00258268     0.00139789
20MABNDB000010_PR021
Spot 1     0.00287075     0.00115295
Spot 2     0.00292325     0.00115570
Spot 1     0.00287083     0.00115329
Spot 2     0.00292359     0.00115568
Spot 1     0.00287103     0.00115294
Spot 2     0.00292344     0.00115556
Spot 1     0.00287070     0.00115321
Spot 2     0.00292333     0.00115560
20MABNDB000010_PR023
Spot 1     0.00131291     0.00031308
Spot 2     0.00148773     0.00031165
Spot 1     0.00131289     0.00031306
Spot 2     0.00148785     0.00031159
Spot 1     0.00131280     0.00031312
Spot 2     0.00148805     0.00031150
Spot 1     0.00131276     0.00031324
Spot 2     0.00148780     0.00031152


****************************************************************coordonnees images transformees dans le repere MOUNT************************************************************************* 
20MABNDL000077_PR002
Spot 1     0.01228793     0.03557338    -0.07463200
Spot 2     0.01138211     0.03420505    -0.07463200
Spot 1     0.01228642     0.03557546    -0.07463200
Spot 2     0.01138211     0.03420505    -0.07463200
Spot 1     0.01228454     0.03557524    -0.07463200
Spot 2     0.01138211     0.03420505    -0.07463200
Spot 1     0.01228861     0.03556898    -0.07463200
Spot 2     0.01138211     0.03420505    -0.07463200
Spot 1     0.01228759     0.03556531    -0.07463200
Spot 2     0.01138211     0.03420505    -0.07463200
20MABNDL000077_PR003
Spot 1     0.01245734     0.03556415    -0.07463200
Spot 2     0.01260686     0.03555884    -0.07463200
Spot 1     0.01245693     0.03556451    -0.07463200
Spot 2     0.01260668     0.03555931    -0.07463200
Spot 1     0.01245672     0.03556486    -0.07463200
Spot 2     0.01260659     0.03555937    -0.07463200
Spot 1     0.01245655     0.03556491    -0.07463200
Spot 2     0.01260674     0.03555926    -0.07463200
Spot 1     0.01245651     0.03556491    -0.07463200
Spot 2     0.01260651     0.03555919    -0.07463200
20MABNDL000077_20MABNDM000168
Spot 1    -0.01259233     0.03524643    -0.00695400
Spot 2    -0.01157915     0.03417830    -0.00695400
Spot 1    -0.01259199     0.03524681    -0.00695400
Spot 2    -0.01157915     0.03417830    -0.00695400
Spot 1    -0.01259230     0.03524705    -0.00695400
Spot 2    -0.01157915     0.03417830    -0.00695400
Spot 1    -0.01259203     0.03524697    -0.00695400
Spot 2    -0.01387118     0.03436485    -0.00695400
Spot 1    -0.01259216     0.03524698    -0.00695400
Spot 2    -0.01157915     0.03417830    -0.00695400
20MABNDL000077_PR024
Spot 1    -0.01338103     0.03548858    -0.00695400
Spot 2    -0.01347894     0.03549881    -0.00695400
Spot 1    -0.01338108     0.03548863    -0.00695400
Spot 2    -0.01347879     0.03549899    -0.00695400
Spot 1    -0.01338098     0.03548865    -0.00695400
Spot 2    -0.01347885     0.03549911    -0.00695400
Spot 1    -0.01338100     0.03548877    -0.00695400
Spot 2    -0.01347883     0.03549926    -0.00695400
20MABNDM000020_PR013
Spot 1    -0.01302510    -0.03407982    -0.00523500
Spot 2    -0.01302510    -0.03407982    -0.00523500
Spot 1    -0.01302510    -0.03407982    -0.00523500
Spot 2    -0.01278295    -0.03417449    -0.00523500
Spot 1    -0.01278295    -0.03417449    -0.00523500
Spot 2    -0.01302510    -0.03407982    -0.00523500
Spot 1    -0.01278295    -0.03417449    -0.00523500
Spot 2    -0.01302510    -0.03407982    -0.00523500
20MABNDM000020_PR014
Spot 1    -0.01128044    -0.03427129    -0.00523500
Spot 2    -0.01128044    -0.03427129    -0.00523500
Spot 1    -0.01128044    -0.03427129    -0.00523500
Spot 2    -0.01128044    -0.03427129    -0.00523500
Spot 1    -0.01128044    -0.03427129    -0.00523500
Spot 2    -0.01128044    -0.03427129    -0.00523500
Spot 1    -0.01128044    -0.03427129    -0.00523500
Spot 2    -0.01128044    -0.03427129    -0.00523500
20MABNDM000020_20MABNDL000196
Spot 1     0.01270922    -0.03514599    -0.07583800
Spot 2     0.01238113    -0.03407361    -0.07583800
Spot 1     0.01270912    -0.03514593    -0.07583800
Spot 2     0.01238113    -0.03407361    -0.07583800
Spot 1     0.01270907    -0.03514603    -0.07583800
Spot 2     0.01238113    -0.03407361    -0.07583800
Spot 1     0.01270902    -0.03514624    -0.07583800
Spot 2     0.01238113    -0.03407361    -0.07583800
20MABNDM000020_PR035
Spot 1     0.01341380    -0.03546306    -0.07583800
Spot 2     0.01349816    -0.03549971    -0.07583800
Spot 1     0.01341375    -0.03546292    -0.07583800
Spot 2     0.01349837    -0.03549966    -0.07583800
Spot 1     0.01341378    -0.03546326    -0.07583800
Spot 2     0.01349836    -0.03549951    -0.07583800
Spot 1     0.01341370    -0.03546308    -0.07583800
Spot 2     0.01349820    -0.03549965    -0.07583800
20MABNDM000168_PR025
Spot 1    -0.01318219    -0.03463199    -0.00532900
Spot 2    -0.01340243    -0.03457693    -0.00532900
Spot 1    -0.01318219    -0.03463199    -0.00532900
Spot 2    -0.01318219    -0.03463199    -0.00532900
Spot 1    -0.01318219    -0.03463199    -0.00532900
Spot 2    -0.01318219    -0.03463199    -0.00532900
Spot 1    -0.01318219    -0.03463199    -0.00532900
Spot 2    -0.01318219    -0.03463199    -0.00532900
20MABNDM000168_PR026
Spot 1    -0.01173462    -0.03575834    -0.00532900
Spot 2    -0.01189622    -0.03575545    -0.00532900
Spot 1    -0.01173454    -0.03575844    -0.00532900
Spot 2    -0.01189615    -0.03575532    -0.00532900
Spot 1    -0.01173442    -0.03575847    -0.00532900
Spot 2    -0.01189626    -0.03575549    -0.00532900
Spot 1    -0.01173454    -0.03575845    -0.00532900
Spot 2    -0.01189617    -0.03575552    -0.00532900
20MABNDM000168_20MABNDL000077
Spot 1     0.01288417    -0.03530155    -0.07445100
Spot 2     0.01266431    -0.03531221    -0.07445100
Spot 1     0.01288420    -0.03530169    -0.07445100
Spot 2     0.01266425    -0.03531227    -0.07445100
Spot 1     0.01288414    -0.03530159    -0.07445100
Spot 2     0.01266408    -0.03531193    -0.07445100
Spot 1     0.01288416    -0.03530162    -0.07445100
Spot 2     0.01266397    -0.03531192    -0.07445100
20MABNDM000168_PR001
Spot 1     0.01361234    -0.03563247    -0.07445100
Spot 2     0.01371457    -0.03563576    -0.07445100
Spot 1     0.01361224    -0.03563256    -0.07445100
Spot 2     0.01371455    -0.03563595    -0.07445100
Spot 1     0.01361249    -0.03563239    -0.07445100
Spot 2     0.01371458    -0.03563592    -0.07445100
Spot 1     0.01361216    -0.03563253    -0.07445100
Spot 2     0.01371461    -0.03563597    -0.07445100
20MABNDL000196_PR036
Spot 1     0.01192607     0.03582860    -0.07483600
Spot 2     0.01209066     0.03582782    -0.07483600
Spot 1     0.01192595     0.03582842    -0.07483600
Spot 2     0.01209072     0.03582830    -0.07483600
Spot 1     0.01192616     0.03582854    -0.07483600
Spot 2     0.01209045     0.03582762    -0.07483600
Spot 1     0.01192597     0.03582829    -0.07483600
Spot 2     0.01209082     0.03582716    -0.07483600
20MABNDL000196_PR037
Spot 1     0.01345028     0.03536085    -0.07483600
Spot 2     0.01360516     0.03535922    -0.07483600
Spot 1     0.01345046     0.03536094    -0.07483600
Spot 2     0.01360508     0.03535928    -0.07483600
Spot 1     0.01345049     0.03536093    -0.07483600
Spot 2     0.01360502     0.03535932    -0.07483600
Spot 1     0.01345029     0.03536074    -0.07483600
Spot 2     0.01360502     0.03535937    -0.07483600
20MABNDL000196_20MABNDM000020
Spot 1    -0.01274927     0.03531299    -0.00611000
Spot 2    -0.01252814     0.03532301    -0.00611000
Spot 1    -0.01274948     0.03531286    -0.00611000
Spot 2    -0.01252815     0.03532316    -0.00611000
Spot 1    -0.01274946     0.03531301    -0.00611000
Spot 2    -0.01252812     0.03532313    -0.00611000
Spot 1    -0.01274927     0.03531312    -0.00611000
Spot 2    -0.01252818     0.03532321    -0.00611000
20MABNDL000196_PR012
Spot 1    -0.01348030     0.03559836    -0.00611000
Spot 2    -0.01355456     0.03564207    -0.00611000
Spot 1    -0.01348047     0.03559862    -0.00611000
Spot 2    -0.01355454     0.03564216    -0.00611000
Spot 1    -0.01348026     0.03559863    -0.00611000
Spot 2    -0.01355473     0.03564253    -0.00611000
Spot 1    -0.01348044     0.03559861    -0.00611000
Spot 2    -0.01355460     0.03564253    -0.00611000
20MABNDA000318_PR004
Spot 1    -0.01286580     0.01247104    -0.07310600
Spot 2    -0.01264783     0.01247093    -0.07310600
Spot 1    -0.01286600     0.01247053    -0.07310600
Spot 2    -0.01264756     0.01247087    -0.07310600
Spot 1    -0.01286605     0.01247047    -0.07310600
Spot 2    -0.01264801     0.01247087    -0.07310600
Spot 1    -0.01286593     0.01247067    -0.07310600
Spot 2    -0.01264784     0.01247065    -0.07310600
20MABNDA000334_PR005
Spot 1    -0.01311560     0.01254366    -0.07324100
Spot 2    -0.01283567     0.01254254    -0.07324100
Spot 1    -0.01311562     0.01254361    -0.07324100
Spot 2    -0.01283577     0.01254313    -0.07324100
Spot 1    -0.01311575     0.01254349    -0.07324100
Spot 2    -0.01283575     0.01254306    -0.07324100
Spot 1    -0.01311577     0.01254364    -0.07324100
Spot 2    -0.01283523     0.01254286    -0.07324100
20MABNDB000317_PR015
Spot 1    -0.01266587    -0.01249896    -0.07326100
Spot 2    -0.01244644    -0.01250226    -0.07326100
Spot 1    -0.01266592    -0.01249911    -0.07326100
Spot 2    -0.01244628    -0.01250215    -0.07326100
Spot 1    -0.01266597    -0.01249890    -0.07326100
Spot 2    -0.01244636    -0.01250215    -0.07326100
Spot 1    -0.01266582    -0.01249895    -0.07326100
Spot 2    -0.01244627    -0.01250196    -0.07326100
20MABNDB000146_PR016
Spot 1    -0.01275939    -0.01246248    -0.07450500
Spot 2    -0.01248421    -0.01245941    -0.07450500
Spot 1    -0.01275937    -0.01246245    -0.07450500
Spot 2    -0.01248433    -0.01245947    -0.07450500
Spot 1    -0.01275929    -0.01246242    -0.07450500
Spot 2    -0.01248408    -0.01245944    -0.07450500
Spot 1    -0.01275947    -0.01246244    -0.07450500
Spot 2    -0.01248377    -0.01245917    -0.07450500
20MABNDB000135_PR027
Spot 1    -0.01251268    -0.01319703    -0.07464700
Spot 2    -0.01229444    -0.01319756    -0.07464700
Spot 1    -0.01251254    -0.01319698    -0.07464700
Spot 2    -0.01229450    -0.01319774    -0.07464700
Spot 1    -0.01251274    -0.01319691    -0.07464700
Spot 2    -0.01229452    -0.01319766    -0.07464700
Spot 1    -0.01251270    -0.01319692    -0.07464700
Spot 2    -0.01229461    -0.01319776    -0.07464700
20MABNDB000126_PR028
Spot 1    -0.01253405    -0.01217234    -0.07500400
Spot 2    -0.01225186    -0.01216893    -0.07500400
Spot 1    -0.01253408    -0.01217220    -0.07500400
Spot 2    -0.01225179    -0.01216893    -0.07500400
Spot 1    -0.01253417    -0.01217226    -0.07500400
Spot 2    -0.01225189    -0.01216894    -0.07500400
Spot 1    -0.01253401    -0.01217228    -0.07500400
Spot 2    -0.01225172    -0.01216882    -0.07500400
20MABNDA000272_PR038
Spot 1    -0.01275950     0.01315629    -0.07417900
Spot 2    -0.01253828     0.01315657    -0.07417900
Spot 1    -0.01275971     0.01315652    -0.07417900
Spot 2    -0.01253833     0.01315616    -0.07417900
Spot 1    -0.01275965     0.01315624    -0.07417900
Spot 2    -0.01253854     0.01315659    -0.07417900
Spot 1    -0.01275932     0.01315629    -0.07417900
Spot 2    -0.01253842     0.01315668    -0.07417900
20MABNDA000003_PR039
Spot 1    -0.01280257     0.01212080    -0.07373400
Spot 2    -0.01308072     0.01212073    -0.07373400
Spot 1    -0.01280254     0.01212073    -0.07373400
Spot 2    -0.01308103     0.01212080    -0.07373400
Spot 1    -0.01280262     0.01212080    -0.07373400
Spot 2    -0.01308065     0.01212077    -0.07373400
Spot 1    -0.01280269     0.01212088    -0.07373400
Spot 2    -0.01308079     0.01212070    -0.07373400
20MABNDA000196_PR006
Spot 1    -0.01294055     0.01323489    -0.07967100
Spot 2    -0.01257443     0.01323264    -0.07967100
Spot 1    -0.01294072     0.01323493    -0.07967100
Spot 2    -0.01257463     0.01323254    -0.07967100
Spot 1    -0.01294087     0.01323465    -0.07967100
Spot 2    -0.01257484     0.01323259    -0.07967100
Spot 1    -0.01294059     0.01323489    -0.07967100
Spot 2    -0.01257479     0.01323258    -0.07967100
20MABNDA000324_PR007
Spot 1    -0.01255303     0.01281793    -0.07446800
Spot 2    -0.01234771     0.01281325    -0.07446800
Spot 1    -0.01255303     0.01281791    -0.07446800
Spot 2    -0.01234783     0.01281355    -0.07446800
Spot 1    -0.01255311     0.01281783    -0.07446800
Spot 2    -0.01234755     0.01281347    -0.07446800
Spot 1    -0.01255308     0.01281779    -0.07446800
Spot 2    -0.01234784     0.01281337    -0.07446800
20MABNDB000001_PR017
Spot 1    -0.01230106    -0.01355223    -0.07418400
Spot 2    -0.01193265    -0.01354666    -0.07418400
Spot 1    -0.01230108    -0.01355216    -0.07418400
Spot 2    -0.01193263    -0.01354630    -0.07418400
Spot 1    -0.01230112    -0.01355208    -0.07418400
Spot 2    -0.01193261    -0.01354606    -0.07418400
Spot 1    -0.01230108    -0.01355210    -0.07418400
Spot 2    -0.01193233    -0.01354666    -0.07418400
20MABNDB000260_PR019
Spot 1    -0.01240849    -0.01239658    -0.07492700
Spot 2    -0.01220581    -0.01239307    -0.07492700
Spot 1    -0.01240877    -0.01239665    -0.07492700
Spot 2    -0.01220530    -0.01239351    -0.07492700
Spot 1    -0.01240870    -0.01239675    -0.07492700
Spot 2    -0.01220562    -0.01239270    -0.07492700
Spot 1    -0.01240864    -0.01239679    -0.07492700
Spot 2    -0.01220580    -0.01239338    -0.07492700
20MABNDB000212_PR029
Spot 1    -0.01185118    -0.01328786    -0.07390500
Spot 2    -0.01221330    -0.01328244    -0.07390500
Spot 1    -0.01185111    -0.01328780    -0.07390500
Spot 2    -0.01221326    -0.01328187    -0.07390500
Spot 1    -0.01185105    -0.01328787    -0.07390500
Spot 2    -0.01221327    -0.01328244    -0.07390500
Spot 1    -0.01185110    -0.01328778    -0.07390500
Spot 2    -0.01221312    -0.01328221    -0.07390500
20MABNDB000128_PR030
Spot 1    -0.01245476    -0.01221501    -0.07353400
Spot 2    -0.01225021    -0.01221998    -0.07353400
Spot 1    -0.01245477    -0.01221527    -0.07353400
Spot 2    -0.01225021    -0.01221986    -0.07353400
Spot 1    -0.01245488    -0.01221511    -0.07353400
Spot 2    -0.01225031    -0.01221995    -0.07353400
Spot 1    -0.01245484    -0.01221508    -0.07353400
Spot 2    -0.01225026    -0.01221982    -0.07353400
20MABNDA000444_PR040
Spot 1    -0.01169990     0.01367613    -0.07412000
Spot 2    -0.01206691     0.01367400    -0.07412000
Spot 1    -0.01169987     0.01367614    -0.07412000
Spot 2    -0.01206711     0.01367409    -0.07412000
Spot 1    -0.01170001     0.01367606    -0.07412000
Spot 2    -0.01206671     0.01367450    -0.07412000
Spot 1    -0.01169984     0.01367642    -0.07412000
Spot 2    -0.01206644     0.01367450    -0.07412000
20MABNDA000053_PR041
Spot 1    -0.01241935     0.01212636    -0.07430100
Spot 2    -0.01220284     0.01212842    -0.07430100
Spot 1    -0.01241923     0.01212649    -0.07430100
Spot 2    -0.01220240     0.01212841    -0.07430100
Spot 1    -0.01241932     0.01212631    -0.07430100
Spot 2    -0.01220250     0.01212835    -0.07430100
Spot 1    -0.01241931     0.01212641    -0.07430100
Spot 2    -0.01220252     0.01212844    -0.07430100
20MABNDB000069_PR031
Spot 1    -0.01361993    -0.01186066    -0.07388500
Spot 2    -0.01361993    -0.01186066    -0.07388500
Spot 1    -0.01361993    -0.01186066    -0.07388500
Spot 2    -0.01361993    -0.01186066    -0.07388500
Spot 1    -0.01361993    -0.01186066    -0.07388500
Spot 2    -0.01361993    -0.01186066    -0.07388500
Spot 1    -0.01361993    -0.01186066    -0.07388500
Spot 2    -0.01361993    -0.01186066    -0.07388500
20MABNDB000069_PR033
Spot 1    -0.01202899    -0.01226373    -0.07388500
Spot 2    -0.01155841    -0.01226350    -0.07388500
Spot 1    -0.01202895    -0.01226347    -0.07388500
Spot 2    -0.01155832    -0.01226349    -0.07388500
Spot 1    -0.01202882    -0.01226353    -0.07388500
Spot 2    -0.01155837    -0.01226339    -0.07388500
Spot 1    -0.01202886    -0.01226348    -0.07388500
Spot 2    -0.01155846    -0.01226350    -0.07388500
20MABNDB000131_PR032
Spot 1    -0.01144312    -0.01303712    -0.07533000
Spot 2    -0.01138288    -0.01303348    -0.07533000
Spot 1    -0.01144340    -0.01303726    -0.07533000
Spot 2    -0.01138277    -0.01303375    -0.07533000
Spot 1    -0.01144355    -0.01303699    -0.07533000
Spot 2    -0.01138260    -0.01303385    -0.07533000
Spot 1    -0.01144345    -0.01303693    -0.07533000
Spot 2    -0.01138305    -0.01303372    -0.07533000
20MABNDB000131_PR034
Spot 1    -0.01329247    -0.01380080    -0.07533000
Spot 2    -0.01311573    -0.01379938    -0.07533000
Spot 1    -0.01329245    -0.01380068    -0.07533000
Spot 2    -0.01311599    -0.01379951    -0.07533000
Spot 1    -0.01329242    -0.01380056    -0.07533000
Spot 2    -0.01311576    -0.01379949    -0.07533000
Spot 1    -0.01329226    -0.01380074    -0.07533000
Spot 2    -0.01311566    -0.01379938    -0.07533000
20MABNDA000208_PR042
Spot 1    -0.01393124     0.01304316    -0.07273700
Spot 2    -0.01386546     0.01304466    -0.07273700
Spot 1    -0.01393104     0.01304310    -0.07273700
Spot 2    -0.01386594     0.01304353    -0.07273700
Spot 1    -0.01393085     0.01304346    -0.07273700
Spot 2    -0.01386491     0.01304428    -0.07273700
Spot 1    -0.01393073     0.01304329    -0.07273700
Spot 2    -0.01386458     0.01304361    -0.07273700
20MABNDA000208_PR046
Spot 1    -0.01231830     0.01179532    -0.07273700
Spot 2    -0.01184528     0.01179565    -0.07273700
Spot 1    -0.01231824     0.01179524    -0.07273700
Spot 2    -0.01184538     0.01179553    -0.07273700
Spot 1    -0.01231810     0.01179524    -0.07273700
Spot 2    -0.01184498     0.01179558    -0.07273700
Spot 1    -0.01231809     0.01179535    -0.07273700
Spot 2    -0.01184506     0.01179541    -0.07273700
20MABNDA000035_PR044
Spot 1    -0.01157227     0.01300058    -0.07483200
Spot 2    -0.01151525     0.01300662    -0.07483200
Spot 1    -0.01157281     0.01300065    -0.07483200
Spot 2    -0.01151563     0.01300637    -0.07483200
Spot 1    -0.01157210     0.01300048    -0.07483200
Spot 2    -0.01151612     0.01300607    -0.07483200
Spot 1    -0.01157256     0.01300099    -0.07483200
Spot 2    -0.01151578     0.01300647    -0.07483200
20MABNDA000035_PR045
Spot 1    -0.01337470     0.01379843    -0.07483200
Spot 2    -0.01319738     0.01379780    -0.07483200
Spot 1    -0.01337463     0.01379839    -0.07483200
Spot 2    -0.01319730     0.01379787    -0.07483200
Spot 1    -0.01337466     0.01379872    -0.07483200
Spot 2    -0.01319714     0.01379772    -0.07483200
Spot 1    -0.01337467     0.01379850    -0.07483200
Spot 2    -0.01319737     0.01379798    -0.07483200
20MABNDA000188_PR008
Spot 1    -0.01391227     0.01380893    -0.07502000
Spot 2    -0.01391227     0.01380893    -0.07502000
Spot 1    -0.01391227     0.01380893    -0.07502000
Spot 2    -0.01391227     0.01380893    -0.07502000
Spot 1    -0.01391227     0.01380893    -0.07502000
Spot 2    -0.01391227     0.01380893    -0.07502000
Spot 1    -0.01391227     0.01380893    -0.07502000
Spot 2    -0.01391227     0.01380893    -0.07502000
20MABNDA000188_PR018
Spot 1    -0.01269958     0.01228843    -0.07502000
Spot 2    -0.01223240     0.01228793    -0.07502000
Spot 1    -0.01269953     0.01228849    -0.07502000
Spot 2    -0.01223232     0.01228784    -0.07502000
Spot 1    -0.01269967     0.01228860    -0.07502000
Spot 2    -0.01223236     0.01228777    -0.07502000
Spot 1    -0.01269959     0.01228854    -0.07502000
Spot 2    -0.01223228     0.01228773    -0.07502000
20MABNDA000039_PR009
Spot 1    -0.01162670     0.01306743    -0.07444800
Spot 2    -0.01157943     0.01306258    -0.07444800
Spot 1    -0.01162683     0.01306704    -0.07444800
Spot 2    -0.01157981     0.01306274    -0.07444800
Spot 1    -0.01162702     0.01306693    -0.07444800
Spot 2    -0.01157949     0.01306244    -0.07444800
Spot 1    -0.01162718     0.01306713    -0.07444800
Spot 2    -0.01157947     0.01306280    -0.07444800
20MABNDA000039_PR011
Spot 1    -0.01372681     0.01397168    -0.07444800
Spot 2    -0.01355115     0.01397559    -0.07444800
Spot 1    -0.01372665     0.01397164    -0.07444800
Spot 2    -0.01355114     0.01397533    -0.07444800
Spot 1    -0.01372655     0.01397154    -0.07444800
Spot 2    -0.01355089     0.01397561    -0.07444800
Spot 1    -0.01372651     0.01397174    -0.07444800
Spot 2    -0.01355102     0.01397560    -0.07444800
20MABNDB000155_PR020
Spot 1    -0.01364585    -0.01312607    -0.07501700
Spot 2    -0.01358077    -0.01312878    -0.07501700
Spot 1    -0.01364508    -0.01312576    -0.07501700
Spot 2    -0.01358064    -0.01312881    -0.07501700
Spot 1    -0.01364577    -0.01312600    -0.07501700
Spot 2    -0.01358081    -0.01312911    -0.07501700
Spot 1    -0.01364537    -0.01312586    -0.07501700
Spot 2    -0.01358137    -0.01312903    -0.07501700
20MABNDB000155_PR022
Spot 1    -0.01216053    -0.01283456    -0.07501700
Spot 2    -0.01168756    -0.01283266    -0.07501700
Spot 1    -0.01216037    -0.01283440    -0.07501700
Spot 2    -0.01168732    -0.01283269    -0.07501700
Spot 1    -0.01216020    -0.01283437    -0.07501700
Spot 2    -0.01168725    -0.01283260    -0.07501700
Spot 1    -0.01216008    -0.01283452    -0.07501700
Spot 2    -0.01168733    -0.01283263    -0.07501700
20MABNDB000010_PR021
Spot 1    -0.01158026    -0.01292553    -0.07358200
Spot 2    -0.01152781    -0.01292189    -0.07358200
Spot 1    -0.01158018    -0.01292519    -0.07358200
Spot 2    -0.01152747    -0.01292190    -0.07358200
Spot 1    -0.01157998    -0.01292553    -0.07358200
Spot 2    -0.01152762    -0.01292202    -0.07358200
Spot 1    -0.01158031    -0.01292527    -0.07358200
Spot 2    -0.01152773    -0.01292199    -0.07358200
20MABNDB000010_PR023
Spot 1    -0.01312364    -0.01379167    -0.07358200
Spot 2    -0.01294882    -0.01379013    -0.07358200
Spot 1    -0.01312366    -0.01379169    -0.07358200
Spot 2    -0.01294870    -0.01379019    -0.07358200
Spot 1    -0.01312375    -0.01379163    -0.07358200
Spot 2    -0.01294850    -0.01379028    -0.07358200
Spot 1    -0.01312380    -0.01379151    -0.07358200
Spot 2    -0.01294875    -0.01379026    -0.07358200


*****************************************************************coordonnees du prisme dans le repere MOUNT********************************************************************************** 
20MABNDL000077_PR002
    0.05503074     0.05514017     3.70683002
    0.05506803     0.05508892     3.70682955
    0.05511452     0.05509415     3.70682931
    0.05501399     0.05524876     3.70682955
    0.05503931     0.05533942     3.70682907
20MABNDL000077_PR003
    0.02099845     0.02121008     3.89601707
    0.02101382     0.02118838     3.89601660
    0.02102151     0.02117793     3.89601660
    0.02102204     0.02117948     3.89601660
    0.02102907     0.02118123     3.89601660
20MABNDL000077_20MABNDM000168
   -0.05597588     0.07582047    -5.46843529
   -0.05598802     0.07580698    -5.46843529
   -0.05597674     0.07579807    -5.46843624
    0.02678906     0.06906459    -5.46851063
   -0.05598182     0.07580091    -5.46843529
20MABNDL000077_PR024
    0.04539132     0.01806234    -5.89640427
    0.04538751     0.01805333    -5.89640427
    0.04538601     0.01804786    -5.89640427
    0.04538611     0.01803734    -5.89640427
20MABNDM000020_PR013
    0.00707881    -0.08812969    -3.80206895
    0.00107128    -0.08578179    -3.80212831
    0.00107112    -0.08578172    -3.80212831
    0.00107112    -0.08578172    -3.80212831
20MABNDM000020_PR014
   -0.09646920    -0.08948103    -4.74775267
   -0.09646920    -0.08948103    -4.74775267
   -0.09646920    -0.08948103    -4.74775267
   -0.09646920    -0.08948103    -4.74775267
20MABNDM000020_20MABNDL000196
    0.02685418    -0.07126743     5.39469624
    0.02685776    -0.07126958     5.39469624
    0.02685955    -0.07126600     5.39469624
    0.02686134    -0.07125847     5.39469624
20MABNDM000020_PR035
   -0.04226259    -0.00677187     5.80095673
   -0.04226876    -0.00677920     5.80095673
   -0.04226953    -0.00677188     5.80095673
   -0.04226028    -0.00677342     5.80095673
20MABNDM000168_PR025
    0.01743472    -0.07212108    -3.78849983
    0.01198998    -0.07076043    -3.78855300
    0.01198998    -0.07076043    -3.78855300
    0.01198998    -0.07076043    -3.78855300
20MABNDM000168_PR026
   -0.05785968    -0.01403129    -3.98429084
   -0.05786358    -0.01403209    -3.98429084
   -0.05786386    -0.01402688    -3.98429084
   -0.05786308    -0.01402662    -3.98429084
20MABNDM000168_20MABNDL000077
    0.01166481    -0.03837290     5.38884687
    0.01166599    -0.03836573     5.38884687
    0.01167402    -0.03838165     5.38884687
    0.01167727    -0.03838098     5.38884687
20MABNDM000168_PR001
   -0.05735924    -0.01318558     5.81470490
   -0.05735482    -0.01317479     5.81470490
   -0.05736540    -0.01318278     5.81470490
   -0.05735406    -0.01317519     5.81470490
20MABNDL000196_PR036
    0.05135947     0.00594103     3.68777180
    0.05136096     0.00593367     3.68777180
    0.05136240     0.00594743     3.68777180
    0.05135794     0.00596484     3.68777180
20MABNDL000196_PR037
   -0.02515524     0.02855484     3.88381290
   -0.02515782     0.02855096     3.88381290
   -0.02515704     0.02855019     3.88381290
   -0.02515188     0.02855381     3.88381290
20MABNDL000196_20MABNDM000020
   -0.01574552     0.03786016    -5.47473907
   -0.01573760     0.03785924    -5.47473907
   -0.01573931     0.03785489    -5.47473907
   -0.01574421     0.03784833    -5.47473907
20MABNDL000196_PR012
    0.05230708     0.01451655    -5.91537285
    0.05231279     0.01450268    -5.91537189
    0.05231192     0.01448828    -5.91537189
    0.05231385     0.01448871    -5.91537189
20MABNDA000318_PR004
   -0.00845321     0.03833846     2.74965954
   -0.00845453     0.03834891     2.74965954
   -0.00844536     0.03835004     2.74965954
   -0.00845068     0.03835039     2.74965954
20MABNDA000334_PR005
   -0.00428383     0.03166044     2.14977217
   -0.00428212     0.03165272     2.14977217
   -0.00428055     0.03165543     2.14977217
   -0.00428769     0.03165615     2.14977217
20MABNDB000317_PR015
   -0.01739258    -0.03397093     2.75129032
   -0.01739459    -0.03397022     2.75129032
   -0.01739218    -0.03397402     2.75129032
   -0.01739652    -0.03397662     2.75129032
20MABNDB000146_PR016
   -0.01355692    -0.03175570     2.15201306
   -0.01355548    -0.03175527     2.15201306
   -0.01356023    -0.03175614     2.15201306
   -0.01356209    -0.03175974     2.15201306
20MABNDB000135_PR027
   -0.02104026    -0.00985454     2.74937105
   -0.02104189    -0.00985214     2.74937105
   -0.02103770    -0.00985493     2.74937105
   -0.02103695    -0.00985292     2.74937105
20MABNDB000126_PR028
   -0.02035878    -0.03898547     2.14679480
   -0.02035934    -0.03898747     2.14679480
   -0.02035663    -0.03898645     2.14679480
   -0.02036133    -0.03898790     2.14679480
20MABNDA000272_PR038
   -0.01319679     0.01094954     2.74965882
   -0.01319202     0.01095283     2.74965882
   -0.01318927     0.01095008     2.74965882
   -0.01319752     0.01094753     2.74965882
20MABNDA000003_PR039
   -0.00591391     0.04139003     2.14891338
   -0.00590991     0.04139017     2.14891338
   -0.00591420     0.04138947     2.14891338
   -0.00591120     0.04138931     2.14891338
20MABNDA000196_PR006
   -0.01040813     0.01023877     1.64206433
   -0.01040408     0.01023948     1.64206433
   -0.01040012     0.01024206     1.64206433
   -0.01040375     0.01023948     1.64206433
20MABNDA000324_PR007
   -0.02527020     0.02752931     2.95549345
   -0.02526780     0.02752382     2.95549345
   -0.02527176     0.02752694     2.95549345
   -0.02526667     0.02752974     2.95549345
20MABNDB000001_PR017
   -0.02414659    -0.00281167     1.64035940
   -0.02414653    -0.00281637     1.64035964
   -0.02414635    -0.00281987     1.64035964
   -0.02414988    -0.00281305     1.64035940
20MABNDB000260_PR019
   -0.02436042    -0.03846961     2.95627403
   -0.02436496    -0.03845946     2.95627403
   -0.02435975    -0.03847353     2.95627403
   -0.02435748    -0.03845930     2.95627403
20MABNDB000212_PR029
   -0.02544977    -0.00831595     1.64223695
   -0.02545083    -0.00832285     1.64223695
   -0.02545152    -0.00831583     1.64223695
   -0.02545255    -0.00831932     1.64223695
20MABNDB000128_PR030
   -0.01928364    -0.04684281     2.95496273
   -0.01928345    -0.04684006     2.95496273
   -0.01927932    -0.04684141     2.95496273
   -0.01928107    -0.04684456     2.95496273
20MABNDA000444_PR040
   -0.02991456     0.00090380     1.64491177
   -0.02991279     0.00090262     1.64491177
   -0.02991559     0.00089897     1.64491177
   -0.02992047     0.00089508     1.64491177
20MABNDA000053_PR041
   -0.02643237     0.05074402     2.95450902
   -0.02644321     0.05074168     2.95450902
   -0.02643958     0.05074652     2.95450902
   -0.02643946     0.05074278     2.95450902
20MABNDB000069_PR031
    0.10999375    -0.16176865     9.20229721
    0.10999375    -0.16176865     9.20229721
    0.10999375    -0.16176865     9.20229721
    0.10999375    -0.16176865     9.20229721
20MABNDB000069_PR033
   -0.02677296    -0.02692693     1.28394127
   -0.02677409    -0.02692919     1.28394115
   -0.02677470    -0.02692959     1.28394115
   -0.02677366    -0.02692912     1.28394115
20MABNDB000131_PR032
   -0.18797779    -0.02977575    11.00642014
   -0.18796554    -0.02974573    11.00642204
   -0.18796691    -0.02975889    11.00642204
   -0.18794128    -0.02977264    11.00642204
20MABNDB000131_PR034
    0.01432564     0.01651835     3.43337870
    0.01433111     0.01651838     3.43337870
    0.01432520     0.01651539     3.43337870
    0.01431927     0.01651695     3.43337870
20MABNDA000208_PR042
    0.13270491     0.01455671     9.20144558
    0.13272204     0.01462976     9.20144558
    0.13264723     0.01456218     9.20144749
    0.13261956     0.01461371     9.20144749
20MABNDA000208_PR046
   -0.02348259     0.03461387     1.28208184
   -0.02348225     0.03461558     1.28208184
   -0.02348686     0.03461514     1.28208184
   -0.02348626     0.03461566     1.28208184
20MABNDA000035_PR044
   -0.18006888     0.02662180    11.00802040
   -0.18000078     0.02663521    11.00802231
   -0.18001737     0.02666898    11.00802231
   -0.18000832     0.02660236    11.00802231
20MABNDA000035_PR045
    0.01461165    -0.01894090     3.43483734
    0.01460845    -0.01894156     3.43483734
    0.01460545    -0.01894564     3.43483734
    0.01461115    -0.01894660     3.43483734
20MABNDA000188_PR008
    0.13650158    -0.07885031     9.20339394
    0.13650158    -0.07885031     9.20339394
    0.13650158    -0.07885031     9.20339394
    0.13650158    -0.07885031     9.20339394
20MABNDA000188_PR018
   -0.01664863     0.02630778     1.28357637
   -0.01664974     0.02630804     1.28357637
   -0.01664829     0.02630769     1.28357637
   -0.01664965     0.02630856     1.28357637
20MABNDA000039_PR009
   -0.17106664     0.02514396    11.00701714
   -0.17102927     0.02516062    11.00701904
   -0.17103864     0.02519064    11.00701714
   -0.17102787     0.02514964    11.00701904
20MABNDA000039_PR011
    0.03079903    -0.02455873     3.43347049
    0.03079495    -0.02455187     3.43347049
    0.03078718    -0.02455595     3.43347049
    0.03078921    -0.02456029     3.43347049
20MABNDB000155_PR020
    0.10206997    -0.00914311     9.20028305
    0.10201497    -0.00916044     9.20028496
    0.10206792    -0.00912717     9.20028305
    0.10207793    -0.00914116     9.20028305
20MABNDB000155_PR022
   -0.02554996    -0.01759196     1.28070855
   -0.02555337    -0.01759303     1.28070855
   -0.02555540    -0.01759409     1.28070855
   -0.02555577    -0.01759255     1.28070855
20MABNDB000010_PR021
   -0.17628646    -0.03371130    11.00694466
   -0.17631695    -0.03373534    11.00694466
   -0.17632118    -0.03370086    11.00694466
   -0.17628846    -0.03372310    11.00694466
20MABNDB000010_PR023
    0.00428494     0.02025152     3.43377113
    0.00428261     0.02025332     3.43377113
    0.00428008     0.02025396     3.43377113
    0.00428678     0.02025086     3.43377113


*****************************************************************coordonnees du prisme dans le repere ATLAS********************************************************************************** 
20MABNDL000077_PR002 0.00000000
    2.80190229    -3.68947530     6.48615026
    2.80195355    -3.68943810     6.48614979
    2.80194831    -3.68939161     6.48614931
    2.80179381    -3.68949223     6.48614979
    2.80170321    -3.68946671     6.48614931
20MABNDL000077_PR003 0.00000000
    2.83600712    -3.72375178     6.67526150
    2.83602881    -3.72373652     6.67526102
    2.83603930    -3.72372890     6.67526102
    2.83603764    -3.72372818     6.67526102
    2.83603597    -3.72372127     6.67526102
20MABNDL000077_20MABNDM000168 0.00000000
    2.77218699    -3.78915501    -2.68922043
    2.77220035    -3.78916717    -2.68922043
    2.77220941    -3.78915596    -2.68922138
    2.77896905    -3.70639229    -2.68920016
    2.77220654    -3.78916097    -2.68922043
20MABNDL000077_PR024 0.00000000
    2.82955766    -3.68727827    -3.11712050
    2.82956648    -3.68728209    -3.11712050
    2.82957196    -3.68728352    -3.11712050
    2.82958245    -3.68728352    -3.11712050
20MABNDM000020_PR013 0.00000000
   -2.76418304    -3.74658394     6.48588943
   -2.76652908    -3.74057579     6.48595381
   -2.76652908    -3.74057555     6.48595381
   -2.76652908    -3.74057555     6.48595381
20MABNDM000020_PR014 0.00000000
   -2.76261067    -3.64375567     7.43165112
   -2.76261067    -3.64375567     7.43165112
   -2.76261067    -3.64375567     7.43165112
   -2.76261067    -3.64375567     7.43165112
20MABNDM000020_20MABNDL000196 0.00000000
   -2.78289175    -3.75935960    -2.71088481
   -2.78288960    -3.75936317    -2.71088481
   -2.78289318    -3.75936508    -2.71088481
   -2.78290081    -3.75936675    -2.71088481
20MABNDM000020_PR035 0.00000000
   -2.84744763    -3.68991423    -3.11707973
   -2.84744024    -3.68990803    -3.11707973
   -2.84744763    -3.68990731    -3.11707973
   -2.84744596    -3.68991661    -3.11707973
20MABNDM000168_PR025 0.00000000
    2.78111601    -3.76275039    -6.47911596
    2.78247809    -3.75730610    -6.47917128
    2.78247809    -3.75730610    -6.47917128
    2.78247809    -3.75730610    -6.47917128
20MABNDM000168_PR026 0.00000000
    2.83921361    -3.68754411    -6.67493820
    2.83921289    -3.68754029    -6.67493820
    2.83921814    -3.68754005    -6.67493820
    2.83921838    -3.68754077    -6.67493820
20MABNDM000168_20MABNDL000077 0.00000000
    2.81542253    -3.75357699     2.69822621
    2.81542969    -3.75357819     2.69822621
    2.81541371    -3.75358629     2.69822621
    2.81541443    -3.75358939     2.69822621
20MABNDM000168_PR001 0.00000000
    2.84065390    -3.68440127     3.12405682
    2.84066486    -3.68440580     3.12405682
    2.84065676    -3.68439507     3.12405682
    2.84066439    -3.68440652     3.12405682
20MABNDL000196_PR036 0.00000000
   -2.84766650    -3.69291496    -6.47909546
   -2.84767389    -3.69291353    -6.47909546
   -2.84766006    -3.69291210    -6.47909546
   -2.84764266    -3.69291663    -6.47909546
20MABNDL000196_PR037 0.00000000
   -2.82502127    -3.76960158    -6.67506552
   -2.82502532    -3.76960421    -6.67506552
   -2.82502604    -3.76960325    -6.67506552
   -2.82502246    -3.76959825    -6.67506552
20MABNDL000196_20MABNDM000020 0.00000000
   -2.81551814    -3.75148225     2.68347335
   -2.81551909    -3.75147438     2.68347335
   -2.81552339    -3.75147605     2.68347335
   -2.81553006    -3.75148082     2.68347335
20MABNDL000196_PR012 0.00000000
   -2.83888388    -3.68303061     3.12404418
   -2.83889771    -3.68302488     3.12404323
   -2.83891225    -3.68302584     3.12404323
   -2.83891177    -3.68302393     3.12404323
20MABNDA000318_PR004 0.00000000
    2.61455011    -4.19698858     3.83366013
    2.61454868    -4.19698858     3.83364964
    2.61455798    -4.19698858     3.83364868
    2.61455250    -4.19698858     3.83364820
20MABNDA000334_PR005 0.00000000
    2.61671472    -4.19703102     5.89760065
    2.61671638    -4.19703102     5.89760828
    2.61671805    -4.19703102     5.89760542
    2.61671090    -4.19703102     5.89760494
20MABNDB000317_PR015 0.00000000
   -2.61121464    -4.19700575     3.83604455
   -2.61121249    -4.19700575     3.83604527
   -2.61121488    -4.19700575     3.83604145
   -2.61121058    -4.19700575     3.83603883
20MABNDB000146_PR016 0.00000000
   -2.61273837    -4.19702482     5.89859438
   -2.61273980    -4.19702482     5.89859486
   -2.61273503    -4.19702482     5.89859390
   -2.61273313    -4.19702482     5.89859056
20MABNDB000135_PR027 0.00000000
    2.60382295    -4.19700432    -3.82550621
    2.60382152    -4.19700432    -3.82550883
    2.60382557    -4.19700432    -3.82550597
    2.60382628    -4.19700432    -3.82550788
20MABNDB000126_PR028 0.00000000
    2.60555840    -4.19702148    -5.89323425
    2.60555792    -4.19702148    -5.89323235
    2.60556054    -4.19702148    -5.89323330
    2.60555601    -4.19702148    -5.89323187
20MABNDA000272_PR038 0.00000000
   -2.61134005    -4.19698286    -3.82753468
   -2.61134481    -4.19698286    -3.82753158
   -2.61134768    -4.19698286    -3.82753420
   -2.61133933    -4.19698286    -3.82753682
20MABNDA000003_PR039 0.00000000
   -2.61581731    -4.19702291    -5.89137650
   -2.61582136    -4.19702291    -5.89137650
   -2.61581707    -4.19702291    -5.89137745
   -2.61581993    -4.19702291    -5.89137745
20MABNDA000196_PR006 0.00000000
    2.58486867    -4.19496393     6.54819536
    2.58486462    -4.19496393     6.54819584
    2.58486056    -4.19496393     6.54819870
    2.58486438    -4.19496393     6.54819584
20MABNDA000324_PR007 0.00000000
    2.59404469    -4.13996458     6.94838572
    2.59404707    -4.13996458     6.94839144
    2.59404302    -4.13996458     6.94838810
    2.59404802    -4.13996458     6.94838524
20MABNDB000001_PR017 0.00000000
   -2.59784794    -4.19505882     6.53813982
   -2.59784794    -4.19505835     6.53814459
   -2.59784770    -4.19505835     6.53814793
   -2.59785128    -4.19505882     6.53814125
20MABNDB000260_PR019 0.00000000
   -2.60440135    -4.13996029     6.94217443
   -2.60439682    -4.13996029     6.94218445
   -2.60440207    -4.13996029     6.94217062
   -2.60440445    -4.13996029     6.94218445
20MABNDB000212_PR029 0.00000000
    2.59912753    -4.19501162    -6.54730368
    2.59912848    -4.19501162    -6.54731083
    2.59912920    -4.19501162    -6.54730368
    2.59913039    -4.19501162    -6.54730701
20MABNDB000128_PR030 0.00000000
    2.60957503    -4.14002705    -6.93127823
    2.60957527    -4.14002705    -6.93128109
    2.60957932    -4.14002705    -6.93127966
    2.60957766    -4.14002705    -6.93127632
20MABNDA000444_PR040 0.00000000
   -2.60508704    -4.19509745    -6.54008389
   -2.60508537    -4.19509745    -6.54008293
   -2.60508823    -4.19509745    -6.54007912
   -2.60509300    -4.19509745    -6.54007530
20MABNDA000053_PR041 0.00000000
   -2.59410954    -4.14012241    -6.92716932
   -2.59409881    -4.14012241    -6.92717171
   -2.59410238    -4.14012241    -6.92716694
   -2.59410238    -4.14012241    -6.92717075
20MABNDB000069_PR031 0.00000000
    3.69177032     3.84800911    -7.77863359
    3.69177032     3.84800911    -7.77863359
    3.69177032     3.84800911    -7.77863359
    3.69177032     3.84800911    -7.77863359
20MABNDB000069_PR033 0.00000000
    3.53352642    -4.07046223    -7.87874460
    3.53352547    -4.07046223    -7.87874222
    3.53352475    -4.07046223    -7.87874174
    3.53352571    -4.07046223    -7.87874222
20MABNDB000131_PR032 0.00000000
    3.86878014     3.64757013   -12.94041824
    3.86876798     3.64757204   -12.94038868
    3.86876941     3.64757204   -12.94040203
    3.86874366     3.64757204   -12.94041538
20MABNDB000131_PR034 0.00000000
    3.67346382    -3.92563772   -12.89142895
    3.67345834    -3.92563772   -12.89142895
    3.67346406    -3.92563772   -12.89143181
    3.67347002    -3.92563772   -12.89143085
20MABNDA000208_PR042 0.00000000
   -3.68278313     3.84912586    -7.89692974
   -3.68280029     3.84912586    -7.89685678
   -3.68272543     3.84912753    -7.89692402
   -3.68269777     3.84912753    -7.89687252
20MABNDA000208_PR046 0.00000000
   -3.53228283    -4.07034016    -7.87390423
   -3.53228331    -4.07034016    -7.87390280
   -3.53227854    -4.07034016    -7.87390327
   -3.53227925    -4.07034016    -7.87390280
20MABNDA000035_PR044 0.00000000
   -3.86930990     3.64757562   -12.93230057
   -3.86924171     3.64757752   -12.93231392
   -3.86925840     3.64757752   -12.93234825
   -3.86924934     3.64757752   -12.93228149
20MABNDA000035_PR045 0.00000000
   -3.67611670    -3.92564988   -12.88744354
   -3.67611980    -3.92564988   -12.88744259
   -3.67612290    -3.92564988   -12.88743877
   -3.67611718    -3.92564988   -12.88743782
20MABNDA000188_PR008 0.00000000
    3.54951787     3.84898496     8.09023857
    3.54951787     3.84898496     8.09023857
    3.54951787     3.84898496     8.09023857
    3.54951787     3.84898496     8.09023857
20MABNDA000188_PR018 0.00000000
    3.52049565    -4.07060432     7.89713383
    3.52049470    -4.07060432     7.89713383
    3.52049613    -4.07060432     7.89713430
    3.52049470    -4.07060432     7.89713335
20MABNDA000039_PR009 0.00000000
    3.87523866     3.64747548    12.93643761
    3.87520123     3.64747739    12.93645477
    3.87521076     3.64747548    12.93648434
    3.87519979     3.64747739    12.93644333
20MABNDA000039_PR011 0.00000000
    3.66422510    -3.92580533    12.88427830
    3.66422915    -3.92580533    12.88428497
    3.66423702    -3.92580533    12.88428116
    3.66423488    -3.92580533    12.88427639
20MABNDB000155_PR020 0.00000000
   -3.68072224     3.84881616     7.89772415
   -3.68066716     3.84881830     7.89770651
   -3.68072009     3.84881616     7.89773989
   -3.68073010     3.84881616     7.89772606
20MABNDB000155_PR022 0.00000000
   -3.53443050    -4.07043648     7.89046717
   -3.53442717    -4.07043648     7.89046621
   -3.53442502    -4.07043648     7.89046526
   -3.53442478    -4.07043648     7.89046669
20MABNDB000010_PR021 0.00000000
   -3.86212373     3.64768219    12.93554115
   -3.86215425     3.64768219    12.93556499
   -3.86215830     3.64768219    12.93553066
   -3.86212564     3.64768219    12.93555260
20MABNDB000010_PR023 0.00000000
   -3.68538141    -3.92560554    12.88502407
   -3.68538380    -3.92560554    12.88502216
   -3.68538642    -3.92560554    12.88502216
   -3.68537951    -3.92560554    12.88502502


*****************************************************************Rapport********************************************************************************** 
CAM-LBA-US_EBA-US-HO-H         2017.09.03.18.47.35     2.80186024    -3.68945279     6.48614969     0.00009726     0.00003525     0.00000036 0.00000000 VRAI 
CAM-LBA-US_JDA-US-H            2017.09.03.18.47.35     2.83602977    -3.72373333     6.67526112     0.00001188     0.00001042     0.00000019 0.00000000 VRAI 
CAM-LBA-US_CAM-LBC-US          2017.09.03.18.47.35     2.77355447    -3.77260628    -2.68921657     0.00270730     0.03310699     0.00000821 0.00000000 VRAI 
CAM-LBA-US_EBC-US-IP-H         2017.09.03.18.47.35     2.82956964    -3.68728185    -3.11712050     0.00000899     0.00000215     0.00000000 0.00000000 VRAI 
CAM-LBA-USA_EBA-USA-HO-H       2017.09.03.18.47.35    -2.76594257    -3.74207771     6.48593771     0.00101586     0.00260167     0.00002787 0.00000000 VRAI 
CAM-LBA-USA_JDA-USA-H          2017.09.03.18.47.35    -2.76261067    -3.64375567     7.43165112     0.00000000     0.00000000     0.00000000 0.00000000 VRAI 
CAM-LBA-USA_CAM-LBC-USA        2017.09.03.18.47.35    -2.78289384    -3.75936365    -2.71088481     0.00000422     0.00000266     0.00000000 0.00000000 VRAI 
CAM-LBA-USA_EBC-USA-IP-H       2017.09.03.18.47.35    -2.84744537    -3.68991154    -3.11707973     0.00000304     0.00000397     0.00000000 0.00000000 VRAI 
CAM-LBC-US_EBC-US-HO-H         2017.09.03.18.47.35     2.78213757    -3.75866717    -6.47915745     0.00058980     0.00235745     0.00002395 0.00000000 VRAI 
CAM-LBC-US_JDC-US-H            2017.09.03.18.47.35     2.83921576    -3.68754131    -6.67493820     0.00000252     0.00000164     0.00000000 0.00000000 VRAI 
CAM-LBC-US_CAM-LBA-US          2017.09.03.18.47.35     2.81542009    -3.75358272     2.69822621     0.00000653     0.00000526     0.00000000 0.00000000 VRAI 
CAM-LBC-US_EBA-US-IP-H         2017.09.03.18.47.35     2.84065998    -3.68440217     3.12405682     0.00000476     0.00000456     0.00000000 0.00000000 VRAI 
CAM-LBC-USA_EBC-USA-HO-H       2017.09.03.18.47.35    -2.84766078    -3.69291431    -6.47909546     0.00001155     0.00000168     0.00000000 0.00000000 VRAI 
CAM-LBC-USA_JDC-USA-H          2017.09.03.18.47.35    -2.82502377    -3.76960182    -6.67506552     0.00000197     0.00000227     0.00000000 0.00000000 VRAI 
CAM-LBC-USA_CAM-LBA-USA        2017.09.03.18.47.35    -2.81552267    -3.75147837     2.68347335     0.00000470     0.00000325     0.00000000 0.00000000 VRAI 
CAM-LBC-USA_EBA-USA-IP-H       2017.09.03.18.47.35    -2.83890140    -3.68302631     3.12404346     0.00001168     0.00000257     0.00000041 0.00000000 VRAI 
CAM-EBA-US-IP_EBA-US-IP        2017.09.03.18.47.35     2.61455232    -4.19698858     3.83365166     0.00000354     0.00000000     0.00000491 0.00000000 VRAI 
CAM-EBA-US-HO_EBA-US-HO        2017.09.03.18.47.35     2.61671501    -4.19703102     5.89760482     0.00000265     0.00000000     0.00000273 0.00000000 VRAI 
CAM-EBA-USA-IP_EBA-USA-IP      2017.09.03.18.47.35    -2.61121315    -4.19700575     3.83604252     0.00000175     0.00000000     0.00000257 0.00000000 VRAI 
CAM-EBA-USA-HO_EBA-USA-HO      2017.09.03.18.47.35    -2.61273658    -4.19702482     5.89859343     0.00000264     0.00000000     0.00000169 0.00000000 VRAI 
CAM-EBC-US-IP_EBC-US-IP        2017.09.03.18.47.35     2.60382408    -4.19700432    -3.82550722     0.00000193     0.00000000     0.00000118 0.00000000 VRAI 
CAM-EBC-US-HO_EBC-US-HO        2017.09.03.18.47.35     2.60555822    -4.19702148    -5.89323294     0.00000161     0.00000000     0.00000092 0.00000000 VRAI 
CAM-EBC-USA-IP_EBC-USA-IP      2017.09.03.18.47.35    -2.61134297    -4.19698286    -3.82753432     0.00000344     0.00000000     0.00000187 0.00000000 VRAI 
CAM-EBC-USA-HO_EBC-USA-HO      2017.09.03.18.47.35    -2.61581892    -4.19702291    -5.89137697     0.00000180     0.00000000     0.00000048 0.00000000 VRAI 
CAM-JDA-US-IP_JDA-US-IP        2017.09.03.18.47.35     2.58486456    -4.19496393     6.54819643     0.00000287     0.00000000     0.00000132 0.00000000 VRAI 
CAM-JDA-US-HO_JDA-US-HO        2017.09.03.18.47.35     2.59404570    -4.13996458     6.94838762     0.00000197     0.00000000     0.00000245 0.00000000 VRAI 
CAM-JDA-USA-IP_JDA-USA-IP      2017.09.03.18.47.35    -2.59784871    -4.19505858     6.53814340     0.00000148     0.00000024     0.00000314 0.00000000 VRAI 
CAM-JDA-USA-HO_JDA-USA-HO      2017.09.03.18.47.35    -2.60440117    -4.13996029     6.94217849     0.00000276     0.00000000     0.00000611 0.00000000 VRAI 
CAM-JDC-US-IP_JDC-US-IP        2017.09.03.18.47.35     2.59912890    -4.19501162    -6.54730630     0.00000104     0.00000000     0.00000295 0.00000000 VRAI 
CAM-JDC-US-HO_JDC-US-HO        2017.09.03.18.47.35     2.60957682    -4.14002705    -6.93127882     0.00000177     0.00000000     0.00000176 0.00000000 VRAI 
CAM-JDC-USA-IP_JDC-USA-IP      2017.09.03.18.47.35    -2.60508841    -4.19509745    -6.54008031     0.00000284     0.00000000     0.00000340 0.00000000 VRAI 
CAM-JDC-USA-HO_JDC-USA-HO      2017.09.03.18.47.35    -2.59410328    -4.14012241    -6.92716968     0.00000390     0.00000000     0.00000180 0.00000000 VRAI 
CAM-ECTC-US-IP_ECTC-US-IP-T    2017.09.03.18.47.35     3.69177032     3.84800911    -7.77863359     0.00000000     0.00000000     0.00000000 0.00000000 VRAI 
CAM-ECTC-US-IP_ECTC-US-IP      2017.09.03.18.47.35     3.53352559    -4.07046223    -7.87874269     0.00000060     0.00000000     0.00000112 0.00000000 VRAI 
CAM-ECTC-US-HO_ECTC-US-HO-T    2017.09.03.18.47.35     3.86876529     3.64757156   -12.94040608     0.00001335     0.00000083     0.00001176 0.00000000 VRAI 
CAM-ECTC-US-HO_ECTC-US-HO      2017.09.03.18.47.35     3.67346406    -3.92563772   -12.89143014     0.00000413     0.00000000     0.00000124 0.00000000 VRAI 
CAM-ECTC-USA-IP_ECTC-USA-IP-T  2017.09.03.18.47.35    -3.68275166     3.84912670    -7.89689577     0.00004167     0.00000083     0.00003167 0.00000000 VRAI 
CAM-ECTC-USA-IP_ECTC-USA-IP    2017.09.03.18.47.35    -3.53228098    -4.07034016    -7.87390327     0.00000211     0.00000000     0.00000058 0.00000000 VRAI 
CAM-ECTC-USA-HO_ECTC-USA-HO-T  2017.09.03.18.47.35    -3.86926484     3.64757705   -12.93231106     0.00002668     0.00000083     0.00002437 0.00000000 VRAI 
CAM-ECTC-USA-HO_ECTC-USA-HO    2017.09.03.18.47.35    -3.67611915    -3.92564988   -12.88744068     0.00000247     0.00000000     0.00000243 0.00000000 VRAI 
CAM-ECTA-US-IP_ECTA-US-IP-T    2017.09.03.18.47.35     3.54951787     3.84898496     8.09023857     0.00000000     0.00000000     0.00000000 0.00000000 VRAI 
CAM-ECTA-US-IP_ECTA-US-IP      2017.09.03.18.47.35     3.52049530    -4.07060432     7.89713383     0.00000062     0.00000000     0.00000034 0.00000000 VRAI 
CAM-ECTA-US-HO_ECTA-US-HO-T    2017.09.03.18.47.35     3.87521261     3.64747643    12.93645501     0.00001562     0.00000095     0.00001802 0.00000000 VRAI 
CAM-ECTA-US-HO_ECTA-US-HO      2017.09.03.18.47.35     3.66423154    -3.92580533    12.88428020     0.00000470     0.00000000     0.00000323 0.00000000 VRAI 
CAM-ECTA-USA-IP_ECTA-USA-IP-T  2017.09.03.18.47.35    -3.68070990     3.84881669     7.89772415     0.00002495     0.00000093     0.00001186 0.00000000 VRAI 
CAM-ECTA-USA-IP_ECTA-USA-IP    2017.09.03.18.47.35    -3.53442687    -4.07043648     7.89046633     0.00000230     0.00000000     0.00000071 0.00000000 VRAI 
CAM-ECTA-USA-HO_ECTA-USA-HO-T  2017.09.03.18.47.35    -3.86214048     3.64768219    12.93554735     0.00001587     0.00000000     0.00001280 0.00000000 VRAI 
CAM-ECTA-USA-HO_ECTA-USA-HO    2017.09.03.18.47.35    -3.68538278    -3.92560554    12.88502336     0.00000259     0.00000000     0.00000124 0.00000000 VRAI 
