********** Fichier qui contient une sauvegarde des coordonnees images + coordonnees images transformees dans le repere BCAM (MOUNT) + coordonnees des prismes dans le repere MOUNT********** 
********************************************************************** Unite en metres (m)************************************************************************************************** 

*******************************************************************coordonnees images dans le repere CCD *********************************************************************************** 
20MABNDL000077_PR002
Spot 1     0.00121456     0.00150286
Spot 2     0.00032500     0.00012500
Spot 1     0.00121345     0.00150649
Spot 2     0.00032500     0.00012500
Spot 1     0.00121604     0.00150147
Spot 2     0.00032500     0.00012500
Spot 1     0.00121851     0.00149757
Spot 2     0.00032500     0.00012500
Spot 1     0.00121683     0.00149384
Spot 2     0.00032500     0.00012500
20MABNDL000077_PR003
Spot 1     0.00138715     0.00149444
Spot 2     0.00153659     0.00149065
Spot 1     0.00138675     0.00149485
Spot 2     0.00153624     0.00149062
Spot 1     0.00138654     0.00149492
Spot 2     0.00153640     0.00149096
Spot 1     0.00138652     0.00149517
Spot 2     0.00153644     0.00149113
Spot 1     0.00138627     0.00149529
Spot 2     0.00153668     0.00149097
20MABNDL000077_20MABNDM000168
Spot 1     0.00175725     0.00118306
Spot 2     0.00075500     0.00010500
Spot 1     0.00175696     0.00118341
Spot 2     0.00075500     0.00010500
Spot 1     0.00175702     0.00118365
Spot 2     0.00075500     0.00010500
Spot 1     0.00175690     0.00118382
Spot 2     0.00075500     0.00010500
Spot 1     0.00175690     0.00118367
Spot 2     0.00304500     0.00031500
20MABNDL000077_PR024
Spot 1     0.00254319     0.00143358
Spot 2     0.00264138     0.00144495
Spot 1     0.00254336     0.00143375
Spot 2     0.00264125     0.00144532
Spot 1     0.00254307     0.00143377
Spot 2     0.00264111     0.00144514
Spot 1     0.00254287     0.00143403
Spot 2     0.00264124     0.00144540
20MABNDM000020_PR013
Spot 1     0.00160500     0.00021500
Spot 2     0.00136500     0.00011500
Spot 1     0.00136500     0.00011500
Spot 2     0.00160500     0.00021500
Spot 1     0.00111500     0.00006500
Spot 2     0.00136500     0.00011500
Spot 1     0.00136500     0.00011500
Spot 2     0.00136500     0.00011500
20MABNDM000020_PR014
Spot 1     0.00310500     0.00034500
Spot 2     0.00310500     0.00034500
Spot 1     0.00310500     0.00034500
Spot 2     0.00310500     0.00034500
Spot 1     0.00310500     0.00034500
Spot 2     0.00310500     0.00034500
Spot 1     0.00310500     0.00034500
Spot 2     0.00310500     0.00034500
20MABNDM000020_20MABNDL000196
Spot 1     0.00197722     0.00117744
Spot 2     0.00230500     0.00010500
Spot 1     0.00197726     0.00117738
Spot 2     0.00230500     0.00010500
Spot 1     0.00197719     0.00117745
Spot 2     0.00230500     0.00010500
Spot 1     0.00197716     0.00117741
Spot 2     0.00230500     0.00010500
20MABNDM000020_PR035
Spot 1     0.00127261     0.00149456
Spot 2     0.00118806     0.00153120
Spot 1     0.00127243     0.00149436
Spot 2     0.00118816     0.00153128
Spot 1     0.00127269     0.00149434
Spot 2     0.00118804     0.00153111
Spot 1     0.00127252     0.00149470
Spot 2     0.00118816     0.00153121
20MABNDM000168_PR025
Spot 1     0.00034500     0.00007500
Spot 2     0.00141500     0.00013500
Spot 1     0.00149500     0.00017500
Spot 2     0.00149500     0.00017500
Spot 1     0.00149500     0.00017500
Spot 2     0.00149500     0.00017500
Spot 1     0.00122500     0.00029500
Spot 2     0.00122500     0.00029500
20MABNDM000168_PR026
Spot 1     0.00266756     0.00142861
Spot 2     0.00250636     0.00142534
Spot 1     0.00266733     0.00142838
Spot 2     0.00250617     0.00142512
Spot 1     0.00266721     0.00142818
Spot 2     0.00250625     0.00142483
Spot 1     0.00266737     0.00142796
Spot 2     0.00250629     0.00142472
20MABNDM000168_20MABNDL000077
Spot 1     0.00154100     0.00130112
Spot 2     0.00176098     0.00131521
Spot 1     0.00154094     0.00130136
Spot 2     0.00176109     0.00131526
Spot 1     0.00154112     0.00130112
Spot 2     0.00176147     0.00131520
Spot 1     0.00154133     0.00130084
Spot 2     0.00176118     0.00131489
20MABNDM000168_PR001
Spot 1     0.00080818     0.00162131
Spot 2     0.00070541     0.00162326
Spot 1     0.00080818     0.00162112
Spot 2     0.00070563     0.00162307
Spot 1     0.00080822     0.00162115
Spot 2     0.00070571     0.00162302
Spot 1     0.00080801     0.00162122
Spot 2     0.00070573     0.00162325
20MABNDL000196_PR036
Spot 1     0.00094608     0.00163982
Spot 2     0.00111059     0.00163862
Spot 1     0.00094610     0.00163989
Spot 2     0.00111083     0.00163864
Spot 1     0.00094609     0.00163993
Spot 2     0.00111088     0.00163882
Spot 1     0.00094608     0.00163991
Spot 2     0.00111054     0.00163877
20MABNDL000196_PR037
Spot 1     0.00246923     0.00116886
Spot 2     0.00262427     0.00116696
Spot 1     0.00246933     0.00116892
Spot 2     0.00262418     0.00116723
Spot 1     0.00246948     0.00116898
Spot 2     0.00262422     0.00116702
Spot 1     0.00246952     0.00116898
Spot 2     0.00262408     0.00116724
20MABNDL000196_20MABNDM000020
Spot 1     0.00192537     0.00104172
Spot 2     0.00170396     0.00104734
Spot 1     0.00192526     0.00104177
Spot 2     0.00170414     0.00104734
Spot 1     0.00192542     0.00104182
Spot 2     0.00170438     0.00104741
Spot 1     0.00192531     0.00104173
Spot 2     0.00170398     0.00104746
20MABNDL000196_PR012
Spot 1     0.00265032     0.00134167
Spot 2     0.00272384     0.00138736
Spot 1     0.00265033     0.00134193
Spot 2     0.00272375     0.00138730
Spot 1     0.00318464     0.00175446
Spot 2     0.00272379     0.00138758
Spot 1     0.00265042     0.00134219
Spot 2     0.00272404     0.00138758
20MABNDA000318_PR004
Spot 1     0.00214623     0.00162500
Spot 2     0.00192846     0.00162489
Spot 1     0.00214642     0.00162512
Spot 2     0.00192797     0.00162505
Spot 1     0.00214613     0.00162487
Spot 2     0.00192783     0.00162513
Spot 1     0.00214609     0.00162477
Spot 2     0.00192817     0.00162511
20MABNDA000334_PR005
Spot 1     0.00247277     0.00158469
Spot 2     0.00219220     0.00158519
Spot 1     0.00247269     0.00158469
Spot 2     0.00219239     0.00158551
Spot 1     0.00247259     0.00158469
Spot 2     0.00219208     0.00158532
Spot 1     0.00247262     0.00158464
Spot 2     0.00219229     0.00158526
20MABNDB000317_PR015
Spot 1     0.00148858     0.00159896
Spot 2     0.00170787     0.00159327
Spot 1     0.00148834     0.00159916
Spot 2     0.00170791     0.00159352
Spot 1     0.00170783     0.00159333
Spot 2     0.00148848     0.00159887
Spot 1     0.00170797     0.00159350
Spot 2     0.00148857     0.00159891
20MABNDB000146_PR016
Spot 1     0.00144904     0.00133115
Spot 2     0.00172406     0.00133365
Spot 1     0.00144888     0.00133099
Spot 2     0.00172448     0.00133368
Spot 1     0.00144888     0.00133107
Spot 2     0.00172446     0.00133368
Spot 1     0.00144889     0.00133119
Spot 2     0.00172428     0.00133392
20MABNDB000135_PR027
Spot 1     0.00189198     0.00091609
Spot 2     0.00211020     0.00091768
Spot 1     0.00189188     0.00091600
Spot 2     0.00211022     0.00091766
Spot 1     0.00189194     0.00091614
Spot 2     0.00211003     0.00091794
Spot 1     0.00189197     0.00091609
Spot 2     0.00211034     0.00091781
20MABNDB000126_PR028
Spot 1     0.00164553     0.00200995
Spot 2     0.00192749     0.00201184
Spot 1     0.00164524     0.00200985
Spot 2     0.00192763     0.00201186
Spot 1     0.00164562     0.00200995
Spot 2     0.00192761     0.00201194
Spot 1     0.00164541     0.00200984
Spot 2     0.00192756     0.00201178
20MABNDA000272_PR038
Spot 1     0.00192395     0.00095509
Spot 2     0.00170267     0.00095483
Spot 1     0.00192416     0.00095487
Spot 2     0.00170272     0.00095467
Spot 1     0.00192391     0.00095518
Spot 2     0.00170250     0.00095483
Spot 1     0.00192392     0.00095532
Spot 2     0.00170284     0.00095466
20MABNDA000003_PR039
Spot 1     0.00200144     0.00193124
Spot 2     0.00228000     0.00193222
Spot 1     0.00200147     0.00193117
Spot 2     0.00227976     0.00193202
Spot 1     0.00200162     0.00193126
Spot 2     0.00227976     0.00193198
Spot 1     0.00200151     0.00193124
Spot 2     0.00227962     0.00193213
20MABNDA000196_PR006
Spot 1     0.00198566     0.00074337
Spot 2     0.00161959     0.00074082
Spot 1     0.00198575     0.00074342
Spot 2     0.00161971     0.00074086
Spot 1     0.00198567     0.00074340
Spot 2     0.00161966     0.00074102
Spot 1     0.00198566     0.00074333
Spot 2     0.00161964     0.00074093
20MABNDA000324_PR007
Spot 1     0.00194737     0.00120381
Spot 2     0.00174204     0.00120972
Spot 1     0.00194740     0.00120401
Spot 2     0.00174199     0.00120931
Spot 1     0.00194726     0.00120393
Spot 2     0.00174221     0.00120975
Spot 1     0.00194744     0.00120384
Spot 2     0.00174210     0.00120927
20MABNDB000001_PR017
Spot 1     0.00188744     0.00043733
Spot 2     0.00225548     0.00044690
Spot 1     0.00188734     0.00043742
Spot 2     0.00225582     0.00044680
Spot 1     0.00188740     0.00043737
Spot 2     0.00225597     0.00044677
Spot 1     0.00188727     0.00043733
Spot 2     0.00225581     0.00044694
20MABNDB000260_PR019
Spot 1     0.00192254     0.00150533
Spot 2     0.00212620     0.00150500
Spot 1     0.00192251     0.00150570
Spot 2     0.00212596     0.00150500
Spot 1     0.00192241     0.00150543
Spot 2     0.00212557     0.00150538
Spot 1     0.00192242     0.00150538
Spot 2     0.00212578     0.00150500
20MABNDB000212_PR029
Spot 1     0.00223718     0.00069337
Spot 2     0.00187500     0.00069539
Spot 1     0.00223712     0.00069348
Spot 2     0.00187500     0.00069538
Spot 1     0.00223726     0.00069329
Spot 2     0.00187463     0.00069519
Spot 1     0.00223702     0.00069338
Spot 2     0.00187481     0.00069538
20MABNDB000128_PR030
Spot 1     0.00190027     0.00200235
Spot 2     0.00210470     0.00199710
Spot 1     0.00190026     0.00200233
Spot 2     0.00210490     0.00199686
Spot 1     0.00190020     0.00200229
Spot 2     0.00210484     0.00199692
Spot 1     0.00190013     0.00200237
Spot 2     0.00210480     0.00199689
20MABNDA000444_PR040
Spot 1     0.00076022     0.00035341
Spot 2     0.00112662     0.00035095
Spot 1     0.00076007     0.00035333
Spot 2     0.00112710     0.00035093
Spot 1     0.00075975     0.00035358
Spot 2     0.00112687     0.00035060
Spot 1     0.00075979     0.00035343
Spot 2     0.00112673     0.00035073
20MABNDA000053_PR041
Spot 1     0.00166314     0.00198413
Spot 2     0.00144626     0.00197857
Spot 1     0.00166292     0.00198436
Spot 2     0.00144602     0.00197811
Spot 1     0.00166272     0.00198414
Spot 2     0.00144620     0.00197829
Spot 1     0.00166286     0.00198429
Spot 2     0.00144638     0.00197844
20MABNDB000069_PR031
Spot 1     0.00021500     0.00240500
Spot 2     0.00021500     0.00240500
Spot 1     0.00021500     0.00240500
Spot 2     0.00021500     0.00240500
Spot 1     0.00021500     0.00240500
Spot 2     0.00021500     0.00240500
Spot 1     0.00021500     0.00240500
Spot 2     0.00021500     0.00240500
20MABNDB000069_PR033
Spot 1     0.00182120     0.00206766
Spot 2     0.00229127     0.00208749
Spot 1     0.00182121     0.00206760
Spot 2     0.00229140     0.00208759
Spot 1     0.00182127     0.00206782
Spot 2     0.00229131     0.00208767
Spot 1     0.00182127     0.00206776
Spot 2     0.00229158     0.00208757
20MABNDB000131_PR032
Spot 1     0.00277692     0.00107753
Spot 2     0.00283720     0.00108068
Spot 1     0.00277690     0.00107777
Spot 2     0.00283721     0.00108079
Spot 1     0.00277697     0.00107759
Spot 2     0.00283723     0.00108091
Spot 1     0.00277670     0.00107741
Spot 2     0.00283707     0.00108091
20MABNDB000131_PR034
Spot 1     0.00092395     0.00032355
Spot 2     0.00110049     0.00032379
Spot 1     0.00092399     0.00032368
Spot 2     0.00110070     0.00032343
Spot 1     0.00092399     0.00032368
Spot 2     0.00110044     0.00032376
Spot 1     0.00092383     0.00032350
Spot 2     0.00110049     0.00032374
20MABNDA000208_PR042
Spot 1     0.00306039     0.00095221
Spot 2     0.00299402     0.00095258
Spot 1     0.00305953     0.00095296
Spot 2     0.00299405     0.00095193
Spot 1     0.00306004     0.00095322
Spot 2     0.00299454     0.00095197
Spot 1     0.00306000     0.00095294
Spot 2     0.00299434     0.00095219
20MABNDA000208_PR046
Spot 1     0.00144871     0.00220199
Spot 2     0.00097565     0.00220238
Spot 1     0.00144850     0.00220193
Spot 2     0.00097534     0.00220218
Spot 1     0.00144870     0.00220193
Spot 2     0.00097562     0.00220216
Spot 1     0.00144847     0.00220196
Spot 2     0.00097530     0.00220216
20MABNDA000035_PR044
Spot 1     0.00073757     0.00125669
Spot 2     0.00068128     0.00125035
Spot 1     0.00073802     0.00125655
Spot 2     0.00068145     0.00125064
Spot 1     0.00073786     0.00125668
Spot 2     0.00068126     0.00125056
Spot 1     0.00073777     0.00125654
Spot 2     0.00068087     0.00125073
20MABNDA000035_PR045
Spot 1     0.00254580     0.00047162
Spot 2     0.00236826     0.00047087
Spot 1     0.00254595     0.00047154
Spot 2     0.00236770     0.00047138
Spot 1     0.00254580     0.00047179
Spot 2     0.00236849     0.00047103
Spot 1     0.00254577     0.00047181
Spot 2     0.00236824     0.00047128
20MABNDA000188_PR008
Spot 1     0.00289500     0.00025500
Spot 2     0.00289500     0.00025500
Spot 1     0.00289500     0.00025500
Spot 2     0.00289500     0.00025500
Spot 1     0.00289500     0.00025500
Spot 2     0.00289500     0.00025500
Spot 1     0.00289500     0.00025500
Spot 2     0.00289500     0.00025500
20MABNDA000188_PR018
Spot 1     0.00166944     0.00176483
Spot 2     0.00120241     0.00176155
Spot 1     0.00166956     0.00176506
Spot 2     0.00120221     0.00176165
Spot 1     0.00166952     0.00176494
Spot 2     0.00120227     0.00176159
Spot 1     0.00166964     0.00176494
Spot 2     0.00120231     0.00176174
20MABNDA000039_PR009
Spot 1     0.00066468     0.00117677
Spot 2     0.00061704     0.00118121
Spot 1     0.00066492     0.00117675
Spot 2     0.00061760     0.00118143
Spot 1     0.00066484     0.00117692
Spot 2     0.00061746     0.00118129
Spot 1     0.00066472     0.00117676
Spot 2     0.00061739     0.00118141
20MABNDA000039_PR011
Spot 1     0.00276841     0.00028163
Spot 2     0.00259269     0.00027702
Spot 1     0.00276839     0.00028177
Spot 2     0.00259264     0.00027713
Spot 1     0.00276847     0.00028173
Spot 2     0.00259274     0.00027716
Spot 1     0.00276849     0.00028167
Spot 2     0.00259259     0.00027712
20MABNDB000155_PR020
Spot 1     0.00062069     0.00113138
Spot 2     0.00068477     0.00112740
Spot 1     0.00062102     0.00113149
Spot 2     0.00068538     0.00112732
Spot 1     0.00062060     0.00113157
Spot 2     0.00068495     0.00112729
Spot 1     0.00062106     0.00113134
Spot 2     0.00068519     0.00112737
20MABNDB000155_PR022
Spot 1     0.00210969     0.00140222
Spot 2     0.00258276     0.00139776
Spot 1     0.00210972     0.00140241
Spot 2     0.00258274     0.00139778
Spot 1     0.00210966     0.00140228
Spot 2     0.00258265     0.00139783
Spot 1     0.00210973     0.00140261
Spot 2     0.00258254     0.00139778
20MABNDB000010_PR021
Spot 1     0.00287056     0.00115285
Spot 2     0.00292340     0.00115556
Spot 1     0.00287063     0.00115310
Spot 2     0.00292320     0.00115558
Spot 1     0.00287069     0.00115301
Spot 2     0.00292322     0.00115571
Spot 1     0.00287067     0.00115294
Spot 2     0.00292337     0.00115607
20MABNDB000010_PR023
Spot 1     0.00131271     0.00031333
Spot 2     0.00148760     0.00031147
Spot 1     0.00131266     0.00031332
Spot 2     0.00148800     0.00031165
Spot 1     0.00131275     0.00031350
Spot 2     0.00148788     0.00031131
Spot 1     0.00131285     0.00031322
Spot 2     0.00148783     0.00031158


****************************************************************coordonnees images transformees dans le repere MOUNT************************************************************************* 
20MABNDL000077_PR002
Spot 1     0.01228489     0.03557429    -0.07463200
Spot 2     0.01138211     0.03420505    -0.07463200
Spot 1     0.01228382     0.03557793    -0.07463200
Spot 2     0.01138211     0.03420505    -0.07463200
Spot 1     0.01228636     0.03557289    -0.07463200
Spot 2     0.01138211     0.03420505    -0.07463200
Spot 1     0.01228879     0.03556896    -0.07463200
Spot 2     0.01138211     0.03420505    -0.07463200
Spot 1     0.01228708     0.03556525    -0.07463200
Spot 2     0.01138211     0.03420505    -0.07463200
20MABNDL000077_PR003
Spot 1     0.01245739     0.03556421    -0.07463200
Spot 2     0.01260679     0.03555898    -0.07463200
Spot 1     0.01245700     0.03556462    -0.07463200
Spot 2     0.01260644     0.03555895    -0.07463200
Spot 1     0.01245679     0.03556470    -0.07463200
Spot 2     0.01260660     0.03555929    -0.07463200
Spot 1     0.01245677     0.03556495    -0.07463200
Spot 2     0.01260664     0.03555946    -0.07463200
Spot 1     0.01245652     0.03556507    -0.07463200
Spot 2     0.01260688     0.03555930    -0.07463200
20MABNDL000077_20MABNDM000168
Spot 1    -0.01259238     0.03524604    -0.00695400
Spot 2    -0.01157915     0.03417830    -0.00695400
Spot 1    -0.01259210     0.03524640    -0.00695400
Spot 2    -0.01157915     0.03417830    -0.00695400
Spot 1    -0.01259216     0.03524664    -0.00695400
Spot 2    -0.01157915     0.03417830    -0.00695400
Spot 1    -0.01259204     0.03524681    -0.00695400
Spot 2    -0.01157915     0.03417830    -0.00695400
Spot 1    -0.01259204     0.03524666    -0.00695400
Spot 2    -0.01387118     0.03436485    -0.00695400
20MABNDL000077_PR024
Spot 1    -0.01338084     0.03548851    -0.00695400
Spot 2    -0.01347915     0.03549887    -0.00695400
Spot 1    -0.01338102     0.03548867    -0.00695400
Spot 2    -0.01347902     0.03549924    -0.00695400
Spot 1    -0.01338073     0.03548870    -0.00695400
Spot 2    -0.01347888     0.03549906    -0.00695400
Spot 1    -0.01338053     0.03548896    -0.00695400
Spot 2    -0.01347901     0.03549932    -0.00695400
20MABNDM000020_PR013
Spot 1    -0.01278295    -0.03417449    -0.00523500
Spot 2    -0.01302510    -0.03407982    -0.00523500
Spot 1    -0.01302510    -0.03407982    -0.00523500
Spot 2    -0.01278295    -0.03417449    -0.00523500
Spot 1    -0.01327614    -0.03403536    -0.00523500
Spot 2    -0.01302510    -0.03407982    -0.00523500
Spot 1    -0.01302510    -0.03407982    -0.00523500
Spot 2    -0.01302510    -0.03407982    -0.00523500
20MABNDM000020_PR014
Spot 1    -0.01128044    -0.03427129    -0.00523500
Spot 2    -0.01128044    -0.03427129    -0.00523500
Spot 1    -0.01128044    -0.03427129    -0.00523500
Spot 2    -0.01128044    -0.03427129    -0.00523500
Spot 1    -0.01128044    -0.03427129    -0.00523500
Spot 2    -0.01128044    -0.03427129    -0.00523500
Spot 1    -0.01128044    -0.03427129    -0.00523500
Spot 2    -0.01128044    -0.03427129    -0.00523500
20MABNDM000020_20MABNDL000196
Spot 1     0.01270906    -0.03514600    -0.07583800
Spot 2     0.01238113    -0.03407361    -0.07583800
Spot 1     0.01270902    -0.03514594    -0.07583800
Spot 2     0.01238113    -0.03407361    -0.07583800
Spot 1     0.01270909    -0.03514601    -0.07583800
Spot 2     0.01238113    -0.03407361    -0.07583800
Spot 1     0.01270912    -0.03514597    -0.07583800
Spot 2     0.01238113    -0.03407361    -0.07583800
20MABNDM000020_PR035
Spot 1     0.01341371    -0.03546303    -0.07583800
Spot 2     0.01349827    -0.03549965    -0.07583800
Spot 1     0.01341389    -0.03546283    -0.07583800
Spot 2     0.01349817    -0.03549973    -0.07583800
Spot 1     0.01341363    -0.03546281    -0.07583800
Spot 2     0.01349829    -0.03549956    -0.07583800
Spot 1     0.01341380    -0.03546317    -0.07583800
Spot 2     0.01349817    -0.03549966    -0.07583800
20MABNDM000168_PR025
Spot 1    -0.01406313    -0.03441577    -0.00532900
Spot 2    -0.01299288    -0.03447117    -0.00532900
Spot 1    -0.01291271    -0.03451083    -0.00532900
Spot 2    -0.01291271    -0.03451083    -0.00532900
Spot 1    -0.01291271    -0.03451083    -0.00532900
Spot 2    -0.01291271    -0.03451083    -0.00532900
Spot 1    -0.01318219    -0.03463199    -0.00532900
Spot 2    -0.01318219    -0.03463199    -0.00532900
20MABNDM000168_PR026
Spot 1    -0.01173478    -0.03575939    -0.00532900
Spot 2    -0.01189599    -0.03575681    -0.00532900
Spot 1    -0.01173501    -0.03575916    -0.00532900
Spot 2    -0.01189618    -0.03575659    -0.00532900
Spot 1    -0.01173513    -0.03575896    -0.00532900
Spot 2    -0.01189610    -0.03575630    -0.00532900
Spot 1    -0.01173497    -0.03575874    -0.00532900
Spot 2    -0.01189606    -0.03575619    -0.00532900
20MABNDM000168_20MABNDL000077
Spot 1     0.01288445    -0.03530176    -0.07445100
Spot 2     0.01266428    -0.03531263    -0.07445100
Spot 1     0.01288450    -0.03530200    -0.07445100
Spot 2     0.01266417    -0.03531268    -0.07445100
Spot 1     0.01288433    -0.03530176    -0.07445100
Spot 2     0.01266379    -0.03531261    -0.07445100
Spot 1     0.01288412    -0.03530148    -0.07445100
Spot 2     0.01266409    -0.03531231    -0.07445100
20MABNDM000168_PR001
Spot 1     0.01361250    -0.03563264    -0.07445100
Spot 2     0.01371523    -0.03563609    -0.07445100
Spot 1     0.01361251    -0.03563245    -0.07445100
Spot 2     0.01371502    -0.03563590    -0.07445100
Spot 1     0.01361247    -0.03563248    -0.07445100
Spot 2     0.01371494    -0.03563585    -0.07445100
Spot 1     0.01361267    -0.03563255    -0.07445100
Spot 2     0.01371491    -0.03563608    -0.07445100
20MABNDL000196_PR036
Spot 1     0.01192600     0.03582852    -0.07483600
Spot 2     0.01209052     0.03582766    -0.07483600
Spot 1     0.01192602     0.03582859    -0.07483600
Spot 2     0.01209076     0.03582768    -0.07483600
Spot 1     0.01192601     0.03582863    -0.07483600
Spot 2     0.01209081     0.03582786    -0.07483600
Spot 1     0.01192600     0.03582861    -0.07483600
Spot 2     0.01209047     0.03582781    -0.07483600
20MABNDL000196_PR037
Spot 1     0.01345013     0.03536074    -0.07483600
Spot 2     0.01360518     0.03535916    -0.07483600
Spot 1     0.01345023     0.03536080    -0.07483600
Spot 2     0.01360509     0.03535943    -0.07483600
Spot 1     0.01345038     0.03536086    -0.07483600
Spot 2     0.01360513     0.03535922    -0.07483600
Spot 1     0.01345042     0.03536086    -0.07483600
Spot 2     0.01360499     0.03535944    -0.07483600
20MABNDL000196_20MABNDM000020
Spot 1    -0.01274942     0.03531293    -0.00611000
Spot 2    -0.01252817     0.03532301    -0.00611000
Spot 1    -0.01274932     0.03531299    -0.00611000
Spot 2    -0.01252835     0.03532300    -0.00611000
Spot 1    -0.01274948     0.03531303    -0.00611000
Spot 2    -0.01252859     0.03532307    -0.00611000
Spot 1    -0.01274936     0.03531294    -0.00611000
Spot 2    -0.01252819     0.03532313    -0.00611000
20MABNDL000196_PR012
Spot 1    -0.01348026     0.03559824    -0.00611000
Spot 2    -0.01355469     0.03564244    -0.00611000
Spot 1    -0.01348028     0.03559850    -0.00611000
Spot 2    -0.01355460     0.03564238    -0.00611000
Spot 1    -0.01402278     0.03600019    -0.00611000
Spot 2    -0.01355464     0.03564266    -0.00611000
Spot 1    -0.01348037     0.03559875    -0.00611000
Spot 2    -0.01355489     0.03564265    -0.00611000
20MABNDA000318_PR004
Spot 1    -0.01286605     0.01247023    -0.07310600
Spot 2    -0.01264828     0.01247098    -0.07310600
Spot 1    -0.01286624     0.01247011    -0.07310600
Spot 2    -0.01264779     0.01247082    -0.07310600
Spot 1    -0.01286595     0.01247036    -0.07310600
Spot 2    -0.01264765     0.01247074    -0.07310600
Spot 1    -0.01286591     0.01247046    -0.07310600
Spot 2    -0.01264799     0.01247076    -0.07310600
20MABNDA000334_PR005
Spot 1    -0.01311588     0.01254370    -0.07324100
Spot 2    -0.01283531     0.01254294    -0.07324100
Spot 1    -0.01311580     0.01254370    -0.07324100
Spot 2    -0.01283550     0.01254262    -0.07324100
Spot 1    -0.01311570     0.01254370    -0.07324100
Spot 2    -0.01283519     0.01254281    -0.07324100
Spot 1    -0.01311573     0.01254375    -0.07324100
Spot 2    -0.01283540     0.01254287    -0.07324100
20MABNDB000317_PR015
Spot 1    -0.01266570    -0.01249908    -0.07326100
Spot 2    -0.01244636    -0.01250221    -0.07326100
Spot 1    -0.01266594    -0.01249888    -0.07326100
Spot 2    -0.01244632    -0.01250196    -0.07326100
Spot 1    -0.01244640    -0.01250215    -0.07326100
Spot 2    -0.01266580    -0.01249917    -0.07326100
Spot 1    -0.01244626    -0.01250198    -0.07326100
Spot 2    -0.01266571    -0.01249913    -0.07326100
20MABNDB000146_PR016
Spot 1    -0.01275932    -0.01246245    -0.07450500
Spot 2    -0.01248430    -0.01245934    -0.07450500
Spot 1    -0.01275948    -0.01246261    -0.07450500
Spot 2    -0.01248388    -0.01245931    -0.07450500
Spot 1    -0.01275948    -0.01246253    -0.07450500
Spot 2    -0.01248390    -0.01245931    -0.07450500
Spot 1    -0.01275947    -0.01246241    -0.07450500
Spot 2    -0.01248409    -0.01245907    -0.07450500
20MABNDB000135_PR027
Spot 1    -0.01251269    -0.01319694    -0.07464700
Spot 2    -0.01229447    -0.01319778    -0.07464700
Spot 1    -0.01251279    -0.01319703    -0.07464700
Spot 2    -0.01229445    -0.01319780    -0.07464700
Spot 1    -0.01251273    -0.01319689    -0.07464700
Spot 2    -0.01229463    -0.01319752    -0.07464700
Spot 1    -0.01251270    -0.01319694    -0.07464700
Spot 2    -0.01229432    -0.01319765    -0.07464700
20MABNDB000126_PR028
Spot 1    -0.01253401    -0.01217222    -0.07500400
Spot 2    -0.01225206    -0.01216882    -0.07500400
Spot 1    -0.01253430    -0.01217232    -0.07500400
Spot 2    -0.01225192    -0.01216880    -0.07500400
Spot 1    -0.01253392    -0.01217222    -0.07500400
Spot 2    -0.01225194    -0.01216872    -0.07500400
Spot 1    -0.01253413    -0.01217233    -0.07500400
Spot 2    -0.01225199    -0.01216888    -0.07500400
20MABNDA000272_PR038
Spot 1    -0.01275961     0.01315638    -0.07417900
Spot 2    -0.01253833     0.01315625    -0.07417900
Spot 1    -0.01275982     0.01315660    -0.07417900
Spot 2    -0.01253838     0.01315641    -0.07417900
Spot 1    -0.01275957     0.01315629    -0.07417900
Spot 2    -0.01253816     0.01315625    -0.07417900
Spot 1    -0.01275958     0.01315615    -0.07417900
Spot 2    -0.01253850     0.01315642    -0.07417900
20MABNDA000003_PR039
Spot 1    -0.01280254     0.01212103    -0.07373400
Spot 2    -0.01308110     0.01212076    -0.07373400
Spot 1    -0.01280257     0.01212110    -0.07373400
Spot 2    -0.01308086     0.01212095    -0.07373400
Spot 1    -0.01280272     0.01212101    -0.07373400
Spot 2    -0.01308086     0.01212099    -0.07373400
Spot 1    -0.01280261     0.01212103    -0.07373400
Spot 2    -0.01308072     0.01212084    -0.07373400
20MABNDA000196_PR006
Spot 1    -0.01294055     0.01323485    -0.07967100
Spot 2    -0.01257448     0.01323270    -0.07967100
Spot 1    -0.01294064     0.01323480    -0.07967100
Spot 2    -0.01257460     0.01323266    -0.07967100
Spot 1    -0.01294056     0.01323482    -0.07967100
Spot 2    -0.01257455     0.01323250    -0.07967100
Spot 1    -0.01294055     0.01323489    -0.07967100
Spot 2    -0.01257453     0.01323259    -0.07967100
20MABNDA000324_PR007
Spot 1    -0.01255315     0.01281777    -0.07446800
Spot 2    -0.01234778     0.01281346    -0.07446800
Spot 1    -0.01255318     0.01281757    -0.07446800
Spot 2    -0.01234773     0.01281387    -0.07446800
Spot 1    -0.01255304     0.01281765    -0.07446800
Spot 2    -0.01234795     0.01281343    -0.07446800
Spot 1    -0.01255322     0.01281774    -0.07446800
Spot 2    -0.01234784     0.01281391    -0.07446800
20MABNDB000001_PR017
Spot 1    -0.01230094    -0.01355220    -0.07418400
Spot 2    -0.01193282    -0.01354653    -0.07418400
Spot 1    -0.01230104    -0.01355211    -0.07418400
Spot 2    -0.01193248    -0.01354663    -0.07418400
Spot 1    -0.01230098    -0.01355216    -0.07418400
Spot 2    -0.01193233    -0.01354666    -0.07418400
Spot 1    -0.01230111    -0.01355220    -0.07418400
Spot 2    -0.01193249    -0.01354649    -0.07418400
20MABNDB000260_PR019
Spot 1    -0.01240885    -0.01239721    -0.07492700
Spot 2    -0.01220523    -0.01239337    -0.07492700
Spot 1    -0.01240889    -0.01239684    -0.07492700
Spot 2    -0.01220547    -0.01239337    -0.07492700
Spot 1    -0.01240899    -0.01239712    -0.07492700
Spot 2    -0.01220587    -0.01239300    -0.07492700
Spot 1    -0.01240897    -0.01239717    -0.07492700
Spot 2    -0.01220565    -0.01239338    -0.07492700
20MABNDB000212_PR029
Spot 1    -0.01185075    -0.01328794    -0.07390500
Spot 2    -0.01221288    -0.01328205    -0.07390500
Spot 1    -0.01185081    -0.01328783    -0.07390500
Spot 2    -0.01221288    -0.01328206    -0.07390500
Spot 1    -0.01185067    -0.01328802    -0.07390500
Spot 2    -0.01221326    -0.01328225    -0.07390500
Spot 1    -0.01185091    -0.01328792    -0.07390500
Spot 2    -0.01221307    -0.01328206    -0.07390500
20MABNDB000128_PR030
Spot 1    -0.01245486    -0.01221497    -0.07353400
Spot 2    -0.01225041    -0.01221951    -0.07353400
Spot 1    -0.01245487    -0.01221499    -0.07353400
Spot 2    -0.01225021    -0.01221975    -0.07353400
Spot 1    -0.01245493    -0.01221503    -0.07353400
Spot 2    -0.01225027    -0.01221969    -0.07353400
Spot 1    -0.01245500    -0.01221495    -0.07353400
Spot 2    -0.01225031    -0.01221972    -0.07353400
20MABNDA000444_PR040
Spot 1    -0.01170005     0.01367621    -0.07412000
Spot 2    -0.01206646     0.01367402    -0.07412000
Spot 1    -0.01169990     0.01367630    -0.07412000
Spot 2    -0.01206694     0.01367404    -0.07412000
Spot 1    -0.01169958     0.01367605    -0.07412000
Spot 2    -0.01206671     0.01367437    -0.07412000
Spot 1    -0.01169962     0.01367620    -0.07412000
Spot 2    -0.01206657     0.01367424    -0.07412000
20MABNDA000053_PR041
Spot 1    -0.01241967     0.01212653    -0.07430100
Spot 2    -0.01220273     0.01212785    -0.07430100
Spot 1    -0.01241946     0.01212629    -0.07430100
Spot 2    -0.01220248     0.01212831    -0.07430100
Spot 1    -0.01241925     0.01212651    -0.07430100
Spot 2    -0.01220266     0.01212813    -0.07430100
Spot 1    -0.01241940     0.01212636    -0.07430100
Spot 2    -0.01220284     0.01212798    -0.07430100
20MABNDB000069_PR031
Spot 1    -0.01361993    -0.01186066    -0.07388500
Spot 2    -0.01361993    -0.01186066    -0.07388500
Spot 1    -0.01361993    -0.01186066    -0.07388500
Spot 2    -0.01361993    -0.01186066    -0.07388500
Spot 1    -0.01361993    -0.01186066    -0.07388500
Spot 2    -0.01361993    -0.01186066    -0.07388500
Spot 1    -0.01361993    -0.01186066    -0.07388500
Spot 2    -0.01361993    -0.01186066    -0.07388500
20MABNDB000069_PR033
Spot 1    -0.01202902    -0.01226400    -0.07388500
Spot 2    -0.01155853    -0.01226359    -0.07388500
Spot 1    -0.01202901    -0.01226406    -0.07388500
Spot 2    -0.01155839    -0.01226349    -0.07388500
Spot 1    -0.01202894    -0.01226384    -0.07388500
Spot 2    -0.01155848    -0.01226341    -0.07388500
Spot 1    -0.01202894    -0.01226390    -0.07388500
Spot 2    -0.01155822    -0.01226352    -0.07388500
20MABNDB000131_PR032
Spot 1    -0.01144323    -0.01303722    -0.07533000
Spot 2    -0.01138297    -0.01303377    -0.07533000
Spot 1    -0.01144325    -0.01303698    -0.07533000
Spot 2    -0.01138296    -0.01303366    -0.07533000
Spot 1    -0.01144318    -0.01303716    -0.07533000
Spot 2    -0.01138294    -0.01303354    -0.07533000
Spot 1    -0.01144345    -0.01303735    -0.07533000
Spot 2    -0.01138310    -0.01303354    -0.07533000
20MABNDB000131_PR034
Spot 1    -0.01329238    -0.01380052    -0.07533000
Spot 2    -0.01311584    -0.01379940    -0.07533000
Spot 1    -0.01329234    -0.01380039    -0.07533000
Spot 2    -0.01311563    -0.01379975    -0.07533000
Spot 1    -0.01329234    -0.01380039    -0.07533000
Spot 2    -0.01311589    -0.01379943    -0.07533000
Spot 1    -0.01329250    -0.01380057    -0.07533000
Spot 2    -0.01311584    -0.01379945    -0.07533000
20MABNDA000208_PR042
Spot 1    -0.01393111     0.01304381    -0.07273700
Spot 2    -0.01386474     0.01304350    -0.07273700
Spot 1    -0.01393025     0.01304306    -0.07273700
Spot 2    -0.01386477     0.01304415    -0.07273700
Spot 1    -0.01393076     0.01304280    -0.07273700
Spot 2    -0.01386526     0.01304411    -0.07273700
Spot 1    -0.01393072     0.01304308    -0.07273700
Spot 2    -0.01386506     0.01304389    -0.07273700
20MABNDA000208_PR046
Spot 1    -0.01231833     0.01179544    -0.07273700
Spot 2    -0.01184527     0.01179547    -0.07273700
Spot 1    -0.01231812     0.01179550    -0.07273700
Spot 2    -0.01184496     0.01179567    -0.07273700
Spot 1    -0.01231832     0.01179550    -0.07273700
Spot 2    -0.01184524     0.01179569    -0.07273700
Spot 1    -0.01231809     0.01179547    -0.07273700
Spot 2    -0.01184492     0.01179569    -0.07273700
20MABNDA000035_PR044
Spot 1    -0.01157222     0.01300055    -0.07483200
Spot 2    -0.01151588     0.01300649    -0.07483200
Spot 1    -0.01157266     0.01300069    -0.07483200
Spot 2    -0.01151605     0.01300620    -0.07483200
Spot 1    -0.01157251     0.01300056    -0.07483200
Spot 2    -0.01151586     0.01300628    -0.07483200
Spot 1    -0.01157241     0.01300070    -0.07483200
Spot 2    -0.01151547     0.01300611    -0.07483200
20MABNDA000035_PR045
Spot 1    -0.01337481     0.01379846    -0.07483200
Spot 2    -0.01319727     0.01379795    -0.07483200
Spot 1    -0.01337496     0.01379855    -0.07483200
Spot 2    -0.01319672     0.01379744    -0.07483200
Spot 1    -0.01337482     0.01379829    -0.07483200
Spot 2    -0.01319751     0.01379779    -0.07483200
Spot 1    -0.01337479     0.01379827    -0.07483200
Spot 2    -0.01319726     0.01379754    -0.07483200
20MABNDA000188_PR008
Spot 1    -0.01391227     0.01380893    -0.07502000
Spot 2    -0.01391227     0.01380893    -0.07502000
Spot 1    -0.01391227     0.01380893    -0.07502000
Spot 2    -0.01391227     0.01380893    -0.07502000
Spot 1    -0.01391227     0.01380893    -0.07502000
Spot 2    -0.01391227     0.01380893    -0.07502000
Spot 1    -0.01391227     0.01380893    -0.07502000
Spot 2    -0.01391227     0.01380893    -0.07502000
20MABNDA000188_PR018
Spot 1    -0.01269968     0.01228866    -0.07502000
Spot 2    -0.01223264     0.01228794    -0.07502000
Spot 1    -0.01269981     0.01228843    -0.07502000
Spot 2    -0.01223244     0.01228784    -0.07502000
Spot 1    -0.01269977     0.01228855    -0.07502000
Spot 2    -0.01223250     0.01228790    -0.07502000
Spot 1    -0.01269989     0.01228855    -0.07502000
Spot 2    -0.01223255     0.01228775    -0.07502000
20MABNDA000039_PR009
Spot 1    -0.01162682     0.01306737    -0.07444800
Spot 2    -0.01157920     0.01306272    -0.07444800
Spot 1    -0.01162706     0.01306739    -0.07444800
Spot 2    -0.01157976     0.01306250    -0.07444800
Spot 1    -0.01162698     0.01306722    -0.07444800
Spot 2    -0.01157962     0.01306264    -0.07444800
Spot 1    -0.01162686     0.01306738    -0.07444800
Spot 2    -0.01157955     0.01306252    -0.07444800
20MABNDA000039_PR011
Spot 1    -0.01372665     0.01397160    -0.07444800
Spot 2    -0.01355091     0.01397545    -0.07444800
Spot 1    -0.01372663     0.01397146    -0.07444800
Spot 2    -0.01355087     0.01397534    -0.07444800
Spot 1    -0.01372671     0.01397150    -0.07444800
Spot 2    -0.01355097     0.01397531    -0.07444800
Spot 1    -0.01372673     0.01397156    -0.07444800
Spot 2    -0.01355082     0.01397535    -0.07444800
20MABNDB000155_PR020
Spot 1    -0.01364549    -0.01312598    -0.07501700
Spot 2    -0.01358136    -0.01312908    -0.07501700
Spot 1    -0.01364516    -0.01312586    -0.07501700
Spot 2    -0.01358075    -0.01312915    -0.07501700
Spot 1    -0.01364558    -0.01312579    -0.07501700
Spot 2    -0.01358118    -0.01312919    -0.07501700
Spot 1    -0.01364512    -0.01312601    -0.07501700
Spot 2    -0.01358094    -0.01312911    -0.07501700
20MABNDB000155_PR022
Spot 1    -0.01216034    -0.01283478    -0.07501700
Spot 2    -0.01168725    -0.01283276    -0.07501700
Spot 1    -0.01216031    -0.01283459    -0.07501700
Spot 2    -0.01168727    -0.01283274    -0.07501700
Spot 1    -0.01216037    -0.01283472    -0.07501700
Spot 2    -0.01168736    -0.01283270    -0.07501700
Spot 1    -0.01216030    -0.01283439    -0.07501700
Spot 2    -0.01168747    -0.01283275    -0.07501700
20MABNDB000010_PR021
Spot 1    -0.01158044    -0.01292563    -0.07358200
Spot 2    -0.01152766    -0.01292203    -0.07358200
Spot 1    -0.01158038    -0.01292538    -0.07358200
Spot 2    -0.01152786    -0.01292201    -0.07358200
Spot 1    -0.01158032    -0.01292547    -0.07358200
Spot 2    -0.01152784    -0.01292188    -0.07358200
Spot 1    -0.01158033    -0.01292554    -0.07358200
Spot 2    -0.01152770    -0.01292152    -0.07358200
20MABNDB000010_PR023
Spot 1    -0.01312385    -0.01379142    -0.07358200
Spot 2    -0.01294895    -0.01379032    -0.07358200
Spot 1    -0.01312390    -0.01379143    -0.07358200
Spot 2    -0.01294855    -0.01379013    -0.07358200
Spot 1    -0.01312381    -0.01379125    -0.07358200
Spot 2    -0.01294867    -0.01379047    -0.07358200
Spot 1    -0.01312371    -0.01379153    -0.07358200
Spot 2    -0.01294872    -0.01379020    -0.07358200


*****************************************************************coordonnees du prisme dans le repere MOUNT********************************************************************************** 
20MABNDL000077_PR002
    0.05510586     0.05511770     3.70682931
    0.05513241     0.05502778     3.70682931
    0.05506963     0.05515239     3.70682955
    0.05500955     0.05524930     3.70682955
    0.05505192     0.05534103     3.70682859
20MABNDL000077_PR003
    0.02099892     0.02120488     3.89601707
    0.02101830     0.02119483     3.89601707
    0.02101949     0.02118418     3.89601660
    0.02101887     0.02117328     3.89601660
    0.02101913     0.02117431     3.89601660
20MABNDL000077_20MABNDM000168
   -0.05597386     0.07583457    -5.46843529
   -0.05598420     0.07582183    -5.46843529
   -0.05598195     0.07581319    -5.46843529
   -0.05598621     0.07580701    -5.46843529
    0.02678931     0.06907579    -5.46851063
20MABNDL000077_PR024
    0.04539248     0.01806313    -5.89640427
    0.04539425     0.01804210    -5.89640427
    0.04537743     0.01804816    -5.89640427
    0.04537491     0.01802787    -5.89640427
20MABNDM000020_PR013
    0.00107112    -0.08578172    -3.80212831
    0.00107128    -0.08578179    -3.80212831
    0.01330696    -0.08923197    -3.80201483
    0.00707881    -0.08812969    -3.80206895
20MABNDM000020_PR014
   -0.09646920    -0.08948103    -4.74775267
   -0.09646920    -0.08948103    -4.74775267
   -0.09646920    -0.08948103    -4.74775267
   -0.09646920    -0.08948103    -4.74775267
20MABNDM000020_20MABNDL000196
    0.02685991    -0.07126707     5.39469624
    0.02686135    -0.07126922     5.39469624
    0.02685884    -0.07126671     5.39469624
    0.02685776    -0.07126815     5.39469624
20MABNDM000020_PR035
   -0.04226337    -0.00677534     5.80095673
   -0.04226644    -0.00677997     5.80095673
   -0.04226105    -0.00678729     5.80095673
   -0.04226298    -0.00676956     5.80095673
20MABNDM000168_PR025
    0.02908755    -0.08007935    -3.78830051
   -0.00133555    -0.07675161    -3.78855658
   -0.00133555    -0.07675161    -3.78855658
    0.01198998    -0.07076043    -3.78855300
20MABNDM000168_PR026
   -0.05786150    -0.01396857    -3.98429012
   -0.05785052    -0.01398023    -3.98429084
   -0.05784943    -0.01399298    -3.98429084
   -0.05785460    -0.01400160    -3.98429084
20MABNDM000168_20MABNDL000077
    0.01165580    -0.03835013     5.38884687
    0.01165775    -0.03833974     5.38884687
    0.01167771    -0.03835081     5.38884687
    0.01167453    -0.03837196     5.38884687
20MABNDM000168_PR001
   -0.05739152    -0.01316650     5.81470394
   -0.05738322    -0.01318135     5.81470490
   -0.05737858    -0.01318220     5.81470490
   -0.05738577    -0.01317046     5.81470490
20MABNDL000196_PR036
    0.05136461     0.00594694     3.68777180
    0.05135823     0.00594472     3.68777180
    0.05135726     0.00593931     3.68777180
    0.05136585     0.00594105     3.68777180
20MABNDL000196_PR037
   -0.02515189     0.02855925     3.88381290
   -0.02515213     0.02855071     3.88381290
   -0.02515705     0.02855458     3.88381290
   -0.02515445     0.02854890     3.88381290
20MABNDL000196_20MABNDM000020
   -0.01573873     0.03786209    -5.47473907
   -0.01573618     0.03786035    -5.47473907
   -0.01572173     0.03785633    -5.47473907
   -0.01574008     0.03785739    -5.47473907
20MABNDL000196_PR012
    0.05231038     0.01450690    -5.91537285
    0.05230742     0.01449907    -5.91537285
    0.07338734    -0.00112073    -5.91502094
    0.05232261     0.01447839    -5.91537189
20MABNDA000318_PR004
   -0.00844041     0.03835244     2.74965954
   -0.00844593     0.03835756     2.74965906
   -0.00845381     0.03835442     2.74965954
   -0.00844830     0.03835223     2.74965954
20MABNDA000334_PR005
   -0.00428498     0.03165415     2.14977217
   -0.00428340     0.03165872     2.14977217
   -0.00428926     0.03165601     2.14977217
   -0.00428583     0.03165444     2.14977217
20MABNDB000317_PR015
   -0.01739714    -0.03396971     2.75129032
   -0.01739341    -0.03397786     2.75129032
   -0.01739457    -0.03396913     2.75129032
   -0.01739872    -0.03397300     2.75129032
20MABNDB000146_PR016
   -0.01355663    -0.03175714     2.15201306
   -0.01356037    -0.03175528     2.15201306
   -0.01356008    -0.03175643     2.15201306
   -0.01355763    -0.03176160     2.15201306
20MABNDB000135_PR027
   -0.02103969    -0.00985216     2.74937105
   -0.02103820    -0.00985016     2.74937105
   -0.02103590    -0.00985789     2.74937105
   -0.02104210    -0.00985452     2.74937105
20MABNDB000126_PR028
   -0.02035648    -0.03898874     2.14679480
   -0.02035435    -0.03898758     2.14679480
   -0.02035946    -0.03899018     2.14679480
   -0.02035578    -0.03898631     2.14679480
20MABNDA000272_PR038
   -0.01319385     0.01095375     2.74965882
   -0.01318910     0.01094678     2.74965882
   -0.01319769     0.01095541     2.74965882
   -0.01319128     0.01095485     2.74965882
20MABNDA000003_PR039
   -0.00590892     0.04138645     2.14891338
   -0.00591193     0.04138260     2.14891338
   -0.00590978     0.04138330     2.14891338
   -0.00591335     0.04138517     2.14891338
20MABNDA000196_PR006
   -0.01040759     0.01023865     1.64206433
   -0.01040528     0.01023961     1.64206433
   -0.01040668     0.01024116     1.64206433
   -0.01040703     0.01023941     1.64206433
20MABNDA000324_PR007
   -0.02526646     0.02752836     2.95549345
   -0.02526682     0.02752422     2.95549345
   -0.02526530     0.02753132     2.95549345
   -0.02526383     0.02752011     2.95549345
20MABNDB000001_PR017
   -0.02414607    -0.00281342     1.64035964
   -0.02414868    -0.00281329     1.64035940
   -0.02415097    -0.00281239     1.64035940
   -0.02414782    -0.00281384     1.64035940
20MABNDB000260_PR019
   -0.02436454    -0.03845118     2.95627403
   -0.02435907    -0.03845835     2.95627403
   -0.02434938    -0.03846032     2.95627403
   -0.02435389    -0.03845195     2.95627451
20MABNDB000212_PR029
   -0.02545902    -0.00831936     1.64223695
   -0.02545837    -0.00832047     1.64223695
   -0.02545581    -0.00831633     1.64223695
   -0.02545518    -0.00831941     1.64223695
20MABNDB000128_PR030
   -0.01927771    -0.04685281     2.95496273
   -0.01928146    -0.04684772     2.95496273
   -0.01927910    -0.04684810     2.95496273
   -0.01927693    -0.04684907     2.95496273
20MABNDA000444_PR040
   -0.02991794     0.00090256     1.64491177
   -0.02991431     0.00090151     1.64491177
   -0.02992032     0.00090055     1.64491177
   -0.02992141     0.00090032     1.64491177
20MABNDA000053_PR041
   -0.02642809     0.05075199     2.95450902
   -0.02643721     0.05074765     2.95450902
   -0.02643761     0.05074687     2.95450902
   -0.02643122     0.05075264     2.95450902
20MABNDB000069_PR031
    0.10999375    -0.16176865     9.20229721
    0.10999375    -0.16176865     9.20229721
    0.10999375    -0.16176865     9.20229721
    0.10999375    -0.16176865     9.20229721
20MABNDB000069_PR033
   -0.02677164    -0.02692390     1.28394127
   -0.02677285    -0.02692419     1.28394127
   -0.02677270    -0.02692677     1.28394127
   -0.02677495    -0.02692530     1.28394127
20MABNDB000131_PR032
   -0.18796332    -0.02974718    11.00642204
   -0.18796247    -0.02977275    11.00642204
   -0.18796906    -0.02976840    11.00642014
   -0.18793771    -0.02975509    11.00642204
20MABNDB000131_PR034
    0.01432613     0.01651220     3.43337870
    0.01432041     0.01651741     3.43337870
    0.01432637     0.01650992     3.43337870
    0.01432885     0.01651450     3.43337870
20MABNDA000208_PR042
    0.13265273     0.01458858     9.20144558
    0.13260177     0.01459467     9.20144749
    0.13266312     0.01461314     9.20144558
    0.13264841     0.01460944     9.20144749
20MABNDA000208_PR046
   -0.02348242     0.03461438     1.28208184
   -0.02348686     0.03461216     1.28208184
   -0.02348275     0.03461199     1.28208184
   -0.02348745     0.03461224     1.28208184
20MABNDA000035_PR044
   -0.18002640     0.02663320    11.00802231
   -0.17998096     0.02664385    11.00802231
   -0.18000653     0.02664769    11.00802231
   -0.18004164     0.02665014    11.00802231
20MABNDA000035_PR045
    0.01461207    -0.01894500     3.43483734
    0.01460279    -0.01893513     3.43483734
    0.01461738    -0.01893751     3.43483734
    0.01461103    -0.01893131     3.43483734
20MABNDA000188_PR008
    0.13650158    -0.07885031     9.20339394
    0.13650158    -0.07885031     9.20339394
    0.13650158    -0.07885031     9.20339394
    0.13650158    -0.07885031     9.20339394
20MABNDA000188_PR018
   -0.01664565     0.02630569     1.28357637
   -0.01664631     0.02630853     1.28357637
   -0.01664615     0.02630698     1.28357637
   -0.01664477     0.02630826     1.28357637
20MABNDA000039_PR009
   -0.17107470     0.02513814    11.00701714
   -0.17101616     0.02515252    11.00701904
   -0.17103225     0.02515478    11.00701904
   -0.17104611     0.02515191    11.00701714
20MABNDA000039_PR011
    0.03078993    -0.02455368     3.43347049
    0.03078836    -0.02454797     3.43347073
    0.03079246    -0.02454821     3.43347049
    0.03078948    -0.02455048     3.43347049
20MABNDB000155_PR020
    0.10208454    -0.00913063     9.20028305
    0.10202687    -0.00913326     9.20028496
    0.10207908    -0.00913561     9.20028305
    0.10203600    -0.00912699     9.20028496
20MABNDB000155_PR022
   -0.02555427    -0.01758920     1.28070855
   -0.02555433    -0.01759100     1.28070855
   -0.02555306    -0.01759030     1.28070855
   -0.02555269    -0.01759268     1.28070855
20MABNDB000010_PR021
   -0.17628381    -0.03369361    11.00694466
   -0.17627393    -0.03371329    11.00694466
   -0.17627975    -0.03371633    11.00694466
   -0.17628896    -0.03373781    11.00694466
20MABNDB000010_PR023
    0.00429253     0.02025004     3.43377113
    0.00428457     0.02024602     3.43377209
    0.00428520     0.02024969     3.43377209
    0.00428405     0.02024991     3.43377209


*****************************************************************coordonnees du prisme dans le repere ATLAS********************************************************************************** 
20MABNDL000077_PR002 0.00000000
    2.80192494    -3.68940020     6.48614931
    2.80201483    -3.68937373     6.48614931
    2.80189013    -3.68943644     6.48614979
    2.80179334    -3.68949652     6.48614979
    2.80170155    -3.68945408     6.48614883
20MABNDL000077_PR003 0.00000000
    2.83601236    -3.72375131     6.67526150
    2.83602238    -3.72373199     6.67526150
    2.83603311    -3.72373080     6.67526102
    2.83604383    -3.72373152     6.67526102
    2.83604288    -3.72373128     6.67526102
20MABNDL000077_20MABNDM000168 0.00000000
    2.77217269    -3.78915310    -2.68922043
    2.77218556    -3.78916335    -2.68922043
    2.77219415    -3.78916097    -2.68922043
    2.77220035    -3.78916526    -2.68922043
    2.77895784    -3.70639205    -2.68920016
20MABNDL000077_PR024 0.00000000
    2.82955670    -3.68727708    -3.11712050
    2.82957768    -3.68727541    -3.11712050
    2.82957172    -3.68729210    -3.11712050
    2.82959199    -3.68729472    -3.11712050
20MABNDM000020_PR013 0.00000000
   -2.76652908    -3.74057555     6.48595381
   -2.76652908    -3.74057579     6.48595381
   -2.76308274    -3.75281239     6.48583031
   -2.76418304    -3.74658394     6.48588943
20MABNDM000020_PR014 0.00000000
   -2.76261067    -3.64375567     7.43165112
   -2.76261067    -3.64375567     7.43165112
   -2.76261067    -3.64375567     7.43165112
   -2.76261067    -3.64375567     7.43165112
20MABNDM000020_20MABNDL000196 0.00000000
   -2.78289223    -3.75936532    -2.71088481
   -2.78289008    -3.75936675    -2.71088481
   -2.78289247    -3.75936437    -2.71088481
   -2.78289104    -3.75936317    -2.71088481
20MABNDM000020_PR035 0.00000000
   -2.84744406    -3.68991351    -3.11707973
   -2.84743953    -3.68991041    -3.11707973
   -2.84743214    -3.68991566    -3.11707973
   -2.84744978    -3.68991375    -3.11707973
20MABNDM000168_PR025 0.00000000
    2.77315450    -3.77440095    -6.47891188
    2.77649045    -3.74397898    -6.47917938
    2.77649045    -3.74397898    -6.47917938
    2.78247809    -3.75730610    -6.47917128
20MABNDM000168_PR026 0.00000000
    2.83927655    -3.68754244    -6.67493773
    2.83926487    -3.68755341    -6.67493820
    2.83925200    -3.68755436    -6.67493820
    2.83924341    -3.68754911    -6.67493820
20MABNDM000168_20MABNDL000077 0.00000000
    2.81544542    -3.75356793     2.69822621
    2.81545568    -3.75356984     2.69822621
    2.81544471    -3.75358987     2.69822621
    2.81542349    -3.75358677     2.69822621
20MABNDM000168_PR001 0.00000000
    2.84067297    -3.68436909     3.12405586
    2.84065819    -3.68437719     3.12405682
    2.84065747    -3.68438196     3.12405682
    2.84066916    -3.68437481     3.12405682
20MABNDL000196_PR036 0.00000000
   -2.84766054    -3.69290996    -6.47909546
   -2.84766269    -3.69291615    -6.47909546
   -2.84766817    -3.69291735    -6.47909546
   -2.84766650    -3.69290853    -6.47909546
20MABNDL000196_PR037 0.00000000
   -2.82501698    -3.76959825    -6.67506552
   -2.82502556    -3.76959848    -6.67506552
   -2.82502151    -3.76960325    -6.67506552
   -2.82502723    -3.76960087    -6.67506552
20MABNDL000196_20MABNDM000020 0.00000000
   -2.81551623    -3.75147533     2.68347335
   -2.81551790    -3.75147295     2.68347335
   -2.81552196    -3.75145841     2.68347335
   -2.81552100    -3.75147676     2.68347335
20MABNDL000196_PR012 0.00000000
   -2.83889365    -3.68302727     3.12404418
   -2.83890128    -3.68303037     3.12404418
   -2.85453105    -3.66195798     3.12367296
   -2.83892202    -3.68301511     3.12404323
20MABNDA000318_PR004 0.00000000
    2.61456275    -4.19698858     3.83364630
    2.61455727    -4.19698906     3.83364105
    2.61454940    -4.19698858     3.83364415
    2.61455488    -4.19698858     3.83364654
20MABNDA000334_PR005 0.00000000
    2.61671352    -4.19703102     5.89760685
    2.61671519    -4.19703102     5.89760208
    2.61670923    -4.19703102     5.89760494
    2.61671281    -4.19703102     5.89760637
20MABNDB000317_PR015 0.00000000
   -2.61121011    -4.19700575     3.83604574
   -2.61121368    -4.19700575     3.83603764
   -2.61121249    -4.19700575     3.83604622
   -2.61120844    -4.19700575     3.83604240
20MABNDB000146_PR016 0.00000000
   -2.61273861    -4.19702482     5.89859295
   -2.61273479    -4.19702482     5.89859486
   -2.61273503    -4.19702482     5.89859390
   -2.61273766    -4.19702482     5.89858866
20MABNDB000135_PR027 0.00000000
    2.60382366    -4.19700432    -3.82550859
    2.60382509    -4.19700432    -3.82551074
    2.60382748    -4.19700432    -3.82550287
    2.60382128    -4.19700432    -3.82550645
20MABNDB000126_PR028 0.00000000
    2.60556078    -4.19702148    -5.89323092
    2.60556293    -4.19702148    -5.89323235
    2.60555792    -4.19702148    -5.89322948
    2.60556149    -4.19702148    -5.89323378
20MABNDA000272_PR038 0.00000000
   -2.61134291    -4.19698286    -3.82753062
   -2.61134768    -4.19698286    -3.82753754
   -2.61133909    -4.19698286    -3.82752895
   -2.61134553    -4.19698286    -3.82752943
20MABNDA000003_PR039 0.00000000
   -2.61582232    -4.19702291    -5.89138031
   -2.61581922    -4.19702291    -5.89138412
   -2.61582136    -4.19702291    -5.89138317
   -2.61581779    -4.19702291    -5.89138174
20MABNDA000196_PR006 0.00000000
    2.58486819    -4.19496393     6.54819536
    2.58486581    -4.19496393     6.54819632
    2.58486724    -4.19496393     6.54819775
    2.58486748    -4.19496393     6.54819584
20MABNDA000324_PR007 0.00000000
    2.59404826    -4.13996458     6.94838667
    2.59404802    -4.13996458     6.94839096
    2.59404945    -4.13996458     6.94838381
    2.59405088    -4.13996458     6.94839525
20MABNDB000001_PR017 0.00000000
   -2.59784746    -4.19505835     6.53814173
   -2.59785008    -4.19505882     6.53814125
   -2.59785223    -4.19505882     6.53814030
   -2.59784913    -4.19505882     6.53814173
20MABNDB000260_PR019 0.00000000
   -2.60439730    -4.13996029     6.94219303
   -2.60440278    -4.13996029     6.94218540
   -2.60441256    -4.13996029     6.94218349
   -2.60440803    -4.13995981     6.94219208
20MABNDB000212_PR029 0.00000000
    2.59913683    -4.19501162    -6.54730701
    2.59913611    -4.19501162    -6.54730844
    2.59913349    -4.19501162    -6.54730415
    2.59913301    -4.19501162    -6.54730701
20MABNDB000128_PR030 0.00000000
    2.60958099    -4.14002705    -6.93126822
    2.60957718    -4.14002705    -6.93127346
    2.60957956    -4.14002705    -6.93127298
    2.60958171    -4.14002705    -6.93127203
20MABNDA000444_PR040 0.00000000
   -2.60509038    -4.19509745    -6.54008293
   -2.60508680    -4.19509745    -6.54008198
   -2.60509276    -4.19509745    -6.54008102
   -2.60509396    -4.19509745    -6.54008055
20MABNDA000053_PR041 0.00000000
   -2.59411383    -4.14012241    -6.92716169
   -2.59410477    -4.14012241    -6.92716599
   -2.59410429    -4.14012241    -6.92716646
   -2.59411073    -4.14012241    -6.92716074
20MABNDB000069_PR031 0.00000000
    3.69177032     3.84800911    -7.77863359
    3.69177032     3.84800911    -7.77863359
    3.69177032     3.84800911    -7.77863359
    3.69177032     3.84800911    -7.77863359
20MABNDB000069_PR033 0.00000000
    3.53352785    -4.07046223    -7.87874746
    3.53352666    -4.07046223    -7.87874699
    3.53352666    -4.07046223    -7.87874460
    3.53352451    -4.07046223    -7.87874603
20MABNDB000131_PR032 0.00000000
    3.86876583     3.64757204   -12.94038963
    3.86876488     3.64757204   -12.94041538
    3.86877155     3.64757013   -12.94041157
    3.86874008     3.64757204   -12.94039822
20MABNDB000131_PR034 0.00000000
    3.67346311    -3.92563772   -12.89143562
    3.67346883    -3.92563772   -12.89142990
    3.67346287    -3.92563772   -12.89143753
    3.67346048    -3.92563772   -12.89143276
20MABNDA000208_PR042 0.00000000
   -3.68273091     3.84912586    -7.89689779
   -3.68267989     3.84912753    -7.89689159
   -3.68274117     3.84912586    -7.89687347
   -3.68272662     3.84912777    -7.89687681
20MABNDA000208_PR046 0.00000000
   -3.53228307    -4.07034016    -7.87390375
   -3.53227854    -4.07034016    -7.87390614
   -3.53228283    -4.07034016    -7.87390614
   -3.53227806    -4.07034016    -7.87390614
20MABNDA000035_PR044 0.00000000
   -3.86926746     3.64757752   -12.93231201
   -3.86922193     3.64757752   -12.93232250
   -3.86924744     3.64757752   -12.93232632
   -3.86928248     3.64757752   -12.93232918
20MABNDA000035_PR045 0.00000000
   -3.67611623    -3.92564988   -12.88743973
   -3.67612553    -3.92564988   -12.88744926
   -3.67611098    -3.92564988   -12.88744640
   -3.67611742    -3.92564988   -12.88745308
20MABNDA000188_PR008 0.00000000
    3.54951787     3.84898496     8.09023857
    3.54951787     3.84898496     8.09023857
    3.54951787     3.84898496     8.09023857
    3.54951787     3.84898496     8.09023857
20MABNDA000188_PR018 0.00000000
    3.52049875    -4.07060432     7.89713621
    3.52049804    -4.07060432     7.89713335
    3.52049828    -4.07060432     7.89713478
    3.52049971    -4.07060432     7.89713335
20MABNDA000039_PR009 0.00000000
    3.87524676     3.64747548    12.93643188
    3.87518811     3.64747739    12.93644619
    3.87520432     3.64747739    12.93644905
    3.87521815     3.64747548    12.93644619
20MABNDA000039_PR011 0.00000000
    3.66423416    -3.92580533    12.88428307
    3.66423583    -3.92580509    12.88428879
    3.66423178    -3.92580533    12.88428879
    3.66423464    -3.92580533    12.88428593
20MABNDB000155_PR020 0.00000000
   -3.68073678     3.84881616     7.89773655
   -3.68067908     3.84881830     7.89773369
   -3.68073130     3.84881616     7.89773178
   -3.68068838     3.84881806     7.89774036
20MABNDB000155_PR022 0.00000000
   -3.53442621    -4.07043648     7.89047003
   -3.53442621    -4.07043648     7.89046812
   -3.53442740    -4.07043648     7.89046907
   -3.53442788    -4.07043648     7.89046669
20MABNDB000010_PR021 0.00000000
   -3.86212111     3.64768219    12.93552303
   -3.86211109     3.64768219    12.93554306
   -3.86211705     3.64768219    12.93554592
   -3.86212611     3.64768219    12.93556786
20MABNDB000010_PR023 0.00000000
   -3.68537378    -3.92560554    12.88502598
   -3.68538189    -3.92560458    12.88502979
   -3.68538117    -3.92560458    12.88502598
   -3.68538237    -3.92560458    12.88502598


*****************************************************************Rapport********************************************************************************** 
CAM-LBA-US_EBA-US-HO-H         2017.08.29.19.45.07     2.80186496    -3.68943219     6.48614941     0.00010819     0.00004261     0.00000036 0.00000000 VRAI 
CAM-LBA-US_JDA-US-H            2017.08.29.19.45.07     2.83603091    -3.72373538     6.67526121     0.00001210     0.00000797     0.00000023 0.00000000 VRAI 
CAM-LBA-US_CAM-LBC-US          2017.08.29.19.45.07     2.77354212    -3.77260695    -2.68921638     0.00270788     0.03310745     0.00000811 0.00000000 VRAI 
CAM-LBA-US_EBC-US-IP-H         2017.08.29.19.45.07     2.82957453    -3.68728483    -3.11712050     0.00001265     0.00000865     0.00000000 0.00000000 VRAI 
CAM-LBA-USA_EBA-USA-HO-H       2017.08.29.19.45.07    -2.76508099    -3.74513692     6.48590684     0.00149944     0.00506499     0.00005141 0.00000000 VRAI 
CAM-LBA-USA_JDA-USA-H          2017.08.29.19.45.07    -2.76261067    -3.64375567     7.43165112     0.00000000     0.00000000     0.00000000 0.00000000 VRAI 
CAM-LBA-USA_CAM-LBC-USA        2017.08.29.19.45.07    -2.78289145    -3.75936490    -2.71088481     0.00000096     0.00000131     0.00000000 0.00000000 VRAI 
CAM-LBA-USA_EBC-USA-IP-H       2017.08.29.19.45.07    -2.84744138    -3.68991333    -3.11707973     0.00000645     0.00000188     0.00000000 0.00000000 VRAI 
CAM-LBC-US_EBC-US-HO-H         2017.08.29.19.45.07     2.77715337    -3.75491625    -6.47911048     0.00336239     0.01249613     0.00011471 0.00000000 VRAI 
CAM-LBC-US_JDC-US-H            2017.08.29.19.45.07     2.83925921    -3.68754983    -6.67493808     0.00001259     0.00000470     0.00000021 0.00000000 VRAI 
CAM-LBC-US_CAM-LBA-US          2017.08.29.19.45.07     2.81544232    -3.75357860     2.69822621     0.00001171     0.00000980     0.00000000 0.00000000 VRAI 
CAM-LBC-US_EBA-US-IP-H         2017.08.29.19.45.07     2.84066445    -3.68437576     3.12405658     0.00000676     0.00000464     0.00000041 0.00000000 VRAI 
CAM-LBC-USA_EBC-USA-HO-H       2017.08.29.19.45.07    -2.84766448    -3.69291300    -6.47909546     0.00000302     0.00000381     0.00000000 0.00000000 VRAI 
CAM-LBC-USA_JDC-USA-H          2017.08.29.19.45.07    -2.82502282    -3.76960021    -6.67506552     0.00000396     0.00000203     0.00000000 0.00000000 VRAI 
CAM-LBC-USA_CAM-LBA-USA        2017.08.29.19.45.07    -2.81551927    -3.75147086     2.68347335     0.00000231     0.00000732     0.00000000 0.00000000 VRAI 
CAM-LBC-USA_EBA-USA-IP-H       2017.08.29.19.45.07    -2.84281200    -3.67775768     3.12395114     0.00676600     0.00912196     0.00016060 0.00000000 VRAI 
CAM-EBA-US-IP_EBA-US-IP        2017.08.29.19.45.07     2.61455607    -4.19698870     3.83364451     0.00000480     0.00000021     0.00000220 0.00000000 VRAI 
CAM-EBA-US-HO_EBA-US-HO        2017.08.29.19.45.07     2.61671269    -4.19703102     5.89760506     0.00000218     0.00000000     0.00000186 0.00000000 VRAI 
CAM-EBA-USA-IP_EBA-USA-IP      2017.08.29.19.45.07    -2.61121118    -4.19700575     3.83604300     0.00000204     0.00000000     0.00000343 0.00000000 VRAI 
CAM-EBA-USA-HO_EBA-USA-HO      2017.08.29.19.45.07    -2.61273652    -4.19702482     5.89859259     0.00000165     0.00000000     0.00000237 0.00000000 VRAI 
CAM-EBC-US-IP_EBC-US-IP        2017.08.29.19.45.07     2.60382438    -4.19700432    -3.82550716     0.00000225     0.00000000     0.00000291 0.00000000 VRAI 
CAM-EBC-US-HO_EBC-US-HO        2017.08.29.19.45.07     2.60556078    -4.19702148    -5.89323163     0.00000182     0.00000000     0.00000160 0.00000000 VRAI 
CAM-EBC-USA-IP_EBC-USA-IP      2017.08.29.19.45.07    -2.61134380    -4.19698286    -3.82753164     0.00000320     0.00000000     0.00000346 0.00000000 VRAI 
CAM-EBC-USA-HO_EBC-USA-HO      2017.08.29.19.45.07    -2.61582017    -4.19702291    -5.89138234     0.00000178     0.00000000     0.00000145 0.00000000 VRAI 
CAM-JDA-US-IP_JDA-US-IP        2017.08.29.19.45.07     2.58486718    -4.19496393     6.54819632     0.00000087     0.00000000     0.00000089 0.00000000 VRAI 
CAM-JDA-US-HO_JDA-US-HO        2017.08.29.19.45.07     2.59404916    -4.13996458     6.94838917     0.00000114     0.00000000     0.00000434 0.00000000 VRAI 
CAM-JDA-USA-IP_JDA-USA-IP      2017.08.29.19.45.07    -2.59784973    -4.19505870     6.53814125     0.00000172     0.00000021     0.00000058 0.00000000 VRAI 
CAM-JDA-USA-HO_JDA-USA-HO      2017.08.29.19.45.07    -2.60440516    -4.13996017     6.94218850     0.00000571     0.00000021     0.00000412 0.00000000 VRAI 
CAM-JDC-US-IP_JDC-US-IP        2017.08.29.19.45.07     2.59913486    -4.19501162    -6.54730666     0.00000164     0.00000000     0.00000156 0.00000000 VRAI 
CAM-JDC-US-HO_JDC-US-HO        2017.08.29.19.45.07     2.60957986    -4.14002705    -6.93127167     0.00000173     0.00000000     0.00000206 0.00000000 VRAI 
CAM-JDC-USA-IP_JDC-USA-IP      2017.08.29.19.45.07    -2.60509098    -4.19509745    -6.54008162     0.00000273     0.00000000     0.00000092 0.00000000 VRAI 
CAM-JDC-USA-HO_JDC-USA-HO      2017.08.29.19.45.07    -2.59410840    -4.14012241    -6.92716372     0.00000403     0.00000000     0.00000253 0.00000000 VRAI 
CAM-ECTC-US-IP_ECTC-US-IP-T    2017.08.29.19.45.07     3.69177032     3.84800911    -7.77863359     0.00000000     0.00000000     0.00000000 0.00000000 VRAI 
CAM-ECTC-US-IP_ECTC-US-IP      2017.08.29.19.45.07     3.53352642    -4.07046223    -7.87874627     0.00000120     0.00000000     0.00000109 0.00000000 VRAI 
CAM-ECTC-US-HO_ECTC-US-HO-T    2017.08.29.19.45.07     3.86876059     3.64757156   -12.94040370     0.00001211     0.00000083     0.00001032 0.00000000 VRAI 
CAM-ECTC-US-HO_ECTC-US-HO      2017.08.29.19.45.07     3.67346382    -3.92563772   -12.89143395     0.00000307     0.00000000     0.00000289 0.00000000 VRAI 
CAM-ECTC-USA-IP_ECTC-USA-IP-T  2017.08.29.19.45.07    -3.68271965     3.84912676    -7.89688492     0.00002355     0.00000090     0.00001009 0.00000000 VRAI 
CAM-ECTC-USA-IP_ECTC-USA-IP    2017.08.29.19.45.07    -3.53228062    -4.07034016    -7.87390554     0.00000233     0.00000000     0.00000103 0.00000000 VRAI 
CAM-ECTC-USA-HO_ECTC-USA-HO-T  2017.08.29.19.45.07    -3.86925483     3.64757752   -12.93232250     0.00002270     0.00000000     0.00000650 0.00000000 VRAI 
CAM-ECTC-USA-HO_ECTC-USA-HO    2017.08.29.19.45.07    -3.67611754    -3.92564988   -12.88744712     0.00000521     0.00000000     0.00000488 0.00000000 VRAI 
CAM-ECTA-US-IP_ECTA-US-IP-T    2017.08.29.19.45.07     3.54951787     3.84898496     8.09023857     0.00000000     0.00000000     0.00000000 0.00000000 VRAI 
CAM-ECTA-US-IP_ECTA-US-IP      2017.08.29.19.45.07     3.52049869    -4.07060432     7.89713442     0.00000064     0.00000000     0.00000119 0.00000000 VRAI 
CAM-ECTA-US-HO_ECTA-US-HO-T    2017.08.29.19.45.07     3.87521434     3.64747643    12.93644333     0.00002153     0.00000095     0.00000671 0.00000000 VRAI 
CAM-ECTA-US-HO_ECTA-US-HO      2017.08.29.19.45.07     3.66423410    -3.92580527    12.88428664     0.00000147     0.00000010     0.00000237 0.00000000 VRAI 
CAM-ECTA-USA-IP_ECTA-USA-IP-T  2017.08.29.19.45.07    -3.68070889     3.84881717     7.89773560     0.00002544     0.00000102     0.00000323 0.00000000 VRAI 
CAM-ECTA-USA-IP_ECTA-USA-IP    2017.08.29.19.45.07    -3.53442693    -4.07043648     7.89046848     0.00000073     0.00000000     0.00000123 0.00000000 VRAI 
CAM-ECTA-USA-HO_ECTA-USA-HO-T  2017.08.29.19.45.07    -3.86211884     3.64768219    12.93554497     0.00000551     0.00000000     0.00001589 0.00000000 VRAI 
CAM-ECTA-USA-HO_ECTA-USA-HO    2017.08.29.19.45.07    -3.68537980    -3.92560482    12.88502693     0.00000350     0.00000041     0.00000165 0.00000000 VRAI 
