********** Fichier qui contient une sauvegarde des coordonnees images + coordonnees images transformees dans le repere BCAM (MOUNT) + coordonnees des prismes dans le repere MOUNT********** 
********************************************************************** Unite en metres (m)************************************************************************************************** 

*******************************************************************coordonnees images dans le repere CCD *********************************************************************************** 
20MABNDL000077_PR002
Spot 1     0.00066108     0.00181041
Spot 2     0.00082224     0.00181131
20MABNDL000077_PR003
Spot 1     0.00138614     0.00149214
Spot 2     0.00153522     0.00149429
20MABNDL000077_20MABNDM000168
Spot 1     0.00175809     0.00118479
Spot 2     0.00304500     0.00031500
20MABNDL000077_PR024
Spot 1     0.00254610     0.00143576
Spot 2     0.00264325     0.00144756
20MABNDM000020_PR013
Spot 1     0.00162712     0.00152592
Spot 2     0.00147376     0.00153195
20MABNDM000020_PR014
Spot 1     0.00265750     0.00169139
Spot 2     0.00249606     0.00169594
20MABNDM000020_20MABNDL000196
Spot 1     0.00197622     0.00117765
Spot 2     0.00230500     0.00010500
20MABNDM000020_PR035
Spot 1     0.00126409     0.00149555
Spot 2     0.00118460     0.00153093
20MABNDM000168_PR025
Spot 1     0.00117419     0.00130210
Spot 2     0.00102084     0.00130277
20MABNDM000168_PR026
Spot 1     0.00266595     0.00142929
Spot 2     0.00250516     0.00142562
20MABNDM000168_20MABNDL000077
Spot 1     0.00154133     0.00130032
Spot 2     0.00175954     0.00130788
20MABNDM000168_PR001
Spot 1     0.00080772     0.00162026
Spot 2     0.00070590     0.00162213
20MABNDL000196_PR036
Spot 1     0.00094778     0.00163796
Spot 2     0.00111126     0.00163724
20MABNDL000196_PR037
Spot 1     0.00246799     0.00116846
Spot 2     0.00262210     0.00116667
20MABNDL000196_20MABNDM000020
Spot 1     0.00192600     0.00104397
Spot 2     0.00170480     0.00104912
20MABNDL000196_PR012
Spot 1     0.00265171     0.00134416
Spot 2     0.00272470     0.00138897
20MABNDA000318_PR004
Spot 1     0.00214291     0.00162637
Spot 2     0.00192537     0.00162821
20MABNDA000334_PR005
Spot 1     0.00247124     0.00158784
Spot 2     0.00219100     0.00158848
20MABNDB000317_PR015
Spot 1     0.00149271     0.00160014
Spot 2     0.00171255     0.00159439
20MABNDB000146_PR016
Spot 1     0.00145258     0.00133274
Spot 2     0.00172820     0.00133448
20MABNDB000135_PR027
Spot 1     0.00189516     0.00091914
Spot 2     0.00211320     0.00092090
20MABNDB000126_PR028
Spot 1     0.00164830     0.00200852
Spot 2     0.00192939     0.00201070
20MABNDA000272_PR038
Spot 1     0.00191912     0.00095720
Spot 2     0.00169790     0.00095560
20MABNDA000003_PR039
Spot 1     0.00199903     0.00192973
Spot 2     0.00227574     0.00193014
20MABNDA000196_PR006
Spot 1     0.00199279     0.00074477
Spot 2     0.00162693     0.00074193
20MABNDA000324_PR007
Spot 1     0.00194347     0.00120688
Spot 2     0.00173842     0.00121204
20MABNDB000001_PR017
Spot 1     0.00188103     0.00043781
Spot 2     0.00224880     0.00044740
20MABNDB000260_PR019
Spot 1     0.00192760     0.00150940
Spot 2     0.00213080     0.00150981
20MABNDB000212_PR029
Spot 1     0.00222700     0.00069868
Spot 2     0.00186575     0.00070050
20MABNDB000128_PR030
Spot 1     0.00190491     0.00200623
Spot 2     0.00210925     0.00200075
20MABNDA000444_PR040
Spot 1     0.00075886     0.00035810
Spot 2     0.00112526     0.00035447
20MABNDA000053_PR041
Spot 1     0.00166034     0.00198915
Spot 2     0.00144403     0.00198324
20MABNDB000069_PR031
Spot 1     0.00032238     0.00138059
Spot 2     0.00038297     0.00137158
20MABNDB000069_PR033
Spot 1     0.00191163     0.00180772
Spot 2     0.00238074     0.00182715
20MABNDB000131_PR032
Spot 1     0.00277777     0.00111588
Spot 2     0.00283657     0.00112021
20MABNDB000131_PR034
Spot 1     0.00092699     0.00043285
Spot 2     0.00110292     0.00043216
20MABNDA000208_PR042
Spot 1     0.00300694     0.00091597
Spot 2     0.00294188     0.00091452


****************************************************************coordonnees images transformees dans le repere MOUNT************************************************************************* 
20MABNDL000077_PR002
Spot 1     0.01173440     0.03588715    -0.07463200
Spot 2     0.01189556     0.03588650    -0.07463200
20MABNDL000077_PR003
Spot 1     0.01245636     0.03556192    -0.07463200
Spot 2     0.01260545     0.03556263    -0.07463200
20MABNDL000077_20MABNDM000168
Spot 1    -0.01259324     0.03524777    -0.00695400
Spot 2    -0.01387118     0.03436485    -0.00695400
20MABNDL000077_PR024
Spot 1    -0.01338378     0.03549066    -0.00695400
Spot 2    -0.01348104     0.03550146    -0.00695400
20MABNDM000020_PR013
Spot 1    -0.01273184    -0.03548460    -0.00523500
Spot 2    -0.01288503    -0.03549402    -0.00523500
20MABNDM000020_PR014
Spot 1    -0.01169806    -0.03562725    -0.00523500
Spot 2    -0.01185936    -0.03563537    -0.00523500
20MABNDM000020_20MABNDL000196
Spot 1     0.01271006    -0.03514621    -0.07583800
Spot 2     0.01238113    -0.03407361    -0.07583800
20MABNDM000020_PR035
Spot 1     0.01342223    -0.03546401    -0.07583800
Spot 2     0.01350173    -0.03549938    -0.07583800
20MABNDM000168_PR025
Spot 1    -0.01322868    -0.03563930    -0.00532900
Spot 2    -0.01338202    -0.03564062    -0.00532900
20MABNDM000168_PR026
Spot 1    -0.01173638    -0.03576008    -0.00532900
Spot 2    -0.01189719    -0.03575710    -0.00532900
20MABNDM000168_20MABNDL000077
Spot 1     0.01288413    -0.03530096    -0.07445100
Spot 2     0.01266583    -0.03530532    -0.07445100
20MABNDM000168_PR001
Spot 1     0.01361298    -0.03563159    -0.07445100
Spot 2     0.01371476    -0.03563495    -0.07445100
20MABNDL000196_PR036
Spot 1     0.01192771     0.03582666    -0.07483600
Spot 2     0.01209119     0.03582628    -0.07483600
20MABNDL000196_PR037
Spot 1     0.01344889     0.03536033    -0.07483600
Spot 2     0.01360301     0.03535886    -0.07483600
20MABNDL000196_20MABNDM000020
Spot 1    -0.01275010     0.03531517    -0.00611000
Spot 2    -0.01252905     0.03532477    -0.00611000
20MABNDL000196_PR012
Spot 1    -0.01348170     0.03560070    -0.00611000
Spot 2    -0.01355558     0.03564403    -0.00611000
20MABNDA000318_PR004
Spot 1    -0.01286273     0.01246887    -0.07310600
Spot 2    -0.01264518     0.01246767    -0.07310600
20MABNDA000334_PR005
Spot 1    -0.01311435     0.01254055    -0.07324100
Spot 2    -0.01283411     0.01253965    -0.07324100
20MABNDB000317_PR015
Spot 1    -0.01266158    -0.01249785    -0.07326100
Spot 2    -0.01244169    -0.01250104    -0.07326100
20MABNDB000146_PR016
Spot 1    -0.01275578    -0.01246085    -0.07450500
Spot 2    -0.01248017    -0.01245850    -0.07450500
20MABNDB000135_PR027
Spot 1    -0.01250948    -0.01319393    -0.07464700
Spot 2    -0.01229143    -0.01319459    -0.07464700
20MABNDB000126_PR028
Spot 1    -0.01253123    -0.01217363    -0.07500400
Spot 2    -0.01225016    -0.01216995    -0.07500400
20MABNDA000272_PR038
Spot 1    -0.01275478     0.01315426    -0.07417900
Spot 2    -0.01253356     0.01315547    -0.07417900
20MABNDA000003_PR039
Spot 1    -0.01280012     0.01212253    -0.07373400
Spot 2    -0.01307683     0.01212282    -0.07373400
20MABNDA000196_PR006
Spot 1    -0.01294770     0.01323354    -0.07967100
Spot 2    -0.01258183     0.01323168    -0.07967100
20MABNDA000324_PR007
Spot 1    -0.01254922     0.01281473    -0.07446800
Spot 2    -0.01234414     0.01281117    -0.07446800
20MABNDB000001_PR017
Spot 1    -0.01230734    -0.01355165    -0.07418400
Spot 2    -0.01193949    -0.01354595    -0.07418400
20MABNDB000260_PR019
Spot 1    -0.01240388    -0.01239304    -0.07492700
Spot 2    -0.01220073    -0.01238846    -0.07492700
20MABNDB000212_PR029
Spot 1    -0.01186087    -0.01328252    -0.07390500
Spot 2    -0.01222208    -0.01327684    -0.07390500
20MABNDB000128_PR030
Spot 1    -0.01245023    -0.01221107    -0.07353400
Spot 2    -0.01224587    -0.01221584    -0.07353400
20MABNDA000444_PR040
Spot 1    -0.01169863     0.01367154    -0.07412000
Spot 2    -0.01206505     0.01367052    -0.07412000
20MABNDA000053_PR041
Spot 1    -0.01241697     0.01212145    -0.07430100
Spot 2    -0.01220059     0.01212314    -0.07430100
20MABNDB000069_PR031
Spot 1    -0.01355491    -0.01288863    -0.07388500
Spot 2    -0.01349475    -0.01290014    -0.07388500
20MABNDB000069_PR033
Spot 1    -0.01194939    -0.01252745    -0.07388500
Spot 2    -0.01147988    -0.01252740    -0.07388500
20MABNDB000131_PR032
Spot 1    -0.01144257    -0.01299887    -0.07533000
Spot 2    -0.01138379    -0.01299424    -0.07533000
20MABNDB000131_PR034
Spot 1    -0.01328989    -0.01369121    -0.07533000
Spot 2    -0.01311396    -0.01369101    -0.07533000
20MABNDA000208_PR042
Spot 1    -0.01387769     0.01308009    -0.07273700
Spot 2    -0.01381263     0.01308160    -0.07273700


*****************************************************************coordonnees du prisme dans le repere MOUNT********************************************************************************** 
20MABNDL000077_PR002
    0.05602042     0.00585923     3.70674515
20MABNDL000077_PR003
    0.02106037     0.02116950     3.89601660
20MABNDL000077_20MABNDM000168
    0.02683269     0.06903578    -5.46851063
20MABNDL000077_PR024
    0.04558070     0.01787833    -5.89640188
20MABNDM000020_PR013
   -0.00367116    -0.01818883    -3.80243444
20MABNDM000020_PR014
   -0.06547326    -0.00484528    -4.74841022
20MABNDM000020_20MABNDL000196
    0.02682409    -0.07125956     5.39469719
20MABNDM000020_PR035
   -0.04272486    -0.00674769     5.80095196
20MABNDM000168_PR025
    0.01808057    -0.02091710    -3.78863883
20MABNDM000168_PR026
   -0.05778848    -0.01394326    -3.98429108
20MABNDM000168_20MABNDL000077
    0.01161166    -0.03864158     5.38884687
20MABNDM000168_PR001
   -0.05739160    -0.01325101     5.81470490
20MABNDL000196_PR036
    0.05130627     0.00602635     3.68777275
20MABNDL000196_PR037
   -0.02506377     0.02857727     3.88381386
20MABNDL000196_20MABNDM000020
   -0.01568302     0.03771839    -5.47473907
20MABNDL000196_PR012
    0.05240099     0.01434936    -5.91537094
20MABNDA000318_PR004
   -0.00855826     0.03843812     2.74965858
20MABNDA000334_PR005
   -0.00432390     0.03174620     2.14977169
20MABNDB000317_PR015
   -0.01755704    -0.03401344     2.75128984
20MABNDB000146_PR016
   -0.01366697    -0.03179218     2.15201259
20MABNDB000135_PR027
   -0.02115428    -0.00996586     2.74937057
20MABNDB000126_PR028
   -0.02042323    -0.03895246     2.14679480
20MABNDA000272_PR038
   -0.01336966     0.01100683     2.74965882
20MABNDA000003_PR039
   -0.00600437     0.04133540     2.14891434
20MABNDA000196_PR006
   -0.01024918     0.01026404     1.64206421
20MABNDA000324_PR007
   -0.02541526     0.02763327     2.95549226
20MABNDB000001_PR017
   -0.02400313    -0.00282564     1.64036059
20MABNDB000260_PR019
   -0.02455113    -0.03862989     2.95627189
20MABNDB000212_PR029
   -0.02524721    -0.00843589     1.64223897
20MABNDB000128_PR030
   -0.01945784    -0.04700143     2.95496058
20MABNDA000444_PR040
   -0.02994887     0.00099209     1.64491212
20MABNDA000053_PR041
   -0.02652310     0.05094409     2.95450592
20MABNDB000069_PR031
    0.09834671    -0.03499314     9.20362091
20MABNDB000069_PR033
   -0.02812545    -0.02241520     1.28396630
20MABNDB000131_PR032
   -0.18795060    -0.03543756    11.00641251
20MABNDB000131_PR034
    0.01422675     0.01155085     3.43341875
20MABNDA000208_PR042
    0.12617743     0.01002255     9.20154572


*****************************************************************coordonnees du prisme dans le repere ATLAS********************************************************************************** 
20MABNDL000077_PR002 0.00000000
    2.85118341    -3.68850136     6.48601818
20MABNDL000077_PR003 0.00000000
    2.83604765    -3.72369003     6.67526102
20MABNDL000077_20MABNDM000168 0.00000000
    2.77899790    -3.70634866    -2.68920016
20MABNDL000077_PR024 0.00000000
    2.82974172    -3.68708897    -3.11711812
20MABNDM000020_PR013 0.00000000
   -2.83412051    -3.73581290     6.48627710
20MABNDM000020_PR014 0.00000000
   -2.84725595    -3.67472625     7.43230200
20MABNDM000020_20MABNDL000196 0.00000000
   -2.78289962    -3.75932956    -2.71088576
20MABNDM000020_PR035 0.00000000
   -2.84747148    -3.68945193    -3.11707449
20MABNDM000168_PR025 0.00000000
    2.83231974    -3.76340985    -6.47925758
20MABNDM000168_PR026 0.00000000
    2.83930182    -3.68761539    -6.67493868
20MABNDM000168_20MABNDL000077 0.00000000
    2.81515384    -3.75352383     2.69822621
20MABNDM000168_PR001 0.00000000
    2.84058857    -3.68436885     3.12405682
20MABNDL000196_PR036 0.00000000
   -2.84758115    -3.69296813    -6.47909641
20MABNDL000196_PR037 0.00000000
   -2.82499886    -3.76951003    -6.67506695
20MABNDL000196_20MABNDM000020 0.00000000
   -2.81566000    -3.75141978     2.68347335
20MABNDL000196_PR012 0.00000000
   -2.83905101    -3.68293667     3.12404227
20MABNDA000318_PR004 0.00000000
    2.61444497    -4.19698858     3.83356047
20MABNDA000334_PR005 0.00000000
    2.61667466    -4.19703150     5.89751482
20MABNDB000317_PR015 0.00000000
   -2.61105013    -4.19700527     3.83600211
20MABNDB000146_PR016 0.00000000
   -2.61262822    -4.19702530     5.89855814
20MABNDB000135_PR027 0.00000000
    2.60370898    -4.19700480    -3.82539511
20MABNDB000126_PR028 0.00000000
    2.60549402    -4.19702148    -5.89326715
20MABNDA000272_PR038 0.00000000
   -2.61116719    -4.19698286    -3.82747746
20MABNDA000003_PR039 0.00000000
   -2.61572671    -4.19702196    -5.89143133
20MABNDA000196_PR006 0.00000000
    2.58470964    -4.19496393     6.54822063
20MABNDA000324_PR007 0.00000000
    2.59389949    -4.13996601     6.94828176
20MABNDB000001_PR017 0.00000000
   -2.59770441    -4.19505787     6.53815365
20MABNDB000260_PR019 0.00000000
   -2.60421062    -4.13996220     6.94201422
20MABNDB000212_PR029 0.00000000
    2.59892488    -4.19500971    -6.54742384
20MABNDB000128_PR030 0.00000000
    2.60940075    -4.14002895    -6.93111944
20MABNDA000444_PR040 0.00000000
   -2.60512137    -4.19509745    -6.54017258
20MABNDA000053_PR041 0.00000000
   -2.59401894    -4.14012527    -6.92696953
20MABNDB000069_PR031 0.00000000
    3.68006158     3.84880948    -7.90540791
20MABNDB000069_PR033 0.00000000
    3.53217173    -4.07045317    -7.88325548
20MABNDB000131_PR032 0.00000000
    3.86875129     3.64756060   -12.94608021
20MABNDB000131_PR034 0.00000000
    3.67356110    -3.92559934   -12.89639664
20MABNDA000208_PR042 0.00000000
   -3.67625308     3.84921956    -7.90146065


*****************************************************************Rapport********************************************************************************** 
CAM-LBA-US_EBA-US-HO-H         2017.05.04.14.00.15     2.85118341    -3.68850136     6.48601818     0.00000000     0.00000000     0.00000000 0.00000000 VRAI 
CAM-LBA-US_JDA-US-H            2017.05.04.14.00.15     2.83604765    -3.72369003     6.67526102     0.00000000     0.00000000     0.00000000 0.00000000 VRAI 
CAM-LBA-US_CAM-LBC-US          2017.05.04.14.00.15     2.77899790    -3.70634866    -2.68920016     0.00000000     0.00000000     0.00000000 0.00000000 VRAI 
CAM-LBA-US_EBC-US-IP-H         2017.05.04.14.00.15     2.82974172    -3.68708897    -3.11711812     0.00000000     0.00000000     0.00000000 0.00000000 VRAI 
CAM-LBA-USA_EBA-USA-HO-H       2017.05.04.14.00.15    -2.83412051    -3.73581290     6.48627710     0.00000000     0.00000000     0.00000000 0.00000000 VRAI 
CAM-LBA-USA_JDA-USA-H          2017.05.04.14.00.15    -2.84725595    -3.67472625     7.43230200     0.00000000     0.00000000     0.00000000 0.00000000 VRAI 
CAM-LBA-USA_CAM-LBC-USA        2017.05.04.14.00.15    -2.78289962    -3.75932956    -2.71088576     0.00000000     0.00000000     0.00000000 0.00000000 VRAI 
CAM-LBA-USA_EBC-USA-IP-H       2017.05.04.14.00.15    -2.84747148    -3.68945193    -3.11707449     0.00000000     0.00000000     0.00000000 0.00000000 VRAI 
CAM-LBC-US_EBC-US-HO-H         2017.05.04.14.00.15     2.83231974    -3.76340985    -6.47925758     0.00000000     0.00000000     0.00000000 0.00000000 VRAI 
CAM-LBC-US_JDC-US-H            2017.05.04.14.00.15     2.83930182    -3.68761539    -6.67493868     0.00000000     0.00000000     0.00000000 0.00000000 VRAI 
CAM-LBC-US_CAM-LBA-US          2017.05.04.14.00.15     2.81515384    -3.75352383     2.69822621     0.00000000     0.00000000     0.00000000 0.00000000 VRAI 
CAM-LBC-US_EBA-US-IP-H         2017.05.04.14.00.15     2.84058857    -3.68436885     3.12405682     0.00000000     0.00000000     0.00000000 0.00000000 VRAI 
CAM-LBC-USA_EBC-USA-HO-H       2017.05.04.14.00.15    -2.84758115    -3.69296813    -6.47909641     0.00000000     0.00000000     0.00000000 0.00000000 VRAI 
CAM-LBC-USA_JDC-USA-H          2017.05.04.14.00.15    -2.82499886    -3.76951003    -6.67506695     0.00000000     0.00000000     0.00000000 0.00000000 VRAI 
CAM-LBC-USA_CAM-LBA-USA        2017.05.04.14.00.15    -2.81566000    -3.75141978     2.68347335     0.00000000     0.00000000     0.00000000 0.00000000 VRAI 
CAM-LBC-USA_EBA-USA-IP-H       2017.05.04.14.00.15    -2.83905101    -3.68293667     3.12404227     0.00000000     0.00000000     0.00000000 0.00000000 VRAI 
CAM-EBA-US-IP_EBA-US-IP        2017.05.04.14.00.15     2.61444497    -4.19698858     3.83356047     0.00000000     0.00000000     0.00000000 0.00000000 VRAI 
CAM-EBA-US-HO_EBA-US-HO        2017.05.04.14.00.15     2.61667466    -4.19703150     5.89751482     0.00000000     0.00000000     0.00000000 0.00000000 VRAI 
CAM-EBA-USA-IP_EBA-USA-IP      2017.05.04.14.00.15    -2.61105013    -4.19700527     3.83600211     0.00000000     0.00000000     0.00000000 0.00000000 VRAI 
CAM-EBA-USA-HO_EBA-USA-HO      2017.05.04.14.00.15    -2.61262822    -4.19702530     5.89855814     0.00000000     0.00000000     0.00000000 0.00000000 VRAI 
CAM-EBC-US-IP_EBC-US-IP        2017.05.04.14.00.15     2.60370898    -4.19700480    -3.82539511     0.00000000     0.00000000     0.00000000 0.00000000 VRAI 
CAM-EBC-US-HO_EBC-US-HO        2017.05.04.14.00.15     2.60549402    -4.19702148    -5.89326715     0.00000000     0.00000000     0.00000000 0.00000000 VRAI 
CAM-EBC-USA-IP_EBC-USA-IP      2017.05.04.14.00.15    -2.61116719    -4.19698286    -3.82747746     0.00000000     0.00000000     0.00000000 0.00000000 VRAI 
CAM-EBC-USA-HO_EBC-USA-HO      2017.05.04.14.00.15    -2.61572671    -4.19702196    -5.89143133     0.00000000     0.00000000     0.00000000 0.00000000 VRAI 
CAM-JDA-US-IP_JDA-US-IP        2017.05.04.14.00.15     2.58470964    -4.19496393     6.54822063     0.00000000     0.00000000     0.00000000 0.00000000 VRAI 
CAM-JDA-US-HO_JDA-US-HO        2017.05.04.14.00.15     2.59389949    -4.13996601     6.94828176     0.00000000     0.00000000     0.00000000 0.00000000 VRAI 
CAM-JDA-USA-IP_JDA-USA-IP      2017.05.04.14.00.15    -2.59770441    -4.19505787     6.53815365     0.00000000     0.00000000     0.00000000 0.00000000 VRAI 
CAM-JDA-USA-HO_JDA-USA-HO      2017.05.04.14.00.15    -2.60421062    -4.13996220     6.94201422     0.00000000     0.00000000     0.00000000 0.00000000 VRAI 
CAM-JDC-US-IP_JDC-US-IP        2017.05.04.14.00.15     2.59892488    -4.19500971    -6.54742384     0.00000000     0.00000000     0.00000000 0.00000000 VRAI 
CAM-JDC-US-HO_JDC-US-HO        2017.05.04.14.00.15     2.60940075    -4.14002895    -6.93111944     0.00000000     0.00000000     0.00000000 0.00000000 VRAI 
CAM-JDC-USA-IP_JDC-USA-IP      2017.05.04.14.00.15    -2.60512137    -4.19509745    -6.54017258     0.00000000     0.00000000     0.00000000 0.00000000 VRAI 
CAM-JDC-USA-HO_JDC-USA-HO      2017.05.04.14.00.15    -2.59401894    -4.14012527    -6.92696953     0.00000000     0.00000000     0.00000000 0.00000000 VRAI 
CAM-ECTC-US-IP_ECTC-US-IP-T    2017.05.04.14.00.15     3.68006158     3.84880948    -7.90540791     0.00000000     0.00000000     0.00000000 0.00000000 VRAI 
CAM-ECTC-US-IP_ECTC-US-IP      2017.05.04.14.00.15     3.53217173    -4.07045317    -7.88325548     0.00000000     0.00000000     0.00000000 0.00000000 VRAI 
CAM-ECTC-US-HO_ECTC-US-HO-T    2017.05.04.14.00.15     3.86875129     3.64756060   -12.94608021     0.00000000     0.00000000     0.00000000 0.00000000 VRAI 
CAM-ECTC-US-HO_ECTC-US-HO      2017.05.04.14.00.15     3.67356110    -3.92559934   -12.89639664     0.00000000     0.00000000     0.00000000 0.00000000 VRAI 
CAM-ECTC-USA-IP_ECTC-USA-IP-T  2017.05.04.14.00.15    -3.67625308     3.84921956    -7.90146065     0.00000000     0.00000000     0.00000000 0.00000000 VRAI 
