********** Fichier qui contient une sauvegarde des coordonnees images + coordonnees images transformees dans le repere BCAM (MOUNT) + coordonnees des prismes dans le repere MOUNT********** 
********************************************************************** Unite en metres (m)************************************************************************************************** 

*******************************************************************coordonnees images dans le repere CCD *********************************************************************************** 
20MABNDL000077_PR002
Spot 1     0.00121636     0.00149913
Spot 2     0.00052500     0.00043500
Spot 1     0.00121391     0.00150288
Spot 2     0.00086500     0.00006500
Spot 1     0.00121324     0.00150087
Spot 2     0.00052500     0.00043500
Spot 1     0.00121789     0.00149520
Spot 2     0.00052500     0.00043500
Spot 1     0.00121676     0.00149132
Spot 2     0.00052500     0.00043500
20MABNDL000077_PR003
Spot 1     0.00138713     0.00149447
Spot 2     0.00153641     0.00149086
Spot 1     0.00138688     0.00149488
Spot 2     0.00153641     0.00149083
Spot 1     0.00138650     0.00149516
Spot 2     0.00153636     0.00149098
Spot 1     0.00138620     0.00149534
Spot 2     0.00153636     0.00149123
Spot 1     0.00138607     0.00149529
Spot 2     0.00153645     0.00149117
20MABNDL000077_20MABNDM000168
Spot 1     0.00175745     0.00118284
Spot 2     0.00075500     0.00010500
Spot 1     0.00175722     0.00118336
Spot 2     0.00075500     0.00010500
Spot 1     0.00175748     0.00118347
Spot 2     0.00075500     0.00010500
Spot 1     0.00175734     0.00118368
Spot 2     0.00304500     0.00031500
Spot 1     0.00175745     0.00118402
Spot 2     0.00075500     0.00010500
20MABNDL000077_PR024
Spot 1     0.00254333     0.00143330
Spot 2     0.00264143     0.00144482
Spot 1     0.00254305     0.00143370
Spot 2     0.00264110     0.00144506
Spot 1     0.00254331     0.00143366
Spot 2     0.00264108     0.00144509
Spot 1     0.00254294     0.00143371
Spot 2     0.00264138     0.00144505
Spot 1     0.00254309     0.00143380
Spot 2     0.00264118     0.00144542
20MABNDM000020_PR013
Spot 1     0.00065500     0.00030500
Spot 2     0.00136500     0.00011500
Spot 1     0.00160500     0.00021500
Spot 2     0.00136500     0.00011500
Spot 1     0.00136500     0.00011500
Spot 2     0.00136500     0.00011500
Spot 1     0.00065500     0.00030500
Spot 2     0.00160500     0.00021500
20MABNDM000020_PR014
Spot 1     0.00310500     0.00034500
Spot 2     0.00310500     0.00034500
Spot 1     0.00310500     0.00034500
Spot 2     0.00310500     0.00034500
Spot 1     0.00310500     0.00034500
Spot 2     0.00310500     0.00034500
Spot 1     0.00310500     0.00034500
Spot 2     0.00310500     0.00034500
20MABNDM000020_20MABNDL000196
Spot 1     0.00197703     0.00117720
Spot 2     0.00230500     0.00010500
Spot 1     0.00197701     0.00117718
Spot 2     0.00230500     0.00010500
Spot 1     0.00197688     0.00117722
Spot 2     0.00315500     0.00078500
Spot 1     0.00197703     0.00117742
Spot 2     0.00230500     0.00010500
20MABNDM000020_PR035
Spot 1     0.00127232     0.00149456
Spot 2     0.00118782     0.00153109
Spot 1     0.00127249     0.00149458
Spot 2     0.00118805     0.00153113
Spot 1     0.00127240     0.00149461
Spot 2     0.00118783     0.00153125
Spot 1     0.00127237     0.00149474
Spot 2     0.00118787     0.00153098
20MABNDM000168_PR025
Spot 1     0.00100500     0.00023500
Spot 2     0.00114500     0.00017500
Spot 1     0.00100500     0.00023500
Spot 2     0.00100500     0.00023500
Spot 1     0.00114500     0.00017500
Spot 2     0.00114500     0.00017500
Spot 1     0.00114500     0.00017500
Spot 2     0.00114500     0.00017500
20MABNDM000168_PR026
Spot 1     0.00266717     0.00142881
Spot 2     0.00250646     0.00142576
Spot 1     0.00266722     0.00142865
Spot 2     0.00250619     0.00142517
Spot 1     0.00266707     0.00142826
Spot 2     0.00250609     0.00142483
Spot 1     0.00266732     0.00142826
Spot 2     0.00250593     0.00142500
20MABNDM000168_20MABNDL000077
Spot 1     0.00154068     0.00130151
Spot 2     0.00176005     0.00131497
Spot 1     0.00154087     0.00130134
Spot 2     0.00176053     0.00131482
Spot 1     0.00154115     0.00130111
Spot 2     0.00176038     0.00131468
Spot 1     0.00154127     0.00130088
Spot 2     0.00176032     0.00131420
20MABNDM000168_PR001
Spot 1     0.00080804     0.00162124
Spot 2     0.00070529     0.00162308
Spot 1     0.00080813     0.00162126
Spot 2     0.00070523     0.00162302
Spot 1     0.00080805     0.00162135
Spot 2     0.00070557     0.00162301
Spot 1     0.00080780     0.00162104
Spot 2     0.00070565     0.00162294
20MABNDL000196_PR036
Spot 1     0.00094625     0.00163980
Spot 2     0.00111073     0.00163935
Spot 1     0.00094611     0.00163989
Spot 2     0.00111069     0.00163918
Spot 1     0.00094607     0.00164003
Spot 2     0.00111078     0.00163926
Spot 1     0.00094599     0.00163997
Spot 2     0.00111054     0.00163924
20MABNDL000196_PR037
Spot 1     0.00246939     0.00116890
Spot 2     0.00262433     0.00116703
Spot 1     0.00246938     0.00116873
Spot 2     0.00262426     0.00116706
Spot 1     0.00246923     0.00116869
Spot 2     0.00262438     0.00116723
Spot 1     0.00246923     0.00116874
Spot 2     0.00262434     0.00116723
20MABNDL000196_20MABNDM000020
Spot 1     0.00192518     0.00104234
Spot 2     0.00170424     0.00104767
Spot 1     0.00192517     0.00104227
Spot 2     0.00170406     0.00104759
Spot 1     0.00192523     0.00104213
Spot 2     0.00170442     0.00104779
Spot 1     0.00192506     0.00104213
Spot 2     0.00170408     0.00104777
20MABNDL000196_PR012
Spot 1     0.00265074     0.00134198
Spot 2     0.00272327     0.00138719
Spot 1     0.00265066     0.00134209
Spot 2     0.00272338     0.00138708
Spot 1     0.00265074     0.00134223
Spot 2     0.00272343     0.00138728
Spot 1     0.00265096     0.00134217
Spot 2     0.00272335     0.00138735
20MABNDA000318_PR004
Spot 1     0.00214629     0.00162539
Spot 2     0.00192797     0.00162529
Spot 1     0.00214630     0.00162483
Spot 2     0.00192805     0.00162552
Spot 1     0.00214625     0.00162468
Spot 2     0.00192802     0.00162506
Spot 1     0.00214626     0.00162484
Spot 2     0.00192831     0.00162534
20MABNDA000334_PR005
Spot 1     0.00247271     0.00158495
Spot 2     0.00219227     0.00158560
Spot 1     0.00247274     0.00158484
Spot 2     0.00219230     0.00158534
Spot 1     0.00247285     0.00158484
Spot 2     0.00219215     0.00158553
Spot 1     0.00247269     0.00158478
Spot 2     0.00219232     0.00158574
20MABNDB000317_PR015
Spot 1     0.00148870     0.00159949
Spot 2     0.00170817     0.00159345
Spot 1     0.00148879     0.00159946
Spot 2     0.00170799     0.00159361
Spot 1     0.00148891     0.00159946
Spot 2     0.00170784     0.00159348
Spot 1     0.00148878     0.00159932
Spot 2     0.00170788     0.00159344
20MABNDB000146_PR016
Spot 1     0.00144890     0.00133102
Spot 2     0.00172423     0.00133470
Spot 1     0.00144897     0.00133094
Spot 2     0.00172410     0.00133476
Spot 1     0.00144897     0.00133108
Spot 2     0.00172439     0.00133451
Spot 1     0.00144875     0.00133097
Spot 2     0.00172422     0.00133470
20MABNDB000135_PR027
Spot 1     0.00189172     0.00091623
Spot 2     0.00210974     0.00091783
Spot 1     0.00189181     0.00091610
Spot 2     0.00210997     0.00091772
Spot 1     0.00189165     0.00091605
Spot 2     0.00210988     0.00091767
Spot 1     0.00189179     0.00091634
Spot 2     0.00210991     0.00091789
20MABNDB000126_PR028
Spot 1     0.00164548     0.00201005
Spot 2     0.00192762     0.00201192
Spot 1     0.00164560     0.00201014
Spot 2     0.00192768     0.00201206
Spot 1     0.00164570     0.00201022
Spot 2     0.00192766     0.00201188
Spot 1     0.00164545     0.00201019
Spot 2     0.00192780     0.00201189
20MABNDA000272_PR038
Spot 1     0.00192426     0.00095509
Spot 2     0.00170318     0.00095500
Spot 1     0.00192412     0.00095505
Spot 2     0.00170300     0.00095500
Spot 1     0.00192398     0.00095519
Spot 2     0.00170302     0.00095482
Spot 1     0.00192403     0.00095532
Spot 2     0.00170311     0.00095509
20MABNDA000003_PR039
Spot 1     0.00200152     0.00193128
Spot 2     0.00228008     0.00193208
Spot 1     0.00200150     0.00193135
Spot 2     0.00227983     0.00193195
Spot 1     0.00200138     0.00193133
Spot 2     0.00227974     0.00193192
Spot 1     0.00200143     0.00193143
Spot 2     0.00228013     0.00193209
20MABNDA000196_PR006
Spot 1     0.00198559     0.00074336
Spot 2     0.00161946     0.00074049
Spot 1     0.00198537     0.00074326
Spot 2     0.00161978     0.00074065
Spot 1     0.00198560     0.00074334
Spot 2     0.00161959     0.00074064
Spot 1     0.00198568     0.00074304
Spot 2     0.00161942     0.00074058
20MABNDA000324_PR007
Spot 1     0.00194740     0.00120369
Spot 2     0.00174169     0.00120997
Spot 1     0.00194736     0.00120392
Spot 2     0.00174191     0.00121011
Spot 1     0.00194720     0.00120401
Spot 2     0.00174153     0.00121011
Spot 1     0.00194743     0.00120392
Spot 2     0.00174152     0.00121000
20MABNDB000001_PR017
Spot 1     0.00188753     0.00043709
Spot 2     0.00225583     0.00044650
Spot 1     0.00188755     0.00043711
Spot 2     0.00225598     0.00044648
Spot 1     0.00188744     0.00043720
Spot 2     0.00225598     0.00044648
Spot 1     0.00188754     0.00043722
Spot 2     0.00225600     0.00044633
20MABNDB000260_PR019
Spot 1     0.00192229     0.00150527
Spot 2     0.00212592     0.00150531
Spot 1     0.00192214     0.00150549
Spot 2     0.00212563     0.00150563
Spot 1     0.00192218     0.00150559
Spot 2     0.00212595     0.00150563
Spot 1     0.00192226     0.00150548
Spot 2     0.00212609     0.00150547
20MABNDB000212_PR029
Spot 1     0.00223684     0.00069321
Spot 2     0.00187484     0.00069453
Spot 1     0.00223668     0.00069332
Spot 2     0.00187468     0.00069516
Spot 1     0.00223691     0.00069330
Spot 2     0.00187467     0.00069549
Spot 1     0.00223676     0.00069318
Spot 2     0.00187467     0.00069549
20MABNDB000128_PR030
Spot 1     0.00190033     0.00200229
Spot 2     0.00210505     0.00199703
Spot 1     0.00190034     0.00200222
Spot 2     0.00210505     0.00199695
Spot 1     0.00190030     0.00200222
Spot 2     0.00210525     0.00199706
Spot 1     0.00190031     0.00200237
Spot 2     0.00210505     0.00199703
20MABNDA000444_PR040
Spot 1     0.00076004     0.00035363
Spot 2     0.00112721     0.00035071
Spot 1     0.00076004     0.00035342
Spot 2     0.00112697     0.00035066
Spot 1     0.00076011     0.00035365
Spot 2     0.00112656     0.00035045
Spot 1     0.00076000     0.00035343
Spot 2     0.00112673     0.00035073
20MABNDA000053_PR041
Spot 1     0.00166292     0.00198456
Spot 2     0.00144631     0.00197869
Spot 1     0.00166291     0.00198495
Spot 2     0.00144603     0.00197839
Spot 1     0.00166272     0.00198456
Spot 2     0.00144610     0.00197862
Spot 1     0.00166302     0.00198407
Spot 2     0.00144595     0.00197824
20MABNDB000069_PR031
Spot 1     0.00021500     0.00240500
Spot 2     0.00021500     0.00240500
Spot 1     0.00021500     0.00240500
Spot 2     0.00021500     0.00240500
Spot 1     0.00021500     0.00240500
Spot 2     0.00021500     0.00240500
Spot 1     0.00021500     0.00240500
Spot 2     0.00021500     0.00240500
20MABNDB000069_PR033
Spot 1     0.00182137     0.00206626
Spot 2     0.00229151     0.00208632
Spot 1     0.00182144     0.00206624
Spot 2     0.00229140     0.00208597
Spot 1     0.00182126     0.00206647
Spot 2     0.00229144     0.00208615
Spot 1     0.00182145     0.00206645
Spot 2     0.00229147     0.00208605
20MABNDB000131_PR032
Spot 1     0.00277727     0.00107731
Spot 2     0.00283707     0.00108086
Spot 1     0.00277695     0.00107753
Spot 2     0.00283715     0.00108103
Spot 1     0.00277686     0.00107768
Spot 2     0.00283724     0.00108074
Spot 1     0.00277671     0.00107768
Spot 2     0.00283709     0.00108082
20MABNDB000131_PR034
Spot 1     0.00092404     0.00032431
Spot 2     0.00110049     0.00032430
Spot 1     0.00092403     0.00032442
Spot 2     0.00110049     0.00032427
Spot 1     0.00092411     0.00032442
Spot 2     0.00110033     0.00032434
Spot 1     0.00092410     0.00032429
Spot 2     0.00110058     0.00032417
20MABNDA000208_PR042
Spot 1     0.00305947     0.00095237
Spot 2     0.00299437     0.00095137
Spot 1     0.00305946     0.00095263
Spot 2     0.00299426     0.00095141
Spot 1     0.00305926     0.00095227
Spot 2     0.00299351     0.00095168
Spot 1     0.00305944     0.00095327
Spot 2     0.00299452     0.00095126
20MABNDA000208_PR046
Spot 1     0.00144819     0.00220058
Spot 2     0.00097554     0.00220065
Spot 1     0.00144818     0.00220038
Spot 2     0.00097508     0.00220048
Spot 1     0.00144841     0.00220026
Spot 2     0.00097502     0.00220060
Spot 1     0.00144816     0.00220041
Spot 2     0.00097546     0.00220058
20MABNDA000035_PR044
Spot 1     0.00073814     0.00125673
Spot 2     0.00068142     0.00125068
Spot 1     0.00073775     0.00125696
Spot 2     0.00068119     0.00125084
Spot 1     0.00073837     0.00125672
Spot 2     0.00068116     0.00125064
Spot 1     0.00073795     0.00125655
Spot 2     0.00068099     0.00125064
20MABNDA000035_PR045
Spot 1     0.00254557     0.00047236
Spot 2     0.00236837     0.00047160
Spot 1     0.00254582     0.00047219
Spot 2     0.00236802     0.00047162
Spot 1     0.00254559     0.00047200
Spot 2     0.00236780     0.00047182
Spot 1     0.00254575     0.00047224
Spot 2     0.00236840     0.00047163
20MABNDA000188_PR008
Spot 1     0.00316500     0.00001500
Spot 2     0.00316500     0.00001500
Spot 1     0.00316500     0.00001500
Spot 2     0.00316500     0.00001500
Spot 1     0.00316500     0.00001500
Spot 2     0.00316500     0.00001500
Spot 1     0.00316500     0.00001500
Spot 2     0.00316500     0.00001500
20MABNDA000188_PR018
Spot 1     0.00166958     0.00176376
Spot 2     0.00120238     0.00176072
Spot 1     0.00166963     0.00176400
Spot 2     0.00120234     0.00176080
Spot 1     0.00166964     0.00176385
Spot 2     0.00120234     0.00176074
Spot 1     0.00166969     0.00176391
Spot 2     0.00120230     0.00176093
20MABNDA000039_PR009
Spot 1     0.00066452     0.00117675
Spot 2     0.00061734     0.00118155
Spot 1     0.00066414     0.00117680
Spot 2     0.00061736     0.00118146
Spot 1     0.00066408     0.00117692
Spot 2     0.00061734     0.00118140
Spot 1     0.00066443     0.00117665
Spot 2     0.00061760     0.00118105
20MABNDA000039_PR011
Spot 1     0.00276826     0.00028186
Spot 2     0.00259272     0.00027710
Spot 1     0.00276835     0.00028191
Spot 2     0.00259251     0.00027711
Spot 1     0.00276828     0.00028185
Spot 2     0.00259275     0.00027707
Spot 1     0.00276821     0.00028184
Spot 2     0.00259279     0.00027712
20MABNDB000155_PR020
Spot 1     0.00062041     0.00113104
Spot 2     0.00068522     0.00112788
Spot 1     0.00062095     0.00113138
Spot 2     0.00068530     0.00112763
Spot 1     0.00062084     0.00113108
Spot 2     0.00068513     0.00112751
Spot 1     0.00062064     0.00113162
Spot 2     0.00068584     0.00112699
20MABNDB000155_PR022
Spot 1     0.00210959     0.00140104
Spot 2     0.00258255     0.00139657
Spot 1     0.00210962     0.00140096
Spot 2     0.00258272     0.00139634
Spot 1     0.00210959     0.00140109
Spot 2     0.00258288     0.00139647
Spot 1     0.00210976     0.00140120
Spot 2     0.00258247     0.00139663
20MABNDB000010_PR021
Spot 1     0.00287073     0.00115267
Spot 2     0.00292343     0.00115555
Spot 1     0.00287055     0.00115305
Spot 2     0.00292332     0.00115597
Spot 1     0.00287083     0.00115315
Spot 2     0.00292336     0.00115586
Spot 1     0.00287068     0.00115299
Spot 2     0.00292330     0.00115612
20MABNDB000010_PR023
Spot 1     0.00131273     0.00031349
Spot 2     0.00148774     0.00031197
Spot 1     0.00131252     0.00031350
Spot 2     0.00148767     0.00031200
Spot 1     0.00131261     0.00031364
Spot 2     0.00148783     0.00031213
Spot 1     0.00131265     0.00031354
Spot 2     0.00148783     0.00031203


****************************************************************coordonnees images transformees dans le repere MOUNT************************************************************************* 
20MABNDL000077_PR002
Spot 1     0.01228666     0.03557054    -0.07463200
Spot 2     0.01158509     0.03451311    -0.07463200
Spot 1     0.01228424     0.03557432    -0.07463200
Spot 2     0.01192151     0.03413986    -0.07463200
Spot 1     0.01228355     0.03557231    -0.07463200
Spot 2     0.01158509     0.03451311    -0.07463200
Spot 1     0.01228815     0.03556660    -0.07463200
Spot 2     0.01158509     0.03451311    -0.07463200
Spot 1     0.01228698     0.03556273    -0.07463200
Spot 2     0.01158509     0.03451311    -0.07463200
20MABNDL000077_PR003
Spot 1     0.01245737     0.03556424    -0.07463200
Spot 2     0.01260661     0.03555919    -0.07463200
Spot 1     0.01245713     0.03556465    -0.07463200
Spot 2     0.01260661     0.03555916    -0.07463200
Spot 1     0.01245675     0.03556494    -0.07463200
Spot 2     0.01260656     0.03555931    -0.07463200
Spot 1     0.01245645     0.03556512    -0.07463200
Spot 2     0.01260657     0.03555956    -0.07463200
Spot 1     0.01245632     0.03556507    -0.07463200
Spot 2     0.01260665     0.03555950    -0.07463200
20MABNDL000077_20MABNDM000168
Spot 1    -0.01259258     0.03524582    -0.00695400
Spot 2    -0.01157915     0.03417830    -0.00695400
Spot 1    -0.01259235     0.03524634    -0.00695400
Spot 2    -0.01157915     0.03417830    -0.00695400
Spot 1    -0.01259262     0.03524645    -0.00695400
Spot 2    -0.01157915     0.03417830    -0.00695400
Spot 1    -0.01259248     0.03524666    -0.00695400
Spot 2    -0.01387118     0.03436485    -0.00695400
Spot 1    -0.01259259     0.03524700    -0.00695400
Spot 2    -0.01157915     0.03417830    -0.00695400
20MABNDL000077_PR024
Spot 1    -0.01338098     0.03548822    -0.00695400
Spot 2    -0.01347919     0.03549874    -0.00695400
Spot 1    -0.01338071     0.03548863    -0.00695400
Spot 2    -0.01347887     0.03549898    -0.00695400
Spot 1    -0.01338097     0.03548858    -0.00695400
Spot 2    -0.01347885     0.03549901    -0.00695400
Spot 1    -0.01338060     0.03548864    -0.00695400
Spot 2    -0.01347915     0.03549897    -0.00695400
Spot 1    -0.01338075     0.03548873    -0.00695400
Spot 2    -0.01347895     0.03549934    -0.00695400
20MABNDM000020_PR013
Spot 1    -0.01373072    -0.03428548    -0.00523500
Spot 2    -0.01302510    -0.03407982    -0.00523500
Spot 1    -0.01278295    -0.03417449    -0.00523500
Spot 2    -0.01302510    -0.03407982    -0.00523500
Spot 1    -0.01302510    -0.03407982    -0.00523500
Spot 2    -0.01302510    -0.03407982    -0.00523500
Spot 1    -0.01373072    -0.03428548    -0.00523500
Spot 2    -0.01278295    -0.03417449    -0.00523500
20MABNDM000020_PR014
Spot 1    -0.01128044    -0.03427129    -0.00523500
Spot 2    -0.01128044    -0.03427129    -0.00523500
Spot 1    -0.01128044    -0.03427129    -0.00523500
Spot 2    -0.01128044    -0.03427129    -0.00523500
Spot 1    -0.01128044    -0.03427129    -0.00523500
Spot 2    -0.01128044    -0.03427129    -0.00523500
Spot 1    -0.01128044    -0.03427129    -0.00523500
Spot 2    -0.01128044    -0.03427129    -0.00523500
20MABNDM000020_20MABNDL000196
Spot 1     0.01270925    -0.03514576    -0.07583800
Spot 2     0.01238113    -0.03407361    -0.07583800
Spot 1     0.01270927    -0.03514574    -0.07583800
Spot 2     0.01238113    -0.03407361    -0.07583800
Spot 1     0.01270940    -0.03514578    -0.07583800
Spot 2     0.01153122    -0.03475372    -0.07583800
Spot 1     0.01270925    -0.03514598    -0.07583800
Spot 2     0.01238113    -0.03407361    -0.07583800
20MABNDM000020_PR035
Spot 1     0.01341400    -0.03546303    -0.07583800
Spot 2     0.01349851    -0.03549954    -0.07583800
Spot 1     0.01341383    -0.03546305    -0.07583800
Spot 2     0.01349828    -0.03549958    -0.07583800
Spot 1     0.01341392    -0.03546308    -0.07583800
Spot 2     0.01349850    -0.03549970    -0.07583800
Spot 1     0.01341395    -0.03546321    -0.07583800
Spot 2     0.01349846    -0.03549943    -0.07583800
20MABNDM000168_PR025
Spot 1    -0.01340245    -0.03457293    -0.00532900
Spot 2    -0.01326271    -0.03451233    -0.00532900
Spot 1    -0.01340245    -0.03457293    -0.00532900
Spot 2    -0.01340245    -0.03457293    -0.00532900
Spot 1    -0.01326271    -0.03451233    -0.00532900
Spot 2    -0.01326271    -0.03451233    -0.00532900
Spot 1    -0.01326271    -0.03451233    -0.00532900
Spot 2    -0.01326271    -0.03451233    -0.00532900
20MABNDM000168_PR026
Spot 1    -0.01173517    -0.03575959    -0.00532900
Spot 2    -0.01189589    -0.03575723    -0.00532900
Spot 1    -0.01173512    -0.03575943    -0.00532900
Spot 2    -0.01189616    -0.03575664    -0.00532900
Spot 1    -0.01173527    -0.03575904    -0.00532900
Spot 2    -0.01189626    -0.03575630    -0.00532900
Spot 1    -0.01173502    -0.03575904    -0.00532900
Spot 2    -0.01189642    -0.03575647    -0.00532900
20MABNDM000168_20MABNDL000077
Spot 1     0.01288476    -0.03530215    -0.07445100
Spot 2     0.01266522    -0.03531240    -0.07445100
Spot 1     0.01288457    -0.03530198    -0.07445100
Spot 2     0.01266474    -0.03531225    -0.07445100
Spot 1     0.01288430    -0.03530175    -0.07445100
Spot 2     0.01266489    -0.03531211    -0.07445100
Spot 1     0.01288418    -0.03530152    -0.07445100
Spot 2     0.01266496    -0.03531163    -0.07445100
20MABNDM000168_PR001
Spot 1     0.01361264    -0.03563257    -0.07445100
Spot 2     0.01371536    -0.03563591    -0.07445100
Spot 1     0.01361255    -0.03563259    -0.07445100
Spot 2     0.01371542    -0.03563585    -0.07445100
Spot 1     0.01361263    -0.03563268    -0.07445100
Spot 2     0.01371508    -0.03563584    -0.07445100
Spot 1     0.01361289    -0.03563237    -0.07445100
Spot 2     0.01371500    -0.03563577    -0.07445100
20MABNDL000196_PR036
Spot 1     0.01192617     0.03582850    -0.07483600
Spot 2     0.01209065     0.03582839    -0.07483600
Spot 1     0.01192603     0.03582859    -0.07483600
Spot 2     0.01209062     0.03582822    -0.07483600
Spot 1     0.01192599     0.03582873    -0.07483600
Spot 2     0.01209071     0.03582830    -0.07483600
Spot 1     0.01192591     0.03582867    -0.07483600
Spot 2     0.01209047     0.03582828    -0.07483600
20MABNDL000196_PR037
Spot 1     0.01345029     0.03536078    -0.07483600
Spot 2     0.01360524     0.03535923    -0.07483600
Spot 1     0.01345028     0.03536061    -0.07483600
Spot 2     0.01360517     0.03535926    -0.07483600
Spot 1     0.01345013     0.03536057    -0.07483600
Spot 2     0.01360529     0.03535943    -0.07483600
Spot 1     0.01345013     0.03536062    -0.07483600
Spot 2     0.01360525     0.03535943    -0.07483600
20MABNDL000196_20MABNDM000020
Spot 1    -0.01274925     0.03531356    -0.00611000
Spot 2    -0.01252846     0.03532333    -0.00611000
Spot 1    -0.01274924     0.03531349    -0.00611000
Spot 2    -0.01252828     0.03532325    -0.00611000
Spot 1    -0.01274929     0.03531335    -0.00611000
Spot 2    -0.01252864     0.03532345    -0.00611000
Spot 1    -0.01274912     0.03531335    -0.00611000
Spot 2    -0.01252830     0.03532343    -0.00611000
20MABNDL000196_PR012
Spot 1    -0.01348069     0.03559854    -0.00611000
Spot 2    -0.01355411     0.03564228    -0.00611000
Spot 1    -0.01348061     0.03559865    -0.00611000
Spot 2    -0.01355422     0.03564217    -0.00611000
Spot 1    -0.01348069     0.03559879    -0.00611000
Spot 2    -0.01355428     0.03564237    -0.00611000
Spot 1    -0.01348091     0.03559872    -0.00611000
Spot 2    -0.01355420     0.03564244    -0.00611000
20MABNDA000318_PR004
Spot 1    -0.01286611     0.01246984    -0.07310600
Spot 2    -0.01264779     0.01247058    -0.07310600
Spot 1    -0.01286612     0.01247040    -0.07310600
Spot 2    -0.01264787     0.01247035    -0.07310600
Spot 1    -0.01286607     0.01247055    -0.07310600
Spot 2    -0.01264784     0.01247081    -0.07310600
Spot 1    -0.01286608     0.01247039    -0.07310600
Spot 2    -0.01264813     0.01247053    -0.07310600
20MABNDA000334_PR005
Spot 1    -0.01311582     0.01254344    -0.07324100
Spot 2    -0.01283538     0.01254253    -0.07324100
Spot 1    -0.01311585     0.01254355    -0.07324100
Spot 2    -0.01283541     0.01254279    -0.07324100
Spot 1    -0.01311596     0.01254355    -0.07324100
Spot 2    -0.01283526     0.01254260    -0.07324100
Spot 1    -0.01311580     0.01254361    -0.07324100
Spot 2    -0.01283543     0.01254239    -0.07324100
20MABNDB000317_PR015
Spot 1    -0.01266558    -0.01249854    -0.07326100
Spot 2    -0.01244606    -0.01250203    -0.07326100
Spot 1    -0.01266549    -0.01249857    -0.07326100
Spot 2    -0.01244624    -0.01250187    -0.07326100
Spot 1    -0.01266537    -0.01249857    -0.07326100
Spot 2    -0.01244639    -0.01250200    -0.07326100
Spot 1    -0.01266550    -0.01249871    -0.07326100
Spot 2    -0.01244635    -0.01250204    -0.07326100
20MABNDB000146_PR016
Spot 1    -0.01275946    -0.01246258    -0.07450500
Spot 2    -0.01248414    -0.01245829    -0.07450500
Spot 1    -0.01275939    -0.01246266    -0.07450500
Spot 2    -0.01248427    -0.01245823    -0.07450500
Spot 1    -0.01275939    -0.01246252    -0.07450500
Spot 2    -0.01248398    -0.01245848    -0.07450500
Spot 1    -0.01275961    -0.01246263    -0.07450500
Spot 2    -0.01248415    -0.01245829    -0.07450500
20MABNDB000135_PR027
Spot 1    -0.01251295    -0.01319680    -0.07464700
Spot 2    -0.01229492    -0.01319763    -0.07464700
Spot 1    -0.01251286    -0.01319693    -0.07464700
Spot 2    -0.01229470    -0.01319774    -0.07464700
Spot 1    -0.01251302    -0.01319698    -0.07464700
Spot 2    -0.01229479    -0.01319779    -0.07464700
Spot 1    -0.01251288    -0.01319669    -0.07464700
Spot 2    -0.01229475    -0.01319757    -0.07464700
20MABNDB000126_PR028
Spot 1    -0.01253406    -0.01217212    -0.07500400
Spot 2    -0.01225193    -0.01216874    -0.07500400
Spot 1    -0.01253394    -0.01217203    -0.07500400
Spot 2    -0.01225187    -0.01216860    -0.07500400
Spot 1    -0.01253384    -0.01217195    -0.07500400
Spot 2    -0.01225189    -0.01216878    -0.07500400
Spot 1    -0.01253409    -0.01217198    -0.07500400
Spot 2    -0.01225175    -0.01216877    -0.07500400
20MABNDA000272_PR038
Spot 1    -0.01275992     0.01315638    -0.07417900
Spot 2    -0.01253884     0.01315608    -0.07417900
Spot 1    -0.01275978     0.01315642    -0.07417900
Spot 2    -0.01253866     0.01315608    -0.07417900
Spot 1    -0.01275964     0.01315628    -0.07417900
Spot 2    -0.01253868     0.01315626    -0.07417900
Spot 1    -0.01275969     0.01315615    -0.07417900
Spot 2    -0.01253877     0.01315599    -0.07417900
20MABNDA000003_PR039
Spot 1    -0.01280262     0.01212099    -0.07373400
Spot 2    -0.01308118     0.01212090    -0.07373400
Spot 1    -0.01280260     0.01212092    -0.07373400
Spot 2    -0.01308093     0.01212102    -0.07373400
Spot 1    -0.01280248     0.01212094    -0.07373400
Spot 2    -0.01308084     0.01212105    -0.07373400
Spot 1    -0.01280253     0.01212084    -0.07373400
Spot 2    -0.01308123     0.01212089    -0.07373400
20MABNDA000196_PR006
Spot 1    -0.01294048     0.01323486    -0.07967100
Spot 2    -0.01257434     0.01323302    -0.07967100
Spot 1    -0.01294026     0.01323496    -0.07967100
Spot 2    -0.01257466     0.01323287    -0.07967100
Spot 1    -0.01294049     0.01323488    -0.07967100
Spot 2    -0.01257447     0.01323287    -0.07967100
Spot 1    -0.01294056     0.01323518    -0.07967100
Spot 2    -0.01257430     0.01323293    -0.07967100
20MABNDA000324_PR007
Spot 1    -0.01255318     0.01281789    -0.07446800
Spot 2    -0.01234743     0.01281321    -0.07446800
Spot 1    -0.01255314     0.01281766    -0.07446800
Spot 2    -0.01234765     0.01281307    -0.07446800
Spot 1    -0.01255298     0.01281757    -0.07446800
Spot 2    -0.01234727     0.01281307    -0.07446800
Spot 1    -0.01255321     0.01281766    -0.07446800
Spot 2    -0.01234726     0.01281318    -0.07446800
20MABNDB000001_PR017
Spot 1    -0.01230085    -0.01355244    -0.07418400
Spot 2    -0.01193247    -0.01354693    -0.07418400
Spot 1    -0.01230083    -0.01355242    -0.07418400
Spot 2    -0.01193232    -0.01354695    -0.07418400
Spot 1    -0.01230094    -0.01355233    -0.07418400
Spot 2    -0.01193232    -0.01354695    -0.07418400
Spot 1    -0.01230084    -0.01355231    -0.07418400
Spot 2    -0.01193230    -0.01354710    -0.07418400
20MABNDB000260_PR019
Spot 1    -0.01240910    -0.01239728    -0.07492700
Spot 2    -0.01220552    -0.01239306    -0.07492700
Spot 1    -0.01240926    -0.01239706    -0.07492700
Spot 2    -0.01220581    -0.01239275    -0.07492700
Spot 1    -0.01240922    -0.01239696    -0.07492700
Spot 2    -0.01220549    -0.01239274    -0.07492700
Spot 1    -0.01240914    -0.01239707    -0.07492700
Spot 2    -0.01220535    -0.01239290    -0.07492700
20MABNDB000212_PR029
Spot 1    -0.01185109    -0.01328809    -0.07390500
Spot 2    -0.01221305    -0.01328291    -0.07390500
Spot 1    -0.01185125    -0.01328798    -0.07390500
Spot 2    -0.01221321    -0.01328228    -0.07390500
Spot 1    -0.01185102    -0.01328800    -0.07390500
Spot 2    -0.01221321    -0.01328195    -0.07390500
Spot 1    -0.01185117    -0.01328812    -0.07390500
Spot 2    -0.01221321    -0.01328195    -0.07390500
20MABNDB000128_PR030
Spot 1    -0.01245480    -0.01221503    -0.07353400
Spot 2    -0.01225006    -0.01221958    -0.07353400
Spot 1    -0.01245479    -0.01221510    -0.07353400
Spot 2    -0.01225006    -0.01221966    -0.07353400
Spot 1    -0.01245483    -0.01221510    -0.07353400
Spot 2    -0.01224986    -0.01221955    -0.07353400
Spot 1    -0.01245482    -0.01221495    -0.07353400
Spot 2    -0.01225006    -0.01221958    -0.07353400
20MABNDA000444_PR040
Spot 1    -0.01169987     0.01367600    -0.07412000
Spot 2    -0.01206705     0.01367426    -0.07412000
Spot 1    -0.01169987     0.01367621    -0.07412000
Spot 2    -0.01206681     0.01367431    -0.07412000
Spot 1    -0.01169994     0.01367598    -0.07412000
Spot 2    -0.01206640     0.01367452    -0.07412000
Spot 1    -0.01169983     0.01367620    -0.07412000
Spot 2    -0.01206657     0.01367424    -0.07412000
20MABNDA000053_PR041
Spot 1    -0.01241946     0.01212609    -0.07430100
Spot 2    -0.01220278     0.01212773    -0.07430100
Spot 1    -0.01241946     0.01212570    -0.07430100
Spot 2    -0.01220249     0.01212803    -0.07430100
Spot 1    -0.01241926     0.01212609    -0.07430100
Spot 2    -0.01220257     0.01212780    -0.07430100
Spot 1    -0.01241955     0.01212658    -0.07430100
Spot 2    -0.01220241     0.01212817    -0.07430100
20MABNDB000069_PR031
Spot 1    -0.01361993    -0.01186066    -0.07388500
Spot 2    -0.01361993    -0.01186066    -0.07388500
Spot 1    -0.01361993    -0.01186066    -0.07388500
Spot 2    -0.01361993    -0.01186066    -0.07388500
Spot 1    -0.01361993    -0.01186066    -0.07388500
Spot 2    -0.01361993    -0.01186066    -0.07388500
Spot 1    -0.01361993    -0.01186066    -0.07388500
Spot 2    -0.01361993    -0.01186066    -0.07388500
20MABNDB000069_PR033
Spot 1    -0.01202890    -0.01226541    -0.07388500
Spot 2    -0.01155834    -0.01226476    -0.07388500
Spot 1    -0.01202884    -0.01226543    -0.07388500
Spot 2    -0.01155846    -0.01226511    -0.07388500
Spot 1    -0.01202901    -0.01226519    -0.07388500
Spot 2    -0.01155841    -0.01226493    -0.07388500
Spot 1    -0.01202882    -0.01226522    -0.07388500
Spot 2    -0.01155839    -0.01226503    -0.07388500
20MABNDB000131_PR032
Spot 1    -0.01144288    -0.01303744    -0.07533000
Spot 2    -0.01138310    -0.01303359    -0.07533000
Spot 1    -0.01144320    -0.01303722    -0.07533000
Spot 2    -0.01138302    -0.01303342    -0.07533000
Spot 1    -0.01144329    -0.01303707    -0.07533000
Spot 2    -0.01138293    -0.01303371    -0.07533000
Spot 1    -0.01144344    -0.01303707    -0.07533000
Spot 2    -0.01138308    -0.01303363    -0.07533000
20MABNDB000131_PR034
Spot 1    -0.01329229    -0.01379976    -0.07533000
Spot 2    -0.01311585    -0.01379889    -0.07533000
Spot 1    -0.01329230    -0.01379965    -0.07533000
Spot 2    -0.01311585    -0.01379892    -0.07533000
Spot 1    -0.01329222    -0.01379965    -0.07533000
Spot 2    -0.01311601    -0.01379885    -0.07533000
Spot 1    -0.01329223    -0.01379978    -0.07533000
Spot 2    -0.01311575    -0.01379901    -0.07533000
20MABNDA000208_PR042
Spot 1    -0.01393019     0.01304365    -0.07273700
Spot 2    -0.01386509     0.01304471    -0.07273700
Spot 1    -0.01393018     0.01304339    -0.07273700
Spot 2    -0.01386498     0.01304467    -0.07273700
Spot 1    -0.01392998     0.01304375    -0.07273700
Spot 2    -0.01386423     0.01304440    -0.07273700
Spot 1    -0.01393016     0.01304275    -0.07273700
Spot 2    -0.01386524     0.01304482    -0.07273700
20MABNDA000208_PR046
Spot 1    -0.01231782     0.01179685    -0.07273700
Spot 2    -0.01184517     0.01179720    -0.07273700
Spot 1    -0.01231781     0.01179705    -0.07273700
Spot 2    -0.01184471     0.01179737    -0.07273700
Spot 1    -0.01231804     0.01179717    -0.07273700
Spot 2    -0.01184465     0.01179725    -0.07273700
Spot 1    -0.01231779     0.01179702    -0.07273700
Spot 2    -0.01184509     0.01179727    -0.07273700
20MABNDA000035_PR044
Spot 1    -0.01157279     0.01300052    -0.07483200
Spot 2    -0.01151602     0.01300616    -0.07483200
Spot 1    -0.01157240     0.01300028    -0.07483200
Spot 2    -0.01151580     0.01300600    -0.07483200
Spot 1    -0.01157302     0.01300053    -0.07483200
Spot 2    -0.01151576     0.01300620    -0.07483200
Spot 1    -0.01157259     0.01300069    -0.07483200
Spot 2    -0.01151559     0.01300620    -0.07483200
20MABNDA000035_PR045
Spot 1    -0.01337459     0.01379772    -0.07483200
Spot 2    -0.01319739     0.01379722    -0.07483200
Spot 1    -0.01337484     0.01379789    -0.07483200
Spot 2    -0.01319704     0.01379720    -0.07483200
Spot 1    -0.01337461     0.01379808    -0.07483200
Spot 2    -0.01319682     0.01379700    -0.07483200
Spot 1    -0.01337477     0.01379784    -0.07483200
Spot 2    -0.01319742     0.01379719    -0.07483200
20MABNDA000188_PR008
Spot 1    -0.01418021     0.01405124    -0.07502000
Spot 2    -0.01418021     0.01405124    -0.07502000
Spot 1    -0.01418021     0.01405124    -0.07502000
Spot 2    -0.01418021     0.01405124    -0.07502000
Spot 1    -0.01418021     0.01405124    -0.07502000
Spot 2    -0.01418021     0.01405124    -0.07502000
Spot 1    -0.01418021     0.01405124    -0.07502000
Spot 2    -0.01418021     0.01405124    -0.07502000
20MABNDA000188_PR018
Spot 1    -0.01269982     0.01228973    -0.07502000
Spot 2    -0.01223261     0.01228877    -0.07502000
Spot 1    -0.01269987     0.01228949    -0.07502000
Spot 2    -0.01223257     0.01228869    -0.07502000
Spot 1    -0.01269988     0.01228964    -0.07502000
Spot 2    -0.01223257     0.01228875    -0.07502000
Spot 1    -0.01269993     0.01228958    -0.07502000
Spot 2    -0.01223253     0.01228856    -0.07502000
20MABNDA000039_PR009
Spot 1    -0.01162666     0.01306739    -0.07444800
Spot 2    -0.01157950     0.01306238    -0.07444800
Spot 1    -0.01162628     0.01306734    -0.07444800
Spot 2    -0.01157952     0.01306247    -0.07444800
Spot 1    -0.01162622     0.01306721    -0.07444800
Spot 2    -0.01157950     0.01306253    -0.07444800
Spot 1    -0.01162656     0.01306749    -0.07444800
Spot 2    -0.01157975     0.01306288    -0.07444800
20MABNDA000039_PR011
Spot 1    -0.01372650     0.01397137    -0.07444800
Spot 2    -0.01355095     0.01397537    -0.07444800
Spot 1    -0.01372659     0.01397132    -0.07444800
Spot 2    -0.01355074     0.01397536    -0.07444800
Spot 1    -0.01372652     0.01397138    -0.07444800
Spot 2    -0.01355097     0.01397540    -0.07444800
Spot 1    -0.01372645     0.01397139    -0.07444800
Spot 2    -0.01355102     0.01397535    -0.07444800
20MABNDB000155_PR020
Spot 1    -0.01364577    -0.01312632    -0.07501700
Spot 2    -0.01358092    -0.01312859    -0.07501700
Spot 1    -0.01364523    -0.01312598    -0.07501700
Spot 2    -0.01358084    -0.01312884    -0.07501700
Spot 1    -0.01364534    -0.01312628    -0.07501700
Spot 2    -0.01358100    -0.01312897    -0.07501700
Spot 1    -0.01364554    -0.01312574    -0.07501700
Spot 2    -0.01358029    -0.01312948    -0.07501700
20MABNDB000155_PR022
Spot 1    -0.01216042    -0.01283596    -0.07501700
Spot 2    -0.01168745    -0.01283396    -0.07501700
Spot 1    -0.01216039    -0.01283604    -0.07501700
Spot 2    -0.01168727    -0.01283418    -0.07501700
Spot 1    -0.01216042    -0.01283591    -0.07501700
Spot 2    -0.01168711    -0.01283405    -0.07501700
Spot 1    -0.01216025    -0.01283580    -0.07501700
Spot 2    -0.01168753    -0.01283390    -0.07501700
20MABNDB000010_PR021
Spot 1    -0.01158027    -0.01292581    -0.07358200
Spot 2    -0.01152763    -0.01292203    -0.07358200
Spot 1    -0.01158046    -0.01292543    -0.07358200
Spot 2    -0.01152774    -0.01292162    -0.07358200
Spot 1    -0.01158018    -0.01292533    -0.07358200
Spot 2    -0.01152770    -0.01292173    -0.07358200
Spot 1    -0.01158033    -0.01292549    -0.07358200
Spot 2    -0.01152777    -0.01292147    -0.07358200
20MABNDB000010_PR023
Spot 1    -0.01312383    -0.01379126    -0.07358200
Spot 2    -0.01294882    -0.01378981    -0.07358200
Spot 1    -0.01312404    -0.01379125    -0.07358200
Spot 2    -0.01294889    -0.01378979    -0.07358200
Spot 1    -0.01312395    -0.01379111    -0.07358200
Spot 2    -0.01294873    -0.01378965    -0.07358200
Spot 1    -0.01312391    -0.01379121    -0.07358200
Spot 2    -0.01294873    -0.01378975    -0.07358200


*****************************************************************coordonnees du prisme dans le repere MOUNT********************************************************************************** 
20MABNDL000077_PR002
    0.05004974     0.04760149     3.70691466
    0.04179986     0.05672799     3.70694900
    0.05012638     0.04755777     3.70691419
    0.05001288     0.04769893     3.70691466
    0.05004171     0.04779449     3.70691442
20MABNDL000077_PR003
    0.02100405     0.02119860     3.89601707
    0.02101045     0.02118867     3.89601707
    0.02102150     0.02117741     3.89601660
    0.02102918     0.02116617     3.89601660
    0.02103025     0.02116901     3.89601660
20MABNDL000077_20MABNDM000168
   -0.05596672     0.07584260    -5.46843529
   -0.05597483     0.07582373    -5.46843529
   -0.05596540     0.07581986    -5.46843529
    0.02680520     0.06907559    -5.46851063
   -0.05596629     0.07579999    -5.46843624
20MABNDL000077_PR024
    0.04539972     0.01807919    -5.89640427
    0.04537620     0.01805400    -5.89640427
    0.04538555     0.01805449    -5.89640427
    0.04538283     0.01805407    -5.89640427
    0.04538106     0.01803612    -5.89640427
20MABNDM000020_PR013
    0.02458502    -0.08302648    -3.80200291
    0.00107112    -0.08578172    -3.80212831
    0.00707881    -0.08812969    -3.80206895
    0.01857808    -0.08067884    -3.80208707
20MABNDM000020_PR014
   -0.09646920    -0.08948103    -4.74775267
   -0.09646920    -0.08948103    -4.74775267
   -0.09646920    -0.08948103    -4.74775267
   -0.09646920    -0.08948103    -4.74775267
20MABNDM000020_20MABNDL000196
    0.02685311    -0.07127567     5.39469624
    0.02685239    -0.07127639     5.39469624
    0.05729742    -0.04690782     5.39463568
    0.02685311    -0.07126779     5.39469624
20MABNDM000020_PR035
   -0.04228377    -0.00677959     5.80095577
   -0.04226837    -0.00677727     5.80095673
   -0.04228031    -0.00677149     5.80095577
   -0.04227993    -0.00677689     5.80095673
20MABNDM000168_PR025
    0.01942551    -0.07517783    -3.78845215
    0.02288022    -0.07367942    -3.78843594
    0.01597064    -0.07667626    -3.78846455
    0.01597064    -0.07667626    -3.78846455
20MABNDM000168_PR026
   -0.05785403    -0.01395240    -3.98429012
   -0.05784822    -0.01397190    -3.98429012
   -0.05784163    -0.01399087    -3.98429084
   -0.05784399    -0.01398645    -3.98429084
20MABNDM000168_20MABNDL000077
    0.01161098    -0.03834409     5.38884687
    0.01163488    -0.03835593     5.38884687
    0.01163936    -0.03836929     5.38884687
    0.01164114    -0.03839482     5.38884687
20MABNDM000168_PR001
   -0.05740175    -0.01317605     5.81470394
   -0.05740061    -0.01317761     5.81470394
   -0.05739048    -0.01317466     5.81470394
   -0.05739728    -0.01318929     5.81470394
20MABNDL000196_PR036
    0.05135703     0.00592949     3.68777180
    0.05136145     0.00593146     3.68777180
    0.05136023     0.00592607     3.68777132
    0.05136808     0.00592804     3.68777132
20MABNDL000196_PR037
   -0.02515757     0.02855639     3.88381290
   -0.02515551     0.02856001     3.88381290
   -0.02515473     0.02855665     3.88381290
   -0.02515369     0.02855536     3.88381290
20MABNDL000196_20MABNDM000020
   -0.01573481     0.03782804    -5.47473907
   -0.01574175     0.03783328    -5.47473907
   -0.01572662     0.03783143    -5.47473907
   -0.01574495     0.03783178    -5.47473907
20MABNDL000196_PR012
    0.05230466     0.01450135    -5.91537285
    0.05230583     0.01450137    -5.91537285
    0.05231114     0.01448826    -5.91537189
    0.05231658     0.01448798    -5.91537189
20MABNDA000318_PR004
   -0.00844834     0.03836691     2.74965906
   -0.00844668     0.03836086     2.74965906
   -0.00844811     0.03834966     2.74965954
   -0.00844263     0.03835775     2.74965906
20MABNDA000334_PR005
   -0.00428482     0.03166372     2.14977217
   -0.00428397     0.03165843     2.14977217
   -0.00428454     0.03166115     2.14977217
   -0.00428440     0.03166329     2.14977217
20MABNDB000317_PR015
   -0.01740464    -0.03398272     2.75129032
   -0.01740297    -0.03398507     2.75129032
   -0.01740246    -0.03398269     2.75129032
   -0.01740085    -0.03397940     2.75129032
20MABNDB000146_PR016
   -0.01355703    -0.03177037     2.15201283
   -0.01355617    -0.03177008     2.15201283
   -0.01356034    -0.03176851     2.15201283
   -0.01355473    -0.03176964     2.15201283
20MABNDB000135_PR027
   -0.02102655    -0.00985762     2.74937105
   -0.02103237    -0.00985316     2.74937105
   -0.02102776    -0.00985138     2.74937105
   -0.02103098    -0.00986069     2.74937105
20MABNDB000126_PR028
   -0.02035761    -0.03899131     2.14679480
   -0.02036015    -0.03899460     2.14679480
   -0.02036130    -0.03899318     2.14679480
   -0.02035973    -0.03899289     2.14679480
20MABNDA000272_PR038
   -0.01317882     0.01095684     2.74965882
   -0.01318468     0.01095612     2.74965882
   -0.01318688     0.01095539     2.74965882
   -0.01318431     0.01096271     2.74965882
20MABNDA000003_PR039
   -0.00590664     0.04138501     2.14891338
   -0.00591050     0.04138416     2.14891338
   -0.00591350     0.04138346     2.14891338
   -0.00590720     0.04138730     2.14891338
20MABNDA000196_PR006
   -0.01040982     0.01023497     1.64206433
   -0.01040872     0.01023561     1.64206433
   -0.01040827     0.01023637     1.64206433
   -0.01040931     0.01023245     1.64206433
20MABNDA000324_PR007
   -0.02527277     0.02753087     2.95549345
   -0.02526929     0.02753818     2.95549345
   -0.02527993     0.02753987     2.95549345
   -0.02527557     0.02753596     2.95549345
20MABNDB000001_PR017
   -0.02415080    -0.00280638     1.64035940
   -0.02415266    -0.00280636     1.64035940
   -0.02415146    -0.00280736     1.64035940
   -0.02415276    -0.00280592     1.64035940
20MABNDB000260_PR019
   -0.02435400    -0.03845588     2.95627403
   -0.02434512    -0.03846634     2.95627403
   -0.02435217    -0.03846845     2.95627403
   -0.02435661    -0.03846323     2.95627403
20MABNDB000212_PR029
   -0.02545341    -0.00830824     1.64223695
   -0.02544999    -0.00831639     1.64223695
   -0.02545244    -0.00831976     1.64223695
   -0.02545078    -0.00831847     1.64223695
20MABNDB000128_PR030
   -0.01928578    -0.04685029     2.95496273
   -0.01928598    -0.04684734     2.95496273
   -0.01928912    -0.04684951     2.95496273
   -0.01928538    -0.04685185     2.95496249
20MABNDA000444_PR040
   -0.02991344     0.00090239     1.64491177
   -0.02991604     0.00089951     1.64491177
   -0.02991976     0.00089969     1.64491177
   -0.02991911     0.00090035     1.64491177
20MABNDA000053_PR041
   -0.02643121     0.05076285     2.95450902
   -0.02643687     0.05076472     2.95450878
   -0.02643929     0.05076163     2.95450902
   -0.02643668     0.05074450     2.95450902
20MABNDB000069_PR031
    0.10999375    -0.16176865     9.20229721
    0.10999375    -0.16176865     9.20229721
    0.10999375    -0.16176865     9.20229721
    0.10999375    -0.16176865     9.20229721
20MABNDB000069_PR033
   -0.02677424    -0.02690180     1.28394151
   -0.02677377    -0.02689865     1.28394151
   -0.02677272    -0.02690221     1.28394151
   -0.02677456    -0.02690110     1.28394151
20MABNDB000131_PR032
   -0.18797940    -0.02974433    11.00642014
   -0.18796174    -0.02977274    11.00642204
   -0.18796179    -0.02976251    11.00642204
   -0.18793985    -0.02976825    11.00642204
20MABNDB000131_PR034
    0.01432423     0.01648325     3.43337917
    0.01432446     0.01648143     3.43337917
    0.01432630     0.01647984     3.43337917
    0.01432079     0.01648665     3.43337917
20MABNDA000208_PR042
    0.13261780     0.01452410     9.20144749
    0.13261041     0.01454251     9.20144749
    0.13255213     0.01453693     9.20144749
    0.13262512     0.01457259     9.20144749
20MABNDA000208_PR046
   -0.02348778     0.03458755     1.28208208
   -0.02349179     0.03458439     1.28208208
   -0.02349034     0.03458439     1.28208232
   -0.02348872     0.03458550     1.28208232
20MABNDA000035_PR044
   -0.17997429     0.02665990    11.00802231
   -0.18001941     0.02668874    11.00802231
   -0.17997649     0.02665626    11.00802231
   -0.18001974     0.02664413    11.00802231
20MABNDA000035_PR045
    0.01460958    -0.01891144     3.43483734
    0.01460727    -0.01891485     3.43483734
    0.01459700    -0.01891455     3.43483734
    0.01461435    -0.01891353     3.43483734
20MABNDA000188_PR008
    0.16937664    -0.10858481     9.20245647
    0.16937664    -0.10858481     9.20245647
    0.16937664    -0.10858481     9.20245647
    0.16937664    -0.10858481     9.20245647
20MABNDA000188_PR018
   -0.01664485     0.02628943     1.28357661
   -0.01664473     0.02629216     1.28357649
   -0.01664467     0.02629036     1.28357649
   -0.01664456     0.02629250     1.28357649
20MABNDA000039_PR009
   -0.17106436     0.02516150    11.00701714
   -0.17109069     0.02515869    11.00701714
   -0.17109653     0.02516310    11.00701714
   -0.17105213     0.02511757    11.00701714
20MABNDA000039_PR011
    0.03078722    -0.02454660     3.43347073
    0.03078449    -0.02454522     3.43347073
    0.03078836    -0.02454752     3.43347073
    0.03078768    -0.02454660     3.43347073
20MABNDB000155_PR020
    0.10207422    -0.00913936     9.20028305
    0.10203625    -0.00914541     9.20028496
    0.10205307    -0.00911939     9.20028305
    0.10202179    -0.00912105     9.20028496
20MABNDB000155_PR022
   -0.02555190    -0.01756892     1.28070879
   -0.02555365    -0.01756629     1.28070879
   -0.02555473    -0.01756853     1.28070879
   -0.02555265    -0.01757080     1.28070879
20MABNDB000010_PR021
   -0.17629877    -0.03367990    11.00694466
   -0.17627645    -0.03373834    11.00694466
   -0.17629997    -0.03373800    11.00694466
   -0.17628442    -0.03374509    11.00694466
20MABNDB000010_PR023
    0.00428912     0.02023486     3.43377209
    0.00429555     0.02023405     3.43377209
    0.00428993     0.02022776     3.43377209
    0.00428893     0.02023233     3.43377209


*****************************************************************coordonnees du prisme dans le repere ATLAS********************************************************************************** 
20MABNDL000077_PR002 0.00000000
    2.80943942    -3.69445896     6.48622131
    2.80031037    -3.70270586     6.48625422
    2.80948329    -3.69438219     6.48622084
    2.80934215    -3.69449568     6.48622131
    2.80924654    -3.69446683     6.48622131
20MABNDL000077_PR003 0.00000000
    2.83601856    -3.72374630     6.67526150
    2.83602858    -3.72373986     6.67526150
    2.83603978    -3.72372890     6.67526102
    2.83605099    -3.72372127     6.67526102
    2.83604813    -3.72372007     6.67526102
20MABNDL000077_20MABNDM000168 0.00000000
    2.77216482    -3.78914595    -2.68922043
    2.77218366    -3.78915405    -2.68922043
    2.77218747    -3.78914452    -2.68922043
    2.77895808    -3.70637608    -2.68920016
    2.77220750    -3.78914547    -2.68922138
20MABNDL000077_PR024 0.00000000
    2.82954073    -3.68726993    -3.11712050
    2.82956600    -3.68729329    -3.11712050
    2.82956553    -3.68728399    -3.11712050
    2.82956576    -3.68728662    -3.11712050
    2.82958388    -3.68728852    -3.11712050
20MABNDM000020_PR013 0.00000000
   -2.76929164    -3.76408863     6.48581123
   -2.76652908    -3.74057555     6.48595381
   -2.76418304    -3.74658394     6.48588943
   -2.77163744    -3.75808096     6.48590040
20MABNDM000020_PR014 0.00000000
   -2.76261067    -3.64375567     7.43165112
   -2.76261067    -3.64375567     7.43165112
   -2.76261067    -3.64375567     7.43165112
   -2.76261067    -3.64375567     7.43165112
20MABNDM000020_20MABNDL000196 0.00000000
   -2.78288364    -3.75935864    -2.71088481
   -2.78288293    -3.75935793    -2.71088481
   -2.80726075    -3.78979540    -2.71084237
   -2.78289151    -3.75935864    -2.71088481
20MABNDM000020_PR035 0.00000000
   -2.84743977    -3.68989301    -3.11707878
   -2.84744215    -3.68990850    -3.11707973
   -2.84744787    -3.68989658    -3.11707878
   -2.84744263    -3.68989682    -3.11707973
20MABNDM000168_PR025 0.00000000
    2.77805853    -3.76474023    -6.47906733
    2.77955604    -3.76819539    -6.47904968
    2.77656102    -3.76128507    -6.47908068
    2.77656102    -3.76128507    -6.47908068
20MABNDM000168_PR026 0.00000000
    2.83929253    -3.68754983    -6.67493773
    2.83927321    -3.68755555    -6.67493773
    2.83925414    -3.68756223    -6.67493820
    2.83925867    -3.68755984    -6.67493820
20MABNDM000168_20MABNDL000077 0.00000000
    2.81545138    -3.75352311     2.69822621
    2.81543946    -3.75354719     2.69822621
    2.81542611    -3.75355148     2.69822621
    2.81540060    -3.75355339     2.69822621
20MABNDM000168_PR001 0.00000000
    2.84066343    -3.68435884     3.12405586
    2.84066200    -3.68436003     3.12405586
    2.84066486    -3.68437004     3.12405586
    2.84065032    -3.68436313     3.12405586
20MABNDL000196_PR036 0.00000000
   -2.84767795    -3.69291759    -6.47909546
   -2.84767604    -3.69291306    -6.47909546
   -2.84768152    -3.69291425    -6.47909498
   -2.84767938    -3.69290638    -6.47909498
20MABNDL000196_PR037 0.00000000
   -2.82501984    -3.76960397    -6.67506552
   -2.82501626    -3.76960182    -6.67506552
   -2.82501960    -3.76960111    -6.67506552
   -2.82502079    -3.76959991    -6.67506552
20MABNDL000196_20MABNDM000020 0.00000000
   -2.81555033    -3.75147152     2.68347335
   -2.81554508    -3.75147843     2.68347335
   -2.81554699    -3.75146341     2.68347335
   -2.81554651    -3.75148153     2.68347335
20MABNDL000196_PR012 0.00000000
   -2.83889914    -3.68303299     3.12404418
   -2.83889914    -3.68303180     3.12404418
   -2.83891225    -3.68302655     3.12404323
   -2.83891249    -3.68302107     3.12404323
20MABNDA000318_PR004 0.00000000
    2.61455488    -4.19698906     3.83363175
    2.61455655    -4.19698906     3.83363771
    2.61455512    -4.19698858     3.83364892
    2.61456060    -4.19698906     3.83364081
20MABNDA000334_PR005 0.00000000
    2.61671376    -4.19703102     5.89759731
    2.61671472    -4.19703102     5.89760256
    2.61671400    -4.19703102     5.89759970
    2.61671424    -4.19703102     5.89759779
20MABNDB000317_PR015 0.00000000
   -2.61120248    -4.19700527     3.83603263
   -2.61120415    -4.19700527     3.83603048
   -2.61120462    -4.19700527     3.83603287
   -2.61120629    -4.19700527     3.83603597
20MABNDB000146_PR016 0.00000000
   -2.61273813    -4.19702482     5.89858007
   -2.61273909    -4.19702482     5.89858007
   -2.61273479    -4.19702482     5.89858198
   -2.61274052    -4.19702482     5.89858055
20MABNDB000135_PR027 0.00000000
    2.60383677    -4.19700432    -3.82550335
    2.60383105    -4.19700432    -3.82550764
    2.60383558    -4.19700432    -3.82550955
    2.60383224    -4.19700432    -3.82550025
20MABNDB000126_PR028 0.00000000
    2.60555959    -4.19702148    -5.89322853
    2.60555720    -4.19702148    -5.89322519
    2.60555601    -4.19702148    -5.89322662
    2.60555744    -4.19702148    -5.89322710
20MABNDA000272_PR038 0.00000000
   -2.61135817    -4.19698286    -3.82752752
   -2.61135221    -4.19698286    -3.82752824
   -2.61135006    -4.19698286    -3.82752895
   -2.61135268    -4.19698286    -3.82752156
20MABNDA000003_PR039 0.00000000
   -2.61582446    -4.19702291    -5.89138174
   -2.61582065    -4.19702291    -5.89138269
   -2.61581755    -4.19702291    -5.89138317
   -2.61582398    -4.19702291    -5.89137936
20MABNDA000196_PR006 0.00000000
    2.58487034    -4.19496393     6.54819155
    2.58486915    -4.19496393     6.54819202
    2.58486867    -4.19496393     6.54819298
    2.58486986    -4.19496393     6.54818916
20MABNDA000324_PR007 0.00000000
    2.59404206    -4.13996458     6.94838428
    2.59404540    -4.13996458     6.94837713
    2.59403491    -4.13996458     6.94837523
    2.59403920    -4.13996458     6.94837904
20MABNDB000001_PR017 0.00000000
   -2.59785199    -4.19505882     6.53813457
   -2.59785390    -4.19505882     6.53813457
   -2.59785271    -4.19505882     6.53813553
   -2.59785414    -4.19505882     6.53813410
20MABNDB000260_PR019 0.00000000
   -2.60440779    -4.13996029     6.94218826
   -2.60441685    -4.13996029     6.94217777
   -2.60440969    -4.13996029     6.94217539
   -2.60440516    -4.13996029     6.94218063
20MABNDB000212_PR029 0.00000000
    2.59913111    -4.19501162    -6.54729605
    2.59912777    -4.19501162    -6.54730415
    2.59913015    -4.19501162    -6.54730749
    2.59912848    -4.19501162    -6.54730606
20MABNDB000128_PR030 0.00000000
    2.60957289    -4.14002705    -6.93127060
    2.60957265    -4.14002705    -6.93127394
    2.60956955    -4.14002705    -6.93127155
    2.60957336    -4.14002752    -6.93126917
20MABNDA000444_PR040 0.00000000
   -2.60508609    -4.19509745    -6.54008245
   -2.60508847    -4.19509745    -6.54007959
   -2.60509229    -4.19509745    -6.54008007
   -2.60509157    -4.19509745    -6.54008055
20MABNDA000053_PR041 0.00000000
   -2.59411073    -4.14012241    -6.92715073
   -2.59410501    -4.14012289    -6.92714882
   -2.59410262    -4.14012241    -6.92715168
   -2.59410524    -4.14012241    -6.92716885
20MABNDB000069_PR031 0.00000000
    3.69177032     3.84800911    -7.77863359
    3.69177032     3.84800911    -7.77863359
    3.69177032     3.84800911    -7.77863359
    3.69177032     3.84800911    -7.77863359
20MABNDB000069_PR033 0.00000000
    3.53352523    -4.07046175    -7.87876940
    3.53352571    -4.07046175    -7.87877274
    3.53352666    -4.07046175    -7.87876940
    3.53352499    -4.07046175    -7.87877035
20MABNDB000131_PR032 0.00000000
    3.86878181     3.64757013   -12.94038677
    3.86876416     3.64757204   -12.94041538
    3.86876416     3.64757204   -12.94040489
    3.86874223     3.64757204   -12.94041061
20MABNDB000131_PR034 0.00000000
    3.67346501    -3.92563725   -12.89146423
    3.67346478    -3.92563725   -12.89146614
    3.67346311    -3.92563725   -12.89146805
    3.67346859    -3.92563725   -12.89146042
20MABNDA000208_PR042 0.00000000
   -3.68269587     3.84912753    -7.89696217
   -3.68268847     3.84912753    -7.89694405
   -3.68263030     3.84912753    -7.89694929
   -3.68270326     3.84912753    -7.89691401
20MABNDA000208_PR046 0.00000000
   -3.53227758    -4.07034016    -7.87393093
   -3.53227377    -4.07034016    -7.87393379
   -3.53227520    -4.07033968    -7.87393379
   -3.53227663    -4.07033968    -7.87393284
20MABNDA000035_PR044 0.00000000
   -3.86921525     3.64757752   -12.93233871
   -3.86926031     3.64757752   -12.93236732
   -3.86921740     3.64757752   -12.93233490
   -3.86926079     3.64757752   -12.93232346
20MABNDA000035_PR045 0.00000000
   -3.67611885    -3.92564988   -12.88747311
   -3.67612100    -3.92564988   -12.88746929
   -3.67613125    -3.92564988   -12.88747025
   -3.67611408    -3.92564988   -12.88747120
20MABNDA000188_PR008 0.00000000
    3.58195519     3.84822226     8.12045574
    3.58195519     3.84822226     8.12045574
    3.58195519     3.84822226     8.12045574
    3.58195519     3.84822226     8.12045574
20MABNDA000188_PR018 0.00000000
    3.52049923    -4.07060432     7.89715242
    3.52049947    -4.07060432     7.89714956
    3.52049947    -4.07060432     7.89715147
    3.52049947    -4.07060432     7.89714956
20MABNDA000039_PR009 0.00000000
    3.87523627     3.64747548    12.93645573
    3.87526274     3.64747548    12.93645287
    3.87526846     3.64747548    12.93645668
    3.87522411     3.64747548    12.93641186
20MABNDA000039_PR011 0.00000000
    3.66423678    -3.92580509    12.88428974
    3.66423965    -3.92580509    12.88429165
    3.66423583    -3.92580509    12.88428879
    3.66423655    -3.92580509    12.88428974
20MABNDB000155_PR020 0.00000000
   -3.68072653     3.84881616     7.89772797
   -3.68068862     3.84881806     7.89772177
   -3.68070531     3.84881616     7.89774799
   -3.68067408     3.84881830     7.89774609
20MABNDB000155_PR022 0.00000000
   -3.53442860    -4.07043648     7.89049006
   -3.53442693    -4.07043648     7.89049292
   -3.53442574    -4.07043648     7.89049053
   -3.53442788    -4.07043648     7.89048862
20MABNDB000010_PR021 0.00000000
   -3.86213613     3.64768219    12.93550968
   -3.86211371     3.64768219    12.93556786
   -3.86213708     3.64768219    12.93556786
   -3.86212158     3.64768219    12.93557453
20MABNDB000010_PR023 0.00000000
   -3.68537736    -3.92560458    12.88504124
   -3.68537092    -3.92560458    12.88504219
   -3.68537641    -3.92560458    12.88504791
   -3.68537736    -3.92560458    12.88504314


*****************************************************************Rapport********************************************************************************** 
CAM-LBA-US_EBA-US-HO-H         2017.08.11.07.28.52     2.80756435    -3.69610190     6.48622780     0.00362791     0.00330219     0.00001321 0.00000000 VRAI 
CAM-LBA-US_JDA-US-H            2017.08.11.07.28.52     2.83603721    -3.72373128     6.67526121     0.00001215     0.00001030     0.00000023 0.00000000 VRAI 
CAM-LBA-US_CAM-LBC-US          2017.08.11.07.28.52     2.77354031    -3.77259321    -2.68921657     0.00270892     0.03310857     0.00000821 0.00000000 VRAI 
CAM-LBA-US_EBC-US-IP-H         2017.08.11.07.28.52     2.82956438    -3.68728447    -3.11712050     0.00001375     0.00000788     0.00000000 0.00000000 VRAI 
CAM-LBA-USA_EBA-USA-HO-H       2017.08.11.07.28.52    -2.76791030    -3.75233227     6.48588872     0.00281069     0.00925369     0.00005094 0.00000000 VRAI 
CAM-LBA-USA_JDA-USA-H          2017.08.11.07.28.52    -2.76261067    -3.64375567     7.43165112     0.00000000     0.00000000     0.00000000 0.00000000 VRAI 
CAM-LBA-USA_CAM-LBC-USA        2017.08.11.07.28.52    -2.78897971    -3.76696765    -2.71087420     0.01055457     0.01317960     0.00001838 0.00000000 VRAI 
CAM-LBA-USA_EBC-USA-IP-H       2017.08.11.07.28.52    -2.84744310    -3.68989873    -3.11707926     0.00000296     0.00000584     0.00000048 0.00000000 VRAI 
CAM-LBC-US_EBC-US-HO-H         2017.08.11.07.28.52     2.77768415    -3.76387644    -6.47906959     0.00124167     0.00286487     0.00001272 0.00000000 VRAI 
CAM-LBC-US_JDC-US-H            2017.08.11.07.28.52     2.83926964    -3.68755686    -6.67493796     0.00001498     0.00000471     0.00000024 0.00000000 VRAI 
CAM-LBC-US_CAM-LBA-US          2017.08.11.07.28.52     2.81542939    -3.75354379     2.69822621     0.00001887     0.00001215     0.00000000 0.00000000 VRAI 
CAM-LBC-US_EBA-US-IP-H         2017.08.11.07.28.52     2.84066015    -3.68436301     3.12405586     0.00000577     0.00000435     0.00000000 0.00000000 VRAI 
CAM-LBC-USA_EBC-USA-HO-H       2017.08.11.07.28.52    -2.84767872    -3.69291282    -6.47909522     0.00000200     0.00000407     0.00000024 0.00000000 VRAI 
CAM-LBC-USA_JDC-USA-H          2017.08.11.07.28.52    -2.82501912    -3.76960170    -6.67506552     0.00000171     0.00000147     0.00000000 0.00000000 VRAI 
CAM-LBC-USA_CAM-LBA-USA        2017.08.11.07.28.52    -2.81554723    -3.75147372     2.68347335     0.00000192     0.00000697     0.00000000 0.00000000 VRAI 
CAM-LBC-USA_EBA-USA-IP-H       2017.08.11.07.28.52    -2.83890575    -3.68302810     3.12404370     0.00000662     0.00000473     0.00000048 0.00000000 VRAI 
CAM-EBA-US-IP_EBA-US-IP        2017.08.11.07.28.52     2.61455679    -4.19698894     3.83363980     0.00000229     0.00000021     0.00000619 0.00000000 VRAI 
CAM-EBA-US-HO_EBA-US-HO        2017.08.11.07.28.52     2.61671418    -4.19703102     5.89759934     0.00000035     0.00000000     0.00000206 0.00000000 VRAI 
CAM-EBA-USA-IP_EBA-USA-IP      2017.08.11.07.28.52    -2.61120439    -4.19700527     3.83603299     0.00000136     0.00000000     0.00000196 0.00000000 VRAI 
CAM-EBA-USA-HO_EBA-USA-HO      2017.08.11.07.28.52    -2.61273813    -4.19702482     5.89858067     0.00000211     0.00000000     0.00000078 0.00000000 VRAI 
CAM-EBC-US-IP_EBC-US-IP        2017.08.11.07.28.52     2.60383391    -4.19700432    -3.82550520     0.00000234     0.00000000     0.00000363 0.00000000 VRAI 
CAM-EBC-US-HO_EBC-US-HO        2017.08.11.07.28.52     2.60555756    -4.19702148    -5.89322686     0.00000129     0.00000000     0.00000119 0.00000000 VRAI 
CAM-EBC-USA-IP_EBC-USA-IP      2017.08.11.07.28.52    -2.61135328    -4.19698286    -3.82752657     0.00000299     0.00000000     0.00000293 0.00000000 VRAI 
CAM-EBC-USA-HO_EBC-USA-HO      2017.08.11.07.28.52    -2.61582166    -4.19702291    -5.89138174     0.00000279     0.00000000     0.00000147 0.00000000 VRAI 
CAM-JDA-US-IP_JDA-US-IP        2017.08.11.07.28.52     2.58486950    -4.19496393     6.54819143     0.00000064     0.00000000     0.00000141 0.00000000 VRAI 
CAM-JDA-US-HO_JDA-US-HO        2017.08.11.07.28.52     2.59404039    -4.13996458     6.94837892     0.00000385     0.00000000     0.00000338 0.00000000 VRAI 
CAM-JDA-USA-IP_JDA-USA-IP      2017.08.11.07.28.52    -2.59785318    -4.19505882     6.53813469     0.00000088     0.00000000     0.00000052 0.00000000 VRAI 
CAM-JDA-USA-HO_JDA-USA-HO      2017.08.11.07.28.52    -2.60440987    -4.13996029     6.94218051     0.00000434     0.00000000     0.00000484 0.00000000 VRAI 
CAM-JDC-US-IP_JDC-US-IP        2017.08.11.07.28.52     2.59912938    -4.19501162    -6.54730344     0.00000132     0.00000000     0.00000443 0.00000000 VRAI 
CAM-JDC-US-HO_JDC-US-HO        2017.08.11.07.28.52     2.60957211    -4.14002717    -6.93127131     0.00000150     0.00000021     0.00000174 0.00000000 VRAI 
CAM-JDC-USA-IP_JDC-USA-IP      2017.08.11.07.28.52    -2.60508960    -4.19509745    -6.54008067     0.00000249     0.00000000     0.00000109 0.00000000 VRAI 
CAM-JDC-USA-HO_JDC-USA-HO      2017.08.11.07.28.52    -2.59410590    -4.14012253    -6.92715502     0.00000297     0.00000021     0.00000805 0.00000000 VRAI 
CAM-ECTC-US-IP_ECTC-US-IP-T    2017.08.11.07.28.52     3.69177032     3.84800911    -7.77863359     0.00000000     0.00000000     0.00000000 0.00000000 VRAI 
CAM-ECTC-US-IP_ECTC-US-IP      2017.08.11.07.28.52     3.53352565    -4.07046175    -7.87877047     0.00000064     0.00000000     0.00000136 0.00000000 VRAI 
CAM-ECTC-US-HO_ECTC-US-HO-T    2017.08.11.07.28.52     3.86876309     3.64757156   -12.94040442     0.00001403     0.00000083     0.00001084 0.00000000 VRAI 
CAM-ECTC-US-HO_ECTC-US-HO      2017.08.11.07.28.52     3.67346537    -3.92563725   -12.89146471     0.00000200     0.00000000     0.00000282 0.00000000 VRAI 
CAM-ECTC-USA-IP_ECTC-USA-IP-T  2017.08.11.07.28.52    -3.68267947     3.84912753    -7.89694238     0.00002887     0.00000000     0.00001766 0.00000000 VRAI 
CAM-ECTC-USA-IP_ECTC-USA-IP    2017.08.11.07.28.52    -3.53227580    -4.07033992    -7.87393284     0.00000145     0.00000024     0.00000117 0.00000000 VRAI 
CAM-ECTC-USA-HO_ECTC-USA-HO-T  2017.08.11.07.28.52    -3.86923844     3.64757752   -12.93234110     0.00002213     0.00000000     0.00001615 0.00000000 VRAI 
CAM-ECTC-USA-HO_ECTC-USA-HO    2017.08.11.07.28.52    -3.67612129    -3.92564988   -12.88747096     0.00000627     0.00000000     0.00000141 0.00000000 VRAI 
CAM-ECTA-US-IP_ECTA-US-IP-T    2017.08.11.07.28.52     3.58195519     3.84822226     8.12045574     0.00000000     0.00000000     0.00000000 0.00000000 VRAI 
CAM-ECTA-US-IP_ECTA-US-IP      2017.08.11.07.28.52     3.52049941    -4.07060432     7.89715075     0.00000010     0.00000000     0.00000124 0.00000000 VRAI 
CAM-ECTA-US-HO_ECTA-US-HO-T    2017.08.11.07.28.52     3.87524790     3.64747548    12.93644428     0.00001833     0.00000000     0.00001877 0.00000000 VRAI 
CAM-ECTA-US-HO_ECTA-US-HO      2017.08.11.07.28.52     3.66423720    -3.92580509    12.88428998     0.00000145     0.00000000     0.00000104 0.00000000 VRAI 
CAM-ECTA-USA-IP_ECTA-USA-IP-T  2017.08.11.07.28.52    -3.68069863     3.84881717     7.89773595     0.00001953     0.00000102     0.00001132 0.00000000 VRAI 
CAM-ECTA-USA-IP_ECTA-USA-IP    2017.08.11.07.28.52    -3.53442729    -4.07043648     7.89049053     0.00000107     0.00000000     0.00000155 0.00000000 VRAI 
CAM-ECTA-USA-HO_ECTA-USA-HO-T  2017.08.11.07.28.52    -3.86212713     3.64768219    12.93555498     0.00000988     0.00000000     0.00002630 0.00000000 VRAI 
CAM-ECTA-USA-HO_ECTA-USA-HO    2017.08.11.07.28.52    -3.68537551    -3.92560458    12.88504362     0.00000268     0.00000000     0.00000257 0.00000000 VRAI 
