********** Fichier qui contient une sauvegarde des coordonnees images + coordonnees images transformees dans le repere BCAM (MOUNT) + coordonnees des prismes dans le repere MOUNT********** 
********************************************************************** Unite en metres (m)************************************************************************************************** 

*******************************************************************coordonnees images dans le repere CCD *********************************************************************************** 
20MABNDL000077_PR002
Spot 1     0.00121472     0.00150408
Spot 2     0.00123500     0.00218500
Spot 1     0.00121471     0.00150502
Spot 2     0.00123500     0.00218500
Spot 1     0.00121440     0.00150110
Spot 2     0.00123500     0.00218500
Spot 1     0.00121421     0.00149861
Spot 2     0.00123500     0.00218500
Spot 1     0.00121819     0.00150101
Spot 2     0.00123500     0.00218500
20MABNDL000077_PR003
Spot 1     0.00138740     0.00149496
Spot 2     0.00153616     0.00149116
Spot 1     0.00138712     0.00149527
Spot 2     0.00153599     0.00149137
Spot 1     0.00138696     0.00149567
Spot 2     0.00153597     0.00149154
Spot 1     0.00138685     0.00149599
Spot 2     0.00153600     0.00149150
Spot 1     0.00138647     0.00149591
Spot 2     0.00153603     0.00149175
20MABNDL000077_20MABNDM000168
Spot 1     0.00175766     0.00118234
Spot 2     0.00157695     0.00121293
Spot 1     0.00175763     0.00118285
Spot 2     0.00157695     0.00121322
Spot 1     0.00175764     0.00118288
Spot 2     0.00157694     0.00121306
Spot 1     0.00175752     0.00118316
Spot 2     0.00157694     0.00121288
Spot 1     0.00175762     0.00118330
Spot 2     0.00157713     0.00121275
20MABNDL000077_PR024
Spot 1     0.00254368     0.00143284
Spot 2     0.00264242     0.00144462
Spot 1     0.00254402     0.00143321
Spot 2     0.00264179     0.00144477
Spot 1     0.00254370     0.00143318
Spot 2     0.00264223     0.00144474
Spot 1     0.00254371     0.00143314
Spot 2     0.00264233     0.00144500
20MABNDM000020_PR013
Spot 1     0.00136500     0.00011500
Spot 2     0.00119500     0.00003500
Spot 1     0.00077875     0.00015500
Spot 2     0.00136500     0.00011500
Spot 1     0.00136500     0.00011500
Spot 2     0.00055500     0.00002500
Spot 1     0.00077786     0.00015500
Spot 2     0.00119300     0.00003500
20MABNDM000020_PR014
Spot 1     0.00310500     0.00034500
Spot 2     0.00310500     0.00034500
Spot 1     0.00310500     0.00034500
Spot 2     0.00310500     0.00034500
Spot 1     0.00310500     0.00034500
Spot 2     0.00310500     0.00034500
Spot 1     0.00310500     0.00034500
Spot 2     0.00310500     0.00034500
20MABNDM000020_20MABNDL000196
Spot 1     0.00197707     0.00117853
Spot 2     0.00230500     0.00010500
Spot 1     0.00197684     0.00117822
Spot 2     0.00230500     0.00010500
Spot 1     0.00197676     0.00117835
Spot 2     0.00230500     0.00010500
Spot 1     0.00197683     0.00117841
Spot 2     0.00320500     0.00025500
20MABNDM000020_PR035
Spot 1     0.00127284     0.00149327
Spot 2     0.00118759     0.00153191
Spot 1     0.00127286     0.00149345
Spot 2     0.00118769     0.00153192
Spot 1     0.00127274     0.00149367
Spot 2     0.00118745     0.00153182
Spot 1     0.00127283     0.00149354
Spot 2     0.00118762     0.00153195
20MABNDM000168_PR025
Spot 1     0.00056500     0.00022500
Spot 2     0.00056500     0.00022500
Spot 1     0.00056500     0.00022500
Spot 2     0.00056500     0.00022500
Spot 1     0.00056500     0.00022500
Spot 2     0.00056500     0.00022500
Spot 1     0.00056500     0.00022500
Spot 2     0.00056500     0.00022500
20MABNDM000168_PR026
Spot 1     0.00266717     0.00142842
Spot 2     0.00250672     0.00142559
Spot 1     0.00266713     0.00142828
Spot 2     0.00250660     0.00142506
Spot 1     0.00266709     0.00142822
Spot 2     0.00250684     0.00142523
Spot 1     0.00266702     0.00142778
Spot 2     0.00250647     0.00142541
20MABNDM000168_20MABNDL000077
Spot 1     0.00154120     0.00130070
Spot 2     0.00175698     0.00130516
Spot 1     0.00154100     0.00130072
Spot 2     0.00175692     0.00130516
Spot 1     0.00154105     0.00130094
Spot 2     0.00175688     0.00130458
Spot 1     0.00154112     0.00130116
Spot 2     0.00175725     0.00130481
20MABNDM000168_PR001
Spot 1     0.00080798     0.00162123
Spot 2     0.00070617     0.00162290
Spot 1     0.00080810     0.00162135
Spot 2     0.00070625     0.00162284
Spot 1     0.00080817     0.00162134
Spot 2     0.00070627     0.00162263
Spot 1     0.00080814     0.00162127
Spot 2     0.00070669     0.00162279
20MABNDL000196_PR036
Spot 1     0.00094654     0.00163999
Spot 2     0.00110993     0.00163948
Spot 1     0.00094646     0.00164016
Spot 2     0.00110993     0.00163948
Spot 1     0.00094636     0.00164006
Spot 2     0.00111002     0.00163978
Spot 1     0.00094640     0.00164012
Spot 2     0.00110988     0.00163958
20MABNDL000196_PR037
Spot 1     0.00246867     0.00116972
Spot 2     0.00262375     0.00116756
Spot 1     0.00246867     0.00116939
Spot 2     0.00262381     0.00116758
Spot 1     0.00246869     0.00116964
Spot 2     0.00262367     0.00116760
Spot 1     0.00246883     0.00116959
Spot 2     0.00262389     0.00116775
20MABNDL000196_20MABNDM000020
Spot 1     0.00192570     0.00104167
Spot 2     0.00170436     0.00104714
Spot 1     0.00192576     0.00104202
Spot 2     0.00170448     0.00104750
Spot 1     0.00192560     0.00104198
Spot 2     0.00170441     0.00104732
Spot 1     0.00192570     0.00104186
Spot 2     0.00170424     0.00104738
20MABNDL000196_PR012
Spot 1     0.00265158     0.00134207
Spot 2     0.00272398     0.00138704
Spot 1     0.00116500     0.00030500
Spot 2     0.00272387     0.00138710
Spot 1     0.00265149     0.00134208
Spot 2     0.00272381     0.00138702
Spot 1     0.00265140     0.00134220
Spot 2     0.00272376     0.00138723
20MABNDA000318_PR004
Spot 1     0.00214576     0.00162476
Spot 2     0.00192819     0.00162525
Spot 1     0.00214566     0.00162434
Spot 2     0.00192806     0.00162550
Spot 1     0.00214600     0.00162471
Spot 2     0.00192787     0.00162541
Spot 1     0.00214577     0.00162457
Spot 2     0.00192833     0.00162575
20MABNDA000334_PR005
Spot 1     0.00247228     0.00158500
Spot 2     0.00219230     0.00158570
Spot 1     0.00247207     0.00158511
Spot 2     0.00219190     0.00158570
Spot 1     0.00247242     0.00158468
Spot 2     0.00219255     0.00158551
Spot 1     0.00247233     0.00158483
Spot 2     0.00219227     0.00158581
20MABNDB000317_PR015
Spot 1     0.00148854     0.00159844
Spot 2     0.00170858     0.00159273
Spot 1     0.00148834     0.00159842
Spot 2     0.00170882     0.00159272
Spot 1     0.00148871     0.00159843
Spot 2     0.00170856     0.00159251
Spot 1     0.00148852     0.00159842
Spot 2     0.00170850     0.00159238
20MABNDB000146_PR016
Spot 1     0.00144928     0.00133092
Spot 2     0.00172437     0.00133305
Spot 1     0.00144926     0.00133091
Spot 2     0.00172448     0.00133328
Spot 1     0.00144925     0.00133101
Spot 2     0.00172442     0.00133301
Spot 1     0.00144911     0.00133079
Spot 2     0.00172441     0.00133324
20MABNDB000135_PR027
Spot 1     0.00189236     0.00091591
Spot 2     0.00211048     0.00091771
Spot 1     0.00189230     0.00091583
Spot 2     0.00211062     0.00091775
Spot 1     0.00189257     0.00091574
Spot 2     0.00211051     0.00091778
Spot 1     0.00189252     0.00091585
Spot 2     0.00211060     0.00091769
20MABNDB000126_PR028
Spot 1     0.00164600     0.00200965
Spot 2     0.00192762     0.00201171
Spot 1     0.00164594     0.00200968
Spot 2     0.00192754     0.00201169
Spot 1     0.00164588     0.00200970
Spot 2     0.00192766     0.00201171
Spot 1     0.00164586     0.00200971
Spot 2     0.00192758     0.00201169
20MABNDA000272_PR038
Spot 1     0.00192387     0.00095582
Spot 2     0.00170244     0.00095388
Spot 1     0.00192389     0.00095579
Spot 2     0.00170258     0.00095355
Spot 1     0.00192347     0.00095579
Spot 2     0.00170268     0.00095356
Spot 1     0.00192386     0.00095559
Spot 2     0.00170236     0.00095360
20MABNDA000003_PR039
Spot 1     0.00200130     0.00193145
Spot 2     0.00227966     0.00193178
Spot 1     0.00200125     0.00193148
Spot 2     0.00227952     0.00193177
Spot 1     0.00200122     0.00193159
Spot 2     0.00227948     0.00193187
Spot 1     0.00200134     0.00193157
Spot 2     0.00227951     0.00193190
20MABNDA000196_PR006
Spot 1     0.00198608     0.00074331
Spot 2     0.00162022     0.00074067
Spot 1     0.00198623     0.00074340
Spot 2     0.00161989     0.00074071
Spot 1     0.00198615     0.00074336
Spot 2     0.00162022     0.00074075
Spot 1     0.00198627     0.00074347
Spot 2     0.00162016     0.00074078
20MABNDA000324_PR007
Spot 1     0.00194734     0.00120336
Spot 2     0.00174173     0.00120930
Spot 1     0.00194738     0.00120371
Spot 2     0.00174175     0.00120946
Spot 1     0.00194732     0.00120378
Spot 2     0.00174169     0.00120951
Spot 1     0.00194746     0.00120357
Spot 2     0.00174163     0.00120964
20MABNDB000001_PR017
Spot 1     0.00188705     0.00043726
Spot 2     0.00225500     0.00044690
Spot 1     0.00188707     0.00043718
Spot 2     0.00225500     0.00044763
Spot 1     0.00188717     0.00043720
Spot 2     0.00225531     0.00044715
Spot 1     0.00188715     0.00043720
Spot 2     0.00225500     0.00044754
20MABNDB000260_PR019
Spot 1     0.00192282     0.00150511
Spot 2     0.00212589     0.00150522
Spot 1     0.00192313     0.00150537
Spot 2     0.00212611     0.00150522
Spot 1     0.00192307     0.00150555
Spot 2     0.00212570     0.00150500
Spot 1     0.00192288     0.00150542
Spot 2     0.00212614     0.00150545
20MABNDB000212_PR029
Spot 1     0.00223571     0.00069362
Spot 2     0.00187529     0.00069529
Spot 1     0.00223639     0.00069356
Spot 2     0.00187414     0.00069500
Spot 1     0.00223618     0.00069366
Spot 2     0.00187471     0.00069559
Spot 1     0.00223619     0.00069376
Spot 2     0.00187500     0.00069500
20MABNDB000128_PR030
Spot 1     0.00190016     0.00200190
Spot 2     0.00210490     0.00199665
Spot 1     0.00190012     0.00200199
Spot 2     0.00210485     0.00199665
Spot 1     0.00190038     0.00200192
Spot 2     0.00210475     0.00199668
Spot 1     0.00190019     0.00200204
Spot 2     0.00210490     0.00199673
20MABNDA000444_PR040
Spot 1     0.00076083     0.00035392
Spot 2     0.00112737     0.00035039
Spot 1     0.00076076     0.00035371
Spot 2     0.00112737     0.00035039
Spot 1     0.00076072     0.00035384
Spot 2     0.00112782     0.00035051
Spot 1     0.00076082     0.00035388
Spot 2     0.00112767     0.00035047
20MABNDA000053_PR041
Spot 1     0.00166244     0.00198437
Spot 2     0.00144644     0.00197831
Spot 1     0.00166226     0.00198433
Spot 2     0.00144666     0.00197831
Spot 1     0.00166268     0.00198428
Spot 2     0.00144671     0.00197835
Spot 1     0.00166264     0.00198452
Spot 2     0.00144671     0.00197823
20MABNDA000188_PR008
Spot 1     0.00289500     0.00025500
Spot 2     0.00289500     0.00025500
Spot 1     0.00289500     0.00025500
Spot 2     0.00289500     0.00025500
Spot 1     0.00289500     0.00025500
Spot 2     0.00289500     0.00025500
Spot 1     0.00289500     0.00025500
Spot 2     0.00289500     0.00025500
20MABNDA000188_PR018
Spot 1     0.00166886     0.00176717
Spot 2     0.00120172     0.00176360
Spot 1     0.00166858     0.00176723
Spot 2     0.00120178     0.00176372
Spot 1     0.00166879     0.00176721
Spot 2     0.00120180     0.00176388
Spot 1     0.00166889     0.00176732
Spot 2     0.00120158     0.00176370
20MABNDA000039_PR009
Spot 1     0.00066592     0.00117621
Spot 2     0.00061832     0.00118071
Spot 1     0.00066544     0.00117632
Spot 2     0.00061803     0.00118094
Spot 1     0.00066445     0.00117653
Spot 2     0.00061809     0.00118074
Spot 1     0.00066496     0.00117673
Spot 2     0.00061800     0.00118125
20MABNDA000039_PR011
Spot 1     0.00276895     0.00028065
Spot 2     0.00259302     0.00027586
Spot 1     0.00276871     0.00028066
Spot 2     0.00259289     0.00027642
Spot 1     0.00276891     0.00028069
Spot 2     0.00259330     0.00027635
Spot 1     0.00276891     0.00028087
Spot 2     0.00259312     0.00027637
20MABNDB000155_PR020
Spot 1     0.00062110     0.00113171
Spot 2     0.00068364     0.00112837
Spot 1     0.00062081     0.00113173
Spot 2     0.00068394     0.00112877
Spot 1     0.00062104     0.00113175
Spot 2     0.00068400     0.00112810
Spot 1     0.00062144     0.00113193
Spot 2     0.00068442     0.00112838
20MABNDB000155_PR022
Spot 1     0.00210982     0.00140479
Spot 2     0.00258278     0.00140024
Spot 1     0.00210985     0.00140495
Spot 2     0.00258278     0.00140024
Spot 1     0.00210987     0.00140495
Spot 2     0.00258283     0.00140022
Spot 1     0.00210975     0.00140475
Spot 2     0.00258277     0.00140020
20MABNDB000010_PR021
Spot 1     0.00287032     0.00115282
Spot 2     0.00292268     0.00115516
Spot 1     0.00287079     0.00115264
Spot 2     0.00292272     0.00115541
Spot 1     0.00287063     0.00115264
Spot 2     0.00292244     0.00115531
Spot 1     0.00287044     0.00115254
Spot 2     0.00292274     0.00115508
20MABNDB000010_PR023
Spot 1     0.00131272     0.00031215
Spot 2     0.00148790     0.00031044
Spot 1     0.00131304     0.00031230
Spot 2     0.00148758     0.00031059
Spot 1     0.00131259     0.00031234
Spot 2     0.00148759     0.00031088
Spot 1     0.00131282     0.00031201
Spot 2     0.00148780     0.00031079
20MABNDB000069_PR031
Spot 1     0.00021500     0.00240500
Spot 2     0.00021500     0.00240500
Spot 1     0.00021500     0.00240500
Spot 2     0.00021500     0.00240500
Spot 1     0.00021500     0.00240500
Spot 2     0.00021500     0.00240500
Spot 1     0.00021500     0.00240500
Spot 2     0.00021500     0.00240500
20MABNDB000069_PR033
Spot 1     0.00182263     0.00207077
Spot 2     0.00229185     0.00208985
Spot 1     0.00182203     0.00207094
Spot 2     0.00229178     0.00208995
Spot 1     0.00182233     0.00207076
Spot 2     0.00229205     0.00208975
Spot 1     0.00182235     0.00207097
Spot 2     0.00229197     0.00208975
20MABNDB000131_PR032
Spot 1     0.00277698     0.00107703
Spot 2     0.00283645     0.00108010
Spot 1     0.00277706     0.00107697
Spot 2     0.00283650     0.00108038
Spot 1     0.00277683     0.00107683
Spot 2     0.00283641     0.00108046
Spot 1     0.00277693     0.00107702
Spot 2     0.00283617     0.00108047
20MABNDB000131_PR034
Spot 1     0.00092400     0.00032296
Spot 2     0.00110026     0.00032325
Spot 1     0.00092405     0.00032313
Spot 2     0.00110011     0.00032295
Spot 1     0.00092413     0.00032304
Spot 2     0.00110026     0.00032306
Spot 1     0.00092404     0.00032312
Spot 2     0.00110041     0.00032295
20MABNDA000208_PR042
Spot 1     0.00305763     0.00095380
Spot 2     0.00299225     0.00095230
Spot 1     0.00305928     0.00095427
Spot 2     0.00299230     0.00095234
Spot 1     0.00305789     0.00095362
Spot 2     0.00299206     0.00095194
Spot 1     0.00305835     0.00095379
Spot 2     0.00299191     0.00095207
20MABNDA000208_PR046
Spot 1     0.00144737     0.00220392
Spot 2     0.00097312     0.00220459
Spot 1     0.00144739     0.00220400
Spot 2     0.00097339     0.00220463
Spot 1     0.00144728     0.00220399
Spot 2     0.00097333     0.00220463
Spot 1     0.00144741     0.00220401
Spot 2     0.00097335     0.00220460
20MABNDA000035_PR044
Spot 1     0.00073701     0.00125658
Spot 2     0.00068266     0.00125040
Spot 1     0.00073679     0.00125676
Spot 2     0.00068264     0.00125061
Spot 1     0.00073716     0.00125691
Spot 2     0.00068258     0.00125046
Spot 1     0.00073696     0.00125655
Spot 2     0.00068290     0.00125043
20MABNDA000035_PR045
Spot 1     0.00254569     0.00047091
Spot 2     0.00236871     0.00047040
Spot 1     0.00254541     0.00047084
Spot 2     0.00236827     0.00047036
Spot 1     0.00254558     0.00047097
Spot 2     0.00236869     0.00047031
Spot 1     0.00254555     0.00047099
Spot 2     0.00236824     0.00047035


****************************************************************coordonnees images transformees dans le repere MOUNT************************************************************************* 
20MABNDL000077_PR002
Spot 1     0.01228506     0.03557551    -0.07463200
Spot 2     0.01231190     0.03625620    -0.07463200
Spot 1     0.01228506     0.03557645    -0.07463200
Spot 2     0.01231190     0.03625620    -0.07463200
Spot 1     0.01228472     0.03557253    -0.07463200
Spot 2     0.01231190     0.03625620    -0.07463200
Spot 1     0.01228450     0.03557004    -0.07463200
Spot 2     0.01231190     0.03625620    -0.07463200
Spot 1     0.01228850     0.03557240    -0.07463200
Spot 2     0.01231190     0.03625620    -0.07463200
20MABNDL000077_PR003
Spot 1     0.01245765     0.03556473    -0.07463200
Spot 2     0.01260636     0.03555950    -0.07463200
Spot 1     0.01245737     0.03556504    -0.07463200
Spot 2     0.01260620     0.03555971    -0.07463200
Spot 1     0.01245722     0.03556544    -0.07463200
Spot 2     0.01260618     0.03555988    -0.07463200
Spot 1     0.01245711     0.03556576    -0.07463200
Spot 2     0.01260621     0.03555984    -0.07463200
Spot 1     0.01245673     0.03556569    -0.07463200
Spot 2     0.01260624     0.03556009    -0.07463200
20MABNDL000077_20MABNDM000168
Spot 1    -0.01259278     0.03524532    -0.00695400
Spot 2    -0.01241240     0.03527776    -0.00695400
Spot 1    -0.01259276     0.03524583    -0.00695400
Spot 2    -0.01241240     0.03527805    -0.00695400
Spot 1    -0.01259277     0.03524586    -0.00695400
Spot 2    -0.01241239     0.03527789    -0.00695400
Spot 1    -0.01259265     0.03524614    -0.00695400
Spot 2    -0.01241239     0.03527771    -0.00695400
Spot 1    -0.01259275     0.03524628    -0.00695400
Spot 2    -0.01241258     0.03527758    -0.00695400
20MABNDL000077_PR024
Spot 1    -0.01338133     0.03548776    -0.00695400
Spot 2    -0.01348018     0.03549853    -0.00695400
Spot 1    -0.01338167     0.03548813    -0.00695400
Spot 2    -0.01347955     0.03549869    -0.00695400
Spot 1    -0.01338135     0.03548810    -0.00695400
Spot 2    -0.01347999     0.03549865    -0.00695400
Spot 1    -0.01338136     0.03548806    -0.00695400
Spot 2    -0.01348010     0.03549891    -0.00695400
20MABNDM000020_PR013
Spot 1    -0.01302510    -0.03407982    -0.00523500
Spot 2    -0.01319683    -0.03400360    -0.00523500
Spot 1    -0.01361032    -0.03413278    -0.00523500
Spot 2    -0.01302510    -0.03407982    -0.00523500
Spot 1    -0.01302510    -0.03407982    -0.00523500
Spot 2    -0.01383689    -0.03400776    -0.00523500
Spot 1    -0.01361121    -0.03413280    -0.00523500
Spot 2    -0.01319883    -0.03400365    -0.00523500
20MABNDM000020_PR014
Spot 1    -0.01128044    -0.03427129    -0.00523500
Spot 2    -0.01128044    -0.03427129    -0.00523500
Spot 1    -0.01128044    -0.03427129    -0.00523500
Spot 2    -0.01128044    -0.03427129    -0.00523500
Spot 1    -0.01128044    -0.03427129    -0.00523500
Spot 2    -0.01128044    -0.03427129    -0.00523500
Spot 1    -0.01128044    -0.03427129    -0.00523500
Spot 2    -0.01128044    -0.03427129    -0.00523500
20MABNDM000020_20MABNDL000196
Spot 1     0.01270921    -0.03514709    -0.07583800
Spot 2     0.01238113    -0.03407361    -0.07583800
Spot 1     0.01270944    -0.03514678    -0.07583800
Spot 2     0.01238113    -0.03407361    -0.07583800
Spot 1     0.01270952    -0.03514691    -0.07583800
Spot 2     0.01238113    -0.03407361    -0.07583800
Spot 1     0.01270945    -0.03514697    -0.07583800
Spot 2     0.01148115    -0.03422373    -0.07583800
20MABNDM000020_PR035
Spot 1     0.01341348    -0.03546174    -0.07583800
Spot 2     0.01349874    -0.03550036    -0.07583800
Spot 1     0.01341346    -0.03546192    -0.07583800
Spot 2     0.01349864    -0.03550037    -0.07583800
Spot 1     0.01341358    -0.03546214    -0.07583800
Spot 2     0.01349888    -0.03550027    -0.07583800
Spot 1     0.01341349    -0.03546201    -0.07583800
Spot 2     0.01349871    -0.03550040    -0.07583800
20MABNDM000168_PR025
Spot 1    -0.01384249    -0.03456482    -0.00532900
Spot 2    -0.01384249    -0.03456482    -0.00532900
Spot 1    -0.01384249    -0.03456482    -0.00532900
Spot 2    -0.01384249    -0.03456482    -0.00532900
Spot 1    -0.01384249    -0.03456482    -0.00532900
Spot 2    -0.01384249    -0.03456482    -0.00532900
Spot 1    -0.01384249    -0.03456482    -0.00532900
Spot 2    -0.01384249    -0.03456482    -0.00532900
20MABNDM000168_PR026
Spot 1    -0.01173517    -0.03575920    -0.00532900
Spot 2    -0.01189563    -0.03575706    -0.00532900
Spot 1    -0.01173521    -0.03575906    -0.00532900
Spot 2    -0.01189575    -0.03575653    -0.00532900
Spot 1    -0.01173525    -0.03575900    -0.00532900
Spot 2    -0.01189551    -0.03575670    -0.00532900
Spot 1    -0.01173532    -0.03575856    -0.00532900
Spot 2    -0.01189588    -0.03575688    -0.00532900
20MABNDM000168_20MABNDL000077
Spot 1     0.01288425    -0.03530134    -0.07445100
Spot 2     0.01266843    -0.03530264    -0.07445100
Spot 1     0.01288445    -0.03530136    -0.07445100
Spot 2     0.01266849    -0.03530264    -0.07445100
Spot 1     0.01288440    -0.03530158    -0.07445100
Spot 2     0.01266854    -0.03530206    -0.07445100
Spot 1     0.01288433    -0.03530180    -0.07445100
Spot 2     0.01266817    -0.03530229    -0.07445100
20MABNDM000168_PR001
Spot 1     0.01361270    -0.03563256    -0.07445100
Spot 2     0.01371448    -0.03563572    -0.07445100
Spot 1     0.01361258    -0.03563268    -0.07445100
Spot 2     0.01371440    -0.03563566    -0.07445100
Spot 1     0.01361251    -0.03563267    -0.07445100
Spot 2     0.01371438    -0.03563545    -0.07445100
Spot 1     0.01361254    -0.03563260    -0.07445100
Spot 2     0.01371396    -0.03563560    -0.07445100
20MABNDL000196_PR036
Spot 1     0.01192646     0.03582869    -0.07483600
Spot 2     0.01208985     0.03582852    -0.07483600
Spot 1     0.01192638     0.03582886    -0.07483600
Spot 2     0.01208985     0.03582852    -0.07483600
Spot 1     0.01192628     0.03582876    -0.07483600
Spot 2     0.01208994     0.03582882    -0.07483600
Spot 1     0.01192632     0.03582882    -0.07483600
Spot 2     0.01208980     0.03582862    -0.07483600
20MABNDL000196_PR037
Spot 1     0.01344957     0.03536159    -0.07483600
Spot 2     0.01360466     0.03535976    -0.07483600
Spot 1     0.01344957     0.03536126    -0.07483600
Spot 2     0.01360472     0.03535978    -0.07483600
Spot 1     0.01344959     0.03536151    -0.07483600
Spot 2     0.01360458     0.03535980    -0.07483600
Spot 1     0.01344973     0.03536146    -0.07483600
Spot 2     0.01360480     0.03535995    -0.07483600
20MABNDL000196_20MABNDM000020
Spot 1    -0.01274975     0.03531288    -0.00611000
Spot 2    -0.01252857     0.03532280    -0.00611000
Spot 1    -0.01274982     0.03531323    -0.00611000
Spot 2    -0.01252870     0.03532316    -0.00611000
Spot 1    -0.01274966     0.03531319    -0.00611000
Spot 2    -0.01252862     0.03532298    -0.00611000
Spot 1    -0.01274976     0.03531307    -0.00611000
Spot 2    -0.01252845     0.03532304    -0.00611000
20MABNDL000196_PR012
Spot 1    -0.01348153     0.03559861    -0.00611000
Spot 2    -0.01355482     0.03564212    -0.00611000
Spot 1    -0.01197439     0.03459166    -0.00611000
Spot 2    -0.01355471     0.03564218    -0.00611000
Spot 1    -0.01348144     0.03559862    -0.00611000
Spot 2    -0.01355465     0.03564210    -0.00611000
Spot 1    -0.01348135     0.03559874    -0.00611000
Spot 2    -0.01355460     0.03564231    -0.00611000
20MABNDA000318_PR004
Spot 1    -0.01286558     0.01247047    -0.07310600
Spot 2    -0.01264801     0.01247062    -0.07310600
Spot 1    -0.01286548     0.01247090    -0.07310600
Spot 2    -0.01264788     0.01247037    -0.07310600
Spot 1    -0.01286582     0.01247052    -0.07310600
Spot 2    -0.01264769     0.01247046    -0.07310600
Spot 1    -0.01286559     0.01247066    -0.07310600
Spot 2    -0.01264815     0.01247012    -0.07310600
20MABNDA000334_PR005
Spot 1    -0.01311539     0.01254339    -0.07324100
Spot 2    -0.01283541     0.01254243    -0.07324100
Spot 1    -0.01311518     0.01254328    -0.07324100
Spot 2    -0.01283501     0.01254243    -0.07324100
Spot 1    -0.01311553     0.01254371    -0.07324100
Spot 2    -0.01283566     0.01254262    -0.07324100
Spot 1    -0.01311544     0.01254356    -0.07324100
Spot 2    -0.01283538     0.01254232    -0.07324100
20MABNDB000317_PR015
Spot 1    -0.01266573    -0.01249960    -0.07326100
Spot 2    -0.01244564    -0.01250274    -0.07326100
Spot 1    -0.01266593    -0.01249962    -0.07326100
Spot 2    -0.01244540    -0.01250275    -0.07326100
Spot 1    -0.01266556    -0.01249960    -0.07326100
Spot 2    -0.01244566    -0.01250296    -0.07326100
Spot 1    -0.01266575    -0.01249962    -0.07326100
Spot 2    -0.01244572    -0.01250309    -0.07326100
20MABNDB000146_PR016
Spot 1    -0.01275908    -0.01246268    -0.07450500
Spot 2    -0.01248399    -0.01245994    -0.07450500
Spot 1    -0.01275910    -0.01246269    -0.07450500
Spot 2    -0.01248388    -0.01245971    -0.07450500
Spot 1    -0.01275911    -0.01246259    -0.07450500
Spot 2    -0.01248394    -0.01245998    -0.07450500
Spot 1    -0.01275925    -0.01246281    -0.07450500
Spot 2    -0.01248395    -0.01245975    -0.07450500
20MABNDB000135_PR027
Spot 1    -0.01251231    -0.01319713    -0.07464700
Spot 2    -0.01229419    -0.01319775    -0.07464700
Spot 1    -0.01251237    -0.01319720    -0.07464700
Spot 2    -0.01229405    -0.01319772    -0.07464700
Spot 1    -0.01251210    -0.01319730    -0.07464700
Spot 2    -0.01229416    -0.01319768    -0.07464700
Spot 1    -0.01251215    -0.01319719    -0.07464700
Spot 2    -0.01229407    -0.01319778    -0.07464700
20MABNDB000126_PR028
Spot 1    -0.01253354    -0.01217251    -0.07500400
Spot 2    -0.01225193    -0.01216895    -0.07500400
Spot 1    -0.01253360    -0.01217248    -0.07500400
Spot 2    -0.01225201    -0.01216897    -0.07500400
Spot 1    -0.01253366    -0.01217246    -0.07500400
Spot 2    -0.01225189    -0.01216895    -0.07500400
Spot 1    -0.01253368    -0.01217245    -0.07500400
Spot 2    -0.01225197    -0.01216897    -0.07500400
20MABNDA000272_PR038
Spot 1    -0.01275953     0.01315565    -0.07417900
Spot 2    -0.01253810     0.01315720    -0.07417900
Spot 1    -0.01275955     0.01315568    -0.07417900
Spot 2    -0.01253824     0.01315753    -0.07417900
Spot 1    -0.01275913     0.01315568    -0.07417900
Spot 2    -0.01253834     0.01315752    -0.07417900
Spot 1    -0.01275952     0.01315588    -0.07417900
Spot 2    -0.01253802     0.01315748    -0.07417900
20MABNDA000003_PR039
Spot 1    -0.01280240     0.01212082    -0.07373400
Spot 2    -0.01308076     0.01212119    -0.07373400
Spot 1    -0.01280235     0.01212079    -0.07373400
Spot 2    -0.01308062     0.01212120    -0.07373400
Spot 1    -0.01280232     0.01212068    -0.07373400
Spot 2    -0.01308058     0.01212110    -0.07373400
Spot 1    -0.01280244     0.01212070    -0.07373400
Spot 2    -0.01308061     0.01212107    -0.07373400
20MABNDA000196_PR006
Spot 1    -0.01294097     0.01323492    -0.07967100
Spot 2    -0.01257510     0.01323285    -0.07967100
Spot 1    -0.01294112     0.01323483    -0.07967100
Spot 2    -0.01257477     0.01323281    -0.07967100
Spot 1    -0.01294104     0.01323487    -0.07967100
Spot 2    -0.01257510     0.01323277    -0.07967100
Spot 1    -0.01294116     0.01323476    -0.07967100
Spot 2    -0.01257504     0.01323274    -0.07967100
20MABNDA000324_PR007
Spot 1    -0.01255312     0.01281822    -0.07446800
Spot 2    -0.01234747     0.01281388    -0.07446800
Spot 1    -0.01255316     0.01281787    -0.07446800
Spot 2    -0.01234749     0.01281372    -0.07446800
Spot 1    -0.01255310     0.01281780    -0.07446800
Spot 2    -0.01234743     0.01281367    -0.07446800
Spot 1    -0.01255324     0.01281801    -0.07446800
Spot 2    -0.01234737     0.01281354    -0.07446800
20MABNDB000001_PR017
Spot 1    -0.01230133    -0.01355226    -0.07418400
Spot 2    -0.01193330    -0.01354652    -0.07418400
Spot 1    -0.01230131    -0.01355234    -0.07418400
Spot 2    -0.01193329    -0.01354579    -0.07418400
Spot 1    -0.01230121    -0.01355233    -0.07418400
Spot 2    -0.01193298    -0.01354627    -0.07418400
Spot 1    -0.01230123    -0.01355233    -0.07418400
Spot 2    -0.01193329    -0.01354588    -0.07418400
20MABNDB000260_PR019
Spot 1    -0.01240857    -0.01239743    -0.07492700
Spot 2    -0.01220554    -0.01239315    -0.07492700
Spot 1    -0.01240826    -0.01239716    -0.07492700
Spot 2    -0.01220532    -0.01239315    -0.07492700
Spot 1    -0.01240833    -0.01239698    -0.07492700
Spot 2    -0.01220573    -0.01239338    -0.07492700
Spot 1    -0.01240852    -0.01239712    -0.07492700
Spot 2    -0.01220530    -0.01239292    -0.07492700
20MABNDB000212_PR029
Spot 1    -0.01185221    -0.01328767    -0.07390500
Spot 2    -0.01221260    -0.01328215    -0.07390500
Spot 1    -0.01185153    -0.01328774    -0.07390500
Spot 2    -0.01221375    -0.01328243    -0.07390500
Spot 1    -0.01185174    -0.01328764    -0.07390500
Spot 2    -0.01221317    -0.01328185    -0.07390500
Spot 1    -0.01185173    -0.01328754    -0.07390500
Spot 2    -0.01221289    -0.01328244    -0.07390500
20MABNDB000128_PR030
Spot 1    -0.01245496    -0.01221542    -0.07353400
Spot 2    -0.01225021    -0.01221996    -0.07353400
Spot 1    -0.01245501    -0.01221533    -0.07353400
Spot 2    -0.01225026    -0.01221996    -0.07353400
Spot 1    -0.01245474    -0.01221540    -0.07353400
Spot 2    -0.01225036    -0.01221993    -0.07353400
Spot 1    -0.01245494    -0.01221528    -0.07353400
Spot 2    -0.01225021    -0.01221988    -0.07353400
20MABNDA000444_PR040
Spot 1    -0.01170066     0.01367570    -0.07412000
Spot 2    -0.01206721     0.01367457    -0.07412000
Spot 1    -0.01170059     0.01367591    -0.07412000
Spot 2    -0.01206721     0.01367457    -0.07412000
Spot 1    -0.01170055     0.01367578    -0.07412000
Spot 2    -0.01206766     0.01367445    -0.07412000
Spot 1    -0.01170065     0.01367574    -0.07412000
Spot 2    -0.01206751     0.01367449    -0.07412000
20MABNDA000053_PR041
Spot 1    -0.01241898     0.01212627    -0.07430100
Spot 2    -0.01220290     0.01212811    -0.07430100
Spot 1    -0.01241880     0.01212631    -0.07430100
Spot 2    -0.01220312     0.01212812    -0.07430100
Spot 1    -0.01241922     0.01212637    -0.07430100
Spot 2    -0.01220317     0.01212808    -0.07430100
Spot 1    -0.01241918     0.01212613    -0.07430100
Spot 2    -0.01220317     0.01212820    -0.07430100
20MABNDA000188_PR008
Spot 1    -0.01391227     0.01380893    -0.07502000
Spot 2    -0.01391227     0.01380893    -0.07502000
Spot 1    -0.01391227     0.01380893    -0.07502000
Spot 2    -0.01391227     0.01380893    -0.07502000
Spot 1    -0.01391227     0.01380893    -0.07502000
Spot 2    -0.01391227     0.01380893    -0.07502000
Spot 1    -0.01391227     0.01380893    -0.07502000
Spot 2    -0.01391227     0.01380893    -0.07502000
20MABNDA000188_PR018
Spot 1    -0.01269912     0.01228632    -0.07502000
Spot 2    -0.01223197     0.01228589    -0.07502000
Spot 1    -0.01269885     0.01228626    -0.07502000
Spot 2    -0.01223203     0.01228577    -0.07502000
Spot 1    -0.01269906     0.01228628    -0.07502000
Spot 2    -0.01223205     0.01228561    -0.07502000
Spot 1    -0.01269916     0.01228617    -0.07502000
Spot 2    -0.01223183     0.01228579    -0.07502000
20MABNDA000039_PR009
Spot 1    -0.01162805     0.01306793    -0.07444800
Spot 2    -0.01158047     0.01306323    -0.07444800
Spot 1    -0.01162757     0.01306782    -0.07444800
Spot 2    -0.01158018     0.01306300    -0.07444800
Spot 1    -0.01162658     0.01306761    -0.07444800
Spot 2    -0.01158024     0.01306320    -0.07444800
Spot 1    -0.01162710     0.01306741    -0.07444800
Spot 2    -0.01158016     0.01306269    -0.07444800
20MABNDA000039_PR011
Spot 1    -0.01372719     0.01397258    -0.07444800
Spot 2    -0.01355124     0.01397661    -0.07444800
Spot 1    -0.01372695     0.01397257    -0.07444800
Spot 2    -0.01355111     0.01397605    -0.07444800
Spot 1    -0.01372715     0.01397254    -0.07444800
Spot 2    -0.01355152     0.01397612    -0.07444800
Spot 1    -0.01372715     0.01397236    -0.07444800
Spot 2    -0.01355134     0.01397610    -0.07444800
20MABNDB000155_PR020
Spot 1    -0.01364509    -0.01312564    -0.07501700
Spot 2    -0.01358251    -0.01312813    -0.07501700
Spot 1    -0.01364538    -0.01312563    -0.07501700
Spot 2    -0.01358221    -0.01312772    -0.07501700
Spot 1    -0.01364515    -0.01312560    -0.07501700
Spot 2    -0.01358214    -0.01312839    -0.07501700
Spot 1    -0.01364475    -0.01312542    -0.07501700
Spot 2    -0.01358173    -0.01312811    -0.07501700
20MABNDB000155_PR022
Spot 1    -0.01216024    -0.01283221    -0.07501700
Spot 2    -0.01168727    -0.01283028    -0.07501700
Spot 1    -0.01216022    -0.01283205    -0.07501700
Spot 2    -0.01168727    -0.01283028    -0.07501700
Spot 1    -0.01216020    -0.01283205    -0.07501700
Spot 2    -0.01168722    -0.01283030    -0.07501700
Spot 1    -0.01216031    -0.01283225    -0.07501700
Spot 2    -0.01168728    -0.01283032    -0.07501700
20MABNDB000010_PR021
Spot 1    -0.01158068    -0.01292566    -0.07358200
Spot 2    -0.01152837    -0.01292244    -0.07358200
Spot 1    -0.01158021    -0.01292584    -0.07358200
Spot 2    -0.01152833    -0.01292219    -0.07358200
Spot 1    -0.01158037    -0.01292584    -0.07358200
Spot 2    -0.01152861    -0.01292229    -0.07358200
Spot 1    -0.01158056    -0.01292594    -0.07358200
Spot 2    -0.01152831    -0.01292252    -0.07358200
20MABNDB000010_PR023
Spot 1    -0.01312382    -0.01379260    -0.07358200
Spot 2    -0.01294863    -0.01379134    -0.07358200
Spot 1    -0.01312350    -0.01379244    -0.07358200
Spot 2    -0.01294896    -0.01379120    -0.07358200
Spot 1    -0.01312395    -0.01379241    -0.07358200
Spot 2    -0.01294895    -0.01379091    -0.07358200
Spot 1    -0.01312372    -0.01379274    -0.07358200
Spot 2    -0.01294874    -0.01379099    -0.07358200
20MABNDB000069_PR031
Spot 1    -0.01361993    -0.01186066    -0.07388500
Spot 2    -0.01361993    -0.01186066    -0.07388500
Spot 1    -0.01361993    -0.01186066    -0.07388500
Spot 2    -0.01361993    -0.01186066    -0.07388500
Spot 1    -0.01361993    -0.01186066    -0.07388500
Spot 2    -0.01361993    -0.01186066    -0.07388500
Spot 1    -0.01361993    -0.01186066    -0.07388500
Spot 2    -0.01361993    -0.01186066    -0.07388500
20MABNDB000069_PR033
Spot 1    -0.01202746    -0.01226095    -0.07388500
Spot 2    -0.01155785    -0.01226125    -0.07388500
Spot 1    -0.01202805    -0.01226076    -0.07388500
Spot 2    -0.01155792    -0.01226115    -0.07388500
Spot 1    -0.01202776    -0.01226095    -0.07388500
Spot 2    -0.01155766    -0.01226136    -0.07388500
Spot 1    -0.01202773    -0.01226074    -0.07388500
Spot 2    -0.01155774    -0.01226136    -0.07388500
20MABNDB000131_PR032
Spot 1    -0.01144317    -0.01303772    -0.07533000
Spot 2    -0.01138371    -0.01303435    -0.07533000
Spot 1    -0.01144309    -0.01303778    -0.07533000
Spot 2    -0.01138366    -0.01303407    -0.07533000
Spot 1    -0.01144332    -0.01303792    -0.07533000
Spot 2    -0.01138375    -0.01303399    -0.07533000
Spot 1    -0.01144322    -0.01303773    -0.07533000
Spot 2    -0.01138399    -0.01303399    -0.07533000
20MABNDB000131_PR034
Spot 1    -0.01329233    -0.01380111    -0.07533000
Spot 2    -0.01311607    -0.01379994    -0.07533000
Spot 1    -0.01329228    -0.01380094    -0.07533000
Spot 2    -0.01311622    -0.01380024    -0.07533000
Spot 1    -0.01329220    -0.01380103    -0.07533000
Spot 2    -0.01311607    -0.01380013    -0.07533000
Spot 1    -0.01329229    -0.01380095    -0.07533000
Spot 2    -0.01311592    -0.01380024    -0.07533000
20MABNDA000208_PR042
Spot 1    -0.01392835     0.01304222    -0.07273700
Spot 2    -0.01386297     0.01304378    -0.07273700
Spot 1    -0.01393000     0.01304175    -0.07273700
Spot 2    -0.01386302     0.01304374    -0.07273700
Spot 1    -0.01392861     0.01304240    -0.07273700
Spot 2    -0.01386278     0.01304414    -0.07273700
Spot 1    -0.01392907     0.01304223    -0.07273700
Spot 2    -0.01386263     0.01304401    -0.07273700
20MABNDA000208_PR046
Spot 1    -0.01231699     0.01179351    -0.07273700
Spot 2    -0.01184274     0.01179326    -0.07273700
Spot 1    -0.01231701     0.01179343    -0.07273700
Spot 2    -0.01184301     0.01179322    -0.07273700
Spot 1    -0.01231690     0.01179344    -0.07273700
Spot 2    -0.01184295     0.01179322    -0.07273700
Spot 1    -0.01231703     0.01179342    -0.07273700
Spot 2    -0.01184297     0.01179325    -0.07273700
20MABNDA000035_PR044
Spot 1    -0.01157165     0.01300066    -0.07483200
Spot 2    -0.01151726     0.01300645    -0.07483200
Spot 1    -0.01157144     0.01300048    -0.07483200
Spot 2    -0.01151724     0.01300624    -0.07483200
Spot 1    -0.01157181     0.01300033    -0.07483200
Spot 2    -0.01151718     0.01300639    -0.07483200
Spot 1    -0.01157160     0.01300069    -0.07483200
Spot 2    -0.01151750     0.01300642    -0.07483200
20MABNDA000035_PR045
Spot 1    -0.01337470     0.01379917    -0.07483200
Spot 2    -0.01319772     0.01379843    -0.07483200
Spot 1    -0.01337442     0.01379924    -0.07483200
Spot 2    -0.01319728     0.01379846    -0.07483200
Spot 1    -0.01337459     0.01379911    -0.07483200
Spot 2    -0.01319770     0.01379851    -0.07483200
Spot 1    -0.01337456     0.01379909    -0.07483200
Spot 2    -0.01319725     0.01379847    -0.07483200


*****************************************************************coordonnees du prisme dans le repere MOUNT********************************************************************************** 
20MABNDL000077_PR002
    0.03213681     0.00442387     3.70693541
    0.03213684     0.00440065     3.70693493
    0.03214543     0.00449739     3.70693588
    0.03215072     0.00455884     3.70693636
    0.03205184     0.00450051     3.70693636
20MABNDL000077_PR003
    0.02100334     0.02117810     3.89601660
    0.02101489     0.02116449     3.89601660
    0.02101942     0.02114965     3.89601660
    0.02102143     0.02114236     3.89601660
    0.02103047     0.02113786     3.89601660
20MABNDL000077_20MABNDM000168
   -0.02586792     0.03615456    -5.46874046
   -0.02586870     0.03612566    -5.46874046
   -0.02586875     0.03613035    -5.46874046
   -0.02587305     0.03612670    -5.46874046
   -0.02586257     0.03612644    -5.46874046
20MABNDL000077_PR024
    0.04545169     0.01810545    -5.89640379
    0.04544059     0.01808507    -5.89640379
    0.04544524     0.01808746    -5.89640379
    0.04544962     0.01807892    -5.89640379
20MABNDM000020_PR013
    0.01133900    -0.09001996    -3.80201674
    0.02159763    -0.08681468    -3.80198145
    0.02721719    -0.08991493    -3.80188203
    0.02592902    -0.08870311    -3.80191326
20MABNDM000020_PR014
   -0.09646920    -0.08948103    -4.74775267
   -0.09646920    -0.08948103    -4.74775267
   -0.09646920    -0.08948103    -4.74775267
   -0.09646920    -0.08948103    -4.74775267
20MABNDM000020_20MABNDL000196
    0.02685453    -0.07122803     5.39469719
    0.02684630    -0.07123913     5.39469719
    0.02684343    -0.07123448     5.39469719
    0.05908885    -0.06585293     5.39454842
20MABNDM000020_PR035
   -0.04227261    -0.00679769     5.80095673
   -0.04226799    -0.00679037     5.80095673
   -0.04228185    -0.00678575     5.80095673
   -0.04227184    -0.00678575     5.80095673
20MABNDM000168_PR025
    0.04463461    -0.07407759    -3.78815937
    0.04463461    -0.07407759    -3.78815937
    0.04463461    -0.07407759    -3.78815937
    0.04463461    -0.07407759    -3.78815937
20MABNDM000168_PR026
   -0.05786072    -0.01396701    -3.98429012
   -0.05785649    -0.01398443    -3.98429012
   -0.05786171    -0.01398159    -3.98429012
   -0.05785023    -0.01398830    -3.98429084
20MABNDM000168_20MABNDL000077
    0.01151381    -0.03872421     5.38884687
    0.01150448    -0.03872336     5.38884687
    0.01150465    -0.03873630     5.38884687
    0.01152069    -0.03872037     5.38884687
20MABNDM000168_PR001
   -0.05737007    -0.01318387     5.81470490
   -0.05736229    -0.01318166     5.81470490
   -0.05735893    -0.01319024     5.81470490
   -0.05734377    -0.01318697     5.81470490
20MABNDL000196_PR036
    0.05136957     0.00592167     3.68777132
    0.05137154     0.00591750     3.68777132
    0.05137179     0.00591259     3.68777132
    0.05137424     0.00591603     3.68777132
20MABNDL000196_PR037
   -0.02512389     0.02852155     3.88381290
   -0.02512546     0.02852957     3.88381290
   -0.02512234     0.02852259     3.88381290
   -0.02513164     0.02851999     3.88381290
20MABNDL000196_20MABNDM000020
   -0.01571269     0.03787160    -5.47473907
   -0.01570571     0.03784623    -5.47473907
   -0.01571413     0.03785396    -5.47473907
   -0.01571669     0.03785607    -5.47473907
20MABNDL000196_PR012
    0.05236483     0.01450490    -5.91537142
   -0.00621137     0.05363687    -5.91574430
    0.05235472     0.01450508    -5.91537189
    0.05234954     0.01449214    -5.91537189
20MABNDA000318_PR004
   -0.00845399     0.03835460     2.74965954
   -0.00845821     0.03835147     2.74965954
   -0.00845547     0.03835661     2.74965954
   -0.00845126     0.03836029     2.74965906
20MABNDA000334_PR005
   -0.00429054     0.03166587     2.14977217
   -0.00429925     0.03166745     2.14977217
   -0.00428497     0.03165858     2.14977217
   -0.00429025     0.03166501     2.14977217
20MABNDB000317_PR015
   -0.01740957    -0.03395055     2.75129056
   -0.01741030    -0.03395002     2.75129056
   -0.01741235    -0.03394639     2.75129056
   -0.01740782    -0.03394379     2.75129056
20MABNDB000146_PR016
   -0.01356456    -0.03174523     2.15201306
   -0.01356585    -0.03174839     2.15201306
   -0.01356485    -0.03174594     2.15201306
   -0.01356269    -0.03174608     2.15201306
20MABNDB000135_PR027
   -0.02105176    -0.00984928     2.74937105
   -0.02105322    -0.00984853     2.74937105
   -0.02105614    -0.00984739     2.74937105
   -0.02105688    -0.00984775     2.74937105
20MABNDB000126_PR028
   -0.02036506    -0.03898265     2.14679480
   -0.02036307    -0.03898278     2.14679480
   -0.02036392    -0.03898336     2.14679480
   -0.02036249    -0.03898321     2.14679480
20MABNDA000272_PR038
   -0.01319954     0.01094973     2.74965882
   -0.01319662     0.01094313     2.74965882
   -0.01320248     0.01094332     2.74965882
   -0.01320120     0.01094039     2.74965882
20MABNDA000003_PR039
   -0.00591579     0.04138318     2.14891338
   -0.00591850     0.04138347     2.14891338
   -0.00591949     0.04138648     2.14891338
   -0.00591735     0.04138661     2.14891338
20MABNDA000196_PR006
   -0.01039615     0.01023621     1.64206433
   -0.01039810     0.01023766     1.64206433
   -0.01039537     0.01023762     1.64206433
   -0.01039469     0.01023914     1.64206433
20MABNDA000324_PR007
   -0.02527301     0.02751119     2.95549345
   -0.02527191     0.02752123     2.95549345
   -0.02527429     0.02752358     2.95549345
   -0.02527270     0.02752201     2.95549345
20MABNDB000001_PR017
   -0.02413655    -0.00281276     1.64035964
   -0.02413684    -0.00281986     1.64035964
   -0.02414127    -0.00281478     1.64035964
   -0.02413771    -0.00281908     1.64035964
20MABNDB000260_PR019
   -0.02436395    -0.03845116     2.95627403
   -0.02437428    -0.03845650     2.95627403
   -0.02436504    -0.03845552     2.95627403
   -0.02436983    -0.03846192     2.95627403
20MABNDB000212_PR029
   -0.02544610    -0.00832115     1.64223695
   -0.02544091    -0.00831736     1.64223719
   -0.02544493    -0.00832489     1.64223719
   -0.02544816    -0.00831948     1.64223695
20MABNDB000128_PR030
   -0.01927954    -0.04683512     2.95496273
   -0.01927776    -0.04683689     2.95496273
   -0.01928091    -0.04683611     2.95496273
   -0.01928011    -0.04683945     2.95496273
20MABNDA000444_PR040
   -0.02990304     0.00090220     1.64491200
   -0.02990377     0.00089989     1.64491200
   -0.02989932     0.00090268     1.64491200
   -0.02989987     0.00090267     1.64491200
20MABNDA000053_PR041
   -0.02643830     0.05075179     2.95450902
   -0.02643753     0.05075099     2.95450902
   -0.02642831     0.05075062     2.95450902
   -0.02642905     0.05075299     2.95450902
20MABNDA000188_PR008
    0.13650158    -0.07885031     9.20339394
    0.13650158    -0.07885031     9.20339394
    0.13650158    -0.07885031     9.20339394
    0.13650158    -0.07885031     9.20339394
20MABNDA000188_PR018
   -0.01665620     0.02634336     1.28357601
   -0.01665807     0.02634492     1.28357601
   -0.01665609     0.02634610     1.28357601
   -0.01665712     0.02634551     1.28357601
20MABNDA000039_PR009
   -0.17089081     0.02505983    11.00702095
   -0.17094699     0.02508494    11.00702000
   -0.17101496     0.02508596    11.00701904
   -0.17098403     0.02513775    11.00701904
20MABNDA000039_PR011
    0.03080955    -0.02460257     3.43346977
    0.03080117    -0.02458953     3.43347001
    0.03081508    -0.02459050     3.43346977
    0.03081099    -0.02458592     3.43346977
20MABNDB000155_PR020
    0.10212982    -0.00920982     9.20028305
    0.10212956    -0.00923561     9.20028305
    0.10211122    -0.00919596     9.20028305
    0.10206127    -0.00922488     9.20028305
20MABNDB000155_PR022
   -0.02555496    -0.01763237     1.28070843
   -0.02555520    -0.01763374     1.28070843
   -0.02555580    -0.01763357     1.28070843
   -0.02555429    -0.01763167     1.28070843
20MABNDB000010_PR021
   -0.17621382    -0.03366081    11.00694561
   -0.17625120    -0.03366659    11.00694561
   -0.17621899    -0.03365869    11.00694561
   -0.17622748    -0.03363457    11.00694561
20MABNDB000010_PR023
    0.00428456     0.02030059     3.43377113
    0.00428468     0.02029371     3.43377113
    0.00429489     0.02028632     3.43377113
    0.00428464     0.02029578     3.43377113
20MABNDB000069_PR031
    0.10999375    -0.16176865     9.20229721
    0.10999375    -0.16176865     9.20229721
    0.10999375    -0.16176865     9.20229721
    0.10999375    -0.16176865     9.20229721
20MABNDB000069_PR033
   -0.02679074    -0.02696992     1.28394055
   -0.02678511    -0.02697247     1.28394055
   -0.02678985    -0.02696902     1.28394055
   -0.02678941    -0.02697083     1.28394055
20MABNDB000131_PR032
   -0.18791330    -0.02966801    11.00642204
   -0.18792273    -0.02968414    11.00642204
   -0.18789938    -0.02967964    11.00642300
   -0.18788910    -0.02969420    11.00642300
20MABNDB000131_PR034
    0.01433010     0.01653797     3.43337822
    0.01433236     0.01654095     3.43337822
    0.01432713     0.01654047     3.43337822
    0.01432575     0.01654114     3.43337822
20MABNDA000208_PR042
    0.13237467     0.01466874     9.20145035
    0.13247897     0.01470013     9.20144844
    0.13237900     0.01463560     9.20145035
    0.13239801     0.01465403     9.20145035
20MABNDA000208_PR046
   -0.02351551     0.03464971     1.28208089
   -0.02351303     0.03465074     1.28208089
   -0.02351448     0.03465065     1.28208089
   -0.02351320     0.03465057     1.28208089
20MABNDA000035_PR044
   -0.17996646     0.02662839    11.00802326
   -0.17998379     0.02665704    11.00802231
   -0.17996114     0.02665688    11.00802326
   -0.17995258     0.02662829    11.00802326
20MABNDA000035_PR045
    0.01461964    -0.01897199     3.43483686
    0.01460319    -0.01897438     3.43483686
    0.01461667    -0.01897265     3.43483686
    0.01460573    -0.01897120     3.43483686


*****************************************************************coordonnees du prisme dans le repere ATLAS********************************************************************************** 
20MABNDL000077_PR002 0.00000000
    2.85261154    -3.71238565     6.48617744
    2.85263467    -3.71238565     6.48617697
    2.85253787    -3.71237683     6.48617792
    2.85247636    -3.71237159     6.48617840
    2.85253477    -3.71247053     6.48617840
20MABNDL000077_PR003 0.00000000
    2.83603907    -3.72374701     6.67526102
    2.83605266    -3.72373557     6.67526102
    2.83606768    -3.72373104     6.67526102
    2.83607483    -3.72372890     6.67526102
    2.83607936    -3.72371984     6.67526102
20MABNDL000077_20MABNDM000168 0.00000000
    2.81186199    -3.75905919    -2.68952727
    2.81189108    -3.75906014    -2.68952727
    2.81188631    -3.75906014    -2.68952727
    2.81188989    -3.75906444    -2.68952727
    2.81189013    -3.75905395    -2.68952727
20MABNDL000077_PR024 0.00000000
    2.82951450    -3.68721795    -3.11711979
    2.82953477    -3.68722892    -3.11712003
    2.82953238    -3.68722439    -3.11711979
    2.82954097    -3.68721986    -3.11711979
20MABNDM000020_PR013 0.00000000
   -2.76229405    -3.75084472     6.48583364
   -2.76550245    -3.76110220     6.48579121
   -2.76240396    -3.76672268     6.48568678
   -2.76361537    -3.76543427     6.48571920
20MABNDM000020_PR014 0.00000000
   -2.76261067    -3.64375567     7.43165112
   -2.76261067    -3.64375567     7.43165112
   -2.76261067    -3.64375567     7.43165112
   -2.76261067    -3.64375567     7.43165112
20MABNDM000020_20MABNDL000196 0.00000000
   -2.78293133    -3.75936007    -2.71088576
   -2.78292012    -3.75935173    -2.71088576
   -2.78292489    -3.75934887    -2.71088576
   -2.78831625    -3.79159284    -2.71076035
20MABNDM000020_PR035 0.00000000
   -2.84742165    -3.68990421    -3.11707973
   -2.84742904    -3.68990874    -3.11707973
   -2.84743357    -3.68989491    -3.11707973
   -2.84743357    -3.68990493    -3.11707973
20MABNDM000168_PR025 0.00000000
    2.77915215    -3.78994966    -6.47876501
    2.77915215    -3.78994966    -6.47876501
    2.77915215    -3.78994966    -6.47876501
    2.77915215    -3.78994966    -6.47876501
20MABNDM000168_PR026 0.00000000
    2.83927798    -3.68754315    -6.67493773
    2.83926058    -3.68754721    -6.67493773
    2.83926344    -3.68754220    -6.67493773
    2.83925676    -3.68755364    -6.67493820
20MABNDM000168_20MABNDL000077 0.00000000
    2.81507134    -3.75342584     2.69822598
    2.81507206    -3.75341654     2.69822598
    2.81505919    -3.75341678     2.69822598
    2.81507516    -3.75343275     2.69822598
20MABNDM000168_PR001 0.00000000
    2.84065580    -3.68439054     3.12405682
    2.84065795    -3.68439817     3.12405682
    2.84064937    -3.68440151     3.12405682
    2.84065270    -3.68441677     3.12405682
20MABNDL000196_PR036 0.00000000
   -2.84768581    -3.69290495    -6.47909498
   -2.84769011    -3.69290304    -6.47909498
   -2.84769487    -3.69290280    -6.47909498
   -2.84769154    -3.69290018    -6.47909498
20MABNDL000196_PR037 0.00000000
   -2.82505465    -3.76957011    -6.67506552
   -2.82504654    -3.76957178    -6.67506552
   -2.82505369    -3.76956868    -6.67506552
   -2.82505631    -3.76957798    -6.67506552
20MABNDL000196_20MABNDM000020 0.00000000
   -2.81550670    -3.75144935     2.68347335
   -2.81553221    -3.75144243     2.68347335
   -2.81552434    -3.75145078     2.68347335
   -2.81552219    -3.75145340     2.68347335
20MABNDL000196_PR012 0.00000000
   -2.83889556    -3.68297291     3.12404275
   -2.79973626    -3.74153042     3.12446928
   -2.83889532    -3.68298292     3.12404323
   -2.83890843    -3.68298817     3.12404323
20MABNDA000318_PR004 0.00000000
    2.61454916    -4.19698858     3.83364415
    2.61454511    -4.19698858     3.83364725
    2.61454773    -4.19698858     3.83364201
    2.61455202    -4.19698906     3.83363843
20MABNDA000334_PR005 0.00000000
    2.61670804    -4.19703102     5.89759493
    2.61669922    -4.19703102     5.89759350
    2.61671352    -4.19703102     5.89760208
    2.61670828    -4.19703102     5.89759588
20MABNDB000317_PR015 0.00000000
   -2.61119771    -4.19700575     3.83606482
   -2.61119676    -4.19700575     3.83606553
   -2.61119485    -4.19700575     3.83606911
   -2.61119938    -4.19700575     3.83607173
20MABNDB000146_PR016 0.00000000
   -2.61273074    -4.19702482     5.89860487
   -2.61272931    -4.19702482     5.89860201
   -2.61273026    -4.19702482     5.89860439
   -2.61273241    -4.19702482     5.89860439
20MABNDB000135_PR027 0.00000000
    2.60381150    -4.19700432    -3.82551169
    2.60381007    -4.19700432    -3.82551241
    2.60380721    -4.19700432    -3.82551336
    2.60380650    -4.19700432    -3.82551312
20MABNDB000126_PR028 0.00000000
    2.60555220    -4.19702148    -5.89323711
    2.60555410    -4.19702148    -5.89323711
    2.60555339    -4.19702148    -5.89323664
    2.60555482    -4.19702148    -5.89323664
20MABNDA000272_PR038 0.00000000
   -2.61133742    -4.19698286    -3.82753468
   -2.61134028    -4.19698286    -3.82754111
   -2.61133432    -4.19698286    -3.82754111
   -2.61133575    -4.19698286    -3.82754397
20MABNDA000003_PR039 0.00000000
   -2.61581540    -4.19702291    -5.89138365
   -2.61581278    -4.19702291    -5.89138317
   -2.61581159    -4.19702291    -5.89138031
   -2.61581373    -4.19702291    -5.89137983
20MABNDA000196_PR006 0.00000000
    2.58485675    -4.19496393     6.54819298
    2.58485866    -4.19496393     6.54819441
    2.58485579    -4.19496393     6.54819393
    2.58485532    -4.19496393     6.54819584
20MABNDA000324_PR007 0.00000000
    2.59404182    -4.13996458     6.94840384
    2.59404278    -4.13996458     6.94839382
    2.59404039    -4.13996458     6.94839144
    2.59404206    -4.13996458     6.94839334
20MABNDB000001_PR017 0.00000000
   -2.59783792    -4.19505835     6.53814077
   -2.59783816    -4.19505835     6.53814793
   -2.59784245    -4.19505835     6.53814268
   -2.59783912    -4.19505835     6.53814697
20MABNDB000260_PR019 0.00000000
   -2.60439801    -4.13996029     6.94219303
   -2.60438752    -4.13996029     6.94218731
   -2.60439682    -4.13996029     6.94218826
   -2.60439205    -4.13996029     6.94218206
20MABNDB000212_PR029 0.00000000
    2.59912395    -4.19501162    -6.54730892
    2.59911871    -4.19501114    -6.54730511
    2.59912276    -4.19501114    -6.54731274
    2.59912586    -4.19501162    -6.54730749
20MABNDB000128_PR030 0.00000000
    2.60957909    -4.14002705    -6.93128586
    2.60958099    -4.14002705    -6.93128395
    2.60957789    -4.14002705    -6.93128490
    2.60957861    -4.14002705    -6.93128157
20MABNDA000444_PR040 0.00000000
   -2.60507560    -4.19509745    -6.54008245
   -2.60507631    -4.19509745    -6.54008007
   -2.60507178    -4.19509745    -6.54008293
   -2.60507250    -4.19509745    -6.54008293
20MABNDA000053_PR041 0.00000000
   -2.59410357    -4.14012241    -6.92716169
   -2.59410429    -4.14012241    -6.92716265
   -2.59411359    -4.14012241    -6.92716312
   -2.59411287    -4.14012241    -6.92716074
20MABNDA000188_PR008 0.00000000
    3.54951787     3.84898496     8.09023857
    3.54951787     3.84898496     8.09023857
    3.54951787     3.84898496     8.09023857
    3.54951787     3.84898496     8.09023857
20MABNDA000188_PR018 0.00000000
    3.52048874    -4.07060432     7.89709806
    3.52048683    -4.07060432     7.89709663
    3.52048898    -4.07060432     7.89709568
    3.52048779    -4.07060432     7.89709616
20MABNDA000039_PR009 0.00000000
    3.87506294     3.64747953    12.93635368
    3.87511897     3.64747858    12.93637848
    3.87518692     3.64747739    12.93638039
    3.87515593     3.64747763    12.93643188
20MABNDA000039_PR011 0.00000000
    3.66421461    -3.92580605    12.88423443
    3.66422296    -3.92580581    12.88424683
    3.66420913    -3.92580605    12.88424587
    3.66421318    -3.92580605    12.88425064
20MABNDB000155_PR020 0.00000000
   -3.68078208     3.84881592     7.89765739
   -3.68078184     3.84881592     7.89763165
   -3.68076348     3.84881616     7.89767122
   -3.68071342     3.84881616     7.89764214
20MABNDB000155_PR022 0.00000000
   -3.53442550    -4.07043648     7.89042664
   -3.53442526    -4.07043648     7.89042568
   -3.53442478    -4.07043648     7.89042568
   -3.53442621    -4.07043648     7.89042759
20MABNDB000010_PR021 0.00000000
   -3.86205101     3.64768314    12.93549061
   -3.86208844     3.64768314    12.93549633
   -3.86205626     3.64768314    12.93548870
   -3.86206484     3.64768291    12.93546391
20MABNDB000010_PR023 0.00000000
   -3.68538189    -3.92560554    12.88497543
   -3.68538165    -3.92560554    12.88498211
   -3.68537164    -3.92560554    12.88498974
   -3.68538189    -3.92560554    12.88498020
20MABNDB000069_PR031 0.00000000
    3.69177032     3.84800911    -7.77863359
    3.69177032     3.84800911    -7.77863359
    3.69177032     3.84800911    -7.77863359
    3.69177032     3.84800911    -7.77863359
20MABNDB000069_PR033 0.00000000
    3.53350878    -4.07046270    -7.87870169
    3.53351426    -4.07046270    -7.87869883
    3.53350973    -4.07046270    -7.87870216
    3.53350997    -4.07046270    -7.87870073
20MABNDB000131_PR032 0.00000000
    3.86871576     3.64757204   -12.94031048
    3.86872530     3.64757204   -12.94032669
    3.86870193     3.64757299   -12.94032192
    3.86869144     3.64757299   -12.94033718
20MABNDB000131_PR034 0.00000000
    3.67345929    -3.92563820   -12.89140987
    3.67345691    -3.92563820   -12.89140701
    3.67346215    -3.92563820   -12.89140701
    3.67346358    -3.92563820   -12.89140606
20MABNDA000208_PR042 0.00000000
   -3.68245292     3.84913039    -7.89681768
   -3.68255711     3.84912848    -7.89678621
   -3.68245721     3.84913039    -7.89685059
   -3.68247628     3.84913039    -7.89683247
20MABNDA000208_PR046 0.00000000
   -3.53224993    -4.07034111    -7.87386847
   -3.53225255    -4.07034111    -7.87386751
   -3.53225112    -4.07034111    -7.87386751
   -3.53225231    -4.07034111    -7.87386751
20MABNDA000035_PR044 0.00000000
   -3.86920738     3.64757848   -12.93230724
   -3.86922479     3.64757752   -12.93233585
   -3.86920214     3.64757848   -12.93233585
   -3.86919355     3.64757848   -12.93230724
20MABNDA000035_PR045 0.00000000
   -3.67610860    -3.92565036   -12.88741207
   -3.67612505    -3.92565036   -12.88741016
   -3.67611170    -3.92565036   -12.88741207
   -3.67612267    -3.92565036   -12.88741302


*****************************************************************Rapport********************************************************************************** 
CAM-LBA-US_EBA-US-HO-H         2017.11.20.07.57.05     2.85255904    -3.71239805     6.48617783     0.00005718     0.00003664     0.00000056 0.00000000 VRAI 
CAM-LBA-US_JDA-US-H            2017.11.20.07.57.05     2.83606272    -3.72373247     6.67526102     0.00001489     0.00000890     0.00000000 0.00000000 VRAI 
CAM-LBA-US_CAM-LBC-US          2017.11.20.07.57.05     2.81188388    -3.75905957    -2.68952727     0.00001106     0.00000335     0.00000000 0.00000000 VRAI 
CAM-LBA-US_EBC-US-IP-H         2017.11.20.07.57.05     2.82953066    -3.68722278    -3.11711985     0.00000984     0.00000425     0.00000010 0.00000000 VRAI 
CAM-LBA-USA_EBA-USA-HO-H       2017.11.20.07.57.05    -2.76345396    -3.76102597     6.48575771     0.00129134     0.00623597     0.00005788 0.00000000 VRAI 
CAM-LBA-USA_JDA-USA-H          2017.11.20.07.57.05    -2.76261067    -3.64375567     7.43165112     0.00000000     0.00000000     0.00000000 0.00000000 VRAI 
CAM-LBA-USA_CAM-LBC-USA        2017.11.20.07.57.05    -2.78427315    -3.76741338    -2.71085441     0.00233429     0.01396002     0.00005430 0.00000000 VRAI 
CAM-LBA-USA_EBC-USA-IP-H       2017.11.20.07.57.05    -2.84742945    -3.68990320    -3.11707973     0.00000487     0.00000508     0.00000000 0.00000000 VRAI 
CAM-LBC-US_EBC-US-HO-H         2017.11.20.07.57.05     2.77915215    -3.78994966    -6.47876501     0.00000000     0.00000000     0.00000000 0.00000000 VRAI 
CAM-LBC-US_JDC-US-H            2017.11.20.07.57.05     2.83926469    -3.68754655    -6.67493784     0.00000803     0.00000451     0.00000021 0.00000000 VRAI 
CAM-LBC-US_CAM-LBA-US          2017.11.20.07.57.05     2.81506944    -3.75342298     2.69822598     0.00000609     0.00000678     0.00000000 0.00000000 VRAI 
CAM-LBC-US_EBA-US-IP-H         2017.11.20.07.57.05     2.84065396    -3.68440175     3.12405682     0.00000324     0.00000954     0.00000000 0.00000000 VRAI 
CAM-LBC-USA_EBC-USA-HO-H       2017.11.20.07.57.05    -2.84769058    -3.69290274    -6.47909498     0.00000325     0.00000170     0.00000000 0.00000000 VRAI 
CAM-LBC-USA_JDC-USA-H          2017.11.20.07.57.05    -2.82505280    -3.76957214    -6.67506552     0.00000373     0.00000355     0.00000000 0.00000000 VRAI 
CAM-LBC-USA_CAM-LBA-USA        2017.11.20.07.57.05    -2.81552136    -3.75144899     2.68347335     0.00000925     0.00000405     0.00000000 0.00000000 VRAI 
CAM-LBC-USA_EBA-USA-IP-H       2017.11.20.07.57.05    -2.82910889    -3.69761860     3.12414962     0.01695830     0.02535250     0.00018456 0.00000000 VRAI 
CAM-EBA-US-IP_EBA-US-IP        2017.11.20.07.57.05     2.61454850    -4.19698870     3.83364296     0.00000250     0.00000021     0.00000321 0.00000000 VRAI 
CAM-EBA-US-HO_EBA-US-HO        2017.11.20.07.57.05     2.61670727    -4.19703102     5.89759660     0.00000514     0.00000000     0.00000328 0.00000000 VRAI 
CAM-EBA-USA-IP_EBA-USA-IP      2017.11.20.07.57.05    -2.61119717    -4.19700575     3.83606780     0.00000164     0.00000000     0.00000279 0.00000000 VRAI 
CAM-EBA-USA-HO_EBA-USA-HO      2017.11.20.07.57.05    -2.61273068    -4.19702482     5.89860392     0.00000112     0.00000000     0.00000112 0.00000000 VRAI 
CAM-EBC-US-IP_EBC-US-IP        2017.11.20.07.57.05     2.60380882    -4.19700432    -3.82551265     0.00000205     0.00000000     0.00000065 0.00000000 VRAI 
CAM-EBC-US-HO_EBC-US-HO        2017.11.20.07.57.05     2.60555363    -4.19702148    -5.89323688     0.00000097     0.00000000     0.00000024 0.00000000 VRAI 
CAM-EBC-USA-IP_EBC-USA-IP      2017.11.20.07.57.05    -2.61133695    -4.19698286    -3.82754022     0.00000222     0.00000000     0.00000341 0.00000000 VRAI 
CAM-EBC-USA-HO_EBC-USA-HO      2017.11.20.07.57.05    -2.61581337    -4.19702291    -5.89138174     0.00000140     0.00000000     0.00000169 0.00000000 VRAI 
CAM-JDA-US-IP_JDA-US-IP        2017.11.20.07.57.05     2.58485663    -4.19496393     6.54819429     0.00000128     0.00000000     0.00000103 0.00000000 VRAI 
CAM-JDA-US-HO_JDA-US-HO        2017.11.20.07.57.05     2.59404176    -4.13996458     6.94839561     0.00000087     0.00000000     0.00000483 0.00000000 VRAI 
CAM-JDA-USA-IP_JDA-USA-IP      2017.11.20.07.57.05    -2.59783942    -4.19505835     6.53814459     0.00000181     0.00000000     0.00000296 0.00000000 VRAI 
CAM-JDA-USA-HO_JDA-USA-HO      2017.11.20.07.57.05    -2.60439360    -4.13996029     6.94218767     0.00000416     0.00000000     0.00000389 0.00000000 VRAI 
CAM-JDC-US-IP_JDC-US-IP        2017.11.20.07.57.05     2.59912282    -4.19501138    -6.54730856     0.00000262     0.00000024     0.00000277 0.00000000 VRAI 
CAM-JDC-US-HO_JDC-US-HO        2017.11.20.07.57.05     2.60957915    -4.14002705    -6.93128407     0.00000115     0.00000000     0.00000159 0.00000000 VRAI 
CAM-JDC-USA-IP_JDC-USA-IP      2017.11.20.07.57.05    -2.60507405    -4.19509745    -6.54008210     0.00000194     0.00000000     0.00000119 0.00000000 VRAI 
CAM-JDC-USA-HO_JDC-USA-HO      2017.11.20.07.57.05    -2.59410858    -4.14012241    -6.92716205     0.00000466     0.00000000     0.00000092 0.00000000 VRAI 
CAM-ECTA-US-IP_ECTA-US-IP-T    2017.11.20.07.57.05     3.54951787     3.84898496     8.09023857     0.00000000     0.00000000     0.00000000 0.00000000 VRAI 
CAM-ECTA-US-IP_ECTA-US-IP      2017.11.20.07.57.05     3.52048808    -4.07060432     7.89709663     0.00000085     0.00000000     0.00000089 0.00000000 VRAI 
CAM-ECTA-US-HO_ECTA-US-HO-T    2017.11.20.07.57.05     3.87513119     3.64747828    12.93638611     0.00004616     0.00000085     0.00002845 0.00000000 VRAI 
CAM-ECTA-US-HO_ECTA-US-HO      2017.11.20.07.57.05     3.66421497    -3.92580599    12.88424444     0.00000503     0.00000010     0.00000605 0.00000000 VRAI 
CAM-ECTA-USA-IP_ECTA-USA-IP-T  2017.11.20.07.57.05    -3.68076020     3.84881604     7.89765060     0.00002805     0.00000012     0.00001502 0.00000000 VRAI 
CAM-ECTA-USA-IP_ECTA-USA-IP    2017.11.20.07.57.05    -3.53442544    -4.07043648     7.89042640     0.00000052     0.00000000     0.00000079 0.00000000 VRAI 
CAM-ECTA-USA-HO_ECTA-USA-HO-T  2017.11.20.07.57.05    -3.86206514     3.64768308    12.93548489     0.00001433     0.00000010     0.00001243 0.00000000 VRAI 
CAM-ECTA-USA-HO_ECTA-USA-HO    2017.11.20.07.57.05    -3.68537927    -3.92560554    12.88498187     0.00000441     0.00000000     0.00000515 0.00000000 VRAI 
CAM-ECTC-US-IP_ECTC-US-IP-T    2017.11.20.07.57.05     3.69177032     3.84800911    -7.77863359     0.00000000     0.00000000     0.00000000 0.00000000 VRAI 
CAM-ECTC-US-IP_ECTC-US-IP      2017.11.20.07.57.05     3.53351068    -4.07046270    -7.87870085     0.00000211     0.00000000     0.00000128 0.00000000 VRAI 
CAM-ECTC-US-HO_ECTC-US-HO-T    2017.11.20.07.57.05     3.86870861     3.64757252   -12.94032407     0.00001293     0.00000048     0.00000959 0.00000000 VRAI 
CAM-ECTC-US-HO_ECTC-US-HO      2017.11.20.07.57.05     3.67346048    -3.92563820   -12.89140749     0.00000258     0.00000000     0.00000143 0.00000000 VRAI 
CAM-ECTC-USA-IP_ECTC-USA-IP-T  2017.11.20.07.57.05    -3.68248588     3.84912992    -7.89682174     0.00004205     0.00000083     0.00002359 0.00000000 VRAI 
CAM-ECTC-USA-IP_ECTC-USA-IP    2017.11.20.07.57.05    -3.53225148    -4.07034111    -7.87386775     0.00000105     0.00000000     0.00000041 0.00000000 VRAI 
CAM-ECTC-USA-HO_ECTC-USA-HO-T  2017.11.20.07.57.05    -3.86920696     3.64757824   -12.93232155     0.00001141     0.00000041     0.00001431 0.00000000 VRAI 
CAM-ECTC-USA-HO_ECTC-USA-HO    2017.11.20.07.57.05    -3.67611700    -3.92565036   -12.88741183     0.00000699     0.00000000     0.00000104 0.00000000 VRAI 
