********** Fichier qui contient une sauvegarde des coordonnees images + coordonnees images transformees dans le repere BCAM (MOUNT) + coordonnees des prismes dans le repere MOUNT********** 
********************************************************************** Unite en metres (m)************************************************************************************************** 

*******************************************************************coordonnees images dans le repere CCD *********************************************************************************** 
20MABNDL000077_PR002
Spot 1     0.00121598     0.00149821
Spot 2     0.00086500     0.00006500
Spot 1     0.00121325     0.00150451
Spot 2     0.00052500     0.00043500
Spot 1     0.00121378     0.00149993
Spot 2     0.00052500     0.00043500
Spot 1     0.00121694     0.00146714
Spot 2     0.00052500     0.00043500
Spot 1     0.00121451     0.00149344
Spot 2     0.00052500     0.00043500
20MABNDL000077_PR003
Spot 1     0.00138749     0.00149441
Spot 2     0.00153663     0.00149084
Spot 1     0.00138672     0.00149470
Spot 2     0.00153612     0.00149120
Spot 1     0.00138639     0.00149524
Spot 2     0.00153630     0.00149104
Spot 1     0.00138642     0.00149513
Spot 2     0.00153714     0.00149102
Spot 1     0.00138603     0.00149540
Spot 2     0.00153704     0.00149100
20MABNDL000077_20MABNDM000168
Spot 1     0.00175731     0.00118301
Spot 2     0.00304500     0.00031500
Spot 1     0.00175767     0.00118323
Spot 2     0.00304500     0.00031500
Spot 1     0.00175754     0.00118344
Spot 2     0.00304500     0.00031500
Spot 1     0.00175701     0.00118349
Spot 2     0.00304500     0.00031500
Spot 1     0.00175702     0.00118381
Spot 2     0.00304500     0.00031500
20MABNDL000077_PR024
Spot 1     0.00254329     0.00143345
Spot 2     0.00264116     0.00144465
Spot 1     0.00254325     0.00143362
Spot 2     0.00264107     0.00144505
Spot 1     0.00254299     0.00143382
Spot 2     0.00264123     0.00144505
Spot 1     0.00254315     0.00143366
Spot 2     0.00264145     0.00144512
20MABNDM000020_PR013
Spot 1     0.00065500     0.00030500
Spot 2     0.00065500     0.00030500
Spot 1     0.00160500     0.00021500
Spot 2     0.00065500     0.00030500
Spot 1     0.00160500     0.00021500
Spot 2     0.00065500     0.00030500
Spot 1     0.00160500     0.00021500
Spot 2     0.00065500     0.00030500
20MABNDM000020_PR014
Spot 1     0.00310500     0.00034500
Spot 2     0.00310500     0.00034500
Spot 1     0.00310500     0.00034500
Spot 2     0.00310500     0.00034500
Spot 1     0.00310500     0.00034500
Spot 2     0.00310500     0.00034500
Spot 1     0.00310500     0.00034500
Spot 2     0.00310500     0.00034500
20MABNDM000020_20MABNDL000196
Spot 1     0.00197635     0.00117803
Spot 2     0.00230500     0.00010500
Spot 1     0.00197636     0.00117826
Spot 2     0.00230500     0.00010500
Spot 1     0.00197624     0.00117833
Spot 2     0.00230500     0.00010500
Spot 1     0.00197641     0.00117838
Spot 2     0.00230500     0.00010500
20MABNDM000020_PR035
Spot 1     0.00127199     0.00149312
Spot 2     0.00118771     0.00153198
Spot 1     0.00127168     0.00149346
Spot 2     0.00118752     0.00153182
Spot 1     0.00127188     0.00149343
Spot 2     0.00118754     0.00153195
Spot 1     0.00127193     0.00149318
Spot 2     0.00118763     0.00153201
20MABNDM000168_PR025
Spot 1     0.00100500     0.00023500
Spot 2     0.00100500     0.00023500
Spot 1     0.00114500     0.00017500
Spot 2     0.00114500     0.00017500
Spot 1     0.00066500     0.00010500
Spot 2     0.00035500     0.00010500
Spot 1     0.00164500     0.00003500
Spot 2     0.00066500     0.00010500
20MABNDM000168_PR026
Spot 1     0.00266752     0.00142878
Spot 2     0.00250620     0.00142546
Spot 1     0.00266726     0.00142838
Spot 2     0.00250625     0.00142494
Spot 1     0.00266726     0.00142836
Spot 2     0.00250625     0.00142483
Spot 1     0.00266736     0.00142815
Spot 2     0.00250592     0.00142483
20MABNDM000168_20MABNDL000077
Spot 1     0.00154076     0.00130120
Spot 2     0.00176047     0.00131512
Spot 1     0.00154088     0.00130158
Spot 2     0.00176073     0.00131563
Spot 1     0.00154103     0.00130128
Spot 2     0.00176084     0.00131503
Spot 1     0.00154121     0.00130098
Spot 2     0.00176075     0.00131451
20MABNDM000168_PR001
Spot 1     0.00080774     0.00162096
Spot 2     0.00070548     0.00162296
Spot 1     0.00080815     0.00162101
Spot 2     0.00070540     0.00162307
Spot 1     0.00080777     0.00162106
Spot 2     0.00070564     0.00162332
Spot 1     0.00080790     0.00162109
Spot 2     0.00070563     0.00162317
20MABNDL000196_PR036
Spot 1     0.00094619     0.00163969
Spot 2     0.00111049     0.00163882
Spot 1     0.00094613     0.00163985
Spot 2     0.00111071     0.00163924
Spot 1     0.00094600     0.00163966
Spot 2     0.00111053     0.00163837
Spot 1     0.00094606     0.00163984
Spot 2     0.00111082     0.00163935
20MABNDL000196_PR037
Spot 1     0.00246910     0.00116841
Spot 2     0.00262416     0.00116709
Spot 1     0.00246887     0.00116857
Spot 2     0.00262422     0.00116694
Spot 1     0.00246897     0.00116868
Spot 2     0.00262408     0.00116708
Spot 1     0.00246901     0.00116878
Spot 2     0.00262405     0.00116701
20MABNDL000196_20MABNDM000020
Spot 1     0.00192535     0.00104223
Spot 2     0.00170407     0.00104690
Spot 1     0.00192516     0.00104227
Spot 2     0.00170382     0.00104718
Spot 1     0.00192517     0.00104236
Spot 2     0.00170401     0.00104750
Spot 1     0.00192549     0.00104227
Spot 2     0.00170385     0.00104798
20MABNDL000196_PR012
Spot 1     0.00265117     0.00134217
Spot 2     0.00272311     0.00138695
Spot 1     0.00265110     0.00134254
Spot 2     0.00272316     0.00138711
Spot 1     0.00265115     0.00134255
Spot 2     0.00272317     0.00138710
Spot 1     0.00265151     0.00134238
Spot 2     0.00272316     0.00138721
20MABNDA000318_PR004
Spot 1     0.00214600     0.00162488
Spot 2     0.00192831     0.00162530
Spot 1     0.00214615     0.00162517
Spot 2     0.00192762     0.00162574
Spot 1     0.00214609     0.00162454
Spot 2     0.00192790     0.00162562
Spot 1     0.00214613     0.00162475
Spot 2     0.00192799     0.00162534
20MABNDA000334_PR005
Spot 1     0.00247274     0.00158489
Spot 2     0.00219200     0.00158540
Spot 1     0.00247273     0.00158478
Spot 2     0.00219220     0.00158567
Spot 1     0.00247274     0.00158484
Spot 2     0.00219209     0.00158560
Spot 1     0.00247289     0.00158490
Spot 2     0.00219225     0.00158552
20MABNDB000317_PR015
Spot 1     0.00148926     0.00159987
Spot 2     0.00170817     0.00159351
Spot 1     0.00148916     0.00159959
Spot 2     0.00170832     0.00159357
Spot 1     0.00148931     0.00159955
Spot 2     0.00170819     0.00159380
Spot 1     0.00148920     0.00159957
Spot 2     0.00170838     0.00159360
20MABNDB000146_PR016
Spot 1     0.00144899     0.00133078
Spot 2     0.00172458     0.00133482
Spot 1     0.00144893     0.00133084
Spot 2     0.00172446     0.00133476
Spot 1     0.00144915     0.00133076
Spot 2     0.00172453     0.00133470
Spot 1     0.00144894     0.00133084
Spot 2     0.00172477     0.00133471
20MABNDB000135_PR027
Spot 1     0.00189195     0.00091643
Spot 2     0.00211018     0.00091789
Spot 1     0.00189200     0.00091615
Spot 2     0.00211039     0.00091772
Spot 1     0.00189223     0.00091609
Spot 2     0.00211027     0.00091788
Spot 1     0.00189197     0.00091636
Spot 2     0.00211018     0.00091804
20MABNDB000126_PR028
Spot 1     0.00164560     0.00201013
Spot 2     0.00192777     0.00201203
Spot 1     0.00164566     0.00201016
Spot 2     0.00192771     0.00201214
Spot 1     0.00164554     0.00201008
Spot 2     0.00192780     0.00201208
Spot 1     0.00164570     0.00201011
Spot 2     0.00192764     0.00201199
20MABNDA000272_PR038
Spot 1     0.00192390     0.00095486
Spot 2     0.00170283     0.00095472
Spot 1     0.00192379     0.00095500
Spot 2     0.00170277     0.00095461
Spot 1     0.00192398     0.00095505
Spot 2     0.00170269     0.00095490
Spot 1     0.00192372     0.00095524
Spot 2     0.00170306     0.00095500
20MABNDA000003_PR039
Spot 1     0.00200135     0.00193145
Spot 2     0.00228004     0.00193191
Spot 1     0.00200137     0.00193111
Spot 2     0.00227964     0.00193196
Spot 1     0.00200147     0.00193127
Spot 2     0.00227971     0.00193191
Spot 1     0.00200139     0.00193125
Spot 2     0.00227983     0.00193213
20MABNDA000196_PR006
Spot 1     0.00198563     0.00074342
Spot 2     0.00161968     0.00074075
Spot 1     0.00198576     0.00074344
Spot 2     0.00161982     0.00074096
Spot 1     0.00198583     0.00074352
Spot 2     0.00161970     0.00074073
Spot 1     0.00198579     0.00074346
Spot 2     0.00161995     0.00074088
20MABNDA000324_PR007
Spot 1     0.00194729     0.00120363
Spot 2     0.00174215     0.00120947
Spot 1     0.00194730     0.00120372
Spot 2     0.00174204     0.00120958
Spot 1     0.00194722     0.00120371
Spot 2     0.00174193     0.00120914
Spot 1     0.00194733     0.00120386
Spot 2     0.00174188     0.00120935
20MABNDB000001_PR017
Spot 1     0.00188740     0.00043753
Spot 2     0.00225561     0.00044683
Spot 1     0.00188740     0.00043747
Spot 2     0.00225560     0.00044693
Spot 1     0.00188742     0.00043751
Spot 2     0.00225562     0.00044673
Spot 1     0.00188735     0.00043756
Spot 2     0.00225562     0.00044685
20MABNDB000260_PR019
Spot 1     0.00192234     0.00150521
Spot 2     0.00212589     0.00150536
Spot 1     0.00192202     0.00150463
Spot 2     0.00212591     0.00150555
Spot 1     0.00192189     0.00150448
Spot 2     0.00212557     0.00150500
Spot 1     0.00192237     0.00150484
Spot 2     0.00212627     0.00150518
20MABNDB000212_PR029
Spot 1     0.00223676     0.00069366
Spot 2     0.00187429     0.00069557
Spot 1     0.00223665     0.00069367
Spot 2     0.00187455     0.00069590
Spot 1     0.00223671     0.00069361
Spot 2     0.00187455     0.00069591
Spot 1     0.00223677     0.00069371
Spot 2     0.00187453     0.00069578
20MABNDB000128_PR030
Spot 1     0.00190031     0.00200221
Spot 2     0.00210515     0.00199721
Spot 1     0.00190033     0.00200209
Spot 2     0.00210505     0.00199723
Spot 1     0.00190029     0.00200211
Spot 2     0.00210536     0.00199701
Spot 1     0.00190033     0.00200209
Spot 2     0.00210520     0.00199696
20MABNDA000444_PR040
Spot 1     0.00075996     0.00035414
Spot 2     0.00112697     0.00035079
Spot 1     0.00075996     0.00035350
Spot 2     0.00112689     0.00035081
Spot 1     0.00076015     0.00035368
Spot 2     0.00112692     0.00035089
Spot 1     0.00075996     0.00035371
Spot 2     0.00112684     0.00035092
20MABNDA000053_PR041
Spot 1     0.00166269     0.00198429
Spot 2     0.00144624     0.00197781
Spot 1     0.00166254     0.00198495
Spot 2     0.00144595     0.00197848
Spot 1     0.00166292     0.00198448
Spot 2     0.00144651     0.00197819
Spot 1     0.00166259     0.00198432
Spot 2     0.00144624     0.00197852
20MABNDB000069_PR031
Spot 1     0.00021500     0.00240500
Spot 2     0.00021500     0.00240500
Spot 1     0.00021500     0.00240500
Spot 2     0.00021500     0.00240500
Spot 1     0.00021500     0.00240500
Spot 2     0.00021500     0.00240500
Spot 1     0.00021500     0.00240500
Spot 2     0.00021500     0.00240500
20MABNDB000069_PR033
Spot 1     0.00182210     0.00206617
Spot 2     0.00229214     0.00208597
Spot 1     0.00182207     0.00206606
Spot 2     0.00229203     0.00208592
Spot 1     0.00182237     0.00206620
Spot 2     0.00229205     0.00208604
Spot 1     0.00182213     0.00206622
Spot 2     0.00229218     0.00208606
20MABNDB000131_PR032
Spot 1     0.00277697     0.00107810
Spot 2     0.00283702     0.00108117
Spot 1     0.00277710     0.00107784
Spot 2     0.00283697     0.00108131
Spot 1     0.00277713     0.00107802
Spot 2     0.00283712     0.00108120
Spot 1     0.00277701     0.00107801
Spot 2     0.00283680     0.00108133
20MABNDB000131_PR034
Spot 1     0.00092400     0.00032536
Spot 2     0.00110037     0.00032465
Spot 1     0.00092407     0.00032530
Spot 2     0.00110055     0.00032486
Spot 1     0.00092394     0.00032527
Spot 2     0.00110044     0.00032463
Spot 1     0.00092392     0.00032533
Spot 2     0.00110045     0.00032482
20MABNDA000208_PR042
Spot 1     0.00305845     0.00095287
Spot 2     0.00299412     0.00095029
Spot 1     0.00305876     0.00095284
Spot 2     0.00299397     0.00095131
Spot 1     0.00305886     0.00095281
Spot 2     0.00299428     0.00095034
Spot 1     0.00305926     0.00095262
Spot 2     0.00299412     0.00095092
20MABNDA000208_PR046
Spot 1     0.00144826     0.00219931
Spot 2     0.00097549     0.00220001
Spot 1     0.00144825     0.00219936
Spot 2     0.00097540     0.00219995
Spot 1     0.00144831     0.00219932
Spot 2     0.00097535     0.00220008
Spot 1     0.00144822     0.00219928
Spot 2     0.00097527     0.00220015
20MABNDA000035_PR044
Spot 1     0.00073784     0.00125767
Spot 2     0.00068108     0.00125124
Spot 1     0.00073785     0.00125756
Spot 2     0.00068083     0.00125114
Spot 1     0.00073785     0.00125736
Spot 2     0.00068140     0.00125105
Spot 1     0.00073786     0.00125774
Spot 2     0.00068135     0.00125113
20MABNDA000035_PR045
Spot 1     0.00254571     0.00047297
Spot 2     0.00236796     0.00047242
Spot 1     0.00254598     0.00047298
Spot 2     0.00236812     0.00047241
Spot 1     0.00254583     0.00047323
Spot 2     0.00236816     0.00047241
Spot 1     0.00254587     0.00047297
Spot 2     0.00236813     0.00047249
20MABNDA000188_PR008
Spot 1     0.00289500     0.00025500
Spot 2     0.00289500     0.00025500
Spot 1     0.00289500     0.00025500
Spot 2     0.00289500     0.00025500
Spot 1     0.00289500     0.00025500
Spot 2     0.00289500     0.00025500
Spot 1     0.00289500     0.00025500
Spot 2     0.00289500     0.00025500
20MABNDA000188_PR018
Spot 1     0.00166916     0.00176430
Spot 2     0.00120174     0.00176120
Spot 1     0.00166906     0.00176435
Spot 2     0.00120161     0.00176118
Spot 1     0.00166931     0.00176441
Spot 2     0.00120183     0.00176124
Spot 1     0.00166920     0.00176431
Spot 2     0.00120176     0.00176127
20MABNDA000039_PR009
Spot 1     0.00066391     0.00117692
Spot 2     0.00061783     0.00118129
Spot 1     0.00066416     0.00117717
Spot 2     0.00061756     0.00118144
Spot 1     0.00066426     0.00117670
Spot 2     0.00061763     0.00118153
Spot 1     0.00066425     0.00117680
Spot 2     0.00061758     0.00118149
20MABNDA000039_PR011
Spot 1     0.00276822     0.00028190
Spot 2     0.00259289     0.00027720
Spot 1     0.00276828     0.00028193
Spot 2     0.00259291     0.00027723
Spot 1     0.00276821     0.00028200
Spot 2     0.00259278     0.00027731
Spot 1     0.00276835     0.00028203
Spot 2     0.00259271     0.00027738
20MABNDB000155_PR020
Spot 1     0.00062007     0.00113090
Spot 2     0.00068505     0.00112652
Spot 1     0.00062007     0.00113124
Spot 2     0.00068495     0.00112725
Spot 1     0.00062077     0.00113100
Spot 2     0.00068522     0.00112708
Spot 1     0.00062061     0.00113118
Spot 2     0.00068543     0.00112682
20MABNDB000155_PR022
Spot 1     0.00210923     0.00140087
Spot 2     0.00258217     0.00139617
Spot 1     0.00210928     0.00140082
Spot 2     0.00258233     0.00139625
Spot 1     0.00210910     0.00140080
Spot 2     0.00258207     0.00139624
Spot 1     0.00210926     0.00140074
Spot 2     0.00258237     0.00139631
20MABNDB000010_PR021
Spot 1     0.00287020     0.00115310
Spot 2     0.00292359     0.00115606
Spot 1     0.00287041     0.00115313
Spot 2     0.00292340     0.00115617
Spot 1     0.00287048     0.00115326
Spot 2     0.00292361     0.00115618
Spot 1     0.00287025     0.00115330
Spot 2     0.00292350     0.00115606
20MABNDB000010_PR023
Spot 1     0.00131267     0.00031352
Spot 2     0.00148780     0.00031196
Spot 1     0.00131264     0.00031358
Spot 2     0.00148788     0.00031204
Spot 1     0.00131263     0.00031393
Spot 2     0.00148781     0.00031195
Spot 1     0.00131280     0.00031342
Spot 2     0.00148774     0.00031189


****************************************************************coordonnees images transformees dans le repere MOUNT************************************************************************* 
20MABNDL000077_PR002
Spot 1     0.01228627     0.03556963    -0.07463200
Spot 2     0.01192151     0.03413986    -0.07463200
Spot 1     0.01228360     0.03557595    -0.07463200
Spot 2     0.01158509     0.03451311    -0.07463200
Spot 1     0.01228408     0.03557137    -0.07463200
Spot 2     0.01158509     0.03451311    -0.07463200
Spot 1     0.01228693     0.03553855    -0.07463200
Spot 2     0.01158509     0.03451311    -0.07463200
Spot 1     0.01228475     0.03556487    -0.07463200
Spot 2     0.01158509     0.03451311    -0.07463200
20MABNDL000077_PR003
Spot 1     0.01245773     0.03556418    -0.07463200
Spot 2     0.01260683     0.03555917    -0.07463200
Spot 1     0.01245697     0.03556447    -0.07463200
Spot 2     0.01260633     0.03555954    -0.07463200
Spot 1     0.01245664     0.03556502    -0.07463200
Spot 2     0.01260650     0.03555937    -0.07463200
Spot 1     0.01245667     0.03556491    -0.07463200
Spot 2     0.01260734     0.03555935    -0.07463200
Spot 1     0.01245628     0.03556518    -0.07463200
Spot 2     0.01260724     0.03555933    -0.07463200
20MABNDL000077_20MABNDM000168
Spot 1    -0.01259244     0.03524599    -0.00695400
Spot 2    -0.01387118     0.03436485    -0.00695400
Spot 1    -0.01259280     0.03524621    -0.00695400
Spot 2    -0.01387118     0.03436485    -0.00695400
Spot 1    -0.01259268     0.03524642    -0.00695400
Spot 2    -0.01387118     0.03436485    -0.00695400
Spot 1    -0.01259215     0.03524648    -0.00695400
Spot 2    -0.01387118     0.03436485    -0.00695400
Spot 1    -0.01259216     0.03524680    -0.00695400
Spot 2    -0.01387118     0.03436485    -0.00695400
20MABNDL000077_PR024
Spot 1    -0.01338094     0.03548837    -0.00695400
Spot 2    -0.01347892     0.03549857    -0.00695400
Spot 1    -0.01338091     0.03548855    -0.00695400
Spot 2    -0.01347884     0.03549897    -0.00695400
Spot 1    -0.01338065     0.03548875    -0.00695400
Spot 2    -0.01347900     0.03549897    -0.00695400
Spot 1    -0.01338081     0.03548859    -0.00695400
Spot 2    -0.01347922     0.03549904    -0.00695400
20MABNDM000020_PR013
Spot 1    -0.01373072    -0.03428548    -0.00523500
Spot 2    -0.01373072    -0.03428548    -0.00523500
Spot 1    -0.01278295    -0.03417449    -0.00523500
Spot 2    -0.01373072    -0.03428548    -0.00523500
Spot 1    -0.01278295    -0.03417449    -0.00523500
Spot 2    -0.01373072    -0.03428548    -0.00523500
Spot 1    -0.01278295    -0.03417449    -0.00523500
Spot 2    -0.01373072    -0.03428548    -0.00523500
20MABNDM000020_PR014
Spot 1    -0.01128044    -0.03427129    -0.00523500
Spot 2    -0.01128044    -0.03427129    -0.00523500
Spot 1    -0.01128044    -0.03427129    -0.00523500
Spot 2    -0.01128044    -0.03427129    -0.00523500
Spot 1    -0.01128044    -0.03427129    -0.00523500
Spot 2    -0.01128044    -0.03427129    -0.00523500
Spot 1    -0.01128044    -0.03427129    -0.00523500
Spot 2    -0.01128044    -0.03427129    -0.00523500
20MABNDM000020_20MABNDL000196
Spot 1     0.01270993    -0.03514659    -0.07583800
Spot 2     0.01238113    -0.03407361    -0.07583800
Spot 1     0.01270992    -0.03514682    -0.07583800
Spot 2     0.01238113    -0.03407361    -0.07583800
Spot 1     0.01271004    -0.03514689    -0.07583800
Spot 2     0.01238113    -0.03407361    -0.07583800
Spot 1     0.01270987    -0.03514694    -0.07583800
Spot 2     0.01238113    -0.03407361    -0.07583800
20MABNDM000020_PR035
Spot 1     0.01341433    -0.03546159    -0.07583800
Spot 2     0.01349862    -0.03550043    -0.07583800
Spot 1     0.01341464    -0.03546193    -0.07583800
Spot 2     0.01349881    -0.03550027    -0.07583800
Spot 1     0.01341444    -0.03546190    -0.07583800
Spot 2     0.01349879    -0.03550040    -0.07583800
Spot 1     0.01341439    -0.03546165    -0.07583800
Spot 2     0.01349870    -0.03550046    -0.07583800
20MABNDM000168_PR025
Spot 1    -0.01340245    -0.03457293    -0.00532900
Spot 2    -0.01340245    -0.03457293    -0.00532900
Spot 1    -0.01326271    -0.03451233    -0.00532900
Spot 2    -0.01326271    -0.03451233    -0.00532900
Spot 1    -0.01374300    -0.03444439    -0.00532900
Spot 2    -0.01405300    -0.03444572    -0.00532900
Spot 1    -0.01276331    -0.03437018    -0.00532900
Spot 2    -0.01374300    -0.03444439    -0.00532900
20MABNDM000168_PR026
Spot 1    -0.01173482    -0.03575956    -0.00532900
Spot 2    -0.01189615    -0.03575693    -0.00532900
Spot 1    -0.01173508    -0.03575916    -0.00532900
Spot 2    -0.01189610    -0.03575641    -0.00532900
Spot 1    -0.01173508    -0.03575914    -0.00532900
Spot 2    -0.01189610    -0.03575630    -0.00532900
Spot 1    -0.01173498    -0.03575893    -0.00532900
Spot 2    -0.01189643    -0.03575630    -0.00532900
20MABNDM000168_20MABNDL000077
Spot 1     0.01288468    -0.03530184    -0.07445100
Spot 2     0.01266479    -0.03531255    -0.07445100
Spot 1     0.01288456    -0.03530222    -0.07445100
Spot 2     0.01266453    -0.03531305    -0.07445100
Spot 1     0.01288441    -0.03530192    -0.07445100
Spot 2     0.01266443    -0.03531245    -0.07445100
Spot 1     0.01288424    -0.03530162    -0.07445100
Spot 2     0.01266452    -0.03531193    -0.07445100
20MABNDM000168_PR001
Spot 1     0.01361295    -0.03563229    -0.07445100
Spot 2     0.01371517    -0.03563579    -0.07445100
Spot 1     0.01361254    -0.03563234    -0.07445100
Spot 2     0.01371525    -0.03563590    -0.07445100
Spot 1     0.01361292    -0.03563239    -0.07445100
Spot 2     0.01371500    -0.03563615    -0.07445100
Spot 1     0.01361279    -0.03563242    -0.07445100
Spot 2     0.01371502    -0.03563600    -0.07445100
20MABNDL000196_PR036
Spot 1     0.01192611     0.03582839    -0.07483600
Spot 2     0.01209042     0.03582786    -0.07483600
Spot 1     0.01192605     0.03582855    -0.07483600
Spot 2     0.01209064     0.03582828    -0.07483600
Spot 1     0.01192592     0.03582836    -0.07483600
Spot 2     0.01209046     0.03582741    -0.07483600
Spot 1     0.01192598     0.03582854    -0.07483600
Spot 2     0.01209074     0.03582839    -0.07483600
20MABNDL000196_PR037
Spot 1     0.01345000     0.03536029    -0.07483600
Spot 2     0.01360507     0.03535929    -0.07483600
Spot 1     0.01344977     0.03536044    -0.07483600
Spot 2     0.01360513     0.03535914    -0.07483600
Spot 1     0.01344987     0.03536056    -0.07483600
Spot 2     0.01360499     0.03535928    -0.07483600
Spot 1     0.01344991     0.03536066    -0.07483600
Spot 2     0.01360496     0.03535921    -0.07483600
20MABNDL000196_20MABNDM000020
Spot 1    -0.01274941     0.03531344    -0.00611000
Spot 2    -0.01252827     0.03532256    -0.00611000
Spot 1    -0.01274923     0.03531349    -0.00611000
Spot 2    -0.01252803     0.03532285    -0.00611000
Spot 1    -0.01274924     0.03531358    -0.00611000
Spot 2    -0.01252823     0.03532317    -0.00611000
Spot 1    -0.01274956     0.03531348    -0.00611000
Spot 2    -0.01252808     0.03532365    -0.00611000
20MABNDL000196_PR012
Spot 1    -0.01348112     0.03559872    -0.00611000
Spot 2    -0.01355395     0.03564204    -0.00611000
Spot 1    -0.01348106     0.03559909    -0.00611000
Spot 2    -0.01355400     0.03564220    -0.00611000
Spot 1    -0.01348111     0.03559910    -0.00611000
Spot 2    -0.01355401     0.03564219    -0.00611000
Spot 1    -0.01348147     0.03559892    -0.00611000
Spot 2    -0.01355400     0.03564230    -0.00611000
20MABNDA000318_PR004
Spot 1    -0.01286582     0.01247035    -0.07310600
Spot 2    -0.01264813     0.01247057    -0.07310600
Spot 1    -0.01286597     0.01247006    -0.07310600
Spot 2    -0.01264744     0.01247013    -0.07310600
Spot 1    -0.01286591     0.01247069    -0.07310600
Spot 2    -0.01264772     0.01247025    -0.07310600
Spot 1    -0.01286595     0.01247048    -0.07310600
Spot 2    -0.01264781     0.01247053    -0.07310600
20MABNDA000334_PR005
Spot 1    -0.01311585     0.01254350    -0.07324100
Spot 2    -0.01283511     0.01254273    -0.07324100
Spot 1    -0.01311584     0.01254361    -0.07324100
Spot 2    -0.01283531     0.01254246    -0.07324100
Spot 1    -0.01311585     0.01254355    -0.07324100
Spot 2    -0.01283520     0.01254253    -0.07324100
Spot 1    -0.01311600     0.01254349    -0.07324100
Spot 2    -0.01283536     0.01254261    -0.07324100
20MABNDB000317_PR015
Spot 1    -0.01266503    -0.01249816    -0.07326100
Spot 2    -0.01244606    -0.01250197    -0.07326100
Spot 1    -0.01266513    -0.01249844    -0.07326100
Spot 2    -0.01244591    -0.01250191    -0.07326100
Spot 1    -0.01266498    -0.01249848    -0.07326100
Spot 2    -0.01244604    -0.01250168    -0.07326100
Spot 1    -0.01266509    -0.01249846    -0.07326100
Spot 2    -0.01244585    -0.01250188    -0.07326100
20MABNDB000146_PR016
Spot 1    -0.01275937    -0.01246282    -0.07450500
Spot 2    -0.01248379    -0.01245817    -0.07450500
Spot 1    -0.01275943    -0.01246276    -0.07450500
Spot 2    -0.01248391    -0.01245823    -0.07450500
Spot 1    -0.01275921    -0.01246284    -0.07450500
Spot 2    -0.01248384    -0.01245829    -0.07450500
Spot 1    -0.01275942    -0.01246276    -0.07450500
Spot 2    -0.01248360    -0.01245828    -0.07450500
20MABNDB000135_PR027
Spot 1    -0.01251272    -0.01319660    -0.07464700
Spot 2    -0.01229448    -0.01319757    -0.07464700
Spot 1    -0.01251267    -0.01319688    -0.07464700
Spot 2    -0.01229428    -0.01319774    -0.07464700
Spot 1    -0.01251244    -0.01319694    -0.07464700
Spot 2    -0.01229439    -0.01319758    -0.07464700
Spot 1    -0.01251270    -0.01319667    -0.07464700
Spot 2    -0.01229448    -0.01319742    -0.07464700
20MABNDB000126_PR028
Spot 1    -0.01253394    -0.01217204    -0.07500400
Spot 2    -0.01225178    -0.01216863    -0.07500400
Spot 1    -0.01253388    -0.01217201    -0.07500400
Spot 2    -0.01225184    -0.01216852    -0.07500400
Spot 1    -0.01253400    -0.01217209    -0.07500400
Spot 2    -0.01225175    -0.01216858    -0.07500400
Spot 1    -0.01253384    -0.01217206    -0.07500400
Spot 2    -0.01225191    -0.01216867    -0.07500400
20MABNDA000272_PR038
Spot 1    -0.01275956     0.01315661    -0.07417900
Spot 2    -0.01253849     0.01315636    -0.07417900
Spot 1    -0.01275945     0.01315647    -0.07417900
Spot 2    -0.01253843     0.01315647    -0.07417900
Spot 1    -0.01275964     0.01315642    -0.07417900
Spot 2    -0.01253835     0.01315618    -0.07417900
Spot 1    -0.01275938     0.01315623    -0.07417900
Spot 2    -0.01253872     0.01315608    -0.07417900
20MABNDA000003_PR039
Spot 1    -0.01280245     0.01212082    -0.07373400
Spot 2    -0.01308114     0.01212107    -0.07373400
Spot 1    -0.01280247     0.01212116    -0.07373400
Spot 2    -0.01308074     0.01212101    -0.07373400
Spot 1    -0.01280257     0.01212100    -0.07373400
Spot 2    -0.01308081     0.01212106    -0.07373400
Spot 1    -0.01280249     0.01212102    -0.07373400
Spot 2    -0.01308093     0.01212084    -0.07373400
20MABNDA000196_PR006
Spot 1    -0.01294052     0.01323480    -0.07967100
Spot 2    -0.01257456     0.01323277    -0.07967100
Spot 1    -0.01294065     0.01323478    -0.07967100
Spot 2    -0.01257471     0.01323256    -0.07967100
Spot 1    -0.01294072     0.01323470    -0.07967100
Spot 2    -0.01257458     0.01323279    -0.07967100
Spot 1    -0.01294068     0.01323476    -0.07967100
Spot 2    -0.01257484     0.01323264    -0.07967100
20MABNDA000324_PR007
Spot 1    -0.01255307     0.01281795    -0.07446800
Spot 2    -0.01234789     0.01281371    -0.07446800
Spot 1    -0.01255308     0.01281786    -0.07446800
Spot 2    -0.01234778     0.01281360    -0.07446800
Spot 1    -0.01255300     0.01281787    -0.07446800
Spot 2    -0.01234767     0.01281404    -0.07446800
Spot 1    -0.01255311     0.01281772    -0.07446800
Spot 2    -0.01234762     0.01281383    -0.07446800
20MABNDB000001_PR017
Spot 1    -0.01230097    -0.01355200    -0.07418400
Spot 2    -0.01193269    -0.01354660    -0.07418400
Spot 1    -0.01230098    -0.01355206    -0.07418400
Spot 2    -0.01193270    -0.01354650    -0.07418400
Spot 1    -0.01230095    -0.01355202    -0.07418400
Spot 2    -0.01193268    -0.01354670    -0.07418400
Spot 1    -0.01230102    -0.01355197    -0.07418400
Spot 2    -0.01193268    -0.01354658    -0.07418400
20MABNDB000260_PR019
Spot 1    -0.01240905    -0.01239734    -0.07492700
Spot 2    -0.01220555    -0.01239301    -0.07492700
Spot 1    -0.01240936    -0.01239792    -0.07492700
Spot 2    -0.01220553    -0.01239282    -0.07492700
Spot 1    -0.01240949    -0.01239808    -0.07492700
Spot 2    -0.01220586    -0.01239338    -0.07492700
Spot 1    -0.01240901    -0.01239771    -0.07492700
Spot 2    -0.01220516    -0.01239319    -0.07492700
20MABNDB000212_PR029
Spot 1    -0.01185116    -0.01328764    -0.07390500
Spot 2    -0.01221359    -0.01328186    -0.07390500
Spot 1    -0.01185127    -0.01328763    -0.07390500
Spot 2    -0.01221333    -0.01328153    -0.07390500
Spot 1    -0.01185121    -0.01328769    -0.07390500
Spot 2    -0.01221333    -0.01328152    -0.07390500
Spot 1    -0.01185115    -0.01328759    -0.07390500
Spot 2    -0.01221335    -0.01328165    -0.07390500
20MABNDB000128_PR030
Spot 1    -0.01245482    -0.01221511    -0.07353400
Spot 2    -0.01224996    -0.01221940    -0.07353400
Spot 1    -0.01245480    -0.01221523    -0.07353400
Spot 2    -0.01225006    -0.01221938    -0.07353400
Spot 1    -0.01245484    -0.01221521    -0.07353400
Spot 2    -0.01224975    -0.01221960    -0.07353400
Spot 1    -0.01245480    -0.01221523    -0.07353400
Spot 2    -0.01224991    -0.01221965    -0.07353400
20MABNDA000444_PR040
Spot 1    -0.01169978     0.01367549    -0.07412000
Spot 2    -0.01206681     0.01367418    -0.07412000
Spot 1    -0.01169979     0.01367613    -0.07412000
Spot 2    -0.01206673     0.01367416    -0.07412000
Spot 1    -0.01169998     0.01367594    -0.07412000
Spot 2    -0.01206676     0.01367408    -0.07412000
Spot 1    -0.01169979     0.01367592    -0.07412000
Spot 2    -0.01206668     0.01367405    -0.07412000
20MABNDA000053_PR041
Spot 1    -0.01241923     0.01212636    -0.07430100
Spot 2    -0.01220269     0.01212861    -0.07430100
Spot 1    -0.01241909     0.01212570    -0.07430100
Spot 2    -0.01220242     0.01212793    -0.07430100
Spot 1    -0.01241946     0.01212617    -0.07430100
Spot 2    -0.01220297     0.01212824    -0.07430100
Spot 1    -0.01241913     0.01212633    -0.07430100
Spot 2    -0.01220271     0.01212790    -0.07430100
20MABNDB000069_PR031
Spot 1    -0.01361993    -0.01186066    -0.07388500
Spot 2    -0.01361993    -0.01186066    -0.07388500
Spot 1    -0.01361993    -0.01186066    -0.07388500
Spot 2    -0.01361993    -0.01186066    -0.07388500
Spot 1    -0.01361993    -0.01186066    -0.07388500
Spot 2    -0.01361993    -0.01186066    -0.07388500
Spot 1    -0.01361993    -0.01186066    -0.07388500
Spot 2    -0.01361993    -0.01186066    -0.07388500
20MABNDB000069_PR033
Spot 1    -0.01202818    -0.01226553    -0.07388500
Spot 2    -0.01155772    -0.01226514    -0.07388500
Spot 1    -0.01202821    -0.01226564    -0.07388500
Spot 2    -0.01155783    -0.01226519    -0.07388500
Spot 1    -0.01202791    -0.01226551    -0.07388500
Spot 2    -0.01155781    -0.01226507    -0.07388500
Spot 1    -0.01202815    -0.01226548    -0.07388500
Spot 2    -0.01155768    -0.01226505    -0.07388500
20MABNDB000131_PR032
Spot 1    -0.01144318    -0.01303665    -0.07533000
Spot 2    -0.01138315    -0.01303328    -0.07533000
Spot 1    -0.01144305    -0.01303691    -0.07533000
Spot 2    -0.01138320    -0.01303314    -0.07533000
Spot 1    -0.01144302    -0.01303673    -0.07533000
Spot 2    -0.01138305    -0.01303325    -0.07533000
Spot 1    -0.01144314    -0.01303674    -0.07533000
Spot 2    -0.01138337    -0.01303312    -0.07533000
20MABNDB000131_PR034
Spot 1    -0.01329234    -0.01379871    -0.07533000
Spot 2    -0.01311597    -0.01379854    -0.07533000
Spot 1    -0.01329227    -0.01379877    -0.07533000
Spot 2    -0.01311579    -0.01379832    -0.07533000
Spot 1    -0.01329240    -0.01379880    -0.07533000
Spot 2    -0.01311590    -0.01379856    -0.07533000
Spot 1    -0.01329242    -0.01379874    -0.07533000
Spot 2    -0.01311589    -0.01379837    -0.07533000
20MABNDA000208_PR042
Spot 1    -0.01392917     0.01304315    -0.07273700
Spot 2    -0.01386484     0.01304579    -0.07273700
Spot 1    -0.01392948     0.01304318    -0.07273700
Spot 2    -0.01386469     0.01304477    -0.07273700
Spot 1    -0.01392958     0.01304321    -0.07273700
Spot 2    -0.01386500     0.01304574    -0.07273700
Spot 1    -0.01392998     0.01304340    -0.07273700
Spot 2    -0.01386484     0.01304516    -0.07273700
20MABNDA000208_PR046
Spot 1    -0.01231789     0.01179812    -0.07273700
Spot 2    -0.01184512     0.01179784    -0.07273700
Spot 1    -0.01231788     0.01179807    -0.07273700
Spot 2    -0.01184503     0.01179790    -0.07273700
Spot 1    -0.01231794     0.01179811    -0.07273700
Spot 2    -0.01184498     0.01179777    -0.07273700
Spot 1    -0.01231785     0.01179815    -0.07273700
Spot 2    -0.01184490     0.01179770    -0.07273700
20MABNDA000035_PR044
Spot 1    -0.01157249     0.01299957    -0.07483200
Spot 2    -0.01151569     0.01300560    -0.07483200
Spot 1    -0.01157250     0.01299968    -0.07483200
Spot 2    -0.01151544     0.01300570    -0.07483200
Spot 1    -0.01157250     0.01299988    -0.07483200
Spot 2    -0.01151601     0.01300579    -0.07483200
Spot 1    -0.01157251     0.01299950    -0.07483200
Spot 2    -0.01151596     0.01300571    -0.07483200
20MABNDA000035_PR045
Spot 1    -0.01337473     0.01379711    -0.07483200
Spot 2    -0.01319699     0.01379640    -0.07483200
Spot 1    -0.01337500     0.01379711    -0.07483200
Spot 2    -0.01319715     0.01379641    -0.07483200
Spot 1    -0.01337486     0.01379686    -0.07483200
Spot 2    -0.01319719     0.01379641    -0.07483200
Spot 1    -0.01337489     0.01379712    -0.07483200
Spot 2    -0.01319716     0.01379633    -0.07483200
20MABNDA000188_PR008
Spot 1    -0.01391227     0.01380893    -0.07502000
Spot 2    -0.01391227     0.01380893    -0.07502000
Spot 1    -0.01391227     0.01380893    -0.07502000
Spot 2    -0.01391227     0.01380893    -0.07502000
Spot 1    -0.01391227     0.01380893    -0.07502000
Spot 2    -0.01391227     0.01380893    -0.07502000
Spot 1    -0.01391227     0.01380893    -0.07502000
Spot 2    -0.01391227     0.01380893    -0.07502000
20MABNDA000188_PR018
Spot 1    -0.01269940     0.01228919    -0.07502000
Spot 2    -0.01223197     0.01228829    -0.07502000
Spot 1    -0.01269930     0.01228914    -0.07502000
Spot 2    -0.01223184     0.01228831    -0.07502000
Spot 1    -0.01269955     0.01228908    -0.07502000
Spot 2    -0.01223206     0.01228825    -0.07502000
Spot 1    -0.01269944     0.01228918    -0.07502000
Spot 2    -0.01223199     0.01228822    -0.07502000
20MABNDA000039_PR009
Spot 1    -0.01162605     0.01306721    -0.07444800
Spot 2    -0.01157999     0.01306264    -0.07444800
Spot 1    -0.01162630     0.01306697    -0.07444800
Spot 2    -0.01157972     0.01306249    -0.07444800
Spot 1    -0.01162640     0.01306744    -0.07444800
Spot 2    -0.01157979     0.01306240    -0.07444800
Spot 1    -0.01162639     0.01306734    -0.07444800
Spot 2    -0.01157974     0.01306244    -0.07444800
20MABNDA000039_PR011
Spot 1    -0.01372646     0.01397133    -0.07444800
Spot 2    -0.01355112     0.01397527    -0.07444800
Spot 1    -0.01372652     0.01397130    -0.07444800
Spot 2    -0.01355114     0.01397524    -0.07444800
Spot 1    -0.01372645     0.01397123    -0.07444800
Spot 2    -0.01355101     0.01397516    -0.07444800
Spot 1    -0.01372659     0.01397120    -0.07444800
Spot 2    -0.01355094     0.01397509    -0.07444800
20MABNDB000155_PR020
Spot 1    -0.01364611    -0.01312647    -0.07501700
Spot 2    -0.01358107    -0.01312996    -0.07501700
Spot 1    -0.01364611    -0.01312613    -0.07501700
Spot 2    -0.01358118    -0.01312923    -0.07501700
Spot 1    -0.01364541    -0.01312636    -0.07501700
Spot 2    -0.01358091    -0.01312939    -0.07501700
Spot 1    -0.01364557    -0.01312618    -0.07501700
Spot 2    -0.01358070    -0.01312965    -0.07501700
20MABNDB000155_PR022
Spot 1    -0.01216078    -0.01283614    -0.07501700
Spot 2    -0.01168782    -0.01283436    -0.07501700
Spot 1    -0.01216073    -0.01283619    -0.07501700
Spot 2    -0.01168766    -0.01283428    -0.07501700
Spot 1    -0.01216091    -0.01283621    -0.07501700
Spot 2    -0.01168792    -0.01283429    -0.07501700
Spot 1    -0.01216075    -0.01283627    -0.07501700
Spot 2    -0.01168762    -0.01283422    -0.07501700
20MABNDB000010_PR021
Spot 1    -0.01158081    -0.01292539    -0.07358200
Spot 2    -0.01152748    -0.01292152    -0.07358200
Spot 1    -0.01158060    -0.01292535    -0.07358200
Spot 2    -0.01152767    -0.01292142    -0.07358200
Spot 1    -0.01158053    -0.01292522    -0.07358200
Spot 2    -0.01152746    -0.01292140    -0.07358200
Spot 1    -0.01158076    -0.01292519    -0.07358200
Spot 2    -0.01152757    -0.01292152    -0.07358200
20MABNDB000010_PR023
Spot 1    -0.01312389    -0.01379123    -0.07358200
Spot 2    -0.01294876    -0.01378982    -0.07358200
Spot 1    -0.01312392    -0.01379117    -0.07358200
Spot 2    -0.01294868    -0.01378974    -0.07358200
Spot 1    -0.01312394    -0.01379082    -0.07358200
Spot 2    -0.01294875    -0.01378983    -0.07358200
Spot 1    -0.01312376    -0.01379133    -0.07358200
Spot 2    -0.01294882    -0.01378989    -0.07358200


*****************************************************************coordonnees du prisme dans le repere MOUNT********************************************************************************** 
20MABNDL000077_PR002
    0.04174984     0.05684382     3.70694876
    0.05012527     0.04746787     3.70691442
    0.05011327     0.04758112     3.70691442
    0.05004299     0.04839177     3.70691204
    0.05009678     0.04774159     3.70691419
20MABNDL000077_PR003
    0.02098902     0.02120082     3.89601707
    0.02102208     0.02118363     3.89601660
    0.02102588     0.02117373     3.89601660
    0.02100333     0.02117732     3.89601660
    0.02101598     0.02117071     3.89601660
20MABNDL000077_20MABNDM000168
    0.02680387     0.06909978    -5.46851063
    0.02681695     0.06909196    -5.46851063
    0.02681233     0.06908433    -5.46851063
    0.02679321     0.06908233    -5.46851063
    0.02679369     0.06907078    -5.46851063
20MABNDL000077_PR024
    0.04538763     0.01807985    -5.89640427
    0.04538279     0.01805757    -5.89640427
    0.04537897     0.01804974    -5.89640427
    0.04539375     0.01805340    -5.89640427
20MABNDM000020_PR013
    0.04208881    -0.07792260    -3.80184770
    0.01857745    -0.08067892    -3.80208707
    0.01857745    -0.08067892    -3.80208707
    0.01857745    -0.08067892    -3.80208707
20MABNDM000020_PR014
   -0.09646920    -0.08948103    -4.74775267
   -0.09646920    -0.08948103    -4.74775267
   -0.09646920    -0.08948103    -4.74775267
   -0.09646920    -0.08948103    -4.74775267
20MABNDM000020_20MABNDL000196
    0.02682874    -0.07124594     5.39469719
    0.02682910    -0.07123770     5.39469719
    0.02682480    -0.07123519     5.39469719
    0.02683089    -0.07123341     5.39469719
20MABNDM000020_PR035
   -0.04230072    -0.00680078     5.80095577
   -0.04231999    -0.00679385     5.80095577
   -0.04231151    -0.00678999     5.80095577
   -0.04230612    -0.00679731     5.80095577
20MABNDM000168_PR025
    0.02288022    -0.07367942    -3.78843594
    0.01597064    -0.07667626    -3.78846455
    0.04737758    -0.07999779    -3.78805065
    0.01549766    -0.08186965    -3.78840733
20MABNDM000168_PR026
   -0.05785633    -0.01396100    -3.98429012
   -0.05785076    -0.01398492    -3.98429084
   -0.05785075    -0.01398830    -3.98429084
   -0.05784474    -0.01399374    -3.98429084
20MABNDM000168_20MABNDL000077
    0.01162886    -0.03835009     5.38884687
    0.01164298    -0.03831832     5.38884687
    0.01165184    -0.03835079     5.38884687
    0.01165464    -0.03838029     5.38884687
20MABNDM000168_PR001
   -0.05740623    -0.01319149     5.81470394
   -0.05739336    -0.01318547     5.81470490
   -0.05739861    -0.01317377     5.81470394
   -0.05739402    -0.01317848     5.81470394
20MABNDL000196_PR036
    0.05136437     0.00594522     3.68777180
    0.05136047     0.00593097     3.68777180
    0.05136802     0.00595701     3.68777180
    0.05135949     0.00592852     3.68777132
20MABNDL000196_PR037
   -0.02514570     0.02856753     3.88381290
   -0.02514131     0.02856728     3.88381290
   -0.02514026     0.02856082     3.88381290
   -0.02514051     0.02856004     3.88381290
20MABNDL000196_20MABNDM000020
   -0.01573545     0.03785964    -5.47473907
   -0.01575102     0.03784783    -5.47473907
   -0.01574354     0.03783325    -5.47473907
   -0.01573751     0.03781936    -5.47473907
20MABNDL000196_PR012
    0.05231511     0.01450350    -5.91537189
    0.05231474     0.01448289    -5.91537189
    0.05231707     0.01448294    -5.91537189
    0.05233063     0.01448555    -5.91537189
20MABNDA000318_PR004
   -0.00844740     0.03835773     2.74965906
   -0.00845735     0.03837110     2.74965906
   -0.00845327     0.03835735     2.74965954
   -0.00845088     0.03835608     2.74965954
20MABNDA000334_PR005
   -0.00428826     0.03166001     2.14977217
   -0.00428554     0.03166229     2.14977217
   -0.00428697     0.03166215     2.14977217
   -0.00428254     0.03166186     2.14977217
20MABNDB000317_PR015
   -0.01741474    -0.03399085     2.75129032
   -0.01741570    -0.03398686     2.75129032
   -0.01741602    -0.03399032     2.75129032
   -0.01741752    -0.03398706     2.75129032
20MABNDB000146_PR016
   -0.01356336    -0.03176866     2.15201283
   -0.01356077    -0.03176865     2.15201283
   -0.01356495    -0.03176665     2.15201283
   -0.01356538    -0.03176794     2.15201283
20MABNDB000135_PR027
   -0.02103888    -0.00986226     2.74937105
   -0.02104356    -0.00985395     2.74937105
   -0.02104560    -0.00985576     2.74937105
   -0.02103927    -0.00986372     2.74937105
20MABNDB000126_PR028
   -0.02036144    -0.03899404     2.14679480
   -0.02036143    -0.03899603     2.14679480
   -0.02036101    -0.03899403     2.14679480
   -0.02036102    -0.03899318     2.14679480
20MABNDA000272_PR038
   -0.01319184     0.01094752     2.74965882
   -0.01319496     0.01094807     2.74965882
   -0.01319293     0.01095430     2.74965882
   -0.01319091     0.01095961     2.74965882
20MABNDA000003_PR039
   -0.00590964     0.04138502     2.14891338
   -0.00591508     0.04138089     2.14891338
   -0.00591265     0.04138245     2.14891338
   -0.00591207     0.04138531     2.14891338
20MABNDA000196_PR006
   -0.01040694     0.01023843     1.64206433
   -0.01040395     0.01024090     1.64206433
   -0.01040452     0.01023927     1.64206433
   -0.01040222     0.01024023     1.64206433
20MABNDA000324_PR007
   -0.02526580     0.02751990     2.95549345
   -0.02526780     0.02752382     2.95549345
   -0.02527147     0.02751494     2.95549345
   -0.02527034     0.02752203     2.95549345
20MABNDB000001_PR017
   -0.02414706    -0.00281483     1.64035964
   -0.02414696    -0.00281527     1.64035964
   -0.02414738    -0.00281352     1.64035940
   -0.02414663    -0.00281538     1.64035964
20MABNDB000260_PR019
   -0.02435440    -0.03845569     2.95627403
   -0.02434865    -0.03844790     2.95627451
   -0.02433968    -0.03843393     2.95627451
   -0.02436270    -0.03844504     2.95627451
20MABNDB000212_PR029
   -0.02544668    -0.00832465     1.64223695
   -0.02544837    -0.00832836     1.64223695
   -0.02544902    -0.00832781     1.64223695
   -0.02544945    -0.00832747     1.64223695
20MABNDB000128_PR030
   -0.01928734    -0.04685225     2.95496249
   -0.01928577    -0.04685029     2.95496273
   -0.01929110    -0.04684637     2.95496273
   -0.01928874    -0.04684499     2.95496273
20MABNDA000444_PR040
   -0.02991703     0.00090881     1.64491177
   -0.02991782     0.00090201     1.64491177
   -0.02991545     0.00090489     1.64491177
   -0.02991841     0.00090551     1.64491177
20MABNDA000053_PR041
   -0.02643754     0.05074039     2.95450926
   -0.02644567     0.05076666     2.95450878
   -0.02642751     0.05075139     2.95450902
   -0.02643922     0.05075496     2.95450902
20MABNDB000069_PR031
    0.10999375    -0.16176865     9.20229721
    0.10999375    -0.16176865     9.20229721
    0.10999375    -0.16176865     9.20229721
    0.10999375    -0.16176865     9.20229721
20MABNDB000069_PR033
   -0.02678571    -0.02689756     1.28394127
   -0.02678445    -0.02689624     1.28394127
   -0.02678728    -0.02689835     1.28394127
   -0.02678635    -0.02689873     1.28394127
20MABNDB000131_PR032
   -0.18795344    -0.02982458    11.00642204
   -0.18795934    -0.02981584    11.00642204
   -0.18797246    -0.02982102    11.00642014
   -0.18794027    -0.02982963    11.00642204
20MABNDB000131_PR034
    0.01432803     0.01645136     3.43337917
    0.01432236     0.01644792     3.43337917
    0.01432779     0.01645387     3.43337917
    0.01432805     0.01644817     3.43337917
20MABNDA000208_PR042
    0.13253990     0.01448843     9.20144749
    0.13254966     0.01454921     9.20144749
    0.13257487     0.01448785     9.20144749
    0.13258959     0.01451180     9.20144749
20MABNDA000208_PR046
   -0.02348759     0.03457124     1.28208232
   -0.02348845     0.03457115     1.28208232
   -0.02348836     0.03457192     1.28208232
   -0.02348982     0.03457218     1.28208232
20MABNDA000035_PR044
   -0.18002030     0.02676994    11.00802231
   -0.18003795     0.02675470    11.00802040
   -0.17999643     0.02673320    11.00802231
   -0.17999911     0.02676686    11.00802231
20MABNDA000035_PR045
    0.01460365    -0.01887877     3.43483782
    0.01461346    -0.01887884     3.43483782
    0.01461100    -0.01887312     3.43483782
    0.01461120    -0.01887722     3.43483782
20MABNDA000188_PR008
    0.13650158    -0.07885031     9.20339394
    0.13650158    -0.07885031     9.20339394
    0.13650158    -0.07885031     9.20339394
    0.13650158    -0.07885031     9.20339394
20MABNDA000188_PR018
   -0.01665385     0.02629823     1.28357649
   -0.01665581     0.02629851     1.28357649
   -0.01665178     0.02629950     1.28357649
   -0.01665333     0.02629891     1.28357649
20MABNDA000039_PR009
   -0.17107317     0.02515496    11.00701714
   -0.17107449     0.02518421    11.00701714
   -0.17106219     0.02515637    11.00701714
   -0.17106655     0.02516078    11.00701714
20MABNDA000039_PR011
    0.03079020    -0.02454342     3.43347073
    0.03079203    -0.02454206     3.43347073
    0.03078749    -0.02453862     3.43347073
    0.03078909    -0.02453634     3.43347073
20MABNDB000155_PR020
    0.10210427    -0.00904686     9.20028305
    0.10211131    -0.00911246     9.20028305
    0.10205141    -0.00908810     9.20028305
    0.10204828    -0.00908323     9.20028305
20MABNDB000155_PR022
   -0.02554565    -0.01756396     1.28070879
   -0.02554744    -0.01756424     1.28070879
   -0.02554368    -0.01756393     1.28070879
   -0.02554761    -0.01756407     1.28070879
20MABNDB000010_PR021
   -0.17627040    -0.03374853    11.00694466
   -0.17627169    -0.03375884    11.00694466
   -0.17629209    -0.03376948    11.00694466
   -0.17626722    -0.03376318    11.00694561
20MABNDB000010_PR023
    0.00428913     0.02023440     3.43377209
    0.00428804     0.02023117     3.43377209
    0.00428997     0.02022524     3.43377209
    0.00428746     0.02023827     3.43377209


*****************************************************************coordonnees du prisme dans le repere ATLAS********************************************************************************** 
20MABNDL000077_PR002 0.00000000
    2.80019450    -3.70275593     6.48625422
    2.80957317    -3.69438338     6.48622084
    2.80945992    -3.69439530     6.48622084
    2.80864930    -3.69446540     6.48621941
    2.80929947    -3.69441175     6.48622084
20MABNDL000077_PR003 0.00000000
    2.83601642    -3.72376132     6.67526150
    2.83603358    -3.72372818     6.67526102
    2.83604360    -3.72372437     6.67526102
    2.83604002    -3.72374701     6.67526102
    2.83604646    -3.72373438     6.67526102
20MABNDL000077_20MABNDM000168 0.00000000
    2.77893400    -3.70637727    -2.68920016
    2.77894163    -3.70636439    -2.68920016
    2.77894926    -3.70636892    -2.68920016
    2.77895141    -3.70638800    -2.68920016
    2.77896285    -3.70638752    -2.68920016
20MABNDL000077_PR024 0.00000000
    2.82954001    -3.68728185    -3.11712050
    2.82956243    -3.68728685    -3.11712050
    2.82957006    -3.68729067    -3.11712050
    2.82956648    -3.68727589    -3.11712050
20MABNDM000020_PR013 0.00000000
   -2.77440095    -3.78159070     6.48564339
   -2.77163744    -3.75808024     6.48590040
   -2.77163744    -3.75808024     6.48590040
   -2.77163744    -3.75808024     6.48590040
20MABNDM000020_PR014 0.00000000
   -2.76261067    -3.64375567     7.43165112
   -2.76261067    -3.64375567     7.43165112
   -2.76261067    -3.64375567     7.43165112
   -2.76261067    -3.64375567     7.43165112
20MABNDM000020_20MABNDL000196 0.00000000
   -2.78291321    -3.75933433    -2.71088576
   -2.78292155    -3.75933456    -2.71088576
   -2.78292418    -3.75933027    -2.71088576
   -2.78292584    -3.75933647    -2.71088576
20MABNDM000020_PR035 0.00000000
   -2.84741855    -3.68987608    -3.11707878
   -2.84742546    -3.68985677    -3.11707854
   -2.84742951    -3.68986535    -3.11707854
   -2.84742212    -3.68987060    -3.11707878
20MABNDM000168_PR025 0.00000000
    2.77955604    -3.76819539    -6.47904968
    2.77656102    -3.76128507    -6.47908068
    2.77323127    -3.79269099    -6.47865486
    2.77136779    -3.76081061    -6.47902346
20MABNDM000168_PR026 0.00000000
    2.83928394    -3.68754745    -6.67493773
    2.83926010    -3.68755317    -6.67493820
    2.83925676    -3.68755317    -6.67493820
    2.83925128    -3.68755913    -6.67493820
20MABNDM000168_20MABNDL000077 0.00000000
    2.81544542    -3.75354099     2.69822621
    2.81547713    -3.75355530     2.69822621
    2.81544471    -3.75356412     2.69822621
    2.81541514    -3.75356674     2.69822621
20MABNDM000168_PR001 0.00000000
    2.84064817    -3.68435431     3.12405586
    2.84065413    -3.68436718     3.12405682
    2.84066582    -3.68436193     3.12405586
    2.84066105    -3.68436646     3.12405586
20MABNDL000196_PR036 0.00000000
   -2.84766221    -3.69291019    -6.47909546
   -2.84767652    -3.69291401    -6.47909546
   -2.84765053    -3.69290638    -6.47909546
   -2.84767890    -3.69291496    -6.47909498
20MABNDL000196_PR037 0.00000000
   -2.82500863    -3.76959205    -6.67506552
   -2.82500887    -3.76958752    -6.67506552
   -2.82501531    -3.76958656    -6.67506552
   -2.82501602    -3.76958680    -6.67506552
20MABNDL000196_20MABNDM000020 0.00000000
   -2.81551862    -3.75147223     2.68347335
   -2.81553054    -3.75148773     2.68347335
   -2.81554508    -3.75148034     2.68347335
   -2.81555891    -3.75147414     2.68347335
20MABNDL000196_PR012 0.00000000
   -2.83889699    -3.68302250     3.12404323
   -2.83891749    -3.68302298     3.12404323
   -2.83891749    -3.68302059     3.12404323
   -2.83891487    -3.68300700     3.12404323
20MABNDA000318_PR004 0.00000000
    2.61455584    -4.19698906     3.83364081
    2.61454582    -4.19698858     3.83362746
    2.61454988    -4.19698858     3.83364129
    2.61455226    -4.19698858     3.83364248
20MABNDA000334_PR005 0.00000000
    2.61671042    -4.19703102     5.89760065
    2.61671305    -4.19703102     5.89759874
    2.61671162    -4.19703102     5.89759874
    2.61671615    -4.19703102     5.89759922
20MABNDB000317_PR015 0.00000000
   -2.61119246    -4.19700527     3.83602452
   -2.61119151    -4.19700527     3.83602858
   -2.61119103    -4.19700527     3.83602524
   -2.61118960    -4.19700527     3.83602834
20MABNDB000146_PR016 0.00000000
   -2.61273193    -4.19702482     5.89858150
   -2.61273456    -4.19702482     5.89858150
   -2.61273026    -4.19702482     5.89858341
   -2.61272979    -4.19702482     5.89858246
20MABNDB000135_PR027 0.00000000
    2.60382438    -4.19700432    -3.82549858
    2.60381985    -4.19700432    -3.82550693
    2.60381770    -4.19700432    -3.82550502
    2.60382414    -4.19700432    -3.82549715
20MABNDB000126_PR028 0.00000000
    2.60555577    -4.19702148    -5.89322567
    2.60555577    -4.19702148    -5.89322376
    2.60555625    -4.19702148    -5.89322567
    2.60555625    -4.19702148    -5.89322662
20MABNDA000272_PR038 0.00000000
   -2.61134505    -4.19698286    -3.82753682
   -2.61134195    -4.19698286    -3.82753634
   -2.61134386    -4.19698286    -3.82753015
   -2.61134601    -4.19698286    -3.82752466
20MABNDA000003_PR039 0.00000000
   -2.61582160    -4.19702291    -5.89138174
   -2.61581612    -4.19702291    -5.89138556
   -2.61581850    -4.19702291    -5.89138412
   -2.61581898    -4.19702291    -5.89138126
20MABNDA000196_PR006 0.00000000
    2.58486748    -4.19496393     6.54819489
    2.58486438    -4.19496393     6.54819727
    2.58486509    -4.19496393     6.54819584
    2.58486271    -4.19496393     6.54819679
20MABNDA000324_PR007 0.00000000
    2.59404898    -4.13996458     6.94839525
    2.59404707    -4.13996458     6.94839144
    2.59404325    -4.13996458     6.94840002
    2.59404445    -4.13996458     6.94839287
20MABNDB000001_PR017 0.00000000
   -2.59784842    -4.19505835     6.53814316
   -2.59784818    -4.19505835     6.53814316
   -2.59784865    -4.19505882     6.53814173
   -2.59784794    -4.19505835     6.53814363
20MABNDB000260_PR019 0.00000000
   -2.60440755    -4.13996029     6.94218826
   -2.60441327    -4.13995981     6.94219589
   -2.60442209    -4.13995981     6.94221020
   -2.60439920    -4.13995981     6.94219875
20MABNDB000212_PR029 0.00000000
    2.59912443    -4.19501162    -6.54731226
    2.59912610    -4.19501162    -6.54731607
    2.59912682    -4.19501162    -6.54731560
    2.59912729    -4.19501162    -6.54731512
20MABNDB000128_PR030 0.00000000
    2.60957146    -4.14002752    -6.93126869
    2.60957289    -4.14002705    -6.93127060
    2.60956764    -4.14002705    -6.93127489
    2.60957003    -4.14002705    -6.93127632
20MABNDA000444_PR040 0.00000000
   -2.60508966    -4.19509745    -6.54008913
   -2.60509038    -4.19509745    -6.54008245
   -2.60508800    -4.19509745    -6.54008532
   -2.60509086    -4.19509745    -6.54008579
20MABNDA000053_PR041 0.00000000
   -2.59410429    -4.14012241    -6.92717314
   -2.59409618    -4.14012289    -6.92714691
   -2.59411430    -4.14012241    -6.92716217
   -2.59410262    -4.14012241    -6.92715836
20MABNDB000069_PR031 0.00000000
    3.69177032     3.84800911    -7.77863359
    3.69177032     3.84800911    -7.77863359
    3.69177032     3.84800911    -7.77863359
    3.69177032     3.84800911    -7.77863359
20MABNDB000069_PR033 0.00000000
    3.53351378    -4.07046223    -7.87877369
    3.53351498    -4.07046223    -7.87877512
    3.53351212    -4.07046223    -7.87877321
    3.53351307    -4.07046223    -7.87877274
20MABNDB000131_PR032 0.00000000
    3.86875582     3.64757204   -12.94046688
    3.86876178     3.64757204   -12.94045830
    3.86877489     3.64757013   -12.94046402
    3.86874270     3.64757204   -12.94047260
20MABNDB000131_PR034 0.00000000
    3.67346120    -3.92563725   -12.89149570
    3.67346692    -3.92563725   -12.89149952
    3.67346144    -3.92563725   -12.89149380
    3.67346120    -3.92563725   -12.89149952
20MABNDA000208_PR042 0.00000000
   -3.68261790     3.84912753    -7.89699793
   -3.68262768     3.84912753    -7.89693737
   -3.68265295     3.84912753    -7.89699841
   -3.68266773     3.84912753    -7.89697456
20MABNDA000208_PR046 0.00000000
   -3.53227782    -4.07033968    -7.87394714
   -3.53227711    -4.07033968    -7.87394714
   -3.53227711    -4.07033968    -7.87394619
   -3.53227568    -4.07033968    -7.87394619
20MABNDA000035_PR044 0.00000000
   -3.86926126     3.64757752   -12.93244934
   -3.86927891     3.64757562   -12.93243408
   -3.86923742     3.64757752   -12.93241215
   -3.86924005     3.64757752   -12.93244553
20MABNDA000035_PR045 0.00000000
   -3.67612481    -3.92564940   -12.88750553
   -3.67611480    -3.92564940   -12.88750553
   -3.67611742    -3.92564940   -12.88751125
   -3.67611718    -3.92564940   -12.88750744
20MABNDA000188_PR008 0.00000000
    3.54951787     3.84898496     8.09023857
    3.54951787     3.84898496     8.09023857
    3.54951787     3.84898496     8.09023857
    3.54951787     3.84898496     8.09023857
20MABNDA000188_PR018 0.00000000
    3.52049041    -4.07060432     7.89714336
    3.52048850    -4.07060432     7.89714336
    3.52049255    -4.07060432     7.89714241
    3.52049088    -4.07060432     7.89714289
20MABNDA000039_PR009 0.00000000
    3.87524509     3.64747548    12.93644905
    3.87524652     3.64747548    12.93647861
    3.87523413     3.64747548    12.93645000
    3.87523866     3.64747548    12.93645477
20MABNDA000039_PR011 0.00000000
    3.66423392    -3.92580509    12.88429356
    3.66423202    -3.92580509    12.88429451
    3.66423655    -3.92580509    12.88429832
    3.66423512    -3.92580509    12.88430023
20MABNDB000155_PR020 0.00000000
   -3.68075657     3.84881616     7.89782047
   -3.68076348     3.84881616     7.89775467
   -3.68070364     3.84881616     7.89777899
   -3.68070054     3.84881616     7.89778376
20MABNDB000155_PR022 0.00000000
   -3.53443480    -4.07043648     7.89049530
   -3.53443313    -4.07043648     7.89049482
   -3.53443694    -4.07043648     7.89049530
   -3.53443289    -4.07043648     7.89049530
20MABNDB000010_PR021 0.00000000
   -3.86210752     3.64768219    12.93557835
   -3.86210895     3.64768219    12.93558884
   -3.86212921     3.64768219    12.93559933
   -3.86210442     3.64768314    12.93559265
20MABNDB000010_PR023 0.00000000
   -3.68537736    -3.92560458    12.88504124
   -3.68537831    -3.92560458    12.88504505
   -3.68537641    -3.92560458    12.88505077
   -3.68537903    -3.92560458    12.88503742


*****************************************************************Rapport********************************************************************************** 
CAM-LBA-US_EBA-US-HO-H         2017.08.01.09.59.09     2.80743527    -3.69608235     6.48622723     0.00363449     0.00333691     0.00001351 0.00000000 VRAI 
CAM-LBA-US_JDA-US-H            2017.08.01.09.59.09     2.83603601    -3.72373905     6.67526112     0.00001070     0.00001353     0.00000019 0.00000000 VRAI 
CAM-LBA-US_CAM-LBC-US          2017.08.01.09.59.09     2.77894783    -3.70637722    -2.68920016     0.00000970     0.00000955     0.00000000 0.00000000 VRAI 
CAM-LBA-US_EBC-US-IP-H         2017.08.01.09.59.09     2.82955974    -3.68728381    -3.11712050     0.00001171     0.00000554     0.00000000 0.00000000 VRAI 
CAM-LBA-USA_EBA-USA-HO-H       2017.08.01.09.59.09    -2.77232832    -3.76395786     6.48583615     0.00119663     0.01018033     0.00011129 0.00000000 VRAI 
CAM-LBA-USA_JDA-USA-H          2017.08.01.09.59.09    -2.76261067    -3.64375567     7.43165112     0.00000000     0.00000000     0.00000000 0.00000000 VRAI 
CAM-LBA-USA_CAM-LBC-USA        2017.08.01.09.59.09    -2.78292120    -3.75933391    -2.71088576     0.00000486     0.00000226     0.00000000 0.00000000 VRAI 
CAM-LBA-USA_EBC-USA-IP-H       2017.08.01.09.59.09    -2.84742391    -3.68986720    -3.11707866     0.00000405     0.00000712     0.00000012 0.00000000 VRAI 
CAM-LBC-US_EBC-US-HO-H         2017.08.01.09.59.09     2.77517903    -3.77074552    -6.47895217     0.00313797     0.01300298     0.00017284 0.00000000 VRAI 
CAM-LBC-US_JDC-US-H            2017.08.01.09.59.09     2.83926302    -3.68755323    -6.67493808     0.00001248     0.00000413     0.00000021 0.00000000 VRAI 
CAM-LBC-US_CAM-LBA-US          2017.08.01.09.59.09     2.81544560    -3.75355679     2.69822621     0.00002192     0.00001006     0.00000000 0.00000000 VRAI 
CAM-LBC-US_EBA-US-IP-H         2017.08.01.09.59.09     2.84065729    -3.68436247     3.12405610     0.00000671     0.00000513     0.00000041 0.00000000 VRAI 
CAM-LBC-USA_EBC-USA-HO-H       2017.08.01.09.59.09    -2.84766704    -3.69291139    -6.47909534     0.00001147     0.00000340     0.00000021 0.00000000 VRAI 
CAM-LBC-USA_JDC-USA-H          2017.08.01.09.59.09    -2.82501221    -3.76958823    -6.67506552     0.00000347     0.00000223     0.00000000 0.00000000 VRAI 
CAM-LBC-USA_CAM-LBA-USA        2017.08.01.09.59.09    -2.81553829    -3.75147861     2.68347335     0.00001515     0.00000606     0.00000000 0.00000000 VRAI 
CAM-LBC-USA_EBA-USA-IP-H       2017.08.01.09.59.09    -2.83891171    -3.68301827     3.12404323     0.00000857     0.00000656     0.00000000 0.00000000 VRAI 
CAM-EBA-US-IP_EBA-US-IP        2017.08.01.09.59.09     2.61455095    -4.19698870     3.83363801     0.00000364     0.00000021     0.00000612 0.00000000 VRAI 
CAM-EBA-US-HO_EBA-US-HO        2017.08.01.09.59.09     2.61671281    -4.19703102     5.89759934     0.00000214     0.00000000     0.00000078 0.00000000 VRAI 
CAM-EBA-USA-IP_EBA-USA-IP      2017.08.01.09.59.09    -2.61119115    -4.19700527     3.83602667     0.00000103     0.00000000     0.00000181 0.00000000 VRAI 
CAM-EBA-USA-HO_EBA-USA-HO      2017.08.01.09.59.09    -2.61273164    -4.19702482     5.89858222     0.00000186     0.00000000     0.00000079 0.00000000 VRAI 
CAM-EBC-US-IP_EBC-US-IP        2017.08.01.09.59.09     2.60382152    -4.19700432    -3.82550192     0.00000285     0.00000000     0.00000414 0.00000000 VRAI 
CAM-EBC-US-HO_EBC-US-HO        2017.08.01.09.59.09     2.60555601    -4.19702148    -5.89322543     0.00000024     0.00000000     0.00000104 0.00000000 VRAI 
CAM-EBC-USA-IP_EBC-USA-IP      2017.08.01.09.59.09    -2.61134422    -4.19698286    -3.82753199     0.00000151     0.00000000     0.00000499 0.00000000 VRAI 
CAM-EBC-USA-HO_EBC-USA-HO      2017.08.01.09.59.09    -2.61581880    -4.19702291    -5.89138317     0.00000195     0.00000000     0.00000175 0.00000000 VRAI 
CAM-JDA-US-IP_JDA-US-IP        2017.08.01.09.59.09     2.58486491    -4.19496393     6.54819620     0.00000171     0.00000000     0.00000092 0.00000000 VRAI 
CAM-JDA-US-HO_JDA-US-HO        2017.08.01.09.59.09     2.59404594    -4.13996458     6.94839489     0.00000223     0.00000000     0.00000326 0.00000000 VRAI 
CAM-JDA-USA-IP_JDA-USA-IP      2017.08.01.09.59.09    -2.59784830    -4.19505847     6.53814292     0.00000027     0.00000021     0.00000072 0.00000000 VRAI 
CAM-JDA-USA-HO_JDA-USA-HO      2017.08.01.09.59.09    -2.60441053    -4.13995993     6.94219828     0.00000834     0.00000021     0.00000788 0.00000000 VRAI 
CAM-JDC-US-IP_JDC-US-IP        2017.08.01.09.59.09     2.59912616    -4.19501162    -6.54731476     0.00000108     0.00000000     0.00000148 0.00000000 VRAI 
CAM-JDC-US-HO_JDC-US-HO        2017.08.01.09.59.09     2.60957050    -4.14002717    -6.93127263     0.00000194     0.00000021     0.00000310 0.00000000 VRAI 
CAM-JDC-USA-IP_JDC-USA-IP      2017.08.01.09.59.09    -2.60508972    -4.19509745    -6.54008567     0.00000108     0.00000000     0.00000237 0.00000000 VRAI 
CAM-JDC-USA-HO_JDC-USA-HO      2017.08.01.09.59.09    -2.59410435    -4.14012253    -6.92716014     0.00000650     0.00000021     0.00000937 0.00000000 VRAI 
CAM-ECTC-US-IP_ECTC-US-IP-T    2017.08.01.09.59.09     3.69177032     3.84800911    -7.77863359     0.00000000     0.00000000     0.00000000 0.00000000 VRAI 
CAM-ECTC-US-IP_ECTC-US-IP      2017.08.01.09.59.09     3.53351349    -4.07046223    -7.87877369     0.00000104     0.00000000     0.00000089 0.00000000 VRAI 
CAM-ECTC-US-HO_ECTC-US-HO-T    2017.08.01.09.59.09     3.86875880     3.64757156   -12.94046545     0.00001157     0.00000083     0.00000516 0.00000000 VRAI 
CAM-ECTC-US-HO_ECTC-US-HO      2017.08.01.09.59.09     3.67346269    -3.92563725   -12.89149714     0.00000245     0.00000000     0.00000248 0.00000000 VRAI 
CAM-ECTC-USA-IP_ECTC-USA-IP-T  2017.08.01.09.59.09    -3.68264157     3.84912753    -7.89697707     0.00001979     0.00000000     0.00002486 0.00000000 VRAI 
CAM-ECTC-USA-IP_ECTC-USA-IP    2017.08.01.09.59.09    -3.53227693    -4.07033968    -7.87394667     0.00000078     0.00000000     0.00000048 0.00000000 VRAI 
CAM-ECTC-USA-HO_ECTC-USA-HO-T  2017.08.01.09.59.09    -3.86925441     3.64757705   -12.93243527     0.00001690     0.00000083     0.00001448 0.00000000 VRAI 
CAM-ECTC-USA-HO_ECTC-USA-HO    2017.08.01.09.59.09    -3.67611855    -3.92564940   -12.88750744     0.00000376     0.00000000     0.00000234 0.00000000 VRAI 
CAM-ECTA-US-IP_ECTA-US-IP-T    2017.08.01.09.59.09     3.54951787     3.84898496     8.09023857     0.00000000     0.00000000     0.00000000 0.00000000 VRAI 
CAM-ECTA-US-IP_ECTA-US-IP      2017.08.01.09.59.09     3.52049059    -4.07060432     7.89714301     0.00000144     0.00000000     0.00000040 0.00000000 VRAI 
CAM-ECTA-US-HO_ECTA-US-HO-T    2017.08.01.09.59.09     3.87524110     3.64747548    12.93645811     0.00000500     0.00000000     0.00001203 0.00000000 VRAI 
CAM-ECTA-US-HO_ECTA-US-HO      2017.08.01.09.59.09     3.66423440    -3.92580509    12.88429666     0.00000166     0.00000000     0.00000273 0.00000000 VRAI 
CAM-ECTA-USA-IP_ECTA-USA-IP-T  2017.08.01.09.59.09    -3.68073106     3.84881616     7.89778447     0.00002909     0.00000000     0.00002353 0.00000000 VRAI 
CAM-ECTA-USA-IP_ECTA-USA-IP    2017.08.01.09.59.09    -3.53443444    -4.07043648     7.89049518     0.00000162     0.00000000     0.00000021 0.00000000 VRAI 
CAM-ECTA-USA-HO_ECTA-USA-HO-T  2017.08.01.09.59.09    -3.86211252     3.64768243    12.93558979     0.00000977     0.00000041     0.00000760 0.00000000 VRAI 
CAM-ECTA-USA-HO_ECTA-USA-HO    2017.08.01.09.59.09    -3.68537778    -3.92560458    12.88504362     0.00000099     0.00000000     0.00000493 0.00000000 VRAI 
