********** Fichier qui contient une sauvegarde des coordonnees images + coordonnees images transformees dans le repere BCAM (MOUNT) + coordonnees des prismes dans le repere MOUNT********** 
********************************************************************** Unite en metres (m)************************************************************************************************** 

*******************************************************************coordonnees images dans le repere CCD *********************************************************************************** 
20MABNDL000077_PR002
Spot 1     0.00121167     0.00150942
Spot 2     0.00086500     0.00006500
20MABNDL000077_PR003
Spot 1     0.00138641     0.00149364
Spot 2     0.00153555     0.00149431
20MABNDL000077_20MABNDM000168
Spot 1     0.00175805     0.00118476
Spot 2     0.00304500     0.00031500
20MABNDL000077_PR024
Spot 1     0.00254585     0.00143543
Spot 2     0.00264312     0.00144688
20MABNDM000020_PR013
Spot 1     0.00165740     0.00153350
Spot 2     0.00146977     0.00149695
20MABNDM000020_PR014
Spot 1     0.00265648     0.00168924
Spot 2     0.00249609     0.00169460
20MABNDM000020_20MABNDL000196
Spot 1     0.00197592     0.00117764
Spot 2     0.00230500     0.00010500
20MABNDM000020_PR035
Spot 1     0.00126274     0.00149749
Spot 2     0.00118430     0.00153083
20MABNDM000168_PR025
Spot 1     0.00117317     0.00130170
Spot 2     0.00102012     0.00130232
20MABNDM000168_PR026
Spot 1     0.00266447     0.00142883
Spot 2     0.00250365     0.00142538
20MABNDM000168_20MABNDL000077
Spot 1     0.00154139     0.00130050
Spot 2     0.00175988     0.00130938
20MABNDM000168_PR001
Spot 1     0.00080753     0.00162011
Spot 2     0.00070605     0.00162253
20MABNDL000196_PR036
Spot 1     0.00094893     0.00163792
Spot 2     0.00111225     0.00163693
20MABNDL000196_PR037
Spot 1     0.00246868     0.00116830
Spot 2     0.00262322     0.00116644
20MABNDL000196_20MABNDM000020
Spot 1     0.00192626     0.00104366
Spot 2     0.00170466     0.00104938
20MABNDL000196_PR012
Spot 1     0.00265347     0.00134507
Spot 2     0.00272452     0.00138912
20MABNDA000318_PR004
Spot 1     0.00214363     0.00162619
Spot 2     0.00192606     0.00162735
20MABNDA000334_PR005
Spot 1     0.00247215     0.00158751
Spot 2     0.00219192     0.00158831
20MABNDB000317_PR015
Spot 1     0.00149146     0.00159957
Spot 2     0.00171153     0.00159394
20MABNDB000146_PR016
Spot 1     0.00145117     0.00133219
Spot 2     0.00172661     0.00133363
20MABNDB000135_PR027
Spot 1     0.00189455     0.00091832
Spot 2     0.00211261     0.00092017
20MABNDB000126_PR028
Spot 1     0.00164776     0.00200849
Spot 2     0.00192901     0.00201022
20MABNDA000272_PR038
Spot 1     0.00192005     0.00095543
Spot 2     0.00169898     0.00095439
20MABNDA000003_PR039
Spot 1     0.00199953     0.00192928
Spot 2     0.00227697     0.00192955
20MABNDA000196_PR006
Spot 1     0.00199131     0.00074335
Spot 2     0.00162549     0.00074076
20MABNDA000324_PR007
Spot 1     0.00194409     0.00120632
Spot 2     0.00173917     0.00121173
20MABNDB000001_PR017
Spot 1     0.00188303     0.00043593
Spot 2     0.00225115     0.00044526
20MABNDB000260_PR019
Spot 1     0.00192569     0.00150957
Spot 2     0.00212919     0.00150907
20MABNDB000212_PR029
Spot 1     0.00222804     0.00069841
Spot 2     0.00186667     0.00069976
20MABNDB000128_PR030
Spot 1     0.00190380     0.00200536
Spot 2     0.00210793     0.00199986
20MABNDA000444_PR040
Spot 1     0.00075861     0.00035697
Spot 2     0.00112500     0.00035383
20MABNDA000053_PR041
Spot 1     0.00166188     0.00198767
Spot 2     0.00144581     0.00198142
20MABNDB000069_PR031
Spot 1     0.00030671     0.00138842
Spot 2     0.00036700     0.00137737
20MABNDB000069_PR033
Spot 1     0.00188540     0.00185946
Spot 2     0.00235427     0.00187894
20MABNDB000131_PR032
Spot 1     0.00277672     0.00110780
Spot 2     0.00283658     0.00111108
20MABNDB000131_PR034
Spot 1     0.00092639     0.00041312
Spot 2     0.00110221     0.00041226
20MABNDA000208_PR042
Spot 1     0.00302248     0.00092414
Spot 2     0.00295641     0.00092269


****************************************************************coordonnees images transformees dans le repere MOUNT************************************************************************* 
20MABNDL000077_PR002
Spot 1     0.01228207     0.03558088    -0.07463200
Spot 2     0.01192151     0.03413986    -0.07463200
20MABNDL000077_PR003
Spot 1     0.01245665     0.03556342    -0.07463200
Spot 2     0.01260579     0.03556265    -0.07463200
20MABNDL000077_20MABNDM000168
Spot 1    -0.01259320     0.03524774    -0.00695400
Spot 2    -0.01387118     0.03436485    -0.00695400
20MABNDL000077_PR024
Spot 1    -0.01338352     0.03549033    -0.00695400
Spot 2    -0.01348091     0.03550078    -0.00695400
20MABNDM000020_PR013
Spot 1    -0.01270140    -0.03549151    -0.00523500
Spot 2    -0.01288980    -0.03545912    -0.00523500
20MABNDM000020_PR014
Spot 1    -0.01169912    -0.03562512    -0.00523500
Spot 2    -0.01185936    -0.03563403    -0.00523500
20MABNDM000020_20MABNDL000196
Spot 1     0.01271036    -0.03514620    -0.07583800
Spot 2     0.01238113    -0.03407361    -0.07583800
20MABNDM000020_PR035
Spot 1     0.01342358    -0.03546595    -0.07583800
Spot 2     0.01350203    -0.03549928    -0.07583800
20MABNDM000168_PR025
Spot 1    -0.01322970    -0.03563890    -0.00532900
Spot 2    -0.01338274    -0.03564018    -0.00532900
20MABNDM000168_PR026
Spot 1    -0.01173787    -0.03575962    -0.00532900
Spot 2    -0.01189870    -0.03575686    -0.00532900
20MABNDM000168_20MABNDL000077
Spot 1     0.01288407    -0.03530113    -0.07445100
Spot 2     0.01266547    -0.03530682    -0.07445100
20MABNDM000168_PR001
Spot 1     0.01361317    -0.03563145    -0.07445100
Spot 2     0.01371460    -0.03563535    -0.07445100
20MABNDL000196_PR036
Spot 1     0.01192886     0.03582662    -0.07483600
Spot 2     0.01209218     0.03582597    -0.07483600
20MABNDL000196_PR037
Spot 1     0.01344958     0.03536017    -0.07483600
Spot 2     0.01360413     0.03535864    -0.07483600
20MABNDL000196_20MABNDM000020
Spot 1    -0.01275035     0.03531485    -0.00611000
Spot 2    -0.01252891     0.03532503    -0.00611000
20MABNDL000196_PR012
Spot 1    -0.01348348     0.03560157    -0.00611000
Spot 2    -0.01355540     0.03564418    -0.00611000
20MABNDA000318_PR004
Spot 1    -0.01286345     0.01246905    -0.07310600
Spot 2    -0.01264588     0.01246853    -0.07310600
20MABNDA000334_PR005
Spot 1    -0.01311526     0.01254088    -0.07324100
Spot 2    -0.01283503     0.01253982    -0.07324100
20MABNDB000317_PR015
Spot 1    -0.01266283    -0.01249843    -0.07326100
Spot 2    -0.01244271    -0.01250150    -0.07326100
20MABNDB000146_PR016
Spot 1    -0.01275719    -0.01246141    -0.07450500
Spot 2    -0.01248175    -0.01245936    -0.07450500
20MABNDB000135_PR027
Spot 1    -0.01251010    -0.01319474    -0.07464700
Spot 2    -0.01229203    -0.01319532    -0.07464700
20MABNDB000126_PR028
Spot 1    -0.01253177    -0.01217366    -0.07500400
Spot 2    -0.01225053    -0.01217043    -0.07500400
20MABNDA000272_PR038
Spot 1    -0.01275571     0.01315603    -0.07417900
Spot 2    -0.01253464     0.01315668    -0.07417900
20MABNDA000003_PR039
Spot 1    -0.01280062     0.01212298    -0.07373400
Spot 2    -0.01307806     0.01212342    -0.07373400
20MABNDA000196_PR006
Spot 1    -0.01294620     0.01323494    -0.07967100
Spot 2    -0.01258037     0.01323283    -0.07967100
20MABNDA000324_PR007
Spot 1    -0.01254985     0.01281528    -0.07446800
Spot 2    -0.01234489     0.01281147    -0.07446800
20MABNDB000001_PR017
Spot 1    -0.01230536    -0.01355355    -0.07418400
Spot 2    -0.01193716    -0.01354812    -0.07418400
20MABNDB000260_PR019
Spot 1    -0.01240579    -0.01239291    -0.07492700
Spot 2    -0.01220232    -0.01238924    -0.07492700
20MABNDB000212_PR029
Spot 1    -0.01185983    -0.01328280    -0.07390500
Spot 2    -0.01222117    -0.01327759    -0.07390500
20MABNDB000128_PR030
Spot 1    -0.01245134    -0.01221194    -0.07353400
Spot 2    -0.01224719    -0.01221674    -0.07353400
20MABNDA000444_PR040
Spot 1    -0.01169840     0.01367267    -0.07412000
Spot 2    -0.01206480     0.01367116    -0.07412000
20MABNDA000053_PR041
Spot 1    -0.01241848     0.01212296    -0.07430100
Spot 2    -0.01220233     0.01212499    -0.07430100
20MABNDB000069_PR031
Spot 1    -0.01357025    -0.01288016    -0.07388500
Spot 2    -0.01351046    -0.01289369    -0.07388500
20MABNDB000069_PR033
Spot 1    -0.01197346    -0.01247467    -0.07388500
Spot 2    -0.01150419    -0.01247456    -0.07388500
20MABNDB000131_PR032
Spot 1    -0.01144358    -0.01300696    -0.07533000
Spot 2    -0.01138374    -0.01300337    -0.07533000
20MABNDB000131_PR034
Spot 1    -0.01329039    -0.01371094    -0.07533000
Spot 2    -0.01311457    -0.01371092    -0.07533000
20MABNDA000208_PR042
Spot 1    -0.01389322     0.01307191    -0.07273700
Spot 2    -0.01382716     0.01307342    -0.07273700


*****************************************************************coordonnees du prisme dans le repere MOUNT********************************************************************************** 
20MABNDL000077_PR002
    0.04185363     0.05656591     3.70694923
20MABNDL000077_PR003
    0.02104441     0.02113019     3.89601660
20MABNDL000077_20MABNDM000168
    0.02683124     0.06903686    -5.46851063
20MABNDL000077_PR024
    0.04556548     0.01791755    -5.89640188
20MABNDM000020_PR013
   -0.00430827    -0.01888342    -3.80243897
20MABNDM000020_PR014
   -0.06544004    -0.00495318    -4.74841118
20MABNDM000020_20MABNDL000196
    0.02681334    -0.07125992     5.39469719
20MABNDM000020_PR035
   -0.04278842    -0.00667682     5.80095100
20MABNDM000168_PR025
    0.01812368    -0.02093793    -3.78863859
20MABNDM000168_PR026
   -0.05771058    -0.01396115    -3.98429179
20MABNDM000168_20MABNDL000077
    0.01162691    -0.03858144     5.38884687
20MABNDM000168_PR001
   -0.05739301    -0.01324130     5.81470490
20MABNDL000196_PR036
    0.05125373     0.00603482     3.68777370
20MABNDL000196_PR037
   -0.02511058     0.02858725     3.88381338
20MABNDL000196_20MABNDM000020
   -0.01567874     0.03772028    -5.47473907
20MABNDL000196_PR012
    0.05246320     0.01430941    -5.91536999
20MABNDA000318_PR004
   -0.00853234     0.03841912     2.74965906
20MABNDA000334_PR005
   -0.00429776     0.03173903     2.14977145
20MABNDB000317_PR015
   -0.01751593    -0.03399440     2.75129008
20MABNDB000146_PR016
   -0.01362389    -0.03177195     2.15201283
20MABNDB000135_PR027
   -0.02113196    -0.00993768     2.74937057
20MABNDB000126_PR028
   -0.02041016    -0.03894513     2.14679527
20MABNDA000272_PR038
   -0.01333293     0.01095217     2.74965882
20MABNDA000003_PR039
   -0.00597968     0.04132048     2.14891434
20MABNDA000196_PR006
   -0.01028144     0.01023616     1.64206421
20MABNDA000324_PR007
   -0.02538817     0.02761636     2.95549250
20MABNDB000001_PR017
   -0.02405020    -0.00278121     1.64035988
20MABNDB000260_PR019
   -0.02448206    -0.03861725     2.95627213
20MABNDB000212_PR029
   -0.02526858    -0.00842458     1.64223886
20MABNDB000128_PR030
   -0.01941019    -0.04696668     2.95496106
20MABNDA000444_PR040
   -0.02995421     0.00097264     1.64491200
20MABNDA000053_PR041
   -0.02645919     0.05087806     2.95450735
20MABNDB000069_PR031
    0.10025076    -0.03590776     9.20359516
20MABNDB000069_PR033
   -0.02771167    -0.02331839     1.28396440
20MABNDB000131_PR032
   -0.18788099    -0.03417973    11.00641537
20MABNDB000131_PR034
    0.01425201     0.01245419     3.43341184
20MABNDA000208_PR042
    0.12802176     0.01102709     9.20151806


*****************************************************************coordonnees du prisme dans le repere ATLAS********************************************************************************** 
20MABNDL000077_PR002 0.00000000
    2.80047250    -3.70265222     6.48625422
20MABNDL000077_PR003 0.00000000
    2.83608699    -3.72370601     6.67526102
20MABNDL000077_20MABNDM000168 0.00000000
    2.77899694    -3.70635009    -2.68920016
20MABNDL000077_PR024 0.00000000
    2.82970238    -3.68710423    -3.11711812
20MABNDM000020_PR013 0.00000000
   -2.83342576    -3.73517609     6.48628187
20MABNDM000020_PR014 0.00000000
   -2.84714794    -3.67475939     7.43230295
20MABNDM000020_20MABNDL000196 0.00000000
   -2.78289938    -3.75931883    -2.71088576
20MABNDM000020_PR035 0.00000000
   -2.84754252    -3.68938828    -3.11707354
20MABNDM000168_PR025 0.00000000
    2.83229876    -3.76345301    -6.47925758
20MABNDM000168_PR026 0.00000000
    2.83928394    -3.68769312    -6.67493916
20MABNDM000168_20MABNDL000077 0.00000000
    2.81521416    -3.75353909     2.69822621
20MABNDM000168_PR001 0.00000000
    2.84059834    -3.68436742     3.12405682
20MABNDL000196_PR036 0.00000000
   -2.84757257    -3.69302082    -6.47909737
20MABNDL000196_PR037 0.00000000
   -2.82498884    -3.76955676    -6.67506599
20MABNDL000196_20MABNDM000020 0.00000000
   -2.81565809    -3.75141549     2.68347335
20MABNDL000196_PR012 0.00000000
   -2.83909106    -3.68287468     3.12404132
20MABNDA000318_PR004 0.00000000
    2.61447096    -4.19698811     3.83357954
20MABNDA000334_PR005 0.00000000
    2.61670089    -4.19703150     5.89752197
20MABNDB000317_PR015 0.00000000
   -2.61109114    -4.19700527     3.83602095
20MABNDB000146_PR016 0.00000000
   -2.61267138    -4.19702482     5.89857817
20MABNDB000135_PR027 0.00000000
    2.60373139    -4.19700480    -3.82542324
20MABNDB000126_PR028 0.00000000
    2.60550714    -4.19702101    -5.89327478
20MABNDA000272_PR038 0.00000000
   -2.61120391    -4.19698286    -3.82753229
20MABNDA000003_PR039 0.00000000
   -2.61575150    -4.19702196    -5.89144611
20MABNDA000196_PR006 0.00000000
    2.58474183    -4.19496393     6.54819250
20MABNDA000324_PR007 0.00000000
    2.59392667    -4.13996553     6.94829893
20MABNDB000001_PR017 0.00000000
   -2.59775138    -4.19505835     6.53810930
20MABNDB000260_PR019 0.00000000
   -2.60427976    -4.13996172     6.94202662
20MABNDB000212_PR029 0.00000000
    2.59894633    -4.19500971    -6.54741240
20MABNDB000128_PR030 0.00000000
    2.60944843    -4.14002848    -6.93115425
20MABNDA000444_PR040 0.00000000
   -2.60512686    -4.19509745    -6.54015303
20MABNDA000053_PR041 0.00000000
   -2.59408283    -4.14012384    -6.92703533
20MABNDB000069_PR031 0.00000000
    3.68196607     3.84878254    -7.90449381
20MABNDB000069_PR033 0.00000000
    3.53258610    -4.07045221    -7.88235283
20MABNDB000131_PR032 0.00000000
    3.86868215     3.64756393   -12.94482231
20MABNDB000131_PR034 0.00000000
    3.67353606    -3.92560601   -12.89549351
20MABNDA000208_PR042 0.00000000
   -3.67809796     3.84919357    -7.90045691


*****************************************************************Rapport********************************************************************************** 
CAM-LBA-US_EBA-US-HO-H         2017.05.07.13.48.56     2.80047250    -3.70265222     6.48625422     0.00000000     0.00000000     0.00000000 0.00000000 VRAI 
CAM-LBA-US_JDA-US-H            2017.05.07.13.48.56     2.83608699    -3.72370601     6.67526102     0.00000000     0.00000000     0.00000000 0.00000000 VRAI 
CAM-LBA-US_CAM-LBC-US          2017.05.07.13.48.56     2.77899694    -3.70635009    -2.68920016     0.00000000     0.00000000     0.00000000 0.00000000 VRAI 
CAM-LBA-US_EBC-US-IP-H         2017.05.07.13.48.56     2.82970238    -3.68710423    -3.11711812     0.00000000     0.00000000     0.00000000 0.00000000 VRAI 
CAM-LBA-USA_EBA-USA-HO-H       2017.05.07.13.48.56    -2.83342576    -3.73517609     6.48628187     0.00000000     0.00000000     0.00000000 0.00000000 VRAI 
CAM-LBA-USA_JDA-USA-H          2017.05.07.13.48.56    -2.84714794    -3.67475939     7.43230295     0.00000000     0.00000000     0.00000000 0.00000000 VRAI 
CAM-LBA-USA_CAM-LBC-USA        2017.05.07.13.48.56    -2.78289938    -3.75931883    -2.71088576     0.00000000     0.00000000     0.00000000 0.00000000 VRAI 
CAM-LBA-USA_EBC-USA-IP-H       2017.05.07.13.48.56    -2.84754252    -3.68938828    -3.11707354     0.00000000     0.00000000     0.00000000 0.00000000 VRAI 
CAM-LBC-US_EBC-US-HO-H         2017.05.07.13.48.56     2.83229876    -3.76345301    -6.47925758     0.00000000     0.00000000     0.00000000 0.00000000 VRAI 
CAM-LBC-US_JDC-US-H            2017.05.07.13.48.56     2.83928394    -3.68769312    -6.67493916     0.00000000     0.00000000     0.00000000 0.00000000 VRAI 
CAM-LBC-US_CAM-LBA-US          2017.05.07.13.48.56     2.81521416    -3.75353909     2.69822621     0.00000000     0.00000000     0.00000000 0.00000000 VRAI 
CAM-LBC-US_EBA-US-IP-H         2017.05.07.13.48.56     2.84059834    -3.68436742     3.12405682     0.00000000     0.00000000     0.00000000 0.00000000 VRAI 
CAM-LBC-USA_EBC-USA-HO-H       2017.05.07.13.48.56    -2.84757257    -3.69302082    -6.47909737     0.00000000     0.00000000     0.00000000 0.00000000 VRAI 
CAM-LBC-USA_JDC-USA-H          2017.05.07.13.48.56    -2.82498884    -3.76955676    -6.67506599     0.00000000     0.00000000     0.00000000 0.00000000 VRAI 
CAM-LBC-USA_CAM-LBA-USA        2017.05.07.13.48.56    -2.81565809    -3.75141549     2.68347335     0.00000000     0.00000000     0.00000000 0.00000000 VRAI 
CAM-LBC-USA_EBA-USA-IP-H       2017.05.07.13.48.56    -2.83909106    -3.68287468     3.12404132     0.00000000     0.00000000     0.00000000 0.00000000 VRAI 
CAM-EBA-US-IP_EBA-US-IP        2017.05.07.13.48.56     2.61447096    -4.19698811     3.83357954     0.00000000     0.00000000     0.00000000 0.00000000 VRAI 
CAM-EBA-US-HO_EBA-US-HO        2017.05.07.13.48.56     2.61670089    -4.19703150     5.89752197     0.00000000     0.00000000     0.00000000 0.00000000 VRAI 
CAM-EBA-USA-IP_EBA-USA-IP      2017.05.07.13.48.56    -2.61109114    -4.19700527     3.83602095     0.00000000     0.00000000     0.00000000 0.00000000 VRAI 
CAM-EBA-USA-HO_EBA-USA-HO      2017.05.07.13.48.56    -2.61267138    -4.19702482     5.89857817     0.00000000     0.00000000     0.00000000 0.00000000 VRAI 
CAM-EBC-US-IP_EBC-US-IP        2017.05.07.13.48.56     2.60373139    -4.19700480    -3.82542324     0.00000000     0.00000000     0.00000000 0.00000000 VRAI 
CAM-EBC-US-HO_EBC-US-HO        2017.05.07.13.48.56     2.60550714    -4.19702101    -5.89327478     0.00000000     0.00000000     0.00000000 0.00000000 VRAI 
CAM-EBC-USA-IP_EBC-USA-IP      2017.05.07.13.48.56    -2.61120391    -4.19698286    -3.82753229     0.00000000     0.00000000     0.00000000 0.00000000 VRAI 
CAM-EBC-USA-HO_EBC-USA-HO      2017.05.07.13.48.56    -2.61575150    -4.19702196    -5.89144611     0.00000000     0.00000000     0.00000000 0.00000000 VRAI 
CAM-JDA-US-IP_JDA-US-IP        2017.05.07.13.48.56     2.58474183    -4.19496393     6.54819250     0.00000000     0.00000000     0.00000000 0.00000000 VRAI 
CAM-JDA-US-HO_JDA-US-HO        2017.05.07.13.48.56     2.59392667    -4.13996553     6.94829893     0.00000000     0.00000000     0.00000000 0.00000000 VRAI 
CAM-JDA-USA-IP_JDA-USA-IP      2017.05.07.13.48.56    -2.59775138    -4.19505835     6.53810930     0.00000000     0.00000000     0.00000000 0.00000000 VRAI 
CAM-JDA-USA-HO_JDA-USA-HO      2017.05.07.13.48.56    -2.60427976    -4.13996172     6.94202662     0.00000000     0.00000000     0.00000000 0.00000000 VRAI 
CAM-JDC-US-IP_JDC-US-IP        2017.05.07.13.48.56     2.59894633    -4.19500971    -6.54741240     0.00000000     0.00000000     0.00000000 0.00000000 VRAI 
CAM-JDC-US-HO_JDC-US-HO        2017.05.07.13.48.56     2.60944843    -4.14002848    -6.93115425     0.00000000     0.00000000     0.00000000 0.00000000 VRAI 
CAM-JDC-USA-IP_JDC-USA-IP      2017.05.07.13.48.56    -2.60512686    -4.19509745    -6.54015303     0.00000000     0.00000000     0.00000000 0.00000000 VRAI 
CAM-JDC-USA-HO_JDC-USA-HO      2017.05.07.13.48.56    -2.59408283    -4.14012384    -6.92703533     0.00000000     0.00000000     0.00000000 0.00000000 VRAI 
CAM-ECTC-US-IP_ECTC-US-IP-T    2017.05.07.13.48.56     3.68196607     3.84878254    -7.90449381     0.00000000     0.00000000     0.00000000 0.00000000 VRAI 
CAM-ECTC-US-IP_ECTC-US-IP      2017.05.07.13.48.56     3.53258610    -4.07045221    -7.88235283     0.00000000     0.00000000     0.00000000 0.00000000 VRAI 
CAM-ECTC-US-HO_ECTC-US-HO-T    2017.05.07.13.48.56     3.86868215     3.64756393   -12.94482231     0.00000000     0.00000000     0.00000000 0.00000000 VRAI 
CAM-ECTC-US-HO_ECTC-US-HO      2017.05.07.13.48.56     3.67353606    -3.92560601   -12.89549351     0.00000000     0.00000000     0.00000000 0.00000000 VRAI 
CAM-ECTC-USA-IP_ECTC-USA-IP-T  2017.05.07.13.48.56    -3.67809796     3.84919357    -7.90045691     0.00000000     0.00000000     0.00000000 0.00000000 VRAI 
