********** Fichier qui contient une sauvegarde des coordonnees images + coordonnees images transformees dans le repere BCAM (MOUNT) + coordonnees des prismes dans le repere MOUNT********** 
********************************************************************** Unite en metres (m)************************************************************************************************** 

*******************************************************************coordonnees images dans le repere CCD *********************************************************************************** 
20MABNDL000077_PR002
Spot 1     0.00121653     0.00150129
Spot 2     0.00032500     0.00012500
Spot 1     0.00121783     0.00150396
Spot 2     0.00032500     0.00012500
Spot 1     0.00121388     0.00150239
Spot 2     0.00032500     0.00012500
Spot 1     0.00121839     0.00149791
Spot 2     0.00032500     0.00012500
Spot 1     0.00121704     0.00149343
Spot 2     0.00032500     0.00012500
20MABNDL000077_PR003
Spot 1     0.00138726     0.00149423
Spot 2     0.00153655     0.00149051
Spot 1     0.00138677     0.00149482
Spot 2     0.00153640     0.00149075
Spot 1     0.00138676     0.00149508
Spot 2     0.00153639     0.00149088
Spot 1     0.00138632     0.00149496
Spot 2     0.00153685     0.00149094
Spot 1     0.00138627     0.00149504
Spot 2     0.00153651     0.00149098
20MABNDL000077_20MABNDM000168
Spot 1     0.00175714     0.00118339
Spot 2     0.00075500     0.00010500
Spot 1     0.00175686     0.00118374
Spot 2     0.00304500     0.00031500
Spot 1     0.00175683     0.00118400
Spot 2     0.00075500     0.00010500
Spot 1     0.00175684     0.00118411
Spot 2     0.00304500     0.00031500
Spot 1     0.00175669     0.00118436
Spot 2     0.00304500     0.00031500
20MABNDL000077_PR024
Spot 1     0.00254331     0.00143361
Spot 2     0.00264136     0.00144484
Spot 1     0.00254330     0.00143389
Spot 2     0.00264081     0.00144517
Spot 1     0.00254322     0.00143385
Spot 2     0.00264107     0.00144509
Spot 1     0.00254306     0.00143382
Spot 2     0.00264116     0.00144535
Spot 1     0.00254296     0.00143406
Spot 2     0.00264119     0.00144540
20MABNDM000020_PR013
Spot 1     0.00160500     0.00021500
Spot 2     0.00136500     0.00011500
Spot 1     0.00160500     0.00021500
Spot 2     0.00136500     0.00011500
Spot 1     0.00136500     0.00011500
Spot 2     0.00136500     0.00011500
Spot 1     0.00136500     0.00011500
Spot 2     0.00136500     0.00011500
20MABNDM000020_PR014
Spot 1     0.00310500     0.00034500
Spot 2     0.00310500     0.00034500
Spot 1     0.00310500     0.00034500
Spot 2     0.00310500     0.00034500
Spot 1     0.00310500     0.00034500
Spot 2     0.00310500     0.00034500
Spot 1     0.00310500     0.00034500
Spot 2     0.00310500     0.00034500
20MABNDM000020_20MABNDL000196
Spot 1     0.00197722     0.00117759
Spot 2     0.00230500     0.00010500
Spot 1     0.00197702     0.00117740
Spot 2     0.00230500     0.00010500
Spot 1     0.00197702     0.00117761
Spot 2     0.00230500     0.00010500
Spot 1     0.00197708     0.00117776
Spot 2     0.00230500     0.00010500
20MABNDM000020_PR035
Spot 1     0.00127240     0.00149474
Spot 2     0.00118810     0.00153126
Spot 1     0.00127246     0.00149440
Spot 2     0.00118804     0.00153129
Spot 1     0.00127252     0.00149461
Spot 2     0.00118817     0.00153130
Spot 1     0.00127077     0.00149489
Spot 2     0.00118799     0.00153125
20MABNDM000168_PR025
Spot 1     0.00149500     0.00017500
Spot 2     0.00149500     0.00017500
Spot 1     0.00149500     0.00017500
Spot 2     0.00149500     0.00017500
Spot 1     0.00149500     0.00017500
Spot 2     0.00140500     0.00124500
Spot 1     0.00149500     0.00017500
Spot 2     0.00149500     0.00017500
20MABNDM000168_PR026
Spot 1     0.00266774     0.00142777
Spot 2     0.00250598     0.00142408
Spot 1     0.00266758     0.00142790
Spot 2     0.00250589     0.00142411
Spot 1     0.00266765     0.00142778
Spot 2     0.00250591     0.00142402
Spot 1     0.00266749     0.00142785
Spot 2     0.00250617     0.00142426
20MABNDM000168_20MABNDL000077
Spot 1     0.00154105     0.00130070
Spot 2     0.00176091     0.00131491
Spot 1     0.00154142     0.00130093
Spot 2     0.00176105     0.00131527
Spot 1     0.00154135     0.00130099
Spot 2     0.00176122     0.00131479
Spot 1     0.00154142     0.00130065
Spot 2     0.00176117     0.00131443
20MABNDM000168_PR001
Spot 1     0.00080820     0.00162109
Spot 2     0.00070633     0.00162316
Spot 1     0.00080851     0.00162125
Spot 2     0.00070613     0.00162315
Spot 1     0.00080820     0.00162104
Spot 2     0.00070603     0.00162310
Spot 1     0.00080816     0.00162123
Spot 2     0.00070608     0.00162305
20MABNDL000196_PR036
Spot 1     0.00094614     0.00163979
Spot 2     0.00111041     0.00163868
Spot 1     0.00094609     0.00163985
Spot 2     0.00111057     0.00163859
Spot 1     0.00094603     0.00163996
Spot 2     0.00111066     0.00163883
Spot 1     0.00094598     0.00164005
Spot 2     0.00111087     0.00163921
20MABNDL000196_PR037
Spot 1     0.00246948     0.00116880
Spot 2     0.00262426     0.00116699
Spot 1     0.00246934     0.00116899
Spot 2     0.00262421     0.00116730
Spot 1     0.00246929     0.00116885
Spot 2     0.00262415     0.00116715
Spot 1     0.00246931     0.00116891
Spot 2     0.00262429     0.00116704
20MABNDL000196_20MABNDM000020
Spot 1     0.00192512     0.00104198
Spot 2     0.00170399     0.00104728
Spot 1     0.00192520     0.00104183
Spot 2     0.00170417     0.00104740
Spot 1     0.00192523     0.00104191
Spot 2     0.00170423     0.00104735
Spot 1     0.00192535     0.00104193
Spot 2     0.00170407     0.00104755
20MABNDL000196_PR012
Spot 1     0.00265035     0.00134192
Spot 2     0.00272386     0.00138707
Spot 1     0.00265041     0.00134179
Spot 2     0.00272401     0.00138738
Spot 1     0.00265058     0.00134200
Spot 2     0.00272411     0.00138771
Spot 1     0.00265068     0.00134208
Spot 2     0.00272403     0.00138736
20MABNDA000318_PR004
Spot 1     0.00214605     0.00162473
Spot 2     0.00192826     0.00162517
Spot 1     0.00214617     0.00162512
Spot 2     0.00192809     0.00162517
Spot 1     0.00214599     0.00162488
Spot 2     0.00192815     0.00162551
Spot 1     0.00214614     0.00162520
Spot 2     0.00192813     0.00162527
20MABNDA000334_PR005
Spot 1     0.00247269     0.00158474
Spot 2     0.00219212     0.00158539
Spot 1     0.00247260     0.00158470
Spot 2     0.00219224     0.00158526
Spot 1     0.00247267     0.00158468
Spot 2     0.00219201     0.00158519
Spot 1     0.00247263     0.00158480
Spot 2     0.00219220     0.00158525
20MABNDB000317_PR015
Spot 1     0.00148852     0.00159892
Spot 2     0.00170800     0.00159353
Spot 1     0.00148848     0.00159904
Spot 2     0.00170786     0.00159371
Spot 1     0.00148837     0.00159898
Spot 2     0.00170791     0.00159343
Spot 1     0.00170809     0.00159337
Spot 2     0.00148865     0.00159898
20MABNDB000146_PR016
Spot 1     0.00144878     0.00133122
Spot 2     0.00172406     0.00133371
Spot 1     0.00144905     0.00133108
Spot 2     0.00172402     0.00133368
Spot 1     0.00144890     0.00133110
Spot 2     0.00172434     0.00133374
Spot 1     0.00144909     0.00133102
Spot 2     0.00172419     0.00133367
20MABNDB000135_PR027
Spot 1     0.00189193     0.00091615
Spot 2     0.00211017     0.00091770
Spot 1     0.00189186     0.00091596
Spot 2     0.00211000     0.00091742
Spot 1     0.00189188     0.00091632
Spot 2     0.00211034     0.00091826
Spot 1     0.00189184     0.00091609
Spot 2     0.00211016     0.00091799
20MABNDB000126_PR028
Spot 1     0.00164547     0.00200991
Spot 2     0.00192760     0.00201198
Spot 1     0.00164539     0.00200988
Spot 2     0.00192764     0.00201193
Spot 1     0.00164542     0.00200982
Spot 2     0.00192759     0.00201176
Spot 1     0.00164540     0.00200986
Spot 2     0.00192753     0.00201203
20MABNDA000272_PR038
Spot 1     0.00192396     0.00095505
Spot 2     0.00170270     0.00095492
Spot 1     0.00192378     0.00095517
Spot 2     0.00170258     0.00095484
Spot 1     0.00192412     0.00095519
Spot 2     0.00170267     0.00095483
Spot 1     0.00192416     0.00095518
Spot 2     0.00170279     0.00095484
20MABNDA000003_PR039
Spot 1     0.00200167     0.00193104
Spot 2     0.00227984     0.00193211
Spot 1     0.00200156     0.00193110
Spot 2     0.00228008     0.00193202
Spot 1     0.00200144     0.00193129
Spot 2     0.00227972     0.00193193
Spot 1     0.00200160     0.00193131
Spot 2     0.00227968     0.00193169
20MABNDA000196_PR006
Spot 1     0.00198561     0.00074340
Spot 2     0.00161962     0.00074084
Spot 1     0.00198563     0.00074347
Spot 2     0.00161974     0.00074094
Spot 1     0.00198574     0.00074330
Spot 2     0.00161969     0.00074092
Spot 1     0.00198588     0.00074350
Spot 2     0.00161967     0.00074109
20MABNDA000324_PR007
Spot 1     0.00194743     0.00120390
Spot 2     0.00174189     0.00121000
Spot 1     0.00194746     0.00120386
Spot 2     0.00174205     0.00120975
Spot 1     0.00194737     0.00120381
Spot 2     0.00174202     0.00120968
Spot 1     0.00194719     0.00120388
Spot 2     0.00174180     0.00120984
20MABNDB000001_PR017
Spot 1     0.00188734     0.00043739
Spot 2     0.00225597     0.00044645
Spot 1     0.00188723     0.00043729
Spot 2     0.00225578     0.00044672
Spot 1     0.00188724     0.00043745
Spot 2     0.00225565     0.00044645
Spot 1     0.00188737     0.00043732
Spot 2     0.00225579     0.00044675
20MABNDB000260_PR019
Spot 1     0.00192247     0.00150538
Spot 2     0.00212574     0.00150537
Spot 1     0.00192281     0.00150553
Spot 2     0.00212635     0.00150500
Spot 1     0.00192258     0.00150527
Spot 2     0.00212577     0.00150558
Spot 1     0.00192269     0.00150548
Spot 2     0.00212598     0.00150520
20MABNDB000212_PR029
Spot 1     0.00223705     0.00069330
Spot 2     0.00187481     0.00069500
Spot 1     0.00223708     0.00069332
Spot 2     0.00187481     0.00069538
Spot 1     0.00223718     0.00069338
Spot 2     0.00187480     0.00069520
Spot 1     0.00223706     0.00069339
Spot 2     0.00187500     0.00069539
20MABNDB000128_PR030
Spot 1     0.00190035     0.00200222
Spot 2     0.00210490     0.00199685
Spot 1     0.00190022     0.00200243
Spot 2     0.00210485     0.00199682
Spot 1     0.00190020     0.00200231
Spot 2     0.00210480     0.00199701
Spot 1     0.00190022     0.00200237
Spot 2     0.00210495     0.00199678
20MABNDA000444_PR040
Spot 1     0.00075993     0.00035356
Spot 2     0.00112692     0.00035064
Spot 1     0.00075976     0.00035339
Spot 2     0.00112710     0.00035093
Spot 1     0.00076014     0.00035343
Spot 2     0.00112690     0.00035057
Spot 1     0.00075993     0.00035357
Spot 2     0.00112667     0.00035051
20MABNDA000053_PR041
Spot 1     0.00166298     0.00198467
Spot 2     0.00144631     0.00197852
Spot 1     0.00166320     0.00198427
Spot 2     0.00144651     0.00197829
Spot 1     0.00166308     0.00198415
Spot 2     0.00144620     0.00197810
Spot 1     0.00166314     0.00198434
Spot 2     0.00144643     0.00197833
20MABNDB000069_PR031
Spot 1     0.00021500     0.00240500
Spot 2     0.00021500     0.00240500
Spot 1     0.00021500     0.00240500
Spot 2     0.00021500     0.00240500
Spot 1     0.00021500     0.00240500
Spot 2     0.00021500     0.00240500
Spot 1     0.00021500     0.00240500
Spot 2     0.00021500     0.00240500
20MABNDB000069_PR033
Spot 1     0.00182112     0.00206776
Spot 2     0.00229132     0.00208747
Spot 1     0.00182129     0.00206781
Spot 2     0.00229127     0.00208737
Spot 1     0.00182123     0.00206764
Spot 2     0.00229127     0.00208749
Spot 1     0.00182128     0.00206781
Spot 2     0.00229128     0.00208730
20MABNDB000131_PR032
Spot 1     0.00277679     0.00107754
Spot 2     0.00283721     0.00108054
Spot 1     0.00277689     0.00107737
Spot 2     0.00283722     0.00108073
Spot 1     0.00277668     0.00107764
Spot 2     0.00283727     0.00108059
Spot 1     0.00277680     0.00107761
Spot 2     0.00283711     0.00108103
20MABNDB000131_PR034
Spot 1     0.00092387     0.00032359
Spot 2     0.00110063     0.00032397
Spot 1     0.00092380     0.00032359
Spot 2     0.00110050     0.00032374
Spot 1     0.00092377     0.00032342
Spot 2     0.00110046     0.00032389
Spot 1     0.00092411     0.00032364
Spot 2     0.00110072     0.00032383
20MABNDA000208_PR042
Spot 1     0.00305959     0.00095300
Spot 2     0.00299450     0.00095250
Spot 1     0.00305991     0.00095231
Spot 2     0.00299500     0.00095267
Spot 1     0.00305963     0.00095340
Spot 2     0.00299438     0.00095234
Spot 1     0.00305968     0.00095309
Spot 2     0.00299456     0.00095242
20MABNDA000208_PR046
Spot 1     0.00144862     0.00220168
Spot 2     0.00097551     0.00220209
Spot 1     0.00144851     0.00220176
Spot 2     0.00097535     0.00220209
Spot 1     0.00144839     0.00220190
Spot 2     0.00097534     0.00220188
Spot 1     0.00144853     0.00220180
Spot 2     0.00097549     0.00220210
20MABNDA000035_PR044
Spot 1     0.00073847     0.00125650
Spot 2     0.00068134     0.00125042
Spot 1     0.00073821     0.00125671
Spot 2     0.00068121     0.00125066
Spot 1     0.00073750     0.00125658
Spot 2     0.00068131     0.00125054
Spot 1     0.00073773     0.00125663
Spot 2     0.00068152     0.00125039
20MABNDA000035_PR045
Spot 1     0.00254577     0.00047158
Spot 2     0.00236820     0.00047105
Spot 1     0.00254576     0.00047173
Spot 2     0.00236775     0.00047141
Spot 1     0.00254594     0.00047170
Spot 2     0.00236794     0.00047131
Spot 1     0.00254587     0.00047171
Spot 2     0.00236809     0.00047128
20MABNDA000188_PR008
Spot 1     0.00289500     0.00025500
Spot 2     0.00289500     0.00025500
Spot 1     0.00289500     0.00025500
Spot 2     0.00289500     0.00025500
Spot 1     0.00327500     0.00045500
Spot 2     0.00289500     0.00025500
Spot 1     0.00289500     0.00025500
Spot 2     0.00289500     0.00025500
20MABNDA000188_PR018
Spot 1     0.00166956     0.00176472
Spot 2     0.00120237     0.00176151
Spot 1     0.00166953     0.00176489
Spot 2     0.00120236     0.00176161
Spot 1     0.00166966     0.00176478
Spot 2     0.00120231     0.00176157
Spot 1     0.00166953     0.00176478
Spot 2     0.00120243     0.00176151
20MABNDA000039_PR009
Spot 1     0.00066457     0.00117632
Spot 2     0.00061726     0.00118145
Spot 1     0.00066500     0.00117679
Spot 2     0.00061738     0.00118140
Spot 1     0.00066429     0.00117708
Spot 2     0.00061726     0.00118126
Spot 1     0.00066492     0.00117681
Spot 2     0.00061739     0.00118124
20MABNDA000039_PR011
Spot 1     0.00276836     0.00028156
Spot 2     0.00259288     0.00027684
Spot 1     0.00276843     0.00028165
Spot 2     0.00259277     0.00027713
Spot 1     0.00276845     0.00028163
Spot 2     0.00259270     0.00027702
Spot 1     0.00276851     0.00028178
Spot 2     0.00259278     0.00027698
20MABNDB000155_PR020
Spot 1     0.00062052     0.00113152
Spot 2     0.00068509     0.00112763
Spot 1     0.00062028     0.00113164
Spot 2     0.00068547     0.00112784
Spot 1     0.00062054     0.00113165
Spot 2     0.00068518     0.00112744
Spot 1     0.00062029     0.00113113
Spot 2     0.00068569     0.00112758
20MABNDB000155_PR022
Spot 1     0.00210981     0.00140219
Spot 2     0.00258267     0.00139772
Spot 1     0.00210978     0.00140234
Spot 2     0.00258269     0.00139783
Spot 1     0.00210964     0.00140237
Spot 2     0.00258269     0.00139771
Spot 1     0.00210983     0.00140229
Spot 2     0.00258267     0.00139769
20MABNDB000010_PR021
Spot 1     0.00287077     0.00115281
Spot 2     0.00292361     0.00115568
Spot 1     0.00287084     0.00115294
Spot 2     0.00292326     0.00115582
Spot 1     0.00287071     0.00115297
Spot 2     0.00292368     0.00115586
Spot 1     0.00287056     0.00115281
Spot 2     0.00292336     0.00115572
20MABNDB000010_PR023
Spot 1     0.00131275     0.00031319
Spot 2     0.00148785     0.00031130
Spot 1     0.00131278     0.00031305
Spot 2     0.00148787     0.00031124
Spot 1     0.00131277     0.00031325
Spot 2     0.00148787     0.00031151
Spot 1     0.00131268     0.00031321
Spot 2     0.00148773     0.00031156


****************************************************************coordonnees images transformees dans le repere MOUNT************************************************************************* 
20MABNDL000077_PR002
Spot 1     0.01228685     0.03557270    -0.07463200
Spot 2     0.01138211     0.03420505    -0.07463200
Spot 1     0.01228817     0.03557536    -0.07463200
Spot 2     0.01138211     0.03420505    -0.07463200
Spot 1     0.01228421     0.03557383    -0.07463200
Spot 2     0.01138211     0.03420505    -0.07463200
Spot 1     0.01228867     0.03556930    -0.07463200
Spot 2     0.01138211     0.03420505    -0.07463200
Spot 1     0.01228728     0.03556484    -0.07463200
Spot 2     0.01138211     0.03420505    -0.07463200
20MABNDL000077_PR003
Spot 1     0.01245750     0.03556400    -0.07463200
Spot 2     0.01260675     0.03555884    -0.07463200
Spot 1     0.01245702     0.03556459    -0.07463200
Spot 2     0.01260660     0.03555908    -0.07463200
Spot 1     0.01245701     0.03556485    -0.07463200
Spot 2     0.01260659     0.03555921    -0.07463200
Spot 1     0.01245657     0.03556474    -0.07463200
Spot 2     0.01260705     0.03555927    -0.07463200
Spot 1     0.01245652     0.03556482    -0.07463200
Spot 2     0.01260671     0.03555931    -0.07463200
20MABNDL000077_20MABNDM000168
Spot 1    -0.01259228     0.03524637    -0.00695400
Spot 2    -0.01157915     0.03417830    -0.00695400
Spot 1    -0.01259200     0.03524673    -0.00695400
Spot 2    -0.01387118     0.03436485    -0.00695400
Spot 1    -0.01259197     0.03524699    -0.00695400
Spot 2    -0.01157915     0.03417830    -0.00695400
Spot 1    -0.01259198     0.03524710    -0.00695400
Spot 2    -0.01387118     0.03436485    -0.00695400
Spot 1    -0.01259184     0.03524735    -0.00695400
Spot 2    -0.01387118     0.03436485    -0.00695400
20MABNDL000077_PR024
Spot 1    -0.01338097     0.03548853    -0.00695400
Spot 2    -0.01347912     0.03549876    -0.00695400
Spot 1    -0.01338096     0.03548881    -0.00695400
Spot 2    -0.01347858     0.03549910    -0.00695400
Spot 1    -0.01338088     0.03548878    -0.00695400
Spot 2    -0.01347884     0.03549901    -0.00695400
Spot 1    -0.01338072     0.03548875    -0.00695400
Spot 2    -0.01347893     0.03549927    -0.00695400
Spot 1    -0.01338062     0.03548899    -0.00695400
Spot 2    -0.01347896     0.03549932    -0.00695400
20MABNDM000020_PR013
Spot 1    -0.01278295    -0.03417449    -0.00523500
Spot 2    -0.01302510    -0.03407982    -0.00523500
Spot 1    -0.01278295    -0.03417449    -0.00523500
Spot 2    -0.01302510    -0.03407982    -0.00523500
Spot 1    -0.01302510    -0.03407982    -0.00523500
Spot 2    -0.01302510    -0.03407982    -0.00523500
Spot 1    -0.01302510    -0.03407982    -0.00523500
Spot 2    -0.01302510    -0.03407982    -0.00523500
20MABNDM000020_PR014
Spot 1    -0.01128044    -0.03427129    -0.00523500
Spot 2    -0.01128044    -0.03427129    -0.00523500
Spot 1    -0.01128044    -0.03427129    -0.00523500
Spot 2    -0.01128044    -0.03427129    -0.00523500
Spot 1    -0.01128044    -0.03427129    -0.00523500
Spot 2    -0.01128044    -0.03427129    -0.00523500
Spot 1    -0.01128044    -0.03427129    -0.00523500
Spot 2    -0.01128044    -0.03427129    -0.00523500
20MABNDM000020_20MABNDL000196
Spot 1     0.01270906    -0.03514615    -0.07583800
Spot 2     0.01238113    -0.03407361    -0.07583800
Spot 1     0.01270926    -0.03514596    -0.07583800
Spot 2     0.01238113    -0.03407361    -0.07583800
Spot 1     0.01270926    -0.03514617    -0.07583800
Spot 2     0.01238113    -0.03407361    -0.07583800
Spot 1     0.01270920    -0.03514632    -0.07583800
Spot 2     0.01238113    -0.03407361    -0.07583800
20MABNDM000020_PR035
Spot 1     0.01341392    -0.03546321    -0.07583800
Spot 2     0.01349823    -0.03549971    -0.07583800
Spot 1     0.01341386    -0.03546287    -0.07583800
Spot 2     0.01349829    -0.03549974    -0.07583800
Spot 1     0.01341380    -0.03546308    -0.07583800
Spot 2     0.01349816    -0.03549975    -0.07583800
Spot 1     0.01341555    -0.03546336    -0.07583800
Spot 2     0.01349834    -0.03549970    -0.07583800
20MABNDM000168_PR025
Spot 1    -0.01291271    -0.03451083    -0.00532900
Spot 2    -0.01291271    -0.03451083    -0.00532900
Spot 1    -0.01291271    -0.03451083    -0.00532900
Spot 2    -0.01291271    -0.03451083    -0.00532900
Spot 1    -0.01291271    -0.03451083    -0.00532900
Spot 2    -0.01299811    -0.03558120    -0.00532900
Spot 1    -0.01291271    -0.03451083    -0.00532900
Spot 2    -0.01291271    -0.03451083    -0.00532900
20MABNDM000168_PR026
Spot 1    -0.01173460    -0.03575855    -0.00532900
Spot 2    -0.01189638    -0.03575555    -0.00532900
Spot 1    -0.01173476    -0.03575868    -0.00532900
Spot 2    -0.01189647    -0.03575558    -0.00532900
Spot 1    -0.01173469    -0.03575856    -0.00532900
Spot 2    -0.01189645    -0.03575549    -0.00532900
Spot 1    -0.01173485    -0.03575863    -0.00532900
Spot 2    -0.01189618    -0.03575573    -0.00532900
20MABNDM000168_20MABNDL000077
Spot 1     0.01288440    -0.03530134    -0.07445100
Spot 2     0.01266436    -0.03531233    -0.07445100
Spot 1     0.01288403    -0.03530156    -0.07445100
Spot 2     0.01266421    -0.03531269    -0.07445100
Spot 1     0.01288410    -0.03530162    -0.07445100
Spot 2     0.01266405    -0.03531221    -0.07445100
Spot 1     0.01288403    -0.03530128    -0.07445100
Spot 2     0.01266410    -0.03531185    -0.07445100
20MABNDM000168_PR001
Spot 1     0.01361249    -0.03563242    -0.07445100
Spot 2     0.01371432    -0.03563598    -0.07445100
Spot 1     0.01361217    -0.03563257    -0.07445100
Spot 2     0.01371452    -0.03563597    -0.07445100
Spot 1     0.01361249    -0.03563237    -0.07445100
Spot 2     0.01371462    -0.03563592    -0.07445100
Spot 1     0.01361252    -0.03563256    -0.07445100
Spot 2     0.01371457    -0.03563587    -0.07445100
20MABNDL000196_PR036
Spot 1     0.01192606     0.03582849    -0.07483600
Spot 2     0.01209034     0.03582772    -0.07483600
Spot 1     0.01192601     0.03582855    -0.07483600
Spot 2     0.01209050     0.03582763    -0.07483600
Spot 1     0.01192595     0.03582866    -0.07483600
Spot 2     0.01209059     0.03582787    -0.07483600
Spot 1     0.01192590     0.03582875    -0.07483600
Spot 2     0.01209080     0.03582825    -0.07483600
20MABNDL000196_PR037
Spot 1     0.01345038     0.03536068    -0.07483600
Spot 2     0.01360517     0.03535919    -0.07483600
Spot 1     0.01345024     0.03536087    -0.07483600
Spot 2     0.01360512     0.03535950    -0.07483600
Spot 1     0.01345019     0.03536073    -0.07483600
Spot 2     0.01360506     0.03535935    -0.07483600
Spot 1     0.01345021     0.03536079    -0.07483600
Spot 2     0.01360520     0.03535924    -0.07483600
20MABNDL000196_20MABNDM000020
Spot 1    -0.01274918     0.03531320    -0.00611000
Spot 2    -0.01252820     0.03532295    -0.00611000
Spot 1    -0.01274926     0.03531305    -0.00611000
Spot 2    -0.01252838     0.03532306    -0.00611000
Spot 1    -0.01274929     0.03531313    -0.00611000
Spot 2    -0.01252844     0.03532301    -0.00611000
Spot 1    -0.01274941     0.03531314    -0.00611000
Spot 2    -0.01252829     0.03532321    -0.00611000
20MABNDL000196_PR012
Spot 1    -0.01348030     0.03559849    -0.00611000
Spot 2    -0.01355470     0.03564215    -0.00611000
Spot 1    -0.01348035     0.03559835    -0.00611000
Spot 2    -0.01355486     0.03564245    -0.00611000
Spot 1    -0.01348053     0.03559856    -0.00611000
Spot 2    -0.01355496     0.03564278    -0.00611000
Spot 1    -0.01348063     0.03559864    -0.00611000
Spot 2    -0.01355488     0.03564243    -0.00611000
20MABNDA000318_PR004
Spot 1    -0.01286587     0.01247050    -0.07310600
Spot 2    -0.01264808     0.01247070    -0.07310600
Spot 1    -0.01286599     0.01247011    -0.07310600
Spot 2    -0.01264791     0.01247070    -0.07310600
Spot 1    -0.01286581     0.01247035    -0.07310600
Spot 2    -0.01264797     0.01247036    -0.07310600
Spot 1    -0.01286596     0.01247003    -0.07310600
Spot 2    -0.01264795     0.01247060    -0.07310600
20MABNDA000334_PR005
Spot 1    -0.01311580     0.01254365    -0.07324100
Spot 2    -0.01283523     0.01254274    -0.07324100
Spot 1    -0.01311571     0.01254369    -0.07324100
Spot 2    -0.01283535     0.01254287    -0.07324100
Spot 1    -0.01311578     0.01254371    -0.07324100
Spot 2    -0.01283512     0.01254294    -0.07324100
Spot 1    -0.01311574     0.01254359    -0.07324100
Spot 2    -0.01283531     0.01254288    -0.07324100
20MABNDB000317_PR015
Spot 1    -0.01266576    -0.01249912    -0.07326100
Spot 2    -0.01244623    -0.01250195    -0.07326100
Spot 1    -0.01266580    -0.01249900    -0.07326100
Spot 2    -0.01244637    -0.01250177    -0.07326100
Spot 1    -0.01266591    -0.01249906    -0.07326100
Spot 2    -0.01244632    -0.01250205    -0.07326100
Spot 1    -0.01244614    -0.01250211    -0.07326100
Spot 2    -0.01266563    -0.01249906    -0.07326100
20MABNDB000146_PR016
Spot 1    -0.01275958    -0.01246238    -0.07450500
Spot 2    -0.01248430    -0.01245928    -0.07450500
Spot 1    -0.01275931    -0.01246252    -0.07450500
Spot 2    -0.01248434    -0.01245931    -0.07450500
Spot 1    -0.01275946    -0.01246250    -0.07450500
Spot 2    -0.01248402    -0.01245925    -0.07450500
Spot 1    -0.01275927    -0.01246258    -0.07450500
Spot 2    -0.01248417    -0.01245932    -0.07450500
20MABNDB000135_PR027
Spot 1    -0.01251274    -0.01319688    -0.07464700
Spot 2    -0.01229450    -0.01319776    -0.07464700
Spot 1    -0.01251281    -0.01319707    -0.07464700
Spot 2    -0.01229467    -0.01319804    -0.07464700
Spot 1    -0.01251279    -0.01319671    -0.07464700
Spot 2    -0.01229432    -0.01319720    -0.07464700
Spot 1    -0.01251283    -0.01319694    -0.07464700
Spot 2    -0.01229450    -0.01319747    -0.07464700
20MABNDB000126_PR028
Spot 1    -0.01253407    -0.01217226    -0.07500400
Spot 2    -0.01225195    -0.01216868    -0.07500400
Spot 1    -0.01253415    -0.01217229    -0.07500400
Spot 2    -0.01225191    -0.01216873    -0.07500400
Spot 1    -0.01253412    -0.01217235    -0.07500400
Spot 2    -0.01225196    -0.01216890    -0.07500400
Spot 1    -0.01253414    -0.01217231    -0.07500400
Spot 2    -0.01225202    -0.01216863    -0.07500400
20MABNDA000272_PR038
Spot 1    -0.01275962     0.01315642    -0.07417900
Spot 2    -0.01253836     0.01315616    -0.07417900
Spot 1    -0.01275944     0.01315630    -0.07417900
Spot 2    -0.01253824     0.01315624    -0.07417900
Spot 1    -0.01275978     0.01315628    -0.07417900
Spot 2    -0.01253833     0.01315625    -0.07417900
Spot 1    -0.01275982     0.01315629    -0.07417900
Spot 2    -0.01253845     0.01315624    -0.07417900
20MABNDA000003_PR039
Spot 1    -0.01280277     0.01212123    -0.07373400
Spot 2    -0.01308094     0.01212086    -0.07373400
Spot 1    -0.01280266     0.01212117    -0.07373400
Spot 2    -0.01308118     0.01212096    -0.07373400
Spot 1    -0.01280254     0.01212098    -0.07373400
Spot 2    -0.01308082     0.01212104    -0.07373400
Spot 1    -0.01280270     0.01212096    -0.07373400
Spot 2    -0.01308078     0.01212128    -0.07373400
20MABNDA000196_PR006
Spot 1    -0.01294050     0.01323482    -0.07967100
Spot 2    -0.01257451     0.01323268    -0.07967100
Spot 1    -0.01294052     0.01323475    -0.07967100
Spot 2    -0.01257463     0.01323258    -0.07967100
Spot 1    -0.01294063     0.01323492    -0.07967100
Spot 2    -0.01257458     0.01323260    -0.07967100
Spot 1    -0.01294077     0.01323472    -0.07967100
Spot 2    -0.01257456     0.01323243    -0.07967100
20MABNDA000324_PR007
Spot 1    -0.01255321     0.01281768    -0.07446800
Spot 2    -0.01234763     0.01281318    -0.07446800
Spot 1    -0.01255324     0.01281772    -0.07446800
Spot 2    -0.01234779     0.01281343    -0.07446800
Spot 1    -0.01255315     0.01281777    -0.07446800
Spot 2    -0.01234776     0.01281350    -0.07446800
Spot 1    -0.01255297     0.01281770    -0.07446800
Spot 2    -0.01234754     0.01281334    -0.07446800
20MABNDB000001_PR017
Spot 1    -0.01230104    -0.01355214    -0.07418400
Spot 2    -0.01193233    -0.01354698    -0.07418400
Spot 1    -0.01230115    -0.01355224    -0.07418400
Spot 2    -0.01193252    -0.01354671    -0.07418400
Spot 1    -0.01230114    -0.01355208    -0.07418400
Spot 2    -0.01193265    -0.01354698    -0.07418400
Spot 1    -0.01230101    -0.01355221    -0.07418400
Spot 2    -0.01193251    -0.01354668    -0.07418400
20MABNDB000260_PR019
Spot 1    -0.01240892    -0.01239717    -0.07492700
Spot 2    -0.01220570    -0.01239301    -0.07492700
Spot 1    -0.01240859    -0.01239701    -0.07492700
Spot 2    -0.01220508    -0.01239337    -0.07492700
Spot 1    -0.01240881    -0.01239727    -0.07492700
Spot 2    -0.01220567    -0.01239280    -0.07492700
Spot 1    -0.01240871    -0.01239706    -0.07492700
Spot 2    -0.01220545    -0.01239317    -0.07492700
20MABNDB000212_PR029
Spot 1    -0.01185088    -0.01328800    -0.07390500
Spot 2    -0.01221308    -0.01328244    -0.07390500
Spot 1    -0.01185085    -0.01328798    -0.07390500
Spot 2    -0.01221307    -0.01328206    -0.07390500
Spot 1    -0.01185075    -0.01328793    -0.07390500
Spot 2    -0.01221309    -0.01328224    -0.07390500
Spot 1    -0.01185087    -0.01328791    -0.07390500
Spot 2    -0.01221288    -0.01328205    -0.07390500
20MABNDB000128_PR030
Spot 1    -0.01245478    -0.01221510    -0.07353400
Spot 2    -0.01225021    -0.01221976    -0.07353400
Spot 1    -0.01245491    -0.01221489    -0.07353400
Spot 2    -0.01225026    -0.01221979    -0.07353400
Spot 1    -0.01245493    -0.01221501    -0.07353400
Spot 2    -0.01225031    -0.01221960    -0.07353400
Spot 1    -0.01245491    -0.01221495    -0.07353400
Spot 2    -0.01225016    -0.01221983    -0.07353400
20MABNDA000444_PR040
Spot 1    -0.01169976     0.01367607    -0.07412000
Spot 2    -0.01206676     0.01367433    -0.07412000
Spot 1    -0.01169959     0.01367624    -0.07412000
Spot 2    -0.01206694     0.01367404    -0.07412000
Spot 1    -0.01169997     0.01367619    -0.07412000
Spot 2    -0.01206674     0.01367440    -0.07412000
Spot 1    -0.01169976     0.01367606    -0.07412000
Spot 2    -0.01206651     0.01367446    -0.07412000
20MABNDA000053_PR041
Spot 1    -0.01241952     0.01212598    -0.07430100
Spot 2    -0.01220278     0.01212790    -0.07430100
Spot 1    -0.01241974     0.01212639    -0.07430100
Spot 2    -0.01220297     0.01212814    -0.07430100
Spot 1    -0.01241961     0.01212651    -0.07430100
Spot 2    -0.01220266     0.01212832    -0.07430100
Spot 1    -0.01241968     0.01212632    -0.07430100
Spot 2    -0.01220289     0.01212809    -0.07430100
20MABNDB000069_PR031
Spot 1    -0.01361993    -0.01186066    -0.07388500
Spot 2    -0.01361993    -0.01186066    -0.07388500
Spot 1    -0.01361993    -0.01186066    -0.07388500
Spot 2    -0.01361993    -0.01186066    -0.07388500
Spot 1    -0.01361993    -0.01186066    -0.07388500
Spot 2    -0.01361993    -0.01186066    -0.07388500
Spot 1    -0.01361993    -0.01186066    -0.07388500
Spot 2    -0.01361993    -0.01186066    -0.07388500
20MABNDB000069_PR033
Spot 1    -0.01202909    -0.01226390    -0.07388500
Spot 2    -0.01155848    -0.01226361    -0.07388500
Spot 1    -0.01202892    -0.01226385    -0.07388500
Spot 2    -0.01155853    -0.01226371    -0.07388500
Spot 1    -0.01202899    -0.01226402    -0.07388500
Spot 2    -0.01155853    -0.01226359    -0.07388500
Spot 1    -0.01202893    -0.01226385    -0.07388500
Spot 2    -0.01155853    -0.01226378    -0.07388500
20MABNDB000131_PR032
Spot 1    -0.01144336    -0.01303721    -0.07533000
Spot 2    -0.01138295    -0.01303391    -0.07533000
Spot 1    -0.01144326    -0.01303738    -0.07533000
Spot 2    -0.01138295    -0.01303372    -0.07533000
Spot 1    -0.01144347    -0.01303712    -0.07533000
Spot 2    -0.01138290    -0.01303386    -0.07533000
Spot 1    -0.01144335    -0.01303714    -0.07533000
Spot 2    -0.01138306    -0.01303342    -0.07533000
20MABNDB000131_PR034
Spot 1    -0.01329246    -0.01380048    -0.07533000
Spot 2    -0.01311570    -0.01379921    -0.07533000
Spot 1    -0.01329253    -0.01380048    -0.07533000
Spot 2    -0.01311583    -0.01379945    -0.07533000
Spot 1    -0.01329256    -0.01380065    -0.07533000
Spot 2    -0.01311587    -0.01379930    -0.07533000
Spot 1    -0.01329222    -0.01380043    -0.07533000
Spot 2    -0.01311561    -0.01379935    -0.07533000
20MABNDA000208_PR042
Spot 1    -0.01393031     0.01304302    -0.07273700
Spot 2    -0.01386522     0.01304358    -0.07273700
Spot 1    -0.01393063     0.01304371    -0.07273700
Spot 2    -0.01386572     0.01304340    -0.07273700
Spot 1    -0.01393035     0.01304262    -0.07273700
Spot 2    -0.01386510     0.01304374    -0.07273700
Spot 1    -0.01393040     0.01304293    -0.07273700
Spot 2    -0.01386528     0.01304366    -0.07273700
20MABNDA000208_PR046
Spot 1    -0.01231824     0.01179575    -0.07273700
Spot 2    -0.01184513     0.01179576    -0.07273700
Spot 1    -0.01231813     0.01179567    -0.07273700
Spot 2    -0.01184497     0.01179576    -0.07273700
Spot 1    -0.01231801     0.01179553    -0.07273700
Spot 2    -0.01184496     0.01179597    -0.07273700
Spot 1    -0.01231815     0.01179563    -0.07273700
Spot 2    -0.01184511     0.01179575    -0.07273700
20MABNDA000035_PR044
Spot 1    -0.01157311     0.01300075    -0.07483200
Spot 2    -0.01151594     0.01300642    -0.07483200
Spot 1    -0.01157286     0.01300054    -0.07483200
Spot 2    -0.01151581     0.01300618    -0.07483200
Spot 1    -0.01157214     0.01300066    -0.07483200
Spot 2    -0.01151591     0.01300630    -0.07483200
Spot 1    -0.01157237     0.01300061    -0.07483200
Spot 2    -0.01151612     0.01300645    -0.07483200
20MABNDA000035_PR045
Spot 1    -0.01337478     0.01379850    -0.07483200
Spot 2    -0.01319722     0.01379777    -0.07483200
Spot 1    -0.01337478     0.01379835    -0.07483200
Spot 2    -0.01319677     0.01379741    -0.07483200
Spot 1    -0.01337496     0.01379839    -0.07483200
Spot 2    -0.01319696     0.01379751    -0.07483200
Spot 1    -0.01337489     0.01379838    -0.07483200
Spot 2    -0.01319711     0.01379754    -0.07483200
20MABNDA000188_PR008
Spot 1    -0.01391227     0.01380893    -0.07502000
Spot 2    -0.01391227     0.01380893    -0.07502000
Spot 1    -0.01391227     0.01380893    -0.07502000
Spot 2    -0.01391227     0.01380893    -0.07502000
Spot 1    -0.01429397     0.01361219    -0.07502000
Spot 2    -0.01391227     0.01380893    -0.07502000
Spot 1    -0.01391227     0.01380893    -0.07502000
Spot 2    -0.01391227     0.01380893    -0.07502000
20MABNDA000188_PR018
Spot 1    -0.01269980     0.01228877    -0.07502000
Spot 2    -0.01223260     0.01228798    -0.07502000
Spot 1    -0.01269978     0.01228860    -0.07502000
Spot 2    -0.01223259     0.01228788    -0.07502000
Spot 1    -0.01269990     0.01228871    -0.07502000
Spot 2    -0.01223254     0.01228792    -0.07502000
Spot 1    -0.01269977     0.01228871    -0.07502000
Spot 2    -0.01223266     0.01228798    -0.07502000
20MABNDA000039_PR009
Spot 1    -0.01162670     0.01306782    -0.07444800
Spot 2    -0.01157942     0.01306248    -0.07444800
Spot 1    -0.01162714     0.01306735    -0.07444800
Spot 2    -0.01157954     0.01306253    -0.07444800
Spot 1    -0.01162643     0.01306706    -0.07444800
Spot 2    -0.01157942     0.01306267    -0.07444800
Spot 1    -0.01162706     0.01306733    -0.07444800
Spot 2    -0.01157955     0.01306269    -0.07444800
20MABNDA000039_PR011
Spot 1    -0.01372660     0.01397167    -0.07444800
Spot 2    -0.01355110     0.01397563    -0.07444800
Spot 1    -0.01372667     0.01397158    -0.07444800
Spot 2    -0.01355100     0.01397534    -0.07444800
Spot 1    -0.01372669     0.01397160    -0.07444800
Spot 2    -0.01355092     0.01397545    -0.07444800
Spot 1    -0.01372675     0.01397145    -0.07444800
Spot 2    -0.01355100     0.01397549    -0.07444800
20MABNDB000155_PR020
Spot 1    -0.01364566    -0.01312584    -0.07501700
Spot 2    -0.01358105    -0.01312885    -0.07501700
Spot 1    -0.01364591    -0.01312572    -0.07501700
Spot 2    -0.01358067    -0.01312863    -0.07501700
Spot 1    -0.01364565    -0.01312571    -0.07501700
Spot 2    -0.01358095    -0.01312904    -0.07501700
Spot 1    -0.01364589    -0.01312623    -0.07501700
Spot 2    -0.01358045    -0.01312889    -0.07501700
20MABNDB000155_PR022
Spot 1    -0.01216022    -0.01283481    -0.07501700
Spot 2    -0.01168734    -0.01283280    -0.07501700
Spot 1    -0.01216025    -0.01283466    -0.07501700
Spot 2    -0.01168732    -0.01283269    -0.07501700
Spot 1    -0.01216039    -0.01283463    -0.07501700
Spot 2    -0.01168732    -0.01283281    -0.07501700
Spot 1    -0.01216020    -0.01283471    -0.07501700
Spot 2    -0.01168734    -0.01283283    -0.07501700
20MABNDB000010_PR021
Spot 1    -0.01158023    -0.01292567    -0.07358200
Spot 2    -0.01152745    -0.01292190    -0.07358200
Spot 1    -0.01158017    -0.01292554    -0.07358200
Spot 2    -0.01152780    -0.01292177    -0.07358200
Spot 1    -0.01158030    -0.01292551    -0.07358200
Spot 2    -0.01152738    -0.01292172    -0.07358200
Spot 1    -0.01158044    -0.01292567    -0.07358200
Spot 2    -0.01152770    -0.01292187    -0.07358200
20MABNDB000010_PR023
Spot 1    -0.01312381    -0.01379156    -0.07358200
Spot 2    -0.01294870    -0.01379048    -0.07358200
Spot 1    -0.01312377    -0.01379170    -0.07358200
Spot 2    -0.01294868    -0.01379054    -0.07358200
Spot 1    -0.01312379    -0.01379150    -0.07358200
Spot 2    -0.01294868    -0.01379027    -0.07358200
Spot 1    -0.01312388    -0.01379154    -0.07358200
Spot 2    -0.01294882    -0.01379022    -0.07358200


*****************************************************************coordonnees du prisme dans le repere MOUNT********************************************************************************** 
20MABNDL000077_PR002
    0.05505757     0.05515695     3.70682955
    0.05502484     0.05509131     3.70683050
    0.05512276     0.05512915     3.70682907
    0.05501243     0.05524088     3.70682955
    0.05504683     0.05535121     3.70682859
20MABNDL000077_PR003
    0.02099719     0.02121399     3.89601707
    0.02101360     0.02119228     3.89601707
    0.02101402     0.02118215     3.89601660
    0.02101351     0.02118371     3.89601660
    0.02102361     0.02118050     3.89601660
20MABNDL000077_20MABNDM000168
   -0.05597771     0.07582262    -5.46843529
    0.02678789     0.06907324    -5.46851063
   -0.05598868     0.07580048    -5.46843529
    0.02678730     0.06905988    -5.46851063
    0.02678198     0.06905080    -5.46851110
20MABNDL000077_PR024
    0.04539634     0.01806629    -5.89640427
    0.04537476     0.01804229    -5.89640427
    0.04538173     0.01804704    -5.89640427
    0.04537909     0.01803805    -5.89640427
    0.04537648     0.01802671    -5.89640427
20MABNDM000020_PR013
    0.00107112    -0.08578172    -3.80212831
    0.00107112    -0.08578172    -3.80212831
    0.00707881    -0.08812969    -3.80206895
    0.00707881    -0.08812969    -3.80206895
20MABNDM000020_PR014
   -0.09646920    -0.08948103    -4.74775267
   -0.09646920    -0.08948103    -4.74775267
   -0.09646920    -0.08948103    -4.74775267
   -0.09646920    -0.08948103    -4.74775267
20MABNDM000020_20MABNDL000196
    0.02685991    -0.07126170     5.39469624
    0.02685275    -0.07126851     5.39469624
    0.02685275    -0.07126098     5.39469624
    0.02685490    -0.07125561     5.39469719
20MABNDM000020_PR035
   -0.04226991    -0.00676610     5.80095673
   -0.04226991    -0.00677804     5.80095673
   -0.04226259    -0.00676956     5.80095673
   -0.04233694    -0.00676072     5.80095530
20MABNDM000168_PR025
   -0.00133555    -0.07675161    -3.78855658
   -0.00133555    -0.07675161    -3.78855658
    0.00077664    -0.05028834    -3.78874588
   -0.00133555    -0.07675161    -3.78855658
20MABNDM000168_PR026
   -0.05785607    -0.01402321    -3.98429084
   -0.05784958    -0.01401901    -3.98429084
   -0.05785190    -0.01402449    -3.98429084
   -0.05785453    -0.01401643    -3.98429084
20MABNDM000168_20MABNDL000077
    0.01165471    -0.03837598     5.38884687
    0.01167334    -0.03835506     5.38884687
    0.01167671    -0.03837020     5.38884687
    0.01167706    -0.03839535     5.38884687
20MABNDM000168_PR001
   -0.05735528    -0.01317944     5.81470490
   -0.05735093    -0.01317368     5.81470490
   -0.05736697    -0.01318353     5.81470490
   -0.05736651    -0.01317811     5.81470490
20MABNDL000196_PR036
    0.05136756     0.00594621     3.68777180
    0.05136485     0.00594694     3.68777180
    0.05136413     0.00593835     3.68777180
    0.05136023     0.00592680     3.68777132
20MABNDL000196_PR037
   -0.02515810     0.02856001     3.88381290
   -0.02515316     0.02854709     3.88381290
   -0.02515033     0.02855459     3.88381290
   -0.02515447     0.02855588     3.88381290
20MABNDL000196_20MABNDM000020
   -0.01574649     0.03785475    -5.47473907
   -0.01573717     0.03785602    -5.47473907
   -0.01573392     0.03785501    -5.47473907
   -0.01573520     0.03784707    -5.47473907
20MABNDL000196_PR012
    0.05231229     0.01450850    -5.91537189
    0.05232058     0.01450167    -5.91537189
    0.05233150     0.01448090    -5.91537189
    0.05233207     0.01449141    -5.91537189
20MABNDA000318_PR004
   -0.00844738     0.03835260     2.74965954
   -0.00844832     0.03835975     2.74965906
   -0.00845053     0.03836158     2.74965906
   -0.00844815     0.03836305     2.74965906
20MABNDA000334_PR005
   -0.00428726     0.03165773     2.14977217
   -0.00428683     0.03165530     2.14977217
   -0.00428912     0.03165401     2.14977217
   -0.00428697     0.03165658     2.14977217
20MABNDB000317_PR015
   -0.01739837    -0.03397373     2.75129032
   -0.01739503    -0.03397915     2.75129032
   -0.01739401    -0.03397295     2.75129032
   -0.01740237    -0.03397195     2.75129032
20MABNDB000146_PR016
   -0.01355289    -0.03175900     2.15201306
   -0.01355620    -0.03175656     2.15201306
   -0.01355864    -0.03175772     2.15201306
   -0.01355922    -0.03175557     2.15201306
20MABNDB000135_PR027
   -0.02103824    -0.00985364     2.74937105
   -0.02103374    -0.00984507     2.74937105
   -0.02104059    -0.00986700     2.74937105
   -0.02103645    -0.00985788     2.74937105
20MABNDB000126_PR028
   -0.02035718    -0.03899016     2.14679480
   -0.02035662    -0.03898902     2.14679480
   -0.02035635    -0.03898574     2.14679480
   -0.02035519    -0.03899015     2.14679480
20MABNDA000272_PR038
   -0.01319311     0.01095467     2.74965882
   -0.01319861     0.01095541     2.74965882
   -0.01319073     0.01095558     2.74965882
   -0.01318780     0.01095557     2.74965882
20MABNDA000003_PR039
   -0.00590793     0.04138201     2.14891338
   -0.00590607     0.04138158     2.14891338
   -0.00591293     0.04138303     2.14891338
   -0.00591122     0.04137988     2.14891338
20MABNDA000196_PR006
   -0.01040780     0.01023920     1.64206433
   -0.01040625     0.01024104     1.64206433
   -0.01040562     0.01023896     1.64206433
   -0.01040426     0.01024298     1.64206433
20MABNDA000324_PR007
   -0.02526828     0.02753563     2.95549345
   -0.02526450     0.02752995     2.95549345
   -0.02526684     0.02752757     2.95549345
   -0.02527475     0.02753203     2.95549345
20MABNDB000001_PR017
   -0.02415028    -0.00280912     1.64035940
   -0.02414702    -0.00281101     1.64035940
   -0.02414570    -0.00280982     1.64035940
   -0.02414867    -0.00281165     1.64035940
20MABNDB000260_PR019
   -0.02435393    -0.03845923     2.95627403
   -0.02437273    -0.03845529     2.95627403
   -0.02435665    -0.03846126     2.95627403
   -0.02436302    -0.03845804     2.95627403
20MABNDB000212_PR029
   -0.02545546    -0.00831436     1.64223695
   -0.02545583    -0.00831874     1.64223695
   -0.02545680    -0.00831741     1.64223695
   -0.02545771    -0.00831960     1.64223695
20MABNDB000128_PR030
   -0.01928324    -0.04684536     2.95496273
   -0.01927968    -0.04684889     2.95496273
   -0.01927830    -0.04685026     2.95496273
   -0.01928166    -0.04684693     2.95496273
20MABNDA000444_PR040
   -0.02991780     0.00090081     1.64491177
   -0.02991771     0.00090212     1.64491177
   -0.02991569     0.00089864     1.64491177
   -0.02992053     0.00089946     1.64491177
20MABNDA000053_PR041
   -0.02643006     0.05076165     2.95450902
   -0.02642206     0.05074912     2.95450902
   -0.02643062     0.05074320     2.95450902
   -0.02642476     0.05075134     2.95450902
20MABNDB000069_PR031
    0.10999375    -0.16176865     9.20229721
    0.10999375    -0.16176865     9.20229721
    0.10999375    -0.16176865     9.20229721
    0.10999375    -0.16176865     9.20229721
20MABNDB000069_PR033
   -0.02677142    -0.02692460     1.28394127
   -0.02677242    -0.02692413     1.28394127
   -0.02677189    -0.02692372     1.28394127
   -0.02677240    -0.02692353     1.28394127
20MABNDB000131_PR032
   -0.18795460    -0.02973764    11.00642204
   -0.18796264    -0.02973914    11.00642204
   -0.18795091    -0.02974858    11.00642204
   -0.18794784    -0.02977852    11.00642204
20MABNDB000131_PR034
    0.01432479     0.01650718     3.43337870
    0.01432932     0.01651245     3.43337870
    0.01433091     0.01651291     3.43337870
    0.01431726     0.01650919     3.43337870
20MABNDA000208_PR042
    0.13263306     0.01463214     9.20144749
    0.13268340     0.01460026     9.20144558
    0.13262814     0.01464686     9.20144749
    0.13264227     0.01463276     9.20144749
20MABNDA000208_PR046
   -0.02348438     0.03460925     1.28208184
   -0.02348669     0.03460994     1.28208184
   -0.02348780     0.03460933     1.28208184
   -0.02348532     0.03461036     1.28208184
20MABNDA000035_PR044
   -0.17995627     0.02662393    11.00802326
   -0.17998454     0.02665704    11.00802231
   -0.18002929     0.02663908    11.00802231
   -0.17999715     0.02663153    11.00802231
20MABNDA000035_PR045
    0.01461004    -0.01894180     3.43483734
    0.01459963    -0.01893008     3.43483734
    0.01460806    -0.01893311     3.43483734
    0.01460988    -0.01893358     3.43483734
20MABNDA000188_PR008
    0.13650158    -0.07885031     9.20339394
    0.13650158    -0.07885031     9.20339394
    0.15992630    -0.06677108     9.20309639
    0.13650158    -0.07885031     9.20339394
20MABNDA000188_PR018
   -0.01664497     0.02630441     1.28357637
   -0.01664530     0.02630672     1.28357637
   -0.01664462     0.02630543     1.28357637
   -0.01664471     0.02630492     1.28357637
20MABNDA000039_PR009
   -0.17106673     0.02512275    11.00701714
   -0.17102638     0.02515329    11.00701904
   -0.17108703     0.02516452    11.00701714
   -0.17103156     0.02514308    11.00701904
20MABNDA000039_PR011
    0.03079309    -0.02455939     3.43347049
    0.03079222    -0.02455072     3.43347049
    0.03079107    -0.02455368     3.43347049
    0.03079427    -0.02455119     3.43347049
20MABNDB000155_PR020
    0.10207564    -0.00915347     9.20028305
    0.10206732    -0.00917384     9.20028305
    0.10206884    -0.00914988     9.20028305
    0.10205256    -0.00912677     9.20028305
20MABNDB000155_PR022
   -0.02555454    -0.01758861     1.28070855
   -0.02555442    -0.01759083     1.28070855
   -0.02555324    -0.01759004     1.28070855
   -0.02555470    -0.01758921     1.28070855
20MABNDB000010_PR021
   -0.17631459    -0.03370001    11.00694466
   -0.17629367    -0.03371951    11.00694466
   -0.17631491    -0.03372502    11.00694466
   -0.17628074    -0.03370238    11.00694466
20MABNDB000010_PR023
    0.00428576     0.02025704     3.43377113
    0.00428453     0.02026160     3.43377113
    0.00428495     0.02025084     3.43377209
    0.00429022     0.02025069     3.43377113


*****************************************************************coordonnees du prisme dans le repere ATLAS********************************************************************************** 
20MABNDL000077_PR002 0.00000000
    2.80188560    -3.68944860     6.48614979
    2.80195117    -3.68948126     6.48615026
    2.80191350    -3.68938351     6.48614931
    2.80180168    -3.68949366     6.48614979
    2.80169129    -3.68945932     6.48614883
20MABNDL000077_PR003 0.00000000
    2.83600330    -3.72375321     6.67526150
    2.83602500    -3.72373676     6.67526150
    2.83603501    -3.72373629     6.67526102
    2.83603358    -3.72373676     6.67526102
    2.83603668    -3.72372675     6.67526102
20MABNDL000077_20MABNDM000168 0.00000000
    2.77218485    -3.78915691    -2.68922043
    2.77896047    -3.70639348    -2.68920016
    2.77220678    -3.78916788    -2.68922043
    2.77897382    -3.70639396    -2.68920016
    2.77898288    -3.70639920    -2.68920088
20MABNDL000077_PR024 0.00000000
    2.82955360    -3.68727326    -3.11712050
    2.82957768    -3.68729472    -3.11712050
    2.82957292    -3.68728781    -3.11712050
    2.82958174    -3.68729043    -3.11712050
    2.82959318    -3.68729305    -3.11712050
20MABNDM000020_PR013 0.00000000
   -2.76652908    -3.74057555     6.48595381
   -2.76652908    -3.74057555     6.48595381
   -2.76418304    -3.74658394     6.48588943
   -2.76418304    -3.74658394     6.48588943
20MABNDM000020_PR014 0.00000000
   -2.76261067    -3.64375567     7.43165112
   -2.76261067    -3.64375567     7.43165112
   -2.76261067    -3.64375567     7.43165112
   -2.76261067    -3.64375567     7.43165112
20MABNDM000020_20MABNDL000196 0.00000000
   -2.78289747    -3.75936532    -2.71088481
   -2.78289080    -3.75935817    -2.71088481
   -2.78289819    -3.75935817    -2.71088481
   -2.78290367    -3.75936031    -2.71088576
20MABNDM000020_PR035 0.00000000
   -2.84745336    -3.68990684    -3.11707973
   -2.84744143    -3.68990684    -3.11707973
   -2.84744978    -3.68991423    -3.11707973
   -2.84745860    -3.68983984    -3.11707807
20MABNDM000168_PR025 0.00000000
    2.77649045    -3.74397898    -6.47917938
    2.77649045    -3.74397898    -6.47917938
    2.80295300    -3.74609804    -6.47936964
    2.77649045    -3.74397898    -6.47917938
20MABNDM000168_PR026 0.00000000
    2.83922172    -3.68754768    -6.67493820
    2.83922601    -3.68755412    -6.67493820
    2.83922052    -3.68755198    -6.67493820
    2.83922863    -3.68754935    -6.67493820
20MABNDM000168_20MABNDL000077 0.00000000
    2.81541944    -3.75356698     2.69822621
    2.81544042    -3.75358558     2.69822621
    2.81542540    -3.75358891     2.69822621
    2.81540012    -3.75358915     2.69822621
20MABNDM000168_PR001 0.00000000
    2.84066010    -3.68440533     3.12405682
    2.84066582    -3.68440962     3.12405682
    2.84065604    -3.68439364     3.12405682
    2.84066153    -3.68439412     3.12405682
20MABNDL000196_PR036 0.00000000
   -2.84766126    -3.69290686    -6.47909546
   -2.84766054    -3.69290972    -6.47909546
   -2.84766912    -3.69291043    -6.47909546
   -2.84768081    -3.69291425    -6.47909498
20MABNDL000196_PR037 0.00000000
   -2.82501626    -3.76960444    -6.67506552
   -2.82502913    -3.76959944    -6.67506552
   -2.82502151    -3.76959658    -6.67506552
   -2.82502031    -3.76960087    -6.67506552
20MABNDL000196_20MABNDM000020 0.00000000
   -2.81552362    -3.75148320     2.68347335
   -2.81552219    -3.75147390     2.68347335
   -2.81552339    -3.75147057     2.68347335
   -2.81553125    -3.75147176     2.68347335
20MABNDL000196_PR012 0.00000000
   -2.83889198    -3.68302536     3.12404323
   -2.83889890    -3.68301702     3.12404323
   -2.83891964    -3.68300629     3.12404323
   -2.83890915    -3.68300557     3.12404323
20MABNDA000318_PR004 0.00000000
    2.61455584    -4.19698858     3.83364606
    2.61455488    -4.19698906     3.83363891
    2.61455274    -4.19698906     3.83363700
    2.61455512    -4.19698906     3.83363557
20MABNDA000334_PR005 0.00000000
    2.61671138    -4.19703102     5.89760303
    2.61671185    -4.19703102     5.89760542
    2.61670947    -4.19703102     5.89760685
    2.61671162    -4.19703102     5.89760447
20MABNDB000317_PR015 0.00000000
   -2.61120868    -4.19700575     3.83604169
   -2.61121202    -4.19700575     3.83603621
   -2.61121321    -4.19700575     3.83604240
   -2.61120486    -4.19700575     3.83604360
20MABNDB000146_PR016 0.00000000
   -2.61274242    -4.19702482     5.89859104
   -2.61273909    -4.19702482     5.89859390
   -2.61273646    -4.19702482     5.89859247
   -2.61273599    -4.19702482     5.89859486
20MABNDB000135_PR027 0.00000000
    2.60382509    -4.19700432    -3.82550716
    2.60382962    -4.19700432    -3.82551575
    2.60382271    -4.19700432    -3.82549381
    2.60382676    -4.19700432    -3.82550287
20MABNDB000126_PR028 0.00000000
    2.60556006    -4.19702148    -5.89322948
    2.60556078    -4.19702148    -5.89323092
    2.60556102    -4.19702148    -5.89323425
    2.60556221    -4.19702148    -5.89322948
20MABNDA000272_PR038 0.00000000
   -2.61134386    -4.19698286    -3.82752967
   -2.61133838    -4.19698286    -3.82752895
   -2.61134624    -4.19698286    -3.82752872
   -2.61134911    -4.19698286    -3.82752872
20MABNDA000003_PR039 0.00000000
   -2.61582327    -4.19702291    -5.89138460
   -2.61582518    -4.19702291    -5.89138508
   -2.61581826    -4.19702291    -5.89138365
   -2.61581993    -4.19702291    -5.89138699
20MABNDA000196_PR006 0.00000000
    2.58486819    -4.19496393     6.54819584
    2.58486676    -4.19496393     6.54819775
    2.58486605    -4.19496393     6.54819536
    2.58486485    -4.19496393     6.54819965
20MABNDA000324_PR007 0.00000000
    2.59404659    -4.13996458     6.94837952
    2.59405017    -4.13996458     6.94838524
    2.59404802    -4.13996458     6.94838762
    2.59403992    -4.13996458     6.94838333
20MABNDB000001_PR017 0.00000000
   -2.59785151    -4.19505882     6.53813744
   -2.59784842    -4.19505882     6.53813934
   -2.59784698    -4.19505882     6.53813791
   -2.59785008    -4.19505882     6.53813982
20MABNDB000260_PR019 0.00000000
   -2.60440803    -4.13996029     6.94218493
   -2.60438919    -4.13996029     6.94218874
   -2.60440516    -4.13996029     6.94218254
   -2.60439897    -4.13996029     6.94218588
20MABNDB000212_PR029 0.00000000
    2.59913325    -4.19501162    -6.54730225
    2.59913349    -4.19501162    -6.54730654
    2.59913445    -4.19501162    -6.54730511
    2.59913540    -4.19501162    -6.54730749
20MABNDB000128_PR030 0.00000000
    2.60957551    -4.14002705    -6.93127584
    2.60957909    -4.14002705    -6.93127203
    2.60958052    -4.14002705    -6.93127060
    2.60957718    -4.14002705    -6.93127394
20MABNDA000444_PR040 0.00000000
   -2.60509038    -4.19509745    -6.54008102
   -2.60509014    -4.19509745    -6.54008245
   -2.60508823    -4.19509745    -6.54007912
   -2.60509300    -4.19509745    -6.54007959
20MABNDA000053_PR041 0.00000000
   -2.59411192    -4.14012241    -6.92715168
   -2.59411979    -4.14012241    -6.92716455
   -2.59411120    -4.14012241    -6.92717028
   -2.59411716    -4.14012241    -6.92716217
20MABNDB000069_PR031 0.00000000
    3.69177032     3.84800911    -7.77863359
    3.69177032     3.84800911    -7.77863359
    3.69177032     3.84800911    -7.77863359
    3.69177032     3.84800911    -7.77863359
20MABNDB000069_PR033 0.00000000
    3.53352809    -4.07046223    -7.87874699
    3.53352714    -4.07046223    -7.87874746
    3.53352761    -4.07046223    -7.87874746
    3.53352714    -4.07046223    -7.87874794
20MABNDB000131_PR032 0.00000000
    3.86875701     3.64757204   -12.94038010
    3.86876512     3.64757204   -12.94038200
    3.86875343     3.64757204   -12.94039154
    3.86875033     3.64757204   -12.94042110
20MABNDB000131_PR034 0.00000000
    3.67346454    -3.92563772   -12.89144039
    3.67346001    -3.92563772   -12.89143467
    3.67345834    -3.92563772   -12.89143467
    3.67347217    -3.92563772   -12.89143848
20MABNDA000208_PR042 0.00000000
   -3.68271112     3.84912777    -7.89685440
   -3.68276167     3.84912586    -7.89688635
   -3.68270636     3.84912777    -7.89683962
   -3.68272042     3.84912777    -7.89685345
20MABNDA000208_PR046 0.00000000
   -3.53228116    -4.07034016    -7.87390900
   -3.53227878    -4.07034016    -7.87390852
   -3.53227758    -4.07034016    -7.87390900
   -3.53228021    -4.07034016    -7.87390804
20MABNDA000035_PR044 0.00000000
   -3.86919713     3.64757848   -12.93230343
   -3.86922550     3.64757752   -12.93233585
   -3.86927032     3.64757752   -12.93231773
   -3.86923814     3.64757752   -12.93231010
20MABNDA000035_PR045 0.00000000
   -3.67611837    -3.92564988   -12.88744259
   -3.67612863    -3.92564988   -12.88745403
   -3.67612028    -3.92564988   -12.88745117
   -3.67611837    -3.92564988   -12.88745117
20MABNDA000188_PR008 0.00000000
    3.54951787     3.84898496     8.09023857
    3.54951787     3.84898496     8.09023857
    3.57312250     3.84917927     8.07851315
    3.54951787     3.84898496     8.09023857
20MABNDA000188_PR018 0.00000000
    3.52049947    -4.07060432     7.89713764
    3.52049899    -4.07060432     7.89713526
    3.52049971    -4.07060432     7.89713621
    3.52049971    -4.07060432     7.89713669
20MABNDA000039_PR009 0.00000000
    3.87523866     3.64747548    12.93641663
    3.87519836     3.64747739    12.93644714
    3.87525892     3.64747548    12.93645859
    3.87520361     3.64747739    12.93643665
20MABNDA000039_PR011 0.00000000
    3.66423106    -3.92580533    12.88427734
    3.66423202    -3.92580533    12.88428593
    3.66423297    -3.92580533    12.88428307
    3.66422987    -3.92580533    12.88428593
20MABNDB000155_PR020 0.00000000
   -3.68072796     3.84881616     7.89771366
   -3.68071961     3.84881616     7.89769316
   -3.68072104     3.84881616     7.89771748
   -3.68070483     3.84881616     7.89774036
20MABNDB000155_PR022 0.00000000
   -3.53442597    -4.07043648     7.89047050
   -3.53442621    -4.07043648     7.89046860
   -3.53442740    -4.07043648     7.89046907
   -3.53442574    -4.07043648     7.89047003
20MABNDB000010_PR021 0.00000000
   -3.86215186     3.64768219    12.93552971
   -3.86213088     3.64768219    12.93554878
   -3.86215210     3.64768219    12.93555450
   -3.86211801     3.64768219    12.93553162
20MABNDB000010_PR023 0.00000000
   -3.68538070    -3.92560554    12.88501835
   -3.68538189    -3.92560554    12.88501453
   -3.68538141    -3.92560458    12.88502502
   -3.68537617    -3.92560554    12.88502502


*****************************************************************Rapport********************************************************************************** 
CAM-LBA-US_EBA-US-HO-H         2017.08.29.02.44.39     2.80184865    -3.68945327     6.48614960     0.00009279     0.00003831     0.00000049 0.00000000 VRAI 
CAM-LBA-US_JDA-US-H            2017.08.29.02.44.39     2.83602672    -3.72373796     6.67526121     0.00001238     0.00000853     0.00000023 0.00000000 VRAI 
CAM-LBA-US_CAM-LBC-US          2017.08.29.02.44.39     2.77626176    -3.73950229    -2.68920841     0.00331984     0.04054731     0.00000981 0.00000000 VRAI 
CAM-LBA-US_EBC-US-IP-H         2017.08.29.02.44.39     2.82957582    -3.68728786    -3.11712050     0.00001298     0.00000766     0.00000000 0.00000000 VRAI 
CAM-LBA-USA_EBA-USA-HO-H       2017.08.29.02.44.39    -2.76535606    -3.74357975     6.48592162     0.00117302     0.00300419     0.00003219 0.00000000 VRAI 
CAM-LBA-USA_JDA-USA-H          2017.08.29.02.44.39    -2.76261067    -3.64375567     7.43165112     0.00000000     0.00000000     0.00000000 0.00000000 VRAI 
CAM-LBA-USA_CAM-LBC-USA        2017.08.29.02.44.39    -2.78289753    -3.75936049    -2.71088505     0.00000457     0.00000292     0.00000041 0.00000000 VRAI 
CAM-LBA-USA_EBC-USA-IP-H       2017.08.29.02.44.39    -2.84745079    -3.68989193    -3.11707932     0.00000625     0.00003023     0.00000072 0.00000000 VRAI 
CAM-LBC-US_EBC-US-HO-H         2017.08.29.02.44.39     2.78310609    -3.74450874    -6.47922695     0.01145862     0.00091758     0.00008238 0.00000000 VRAI 
CAM-LBC-US_JDC-US-H            2017.08.29.02.44.39     2.83922422    -3.68755078    -6.67493820     0.00000326     0.00000246     0.00000000 0.00000000 VRAI 
CAM-LBC-US_CAM-LBA-US          2017.08.29.02.44.39     2.81542134    -3.75358266     2.69822621     0.00001444     0.00000916     0.00000000 0.00000000 VRAI 
CAM-LBC-US_EBA-US-IP-H         2017.08.29.02.44.39     2.84066087    -3.68440068     3.12405682     0.00000349     0.00000696     0.00000000 0.00000000 VRAI 
CAM-LBC-USA_EBC-USA-HO-H       2017.08.29.02.44.39    -2.84766793    -3.69291031    -6.47909534     0.00000816     0.00000264     0.00000021 0.00000000 VRAI 
CAM-LBC-USA_JDC-USA-H          2017.08.29.02.44.39    -2.82502180    -3.76960033    -6.67506552     0.00000466     0.00000283     0.00000000 0.00000000 VRAI 
CAM-LBC-USA_CAM-LBA-USA        2017.08.29.02.44.39    -2.81552511    -3.75147486     2.68347335     0.00000359     0.00000496     0.00000000 0.00000000 VRAI 
CAM-LBC-USA_EBA-USA-IP-H       2017.08.29.02.44.39    -2.83890492    -3.68301356     3.12404323     0.00001047     0.00000818     0.00000000 0.00000000 VRAI 
CAM-EBA-US-IP_EBA-US-IP        2017.08.29.02.44.39     2.61455464    -4.19698894     3.83363938     0.00000116     0.00000021     0.00000403 0.00000000 VRAI 
CAM-EBA-US-HO_EBA-US-HO        2017.08.29.02.44.39     2.61671108    -4.19703102     5.89760494     0.00000094     0.00000000     0.00000139 0.00000000 VRAI 
CAM-EBA-USA-IP_EBA-USA-IP      2017.08.29.02.44.39    -2.61120969    -4.19700575     3.83604097     0.00000324     0.00000000     0.00000284 0.00000000 VRAI 
CAM-EBA-USA-HO_EBA-USA-HO      2017.08.29.02.44.39    -2.61273849    -4.19702482     5.89859307     0.00000256     0.00000000     0.00000145 0.00000000 VRAI 
CAM-EBC-US-IP_EBC-US-IP        2017.08.29.02.44.39     2.60382605    -4.19700432    -3.82550490     0.00000252     0.00000000     0.00000790 0.00000000 VRAI 
CAM-EBC-US-HO_EBC-US-HO        2017.08.29.02.44.39     2.60556102    -4.19702148    -5.89323103     0.00000077     0.00000000     0.00000195 0.00000000 VRAI 
CAM-EBC-USA-IP_EBC-USA-IP      2017.08.29.02.44.39    -2.61134440    -4.19698286    -3.82752901     0.00000394     0.00000000     0.00000039 0.00000000 VRAI 
CAM-EBC-USA-HO_EBC-USA-HO      2017.08.29.02.44.39    -2.61582166    -4.19702291    -5.89138508     0.00000272     0.00000000     0.00000122 0.00000000 VRAI 
CAM-JDA-US-IP_JDA-US-IP        2017.08.29.02.44.39     2.58486646    -4.19496393     6.54819715     0.00000121     0.00000000     0.00000170 0.00000000 VRAI 
CAM-JDA-US-HO_JDA-US-HO        2017.08.29.02.44.39     2.59404618    -4.13996458     6.94838393     0.00000383     0.00000000     0.00000297 0.00000000 VRAI 
CAM-JDA-USA-IP_JDA-USA-IP      2017.08.29.02.44.39    -2.59784925    -4.19505882     6.53813863     0.00000171     0.00000000     0.00000098 0.00000000 VRAI 
CAM-JDA-USA-HO_JDA-USA-HO      2017.08.29.02.44.39    -2.60440034    -4.13996029     6.94218552     0.00000722     0.00000000     0.00000222 0.00000000 VRAI 
CAM-JDC-US-IP_JDC-US-IP        2017.08.29.02.44.39     2.59913415    -4.19501162    -6.54730535     0.00000085     0.00000000     0.00000198 0.00000000 VRAI 
CAM-JDC-US-HO_JDC-US-HO        2017.08.29.02.44.39     2.60957807    -4.14002705    -6.93127310     0.00000190     0.00000000     0.00000198 0.00000000 VRAI 
CAM-JDC-USA-IP_JDC-USA-IP      2017.08.29.02.44.39    -2.60509044    -4.19509745    -6.54008055     0.00000170     0.00000000     0.00000131 0.00000000 VRAI 
CAM-JDC-USA-HO_JDC-USA-HO      2017.08.29.02.44.39    -2.59411502    -4.14012241    -6.92716217     0.00000359     0.00000000     0.00000674 0.00000000 VRAI 
CAM-ECTC-US-IP_ECTC-US-IP-T    2017.08.29.02.44.39     3.69177032     3.84800911    -7.77863359     0.00000000     0.00000000     0.00000000 0.00000000 VRAI 
CAM-ECTC-US-IP_ECTC-US-IP      2017.08.29.02.44.39     3.53352749    -4.07046223    -7.87874746     0.00000040     0.00000000     0.00000034 0.00000000 VRAI 
CAM-ECTC-US-HO_ECTC-US-HO-T    2017.08.29.02.44.39     3.86875647     3.64757204   -12.94039369     0.00000552     0.00000000     0.00001641 0.00000000 VRAI 
CAM-ECTC-US-HO_ECTC-US-HO      2017.08.29.02.44.39     3.67346376    -3.92563772   -12.89143705     0.00000536     0.00000000     0.00000248 0.00000000 VRAI 
CAM-ECTC-USA-IP_ECTC-USA-IP-T  2017.08.29.02.44.39    -3.68272489     3.84912729    -7.89685845     0.00002183     0.00000083     0.00001713 0.00000000 VRAI 
CAM-ECTC-USA-IP_ECTC-USA-IP    2017.08.29.02.44.39    -3.53227943    -4.07034016    -7.87390864     0.00000136     0.00000000     0.00000040 0.00000000 VRAI 
CAM-ECTC-USA-HO_ECTC-USA-HO-T  2017.08.29.02.44.39    -3.86923277     3.64757776   -12.93231678     0.00002628     0.00000041     0.00001212 0.00000000 VRAI 
CAM-ECTC-USA-HO_ECTC-USA-HO    2017.08.29.02.44.39    -3.67612141    -3.92564988   -12.88744974     0.00000424     0.00000000     0.00000429 0.00000000 VRAI 
CAM-ECTA-US-IP_ECTA-US-IP-T    2017.08.29.02.44.39     3.55541903     3.84903353     8.08730721     0.01022111     0.00008414     0.00507726 0.00000000 VRAI 
CAM-ECTA-US-IP_ECTA-US-IP      2017.08.29.02.44.39     3.52049947    -4.07060432     7.89713645     0.00000029     0.00000000     0.00000086 0.00000000 VRAI 
CAM-ECTA-US-HO_ECTA-US-HO-T    2017.08.29.02.44.39     3.87522489     3.64747643    12.93643975     0.00002502     0.00000095     0.00001544 0.00000000 VRAI 
CAM-ECTA-US-HO_ECTA-US-HO      2017.08.29.02.44.39     3.66423148    -3.92580533    12.88428307     0.00000115     0.00000000     0.00000350 0.00000000 VRAI 
CAM-ECTA-USA-IP_ECTA-USA-IP-T  2017.08.29.02.44.39    -3.68071836     3.84881616     7.89771616     0.00000842     0.00000000     0.00001676 0.00000000 VRAI 
CAM-ECTA-USA-IP_ECTA-USA-IP    2017.08.29.02.44.39    -3.53442633    -4.07043648     7.89046955     0.00000064     0.00000000     0.00000075 0.00000000 VRAI 
CAM-ECTA-USA-HO_ECTA-USA-HO-T  2017.08.29.02.44.39    -3.86213821     3.64768219    12.93554115     0.00001450     0.00000000     0.00001070 0.00000000 VRAI 
CAM-ECTA-USA-HO_ECTA-USA-HO    2017.08.29.02.44.39    -3.68538004    -3.92560530    12.88502073     0.00000228     0.00000041     0.00000450 0.00000000 VRAI 
