********** Fichier qui contient une sauvegarde des coordonnees images + coordonnees images transformees dans le repere BCAM (MOUNT) + coordonnees des prismes dans le repere MOUNT********** 
********************************************************************** Unite en metres (m)************************************************************************************************** 

*******************************************************************coordonnees images dans le repere CCD *********************************************************************************** 
20MABNDL000077_PR002
Spot 1     0.00121747     0.00150023
Spot 2     0.00052500     0.00043500
Spot 1     0.00121577     0.00150414
Spot 2     0.00052500     0.00043500
Spot 1     0.00121399     0.00150316
Spot 2     0.00052500     0.00043500
Spot 1     0.00121374     0.00149991
Spot 2     0.00052500     0.00043500
Spot 1     0.00121448     0.00149563
Spot 2     0.00052500     0.00043500
20MABNDL000077_PR003
Spot 1     0.00138709     0.00149433
Spot 2     0.00153662     0.00149071
Spot 1     0.00138670     0.00149474
Spot 2     0.00153601     0.00149099
Spot 1     0.00138635     0.00149492
Spot 2     0.00153661     0.00149089
Spot 1     0.00138599     0.00149539
Spot 2     0.00153634     0.00149102
Spot 1     0.00138575     0.00149533
Spot 2     0.00153657     0.00149096
20MABNDL000077_20MABNDM000168
Spot 1     0.00175729     0.00118314
Spot 2     0.00304500     0.00031500
Spot 1     0.00175719     0.00118310
Spot 2     0.00304500     0.00031500
Spot 1     0.00175706     0.00118339
Spot 2     0.00304500     0.00031500
Spot 1     0.00175719     0.00118351
Spot 2     0.00304500     0.00031500
Spot 1     0.00175715     0.00118363
Spot 2     0.00304500     0.00031500
20MABNDL000077_PR024
Spot 1     0.00254330     0.00143356
Spot 2     0.00264052     0.00144467
Spot 1     0.00254286     0.00143356
Spot 2     0.00264090     0.00144500
Spot 1     0.00254316     0.00143363
Spot 2     0.00264105     0.00144524
Spot 1     0.00254310     0.00143379
Spot 2     0.00264096     0.00144512
20MABNDM000020_PR013
Spot 1     0.00079500     0.00018500
Spot 2     0.00160500     0.00021500
Spot 1     0.00141500     0.00013500
Spot 2     0.00160500     0.00021500
Spot 1     0.00141500     0.00013500
Spot 2     0.00160500     0.00021500
Spot 1     0.00141500     0.00013500
Spot 2     0.00117071     0.00010000
20MABNDM000020_PR014
Spot 1     0.00310500     0.00034500
Spot 2     0.00310500     0.00034500
Spot 1     0.00310500     0.00034500
Spot 2     0.00310500     0.00034500
Spot 1     0.00310500     0.00034500
Spot 2     0.00310500     0.00034500
Spot 1     0.00310500     0.00034500
Spot 2     0.00310500     0.00034500
20MABNDM000020_20MABNDL000196
Spot 1     0.00197693     0.00117755
Spot 2     0.00230500     0.00010500
Spot 1     0.00197683     0.00117783
Spot 2     0.00230500     0.00010500
Spot 1     0.00197701     0.00117789
Spot 2     0.00230500     0.00010500
Spot 1     0.00197689     0.00117795
Spot 2     0.00230500     0.00010500
20MABNDM000020_PR035
Spot 1     0.00127084     0.00149412
Spot 2     0.00118767     0.00153141
Spot 1     0.00127098     0.00149435
Spot 2     0.00118769     0.00153134
Spot 1     0.00127269     0.00149381
Spot 2     0.00118766     0.00153151
Spot 1     0.00127292     0.00149366
Spot 2     0.00118769     0.00153148
20MABNDM000168_PR025
Spot 1     0.00100500     0.00023500
Spot 2     0.00100500     0.00023500
Spot 1     0.00050500     0.00009500
Spot 2     0.00050500     0.00009500
Spot 1     0.00141500     0.00013500
Spot 2     0.00050500     0.00009500
Spot 1     0.00100500     0.00023500
Spot 2     0.00100500     0.00023500
20MABNDM000168_PR026
Spot 1     0.00266762     0.00142875
Spot 2     0.00250632     0.00142557
Spot 1     0.00266752     0.00142848
Spot 2     0.00250622     0.00142512
Spot 1     0.00266740     0.00142797
Spot 2     0.00250640     0.00142471
Spot 1     0.00266734     0.00142822
Spot 2     0.00250626     0.00142477
20MABNDM000168_20MABNDL000077
Spot 1     0.00154122     0.00130114
Spot 2     0.00176052     0.00131539
Spot 1     0.00154094     0.00130149
Spot 2     0.00176071     0.00131551
Spot 1     0.00154119     0.00130140
Spot 2     0.00176125     0.00131532
Spot 1     0.00154140     0.00130119
Spot 2     0.00176109     0.00131500
20MABNDM000168_PR001
Spot 1     0.00080779     0.00162130
Spot 2     0.00070511     0.00162307
Spot 1     0.00080816     0.00162119
Spot 2     0.00070558     0.00162321
Spot 1     0.00080820     0.00162109
Spot 2     0.00070579     0.00162301
Spot 1     0.00080832     0.00162113
Spot 2     0.00070582     0.00162284
20MABNDL000196_PR036
Spot 1     0.00094613     0.00163962
Spot 2     0.00111027     0.00163867
Spot 1     0.00094603     0.00163950
Spot 2     0.00111029     0.00163870
Spot 1     0.00094587     0.00163942
Spot 2     0.00111052     0.00163881
Spot 1     0.00094590     0.00163947
Spot 2     0.00111014     0.00163865
20MABNDL000196_PR037
Spot 1     0.00246895     0.00116852
Spot 2     0.00262371     0.00116677
Spot 1     0.00246871     0.00116848
Spot 2     0.00262363     0.00116684
Spot 1     0.00246890     0.00116876
Spot 2     0.00262386     0.00116675
Spot 1     0.00246902     0.00116854
Spot 2     0.00262380     0.00116682
20MABNDL000196_20MABNDM000020
Spot 1     0.00192543     0.00104273
Spot 2     0.00170401     0.00104762
Spot 1     0.00192535     0.00104265
Spot 2     0.00170412     0.00104784
Spot 1     0.00192530     0.00104265
Spot 2     0.00170416     0.00104811
Spot 1     0.00192533     0.00104268
Spot 2     0.00170404     0.00104811
20MABNDL000196_PR012
Spot 1     0.00265108     0.00134253
Spot 2     0.00272278     0.00138722
Spot 1     0.00265120     0.00134260
Spot 2     0.00272302     0.00138730
Spot 1     0.00265114     0.00134302
Spot 2     0.00272292     0.00138741
Spot 1     0.00265132     0.00134257
Spot 2     0.00272308     0.00138730
20MABNDA000318_PR004
Spot 1     0.00214674     0.00162508
Spot 2     0.00192852     0.00162549
Spot 1     0.00214666     0.00162479
Spot 2     0.00192827     0.00162587
Spot 1     0.00214693     0.00162473
Spot 2     0.00192845     0.00162549
Spot 1     0.00214649     0.00162482
Spot 2     0.00192821     0.00162557
20MABNDA000334_PR005
Spot 1     0.00247272     0.00158505
Spot 2     0.00219236     0.00158561
Spot 1     0.00247284     0.00158479
Spot 2     0.00219243     0.00158554
Spot 1     0.00247304     0.00158511
Spot 2     0.00219255     0.00158577
Spot 1     0.00247288     0.00158506
Spot 2     0.00219246     0.00158549
20MABNDB000317_PR015
Spot 1     0.00148898     0.00159984
Spot 2     0.00170802     0.00159356
Spot 1     0.00148886     0.00159965
Spot 2     0.00170814     0.00159302
Spot 1     0.00148886     0.00159980
Spot 2     0.00170814     0.00159341
Spot 1     0.00148901     0.00159980
Spot 2     0.00170788     0.00159335
20MABNDB000146_PR016
Spot 1     0.00144875     0.00133081
Spot 2     0.00172427     0.00133552
Spot 1     0.00144885     0.00133095
Spot 2     0.00172434     0.00133536
Spot 1     0.00144897     0.00133091
Spot 2     0.00172462     0.00133522
Spot 1     0.00144880     0.00133099
Spot 2     0.00172439     0.00133506
20MABNDB000135_PR027
Spot 1     0.00189168     0.00091603
Spot 2     0.00211003     0.00091793
Spot 1     0.00189178     0.00091626
Spot 2     0.00210994     0.00091807
Spot 1     0.00189160     0.00091630
Spot 2     0.00211003     0.00091778
Spot 1     0.00189170     0.00091626
Spot 2     0.00210979     0.00091790
20MABNDB000126_PR028
Spot 1     0.00164557     0.00201059
Spot 2     0.00192772     0.00201243
Spot 1     0.00164556     0.00201057
Spot 2     0.00192774     0.00201234
Spot 1     0.00164566     0.00201060
Spot 2     0.00192770     0.00201230
Spot 1     0.00164560     0.00201062
Spot 2     0.00192772     0.00201243
20MABNDA000272_PR038
Spot 1     0.00192427     0.00095495
Spot 2     0.00170300     0.00095416
Spot 1     0.00192423     0.00095486
Spot 2     0.00170332     0.00095460
Spot 1     0.00192396     0.00095505
Spot 2     0.00170324     0.00095423
Spot 1     0.00192423     0.00095505
Spot 2     0.00170330     0.00095466
20MABNDA000003_PR039
Spot 1     0.00200155     0.00193145
Spot 2     0.00227947     0.00193207
Spot 1     0.00200137     0.00193156
Spot 2     0.00227942     0.00193210
Spot 1     0.00200165     0.00193126
Spot 2     0.00227984     0.00193177
Spot 1     0.00200155     0.00193145
Spot 2     0.00227988     0.00193201
20MABNDA000196_PR006
Spot 1     0.00198573     0.00074355
Spot 2     0.00161944     0.00074066
Spot 1     0.00198554     0.00074305
Spot 2     0.00161930     0.00074070
Spot 1     0.00198572     0.00074334
Spot 2     0.00161945     0.00074080
Spot 1     0.00198583     0.00074321
Spot 2     0.00161970     0.00074081
20MABNDA000324_PR007
Spot 1     0.00194736     0.00120332
Spot 2     0.00174188     0.00120941
Spot 1     0.00194735     0.00120378
Spot 2     0.00174161     0.00120955
Spot 1     0.00194732     0.00120338
Spot 2     0.00174200     0.00120965
Spot 1     0.00194717     0.00120321
Spot 2     0.00174209     0.00120943
20MABNDB000001_PR017
Spot 1     0.00188791     0.00043730
Spot 2     0.00225585     0.00044659
Spot 1     0.00188779     0.00043722
Spot 2     0.00225584     0.00044681
Spot 1     0.00188777     0.00043728
Spot 2     0.00225598     0.00044683
Spot 1     0.00188785     0.00043718
Spot 2     0.00225611     0.00044639
20MABNDB000260_PR019
Spot 1     0.00192189     0.00150511
Spot 2     0.00212618     0.00150559
Spot 1     0.00192172     0.00150516
Spot 2     0.00212558     0.00150558
Spot 1     0.00192189     0.00150532
Spot 2     0.00212599     0.00150599
Spot 1     0.00192153     0.00150536
Spot 2     0.00212593     0.00150553
20MABNDB000212_PR029
Spot 1     0.00223710     0.00069366
Spot 2     0.00187439     0.00069591
Spot 1     0.00223659     0.00069357
Spot 2     0.00187455     0.00069619
Spot 1     0.00223663     0.00069359
Spot 2     0.00187424     0.00069545
Spot 1     0.00223648     0.00069352
Spot 2     0.00187459     0.00069568
20MABNDB000128_PR030
Spot 1     0.00190014     0.00200182
Spot 2     0.00210510     0.00199688
Spot 1     0.00190013     0.00200195
Spot 2     0.00210525     0.00199691
Spot 1     0.00190004     0.00200179
Spot 2     0.00210539     0.00199696
Spot 1     0.00190019     0.00200180
Spot 2     0.00210527     0.00199672
20MABNDA000444_PR040
Spot 1     0.00075959     0.00035372
Spot 2     0.00112662     0.00035054
Spot 1     0.00075953     0.00035369
Spot 2     0.00112669     0.00035084
Spot 1     0.00075978     0.00035368
Spot 2     0.00112654     0.00035077
Spot 1     0.00075983     0.00035378
Spot 2     0.00112648     0.00035105
20MABNDA000053_PR041
Spot 1     0.00166294     0.00198466
Spot 2     0.00144668     0.00197860
Spot 1     0.00166293     0.00198415
Spot 2     0.00144678     0.00197801
Spot 1     0.00166287     0.00198438
Spot 2     0.00144656     0.00197806
Spot 1     0.00166292     0.00198423
Spot 2     0.00144658     0.00197801
20MABNDB000069_PR031
Spot 1     0.00021500     0.00240500
Spot 2     0.00021500     0.00240500
Spot 1     0.00021500     0.00240500
Spot 2     0.00021500     0.00240500
Spot 1     0.00021500     0.00240500
Spot 2     0.00021500     0.00240500
Spot 1     0.00021500     0.00240500
Spot 2     0.00021500     0.00240500
20MABNDB000069_PR033
Spot 1     0.00182214     0.00206357
Spot 2     0.00229228     0.00208350
Spot 1     0.00182225     0.00206343
Spot 2     0.00229213     0.00208348
Spot 1     0.00182236     0.00206361
Spot 2     0.00229229     0.00208353
Spot 1     0.00182229     0.00206359
Spot 2     0.00229234     0.00208342
20MABNDB000131_PR032
Spot 1     0.00277739     0.00107812
Spot 2     0.00283678     0.00108160
Spot 1     0.00277777     0.00107807
Spot 2     0.00283684     0.00108157
Spot 1     0.00277733     0.00107801
Spot 2     0.00283690     0.00108161
Spot 1     0.00277718     0.00107786
Spot 2     0.00283676     0.00108174
20MABNDB000131_PR034
Spot 1     0.00092398     0.00032666
Spot 2     0.00110054     0.00032563
Spot 1     0.00092419     0.00032673
Spot 2     0.00110049     0.00032576
Spot 1     0.00092425     0.00032661
Spot 2     0.00110041     0.00032579
Spot 1     0.00092417     0.00032663
Spot 2     0.00110034     0.00032576
20MABNDA000208_PR042
Spot 1     0.00305831     0.00095314
Spot 2     0.00299355     0.00095079
Spot 1     0.00305844     0.00095302
Spot 2     0.00299361     0.00095047
Spot 1     0.00305869     0.00095294
Spot 2     0.00299427     0.00095007
Spot 1     0.00305840     0.00095252
Spot 2     0.00299389     0.00095047
20MABNDA000208_PR046
Spot 1     0.00144817     0.00219656
Spot 2     0.00097495     0.00219716
Spot 1     0.00144807     0.00219661
Spot 2     0.00097491     0.00219719
Spot 1     0.00144798     0.00219683
Spot 2     0.00097487     0.00219723
Spot 1     0.00144813     0.00219667
Spot 2     0.00097456     0.00219735
20MABNDA000035_PR044
Spot 1     0.00073838     0.00125768
Spot 2     0.00068095     0.00125136
Spot 1     0.00073820     0.00125782
Spot 2     0.00068104     0.00125150
Spot 1     0.00073854     0.00125756
Spot 2     0.00068133     0.00125151
Spot 1     0.00073817     0.00125780
Spot 2     0.00068106     0.00125151
20MABNDA000035_PR045
Spot 1     0.00254568     0.00047398
Spot 2     0.00236821     0.00047311
Spot 1     0.00254572     0.00047403
Spot 2     0.00236817     0.00047319
Spot 1     0.00254566     0.00047390
Spot 2     0.00236815     0.00047301
Spot 1     0.00254566     0.00047403
Spot 2     0.00236823     0.00047307
20MABNDA000188_PR008
Spot 1     0.00289500     0.00025500
Spot 2     0.00289500     0.00025500
Spot 1     0.00289500     0.00025500
Spot 2     0.00289500     0.00025500
Spot 1     0.00289500     0.00025500
Spot 2     0.00289500     0.00025500
Spot 1     0.00289500     0.00025500
Spot 2     0.00289500     0.00025500
20MABNDA000188_PR018
Spot 1     0.00166902     0.00176272
Spot 2     0.00120178     0.00175995
Spot 1     0.00166901     0.00176286
Spot 2     0.00120188     0.00175995
Spot 1     0.00166899     0.00176266
Spot 2     0.00120191     0.00175997
Spot 1     0.00166900     0.00176284
Spot 2     0.00120163     0.00176000
20MABNDA000039_PR009
Spot 1     0.00066429     0.00117697
Spot 2     0.00061747     0.00118138
Spot 1     0.00066412     0.00117694
Spot 2     0.00061775     0.00118159
Spot 1     0.00066437     0.00117719
Spot 2     0.00061754     0.00118156
Spot 1     0.00066395     0.00117699
Spot 2     0.00061750     0.00118159
20MABNDA000039_PR011
Spot 1     0.00276788     0.00028258
Spot 2     0.00259233     0.00027762
Spot 1     0.00276803     0.00028251
Spot 2     0.00259270     0.00027789
Spot 1     0.00276797     0.00028266
Spot 2     0.00259260     0.00027770
Spot 1     0.00276790     0.00028242
Spot 2     0.00259257     0.00027791
20MABNDB000155_PR020
Spot 1     0.00062048     0.00113052
Spot 2     0.00068504     0.00112652
Spot 1     0.00062081     0.00113058
Spot 2     0.00068575     0.00112690
Spot 1     0.00062078     0.00113069
Spot 2     0.00068554     0.00112640
Spot 1     0.00062042     0.00113042
Spot 2     0.00068535     0.00112645
20MABNDB000155_PR022
Spot 1     0.00210939     0.00139897
Spot 2     0.00258230     0.00139429
Spot 1     0.00210933     0.00139900
Spot 2     0.00258207     0.00139411
Spot 1     0.00210932     0.00139908
Spot 2     0.00258237     0.00139422
Spot 1     0.00210928     0.00139913
Spot 2     0.00258234     0.00139418
20MABNDB000010_PR021
Spot 1     0.00287000     0.00115377
Spot 2     0.00292367     0.00115630
Spot 1     0.00286994     0.00115335
Spot 2     0.00292375     0.00115645
Spot 1     0.00286993     0.00115349
Spot 2     0.00292353     0.00115630
Spot 1     0.00286993     0.00115349
Spot 2     0.00292377     0.00115620
20MABNDB000010_PR023
Spot 1     0.00131265     0.00031396
Spot 2     0.00148767     0.00031267
Spot 1     0.00131250     0.00031389
Spot 2     0.00148763     0.00031280
Spot 1     0.00131252     0.00031422
Spot 2     0.00148773     0.00031271
Spot 1     0.00131262     0.00031395
Spot 2     0.00148756     0.00031268


****************************************************************coordonnees images transformees dans le repere MOUNT************************************************************************* 
20MABNDL000077_PR002
Spot 1     0.01228778     0.03557163    -0.07463200
Spot 2     0.01158509     0.03451311    -0.07463200
Spot 1     0.01228611     0.03557556    -0.07463200
Spot 2     0.01158509     0.03451311    -0.07463200
Spot 1     0.01228433     0.03557460    -0.07463200
Spot 2     0.01158509     0.03451311    -0.07463200
Spot 1     0.01228404     0.03557135    -0.07463200
Spot 2     0.01158509     0.03451311    -0.07463200
Spot 1     0.01228474     0.03556706    -0.07463200
Spot 2     0.01158509     0.03451311    -0.07463200
20MABNDL000077_PR003
Spot 1     0.01245733     0.03556410    -0.07463200
Spot 2     0.01260682     0.03555904    -0.07463200
Spot 1     0.01245695     0.03556451    -0.07463200
Spot 2     0.01260621     0.03555933    -0.07463200
Spot 1     0.01245660     0.03556470    -0.07463200
Spot 2     0.01260681     0.03555922    -0.07463200
Spot 1     0.01245624     0.03556517    -0.07463200
Spot 2     0.01260654     0.03555935    -0.07463200
Spot 1     0.01245600     0.03556511    -0.07463200
Spot 2     0.01260677     0.03555929    -0.07463200
20MABNDL000077_20MABNDM000168
Spot 1    -0.01259242     0.03524612    -0.00695400
Spot 2    -0.01387118     0.03436485    -0.00695400
Spot 1    -0.01259232     0.03524608    -0.00695400
Spot 2    -0.01387118     0.03436485    -0.00695400
Spot 1    -0.01259220     0.03524638    -0.00695400
Spot 2    -0.01387118     0.03436485    -0.00695400
Spot 1    -0.01259233     0.03524649    -0.00695400
Spot 2    -0.01387118     0.03436485    -0.00695400
Spot 1    -0.01259229     0.03524661    -0.00695400
Spot 2    -0.01387118     0.03436485    -0.00695400
20MABNDL000077_PR024
Spot 1    -0.01338095     0.03548848    -0.00695400
Spot 2    -0.01347828     0.03549860    -0.00695400
Spot 1    -0.01338051     0.03548849    -0.00695400
Spot 2    -0.01347867     0.03549893    -0.00695400
Spot 1    -0.01338082     0.03548856    -0.00695400
Spot 2    -0.01347882     0.03549916    -0.00695400
Spot 1    -0.01338076     0.03548872    -0.00695400
Spot 2    -0.01347873     0.03549904    -0.00695400
20MABNDM000020_PR013
Spot 1    -0.01359341    -0.03416241    -0.00523500
Spot 2    -0.01278295    -0.03417449    -0.00523500
Spot 1    -0.01297467    -0.03409871    -0.00523500
Spot 2    -0.01278295    -0.03417449    -0.00523500
Spot 1    -0.01297467    -0.03409871    -0.00523500
Spot 2    -0.01278295    -0.03417449    -0.00523500
Spot 1    -0.01297467    -0.03409871    -0.00523500
Spot 2    -0.01321967    -0.03406912    -0.00523500
20MABNDM000020_PR014
Spot 1    -0.01128044    -0.03427129    -0.00523500
Spot 2    -0.01128044    -0.03427129    -0.00523500
Spot 1    -0.01128044    -0.03427129    -0.00523500
Spot 2    -0.01128044    -0.03427129    -0.00523500
Spot 1    -0.01128044    -0.03427129    -0.00523500
Spot 2    -0.01128044    -0.03427129    -0.00523500
Spot 1    -0.01128044    -0.03427129    -0.00523500
Spot 2    -0.01128044    -0.03427129    -0.00523500
20MABNDM000020_20MABNDL000196
Spot 1     0.01270935    -0.03514611    -0.07583800
Spot 2     0.01238113    -0.03407361    -0.07583800
Spot 1     0.01270945    -0.03514639    -0.07583800
Spot 2     0.01238113    -0.03407361    -0.07583800
Spot 1     0.01270927    -0.03514645    -0.07583800
Spot 2     0.01238113    -0.03407361    -0.07583800
Spot 1     0.01270939    -0.03514651    -0.07583800
Spot 2     0.01238113    -0.03407361    -0.07583800
20MABNDM000020_PR035
Spot 1     0.01341548    -0.03546259    -0.07583800
Spot 2     0.01349866    -0.03549986    -0.07583800
Spot 1     0.01341534    -0.03546282    -0.07583800
Spot 2     0.01349864    -0.03549979    -0.07583800
Spot 1     0.01341363    -0.03546228    -0.07583800
Spot 2     0.01349867    -0.03549996    -0.07583800
Spot 1     0.01341340    -0.03546213    -0.07583800
Spot 2     0.01349864    -0.03549993    -0.07583800
20MABNDM000168_PR025
Spot 1    -0.01340245    -0.03457293    -0.00532900
Spot 2    -0.01340245    -0.03457293    -0.00532900
Spot 1    -0.01390305    -0.03443508    -0.00532900
Spot 2    -0.01390305    -0.03443508    -0.00532900
Spot 1    -0.01299288    -0.03447117    -0.00532900
Spot 2    -0.01390305    -0.03443508    -0.00532900
Spot 1    -0.01340245    -0.03457293    -0.00532900
Spot 2    -0.01340245    -0.03457293    -0.00532900
20MABNDM000168_PR026
Spot 1    -0.01173472    -0.03575953    -0.00532900
Spot 2    -0.01189603    -0.03575704    -0.00532900
Spot 1    -0.01173482    -0.03575926    -0.00532900
Spot 2    -0.01189613    -0.03575659    -0.00532900
Spot 1    -0.01173494    -0.03575875    -0.00532900
Spot 2    -0.01189595    -0.03575618    -0.00532900
Spot 1    -0.01173500    -0.03575900    -0.00532900
Spot 2    -0.01189609    -0.03575624    -0.00532900
20MABNDM000168_20MABNDL000077
Spot 1     0.01288423    -0.03530178    -0.07445100
Spot 2     0.01266474    -0.03531282    -0.07445100
Spot 1     0.01288450    -0.03530213    -0.07445100
Spot 2     0.01266455    -0.03531293    -0.07445100
Spot 1     0.01288425    -0.03530204    -0.07445100
Spot 2     0.01266401    -0.03531274    -0.07445100
Spot 1     0.01288405    -0.03530182    -0.07445100
Spot 2     0.01266418    -0.03531242    -0.07445100
20MABNDM000168_PR001
Spot 1     0.01361289    -0.03563263    -0.07445100
Spot 2     0.01371554    -0.03563590    -0.07445100
Spot 1     0.01361253    -0.03563252    -0.07445100
Spot 2     0.01371506    -0.03563604    -0.07445100
Spot 1     0.01361249    -0.03563242    -0.07445100
Spot 2     0.01371486    -0.03563583    -0.07445100
Spot 1     0.01361237    -0.03563245    -0.07445100
Spot 2     0.01371483    -0.03563566    -0.07445100
20MABNDL000196_PR036
Spot 1     0.01192605     0.03582832    -0.07483600
Spot 2     0.01209020     0.03582771    -0.07483600
Spot 1     0.01192596     0.03582820    -0.07483600
Spot 2     0.01209022     0.03582774    -0.07483600
Spot 1     0.01192580     0.03582812    -0.07483600
Spot 2     0.01209045     0.03582785    -0.07483600
Spot 1     0.01192583     0.03582817    -0.07483600
Spot 2     0.01209007     0.03582769    -0.07483600
20MABNDL000196_PR037
Spot 1     0.01344985     0.03536039    -0.07483600
Spot 2     0.01360462     0.03535897    -0.07483600
Spot 1     0.01344961     0.03536035    -0.07483600
Spot 2     0.01360454     0.03535904    -0.07483600
Spot 1     0.01344980     0.03536063    -0.07483600
Spot 2     0.01360477     0.03535895    -0.07483600
Spot 1     0.01344992     0.03536042    -0.07483600
Spot 2     0.01360471     0.03535902    -0.07483600
20MABNDL000196_20MABNDM000020
Spot 1    -0.01274950     0.03531394    -0.00611000
Spot 2    -0.01252823     0.03532329    -0.00611000
Spot 1    -0.01274942     0.03531386    -0.00611000
Spot 2    -0.01252834     0.03532350    -0.00611000
Spot 1    -0.01274937     0.03531386    -0.00611000
Spot 2    -0.01252839     0.03532377    -0.00611000
Spot 1    -0.01274940     0.03531389    -0.00611000
Spot 2    -0.01252827     0.03532377    -0.00611000
20MABNDL000196_PR012
Spot 1    -0.01348104     0.03559908    -0.00611000
Spot 2    -0.01355362     0.03564232    -0.00611000
Spot 1    -0.01348116     0.03559915    -0.00611000
Spot 2    -0.01355387     0.03564239    -0.00611000
Spot 1    -0.01348111     0.03559957    -0.00611000
Spot 2    -0.01355377     0.03564251    -0.00611000
Spot 1    -0.01348128     0.03559912    -0.00611000
Spot 2    -0.01355393     0.03564239    -0.00611000
20MABNDA000318_PR004
Spot 1    -0.01286656     0.01247015    -0.07310600
Spot 2    -0.01264834     0.01247038    -0.07310600
Spot 1    -0.01286648     0.01247044    -0.07310600
Spot 2    -0.01264809     0.01247000    -0.07310600
Spot 1    -0.01286675     0.01247050    -0.07310600
Spot 2    -0.01264827     0.01247038    -0.07310600
Spot 1    -0.01286631     0.01247041    -0.07310600
Spot 2    -0.01264803     0.01247030    -0.07310600
20MABNDA000334_PR005
Spot 1    -0.01311583     0.01254334    -0.07324100
Spot 2    -0.01283547     0.01254252    -0.07324100
Spot 1    -0.01311595     0.01254360    -0.07324100
Spot 2    -0.01283554     0.01254259    -0.07324100
Spot 1    -0.01311615     0.01254328    -0.07324100
Spot 2    -0.01283566     0.01254236    -0.07324100
Spot 1    -0.01311599     0.01254333    -0.07324100
Spot 2    -0.01283557     0.01254264    -0.07324100
20MABNDB000317_PR015
Spot 1    -0.01266531    -0.01249819    -0.07326100
Spot 2    -0.01244621    -0.01250192    -0.07326100
Spot 1    -0.01266543    -0.01249838    -0.07326100
Spot 2    -0.01244608    -0.01250246    -0.07326100
Spot 1    -0.01266543    -0.01249823    -0.07326100
Spot 2    -0.01244609    -0.01250207    -0.07326100
Spot 1    -0.01266528    -0.01249823    -0.07326100
Spot 2    -0.01244635    -0.01250213    -0.07326100
20MABNDB000146_PR016
Spot 1    -0.01275961    -0.01246279    -0.07450500
Spot 2    -0.01248410    -0.01245747    -0.07450500
Spot 1    -0.01275951    -0.01246265    -0.07450500
Spot 2    -0.01248403    -0.01245763    -0.07450500
Spot 1    -0.01275939    -0.01246269    -0.07450500
Spot 2    -0.01248375    -0.01245777    -0.07450500
Spot 1    -0.01275956    -0.01246261    -0.07450500
Spot 2    -0.01248398    -0.01245793    -0.07450500
20MABNDB000135_PR027
Spot 1    -0.01251299    -0.01319700    -0.07464700
Spot 2    -0.01229463    -0.01319753    -0.07464700
Spot 1    -0.01251289    -0.01319677    -0.07464700
Spot 2    -0.01229472    -0.01319739    -0.07464700
Spot 1    -0.01251307    -0.01319673    -0.07464700
Spot 2    -0.01229464    -0.01319768    -0.07464700
Spot 1    -0.01251297    -0.01319677    -0.07464700
Spot 2    -0.01229487    -0.01319756    -0.07464700
20MABNDB000126_PR028
Spot 1    -0.01253397    -0.01217158    -0.07500400
Spot 2    -0.01225184    -0.01216823    -0.07500400
Spot 1    -0.01253398    -0.01217160    -0.07500400
Spot 2    -0.01225182    -0.01216832    -0.07500400
Spot 1    -0.01253388    -0.01217157    -0.07500400
Spot 2    -0.01225186    -0.01216836    -0.07500400
Spot 1    -0.01253394    -0.01217155    -0.07500400
Spot 2    -0.01225184    -0.01216823    -0.07500400
20MABNDA000272_PR038
Spot 1    -0.01275993     0.01315652    -0.07417900
Spot 2    -0.01253866     0.01315692    -0.07417900
Spot 1    -0.01275989     0.01315661    -0.07417900
Spot 2    -0.01253898     0.01315648    -0.07417900
Spot 1    -0.01275962     0.01315642    -0.07417900
Spot 2    -0.01253890     0.01315685    -0.07417900
Spot 1    -0.01275989     0.01315642    -0.07417900
Spot 2    -0.01253896     0.01315642    -0.07417900
20MABNDA000003_PR039
Spot 1    -0.01280265     0.01212082    -0.07373400
Spot 2    -0.01308057     0.01212090    -0.07373400
Spot 1    -0.01280247     0.01212071    -0.07373400
Spot 2    -0.01308052     0.01212087    -0.07373400
Spot 1    -0.01280275     0.01212101    -0.07373400
Spot 2    -0.01308094     0.01212120    -0.07373400
Spot 1    -0.01280265     0.01212082    -0.07373400
Spot 2    -0.01308098     0.01212096    -0.07373400
20MABNDA000196_PR006
Spot 1    -0.01294062     0.01323467    -0.07967100
Spot 2    -0.01257432     0.01323285    -0.07967100
Spot 1    -0.01294042     0.01323517    -0.07967100
Spot 2    -0.01257418     0.01323281    -0.07967100
Spot 1    -0.01294061     0.01323488    -0.07967100
Spot 2    -0.01257433     0.01323271    -0.07967100
Spot 1    -0.01294072     0.01323501    -0.07967100
Spot 2    -0.01257459     0.01323271    -0.07967100
20MABNDA000324_PR007
Spot 1    -0.01255314     0.01281826    -0.07446800
Spot 2    -0.01234762     0.01281377    -0.07446800
Spot 1    -0.01255313     0.01281780    -0.07446800
Spot 2    -0.01234735     0.01281363    -0.07446800
Spot 1    -0.01255310     0.01281820    -0.07446800
Spot 2    -0.01234774     0.01281353    -0.07446800
Spot 1    -0.01255295     0.01281837    -0.07446800
Spot 2    -0.01234783     0.01281375    -0.07446800
20MABNDB000001_PR017
Spot 1    -0.01230047    -0.01355223    -0.07418400
Spot 2    -0.01193245    -0.01354684    -0.07418400
Spot 1    -0.01230059    -0.01355231    -0.07418400
Spot 2    -0.01193246    -0.01354662    -0.07418400
Spot 1    -0.01230061    -0.01355225    -0.07418400
Spot 2    -0.01193232    -0.01354660    -0.07418400
Spot 1    -0.01230053    -0.01355235    -0.07418400
Spot 2    -0.01193219    -0.01354704    -0.07418400
20MABNDB000260_PR019
Spot 1    -0.01240950    -0.01239745    -0.07492700
Spot 2    -0.01220526    -0.01239278    -0.07492700
Spot 1    -0.01240967    -0.01239740    -0.07492700
Spot 2    -0.01220586    -0.01239280    -0.07492700
Spot 1    -0.01240950    -0.01239724    -0.07492700
Spot 2    -0.01220546    -0.01239238    -0.07492700
Spot 1    -0.01240986    -0.01239720    -0.07492700
Spot 2    -0.01220551    -0.01239284    -0.07492700
20MABNDB000212_PR029
Spot 1    -0.01185082    -0.01328765    -0.07390500
Spot 2    -0.01221349    -0.01328152    -0.07390500
Spot 1    -0.01185133    -0.01328773    -0.07390500
Spot 2    -0.01221333    -0.01328125    -0.07390500
Spot 1    -0.01185129    -0.01328771    -0.07390500
Spot 2    -0.01221364    -0.01328198    -0.07390500
Spot 1    -0.01185144    -0.01328778    -0.07390500
Spot 2    -0.01221329    -0.01328176    -0.07390500
20MABNDB000128_PR030
Spot 1    -0.01245498    -0.01221550    -0.07353400
Spot 2    -0.01225001    -0.01221973    -0.07353400
Spot 1    -0.01245499    -0.01221537    -0.07353400
Spot 2    -0.01224986    -0.01221970    -0.07353400
Spot 1    -0.01245508    -0.01221553    -0.07353400
Spot 2    -0.01224972    -0.01221965    -0.07353400
Spot 1    -0.01245493    -0.01221552    -0.07353400
Spot 2    -0.01224984    -0.01221989    -0.07353400
20MABNDA000444_PR040
Spot 1    -0.01169942     0.01367591    -0.07412000
Spot 2    -0.01206646     0.01367443    -0.07412000
Spot 1    -0.01169936     0.01367594    -0.07412000
Spot 2    -0.01206653     0.01367413    -0.07412000
Spot 1    -0.01169961     0.01367595    -0.07412000
Spot 2    -0.01206638     0.01367420    -0.07412000
Spot 1    -0.01169966     0.01367585    -0.07412000
Spot 2    -0.01206631     0.01367392    -0.07412000
20MABNDA000053_PR041
Spot 1    -0.01241948     0.01212599    -0.07430100
Spot 2    -0.01220315     0.01212783    -0.07430100
Spot 1    -0.01241946     0.01212650    -0.07430100
Spot 2    -0.01220324     0.01212842    -0.07430100
Spot 1    -0.01241941     0.01212627    -0.07430100
Spot 2    -0.01220302     0.01212837    -0.07430100
Spot 1    -0.01241946     0.01212642    -0.07430100
Spot 2    -0.01220304     0.01212842    -0.07430100
20MABNDB000069_PR031
Spot 1    -0.01361993    -0.01186066    -0.07388500
Spot 2    -0.01361993    -0.01186066    -0.07388500
Spot 1    -0.01361993    -0.01186066    -0.07388500
Spot 2    -0.01361993    -0.01186066    -0.07388500
Spot 1    -0.01361993    -0.01186066    -0.07388500
Spot 2    -0.01361993    -0.01186066    -0.07388500
Spot 1    -0.01361993    -0.01186066    -0.07388500
Spot 2    -0.01361993    -0.01186066    -0.07388500
20MABNDB000069_PR033
Spot 1    -0.01202825    -0.01226813    -0.07388500
Spot 2    -0.01155768    -0.01226761    -0.07388500
Spot 1    -0.01202814    -0.01226827    -0.07388500
Spot 2    -0.01155784    -0.01226763    -0.07388500
Spot 1    -0.01202803    -0.01226809    -0.07388500
Spot 2    -0.01155767    -0.01226758    -0.07388500
Spot 1    -0.01202810    -0.01226811    -0.07388500
Spot 2    -0.01155763    -0.01226770    -0.07388500
20MABNDB000131_PR032
Spot 1    -0.01144276    -0.01303663    -0.07533000
Spot 2    -0.01138339    -0.01303285    -0.07533000
Spot 1    -0.01144238    -0.01303668    -0.07533000
Spot 2    -0.01138333    -0.01303288    -0.07533000
Spot 1    -0.01144282    -0.01303674    -0.07533000
Spot 2    -0.01138327    -0.01303284    -0.07533000
Spot 1    -0.01144297    -0.01303689    -0.07533000
Spot 2    -0.01138341    -0.01303271    -0.07533000
20MABNDB000131_PR034
Spot 1    -0.01329236    -0.01379741    -0.07533000
Spot 2    -0.01311580    -0.01379755    -0.07533000
Spot 1    -0.01329216    -0.01379734    -0.07533000
Spot 2    -0.01311585    -0.01379743    -0.07533000
Spot 1    -0.01329209    -0.01379746    -0.07533000
Spot 2    -0.01311593    -0.01379740    -0.07533000
Spot 1    -0.01329217    -0.01379744    -0.07533000
Spot 2    -0.01311600    -0.01379743    -0.07533000
20MABNDA000208_PR042
Spot 1    -0.01392903     0.01304288    -0.07273700
Spot 2    -0.01386427     0.01304529    -0.07273700
Spot 1    -0.01392916     0.01304300    -0.07273700
Spot 2    -0.01386433     0.01304561    -0.07273700
Spot 1    -0.01392941     0.01304308    -0.07273700
Spot 2    -0.01386499     0.01304601    -0.07273700
Spot 1    -0.01392912     0.01304350    -0.07273700
Spot 2    -0.01386461     0.01304561    -0.07273700
20MABNDA000208_PR046
Spot 1    -0.01231780     0.01180087    -0.07273700
Spot 2    -0.01184458     0.01180069    -0.07273700
Spot 1    -0.01231770     0.01180082    -0.07273700
Spot 2    -0.01184454     0.01180066    -0.07273700
Spot 1    -0.01231761     0.01180060    -0.07273700
Spot 2    -0.01184450     0.01180062    -0.07273700
Spot 1    -0.01231776     0.01180076    -0.07273700
Spot 2    -0.01184419     0.01180050    -0.07273700
20MABNDA000035_PR044
Spot 1    -0.01157303     0.01299957    -0.07483200
Spot 2    -0.01151556     0.01300548    -0.07483200
Spot 1    -0.01157285     0.01299943    -0.07483200
Spot 2    -0.01151565     0.01300534    -0.07483200
Spot 1    -0.01157319     0.01299969    -0.07483200
Spot 2    -0.01151594     0.01300533    -0.07483200
Spot 1    -0.01157282     0.01299945    -0.07483200
Spot 2    -0.01151567     0.01300533    -0.07483200
20MABNDA000035_PR045
Spot 1    -0.01337471     0.01379610    -0.07483200
Spot 2    -0.01319724     0.01379571    -0.07483200
Spot 1    -0.01337475     0.01379605    -0.07483200
Spot 2    -0.01319720     0.01379563    -0.07483200
Spot 1    -0.01337469     0.01379618    -0.07483200
Spot 2    -0.01319718     0.01379581    -0.07483200
Spot 1    -0.01337469     0.01379605    -0.07483200
Spot 2    -0.01319726     0.01379575    -0.07483200
20MABNDA000188_PR008
Spot 1    -0.01391227     0.01380893    -0.07502000
Spot 2    -0.01391227     0.01380893    -0.07502000
Spot 1    -0.01391227     0.01380893    -0.07502000
Spot 2    -0.01391227     0.01380893    -0.07502000
Spot 1    -0.01391227     0.01380893    -0.07502000
Spot 2    -0.01391227     0.01380893    -0.07502000
Spot 1    -0.01391227     0.01380893    -0.07502000
Spot 2    -0.01391227     0.01380893    -0.07502000
20MABNDA000188_PR018
Spot 1    -0.01269925     0.01229077    -0.07502000
Spot 2    -0.01223200     0.01228954    -0.07502000
Spot 1    -0.01269924     0.01229063    -0.07502000
Spot 2    -0.01223210     0.01228954    -0.07502000
Spot 1    -0.01269922     0.01229083    -0.07502000
Spot 2    -0.01223213     0.01228952    -0.07502000
Spot 1    -0.01269923     0.01229065    -0.07502000
Spot 2    -0.01223185     0.01228949    -0.07502000
20MABNDA000039_PR009
Spot 1    -0.01162643     0.01306717    -0.07444800
Spot 2    -0.01157963     0.01306255    -0.07444800
Spot 1    -0.01162626     0.01306720    -0.07444800
Spot 2    -0.01157991     0.01306234    -0.07444800
Spot 1    -0.01162651     0.01306695    -0.07444800
Spot 2    -0.01157970     0.01306237    -0.07444800
Spot 1    -0.01162609     0.01306714    -0.07444800
Spot 2    -0.01157966     0.01306234    -0.07444800
20MABNDA000039_PR011
Spot 1    -0.01372613     0.01397065    -0.07444800
Spot 2    -0.01355056     0.01397485    -0.07444800
Spot 1    -0.01372628     0.01397072    -0.07444800
Spot 2    -0.01355093     0.01397458    -0.07444800
Spot 1    -0.01372622     0.01397057    -0.07444800
Spot 2    -0.01355083     0.01397477    -0.07444800
Spot 1    -0.01372615     0.01397081    -0.07444800
Spot 2    -0.01355080     0.01397456    -0.07444800
20MABNDB000155_PR020
Spot 1    -0.01364569    -0.01312684    -0.07501700
Spot 2    -0.01358108    -0.01312996    -0.07501700
Spot 1    -0.01364536    -0.01312678    -0.07501700
Spot 2    -0.01358038    -0.01312957    -0.07501700
Spot 1    -0.01364539    -0.01312667    -0.07501700
Spot 2    -0.01358058    -0.01313007    -0.07501700
Spot 1    -0.01364575    -0.01312694    -0.07501700
Spot 2    -0.01358077    -0.01313002    -0.07501700
20MABNDB000155_PR022
Spot 1    -0.01216059    -0.01283803    -0.07501700
Spot 2    -0.01168766    -0.01283624    -0.07501700
Spot 1    -0.01216065    -0.01283800    -0.07501700
Spot 2    -0.01168789    -0.01283642    -0.07501700
Spot 1    -0.01216067    -0.01283793    -0.07501700
Spot 2    -0.01168759    -0.01283631    -0.07501700
Spot 1    -0.01216071    -0.01283788    -0.07501700
Spot 2    -0.01168762    -0.01283635    -0.07501700
20MABNDB000010_PR021
Spot 1    -0.01158102    -0.01292472    -0.07358200
Spot 2    -0.01152740    -0.01292128    -0.07358200
Spot 1    -0.01158107    -0.01292514    -0.07358200
Spot 2    -0.01152732    -0.01292113    -0.07358200
Spot 1    -0.01158108    -0.01292500    -0.07358200
Spot 2    -0.01152754    -0.01292128    -0.07358200
Spot 1    -0.01158108    -0.01292500    -0.07358200
Spot 2    -0.01152730    -0.01292138    -0.07358200
20MABNDB000010_PR023
Spot 1    -0.01312392    -0.01379079    -0.07358200
Spot 2    -0.01294890    -0.01378912    -0.07358200
Spot 1    -0.01312407    -0.01379086    -0.07358200
Spot 2    -0.01294894    -0.01378899    -0.07358200
Spot 1    -0.01312405    -0.01379053    -0.07358200
Spot 2    -0.01294884    -0.01378907    -0.07358200
Spot 1    -0.01312395    -0.01379080    -0.07358200
Spot 2    -0.01294901    -0.01378911    -0.07358200


*****************************************************************coordonnees du prisme dans le repere MOUNT********************************************************************************** 
20MABNDL000077_PR002
    0.05002207     0.04757459     3.70691538
    0.05006313     0.04747761     3.70691538
    0.05010732     0.04750139     3.70691442
    0.05011426     0.04758161     3.70691442
    0.05009700     0.04768749     3.70691419
20MABNDL000077_PR003
    0.02099971     0.02120617     3.89601707
    0.02102550     0.02118801     3.89601660
    0.02101899     0.02118600     3.89601660
    0.02103519     0.02117027     3.89601660
    0.02103548     0.02117338     3.89601660
20MABNDL000077_20MABNDM000168
    0.02680319     0.06909508    -5.46851063
    0.02679957     0.06909648    -5.46851063
    0.02679498     0.06908596    -5.46851063
    0.02679972     0.06908168    -5.46851063
    0.02679832     0.06907733    -5.46851063
20MABNDL000077_PR024
    0.04536312     0.01807453    -5.89640427
    0.04536092     0.01806164    -5.89640427
    0.04537858     0.01804974    -5.89640427
    0.04537275     0.01804812    -5.89640427
20MABNDM000020_PR013
    0.01517120    -0.08373205    -3.80207634
   -0.00017990    -0.08531326    -3.80213857
   -0.00017990    -0.08531326    -3.80213857
    0.01065485    -0.08792625    -3.80205107
20MABNDM000020_PR014
   -0.09646920    -0.08948103    -4.74775267
   -0.09646920    -0.08948103    -4.74775267
   -0.09646920    -0.08948103    -4.74775267
   -0.09646920    -0.08948103    -4.74775267
20MABNDM000020_20MABNDL000196
    0.02684952    -0.07126313     5.39469624
    0.02684594    -0.07125311     5.39469719
    0.02685239    -0.07125095     5.39469719
    0.02684809    -0.07124881     5.39469719
20MABNDM000020_PR035
   -0.04234657    -0.00678422     5.80095530
   -0.04234041    -0.00677805     5.80095577
   -0.04227569    -0.00679230     5.80095673
   -0.04226567    -0.00679923     5.80095673
20MABNDM000168_PR025
    0.02288022    -0.07367942    -3.78843594
    0.04762687    -0.08049102    -3.78804064
    0.02512957    -0.07960243    -3.78834915
    0.02288022    -0.07367942    -3.78843594
20MABNDM000168_PR026
   -0.05786207    -0.01395894    -3.98429012
   -0.05785678    -0.01397766    -3.98429012
   -0.05785824    -0.01400161    -3.98429084
   -0.05785307    -0.01399352    -3.98429084
20MABNDM000168_20MABNDL000077
    0.01164729    -0.03834282     5.38884687
    0.01164430    -0.03832589     5.38884687
    0.01167253    -0.03833636     5.38884687
    0.01167405    -0.03835543     5.38884687
20MABNDM000168_PR001
   -0.05741838    -0.01317386     5.81470394
   -0.05738582    -0.01317318     5.81470490
   -0.05737630    -0.01318494     5.81470490
   -0.05737056    -0.01319007     5.81470490
20MABNDL000196_PR036
    0.05137123     0.00595063     3.68777180
    0.05137319     0.00595285     3.68777180
    0.05137147     0.00595211     3.68777180
    0.05138005     0.00595483     3.68777132
20MABNDL000196_PR037
   -0.02513020     0.02857299     3.88381290
   -0.02512193     0.02857223     3.88381338
   -0.02513277     0.02856730     3.88381290
   -0.02513434     0.02857117     3.88381290
20MABNDL000196_20MABNDM000020
   -0.01573385     0.03781584    -5.47473907
   -0.01573267     0.03781082    -5.47473907
   -0.01573284     0.03780112    -5.47473907
   -0.01573605     0.03779998    -5.47473907
20MABNDL000196_PR012
    0.05229929     0.01447869    -5.91537285
    0.05231339     0.01447315    -5.91537189
    0.05230758     0.01445243    -5.91537189
    0.05232035     0.01447446    -5.91537189
20MABNDA000318_PR004
   -0.00842999     0.03836494     2.74965906
   -0.00843605     0.03836657     2.74965906
   -0.00842777     0.03835852     2.74965906
   -0.00844026     0.03836161     2.74965906
20MABNDA000334_PR005
   -0.00428339     0.03166530     2.14977217
   -0.00428068     0.03166058     2.14977217
   -0.00427610     0.03166843     2.14977217
   -0.00427968     0.03166372     2.14977217
20MABNDB000317_PR015
   -0.01740691    -0.03399112     2.75129032
   -0.01740706    -0.03397783     2.75129032
   -0.01740695    -0.03398766     2.75129032
   -0.01740496    -0.03398655     2.75129032
20MABNDB000146_PR016
   -0.01355543    -0.03177913     2.15201283
   -0.01355788    -0.03177885     2.15201283
   -0.01356363    -0.03177628     2.15201283
   -0.01355788    -0.03177512     2.15201283
20MABNDB000135_PR027
   -0.02103111    -0.00985574     2.74937105
   -0.02103137    -0.00986252     2.74937105
   -0.02102967    -0.00985796     2.74937105
   -0.02102712    -0.00985945     2.74937105
20MABNDB000126_PR028
   -0.02036023    -0.03900629     2.14679456
   -0.02036038    -0.03900472     2.14679456
   -0.02036124    -0.03900458     2.14679456
   -0.02036066    -0.03900671     2.14679456
20MABNDA000272_PR038
   -0.01318196     0.01093889     2.74965882
   -0.01317682     0.01094529     2.74965882
   -0.01318324     0.01094201     2.74965882
   -0.01317718     0.01094987     2.74965882
20MABNDA000003_PR039
   -0.00591492     0.04138732     2.14891338
   -0.00591820     0.04138933     2.14891338
   -0.00590822     0.04138030     2.14891338
   -0.00590906     0.04138645     2.14891338
20MABNDA000196_PR006
   -0.01040846     0.01023888     1.64206433
   -0.01041213     0.01023391     1.64206433
   -0.01040847     0.01023812     1.64206433
   -0.01040455     0.01023676     1.64206433
20MABNDA000324_PR007
   -0.02526968     0.02751259     2.95549345
   -0.02527528     0.02752436     2.95549345
   -0.02526815     0.02751851     2.95549345
   -0.02526927     0.02751082     2.95549345
20MABNDB000001_PR017
   -0.02415520    -0.00280961     1.64035940
   -0.02415380    -0.00281116     1.64035940
   -0.02415512    -0.00281202     1.64035940
   -0.02415735    -0.00280609     1.64035940
20MABNDB000260_PR019
   -0.02435120    -0.03845819     2.95627403
   -0.02433603    -0.03845867     2.95627451
   -0.02434721    -0.03847013     2.95627403
   -0.02433911    -0.03846169     2.95627403
20MABNDB000212_PR029
   -0.02545155    -0.00832833     1.64223695
   -0.02544773    -0.00833045     1.64223695
   -0.02544469    -0.00832259     1.64223719
   -0.02544690    -0.00832432     1.64223695
20MABNDB000128_PR030
   -0.01928306    -0.04683809     2.95496273
   -0.01928581    -0.04684124     2.95496273
   -0.01928680    -0.04683908     2.95496273
   -0.01928740    -0.04683456     2.95496273
20MABNDA000444_PR040
   -0.02992482     0.00090137     1.64491177
   -0.02992475     0.00090433     1.64491177
   -0.02992364     0.00090347     1.64491177
   -0.02992381     0.00090763     1.64491177
20MABNDA000053_PR041
   -0.02642355     0.05076290     2.95450902
   -0.02642221     0.05074127     2.95450926
   -0.02642760     0.05074687     2.95450902
   -0.02642630     0.05074292     2.95450926
20MABNDB000069_PR031
    0.10999375    -0.16176865     9.20229721
    0.10999375    -0.16176865     9.20229721
    0.10999375    -0.16176865     9.20229721
    0.10999375    -0.16176865     9.20229721
20MABNDB000069_PR033
   -0.02678546    -0.02685418     1.28394198
   -0.02678506    -0.02685283     1.28394198
   -0.02678745    -0.02685470     1.28394198
   -0.02678723    -0.02685359     1.28394198
20MABNDB000131_PR032
   -0.18796641    -0.02985752    11.00642014
   -0.18799859    -0.02985184    11.00642014
   -0.18797082    -0.02985024    11.00642014
   -0.18794966    -0.02984867    11.00642204
20MABNDB000131_PR034
    0.01432488     0.01639938     3.43337965
    0.01432126     0.01639481     3.43337965
    0.01432170     0.01639686     3.43337965
    0.01432512     0.01639710     3.43337965
20MABNDA000208_PR042
    0.13249630     0.01453566     9.20144844
    0.13250798     0.01450866     9.20144844
    0.13256384     0.01447925     9.20144749
    0.13252273     0.01447798     9.20144844
20MABNDA000208_PR046
   -0.02349294     0.03452340     1.28208315
   -0.02349414     0.03452408     1.28208315
   -0.02349525     0.03452630     1.28208315
   -0.02349662     0.03452595     1.28208315
20MABNDA000035_PR044
   -0.17999026     0.02677924    11.00802231
   -0.17999670     0.02679976    11.00802231
   -0.17995077     0.02678115    11.00802326
   -0.17999741     0.02679903    11.00802231
20MABNDA000035_PR045
    0.01460895    -0.01884001     3.43483829
    0.01460897    -0.01883705     3.43483829
    0.01460710    -0.01884411     3.43483829
    0.01460895    -0.01883979     3.43483829
20MABNDA000188_PR008
    0.13650158    -0.07885031     9.20339394
    0.13650158    -0.07885031     9.20339394
    0.13650158    -0.07885031     9.20339394
    0.13650158    -0.07885031     9.20339394
20MABNDA000188_PR018
   -0.01665491     0.02627402     1.28357673
   -0.01665413     0.02627521     1.28357661
   -0.01665406     0.02627367     1.28357673
   -0.01665635     0.02627548     1.28357661
20MABNDA000039_PR009
   -0.17107165     0.02516519    11.00701714
   -0.17106357     0.02517832    11.00701714
   -0.17106056     0.02519439    11.00701714
   -0.17109427     0.02518211    11.00701714
20MABNDA000039_PR011
    0.03076979    -0.02451824     3.43347120
    0.03078167    -0.02451373     3.43347120
    0.03077801    -0.02451463     3.43347120
    0.03077573    -0.02451530     3.43347120
20MABNDB000155_PR020
    0.10207939    -0.00902387     9.20028305
    0.10201593    -0.00905175     9.20028496
    0.10203034    -0.00902761     9.20028496
    0.10206391    -0.00901364     9.20028305
20MABNDB000155_PR022
   -0.02554857    -0.01753169     1.28070879
   -0.02554611    -0.01753038     1.28070879
   -0.02554856    -0.01753204     1.28070879
   -0.02554796    -0.01753211     1.28070879
20MABNDB000010_PR021
   -0.17626046    -0.03381526    11.00694561
   -0.17626226    -0.03379545    11.00694561
   -0.17624536    -0.03379443    11.00694561
   -0.17626312    -0.03378737    11.00694561
20MABNDB000010_PR023
    0.00429301     0.02020809     3.43377209
    0.00429739     0.02020679     3.43377209
    0.00429474     0.02020124     3.43377209
    0.00429622     0.02020815     3.43377209


*****************************************************************coordonnees du prisme dans le repere ATLAS********************************************************************************** 
20MABNDL000077_PR002 0.00000000
    2.80946636    -3.69448662     6.48622179
    2.80956340    -3.69444561     6.48622179
    2.80953956    -3.69440126     6.48622084
    2.80945945    -3.69439435     6.48622084
    2.80935359    -3.69441152     6.48622084
20MABNDL000077_PR003 0.00000000
    2.83601093    -3.72375059     6.67526150
    2.83602929    -3.72372484     6.67526102
    2.83603120    -3.72373128     6.67526102
    2.83604693    -3.72371507     6.67526102
    2.83604383    -3.72371483     6.67526102
20MABNDL000077_20MABNDM000168 0.00000000
    2.77893853    -3.70637798    -2.68920016
    2.77893734    -3.70638180    -2.68920016
    2.77894783    -3.70638633    -2.68920016
    2.77895212    -3.70638156    -2.68920016
    2.77895641    -3.70638299    -2.68920016
20MABNDL000077_PR024 0.00000000
    2.82954526    -3.68730640    -3.11712050
    2.82955813    -3.68730855    -3.11712050
    2.82957006    -3.68729091    -3.11712050
    2.82957172    -3.68729687    -3.11712050
20MABNDM000020_PR013 0.00000000
   -2.76858306    -3.75467491     6.48589134
   -2.76699734    -3.73932457     6.48596525
   -2.76699734    -3.73932457     6.48596525
   -2.76438761    -3.75015998     6.48586893
20MABNDM000020_PR014 0.00000000
   -2.76261067    -3.64375567     7.43165112
   -2.76261067    -3.64375567     7.43165112
   -2.76261067    -3.64375567     7.43165112
   -2.76261067    -3.64375567     7.43165112
20MABNDM000020_20MABNDL000196 0.00000000
   -2.78289604    -3.75935507    -2.71088481
   -2.78290606    -3.75935149    -2.71088576
   -2.78290820    -3.75935793    -2.71088576
   -2.78291035    -3.75935364    -2.71088576
20MABNDM000020_PR035 0.00000000
   -2.84743524    -3.68983030    -3.11707807
   -2.84744143    -3.68983650    -3.11707854
   -2.84742713    -3.68990111    -3.11707973
   -2.84742022    -3.68991113    -3.11707973
20MABNDM000168_PR025 0.00000000
    2.77955604    -3.76819539    -6.47904968
    2.77273798    -3.79294014    -6.47864485
    2.77363253    -3.77044320    -6.47896194
    2.77955604    -3.76819539    -6.47904968
20MABNDM000168_PR026 0.00000000
    2.83928609    -3.68754172    -6.67493773
    2.83926725    -3.68754697    -6.67493773
    2.83924341    -3.68754554    -6.67493820
    2.83925152    -3.68755078    -6.67493820
20MABNDM000168_20MABNDL000077 0.00000000
    2.81545258    -3.75355959     2.69822621
    2.81546950    -3.75355649     2.69822621
    2.81545901    -3.75358462     2.69822621
    2.81543994    -3.75358629     2.69822621
20MABNDM000168_PR001 0.00000000
    2.84066582    -3.68434215     3.12405586
    2.84066629    -3.68437481     3.12405682
    2.84065461    -3.68438411     3.12405682
    2.84064960    -3.68439007     3.12405682
20MABNDL000196_PR036 0.00000000
   -2.84765697    -3.69290328    -6.47909546
   -2.84765458    -3.69290137    -6.47909546
   -2.84765530    -3.69290304    -6.47909546
   -2.84765267    -3.69289446    -6.47909498
20MABNDL000196_PR037 0.00000000
   -2.82500315    -3.76957655    -6.67506552
   -2.82500386    -3.76956820    -6.67506599
   -2.82500887    -3.76957917    -6.67506552
   -2.82500505    -3.76958060    -6.67506552
20MABNDL000196_20MABNDM000020 0.00000000
   -2.81556249    -3.75147057     2.68347335
   -2.81556749    -3.75146937     2.68347335
   -2.81557727    -3.75146961     2.68347335
   -2.81557846    -3.75147271     2.68347335
20MABNDL000196_PR012 0.00000000
   -2.83892179    -3.68303847     3.12404418
   -2.83892727    -3.68302441     3.12404323
   -2.83894801    -3.68303013     3.12404323
   -2.83892608    -3.68301725     3.12404323
20MABNDA000318_PR004 0.00000000
    2.61457324    -4.19698906     3.83363366
    2.61456728    -4.19698906     3.83363199
    2.61457539    -4.19698906     3.83364010
    2.61456299    -4.19698906     3.83363700
20MABNDA000334_PR005 0.00000000
    2.61671519    -4.19703102     5.89759541
    2.61671782    -4.19703102     5.89760017
    2.61672258    -4.19703102     5.89759254
    2.61671901    -4.19703102     5.89759731
20MABNDB000317_PR015 0.00000000
   -2.61120033    -4.19700527     3.83602428
   -2.61120009    -4.19700575     3.83603764
   -2.61120033    -4.19700527     3.83602786
   -2.61120224    -4.19700527     3.83602881
20MABNDB000146_PR016 0.00000000
   -2.61273980    -4.19702482     5.89857101
   -2.61273742    -4.19702482     5.89857149
   -2.61273170    -4.19702482     5.89857388
   -2.61273742    -4.19702482     5.89857531
20MABNDB000135_PR027 0.00000000
    2.60383224    -4.19700432    -3.82550502
    2.60383201    -4.19700432    -3.82549834
    2.60383368    -4.19700432    -3.82550287
    2.60383630    -4.19700432    -3.82550144
20MABNDB000126_PR028 0.00000000
    2.60555696    -4.19702148    -5.89321375
    2.60555696    -4.19702148    -5.89321518
    2.60555601    -4.19702148    -5.89321518
    2.60555673    -4.19702148    -5.89321327
20MABNDA000272_PR038 0.00000000
   -2.61135483    -4.19698286    -3.82754540
   -2.61136007    -4.19698286    -3.82753897
   -2.61135364    -4.19698286    -3.82754230
   -2.61135960    -4.19698286    -3.82753444
20MABNDA000003_PR039 0.00000000
   -2.61581635    -4.19702291    -5.89137936
   -2.61581302    -4.19702291    -5.89137745
   -2.61582303    -4.19702291    -5.89138651
   -2.61582208    -4.19702291    -5.89138031
20MABNDA000196_PR006 0.00000000
    2.58486891    -4.19496393     6.54819536
    2.58487272    -4.19496393     6.54819059
    2.58486891    -4.19496393     6.54819489
    2.58486509    -4.19496393     6.54819345
20MABNDA000324_PR007 0.00000000
    2.59404516    -4.13996458     6.94840240
    2.59403944    -4.13996458     6.94839096
    2.59404659    -4.13996458     6.94839668
    2.59404540    -4.13996458     6.94840431
20MABNDB000001_PR017 0.00000000
   -2.59785652    -4.19505882     6.53813791
   -2.59785509    -4.19505882     6.53813934
   -2.59785652    -4.19505882     6.53814030
   -2.59785867    -4.19505882     6.53813410
20MABNDB000260_PR019 0.00000000
   -2.60441065    -4.13996029     6.94218588
   -2.60442591    -4.13995981     6.94218540
   -2.60441470    -4.13996029     6.94217396
   -2.60442281    -4.13996029     6.94218206
20MABNDB000212_PR029 0.00000000
    2.59912920    -4.19501162    -6.54731607
    2.59912539    -4.19501162    -6.54731846
    2.59912252    -4.19501114    -6.54731035
    2.59912467    -4.19501162    -6.54731226
20MABNDB000128_PR030 0.00000000
    2.60957575    -4.14002705    -6.93128300
    2.60957289    -4.14002705    -6.93127966
    2.60957193    -4.14002705    -6.93128204
    2.60957122    -4.14002705    -6.93128633
20MABNDA000444_PR040 0.00000000
   -2.60509729    -4.19509745    -6.54008150
   -2.60509729    -4.19509745    -6.54008436
   -2.60509610    -4.19509745    -6.54008389
   -2.60509634    -4.19509745    -6.54008770
20MABNDA000053_PR041 0.00000000
   -2.59411836    -4.14012241    -6.92715073
   -2.59411979    -4.14012241    -6.92717218
   -2.59411430    -4.14012241    -6.92716646
   -2.59411573    -4.14012241    -6.92717075
20MABNDB000069_PR031 0.00000000
    3.69177032     3.84800911    -7.77863359
    3.69177032     3.84800911    -7.77863359
    3.69177032     3.84800911    -7.77863359
    3.69177032     3.84800911    -7.77863359
20MABNDB000069_PR033 0.00000000
    3.53351402    -4.07046175    -7.87881708
    3.53351426    -4.07046175    -7.87881851
    3.53351188    -4.07046175    -7.87881660
    3.53351212    -4.07046175    -7.87881804
20MABNDB000131_PR032 0.00000000
    3.86876893     3.64757013   -12.94050026
    3.86880112     3.64757013   -12.94049454
    3.86877322     3.64757013   -12.94049263
    3.86875200     3.64757204   -12.94049168
20MABNDB000131_PR034 0.00000000
    3.67346454    -3.92563677   -12.89154816
    3.67346811    -3.92563677   -12.89155293
    3.67346764    -3.92563677   -12.89155102
    3.67346430    -3.92563677   -12.89155006
20MABNDA000208_PR042 0.00000000
   -3.68257451     3.84912848    -7.89695072
   -3.68258619     3.84912848    -7.89697790
   -3.68264198     3.84912753    -7.89700699
   -3.68260074     3.84912848    -7.89700842
20MABNDA000208_PR046 0.00000000
   -3.53227258    -4.07033873    -7.87399483
   -3.53227139    -4.07033873    -7.87399435
   -3.53227019    -4.07033873    -7.87399197
   -3.53226876    -4.07033873    -7.87399244
20MABNDA000035_PR044 0.00000000
   -3.86923122     3.64757752   -12.93245792
   -3.86923766     3.64757752   -12.93247890
   -3.86919165     3.64757848   -12.93245983
   -3.86923838     3.64757752   -12.93247795
20MABNDA000035_PR045 0.00000000
   -3.67611933    -3.92564893   -12.88754463
   -3.67611933    -3.92564893   -12.88754749
   -3.67612123    -3.92564893   -12.88753986
   -3.67611933    -3.92564893   -12.88754463
20MABNDA000188_PR008 0.00000000
    3.54951787     3.84898496     8.09023857
    3.54951787     3.84898496     8.09023857
    3.54951787     3.84898496     8.09023857
    3.54951787     3.84898496     8.09023857
20MABNDA000188_PR018 0.00000000
    3.52048898    -4.07060432     7.89716768
    3.52048969    -4.07060432     7.89716625
    3.52048969    -4.07060432     7.89716816
    3.52048755    -4.07060432     7.89716625
20MABNDA000039_PR009 0.00000000
    3.87524366     3.64747548    12.93645954
    3.87523556     3.64747548    12.93647194
    3.87523246     3.64747548    12.93648815
    3.87526631     3.64747548    12.93647575
20MABNDA000039_PR011 0.00000000
    3.66425443    -3.92580462    12.88431835
    3.66424251    -3.92580462    12.88432312
    3.66424608    -3.92580462    12.88432217
    3.66424847    -3.92580462    12.88432121
20MABNDB000155_PR020 0.00000000
   -3.68073177     3.84881616     7.89784336
   -3.68066835     3.84881830     7.89781523
   -3.68068266     3.84881830     7.89783955
   -3.68071628     3.84881616     7.89785337
20MABNDB000155_PR022 0.00000000
   -3.53443193    -4.07043648     7.89052773
   -3.53443456    -4.07043648     7.89052868
   -3.53443193    -4.07043648     7.89052725
   -3.53443265    -4.07043648     7.89052725
20MABNDB000010_PR021 0.00000000
   -3.86209750     3.64768314    12.93564510
   -3.86209941     3.64768314    12.93562508
   -3.86208248     3.64768314    12.93562412
   -3.86210036     3.64768314    12.93561745
20MABNDB000010_PR023 0.00000000
   -3.68537331    -3.92560458    12.88506794
   -3.68536901    -3.92560458    12.88506889
   -3.68537164    -3.92560458    12.88507462
   -3.68537021    -3.92560458    12.88506794


*****************************************************************Rapport********************************************************************************** 
CAM-LBA-US_EBA-US-HO-H         2017.07.12.01.44.55     2.80947647    -3.69442787     6.48622122     0.00007352     0.00003425     0.00000047 0.00000000 VRAI 
CAM-LBA-US_JDA-US-H            2017.07.12.01.44.55     2.83603244    -3.72372732     6.67526112     0.00001276     0.00001319     0.00000019 0.00000000 VRAI 
CAM-LBA-US_CAM-LBC-US          2017.07.12.01.44.55     2.77894645    -3.70638213    -2.68920016     0.00000747     0.00000268     0.00000000 0.00000000 VRAI 
CAM-LBA-US_EBC-US-IP-H         2017.07.12.01.44.55     2.82956129    -3.68730068    -3.11712050     0.00001064     0.00000715     0.00000000 0.00000000 VRAI 
CAM-LBA-USA_EBA-USA-HO-H       2017.07.12.01.44.55    -2.76674134    -3.74587101     6.48592269     0.00150525     0.00673824     0.00004329 0.00000000 VRAI 
CAM-LBA-USA_JDA-USA-H          2017.07.12.01.44.55    -2.76261067    -3.64375567     7.43165112     0.00000000     0.00000000     0.00000000 0.00000000 VRAI 
CAM-LBA-USA_CAM-LBC-USA        2017.07.12.01.44.55    -2.78290516    -3.75935453    -2.71088552     0.00000548     0.00000234     0.00000041 0.00000000 VRAI 
CAM-LBA-USA_EBC-USA-IP-H       2017.07.12.01.44.55    -2.84743100    -3.68986976    -3.11707902     0.00000803     0.00003660     0.00000073 0.00000000 VRAI 
CAM-LBC-US_EBC-US-HO-H         2017.07.12.01.44.55     2.77637064    -3.77494353    -6.47892654     0.00320105     0.01043079     0.00016653 0.00000000 VRAI 
CAM-LBC-US_JDC-US-H            2017.07.12.01.44.55     2.83926207    -3.68754625    -6.67493796     0.00001630     0.00000324     0.00000024 0.00000000 VRAI 
CAM-LBC-US_CAM-LBA-US          2017.07.12.01.44.55     2.81545526    -3.75357175     2.69822621     0.00001071     0.00001377     0.00000000 0.00000000 VRAI 
CAM-LBC-US_EBA-US-IP-H         2017.07.12.01.44.55     2.84065908    -3.68437278     3.12405658     0.00000720     0.00001851     0.00000041 0.00000000 VRAI 
CAM-LBC-USA_EBC-USA-HO-H       2017.07.12.01.44.55    -2.84765488    -3.69290054    -6.47909534     0.00000154     0.00000359     0.00000021 0.00000000 VRAI 
CAM-LBC-USA_JDC-USA-H          2017.07.12.01.44.55    -2.82500523    -3.76957613    -6.67506564     0.00000221     0.00000480     0.00000021 0.00000000 VRAI 
CAM-LBC-USA_CAM-LBA-USA        2017.07.12.01.44.55    -2.81557143    -3.75147057     2.68347335     0.00000669     0.00000132     0.00000000 0.00000000 VRAI 
CAM-LBC-USA_EBA-USA-IP-H       2017.07.12.01.44.55    -2.83893079    -3.68302757     3.12404346     0.00001015     0.00000778     0.00000041 0.00000000 VRAI 
CAM-EBA-US-IP_EBA-US-IP        2017.07.12.01.44.55     2.61456972    -4.19698906     3.83363569     0.00000489     0.00000000     0.00000312 0.00000000 VRAI 
CAM-EBA-US-HO_EBA-US-HO        2017.07.12.01.44.55     2.61671865    -4.19703102     5.89759636     0.00000266     0.00000000     0.00000278 0.00000000 VRAI 
CAM-EBA-USA-IP_EBA-USA-IP      2017.07.12.01.44.55    -2.61120075    -4.19700539     3.83602965     0.00000087     0.00000021     0.00000491 0.00000000 VRAI 
CAM-EBA-USA-HO_EBA-USA-HO      2017.07.12.01.44.55    -2.61273658    -4.19702482     5.89857292     0.00000298     0.00000000     0.00000175 0.00000000 VRAI 
CAM-EBC-US-IP_EBC-US-IP        2017.07.12.01.44.55     2.60383356    -4.19700432    -3.82550192     0.00000171     0.00000000     0.00000243 0.00000000 VRAI 
CAM-EBC-US-HO_EBC-US-HO        2017.07.12.01.44.55     2.60555667    -4.19702148    -5.89321434     0.00000039     0.00000000     0.00000085 0.00000000 VRAI 
CAM-EBC-USA-IP_EBC-USA-IP      2017.07.12.01.44.55    -2.61135703    -4.19698286    -3.82754028     0.00000284     0.00000000     0.00000407 0.00000000 VRAI 
CAM-EBC-USA-HO_EBC-USA-HO      2017.07.12.01.44.55    -2.61581862    -4.19702291    -5.89138091     0.00000412     0.00000000     0.00000339 0.00000000 VRAI 
CAM-JDA-US-IP_JDA-US-IP        2017.07.12.01.44.55     2.58486891    -4.19496393     6.54819357     0.00000270     0.00000000     0.00000186 0.00000000 VRAI 
CAM-JDA-US-HO_JDA-US-HO        2017.07.12.01.44.55     2.59404415    -4.13996458     6.94839859     0.00000277     0.00000000     0.00000522 0.00000000 VRAI 
CAM-JDA-USA-IP_JDA-USA-IP      2017.07.12.01.44.55    -2.59785670    -4.19505882     6.53813791     0.00000128     0.00000000     0.00000236 0.00000000 VRAI 
CAM-JDA-USA-HO_JDA-USA-HO      2017.07.12.01.44.55    -2.60441852    -4.13996017     6.94218183     0.00000611     0.00000021     0.00000477 0.00000000 VRAI 
CAM-JDC-US-IP_JDC-US-IP        2017.07.12.01.44.55     2.59912544    -4.19501150    -6.54731429     0.00000241     0.00000021     0.00000317 0.00000000 VRAI 
CAM-JDC-US-HO_JDC-US-HO        2017.07.12.01.44.55     2.60957295    -4.14002705    -6.93128276     0.00000172     0.00000000     0.00000240 0.00000000 VRAI 
CAM-JDC-USA-IP_JDC-USA-IP      2017.07.12.01.44.55    -2.60509676    -4.19509745    -6.54008436     0.00000054     0.00000000     0.00000221 0.00000000 VRAI 
CAM-JDC-USA-HO_JDC-USA-HO      2017.07.12.01.44.55    -2.59411705    -4.14012241    -6.92716503     0.00000215     0.00000000     0.00000852 0.00000000 VRAI 
CAM-ECTC-US-IP_ECTC-US-IP-T    2017.07.12.01.44.55     3.69177032     3.84800911    -7.77863359     0.00000000     0.00000000     0.00000000 0.00000000 VRAI 
CAM-ECTC-US-IP_ECTC-US-IP      2017.07.12.01.44.55     3.53351307    -4.07046175    -7.87881756     0.00000108     0.00000000     0.00000075 0.00000000 VRAI 
CAM-ECTC-US-HO_ECTC-US-HO-T    2017.07.12.01.44.55     3.86877382     3.64757061   -12.94049478     0.00001764     0.00000083     0.00000333 0.00000000 VRAI 
CAM-ECTC-US-HO_ECTC-US-HO      2017.07.12.01.44.55     3.67346615    -3.92563677   -12.89155054     0.00000174     0.00000000     0.00000172 0.00000000 VRAI 
CAM-ECTC-USA-IP_ECTC-USA-IP-T  2017.07.12.01.44.55    -3.68260086     3.84912825    -7.89698601     0.00002550     0.00000041     0.00002373 0.00000000 VRAI 
CAM-ECTC-USA-IP_ECTC-USA-IP    2017.07.12.01.44.55    -3.53227073    -4.07033873    -7.87399340     0.00000141     0.00000000     0.00000122 0.00000000 VRAI 
CAM-ECTC-USA-HO_ECTC-USA-HO-T  2017.07.12.01.44.55    -3.86922473     3.64757776   -12.93246865     0.00001930     0.00000041     0.00000980 0.00000000 VRAI 
CAM-ECTC-USA-HO_ECTC-USA-HO    2017.07.12.01.44.55    -3.67611980    -3.92564893   -12.88754416     0.00000083     0.00000000     0.00000274 0.00000000 VRAI 
CAM-ECTA-US-IP_ECTA-US-IP-T    2017.07.12.01.44.55     3.54951787     3.84898496     8.09023857     0.00000000     0.00000000     0.00000000 0.00000000 VRAI 
CAM-ECTA-US-IP_ECTA-US-IP      2017.07.12.01.44.55     3.52048898    -4.07060432     7.89716709     0.00000088     0.00000000     0.00000085 0.00000000 VRAI 
CAM-ECTA-US-HO_ECTA-US-HO-T    2017.07.12.01.44.55     3.87524450     3.64747548    12.93647385     0.00001324     0.00000000     0.00001020 0.00000000 VRAI 
CAM-ECTA-US-HO_ECTA-US-HO      2017.07.12.01.44.55     3.66424787    -3.92580462    12.88432121     0.00000434     0.00000000     0.00000178 0.00000000 VRAI 
CAM-ECTA-USA-IP_ECTA-USA-IP-T  2017.07.12.01.44.55    -3.68069977     3.84881723     7.89783788     0.00002538     0.00000107     0.00001402 0.00000000 VRAI 
CAM-ECTA-USA-IP_ECTA-USA-IP    2017.07.12.01.44.55    -3.53443277    -4.07043648     7.89052773     0.00000107     0.00000000     0.00000058 0.00000000 VRAI 
CAM-ECTA-USA-HO_ECTA-USA-HO-T  2017.07.12.01.44.55    -3.86209494     3.64768314    12.93562794     0.00000727     0.00000000     0.00001034 0.00000000 VRAI 
CAM-ECTA-USA-HO_ECTA-USA-HO    2017.07.12.01.44.55    -3.68537104    -3.92560458    12.88506985     0.00000160     0.00000000     0.00000278 0.00000000 VRAI 
