********** Fichier qui contient une sauvegarde des coordonnees images + coordonnees images transformees dans le repere BCAM (MOUNT) + coordonnees des prismes dans le repere MOUNT********** 
********************************************************************** Unite en metres (m)************************************************************************************************** 

*******************************************************************coordonnees images dans le repere CCD *********************************************************************************** 
20MABNDL000077_PR002
Spot 1     0.00121797     0.00150088
Spot 2     0.00032500     0.00012500
Spot 1     0.00121431     0.00150570
Spot 2     0.00032500     0.00012500
Spot 1     0.00121465     0.00150467
Spot 2     0.00032500     0.00012500
Spot 1     0.00121358     0.00150091
Spot 2     0.00032500     0.00012500
Spot 1     0.00121774     0.00149471
Spot 2     0.00032500     0.00012500
20MABNDL000077_PR003
Spot 1     0.00138748     0.00149425
Spot 2     0.00153665     0.00149050
Spot 1     0.00138661     0.00149485
Spot 2     0.00153676     0.00149075
Spot 1     0.00138654     0.00149508
Spot 2     0.00153635     0.00149096
Spot 1     0.00138621     0.00149504
Spot 2     0.00153637     0.00149100
Spot 1     0.00138628     0.00149529
Spot 2     0.00153689     0.00149101
20MABNDL000077_20MABNDM000168
Spot 1     0.00175712     0.00118343
Spot 2     0.00304500     0.00031500
Spot 1     0.00175697     0.00118354
Spot 2     0.00304500     0.00031500
Spot 1     0.00175690     0.00118368
Spot 2     0.00075500     0.00010500
Spot 1     0.00175746     0.00118353
Spot 2     0.00304500     0.00031500
Spot 1     0.00175702     0.00118354
Spot 2     0.00075500     0.00010500
20MABNDL000077_PR024
Spot 1     0.00254334     0.00143358
Spot 2     0.00264128     0.00144494
Spot 1     0.00254330     0.00143373
Spot 2     0.00264072     0.00144481
Spot 1     0.00254315     0.00143366
Spot 2     0.00264087     0.00144509
Spot 1     0.00254314     0.00143374
Spot 2     0.00264119     0.00144518
20MABNDM000020_PR013
Spot 1     0.00160500     0.00021500
Spot 2     0.00160500     0.00021500
Spot 1     0.00136500     0.00011500
Spot 2     0.00160500     0.00021500
Spot 1     0.00160500     0.00021500
Spot 2     0.00160500     0.00021500
Spot 1     0.00160500     0.00021500
Spot 2     0.00160500     0.00021500
20MABNDM000020_PR014
Spot 1     0.00310500     0.00034500
Spot 2     0.00310500     0.00034500
Spot 1     0.00310500     0.00034500
Spot 2     0.00310500     0.00034500
Spot 1     0.00310500     0.00034500
Spot 2     0.00310500     0.00034500
Spot 1     0.00310500     0.00034500
Spot 2     0.00310500     0.00034500
20MABNDM000020_20MABNDL000196
Spot 1     0.00197711     0.00117743
Spot 2     0.00230500     0.00010500
Spot 1     0.00197705     0.00117769
Spot 2     0.00230500     0.00010500
Spot 1     0.00197720     0.00117763
Spot 2     0.00230500     0.00010500
Spot 1     0.00197699     0.00117760
Spot 2     0.00230500     0.00010500
20MABNDM000020_PR035
Spot 1     0.00127268     0.00149467
Spot 2     0.00118821     0.00153143
Spot 1     0.00127252     0.00149428
Spot 2     0.00118793     0.00153127
Spot 1     0.00127261     0.00149461
Spot 2     0.00118793     0.00153104
Spot 1     0.00127268     0.00149432
Spot 2     0.00118806     0.00153109
20MABNDM000168_PR025
Spot 1     0.00149500     0.00017500
Spot 2     0.00149500     0.00017500
Spot 1     0.00180500     0.00002500
Spot 2     0.00034750     0.00007250
Spot 1     0.00030500     0.00004500
Spot 2     0.00034500     0.00007500
Spot 1     0.00149500     0.00017500
Spot 2     0.00149500     0.00017500
20MABNDM000168_PR026
Spot 1     0.00266744     0.00142822
Spot 2     0.00250625     0.00142494
Spot 1     0.00266722     0.00142806
Spot 2     0.00250621     0.00142477
Spot 1     0.00266726     0.00142774
Spot 2     0.00250605     0.00142471
Spot 1     0.00266731     0.00142791
Spot 2     0.00250604     0.00142425
20MABNDM000168_20MABNDL000077
Spot 1     0.00154090     0.00130155
Spot 2     0.00176084     0.00131485
Spot 1     0.00154102     0.00130144
Spot 2     0.00176118     0.00131506
Spot 1     0.00154133     0.00130113
Spot 2     0.00176103     0.00131438
Spot 1     0.00154134     0.00130092
Spot 2     0.00176081     0.00131449
20MABNDM000168_PR001
Spot 1     0.00080823     0.00162126
Spot 2     0.00070557     0.00162311
Spot 1     0.00080810     0.00162124
Spot 2     0.00070563     0.00162290
Spot 1     0.00080827     0.00162123
Spot 2     0.00070543     0.00162304
Spot 1     0.00080790     0.00162121
Spot 2     0.00070564     0.00162297
20MABNDL000196_PR036
Spot 1     0.00094615     0.00163980
Spot 2     0.00111086     0.00163883
Spot 1     0.00094611     0.00163974
Spot 2     0.00111085     0.00163867
Spot 1     0.00094604     0.00163973
Spot 2     0.00111058     0.00163877
Spot 1     0.00094602     0.00163974
Spot 2     0.00111060     0.00163819
20MABNDL000196_PR037
Spot 1     0.00246953     0.00116872
Spot 2     0.00262420     0.00116706
Spot 1     0.00246932     0.00116887
Spot 2     0.00262407     0.00116718
Spot 1     0.00246942     0.00116894
Spot 2     0.00262423     0.00116705
Spot 1     0.00246945     0.00116890
Spot 2     0.00262400     0.00116723
20MABNDL000196_20MABNDM000020
Spot 1     0.00192516     0.00104172
Spot 2     0.00170393     0.00104739
Spot 1     0.00192524     0.00104168
Spot 2     0.00170377     0.00104725
Spot 1     0.00192536     0.00104184
Spot 2     0.00170390     0.00104741
Spot 1     0.00192532     0.00104168
Spot 2     0.00170409     0.00104737
20MABNDL000196_PR012
Spot 1     0.00265021     0.00134193
Spot 2     0.00272372     0.00138723
Spot 1     0.00265021     0.00134198
Spot 2     0.00272387     0.00138731
Spot 1     0.00265045     0.00134196
Spot 2     0.00272378     0.00138739
Spot 1     0.00265054     0.00134194
Spot 2     0.00272389     0.00138737
20MABNDA000318_PR004
Spot 1     0.00214607     0.00162484
Spot 2     0.00192835     0.00162516
Spot 1     0.00214663     0.00162452
Spot 2     0.00192804     0.00162550
Spot 1     0.00214633     0.00162429
Spot 2     0.00192821     0.00162538
Spot 1     0.00214604     0.00162424
Spot 2     0.00192818     0.00162517
20MABNDA000334_PR005
Spot 1     0.00247266     0.00158469
Spot 2     0.00219224     0.00158533
Spot 1     0.00247253     0.00158485
Spot 2     0.00219239     0.00158546
Spot 1     0.00247259     0.00158474
Spot 2     0.00219221     0.00158532
Spot 1     0.00247266     0.00158474
Spot 2     0.00219248     0.00158540
20MABNDB000317_PR015
Spot 1     0.00148810     0.00159907
Spot 2     0.00170779     0.00159340
Spot 1     0.00148822     0.00159917
Spot 2     0.00170775     0.00159326
Spot 1     0.00148823     0.00159904
Spot 2     0.00170775     0.00159344
Spot 1     0.00148845     0.00159912
Spot 2     0.00170789     0.00159355
20MABNDB000146_PR016
Spot 1     0.00144885     0.00133126
Spot 2     0.00172421     0.00133364
Spot 1     0.00144896     0.00133107
Spot 2     0.00172414     0.00133369
Spot 1     0.00144891     0.00133115
Spot 2     0.00172420     0.00133369
Spot 1     0.00144897     0.00133114
Spot 2     0.00172420     0.00133356
20MABNDB000135_PR027
Spot 1     0.00189188     0.00091593
Spot 2     0.00210986     0.00091768
Spot 1     0.00189181     0.00091594
Spot 2     0.00210989     0.00091761
Spot 1     0.00189176     0.00091597
Spot 2     0.00210997     0.00091757
Spot 1     0.00189195     0.00091604
Spot 2     0.00210997     0.00091771
20MABNDB000126_PR028
Spot 1     0.00164533     0.00200983
Spot 2     0.00192757     0.00201188
Spot 1     0.00164555     0.00201002
Spot 2     0.00192783     0.00201188
Spot 1     0.00164536     0.00200997
Spot 2     0.00192758     0.00201199
Spot 1     0.00164542     0.00200998
Spot 2     0.00192757     0.00201207
20MABNDA000272_PR038
Spot 1     0.00192389     0.00095518
Spot 2     0.00170297     0.00095459
Spot 1     0.00192395     0.00095500
Spot 2     0.00170292     0.00095483
Spot 1     0.00192419     0.00095536
Spot 2     0.00170310     0.00095450
Spot 1     0.00192413     0.00095514
Spot 2     0.00170285     0.00095467
20MABNDA000003_PR039
Spot 1     0.00200153     0.00193143
Spot 2     0.00227956     0.00193213
Spot 1     0.00200171     0.00193143
Spot 2     0.00227971     0.00193213
Spot 1     0.00200144     0.00193149
Spot 2     0.00227963     0.00193211
Spot 1     0.00200144     0.00193158
Spot 2     0.00227960     0.00193183
20MABNDA000196_PR006
Spot 1     0.00198585     0.00074344
Spot 2     0.00161955     0.00074082
Spot 1     0.00198536     0.00074327
Spot 2     0.00161970     0.00074074
Spot 1     0.00198570     0.00074317
Spot 2     0.00161958     0.00074100
Spot 1     0.00198544     0.00074325
Spot 2     0.00161961     0.00074076
20MABNDA000324_PR007
Spot 1     0.00194769     0.00120386
Spot 2     0.00174203     0.00121000
Spot 1     0.00194739     0.00120386
Spot 2     0.00174216     0.00121025
Spot 1     0.00194739     0.00120389
Spot 2     0.00174205     0.00121011
Spot 1     0.00194733     0.00120386
Spot 2     0.00174149     0.00121000
20MABNDB000001_PR017
Spot 1     0.00188743     0.00043730
Spot 2     0.00225566     0.00044648
Spot 1     0.00188741     0.00043730
Spot 2     0.00225598     0.00044648
Spot 1     0.00188732     0.00043727
Spot 2     0.00225583     0.00044650
Spot 1     0.00188736     0.00043736
Spot 2     0.00225585     0.00044653
20MABNDB000260_PR019
Spot 1     0.00192290     0.00150594
Spot 2     0.00212603     0.00150517
Spot 1     0.00192242     0.00150577
Spot 2     0.00212623     0.00150500
Spot 1     0.00192268     0.00150562
Spot 2     0.00212602     0.00150534
Spot 1     0.00192292     0.00150591
Spot 2     0.00212609     0.00150531
20MABNDB000212_PR029
Spot 1     0.00223713     0.00069326
Spot 2     0.00187481     0.00069538
Spot 1     0.00223702     0.00069313
Spot 2     0.00187480     0.00069559
Spot 1     0.00223704     0.00069340
Spot 2     0.00187500     0.00069538
Spot 1     0.00223716     0.00069320
Spot 2     0.00187482     0.00069536
20MABNDB000128_PR030
Spot 1     0.00190015     0.00200238
Spot 2     0.00210470     0.00199667
Spot 1     0.00190047     0.00200216
Spot 2     0.00210490     0.00199689
Spot 1     0.00190029     0.00200238
Spot 2     0.00210475     0.00199683
Spot 1     0.00190018     0.00200223
Spot 2     0.00210480     0.00199678
20MABNDA000444_PR040
Spot 1     0.00075962     0.00035334
Spot 2     0.00112713     0.00035050
Spot 1     0.00076000     0.00035340
Spot 2     0.00112687     0.00035020
Spot 1     0.00076004     0.00035325
Spot 2     0.00112684     0.00035053
Spot 1     0.00075993     0.00035336
Spot 2     0.00112671     0.00035026
20MABNDA000053_PR041
Spot 1     0.00166343     0.00198421
Spot 2     0.00144631     0.00197852
Spot 1     0.00166305     0.00198428
Spot 2     0.00144595     0.00197829
Spot 1     0.00166314     0.00198412
Spot 2     0.00144650     0.00197813
Spot 1     0.00166284     0.00198453
Spot 2     0.00144634     0.00197844
20MABNDB000069_PR031
Spot 1     0.00021500     0.00240500
Spot 2     0.00021500     0.00240500
Spot 1     0.00021500     0.00240500
Spot 2     0.00021500     0.00240500
Spot 1     0.00021500     0.00240500
Spot 2     0.00021500     0.00240500
Spot 1     0.00021500     0.00240500
Spot 2     0.00021500     0.00240500
20MABNDB000069_PR033
Spot 1     0.00182115     0.00206781
Spot 2     0.00229133     0.00208745
Spot 1     0.00182117     0.00206796
Spot 2     0.00229126     0.00208758
Spot 1     0.00182109     0.00206784
Spot 2     0.00229138     0.00208770
Spot 1     0.00182123     0.00206784
Spot 2     0.00229124     0.00208754
20MABNDB000131_PR032
Spot 1     0.00277681     0.00107740
Spot 2     0.00283704     0.00108048
Spot 1     0.00277690     0.00107767
Spot 2     0.00283708     0.00108058
Spot 1     0.00277690     0.00107739
Spot 2     0.00283737     0.00108069
Spot 1     0.00277683     0.00107753
Spot 2     0.00283742     0.00108034
20MABNDB000131_PR034
Spot 1     0.00092399     0.00032339
Spot 2     0.00110049     0.00032356
Spot 1     0.00092385     0.00032334
Spot 2     0.00110066     0.00032364
Spot 1     0.00092405     0.00032322
Spot 2     0.00110054     0.00032359
Spot 1     0.00092393     0.00032344
Spot 2     0.00110039     0.00032349
20MABNDA000208_PR042
Spot 1     0.00306034     0.00095260
Spot 2     0.00299396     0.00095188
Spot 1     0.00305999     0.00095247
Spot 2     0.00299428     0.00095256
Spot 1     0.00306019     0.00095297
Spot 2     0.00299403     0.00095169
Spot 1     0.00306046     0.00095261
Spot 2     0.00299390     0.00095206
20MABNDA000208_PR046
Spot 1     0.00144865     0.00220208
Spot 2     0.00097537     0.00220203
Spot 1     0.00144870     0.00220207
Spot 2     0.00097533     0.00220210
Spot 1     0.00144888     0.00220163
Spot 2     0.00097581     0.00220213
Spot 1     0.00144891     0.00220184
Spot 2     0.00097546     0.00220204
20MABNDA000035_PR044
Spot 1     0.00073815     0.00125659
Spot 2     0.00068136     0.00125038
Spot 1     0.00073785     0.00125637
Spot 2     0.00068098     0.00125059
Spot 1     0.00073810     0.00125660
Spot 2     0.00068106     0.00125050
Spot 1     0.00073806     0.00125660
Spot 2     0.00068144     0.00125052
20MABNDA000035_PR045
Spot 1     0.00254577     0.00047153
Spot 2     0.00236798     0.00047102
Spot 1     0.00254582     0.00047162
Spot 2     0.00236808     0.00047080
Spot 1     0.00254594     0.00047152
Spot 2     0.00236840     0.00047080
Spot 1     0.00254574     0.00047169
Spot 2     0.00236834     0.00047080
20MABNDA000188_PR008
Spot 1     0.00289500     0.00025500
Spot 2     0.00289500     0.00025500
Spot 1     0.00289500     0.00025500
Spot 2     0.00289500     0.00025500
Spot 1     0.00289500     0.00025500
Spot 2     0.00289500     0.00025500
Spot 1     0.00289500     0.00025500
Spot 2     0.00289500     0.00025500
20MABNDA000188_PR018
Spot 1     0.00166955     0.00176463
Spot 2     0.00120229     0.00176151
Spot 1     0.00166953     0.00176484
Spot 2     0.00120221     0.00176154
Spot 1     0.00166929     0.00176484
Spot 2     0.00120217     0.00176149
Spot 1     0.00166956     0.00176479
Spot 2     0.00120223     0.00176149
20MABNDA000039_PR009
Spot 1     0.00066480     0.00117675
Spot 2     0.00061734     0.00118136
Spot 1     0.00066458     0.00117696
Spot 2     0.00061729     0.00118125
Spot 1     0.00066440     0.00117707
Spot 2     0.00061747     0.00118133
Spot 1     0.00066488     0.00117680
Spot 2     0.00061708     0.00118119
20MABNDA000039_PR011
Spot 1     0.00276844     0.00028148
Spot 2     0.00259277     0.00027680
Spot 1     0.00276824     0.00028164
Spot 2     0.00259279     0.00027678
Spot 1     0.00276846     0.00028142
Spot 2     0.00259277     0.00027699
Spot 1     0.00276868     0.00028152
Spot 2     0.00259258     0.00027672
20MABNDB000155_PR020
Spot 1     0.00062032     0.00113139
Spot 2     0.00068465     0.00112719
Spot 1     0.00062023     0.00113144
Spot 2     0.00068458     0.00112766
Spot 1     0.00062072     0.00113133
Spot 2     0.00068552     0.00112729
Spot 1     0.00062020     0.00113133
Spot 2     0.00068575     0.00112783
20MABNDB000155_PR022
Spot 1     0.00210966     0.00140226
Spot 2     0.00258266     0.00139774
Spot 1     0.00210956     0.00140223
Spot 2     0.00258268     0.00139780
Spot 1     0.00210968     0.00140224
Spot 2     0.00258272     0.00139785
Spot 1     0.00210951     0.00140221
Spot 2     0.00258253     0.00139763
20MABNDB000010_PR021
Spot 1     0.00287093     0.00115292
Spot 2     0.00292334     0.00115532
Spot 1     0.00287105     0.00115274
Spot 2     0.00292351     0.00115522
Spot 1     0.00287081     0.00115300
Spot 2     0.00292327     0.00115579
Spot 1     0.00287071     0.00115295
Spot 2     0.00292325     0.00115544
20MABNDB000010_PR023
Spot 1     0.00131286     0.00031319
Spot 2     0.00148780     0.00031154
Spot 1     0.00131275     0.00031312
Spot 2     0.00148777     0.00031151
Spot 1     0.00131282     0.00031306
Spot 2     0.00148767     0.00031134
Spot 1     0.00131267     0.00031314
Spot 2     0.00148779     0.00031140


****************************************************************coordonnees images transformees dans le repere MOUNT************************************************************************* 
20MABNDL000077_PR002
Spot 1     0.01228828     0.03557228    -0.07463200
Spot 2     0.01138211     0.03420505    -0.07463200
Spot 1     0.01228467     0.03557713    -0.07463200
Spot 2     0.01138211     0.03420505    -0.07463200
Spot 1     0.01228500     0.03557610    -0.07463200
Spot 2     0.01138211     0.03420505    -0.07463200
Spot 1     0.01228389     0.03557235    -0.07463200
Spot 2     0.01138211     0.03420505    -0.07463200
Spot 1     0.01228799     0.03556611    -0.07463200
Spot 2     0.01138211     0.03420505    -0.07463200
20MABNDL000077_PR003
Spot 1     0.01245772     0.03556402    -0.07463200
Spot 2     0.01260685     0.03555883    -0.07463200
Spot 1     0.01245686     0.03556462    -0.07463200
Spot 2     0.01260696     0.03555908    -0.07463200
Spot 1     0.01245679     0.03556486    -0.07463200
Spot 2     0.01260655     0.03555929    -0.07463200
Spot 1     0.01245646     0.03556482    -0.07463200
Spot 2     0.01260657     0.03555933    -0.07463200
Spot 1     0.01245653     0.03556507    -0.07463200
Spot 2     0.01260709     0.03555934    -0.07463200
20MABNDL000077_20MABNDM000168
Spot 1    -0.01259226     0.03524642    -0.00695400
Spot 2    -0.01387118     0.03436485    -0.00695400
Spot 1    -0.01259211     0.03524653    -0.00695400
Spot 2    -0.01387118     0.03436485    -0.00695400
Spot 1    -0.01259204     0.03524667    -0.00695400
Spot 2    -0.01157915     0.03417830    -0.00695400
Spot 1    -0.01259260     0.03524651    -0.00695400
Spot 2    -0.01387118     0.03436485    -0.00695400
Spot 1    -0.01259216     0.03524653    -0.00695400
Spot 2    -0.01157915     0.03417830    -0.00695400
20MABNDL000077_PR024
Spot 1    -0.01338099     0.03548850    -0.00695400
Spot 2    -0.01347905     0.03549886    -0.00695400
Spot 1    -0.01338096     0.03548865    -0.00695400
Spot 2    -0.01347848     0.03549874    -0.00695400
Spot 1    -0.01338081     0.03548859    -0.00695400
Spot 2    -0.01347864     0.03549902    -0.00695400
Spot 1    -0.01338080     0.03548867    -0.00695400
Spot 2    -0.01347896     0.03549910    -0.00695400
20MABNDM000020_PR013
Spot 1    -0.01278295    -0.03417449    -0.00523500
Spot 2    -0.01278295    -0.03417449    -0.00523500
Spot 1    -0.01302510    -0.03407982    -0.00523500
Spot 2    -0.01278295    -0.03417449    -0.00523500
Spot 1    -0.01278295    -0.03417449    -0.00523500
Spot 2    -0.01278295    -0.03417449    -0.00523500
Spot 1    -0.01278295    -0.03417449    -0.00523500
Spot 2    -0.01278295    -0.03417449    -0.00523500
20MABNDM000020_PR014
Spot 1    -0.01128044    -0.03427129    -0.00523500
Spot 2    -0.01128044    -0.03427129    -0.00523500
Spot 1    -0.01128044    -0.03427129    -0.00523500
Spot 2    -0.01128044    -0.03427129    -0.00523500
Spot 1    -0.01128044    -0.03427129    -0.00523500
Spot 2    -0.01128044    -0.03427129    -0.00523500
Spot 1    -0.01128044    -0.03427129    -0.00523500
Spot 2    -0.01128044    -0.03427129    -0.00523500
20MABNDM000020_20MABNDL000196
Spot 1     0.01270917    -0.03514599    -0.07583800
Spot 2     0.01238113    -0.03407361    -0.07583800
Spot 1     0.01270923    -0.03514625    -0.07583800
Spot 2     0.01238113    -0.03407361    -0.07583800
Spot 1     0.01270908    -0.03514619    -0.07583800
Spot 2     0.01238113    -0.03407361    -0.07583800
Spot 1     0.01270929    -0.03514616    -0.07583800
Spot 2     0.01238113    -0.03407361    -0.07583800
20MABNDM000020_PR035
Spot 1     0.01341364    -0.03546314    -0.07583800
Spot 2     0.01349812    -0.03549988    -0.07583800
Spot 1     0.01341380    -0.03546275    -0.07583800
Spot 2     0.01349840    -0.03549972    -0.07583800
Spot 1     0.01341371    -0.03546308    -0.07583800
Spot 2     0.01349840    -0.03549949    -0.07583800
Spot 1     0.01341364    -0.03546279    -0.07583800
Spot 2     0.01349827    -0.03549954    -0.07583800
20MABNDM000168_PR025
Spot 1    -0.01291271    -0.03451083    -0.00532900
Spot 2    -0.01291271    -0.03451083    -0.00532900
Spot 1    -0.01260336    -0.03435950    -0.00532900
Spot 2    -0.01406064    -0.03441326    -0.00532900
Spot 1    -0.01410326    -0.03438594    -0.00532900
Spot 2    -0.01406313    -0.03441577    -0.00532900
Spot 1    -0.01291271    -0.03451083    -0.00532900
Spot 2    -0.01291271    -0.03451083    -0.00532900
20MABNDM000168_PR026
Spot 1    -0.01173490    -0.03575900    -0.00532900
Spot 2    -0.01189610    -0.03575641    -0.00532900
Spot 1    -0.01173512    -0.03575884    -0.00532900
Spot 2    -0.01189614    -0.03575624    -0.00532900
Spot 1    -0.01173508    -0.03575852    -0.00532900
Spot 2    -0.01189630    -0.03575618    -0.00532900
Spot 1    -0.01173503    -0.03575869    -0.00532900
Spot 2    -0.01189631    -0.03575572    -0.00532900
20MABNDM000168_20MABNDL000077
Spot 1     0.01288454    -0.03530219    -0.07445100
Spot 2     0.01266443    -0.03531227    -0.07445100
Spot 1     0.01288442    -0.03530208    -0.07445100
Spot 2     0.01266409    -0.03531248    -0.07445100
Spot 1     0.01288412    -0.03530177    -0.07445100
Spot 2     0.01266425    -0.03531180    -0.07445100
Spot 1     0.01288411    -0.03530156    -0.07445100
Spot 2     0.01266446    -0.03531191    -0.07445100
20MABNDM000168_PR001
Spot 1     0.01361245    -0.03563259    -0.07445100
Spot 2     0.01371508    -0.03563594    -0.07445100
Spot 1     0.01361258    -0.03563257    -0.07445100
Spot 2     0.01371502    -0.03563573    -0.07445100
Spot 1     0.01361241    -0.03563256    -0.07445100
Spot 2     0.01371522    -0.03563587    -0.07445100
Spot 1     0.01361278    -0.03563254    -0.07445100
Spot 2     0.01371501    -0.03563580    -0.07445100
20MABNDL000196_PR036
Spot 1     0.01192607     0.03582850    -0.07483600
Spot 2     0.01209079     0.03582787    -0.07483600
Spot 1     0.01192603     0.03582844    -0.07483600
Spot 2     0.01209078     0.03582771    -0.07483600
Spot 1     0.01192596     0.03582843    -0.07483600
Spot 2     0.01209051     0.03582781    -0.07483600
Spot 1     0.01192594     0.03582844    -0.07483600
Spot 2     0.01209053     0.03582723    -0.07483600
20MABNDL000196_PR037
Spot 1     0.01345043     0.03536060    -0.07483600
Spot 2     0.01360511     0.03535926    -0.07483600
Spot 1     0.01345022     0.03536075    -0.07483600
Spot 2     0.01360498     0.03535938    -0.07483600
Spot 1     0.01345032     0.03536082    -0.07483600
Spot 2     0.01360514     0.03535925    -0.07483600
Spot 1     0.01345035     0.03536078    -0.07483600
Spot 2     0.01360491     0.03535943    -0.07483600
20MABNDL000196_20MABNDM000020
Spot 1    -0.01274921     0.03531294    -0.00611000
Spot 2    -0.01252814     0.03532306    -0.00611000
Spot 1    -0.01274929     0.03531290    -0.00611000
Spot 2    -0.01252798     0.03532292    -0.00611000
Spot 1    -0.01274942     0.03531305    -0.00611000
Spot 2    -0.01252811     0.03532308    -0.00611000
Spot 1    -0.01274937     0.03531289    -0.00611000
Spot 2    -0.01252830     0.03532303    -0.00611000
20MABNDL000196_PR012
Spot 1    -0.01348016     0.03559850    -0.00611000
Spot 2    -0.01355456     0.03564231    -0.00611000
Spot 1    -0.01348016     0.03559855    -0.00611000
Spot 2    -0.01355472     0.03564239    -0.00611000
Spot 1    -0.01348040     0.03559852    -0.00611000
Spot 2    -0.01355463     0.03564247    -0.00611000
Spot 1    -0.01348049     0.03559850    -0.00611000
Spot 2    -0.01355474     0.03564245    -0.00611000
20MABNDA000318_PR004
Spot 1    -0.01286589     0.01247039    -0.07310600
Spot 2    -0.01264817     0.01247071    -0.07310600
Spot 1    -0.01286645     0.01247071    -0.07310600
Spot 2    -0.01264786     0.01247037    -0.07310600
Spot 1    -0.01286615     0.01247094    -0.07310600
Spot 2    -0.01264803     0.01247049    -0.07310600
Spot 1    -0.01286586     0.01247099    -0.07310600
Spot 2    -0.01264800     0.01247070    -0.07310600
20MABNDA000334_PR005
Spot 1    -0.01311577     0.01254370    -0.07324100
Spot 2    -0.01283535     0.01254280    -0.07324100
Spot 1    -0.01311564     0.01254354    -0.07324100
Spot 2    -0.01283550     0.01254267    -0.07324100
Spot 1    -0.01311570     0.01254365    -0.07324100
Spot 2    -0.01283532     0.01254281    -0.07324100
Spot 1    -0.01311577     0.01254365    -0.07324100
Spot 2    -0.01283559     0.01254273    -0.07324100
20MABNDB000317_PR015
Spot 1    -0.01266618    -0.01249897    -0.07326100
Spot 2    -0.01244644    -0.01250208    -0.07326100
Spot 1    -0.01266606    -0.01249887    -0.07326100
Spot 2    -0.01244648    -0.01250222    -0.07326100
Spot 1    -0.01266605    -0.01249900    -0.07326100
Spot 2    -0.01244648    -0.01250204    -0.07326100
Spot 1    -0.01266583    -0.01249892    -0.07326100
Spot 2    -0.01244634    -0.01250193    -0.07326100
20MABNDB000146_PR016
Spot 1    -0.01275951    -0.01246234    -0.07450500
Spot 2    -0.01248415    -0.01245935    -0.07450500
Spot 1    -0.01275940    -0.01246253    -0.07450500
Spot 2    -0.01248422    -0.01245930    -0.07450500
Spot 1    -0.01275945    -0.01246245    -0.07450500
Spot 2    -0.01248416    -0.01245930    -0.07450500
Spot 1    -0.01275939    -0.01246246    -0.07450500
Spot 2    -0.01248416    -0.01245943    -0.07450500
20MABNDB000135_PR027
Spot 1    -0.01251279    -0.01319710    -0.07464700
Spot 2    -0.01229481    -0.01319778    -0.07464700
Spot 1    -0.01251286    -0.01319709    -0.07464700
Spot 2    -0.01229478    -0.01319785    -0.07464700
Spot 1    -0.01251291    -0.01319706    -0.07464700
Spot 2    -0.01229470    -0.01319789    -0.07464700
Spot 1    -0.01251272    -0.01319699    -0.07464700
Spot 2    -0.01229470    -0.01319775    -0.07464700
20MABNDB000126_PR028
Spot 1    -0.01253421    -0.01217234    -0.07500400
Spot 2    -0.01225198    -0.01216878    -0.07500400
Spot 1    -0.01253399    -0.01217215    -0.07500400
Spot 2    -0.01225172    -0.01216878    -0.07500400
Spot 1    -0.01253418    -0.01217220    -0.07500400
Spot 2    -0.01225197    -0.01216867    -0.07500400
Spot 1    -0.01253412    -0.01217219    -0.07500400
Spot 2    -0.01225198    -0.01216859    -0.07500400
20MABNDA000272_PR038
Spot 1    -0.01275955     0.01315629    -0.07417900
Spot 2    -0.01253863     0.01315649    -0.07417900
Spot 1    -0.01275961     0.01315647    -0.07417900
Spot 2    -0.01253858     0.01315625    -0.07417900
Spot 1    -0.01275985     0.01315611    -0.07417900
Spot 2    -0.01253876     0.01315658    -0.07417900
Spot 1    -0.01275979     0.01315633    -0.07417900
Spot 2    -0.01253851     0.01315641    -0.07417900
20MABNDA000003_PR039
Spot 1    -0.01280263     0.01212084    -0.07373400
Spot 2    -0.01308066     0.01212084    -0.07373400
Spot 1    -0.01280281     0.01212084    -0.07373400
Spot 2    -0.01308081     0.01212084    -0.07373400
Spot 1    -0.01280254     0.01212078    -0.07373400
Spot 2    -0.01308073     0.01212086    -0.07373400
Spot 1    -0.01280254     0.01212069    -0.07373400
Spot 2    -0.01308070     0.01212114    -0.07373400
20MABNDA000196_PR006
Spot 1    -0.01294074     0.01323478    -0.07967100
Spot 2    -0.01257444     0.01323269    -0.07967100
Spot 1    -0.01294025     0.01323495    -0.07967100
Spot 2    -0.01257458     0.01323278    -0.07967100
Spot 1    -0.01294059     0.01323505    -0.07967100
Spot 2    -0.01257447     0.01323251    -0.07967100
Spot 1    -0.01294033     0.01323497    -0.07967100
Spot 2    -0.01257449     0.01323276    -0.07967100
20MABNDA000324_PR007
Spot 1    -0.01255347     0.01281771    -0.07446800
Spot 2    -0.01234777     0.01281318    -0.07446800
Spot 1    -0.01255317     0.01281772    -0.07446800
Spot 2    -0.01234789     0.01281293    -0.07446800
Spot 1    -0.01255317     0.01281769    -0.07446800
Spot 2    -0.01234779     0.01281307    -0.07446800
Spot 1    -0.01255311     0.01281772    -0.07446800
Spot 2    -0.01234723     0.01281318    -0.07446800
20MABNDB000001_PR017
Spot 1    -0.01230095    -0.01355223    -0.07418400
Spot 2    -0.01193264    -0.01354695    -0.07418400
Spot 1    -0.01230097    -0.01355223    -0.07418400
Spot 2    -0.01193232    -0.01354695    -0.07418400
Spot 1    -0.01230106    -0.01355226    -0.07418400
Spot 2    -0.01193247    -0.01354693    -0.07418400
Spot 1    -0.01230102    -0.01355217    -0.07418400
Spot 2    -0.01193245    -0.01354690    -0.07418400
20MABNDB000260_PR019
Spot 1    -0.01240851    -0.01239660    -0.07492700
Spot 2    -0.01220540    -0.01239320    -0.07492700
Spot 1    -0.01240898    -0.01239678    -0.07492700
Spot 2    -0.01220520    -0.01239337    -0.07492700
Spot 1    -0.01240872    -0.01239692    -0.07492700
Spot 2    -0.01220542    -0.01239303    -0.07492700
Spot 1    -0.01240849    -0.01239663    -0.07492700
Spot 2    -0.01220535    -0.01239306    -0.07492700
20MABNDB000212_PR029
Spot 1    -0.01185080    -0.01328805    -0.07390500
Spot 2    -0.01221307    -0.01328206    -0.07390500
Spot 1    -0.01185091    -0.01328817    -0.07390500
Spot 2    -0.01221308    -0.01328185    -0.07390500
Spot 1    -0.01185089    -0.01328790    -0.07390500
Spot 2    -0.01221288    -0.01328206    -0.07390500
Spot 1    -0.01185077    -0.01328811    -0.07390500
Spot 2    -0.01221306    -0.01328208    -0.07390500
20MABNDB000128_PR030
Spot 1    -0.01245498    -0.01221494    -0.07353400
Spot 2    -0.01225041    -0.01221994    -0.07353400
Spot 1    -0.01245466    -0.01221516    -0.07353400
Spot 2    -0.01225021    -0.01221972    -0.07353400
Spot 1    -0.01245484    -0.01221494    -0.07353400
Spot 2    -0.01225036    -0.01221978    -0.07353400
Spot 1    -0.01245495    -0.01221509    -0.07353400
Spot 2    -0.01225031    -0.01221983    -0.07353400
20MABNDA000444_PR040
Spot 1    -0.01169945     0.01367629    -0.07412000
Spot 2    -0.01206697     0.01367447    -0.07412000
Spot 1    -0.01169983     0.01367623    -0.07412000
Spot 2    -0.01206671     0.01367477    -0.07412000
Spot 1    -0.01169988     0.01367638    -0.07412000
Spot 2    -0.01206668     0.01367444    -0.07412000
Spot 1    -0.01169976     0.01367627    -0.07412000
Spot 2    -0.01206655     0.01367471    -0.07412000
20MABNDA000053_PR041
Spot 1    -0.01241997     0.01212645    -0.07430100
Spot 2    -0.01220278     0.01212790    -0.07430100
Spot 1    -0.01241959     0.01212637    -0.07430100
Spot 2    -0.01220241     0.01212812    -0.07430100
Spot 1    -0.01241967     0.01212654    -0.07430100
Spot 2    -0.01220296     0.01212830    -0.07430100
Spot 1    -0.01241938     0.01212612    -0.07430100
Spot 2    -0.01220280     0.01212798    -0.07430100
20MABNDB000069_PR031
Spot 1    -0.01361993    -0.01186066    -0.07388500
Spot 2    -0.01361993    -0.01186066    -0.07388500
Spot 1    -0.01361993    -0.01186066    -0.07388500
Spot 2    -0.01361993    -0.01186066    -0.07388500
Spot 1    -0.01361993    -0.01186066    -0.07388500
Spot 2    -0.01361993    -0.01186066    -0.07388500
Spot 1    -0.01361993    -0.01186066    -0.07388500
Spot 2    -0.01361993    -0.01186066    -0.07388500
20MABNDB000069_PR033
Spot 1    -0.01202906    -0.01226385    -0.07388500
Spot 2    -0.01155847    -0.01226363    -0.07388500
Spot 1    -0.01202903    -0.01226370    -0.07388500
Spot 2    -0.01155854    -0.01226350    -0.07388500
Spot 1    -0.01202912    -0.01226382    -0.07388500
Spot 2    -0.01155841    -0.01226338    -0.07388500
Spot 1    -0.01202898    -0.01226382    -0.07388500
Spot 2    -0.01155856    -0.01226353    -0.07388500
20MABNDB000131_PR032
Spot 1    -0.01144334    -0.01303735    -0.07533000
Spot 2    -0.01138312    -0.01303397    -0.07533000
Spot 1    -0.01144325    -0.01303708    -0.07533000
Spot 2    -0.01138309    -0.01303387    -0.07533000
Spot 1    -0.01144325    -0.01303736    -0.07533000
Spot 2    -0.01138280    -0.01303376    -0.07533000
Spot 1    -0.01144332    -0.01303722    -0.07533000
Spot 2    -0.01138274    -0.01303411    -0.07533000
20MABNDB000131_PR034
Spot 1    -0.01329234    -0.01380068    -0.07533000
Spot 2    -0.01311584    -0.01379963    -0.07533000
Spot 1    -0.01329248    -0.01380073    -0.07533000
Spot 2    -0.01311567    -0.01379954    -0.07533000
Spot 1    -0.01329228    -0.01380085    -0.07533000
Spot 2    -0.01311579    -0.01379959    -0.07533000
Spot 1    -0.01329240    -0.01380063    -0.07533000
Spot 2    -0.01311594    -0.01379970    -0.07533000
20MABNDA000208_PR042
Spot 1    -0.01393106     0.01304342    -0.07273700
Spot 2    -0.01386468     0.01304420    -0.07273700
Spot 1    -0.01393071     0.01304355    -0.07273700
Spot 2    -0.01386500     0.01304352    -0.07273700
Spot 1    -0.01393091     0.01304305    -0.07273700
Spot 2    -0.01386475     0.01304439    -0.07273700
Spot 1    -0.01393118     0.01304341    -0.07273700
Spot 2    -0.01386462     0.01304402    -0.07273700
20MABNDA000208_PR046
Spot 1    -0.01231827     0.01179535    -0.07273700
Spot 2    -0.01184499     0.01179582    -0.07273700
Spot 1    -0.01231832     0.01179536    -0.07273700
Spot 2    -0.01184495     0.01179575    -0.07273700
Spot 1    -0.01231850     0.01179580    -0.07273700
Spot 2    -0.01184543     0.01179572    -0.07273700
Spot 1    -0.01231853     0.01179559    -0.07273700
Spot 2    -0.01184508     0.01179581    -0.07273700
20MABNDA000035_PR044
Spot 1    -0.01157279     0.01300066    -0.07483200
Spot 2    -0.01151596     0.01300646    -0.07483200
Spot 1    -0.01157249     0.01300087    -0.07483200
Spot 2    -0.01151558     0.01300625    -0.07483200
Spot 1    -0.01157274     0.01300065    -0.07483200
Spot 2    -0.01151566     0.01300634    -0.07483200
Spot 1    -0.01157270     0.01300065    -0.07483200
Spot 2    -0.01151604     0.01300632    -0.07483200
20MABNDA000035_PR045
Spot 1    -0.01337478     0.01379855    -0.07483200
Spot 2    -0.01319700     0.01379780    -0.07483200
Spot 1    -0.01337483     0.01379846    -0.07483200
Spot 2    -0.01319709     0.01379802    -0.07483200
Spot 1    -0.01337495     0.01379857    -0.07483200
Spot 2    -0.01319741     0.01379802    -0.07483200
Spot 1    -0.01337476     0.01379839    -0.07483200
Spot 2    -0.01319735     0.01379802    -0.07483200
20MABNDA000188_PR008
Spot 1    -0.01391227     0.01380893    -0.07502000
Spot 2    -0.01391227     0.01380893    -0.07502000
Spot 1    -0.01391227     0.01380893    -0.07502000
Spot 2    -0.01391227     0.01380893    -0.07502000
Spot 1    -0.01391227     0.01380893    -0.07502000
Spot 2    -0.01391227     0.01380893    -0.07502000
Spot 1    -0.01391227     0.01380893    -0.07502000
Spot 2    -0.01391227     0.01380893    -0.07502000
20MABNDA000188_PR018
Spot 1    -0.01269979     0.01228886    -0.07502000
Spot 2    -0.01223252     0.01228798    -0.07502000
Spot 1    -0.01269977     0.01228865    -0.07502000
Spot 2    -0.01223244     0.01228795    -0.07502000
Spot 1    -0.01269953     0.01228865    -0.07502000
Spot 2    -0.01223240     0.01228800    -0.07502000
Spot 1    -0.01269980     0.01228870    -0.07502000
Spot 2    -0.01223246     0.01228800    -0.07502000
20MABNDA000039_PR009
Spot 1    -0.01162694     0.01306739    -0.07444800
Spot 2    -0.01157950     0.01306257    -0.07444800
Spot 1    -0.01162672     0.01306718    -0.07444800
Spot 2    -0.01157945     0.01306268    -0.07444800
Spot 1    -0.01162654     0.01306707    -0.07444800
Spot 2    -0.01157963     0.01306260    -0.07444800
Spot 1    -0.01162702     0.01306734    -0.07444800
Spot 2    -0.01157924     0.01306274    -0.07444800
20MABNDA000039_PR011
Spot 1    -0.01372668     0.01397175    -0.07444800
Spot 2    -0.01355099     0.01397567    -0.07444800
Spot 1    -0.01372648     0.01397159    -0.07444800
Spot 2    -0.01355101     0.01397569    -0.07444800
Spot 1    -0.01372670     0.01397181    -0.07444800
Spot 2    -0.01355099     0.01397548    -0.07444800
Spot 1    -0.01372692     0.01397171    -0.07444800
Spot 2    -0.01355080     0.01397575    -0.07444800
20MABNDB000155_PR020
Spot 1    -0.01364586    -0.01312597    -0.07501700
Spot 2    -0.01358148    -0.01312929    -0.07501700
Spot 1    -0.01364595    -0.01312592    -0.07501700
Spot 2    -0.01358156    -0.01312882    -0.07501700
Spot 1    -0.01364546    -0.01312603    -0.07501700
Spot 2    -0.01358061    -0.01312918    -0.07501700
Spot 1    -0.01364598    -0.01312604    -0.07501700
Spot 2    -0.01358039    -0.01312864    -0.07501700
20MABNDB000155_PR022
Spot 1    -0.01216037    -0.01283474    -0.07501700
Spot 2    -0.01168735    -0.01283279    -0.07501700
Spot 1    -0.01216047    -0.01283477    -0.07501700
Spot 2    -0.01168733    -0.01283272    -0.07501700
Spot 1    -0.01216035    -0.01283476    -0.07501700
Spot 2    -0.01168729    -0.01283267    -0.07501700
Spot 1    -0.01216052    -0.01283479    -0.07501700
Spot 2    -0.01168748    -0.01283290    -0.07501700
20MABNDB000010_PR021
Spot 1    -0.01158007    -0.01292555    -0.07358200
Spot 2    -0.01152771    -0.01292227    -0.07358200
Spot 1    -0.01157995    -0.01292573    -0.07358200
Spot 2    -0.01152754    -0.01292236    -0.07358200
Spot 1    -0.01158020    -0.01292548    -0.07358200
Spot 2    -0.01152779    -0.01292180    -0.07358200
Spot 1    -0.01158030    -0.01292553    -0.07358200
Spot 2    -0.01152780    -0.01292215    -0.07358200
20MABNDB000010_PR023
Spot 1    -0.01312370    -0.01379156    -0.07358200
Spot 2    -0.01294875    -0.01379024    -0.07358200
Spot 1    -0.01312380    -0.01379163    -0.07358200
Spot 2    -0.01294878    -0.01379027    -0.07358200
Spot 1    -0.01312373    -0.01379169    -0.07358200
Spot 2    -0.01294888    -0.01379045    -0.07358200
Spot 1    -0.01312389    -0.01379161    -0.07358200
Spot 2    -0.01294876    -0.01379038    -0.07358200


*****************************************************************coordonnees du prisme dans le repere MOUNT********************************************************************************** 
20MABNDL000077_PR002
    0.05502211     0.05516742     3.70683002
    0.05511136     0.05504750     3.70682955
    0.05510321     0.05507302     3.70682955
    0.05513052     0.05516563     3.70682859
    0.05502924     0.05531976     3.70682907
20MABNDL000077_PR003
    0.02098888     0.02121381     3.89601707
    0.02100840     0.02119155     3.89601707
    0.02102075     0.02118001     3.89601660
    0.02102880     0.02117993     3.89601660
    0.02101341     0.02117333     3.89601660
20MABNDL000077_20MABNDM000168
    0.02679716     0.06908454    -5.46851063
    0.02679178     0.06908051    -5.46851063
   -0.05598627     0.07581206    -5.46843529
    0.02680948     0.06908105    -5.46851063
   -0.05598199     0.07581716    -5.46843529
20MABNDL000077_PR024
    0.04539443     0.01806354    -5.89640427
    0.04537104     0.01806252    -5.89640427
    0.04537113     0.01805434    -5.89640427
    0.04538328     0.01804784    -5.89640427
20MABNDM000020_PR013
   -0.00493663    -0.08343360    -3.80217648
    0.00107128    -0.08578179    -3.80212831
   -0.00493663    -0.08343360    -3.80217648
   -0.00493663    -0.08343360    -3.80217648
20MABNDM000020_PR014
   -0.09646920    -0.08948103    -4.74775267
   -0.09646920    -0.08948103    -4.74775267
   -0.09646920    -0.08948103    -4.74775267
   -0.09646920    -0.08948103    -4.74775267
20MABNDM000020_20MABNDL000196
    0.02685597    -0.07126743     5.39469624
    0.02685382    -0.07125812     5.39469719
    0.02685919    -0.07126027     5.39469624
    0.02685167    -0.07126135     5.39469624
20MABNDM000020_PR035
   -0.04225489    -0.00676224     5.80095673
   -0.04227184    -0.00678343     5.80095673
   -0.04226837    -0.00677958     5.80095673
   -0.04226066    -0.00678883     5.80095673
20MABNDM000168_PR025
   -0.00133555    -0.07675161    -3.78855658
    0.01939551    -0.08290309    -3.78836274
    0.05653048    -0.08218106    -3.78786445
   -0.00133555    -0.07675161    -3.78855658
20MABNDM000168_PR026
   -0.05785543    -0.01398911    -3.98429012
   -0.05784863    -0.01399766    -3.98429084
   -0.05784546    -0.01400754    -3.98429084
   -0.05784648    -0.01401510    -3.98429084
20MABNDM000168_20MABNDL000077
    0.01164722    -0.03834749     5.38884687
    0.01166380    -0.03834414     5.38884687
    0.01166902    -0.03837978     5.38884687
    0.01166143    -0.03838326     5.38884687
20MABNDM000168_PR001
   -0.05738350    -0.01317437     5.81470490
   -0.05738635    -0.01318325     5.81470490
   -0.05738743    -0.01317819     5.81470490
   -0.05739368    -0.01318159     5.81470394
20MABNDL000196_PR036
    0.05135627     0.00594226     3.68777180
    0.05135749     0.00594766     3.68777180
    0.05136584     0.00594547     3.68777180
    0.05136581     0.00595946     3.68777180
20MABNDL000196_PR037
   -0.02515784     0.02856027     3.88381290
   -0.02514903     0.02855330     3.88381290
   -0.02515576     0.02855484     3.88381290
   -0.02515058     0.02855123     3.88381290
20MABNDL000196_20MABNDM000020
   -0.01574732     0.03786013    -5.47473907
   -0.01575032     0.03786653    -5.47473907
   -0.01574111     0.03785522    -5.47473907
   -0.01573587     0.03786251    -5.47473907
20MABNDL000196_PR012
    0.05230154     0.01450167    -5.91537285
    0.05230748     0.01449674    -5.91537285
    0.05231335     0.01449453    -5.91537189
    0.05232108     0.01449624    -5.91537189
20MABNDA000318_PR004
   -0.00844537     0.03835444     2.74965954
   -0.00844079     0.03835482     2.74965954
   -0.00844315     0.03834840     2.74965954
   -0.00844901     0.03834360     2.74965954
20MABNDA000334_PR005
   -0.00428597     0.03165615     2.14977217
   -0.00428568     0.03166030     2.14977217
   -0.00428740     0.03165672     2.14977217
   -0.00428254     0.03165786     2.14977217
20MABNDB000317_PR015
   -0.01738690    -0.03397396     2.75129032
   -0.01738836    -0.03397325     2.75129032
   -0.01738853    -0.03397416     2.75129032
   -0.01739505    -0.03397769     2.75129032
20MABNDB000146_PR016
   -0.01355605    -0.03175858     2.15201306
   -0.01355663    -0.03175656     2.15201306
   -0.01355677    -0.03175772     2.15201306
   -0.01355764    -0.03175570     2.15201306
20MABNDB000135_PR027
   -0.02103159    -0.00984932     2.74937105
   -0.02103084    -0.00984822     2.74937105
   -0.02103139    -0.00984803     2.74937105
   -0.02103492    -0.00985185     2.74937105
20MABNDB000126_PR028
   -0.02035477    -0.03898758     2.14679480
   -0.02036160    -0.03899033     2.14679480
   -0.02035533    -0.03899115     2.14679480
   -0.02035603    -0.03899244     2.14679480
20MABNDA000272_PR038
   -0.01318946     0.01095099     2.74965882
   -0.01318927     0.01095209     2.74965882
   -0.01318157     0.01095263     2.74965882
   -0.01318726     0.01095172     2.74965882
20MABNDA000003_PR039
   -0.00591392     0.04138789     2.14891338
   -0.00590920     0.04138787     2.14891338
   -0.00591420     0.04138846     2.14891338
   -0.00591464     0.04138575     2.14891338
20MABNDA000196_PR006
   -0.01040594     0.01023940     1.64206433
   -0.01040969     0.01023672     1.64206433
   -0.01040726     0.01023843     1.64206433
   -0.01040980     0.01023672     1.64206433
20MABNDA000324_PR007
   -0.02526041     0.02753490     2.95549345
   -0.02526379     0.02753980     2.95549345
   -0.02526594     0.02753761     2.95549345
   -0.02527812     0.02753476     2.95549345
20MABNDB000001_PR017
   -0.02414787    -0.00280849     1.64035940
   -0.02415115    -0.00280845     1.64035940
   -0.02414852    -0.00280837     1.64035940
   -0.02414919    -0.00280967     1.64035940
20MABNDB000260_PR019
   -0.02436796    -0.03846661     2.95627403
   -0.02436259    -0.03845980     2.95627403
   -0.02436350    -0.03846357     2.95627403
   -0.02436949    -0.03846881     2.95627403
20MABNDB000212_PR029
   -0.02545637    -0.00831808     1.64223695
   -0.02545507    -0.00831897     1.64223695
   -0.02545749    -0.00831960     1.64223695
   -0.02545680    -0.00831719     1.64223695
20MABNDB000128_PR030
   -0.01927537    -0.04684494     2.95496273
   -0.01928560    -0.04684497     2.95496273
   -0.01927910    -0.04684810     2.95496273
   -0.01927793    -0.04684416     2.95496273
20MABNDA000444_PR040
   -0.02991885     0.00089685     1.64491177
   -0.02991750     0.00089424     1.64491177
   -0.02991742     0.00089621     1.64491177
   -0.02992002     0.00089442     1.64491177
20MABNDA000053_PR041
   -0.02642140     0.05075245     2.95450902
   -0.02643599     0.05074959     2.95450902
   -0.02642355     0.05074307     2.95450926
   -0.02643230     0.05075737     2.95450902
20MABNDB000069_PR031
    0.10999375    -0.16176865     9.20229721
    0.10999375    -0.16176865     9.20229721
    0.10999375    -0.16176865     9.20229721
    0.10999375    -0.16176865     9.20229721
20MABNDB000069_PR033
   -0.02677177    -0.02692484     1.28394127
   -0.02677144    -0.02692725     1.28394127
   -0.02677178    -0.02692723     1.28394127
   -0.02677172    -0.02692587     1.28394127
20MABNDB000131_PR032
   -0.18794373    -0.02972297    11.00642204
   -0.18795308    -0.02975005    11.00642204
   -0.18797432    -0.02973773    11.00642014
   -0.18797293    -0.02972238    11.00642014
20MABNDB000131_PR034
    0.01432517     0.01652109     3.43337870
    0.01432449     0.01652040     3.43337870
    0.01432265     0.01652426     3.43337870
    0.01432882     0.01652156     3.43337870
20MABNDA000208_PR042
    0.13264599     0.01456954     9.20144749
    0.13264412     0.01460330     9.20144749
    0.13264108     0.01458059     9.20144749
    0.13264966     0.01458121     9.20144749
20MABNDA000208_PR046
   -0.02348532     0.03461216     1.28208184
   -0.02348523     0.03461267     1.28208184
   -0.02347959     0.03460917     1.28208184
   -0.02348233     0.03461020     1.28208184
20MABNDA000035_PR044
   -0.17997816     0.02662774    11.00802231
   -0.18002790     0.02662736    11.00802231
   -0.18000370     0.02663743    11.00802231
   -0.17997882     0.02663872    11.00802231
20MABNDA000035_PR045
    0.01460501    -0.01894359     3.43483734
    0.01460841    -0.01894658     3.43483734
    0.01461844    -0.01894893     3.43483686
    0.01461253    -0.01894501     3.43483734
20MABNDA000188_PR008
    0.13650158    -0.07885031     9.20339394
    0.13650158    -0.07885031     9.20339394
    0.13650158    -0.07885031     9.20339394
    0.13650158    -0.07885031     9.20339394
20MABNDA000188_PR018
   -0.01664575     0.02630364     1.28357637
   -0.01664659     0.02630570     1.28357637
   -0.01664899     0.02630530     1.28357637
   -0.01664617     0.02630484     1.28357637
20MABNDA000039_PR009
   -0.17104395     0.02514752    11.00701714
   -0.17106366     0.02515491    11.00701714
   -0.17106360     0.02516881    11.00701714
   -0.17105715     0.02513880    11.00701714
20MABNDA000039_PR011
    0.03079240    -0.02456213     3.43347049
    0.03078831    -0.02455892     3.43347049
    0.03079287    -0.02455917     3.43347049
    0.03079354    -0.02456305     3.43347049
20MABNDB000155_PR020
    0.10211445    -0.00911794     9.20028305
    0.10212471    -0.00914972     9.20028305
    0.10203654    -0.00912146     9.20028496
    0.10205477    -0.00915437     9.20028305
20MABNDB000155_PR022
   -0.02555316    -0.01758936     1.28070855
   -0.02555247    -0.01758960     1.28070855
   -0.02555383    -0.01759014     1.28070855
   -0.02555079    -0.01758796     1.28070855
20MABNDB000010_PR021
   -0.17630681    -0.03368150    11.00694466
   -0.17632848    -0.03366128    11.00694466
   -0.17629215    -0.03372169    11.00694466
   -0.17628384    -0.03369214    11.00694466
20MABNDB000010_PR023
    0.00428448     0.02025152     3.43377209
    0.00428765     0.02025386     3.43377113
    0.00428825     0.02025915     3.43377113
    0.00428899     0.02025595     3.43377113


*****************************************************************coordonnees du prisme dans le repere ATLAS********************************************************************************** 
20MABNDL000077_PR002 0.00000000
    2.80187511    -3.68948412     6.48615026
    2.80199504    -3.68939471     6.48614979
    2.80196953    -3.68940306     6.48614979
    2.80187702    -3.68937564     6.48614883
    2.80172276    -3.68947697     6.48614931
20MABNDL000077_PR003 0.00000000
    2.83600330    -3.72376156     6.67526150
    2.83602571    -3.72374201     6.67526150
    2.83603716    -3.72372961     6.67526102
    2.83603740    -3.72372150     6.67526102
    2.83604383    -3.72373700     6.67526102
20MABNDL000077_20MABNDM000168 0.00000000
    2.77894926    -3.70638418    -2.68920016
    2.77895308    -3.70638943    -2.68920016
    2.77219534    -3.78916550    -2.68922043
    2.77895260    -3.70637178    -2.68920016
    2.77219033    -3.78916121    -2.68922043
20MABNDL000077_PR024 0.00000000
    2.82955647    -3.68727517    -3.11712050
    2.82955742    -3.68729854    -3.11712050
    2.82956553    -3.68729854    -3.11712050
    2.82957196    -3.68728638    -3.11712050
20MABNDM000020_PR013 0.00000000
   -2.76887536    -3.73456717     6.48600674
   -2.76652908    -3.74057579     6.48595381
   -2.76887536    -3.73456717     6.48600674
   -2.76887536    -3.73456717     6.48600674
20MABNDM000020_PR014 0.00000000
   -2.76261067    -3.64375567     7.43165112
   -2.76261067    -3.64375567     7.43165112
   -2.76261067    -3.64375567     7.43165112
   -2.76261067    -3.64375567     7.43165112
20MABNDM000020_20MABNDL000196 0.00000000
   -2.78289175    -3.75936151    -2.71088481
   -2.78290105    -3.75935936    -2.71088576
   -2.78289890    -3.75936460    -2.71088481
   -2.78289795    -3.75935721    -2.71088481
20MABNDM000020_PR035 0.00000000
   -2.84745717    -3.68992186    -3.11707973
   -2.84743595    -3.68990493    -3.11707973
   -2.84743977    -3.68990850    -3.11707973
   -2.84743047    -3.68991613    -3.11707973
20MABNDM000168_PR025 0.00000000
    2.77649045    -3.74397898    -6.47917938
    2.77033329    -3.76470828    -6.47897720
    2.77104568    -3.80184317    -6.47846556
    2.77649045    -3.74397898    -6.47917938
20MABNDM000168_PR026 0.00000000
    2.83925581    -3.68754840    -6.67493773
    2.83924747    -3.68755507    -6.67493820
    2.83923745    -3.68755841    -6.67493820
    2.83922982    -3.68755722    -6.67493820
20MABNDM000168_20MABNDL000077 0.00000000
    2.81544805    -3.75355935     2.69822621
    2.81545138    -3.75357604     2.69822621
    2.81541562    -3.75358129     2.69822621
    2.81541228    -3.75357366     2.69822621
20MABNDM000168_PR001 0.00000000
    2.84066510    -3.68437696     3.12405682
    2.84065628    -3.68437409     3.12405682
    2.84066129    -3.68437314     3.12405682
    2.84065795    -3.68436694     3.12405586
20MABNDL000196_PR036 0.00000000
   -2.84766531    -3.69291830    -6.47909546
   -2.84765983    -3.69291711    -6.47909546
   -2.84766197    -3.69290876    -6.47909546
   -2.84764814    -3.69290876    -6.47909546
20MABNDL000196_PR037 0.00000000
   -2.82501602    -3.76960421    -6.67506552
   -2.82502294    -3.76959538    -6.67506552
   -2.82502127    -3.76960206    -6.67506552
   -2.82502484    -3.76959682    -6.67506552
20MABNDL000196_20MABNDM000020 0.00000000
   -2.81551814    -3.75148392     2.68347335
   -2.81551170    -3.75148702     2.68347335
   -2.81552315    -3.75147772     2.68347335
   -2.81551576    -3.75147247     2.68347335
20MABNDL000196_PR012 0.00000000
   -2.83889866    -3.68303609     3.12404418
   -2.83890367    -3.68303013     3.12404418
   -2.83890581    -3.68302441     3.12404323
   -2.83890414    -3.68301654     3.12404323
20MABNDA000318_PR004 0.00000000
    2.61455798    -4.19698858     3.83364415
    2.61456251    -4.19698858     3.83364391
    2.61456013    -4.19698858     3.83365035
    2.61455417    -4.19698858     3.83365512
20MABNDA000334_PR005 0.00000000
    2.61671257    -4.19703102     5.89760494
    2.61671281    -4.19703102     5.89760065
    2.61671114    -4.19703102     5.89760399
    2.61671591    -4.19703102     5.89760303
20MABNDB000317_PR015 0.00000000
   -2.61122036    -4.19700575     3.83604145
   -2.61121869    -4.19700575     3.83604217
   -2.61121869    -4.19700575     3.83604121
   -2.61121202    -4.19700575     3.83603787
20MABNDB000146_PR016 0.00000000
   -2.61273909    -4.19702482     5.89859152
   -2.61273861    -4.19702482     5.89859390
   -2.61273837    -4.19702482     5.89859247
   -2.61273766    -4.19702482     5.89859438
20MABNDB000135_PR027 0.00000000
    2.60383177    -4.19700432    -3.82551146
    2.60383248    -4.19700432    -3.82551265
    2.60383201    -4.19700432    -3.82551289
    2.60382843    -4.19700432    -3.82550907
20MABNDB000126_PR028 0.00000000
    2.60556245    -4.19702148    -5.89323235
    2.60555577    -4.19702148    -5.89322948
    2.60556197    -4.19702148    -5.89322853
    2.60556126    -4.19702148    -5.89322758
20MABNDA000272_PR038 0.00000000
   -2.61134744    -4.19698286    -3.82753325
   -2.61134768    -4.19698286    -3.82753229
   -2.61135530    -4.19698286    -3.82753181
   -2.61134958    -4.19698286    -3.82753253
20MABNDA000003_PR039 0.00000000
   -2.61581731    -4.19702291    -5.89137888
   -2.61582208    -4.19702291    -5.89137888
   -2.61581707    -4.19702291    -5.89137840
   -2.61581659    -4.19702291    -5.89138079
20MABNDA000196_PR006 0.00000000
    2.58486652    -4.19496393     6.54819584
    2.58487010    -4.19496393     6.54819345
    2.58486772    -4.19496393     6.54819489
    2.58487034    -4.19496393     6.54819345
20MABNDA000324_PR007 0.00000000
    2.59405446    -4.13996458     6.94838047
    2.59405088    -4.13996458     6.94837523
    2.59404874    -4.13996458     6.94837761
    2.59403658    -4.13996458     6.94838047
20MABNDB000001_PR017 0.00000000
   -2.59784913    -4.19505882     6.53813648
   -2.59785247    -4.19505882     6.53813648
   -2.59784985    -4.19505882     6.53813648
   -2.59785056    -4.19505882     6.53813791
20MABNDB000260_PR019 0.00000000
   -2.60439396    -4.13996029     6.94217730
   -2.60439920    -4.13996029     6.94218397
   -2.60439849    -4.13996029     6.94218063
   -2.60439229    -4.13996029     6.94217539
20MABNDB000212_PR029 0.00000000
    2.59913421    -4.19501162    -6.54730606
    2.59913278    -4.19501162    -6.54730701
    2.59913516    -4.19501162    -6.54730749
    2.59913445    -4.19501162    -6.54730511
20MABNDB000128_PR030 0.00000000
    2.60958338    -4.14002705    -6.93127632
    2.60957313    -4.14002705    -6.93127632
    2.60957956    -4.14002705    -6.93127298
    2.60958076    -4.14002705    -6.93127680
20MABNDA000444_PR040 0.00000000
   -2.60509133    -4.19509745    -6.54007721
   -2.60509014    -4.19509745    -6.54007435
   -2.60508990    -4.19509745    -6.54007626
   -2.60509253    -4.19509745    -6.54007483
20MABNDA000053_PR041 0.00000000
   -2.59412050    -4.14012241    -6.92716122
   -2.59410596    -4.14012241    -6.92716408
   -2.59411836    -4.14012241    -6.92717028
   -2.59410954    -4.14012241    -6.92715597
20MABNDB000069_PR031 0.00000000
    3.69177032     3.84800911    -7.77863359
    3.69177032     3.84800911    -7.77863359
    3.69177032     3.84800911    -7.77863359
    3.69177032     3.84800911    -7.77863359
20MABNDB000069_PR033 0.00000000
    3.53352761    -4.07046223    -7.87874651
    3.53352809    -4.07046223    -7.87874413
    3.53352761    -4.07046223    -7.87874413
    3.53352761    -4.07046223    -7.87874556
20MABNDB000131_PR032 0.00000000
    3.86874628     3.64757204   -12.94036579
    3.86875558     3.64757204   -12.94039249
    3.86877680     3.64757013   -12.94038010
    3.86877537     3.64757013   -12.94036484
20MABNDB000131_PR034 0.00000000
    3.67346406    -3.92563772   -12.89142609
    3.67346478    -3.92563772   -12.89142704
    3.67346668    -3.92563772   -12.89142323
    3.67346048    -3.92563772   -12.89142609
20MABNDA000208_PR042 0.00000000
   -3.68272424     3.84912753    -7.89691687
   -3.68272233     3.84912777    -7.89688301
   -3.68271923     3.84912753    -7.89690590
   -3.68272781     3.84912753    -7.89690542
20MABNDA000208_PR046 0.00000000
   -3.53228021    -4.07034016    -7.87390614
   -3.53228021    -4.07034016    -7.87390566
   -3.53228593    -4.07034016    -7.87390900
   -3.53228307    -4.07034016    -7.87390804
20MABNDA000035_PR044 0.00000000
   -3.86921906     3.64757752   -12.93230724
   -3.86926889     3.64757752   -12.93230629
   -3.86924458     3.64757752   -12.93231678
   -3.86921978     3.64757752   -12.93231773
20MABNDA000035_PR045 0.00000000
   -3.67612338    -3.92564988   -12.88744068
   -3.67612004    -3.92564988   -12.88743782
   -3.67611003    -3.92565036   -12.88743591
   -3.67611575    -3.92564988   -12.88743973
20MABNDA000188_PR008 0.00000000
    3.54951787     3.84898496     8.09023857
    3.54951787     3.84898496     8.09023857
    3.54951787     3.84898496     8.09023857
    3.54951787     3.84898496     8.09023857
20MABNDA000188_PR018 0.00000000
    3.52049851    -4.07060432     7.89713812
    3.52049780    -4.07060432     7.89713621
    3.52049541    -4.07060432     7.89713669
    3.52049828    -4.07060432     7.89713717
20MABNDA000039_PR009 0.00000000
    3.87521601     3.64747548    12.93644142
    3.87523556     3.64747548    12.93644905
    3.87523556     3.64747548    12.93646240
    3.87522912     3.64747548    12.93643284
20MABNDA000039_PR011 0.00000000
    3.66423178    -3.92580533    12.88427448
    3.66423583    -3.92580533    12.88427734
    3.66423130    -3.92580533    12.88427734
    3.66423059    -3.92580533    12.88427353
20MABNDB000155_PR020 0.00000000
   -3.68076682     3.84881616     7.89774942
   -3.68077707     3.84881616     7.89771748
   -3.68068886     3.84881806     7.89774561
   -3.68070698     3.84881616     7.89771271
20MABNDB000155_PR022 0.00000000
   -3.53442740    -4.07043648     7.89047003
   -3.53442812    -4.07043648     7.89046955
   -3.53442669    -4.07043648     7.89046907
   -3.53442979    -4.07043648     7.89047146
20MABNDB000010_PR021 0.00000000
   -3.86214399     3.64768219    12.93551159
   -3.86216569     3.64768219    12.93549061
   -3.86212945     3.64768219    12.93555164
   -3.86212111     3.64768219    12.93552208
20MABNDB000010_PR023 0.00000000
   -3.68538189    -3.92560458    12.88502407
   -3.68537879    -3.92560554    12.88502216
   -3.68537807    -3.92560554    12.88501644
   -3.68537736    -3.92560554    12.88502026


*****************************************************************Rapport********************************************************************************** 
CAM-LBA-US_EBA-US-HO-H         2017.09.03.05.53.20     2.80188789    -3.68942690     6.48614960     0.00009560     0.00004475     0.00000049 0.00000000 VRAI 
CAM-LBA-US_JDA-US-H            2017.09.03.05.53.20     2.83602948    -3.72373834     6.67526121     0.00001433     0.00001352     0.00000023 0.00000000 VRAI 
CAM-LBA-US_CAM-LBC-US          2017.09.03.05.53.20     2.77624812    -3.73949442    -2.68920827     0.00331113     0.04055451     0.00000993 0.00000000 VRAI 
CAM-LBA-US_EBC-US-IP-H         2017.09.03.05.53.20     2.82956284    -3.68728966    -3.11712050     0.00000633     0.00000972     0.00000000 0.00000000 VRAI 
CAM-LBA-USA_EBA-USA-HO-H       2017.09.03.05.53.20    -2.76828879    -3.73606932     6.48599350     0.00101597     0.00260181     0.00002292 0.00000000 VRAI 
CAM-LBA-USA_JDA-USA-H          2017.09.03.05.53.20    -2.76261067    -3.64375567     7.43165112     0.00000000     0.00000000     0.00000000 0.00000000 VRAI 
CAM-LBA-USA_CAM-LBC-USA        2017.09.03.05.53.20    -2.78289741    -3.75936067    -2.71088505     0.00000346     0.00000273     0.00000041 0.00000000 VRAI 
CAM-LBA-USA_EBC-USA-IP-H       2017.09.03.05.53.20    -2.84744084    -3.68991286    -3.11707973     0.00000999     0.00000659     0.00000000 0.00000000 VRAI 
CAM-LBC-US_EBC-US-HO-H         2017.09.03.05.53.20     2.77358997    -3.76362735    -6.47895038     0.00291140     0.02363120     0.00029183 0.00000000 VRAI 
CAM-LBC-US_JDC-US-H            2017.09.03.05.53.20     2.83924264    -3.68755478    -6.67493808     0.00000985     0.00000387     0.00000021 0.00000000 VRAI 
CAM-LBC-US_CAM-LBA-US          2017.09.03.05.53.20     2.81543183    -3.75357258     2.69822621     0.00001796     0.00000812     0.00000000 0.00000000 VRAI 
CAM-LBC-US_EBA-US-IP-H         2017.09.03.05.53.20     2.84066015    -3.68437278     3.12405658     0.00000338     0.00000365     0.00000041 0.00000000 VRAI 
CAM-LBC-USA_EBC-USA-HO-H       2017.09.03.05.53.20    -2.84765881    -3.69291323    -6.47909546     0.00000646     0.00000449     0.00000000 0.00000000 VRAI 
CAM-LBC-USA_JDC-USA-H          2017.09.03.05.53.20    -2.82502127    -3.76959962    -6.67506552     0.00000328     0.00000363     0.00000000 0.00000000 VRAI 
CAM-LBC-USA_CAM-LBA-USA        2017.09.03.05.53.20    -2.81551719    -3.75148028     2.68347335     0.00000414     0.00000562     0.00000000 0.00000000 VRAI 
CAM-LBC-USA_EBA-USA-IP-H       2017.09.03.05.53.20    -2.83890307    -3.68302679     3.12404370     0.00000267     0.00000722     0.00000048 0.00000000 VRAI 
CAM-EBA-US-IP_EBA-US-IP        2017.09.03.05.53.20     2.61455870    -4.19698858     3.83364838     0.00000307     0.00000000     0.00000467 0.00000000 VRAI 
CAM-EBA-US-HO_EBA-US-HO        2017.09.03.05.53.20     2.61671311    -4.19703102     5.89760315     0.00000174     0.00000000     0.00000159 0.00000000 VRAI 
CAM-EBA-USA-IP_EBA-USA-IP      2017.09.03.05.53.20    -2.61121744    -4.19700575     3.83604068     0.00000320     0.00000000     0.00000166 0.00000000 VRAI 
CAM-EBA-USA-HO_EBA-USA-HO      2017.09.03.05.53.20    -2.61273843    -4.19702482     5.89859307     0.00000052     0.00000000     0.00000114 0.00000000 VRAI 
CAM-EBC-US-IP_EBC-US-IP        2017.09.03.05.53.20     2.60383117    -4.19700432    -3.82551152     0.00000160     0.00000000     0.00000151 0.00000000 VRAI 
CAM-EBC-US-HO_EBC-US-HO        2017.09.03.05.53.20     2.60556036    -4.19702148    -5.89322948     0.00000268     0.00000000     0.00000178 0.00000000 VRAI 
CAM-EBC-USA-IP_EBC-USA-IP      2017.09.03.05.53.20    -2.61135000    -4.19698286    -3.82753247     0.00000317     0.00000000     0.00000052 0.00000000 VRAI 
CAM-EBC-USA-HO_EBC-USA-HO      2017.09.03.05.53.20    -2.61581826    -4.19702291    -5.89137924     0.00000222     0.00000000     0.00000092 0.00000000 VRAI 
CAM-JDA-US-IP_JDA-US-IP        2017.09.03.05.53.20     2.58486867    -4.19496393     6.54819441     0.00000161     0.00000000     0.00000101 0.00000000 VRAI 
CAM-JDA-US-HO_JDA-US-HO        2017.09.03.05.53.20     2.59404767    -4.13996458     6.94837844     0.00000672     0.00000000     0.00000219 0.00000000 VRAI 
CAM-JDA-USA-IP_JDA-USA-IP      2017.09.03.05.53.20    -2.59785050    -4.19505882     6.53813684     0.00000124     0.00000000     0.00000062 0.00000000 VRAI 
CAM-JDA-USA-HO_JDA-USA-HO      2017.09.03.05.53.20    -2.60439599    -4.13996029     6.94217932     0.00000293     0.00000000     0.00000328 0.00000000 VRAI 
CAM-JDC-US-IP_JDC-US-IP        2017.09.03.05.53.20     2.59913415    -4.19501162    -6.54730642     0.00000087     0.00000000     0.00000092 0.00000000 VRAI 
CAM-JDC-US-HO_JDC-US-HO        2017.09.03.05.53.20     2.60957921    -4.14002705    -6.93127561     0.00000377     0.00000000     0.00000153 0.00000000 VRAI 
CAM-JDC-USA-IP_JDC-USA-IP      2017.09.03.05.53.20    -2.60509098    -4.19509745    -6.54007566     0.00000105     0.00000000     0.00000114 0.00000000 VRAI 
CAM-JDC-USA-HO_JDC-USA-HO      2017.09.03.05.53.20    -2.59411359    -4.14012241    -6.92716289     0.00000602     0.00000000     0.00000516 0.00000000 VRAI 
CAM-ECTC-US-IP_ECTC-US-IP-T    2017.09.03.05.53.20     3.69177032     3.84800911    -7.77863359     0.00000000     0.00000000     0.00000000 0.00000000 VRAI 
CAM-ECTC-US-IP_ECTC-US-IP      2017.09.03.05.53.20     3.53352773    -4.07046223    -7.87874508     0.00000021     0.00000000     0.00000101 0.00000000 VRAI 
CAM-ECTC-US-HO_ECTC-US-HO-T    2017.09.03.05.53.20     3.86876351     3.64757109   -12.94037580     0.00001301     0.00000095     0.00001137 0.00000000 VRAI 
CAM-ECTC-US-HO_ECTC-US-HO      2017.09.03.05.53.20     3.67346400    -3.92563772   -12.89142561     0.00000225     0.00000000     0.00000143 0.00000000 VRAI 
CAM-ECTC-USA-IP_ECTC-USA-IP-T  2017.09.03.05.53.20    -3.68272340     3.84912759    -7.89690280     0.00000311     0.00000010     0.00001231 0.00000000 VRAI 
CAM-ECTC-USA-IP_ECTC-USA-IP    2017.09.03.05.53.20    -3.53228235    -4.07034016    -7.87390721     0.00000237     0.00000000     0.00000136 0.00000000 VRAI 
CAM-ECTC-USA-HO_ECTC-USA-HO-T  2017.09.03.05.53.20    -3.86923808     3.64757752   -12.93231201     0.00002054     0.00000000     0.00000527 0.00000000 VRAI 
CAM-ECTC-USA-HO_ECTC-USA-HO    2017.09.03.05.53.20    -3.67611730    -3.92565000   -12.88743854     0.00000499     0.00000021     0.00000183 0.00000000 VRAI 
CAM-ECTA-US-IP_ECTA-US-IP-T    2017.09.03.05.53.20     3.54951787     3.84898496     8.09023857     0.00000000     0.00000000     0.00000000 0.00000000 VRAI 
CAM-ECTA-US-IP_ECTA-US-IP      2017.09.03.05.53.20     3.52049750    -4.07060432     7.89713705     0.00000123     0.00000000     0.00000071 0.00000000 VRAI 
CAM-ECTA-US-HO_ECTA-US-HO-T    2017.09.03.05.53.20     3.87522906     3.64747548    12.93644643     0.00000798     0.00000000     0.00001086 0.00000000 VRAI 
CAM-ECTA-US-HO_ECTA-US-HO      2017.09.03.05.53.20     3.66423237    -3.92580533    12.88427567     0.00000204     0.00000000     0.00000170 0.00000000 VRAI 
CAM-ECTA-USA-IP_ECTA-USA-IP-T  2017.09.03.05.53.20    -3.68073493     3.84881663     7.89773130     0.00003774     0.00000083     0.00001636 0.00000000 VRAI 
CAM-ECTA-USA-IP_ECTA-USA-IP    2017.09.03.05.53.20    -3.53442800    -4.07043648     7.89047003     0.00000115     0.00000000     0.00000089 0.00000000 VRAI 
CAM-ECTA-USA-HO_ECTA-USA-HO-T  2017.09.03.05.53.20    -3.86214006     3.64768219    12.93551898     0.00001691     0.00000000     0.00002200 0.00000000 VRAI 
CAM-ECTA-USA-HO_ECTA-USA-HO    2017.09.03.05.53.20    -3.68537903    -3.92560530    12.88502073     0.00000173     0.00000041     0.00000282 0.00000000 VRAI 
