********** Fichier qui contient une sauvegarde des coordonnees images + coordonnees images transformees dans le repere BCAM (MOUNT) + coordonnees des prismes dans le repere MOUNT********** 
********************************************************************** Unite en metres (m)************************************************************************************************** 

*******************************************************************coordonnees images dans le repere CCD *********************************************************************************** 
20MABNDL000077_PR002
Spot 1     0.00052500     0.00043500
Spot 2     0.00052500     0.00043500
Spot 1     0.00052500     0.00043500
Spot 2     0.00052500     0.00043500
Spot 1     0.00121334     0.00150982
Spot 2     0.00052500     0.00043500
20MABNDL000077_PR003
Spot 1     0.00138580     0.00149168
Spot 2     0.00153595     0.00149338
Spot 1     0.00138589     0.00149175
Spot 2     0.00153623     0.00149317
Spot 1     0.00138589     0.00149180
Spot 2     0.00153633     0.00149353
20MABNDL000077_20MABNDM000168
Spot 1     0.00175860     0.00118283
Spot 2     0.00158109     0.00121020
Spot 1     0.00175861     0.00118315
Spot 2     0.00158116     0.00121014
Spot 1     0.00175845     0.00118293
Spot 2     0.00158117     0.00120997
20MABNDL000077_PR024
Spot 1     0.00254866     0.00144552
Spot 2     0.00264705     0.00145343
Spot 1     0.00254878     0.00144601
Spot 2     0.00264722     0.00145339
Spot 1     0.00254856     0.00144567
Spot 2     0.00264721     0.00145345
20MABNDM000020_PR013
Spot 1     0.00162747     0.00152862
Spot 2     0.00147323     0.00153532
Spot 1     0.00162769     0.00152845
Spot 2     0.00147314     0.00153525
Spot 1     0.00162780     0.00152860
Spot 2     0.00147321     0.00153548
20MABNDM000020_PR014
Spot 1     0.00265772     0.00169163
Spot 2     0.00249376     0.00169508
Spot 1     0.00265769     0.00169145
Spot 2     0.00249372     0.00169477
Spot 1     0.00265772     0.00169161
Spot 2     0.00249380     0.00169518
20MABNDM000020_20MABNDL000196
Spot 1     0.00197707     0.00117745
Spot 2     0.00320500     0.00025500
Spot 1     0.00197704     0.00117729
Spot 2     0.00230500     0.00010500
Spot 1     0.00197697     0.00117753
Spot 2     0.00320500     0.00025500
20MABNDM000020_PR035
Spot 1     0.00126823     0.00149616
Spot 2     0.00118724     0.00152863
Spot 1     0.00126843     0.00149595
Spot 2     0.00118747     0.00152856
Spot 1     0.00126823     0.00149602
Spot 2     0.00118732     0.00152901
20MABNDM000168_PR025
Spot 1     0.00117381     0.00130387
Spot 2     0.00101952     0.00130405
Spot 1     0.00117368     0.00130362
Spot 2     0.00101964     0.00130423
Spot 1     0.00117366     0.00130413
Spot 2     0.00101956     0.00130426
20MABNDM000168_PR026
Spot 1     0.00266462     0.00143298
Spot 2     0.00250317     0.00142981
Spot 1     0.00266475     0.00143337
Spot 2     0.00250303     0.00143007
Spot 1     0.00266462     0.00143344
Spot 2     0.00250306     0.00142988
20MABNDM000168_20MABNDL000077
Spot 1     0.00153997     0.00129986
Spot 2     0.00175543     0.00130377
Spot 1     0.00153984     0.00129974
Spot 2     0.00175531     0.00130355
Spot 1     0.00153985     0.00129958
Spot 2     0.00175505     0.00130340
20MABNDM000168_PR001
Spot 1     0.00080614     0.00161636
Spot 2     0.00070099     0.00161872
Spot 1     0.00080600     0.00161643
Spot 2     0.00070095     0.00161857
Spot 1     0.00080601     0.00161601
Spot 2     0.00070157     0.00161848
20MABNDL000196_PR036
Spot 1     0.00094921     0.00163965
Spot 2     0.00111486     0.00163867
Spot 1     0.00094921     0.00163956
Spot 2     0.00111485     0.00163916
Spot 1     0.00094917     0.00163948
Spot 2     0.00111472     0.00163846
20MABNDL000196_PR037
Spot 1     0.00246918     0.00117727
Spot 2     0.00262533     0.00117554
Spot 1     0.00246871     0.00117738
Spot 2     0.00262506     0.00117556
Spot 1     0.00246879     0.00117704
Spot 2     0.00262524     0.00117564
20MABNDL000196_20MABNDM000020
Spot 1     0.00192629     0.00104152
Spot 2     0.00170511     0.00104770
Spot 1     0.00192619     0.00104170
Spot 2     0.00170518     0.00104757
Spot 1     0.00192623     0.00104133
Spot 2     0.00170500     0.00104680
20MABNDL000196_PR012
Spot 1     0.00265175     0.00134093
Spot 2     0.00272583     0.00138779
Spot 1     0.00265165     0.00134106
Spot 2     0.00272562     0.00138768
Spot 1     0.00265178     0.00134091
Spot 2     0.00272556     0.00138768
20MABNDA000318_PR004
Spot 1     0.00192300     0.00162503
Spot 2     0.00214347     0.00162401
Spot 1     0.00192294     0.00162481
Spot 2     0.00214340     0.00162420
Spot 1     0.00192323     0.00162500
Spot 2     0.00214333     0.00162416
20MABNDA000334_PR005
Spot 1     0.00247229     0.00158756
Spot 2     0.00219223     0.00158819
Spot 1     0.00247223     0.00158793
Spot 2     0.00219227     0.00158795
Spot 1     0.00247240     0.00158750
Spot 2     0.00219216     0.00158812
20MABNDB000317_PR015
Spot 1     0.00170736     0.00158260
Spot 2     0.00148609     0.00159008
Spot 1     0.00170720     0.00158250
Spot 2     0.00148619     0.00158998
Spot 1     0.00170708     0.00158263
Spot 2     0.00148632     0.00159037
20MABNDB000146_PR016
Spot 1     0.00144309     0.00132389
Spot 2     0.00172055     0.00132670
Spot 1     0.00144322     0.00132420
Spot 2     0.00172033     0.00132680
Spot 1     0.00144354     0.00132398
Spot 2     0.00172023     0.00132672
20MABNDB000135_PR027
Spot 1     0.00188980     0.00091460
Spot 2     0.00210829     0.00091749
Spot 1     0.00188981     0.00091477
Spot 2     0.00210828     0.00091688
Spot 1     0.00188967     0.00091490
Spot 2     0.00210819     0.00091743
20MABNDB000126_PR028
Spot 1     0.00164237     0.00201159
Spot 2     0.00192582     0.00201211
Spot 1     0.00164249     0.00201169
Spot 2     0.00192600     0.00201224
Spot 1     0.00164269     0.00201160
Spot 2     0.00192599     0.00201242
20MABNDA000272_PR038
Spot 1     0.00192060     0.00095125
Spot 2     0.00169638     0.00094994
Spot 1     0.00192042     0.00095146
Spot 2     0.00169669     0.00094986
Spot 1     0.00192054     0.00095132
Spot 2     0.00169646     0.00095011
20MABNDA000003_PR039
Spot 1     0.00199782     0.00192690
Spot 2     0.00227693     0.00192781
Spot 1     0.00199786     0.00192708
Spot 2     0.00227629     0.00192781
Spot 1     0.00199759     0.00192703
Spot 2     0.00227665     0.00192786
20MABNDA000196_PR006
Spot 1     0.00200045     0.00072730
Spot 2     0.00163421     0.00072439
Spot 1     0.00200034     0.00072730
Spot 2     0.00163440     0.00072440
Spot 1     0.00200019     0.00072724
Spot 2     0.00163382     0.00072455
20MABNDA000324_PR007
Spot 1     0.00194107     0.00121731
Spot 2     0.00173340     0.00122236
Spot 1     0.00194086     0.00121714
Spot 2     0.00173337     0.00122227
Spot 1     0.00194113     0.00121736
Spot 2     0.00173314     0.00122232
20MABNDB000001_PR017
Spot 1     0.00189522     0.00043840
Spot 2     0.00226382     0.00044833
Spot 1     0.00189554     0.00043857
Spot 2     0.00226364     0.00044795
Spot 1     0.00189573     0.00043851
Spot 2     0.00226382     0.00044794
20MABNDB000260_PR019
Spot 1     0.00191827     0.00150656
Spot 2     0.00212250     0.00150583
Spot 1     0.00191837     0.00150663
Spot 2     0.00212167     0.00150722
Spot 1     0.00191828     0.00150669
Spot 2     0.00212300     0.00150700
20MABNDB000212_PR029
Spot 1     0.00222917     0.00069990
Spot 2     0.00186776     0.00070043
Spot 1     0.00222898     0.00069996
Spot 2     0.00186772     0.00070012
Spot 1     0.00222905     0.00070013
Spot 2     0.00186805     0.00070042
20MABNDB000128_PR030
Spot 1     0.00190648     0.00200500
Spot 2     0.00211223     0.00199849
Spot 1     0.00190629     0.00200490
Spot 2     0.00211220     0.00199855
Spot 1     0.00190632     0.00200500
Spot 2     0.00211211     0.00199842
20MABNDA000444_PR040
Spot 1     0.00074246     0.00035365
Spot 2     0.00111060     0.00035040
Spot 1     0.00074248     0.00035354
Spot 2     0.00111042     0.00035021
Spot 1     0.00074250     0.00035347
Spot 2     0.00111074     0.00035074
20MABNDA000053_PR041
Spot 1     0.00165529     0.00199436
Spot 2     0.00144431     0.00199307
Spot 1     0.00165560     0.00199425
Spot 2     0.00144408     0.00199252
Spot 1     0.00165509     0.00199470
Spot 2     0.00144433     0.00199319
20MABNDA000188_PR008
Spot 1     0.00297500     0.00011500
Spot 2     0.00297500     0.00011500
Spot 1     0.00297500     0.00011500
Spot 2     0.00297500     0.00011500
Spot 1     0.00297500     0.00011500
Spot 2     0.00297500     0.00011500
20MABNDA000188_PR018
Spot 1     0.00158359     0.00154098
Spot 2     0.00111617     0.00153752
Spot 1     0.00158374     0.00154101
Spot 2     0.00111611     0.00153769
Spot 1     0.00158367     0.00154106
Spot 2     0.00111627     0.00153750
20MABNDA000039_PR009
Spot 1     0.00065139     0.00120105
Spot 2     0.00060222     0.00120567
Spot 1     0.00065164     0.00120109
Spot 2     0.00060261     0.00120563
Spot 1     0.00065171     0.00120154
Spot 2     0.00060253     0.00120578
20MABNDA000039_PR011
Spot 1     0.00275609     0.00035795
Spot 2     0.00257996     0.00035277
Spot 1     0.00275621     0.00035796
Spot 2     0.00257996     0.00035291
Spot 1     0.00275632     0.00035803
Spot 2     0.00258008     0.00035289
20MABNDB000155_PR020
Spot 1     0.00067199     0.00111071
Spot 2     0.00074015     0.00110600
Spot 1     0.00067223     0.00111070
Spot 2     0.00074049     0.00110602
Spot 1     0.00067198     0.00111054
Spot 2     0.00074023     0.00110626
20MABNDB000155_PR022
Spot 1     0.00224827     0.00122188
Spot 2     0.00272214     0.00121805
Spot 1     0.00224835     0.00122204
Spot 2     0.00272197     0.00121809
Spot 1     0.00224838     0.00122211
Spot 2     0.00272186     0.00121817
20MABNDB000010_PR021
Spot 1     0.00287612     0.00116877
Spot 2     0.00270875     0.00093098
Spot 1     0.00287617     0.00116909
Spot 2     0.00270879     0.00093193
Spot 1     0.00287644     0.00116874
Spot 2     0.00270951     0.00093079
20MABNDB000010_PR023
Spot 1     0.00132199     0.00037094
Spot 2     0.00149782     0.00036872
Spot 1     0.00132234     0.00037086
Spot 2     0.00149737     0.00036860
20MABNDB000069_PR031
Spot 1     0.00032250     0.00137355
Spot 2     0.00039028     0.00137710
Spot 1     0.00032198     0.00137402
Spot 2     0.00039019     0.00137703
20MABNDB000069_PR033
Spot 1     0.00191236     0.00182637
Spot 2     0.00238291     0.00184634
Spot 1     0.00191237     0.00182629
Spot 2     0.00238298     0.00184622
20MABNDB000131_PR032
Spot 1     0.00277382     0.00110895
Spot 2     0.00283436     0.00111260
Spot 1     0.00277388     0.00110896
Spot 2     0.00283457     0.00111258
20MABNDB000131_PR034
Spot 1     0.00091365     0.00041715
Spot 2     0.00108979     0.00041649
Spot 1     0.00091348     0.00041713
Spot 2     0.00108980     0.00041649
20MABNDA000208_PR042
Spot 1     0.00268125     0.00036125
Spot 2     0.00296000     0.00093500
Spot 1     0.00276167     0.00005833
Spot 2     0.00263250     0.00056250
20MABNDA000208_PR046
Spot 1     0.00131072     0.00200914
Spot 2     0.00083845     0.00201226
Spot 1     0.00131031     0.00200891
Spot 2     0.00083885     0.00201233
20MABNDA000035_PR044
Spot 1     0.00073930     0.00128100
Spot 2     0.00067886     0.00127551
Spot 1     0.00073971     0.00128063
Spot 2     0.00067908     0.00127517
20MABNDA000035_PR045
Spot 1     0.00253616     0.00054234
Spot 2     0.00235876     0.00054073
Spot 1     0.00253591     0.00054266
Spot 2     0.00235881     0.00054081


****************************************************************coordonnees images transformees dans le repere MOUNT************************************************************************* 
20MABNDL000077_PR002
Spot 1     0.01158509     0.03451311    -0.07463200
Spot 2     0.01158509     0.03451311    -0.07463200
Spot 1     0.01158509     0.03451311    -0.07463200
Spot 2     0.01158509     0.03451311    -0.07463200
Spot 1     0.01228374     0.03558126    -0.07463200
Spot 2     0.01158509     0.03451311    -0.07463200
20MABNDL000077_PR003
Spot 1     0.01245602     0.03556146    -0.07463200
Spot 2     0.01260618     0.03556172    -0.07463200
Spot 1     0.01245611     0.03556153    -0.07463200
Spot 2     0.01260645     0.03556150    -0.07463200
Spot 1     0.01245611     0.03556158    -0.07463200
Spot 2     0.01260656     0.03556186    -0.07463200
20MABNDL000077_20MABNDM000168
Spot 1    -0.01259373     0.03524580    -0.00695400
Spot 2    -0.01241651     0.03527499    -0.00695400
Spot 1    -0.01259374     0.03524612    -0.00695400
Spot 2    -0.01241658     0.03527492    -0.00695400
Spot 1    -0.01259358     0.03524590    -0.00695400
Spot 2    -0.01241659     0.03527475    -0.00695400
20MABNDL000077_PR024
Spot 1    -0.01338644     0.03550039    -0.00695400
Spot 2    -0.01348490     0.03550729    -0.00695400
Spot 1    -0.01338656     0.03550088    -0.00695400
Spot 2    -0.01348507     0.03550725    -0.00695400
Spot 1    -0.01338634     0.03550054    -0.00695400
Spot 2    -0.01348506     0.03550731    -0.00695400
20MABNDM000020_PR013
Spot 1    -0.01273143    -0.03548729    -0.00523500
Spot 2    -0.01288549    -0.03549740    -0.00523500
Spot 1    -0.01273122    -0.03548712    -0.00523500
Spot 2    -0.01288558    -0.03549734    -0.00523500
Spot 1    -0.01273110    -0.03548727    -0.00523500
Spot 2    -0.01288550    -0.03549756    -0.00523500
20MABNDM000020_PR014
Spot 1    -0.01169783    -0.03562748    -0.00523500
Spot 2    -0.01186168    -0.03563456    -0.00523500
Spot 1    -0.01169787    -0.03562730    -0.00523500
Spot 2    -0.01186172    -0.03563425    -0.00523500
Spot 1    -0.01169783    -0.03562746    -0.00523500
Spot 2    -0.01186163    -0.03563466    -0.00523500
20MABNDM000020_20MABNDL000196
Spot 1     0.01270921    -0.03514601    -0.07583800
Spot 2     0.01148115    -0.03422373    -0.07583800
Spot 1     0.01270924    -0.03514585    -0.07583800
Spot 2     0.01238113    -0.03407361    -0.07583800
Spot 1     0.01270931    -0.03514609    -0.07583800
Spot 2     0.01148115    -0.03422373    -0.07583800
20MABNDM000020_PR035
Spot 1     0.01341809    -0.03546463    -0.07583800
Spot 2     0.01349909    -0.03549708    -0.07583800
Spot 1     0.01341789    -0.03546442    -0.07583800
Spot 2     0.01349886    -0.03549701    -0.07583800
Spot 1     0.01341809    -0.03546449    -0.07583800
Spot 2     0.01349901    -0.03549746    -0.07583800
20MABNDM000168_PR025
Spot 1    -0.01322905    -0.03564107    -0.00532900
Spot 2    -0.01338334    -0.03564191    -0.00532900
Spot 1    -0.01322918    -0.03564082    -0.00532900
Spot 2    -0.01338322    -0.03564209    -0.00532900
Spot 1    -0.01322920    -0.03564133    -0.00532900
Spot 2    -0.01338330    -0.03564212    -0.00532900
20MABNDM000168_PR026
Spot 1    -0.01173770    -0.03576377    -0.00532900
Spot 2    -0.01189916    -0.03576130    -0.00532900
Spot 1    -0.01173757    -0.03576416    -0.00532900
Spot 2    -0.01189930    -0.03576156    -0.00532900
Spot 1    -0.01173770    -0.03576423    -0.00532900
Spot 2    -0.01189927    -0.03576137    -0.00532900
20MABNDM000168_20MABNDL000077
Spot 1     0.01288549    -0.03530052    -0.07445100
Spot 2     0.01267000    -0.03530127    -0.07445100
Spot 1     0.01288563    -0.03530040    -0.07445100
Spot 2     0.01267012    -0.03530105    -0.07445100
Spot 1     0.01288562    -0.03530024    -0.07445100
Spot 2     0.01267039    -0.03530091    -0.07445100
20MABNDM000168_PR001
Spot 1     0.01361462    -0.03562772    -0.07445100
Spot 2     0.01371972    -0.03563162    -0.07445100
Spot 1     0.01361475    -0.03562779    -0.07445100
Spot 2     0.01371976    -0.03563147    -0.07445100
Spot 1     0.01361475    -0.03562737    -0.07445100
Spot 2     0.01371914    -0.03563137    -0.07445100
20MABNDL000196_PR036
Spot 1     0.01192913     0.03582835    -0.07483600
Spot 2     0.01209479     0.03582772    -0.07483600
Spot 1     0.01192913     0.03582826    -0.07483600
Spot 2     0.01209478     0.03582821    -0.07483600
Spot 1     0.01192910     0.03582818    -0.07483600
Spot 2     0.01209465     0.03582751    -0.07483600
20MABNDL000196_PR037
Spot 1     0.01345007     0.03536915    -0.07483600
Spot 2     0.01360622     0.03536774    -0.07483600
Spot 1     0.01344960     0.03536925    -0.07483600
Spot 2     0.01360595     0.03536776    -0.07483600
Spot 1     0.01344968     0.03536891    -0.07483600
Spot 2     0.01360613     0.03536784    -0.07483600
20MABNDL000196_20MABNDM000020
Spot 1    -0.01275034     0.03531271    -0.00611000
Spot 2    -0.01252933     0.03532334    -0.00611000
Spot 1    -0.01275024     0.03531290    -0.00611000
Spot 2    -0.01252940     0.03532321    -0.00611000
Spot 1    -0.01275028     0.03531253    -0.00611000
Spot 2    -0.01252920     0.03532245    -0.00611000
20MABNDL000196_PR012
Spot 1    -0.01348168     0.03559747    -0.00611000
Spot 2    -0.01355669     0.03564283    -0.00611000
Spot 1    -0.01348158     0.03559760    -0.00611000
Spot 2    -0.01355647     0.03564272    -0.00611000
Spot 1    -0.01348171     0.03559745    -0.00611000
Spot 2    -0.01355641     0.03564272    -0.00611000
20MABNDA000318_PR004
Spot 1    -0.01264282     0.01247086    -0.07310600
Spot 2    -0.01286330     0.01247123    -0.07310600
Spot 1    -0.01264276     0.01247108    -0.07310600
Spot 2    -0.01286322     0.01247104    -0.07310600
Spot 1    -0.01264305     0.01247089    -0.07310600
Spot 2    -0.01286315     0.01247108    -0.07310600
20MABNDA000334_PR005
Spot 1    -0.01311540     0.01254083    -0.07324100
Spot 2    -0.01283534     0.01253994    -0.07324100
Spot 1    -0.01311534     0.01254046    -0.07324100
Spot 2    -0.01283538     0.01254018    -0.07324100
Spot 1    -0.01311551     0.01254089    -0.07324100
Spot 2    -0.01283527     0.01254001    -0.07324100
20MABNDB000317_PR015
Spot 1    -0.01244674    -0.01251289    -0.07326100
Spot 2    -0.01266809    -0.01250798    -0.07326100
Spot 1    -0.01244690    -0.01251299    -0.07326100
Spot 2    -0.01266798    -0.01250808    -0.07326100
Spot 1    -0.01244702    -0.01251286    -0.07326100
Spot 2    -0.01266786    -0.01250769    -0.07326100
20MABNDB000146_PR016
Spot 1    -0.01276525    -0.01246972    -0.07450500
Spot 2    -0.01248780    -0.01246630    -0.07450500
Spot 1    -0.01276512    -0.01246941    -0.07450500
Spot 2    -0.01248802    -0.01246620    -0.07450500
Spot 1    -0.01276480    -0.01246963    -0.07450500
Spot 2    -0.01248812    -0.01246628    -0.07450500
20MABNDB000135_PR027
Spot 1    -0.01251489    -0.01319841    -0.07464700
Spot 2    -0.01229638    -0.01319795    -0.07464700
Spot 1    -0.01251488    -0.01319824    -0.07464700
Spot 2    -0.01229640    -0.01319856    -0.07464700
Spot 1    -0.01251501    -0.01319811    -0.07464700
Spot 2    -0.01229648    -0.01319801    -0.07464700
20MABNDB000126_PR028
Spot 1    -0.01253718    -0.01217059    -0.07500400
Spot 2    -0.01225373    -0.01216856    -0.07500400
Spot 1    -0.01253706    -0.01217049    -0.07500400
Spot 2    -0.01225356    -0.01216843    -0.07500400
Spot 1    -0.01253686    -0.01217058    -0.07500400
Spot 2    -0.01225357    -0.01216825    -0.07500400
20MABNDA000272_PR038
Spot 1    -0.01275625     0.01316021    -0.07417900
Spot 2    -0.01253203     0.01316113    -0.07417900
Spot 1    -0.01275607     0.01316000    -0.07417900
Spot 2    -0.01253234     0.01316121    -0.07417900
Spot 1    -0.01275619     0.01316014    -0.07417900
Spot 2    -0.01253211     0.01316096    -0.07417900
20MABNDA000003_PR039
Spot 1    -0.01279891     0.01212536    -0.07373400
Spot 2    -0.01307802     0.01212516    -0.07373400
Spot 1    -0.01279895     0.01212518    -0.07373400
Spot 2    -0.01307738     0.01212516    -0.07373400
Spot 1    -0.01279868     0.01212523    -0.07373400
Spot 2    -0.01307774     0.01212511    -0.07373400
20MABNDA000196_PR006
Spot 1    -0.01295513     0.01325111    -0.07967100
Spot 2    -0.01258888     0.01324931    -0.07967100
Spot 1    -0.01295502     0.01325111    -0.07967100
Spot 2    -0.01258907     0.01324930    -0.07967100
Spot 1    -0.01295487     0.01325117    -0.07967100
Spot 2    -0.01258849     0.01324915    -0.07967100
20MABNDA000324_PR007
Spot 1    -0.01254674     0.01280432    -0.07446800
Spot 2    -0.01233904     0.01280089    -0.07446800
Spot 1    -0.01254653     0.01280449    -0.07446800
Spot 2    -0.01233901     0.01280098    -0.07446800
Spot 1    -0.01254680     0.01280427    -0.07446800
Spot 2    -0.01233878     0.01280093    -0.07446800
20MABNDB000001_PR017
Spot 1    -0.01229315    -0.01355121    -0.07418400
Spot 2    -0.01192446    -0.01354518    -0.07418400
Spot 1    -0.01229282    -0.01355104    -0.07418400
Spot 2    -0.01192465    -0.01354556    -0.07418400
Spot 1    -0.01229263    -0.01355111    -0.07418400
Spot 2    -0.01192447    -0.01354557    -0.07418400
20MABNDB000260_PR019
Spot 1    -0.01241315    -0.01239607    -0.07492700
Spot 2    -0.01220895    -0.01239261    -0.07492700
Spot 1    -0.01241305    -0.01239600    -0.07492700
Spot 2    -0.01220980    -0.01239124    -0.07492700
Spot 1    -0.01241314    -0.01239594    -0.07492700
Spot 2    -0.01220847    -0.01239143    -0.07492700
20MABNDB000212_PR029
Spot 1    -0.01185869    -0.01328132    -0.07390500
Spot 2    -0.01222007    -0.01327693    -0.07390500
Spot 1    -0.01185888    -0.01328126    -0.07390500
Spot 2    -0.01222011    -0.01327724    -0.07390500
Spot 1    -0.01185880    -0.01328109    -0.07390500
Spot 2    -0.01221978    -0.01327695    -0.07390500
20MABNDB000128_PR030
Spot 1    -0.01244866    -0.01221229    -0.07353400
Spot 2    -0.01224288    -0.01221809    -0.07353400
Spot 1    -0.01244885    -0.01221240    -0.07353400
Spot 2    -0.01224291    -0.01221803    -0.07353400
Spot 1    -0.01244882    -0.01221230    -0.07353400
Spot 2    -0.01224300    -0.01221816    -0.07353400
20MABNDA000444_PR040
Spot 1    -0.01168229     0.01367620    -0.07412000
Spot 2    -0.01205044     0.01367478    -0.07412000
Spot 1    -0.01168231     0.01367631    -0.07412000
Spot 2    -0.01205027     0.01367497    -0.07412000
Spot 1    -0.01168233     0.01367638    -0.07412000
Spot 2    -0.01205058     0.01367443    -0.07412000
20MABNDA000053_PR041
Spot 1    -0.01241203     0.01211615    -0.07430100
Spot 2    -0.01220106     0.01211332    -0.07430100
Spot 1    -0.01241233     0.01211626    -0.07430100
Spot 2    -0.01220082     0.01211386    -0.07430100
Spot 1    -0.01241183     0.01211580    -0.07430100
Spot 2    -0.01220108     0.01211320    -0.07430100
20MABNDA000188_PR008
Spot 1    -0.01399107     0.01394961    -0.07502000
Spot 2    -0.01399107     0.01394961    -0.07502000
Spot 1    -0.01399107     0.01394961    -0.07502000
Spot 2    -0.01399107     0.01394961    -0.07502000
Spot 1    -0.01399107     0.01394961    -0.07502000
Spot 2    -0.01399107     0.01394961    -0.07502000
20MABNDA000188_PR018
Spot 1    -0.01261192     0.01251177    -0.07502000
Spot 2    -0.01214449     0.01251123    -0.07502000
Spot 1    -0.01261207     0.01251174    -0.07502000
Spot 2    -0.01214443     0.01251106    -0.07502000
Spot 1    -0.01261200     0.01251169    -0.07502000
Spot 2    -0.01214459     0.01251125    -0.07502000
20MABNDA000039_PR009
Spot 1    -0.01161363     0.01304303    -0.07444800
Spot 2    -0.01156448     0.01303820    -0.07444800
Spot 1    -0.01161388     0.01304299    -0.07444800
Spot 2    -0.01156487     0.01303824    -0.07444800
Spot 1    -0.01161395     0.01304254    -0.07444800
Spot 2    -0.01156479     0.01303809    -0.07444800
20MABNDA000039_PR011
Spot 1    -0.01371466     0.01389523    -0.07444800
Spot 2    -0.01353851     0.01389965    -0.07444800
Spot 1    -0.01371478     0.01389522    -0.07444800
Spot 2    -0.01353851     0.01389951    -0.07444800
Spot 1    -0.01371489     0.01389515    -0.07444800
Spot 2    -0.01353863     0.01389953    -0.07444800
20MABNDB000155_PR020
Spot 1    -0.01359391    -0.01314594    -0.07501700
Spot 2    -0.01352570    -0.01314972    -0.07501700
Spot 1    -0.01359367    -0.01314595    -0.07501700
Spot 2    -0.01352536    -0.01314970    -0.07501700
Spot 1    -0.01359392    -0.01314611    -0.07501700
Spot 2    -0.01352562    -0.01314946    -0.07501700
20MABNDB000155_PR022
Spot 1    -0.01201930    -0.01301321    -0.07501700
Spot 2    -0.01154543    -0.01301055    -0.07501700
Spot 1    -0.01201923    -0.01301305    -0.07501700
Spot 2    -0.01154560    -0.01301051    -0.07501700
Spot 1    -0.01201920    -0.01301297    -0.07501700
Spot 2    -0.01154571    -0.01301043    -0.07501700
20MABNDB000010_PR021
Spot 1    -0.01157515    -0.01290962    -0.07358200
Spot 2    -0.01173847    -0.01315021    -0.07358200
Spot 1    -0.01157511    -0.01290930    -0.07358200
Spot 2    -0.01173845    -0.01314926    -0.07358200
Spot 1    -0.01157483    -0.01290964    -0.07358200
Spot 2    -0.01173771    -0.01315039    -0.07358200
20MABNDB000010_PR023
Spot 1    -0.01311555    -0.01373366    -0.07358200
Spot 2    -0.01293970    -0.01373290    -0.07358200
Spot 1    -0.01311519    -0.01373373    -0.07358200
Spot 2    -0.01294015    -0.01373303    -0.07358200
20MABNDB000069_PR031
Spot 1    -0.01355508    -0.01289567    -0.07388500
Spot 2    -0.01348722    -0.01289492    -0.07388500
Spot 1    -0.01355558    -0.01289518    -0.07388500
Spot 2    -0.01348731    -0.01289499    -0.07388500
20MABNDB000069_PR033
Spot 1    -0.01194789    -0.01250885    -0.07388500
Spot 2    -0.01147692    -0.01250831    -0.07388500
Spot 1    -0.01194789    -0.01250893    -0.07388500
Spot 2    -0.01147685    -0.01250843    -0.07388500
20MABNDB000131_PR032
Spot 1    -0.01144649    -0.01300582    -0.07533000
Spot 2    -0.01138597    -0.01300187    -0.07533000
Spot 1    -0.01144643    -0.01300581    -0.07533000
Spot 2    -0.01138576    -0.01300188    -0.07533000
20MABNDB000131_PR034
Spot 1    -0.01330315    -0.01370698    -0.07533000
Spot 2    -0.01312701    -0.01370675    -0.07533000
Spot 1    -0.01330332    -0.01370700    -0.07533000
Spot 2    -0.01312700    -0.01370675    -0.07533000
20MABNDA000208_PR042
Spot 1    -0.01355249     0.01363510    -0.07273700
Spot 2    -0.01383074     0.01306111    -0.07273700
Spot 1    -0.01363317     0.01393795    -0.07273700
Spot 2    -0.01350356     0.01343389    -0.07273700
20MABNDA000208_PR046
Spot 1    -0.01218051     0.01198841    -0.07273700
Spot 2    -0.01170824     0.01198571    -0.07273700
Spot 1    -0.01218010     0.01198864    -0.07273700
Spot 2    -0.01170864     0.01198564    -0.07273700
20MABNDA000035_PR044
Spot 1    -0.01157412     0.01297625    -0.07483200
Spot 2    -0.01151364     0.01298131    -0.07483200
Spot 1    -0.01157453     0.01297663    -0.07483200
Spot 2    -0.01151386     0.01298166    -0.07483200
20MABNDA000035_PR045
Spot 1    -0.01336568     0.01372768    -0.07483200
Spot 2    -0.01318827     0.01372803    -0.07483200
Spot 1    -0.01336543     0.01372736    -0.07483200
Spot 2    -0.01318832     0.01372795    -0.07483200


*****************************************************************coordonnees du prisme dans le repere MOUNT********************************************************************************** 
20MABNDL000077_PR002
    0.06737348     0.07371713     3.70652628
    0.06737348     0.07371713     3.70652628
    0.05012179     0.04733673     3.70691466
20MABNDL000077_PR003
    0.02105059     0.02120516     3.89601660
    0.02104102     0.02120889     3.89601707
    0.02103832     0.02119827     3.89601660
20MABNDL000077_20MABNDM000168
   -0.02568528     0.03623734    -5.46874046
   -0.02568230     0.03622798    -5.46874046
   -0.02568786     0.03624200    -5.46874046
20MABNDL000077_PR024
    0.04583481     0.01727161    -5.89639759
    0.04584629     0.01725418    -5.89639759
    0.04583722     0.01726500    -5.89639759
20MABNDM000020_PR013
   -0.00367002    -0.01803816    -3.80243373
   -0.00367312    -0.01804419    -3.80243373
   -0.00367779    -0.01803486    -3.80243373
20MABNDM000020_PR014
   -0.06540817    -0.00486311    -4.74841118
   -0.06540567    -0.00487830    -4.74841118
   -0.06540947    -0.00486065    -4.74841070
20MABNDM000020_20MABNDL000196
    0.05909745    -0.06588732     5.39454842
    0.02685346    -0.07127245     5.39469624
    0.05909387    -0.06588445     5.39454842
20MABNDM000020_PR035
   -0.04246368    -0.00681275     5.80095482
   -0.04244711    -0.00682354     5.80095482
   -0.04246059    -0.00680350     5.80095482
20MABNDM000168_PR025
    0.01812227    -0.02084151    -3.78863811
    0.01812253    -0.02084324    -3.78863811
    0.01812494    -0.02082988    -3.78863811
20MABNDM000168_PR026
   -0.05770294    -0.01373778    -3.98429084
   -0.05770275    -0.01372086    -3.98429084
   -0.05770013    -0.01372398    -3.98429084
20MABNDM000168_20MABNDL000077
    0.01141277    -0.03880285     5.38884687
    0.01140362    -0.03881494     5.38884640
    0.01139447    -0.03882594     5.38884640
20MABNDM000168_PR001
   -0.05764727    -0.01353067     5.81470299
   -0.05765429    -0.01353367     5.81470203
   -0.05763017    -0.01355379     5.81470299
20MABNDL000196_PR036
    0.05118296     0.00594949     3.68777370
    0.05118322     0.00593967     3.68777370
    0.05118736     0.00595883     3.68777370
20MABNDL000196_PR037
   -0.02517708     0.02811992     3.88381171
   -0.02515794     0.02811660     3.88381171
   -0.02516467     0.02812331     3.88381171
20MABNDL000196_20MABNDM000020
   -0.01566426     0.03785784    -5.47473907
   -0.01566530     0.03785603    -5.47473907
   -0.01567115     0.03789687    -5.47473907
20MABNDL000196_PR012
    0.05244301     0.01452163    -5.91537094
    0.05243098     0.01452061    -5.91537094
    0.05243358     0.01452649    -5.91537094
20MABNDA000318_PR004
   -0.00859113     0.03833640     2.74965978
   -0.00859351     0.03833584     2.74965978
   -0.00858949     0.03833861     2.74965978
20MABNDA000334_PR005
   -0.00429133     0.03173803     2.14977145
   -0.00429161     0.03173988     2.14977145
   -0.00429076     0.03173617     2.14977145
20MABNDB000317_PR015
   -0.01734665    -0.03361319     2.75129318
   -0.01734560    -0.03360954     2.75129318
   -0.01734567    -0.03361900     2.75129318
20MABNDB000146_PR016
   -0.01342107    -0.03155255     2.15201473
   -0.01341976    -0.03155844     2.15201473
   -0.01342293    -0.03155413     2.15201473
20MABNDB000135_PR027
   -0.02096435    -0.00982219     2.74937153
   -0.02096427    -0.00981412     2.74937153
   -0.02096019    -0.00982664     2.74937153
20MABNDB000126_PR028
   -0.02028749    -0.03901559     2.14679480
   -0.02029175    -0.03901889     2.14679456
   -0.02029445    -0.03902018     2.14679456
20MABNDA000272_PR038
   -0.01337077     0.01079410     2.74965858
   -0.01336838     0.01079648     2.74965858
   -0.01337039     0.01079850     2.74965858
20MABNDA000003_PR039
   -0.00600484     0.04126167     2.14891529
   -0.00601340     0.04126427     2.14891529
   -0.00601212     0.04126426     2.14891529
20MABNDA000196_PR006
   -0.01009090     0.00987952     1.64206314
   -0.01009003     0.00987962     1.64206314
   -0.01009799     0.00988071     1.64206314
20MABNDA000324_PR007
   -0.02556446     0.02804045     2.95548964
   -0.02556914     0.02803529     2.95548964
   -0.02556839     0.02804061     2.95548964
20MABNDB000001_PR017
   -0.02432251    -0.00283889     1.64035845
   -0.02432402    -0.00283657     1.64035845
   -0.02432805    -0.00283577     1.64035821
20MABNDB000260_PR019
   -0.02420679    -0.03848852     2.95627451
   -0.02419183    -0.03851697     2.95627451
   -0.02421631    -0.03851432     2.95627451
20MABNDB000212_PR029
   -0.02529317    -0.00844801     1.64223862
   -0.02529062    -0.00844529     1.64223862
   -0.02529506    -0.00845040     1.64223862
20MABNDB000128_PR030
   -0.01954753    -0.04693314     2.95496106
   -0.01954320    -0.04693234     2.95496106
   -0.01954202    -0.04693175     2.95496106
20MABNDA000444_PR040
   -0.03028780     0.00089449     1.64490795
   -0.03028951     0.00089119     1.64490771
   -0.03028585     0.00089627     1.64490795
20MABNDA000053_PR041
   -0.02661095     0.05124111     2.95450187
   -0.02660963     0.05122812     2.95450187
   -0.02661430     0.05125020     2.95450163
20MABNDA000188_PR008
    0.14616936    -0.09611703     9.20304298
    0.14616936    -0.09611703     9.20304298
    0.14616936    -0.09611703     9.20304298
20MABNDA000188_PR018
   -0.01815166     0.02248473     1.28360450
   -0.01815088     0.02248644     1.28360450
   -0.01815012     0.02248524     1.28360450
20MABNDA000039_PR009
   -0.17311446     0.02871134    11.00698376
   -0.17306766     0.02871113    11.00698376
   -0.17306821     0.02875501    11.00698376
20MABNDA000039_PR011
    0.03023411    -0.02108306     3.43351364
    0.03023686    -0.02107965     3.43351364
    0.03024211    -0.02107854     3.43351364
20MABNDB000155_PR020
    0.09550147    -0.00663773     9.20036125
    0.09546587    -0.00663883     9.20036125
    0.09549724    -0.00664331     9.20036125
20MABNDB000155_PR022
   -0.02797114    -0.01454531     1.28068900
   -0.02797034    -0.01454701     1.28068900
   -0.02796964    -0.01454828     1.28068900
20MABNDB000010_PR021
   -0.16117781    -0.01809592    11.00717735
   -0.16118284    -0.01818938    11.00717640
   -0.16125746    -0.01808109    11.00717640
20MABNDB000010_PR023
    0.00389020     0.01760934     3.43379831
    0.00389242     0.01761397     3.43379831
20MABNDB000069_PR031
    0.09789532    -0.03488120     9.20362663
    0.09793168    -0.03490725     9.20362473
20MABNDB000069_PR033
   -0.02816355    -0.02273748     1.28396344
   -0.02816416    -0.02273574     1.28396344
20MABNDB000131_PR032
   -0.18750602    -0.03437294    11.00642014
   -0.18752573    -0.03437231    11.00642014
20MABNDB000131_PR034
    0.01482637     0.01226880     3.43340874
    0.01483001     0.01226927     3.43340826
20MABNDA000208_PR042
    0.10733065    -0.02278548     9.20174122
    0.09220096    -0.06425470     9.20167160
20MABNDA000208_PR046
   -0.02583122     0.03134042     1.28211069
   -0.02583130     0.03133905     1.28211069
20MABNDA000035_PR044
   -0.18005103     0.03025182    11.00801659
   -0.18000534     0.03019956    11.00801754
20MABNDA000035_PR045
    0.01419836    -0.01573409     3.43486881
    0.01419386    -0.01572493     3.43486881


*****************************************************************coordonnees du prisme dans le repere ATLAS********************************************************************************** 
20MABNDL000077_PR002 0.00000000
    2.78332901    -3.67712641     6.48587990
    2.78332901    -3.67712641     6.48587990
    2.80970430    -3.69438696     6.48622084
20MABNDL000077_PR003 0.00000000
    2.83601213    -3.72369981     6.67526102
    2.83600831    -3.72370934     6.67526150
    2.83601904    -3.72371197     6.67526102
20MABNDL000077_20MABNDM000168 0.00000000
    2.81177950    -3.75887656    -2.68952703
    2.81178880    -3.75887370    -2.68952703
    2.81177473    -3.75887918    -2.68952703
20MABNDL000077_PR024 0.00000000
    2.83034849    -3.68683505    -3.11711407
    2.83036590    -3.68682361    -3.11711407
    2.83035493    -3.68683267    -3.11711407
20MABNDM000020_PR013 0.00000000
   -2.83427119    -3.73581386     6.48627615
   -2.83426523    -3.73581076     6.48627615
   -2.83427453    -3.73580623     6.48627615
20MABNDM000020_PR014 0.00000000
   -2.84723806    -3.67479134     7.43230295
   -2.84722281    -3.67479372     7.43230295
   -2.84724045    -3.67478991     7.43230247
20MABNDM000020_20MABNDL000196 0.00000000
   -2.78828168    -3.79160142    -2.71076035
   -2.78288674    -3.75935888    -2.71088481
   -2.78828478    -3.79159784    -2.71076035
20MABNDM000020_PR035 0.00000000
   -2.84740663    -3.68971324    -3.11707759
   -2.84739590    -3.68972969    -3.11707759
   -2.84741592    -3.68971634    -3.11707759
20MABNDM000168_PR025 0.00000000
    2.83239532    -3.76345158    -6.47925711
    2.83239365    -3.76345181    -6.47925711
    2.83240700    -3.76345420    -6.47925711
20MABNDM000168_PR026 0.00000000
    2.83950710    -3.68770099    -6.67493820
    2.83952403    -3.68770123    -6.67493820
    2.83952093    -3.68770385    -6.67493820
20MABNDM000168_20MABNDL000077 0.00000000
    2.81499267    -3.75332475     2.69822598
    2.81498051    -3.75331569     2.69822550
    2.81496954    -3.75330663     2.69822550
20MABNDM000168_PR001 0.00000000
    2.84030890    -3.68411326     3.12405491
    2.84030604    -3.68410611     3.12405396
    2.84028578    -3.68413019     3.12405491
20MABNDL000196_PR036 0.00000000
   -2.84765792    -3.69309163    -6.47909689
   -2.84766769    -3.69309115    -6.47909689
   -2.84764862    -3.69308710    -6.47909689
20MABNDL000196_PR037 0.00000000
   -2.82545614    -3.76962352    -6.67506456
   -2.82545948    -3.76960444    -6.67506456
   -2.82545280    -3.76961112    -6.67506456
20MABNDL000196_20MABNDM000020 0.00000000
   -2.81552052    -3.75140095     2.68347335
   -2.81552243    -3.75140190     2.68347335
   -2.81548142    -3.75140786     2.68347335
20MABNDL000196_PR012 0.00000000
   -2.83887887    -3.68289471     3.12404227
   -2.83887982    -3.68290663     3.12404227
   -2.83887410    -3.68290401     3.12404227
20MABNDA000318_PR004 0.00000000
    2.61441207    -4.19698858     3.83366227
    2.61440969    -4.19698858     3.83366275
    2.61441374    -4.19698858     3.83366013
20MABNDA000334_PR005 0.00000000
    2.61670732    -4.19703150     5.89752293
    2.61670685    -4.19703150     5.89752102
    2.61670780    -4.19703150     5.89752483
20MABNDB000317_PR015 0.00000000
   -2.61126041    -4.19700718     3.83640218
   -2.61126161    -4.19700718     3.83640599
   -2.61126137    -4.19700718     3.83639646
20MABNDB000146_PR016 0.00000000
   -2.61287427    -4.19702291     5.89879751
   -2.61287546    -4.19702291     5.89879179
   -2.61287236    -4.19702291     5.89879608
20MABNDB000135_PR027 0.00000000
    2.60389900    -4.19700384    -3.82553864
    2.60389900    -4.19700384    -3.82554674
    2.60390306    -4.19700384    -3.82553411
20MABNDB000126_PR028 0.00000000
    2.60562992    -4.19702148    -5.89320421
    2.60562563    -4.19702148    -5.89320087
    2.60562277    -4.19702148    -5.89319992
20MABNDA000272_PR038 0.00000000
   -2.61116624    -4.19698286    -3.82769036
   -2.61116862    -4.19698286    -3.82768798
   -2.61116648    -4.19698286    -3.82768583
20MABNDA000003_PR039 0.00000000
   -2.61572623    -4.19702148    -5.89150476
   -2.61571765    -4.19702148    -5.89150238
   -2.61571908    -4.19702148    -5.89150238
20MABNDA000196_PR006 0.00000000
    2.58455133    -4.19496584     6.54783583
    2.58455062    -4.19496584     6.54783630
    2.58455849    -4.19496584     6.54783726
20MABNDA000324_PR007 0.00000000
    2.59375048    -4.13996887     6.94787455
    2.59374571    -4.13996887     6.94787979
    2.59374642    -4.13996887     6.94787455
20MABNDB000001_PR017 0.00000000
   -2.59802389    -4.19505978     6.53816700
   -2.59802532    -4.19505978     6.53816462
   -2.59802938    -4.19505978     6.53816366
20MABNDB000260_PR019 0.00000000
   -2.60455513    -4.13995981     6.94215536
   -2.60456991    -4.13995981     6.94212675
   -2.60454559    -4.13995981     6.94212961
20MABNDB000212_PR029 0.00000000
    2.59897089    -4.19501019    -6.54743576
    2.59896827    -4.19501019    -6.54743290
    2.59897280    -4.19501019    -6.54743814
20MABNDB000128_PR030 0.00000000
    2.60931110    -4.14002848    -6.93118811
    2.60931540    -4.14002848    -6.93118858
    2.60931659    -4.14002848    -6.93118954
20MABNDA000444_PR040 0.00000000
   -2.60546041    -4.19510126    -6.54007483
   -2.60546207    -4.19510174    -6.54007149
   -2.60545850    -4.19510126    -6.54007626
20MABNDA000053_PR041 0.00000000
   -2.59393096    -4.14012861    -6.92667246
   -2.59393239    -4.14012861    -6.92668533
   -2.59392762    -4.14012909    -6.92666340
20MABNDA000188_PR008 0.00000000
    3.55893064     3.84859109     8.10764503
    3.55893064     3.84859109     8.10764503
    3.55893064     3.84859109     8.10764503
20MABNDA000188_PR018 0.00000000
    3.51893544    -4.07064152     7.90093374
    3.51893616    -4.07064152     7.90093231
    3.51893711    -4.07064152     7.90093327
20MABNDA000039_PR009 0.00000000
    3.87728596     3.64743853    12.94000530
    3.87723923     3.64743853    12.94000530
    3.87723970     3.64743853    12.94004917
20MABNDA000039_PR011 0.00000000
    3.66478968    -3.92576385    12.88775349
    3.66478682    -3.92576385    12.88775730
    3.66478157    -3.92576385    12.88775826
20MABNDB000155_PR020 0.00000000
   -3.67415476     3.84891033     7.90023184
   -3.67411923     3.84891033     7.90023041
   -3.67415047     3.84891033     7.90022612
20MABNDB000155_PR022 0.00000000
   -3.53201032    -4.07044983     7.89351463
   -3.53201127    -4.07044983     7.89351320
   -3.53201175    -4.07044983     7.89351177
20MABNDB000010_PR021 0.00000000
   -3.84702873     3.64789987    12.91991234
   -3.84703350     3.64789891    12.92000580
   -3.84710836     3.64789891    12.91989708
20MABNDB000010_PR023 0.00000000
   -3.68577385    -3.92557693    12.88766670
   -3.68577170    -3.92557693    12.88766193
20MABNDB000069_PR031 0.00000000
    3.67961025     3.84881592    -7.90551949
    3.67964673     3.84881401    -7.90549326
20MABNDB000069_PR033 0.00000000
    3.53213382    -4.07045460    -7.88293314
    3.53213310    -4.07045460    -7.88293505
20MABNDB000131_PR032 0.00000000
    3.86830711     3.64756823   -12.94501591
    3.86832666     3.64756823   -12.94501495
20MABNDB000131_PR034 0.00000000
    3.67296171    -3.92560959   -12.89567852
    3.67295790    -3.92561007   -12.89567852
20MABNDA000208_PR042 0.00000000
   -3.65738869     3.84938955    -7.93425846
   -3.64223671     3.84929395    -7.97571945
20MABNDA000208_PR046 0.00000000
   -3.52993250    -4.07031441    -7.87717676
   -3.52993250    -4.07031441    -7.87717819
20MABNDA000035_PR044 0.00000000
   -3.86929274     3.64757204   -12.93593121
   -3.86924696     3.64757299   -12.93587875
20MABNDA000035_PR045 0.00000000
   -3.67653060    -3.92561817   -12.89064980
   -3.67653513    -3.92561817   -12.89065933


*****************************************************************Rapport********************************************************************************** 
CAM-LBA-US_EBA-US-HO-H         2019.01.02.22.50.52     2.79212077    -3.68287992     6.48599354     0.01243343     0.00813670     0.00016072 0.00000000 VRAI 
CAM-LBA-US_JDA-US-H            2019.01.02.22.50.52     2.83601316    -3.72370704     6.67526118     0.00000444     0.00000522     0.00000022 0.00000000 VRAI 
CAM-LBA-US_CAM-LBC-US          2019.01.02.22.50.52     2.81178101    -3.75887648    -2.68952703     0.00000584     0.00000224     0.00000000 0.00000000 VRAI 
CAM-LBA-US_EBC-US-IP-H         2019.01.02.22.50.52     2.83035644    -3.68683044    -3.11711407     0.00000719     0.00000493     0.00000000 0.00000000 VRAI 
CAM-LBA-USA_EBA-USA-HO-H       2019.01.02.22.50.52    -2.83427032    -3.73581028     6.48627615     0.00000385     0.00000313     0.00000000 0.00000000 VRAI 
CAM-LBA-USA_JDA-USA-H          2019.01.02.22.50.52    -2.84723377    -3.67479165     7.43230279     0.00000782     0.00000157     0.00000022 0.00000000 VRAI 
CAM-LBA-USA_CAM-LBC-USA        2019.01.02.22.50.52    -2.78648440    -3.78085272    -2.71080184     0.00254393     0.01519843     0.00005867 0.00000000 VRAI 
CAM-LBA-USA_EBC-USA-IP-H       2019.01.02.22.50.52    -2.84740615    -3.68971976    -3.11707759     0.00000818     0.00000714     0.00000000 0.00000000 VRAI 
CAM-LBC-US_EBC-US-HO-H         2019.01.02.22.50.52     2.83239865    -3.76345253    -6.47925711     0.00000594     0.00000118     0.00000000 0.00000000 VRAI 
CAM-LBC-US_JDC-US-H            2019.01.02.22.50.52     2.83951735    -3.68770202    -6.67493820     0.00000736     0.00000130     0.00000000 0.00000000 VRAI 
CAM-LBC-US_CAM-LBA-US          2019.01.02.22.50.52     2.81498090    -3.75331569     2.69822566     0.00000945     0.00000740     0.00000022 0.00000000 VRAI 
CAM-LBC-US_EBA-US-IP-H         2019.01.02.22.50.52     2.84030024    -3.68411652     3.12405459     0.00001029     0.00001010     0.00000045 0.00000000 VRAI 
CAM-LBC-USA_EBC-USA-HO-H       2019.01.02.22.50.52    -2.84765808    -3.69308996    -6.47909689     0.00000779     0.00000203     0.00000000 0.00000000 VRAI 
CAM-LBC-USA_JDC-USA-H          2019.01.02.22.50.52    -2.82545614    -3.76961303    -6.67506456     0.00000273     0.00000790     0.00000000 0.00000000 VRAI 
CAM-LBC-USA_CAM-LBA-USA        2019.01.02.22.50.52    -2.81550813    -3.75140357     2.68347335     0.00001890     0.00000306     0.00000000 0.00000000 VRAI 
CAM-LBC-USA_EBA-USA-IP-H       2019.01.02.22.50.52    -2.83887760    -3.68290178     3.12404227     0.00000250     0.00000511     0.00000000 0.00000000 VRAI 
CAM-EBA-US-IP_EBA-US-IP        2019.01.02.22.50.52     2.61441183    -4.19698858     3.83366172     0.00000166     0.00000000     0.00000114 0.00000000 VRAI 
CAM-EBA-US-HO_EBA-US-HO        2019.01.02.22.50.52     2.61670732    -4.19703150     5.89752293     0.00000039     0.00000000     0.00000156 0.00000000 VRAI 
CAM-EBA-USA-IP_EBA-USA-IP      2019.01.02.22.50.52    -2.61126113    -4.19700718     3.83640154     0.00000052     0.00000000     0.00000392 0.00000000 VRAI 
CAM-EBA-USA-HO_EBA-USA-HO      2019.01.02.22.50.52    -2.61287403    -4.19702291     5.89879513     0.00000128     0.00000000     0.00000243 0.00000000 VRAI 
CAM-EBC-US-IP_EBC-US-IP        2019.01.02.22.50.52     2.60390035    -4.19700384    -3.82553983     0.00000191     0.00000000     0.00000523 0.00000000 VRAI 
CAM-EBC-US-HO_EBC-US-HO        2019.01.02.22.50.52     2.60562611    -4.19702148    -5.89320167     0.00000294     0.00000000     0.00000184 0.00000000 VRAI 
CAM-EBC-USA-IP_EBC-USA-IP      2019.01.02.22.50.52    -2.61116711    -4.19698286    -3.82768806     0.00000107     0.00000000     0.00000185 0.00000000 VRAI 
CAM-EBC-USA-HO_EBC-USA-HO      2019.01.02.22.50.52    -2.61572099    -4.19702148    -5.89150318     0.00000375     0.00000000     0.00000112 0.00000000 VRAI 
CAM-JDA-US-IP_JDA-US-IP        2019.01.02.22.50.52     2.58455348    -4.19496584     6.54783646     0.00000355     0.00000000     0.00000059 0.00000000 VRAI 
CAM-JDA-US-HO_JDA-US-HO        2019.01.02.22.50.52     2.59374754    -4.13996887     6.94787629     0.00000210     0.00000000     0.00000247 0.00000000 VRAI 
CAM-JDA-USA-IP_JDA-USA-IP      2019.01.02.22.50.52    -2.59802620    -4.19505978     6.53816509     0.00000232     0.00000000     0.00000140 0.00000000 VRAI 
CAM-JDA-USA-HO_JDA-USA-HO      2019.01.02.22.50.52    -2.60455688    -4.13995981     6.94213724     0.00001000     0.00000000     0.00001287 0.00000000 VRAI 
CAM-JDC-US-IP_JDC-US-IP        2019.01.02.22.50.52     2.59897065    -4.19501019    -6.54743560     0.00000186     0.00000000     0.00000214 0.00000000 VRAI 
CAM-JDC-US-HO_JDC-US-HO        2019.01.02.22.50.52     2.60931436    -4.14002848    -6.93118874     0.00000235     0.00000000     0.00000059 0.00000000 VRAI 
CAM-JDC-USA-IP_JDC-USA-IP      2019.01.02.22.50.52    -2.60546033    -4.19510142    -6.54007419     0.00000146     0.00000022     0.00000200 0.00000000 VRAI 
CAM-JDC-USA-HO_JDC-USA-HO      2019.01.02.22.50.52    -2.59393032    -4.14012877    -6.92667373     0.00000200     0.00000022     0.00000900 0.00000000 VRAI 
CAM-ECTA-US-IP_ECTA-US-IP-T    2019.01.02.22.50.52     3.55893064     3.84859109     8.10764503     0.00000000     0.00000000     0.00000000 0.00000000 VRAI 
CAM-ECTA-US-IP_ECTA-US-IP      2019.01.02.22.50.52     3.51893624    -4.07064152     7.90093311     0.00000068     0.00000000     0.00000059 0.00000000 VRAI 
CAM-ECTA-US-HO_ECTA-US-HO-T    2019.01.02.22.50.52     3.87725496     3.64743853    12.94001993     0.00002192     0.00000000     0.00002068 0.00000000 VRAI 
CAM-ECTA-US-HO_ECTA-US-HO      2019.01.02.22.50.52     3.66478602    -3.92576385    12.88775635     0.00000336     0.00000000     0.00000206 0.00000000 VRAI 
CAM-ECTA-USA-IP_ECTA-USA-IP-T  2019.01.02.22.50.52    -3.67414149     3.84891033     7.90022945     0.00001583     0.00000000     0.00000243 0.00000000 VRAI 
CAM-ECTA-USA-IP_ECTA-USA-IP    2019.01.02.22.50.52    -3.53201111    -4.07044983     7.89351320     0.00000059     0.00000000     0.00000117 0.00000000 VRAI 
CAM-ECTA-USA-HO_ECTA-USA-HO-T  2019.01.02.22.50.52    -3.84705687     3.64789923    12.91993841     0.00003647     0.00000045     0.00004806 0.00000000 VRAI 
CAM-ECTA-USA-HO_ECTA-USA-HO    2019.01.02.22.50.52    -3.68577278    -3.92557693    12.88766432     0.00000107     0.00000000     0.00000238 0.00000000 VRAI 
CAM-ECTC-US-IP_ECTC-US-IP-T    2019.01.02.22.50.52     3.67962849     3.84881496    -7.90550637     0.00001824     0.00000095     0.00001311 0.00000000 VRAI 
CAM-ECTC-US-IP_ECTC-US-IP      2019.01.02.22.50.52     3.53213346    -4.07045460    -7.88293409     0.00000036     0.00000000     0.00000095 0.00000000 VRAI 
CAM-ECTC-US-HO_ECTC-US-HO-T    2019.01.02.22.50.52     3.86831689     3.64756823   -12.94501543     0.00000978     0.00000000     0.00000048 0.00000000 VRAI 
CAM-ECTC-US-HO_ECTC-US-HO      2019.01.02.22.50.52     3.67295980    -3.92560983   -12.89567852     0.00000191     0.00000024     0.00000000 0.00000000 VRAI 
CAM-ECTC-USA-IP_ECTC-USA-IP-T  2019.01.02.22.50.52    -3.64981270     3.84934175    -7.95498896     0.00757599     0.00004780     0.02073050 0.00000000 VRAI 
CAM-ECTC-USA-IP_ECTC-USA-IP    2019.01.02.22.50.52    -3.52993250    -4.07031441    -7.87717748     0.00000000     0.00000000     0.00000072 0.00000000 VRAI 
CAM-ECTC-USA-HO_ECTC-USA-HO-T  2019.01.02.22.50.52    -3.86926985     3.64757252   -12.93590498     0.00002289     0.00000048     0.00002623 0.00000000 VRAI 
CAM-ECTC-USA-HO_ECTC-USA-HO    2019.01.02.22.50.52    -3.67653286    -3.92561817   -12.89065456     0.00000226     0.00000000     0.00000477 0.00000000 VRAI 
