********** Fichier qui contient une sauvegarde des coordonnees images + coordonnees images transformees dans le repere BCAM (MOUNT) + coordonnees des prismes dans le repere MOUNT********** 
********************************************************************** Unite en metres (m)************************************************************************************************** 

*******************************************************************coordonnees images dans le repere CCD *********************************************************************************** 
20MABNDM000168_PR025
Spot 1     0.00102270     0.00130439
Spot 2     0.00117611     0.00130414
Spot 1     0.00102278     0.00130421
Spot 2     0.00117618     0.00130406
Spot 1     0.00102284     0.00130420
Spot 2     0.00117624     0.00130400
Spot 1     0.00102256     0.00130411
Spot 2     0.00117619     0.00130421
Spot 1     0.00102293     0.00130417
Spot 2     0.00117607     0.00130402
Spot 1     0.00102294     0.00130440
Spot 2     0.00117621     0.00130407
Spot 1     0.00102298     0.00130443
Spot 2     0.00117609     0.00130395
20MABNDM000168_PR026
Spot 1     0.00250861     0.00142349
Spot 2     0.00266954     0.00142667
Spot 1     0.00250847     0.00142354
Spot 2     0.00266934     0.00142695
Spot 1     0.00250858     0.00142340
Spot 2     0.00266924     0.00142652
Spot 1     0.00250875     0.00142358
Spot 2     0.00266968     0.00142698
Spot 1     0.00250849     0.00142346
Spot 2     0.00266930     0.00142659
Spot 1     0.00250850     0.00142364
Spot 2     0.00266909     0.00142673
Spot 1     0.00250860     0.00142342
Spot 2     0.00266916     0.00142668
20MABNDM000168_20MABNDL000077
Spot 1     0.00153707     0.00133312
Spot 2     0.00175606     0.00129994
Spot 1     0.00153711     0.00133312
Spot 2     0.00175605     0.00129977
Spot 1     0.00153711     0.00133280
Spot 2     0.00175606     0.00129994
Spot 1     0.00153730     0.00133285
Spot 2     0.00175580     0.00129971
Spot 1     0.00153727     0.00133250
Spot 2     0.00175599     0.00129981
Spot 1     0.00153732     0.00133253
Spot 2     0.00175606     0.00129971
Spot 1     0.00153730     0.00133221
Spot 2     0.00175571     0.00129976
20MABNDM000168_PR001
Spot 1     0.00070391     0.00162354
Spot 2     0.00080500     0.00162000
Spot 1     0.00070397     0.00162340
Spot 2     0.00080500     0.00162500
Spot 1     0.00070404     0.00162352
Spot 2     0.00080500     0.00162167
Spot 1     0.00070399     0.00162331
Spot 2     0.00080500     0.00162167
Spot 1     0.00070396     0.00162340
Spot 2     0.00080500     0.00162500
Spot 1     0.00070405     0.00162347
Spot 2     0.00080500     0.00162167
Spot 1     0.00070376     0.00162316
Spot 2     0.00080500     0.00162167
20MABNDL000196_PR036
Spot 1     0.00112245     0.00164652
Spot 2     0.00095811     0.00164811
Spot 1     0.00112276     0.00164661
Spot 2     0.00095806     0.00164855
Spot 1     0.00112261     0.00164654
Spot 2     0.00095750     0.00164800
Spot 1     0.00112258     0.00164652
Spot 2     0.00095805     0.00164754
Spot 1     0.00112271     0.00164666
Spot 2     0.00095746     0.00164781
Spot 1     0.00112258     0.00164662
Spot 2     0.00095800     0.00164800
Spot 1     0.00112256     0.00164655
Spot 2     0.00095759     0.00164828
20MABNDL000196_PR037
Spot 1     0.00263659     0.00117277
Spot 2     0.00248186     0.00117458
Spot 1     0.00263661     0.00117287
Spot 2     0.00248199     0.00117456
Spot 1     0.00263666     0.00117292
Spot 2     0.00248198     0.00117431
Spot 1     0.00263671     0.00117263
Spot 2     0.00248222     0.00117448
Spot 1     0.00263657     0.00117284
Spot 2     0.00248191     0.00117436
Spot 1     0.00263662     0.00117300
Spot 2     0.00248198     0.00117422
Spot 1     0.00263643     0.00117271
Spot 2     0.00248211     0.00117439
20MABNDL000196_20MABNDM000020
Spot 1     0.00195205     0.00103247
Spot 2     0.00173058     0.00103192
Spot 1     0.00195205     0.00103251
Spot 2     0.00173052     0.00103193
Spot 1     0.00195199     0.00103251
Spot 2     0.00173043     0.00103197
Spot 1     0.00195201     0.00103237
Spot 2     0.00173041     0.00103200
Spot 1     0.00195198     0.00103256
Spot 2     0.00173048     0.00103194
Spot 1     0.00195211     0.00103232
Spot 2     0.00173051     0.00103197
Spot 1     0.00195198     0.00103229
Spot 2     0.00173055     0.00103185
20MABNDL000196_PR012
Spot 1     0.00191833     0.00005167
Spot 2     0.00262833     0.00005500
Spot 1     0.00248500     0.00012500
Spot 2     0.00305900     0.00011100
Spot 1     0.00248500     0.00012500
Spot 2     0.00305750     0.00011250
Spot 1     0.00248500     0.00012500
Spot 2     0.00305833     0.00011167
Spot 1     0.00248577     0.00012500
Spot 2     0.00305750     0.00011250
Spot 1     0.00248500     0.00012500
Spot 2     0.00317500     0.00005000
Spot 1     0.00248500     0.00012500
Spot 2     0.00305500     0.00011500
20MABNDL000077_PR002
Spot 1     0.00085710     0.00154943
Spot 2     0.00069700     0.00153334
Spot 1     0.00085706     0.00154986
Spot 2     0.00073500     0.00177505
Spot 1     0.00085702     0.00155070
Spot 2     0.00073500     0.00179004
Spot 1     0.00085703     0.00154960
Spot 2     0.00072790     0.00158768
Spot 1     0.00085694     0.00154914
Spot 2     0.00070917     0.00136083
Spot 1     0.00085696     0.00154920
Spot 2     0.00073500     0.00180500
Spot 1     0.00085680     0.00154954
Spot 2     0.00073500     0.00174996
20MABNDL000077_PR003
Spot 1     0.00159559     0.00141004
Spot 2     0.00147503     0.00147906
Spot 1     0.00159559     0.00140998
Spot 2     0.00148500     0.00190996
Spot 1     0.00159565     0.00141027
Spot 2     0.00148500     0.00205003
Spot 1     0.00159542     0.00141004
Spot 2     0.00136394     0.00114053
Spot 1     0.00159533     0.00141009
Spot 2     0.00148500     0.00185004
Spot 1     0.00159529     0.00140991
Spot 2     0.00146977     0.00142500
Spot 1     0.00159521     0.00141025
Spot 2     0.00148500     0.00212000
20MABNDL000077_20MABNDM000168
Spot 1     0.00188262     0.00155358
Spot 2     0.00321000     0.00001721
Spot 1     0.00188258     0.00155347
Spot 2     0.00321000     0.00001712
Spot 1     0.00188254     0.00155346
Spot 2     0.00321000     0.00001719
Spot 1     0.00188247     0.00155222
Spot 2     0.00321000     0.00001719
Spot 1     0.00188246     0.00155181
Spot 2     0.00321008     0.00001730
Spot 1     0.00188243     0.00155126
Spot 2     0.00184565     0.00057452
Spot 1     0.00188241     0.00155091
Spot 2     0.00184566     0.00057484
20MABNDL000077_PR024
Spot 1     0.00271479     0.00176141
Spot 2     0.00232796     0.00169296
Spot 1     0.00271502     0.00176052
Spot 2     0.00232785     0.00169344
Spot 1     0.00271466     0.00176084
Spot 2     0.00232817     0.00169151
Spot 1     0.00271475     0.00176063
Spot 2     0.00232807     0.00169203
Spot 1     0.00271485     0.00175821
Spot 2     0.00232817     0.00169134
Spot 1     0.00271485     0.00175814
Spot 2     0.00232792     0.00169303
Spot 1     0.00271439     0.00175817
Spot 2     0.00232773     0.00169130
20MABNDM000020_PR013
Spot 1     0.00163890     0.00204393
Spot 2     0.00149196     0.00220122
Spot 1     0.00164138     0.00222474
Spot 2     0.00149157     0.00220083
Spot 1     0.00163906     0.00204137
Spot 2     0.00149272     0.00219976
Spot 1     0.00163887     0.00204181
Spot 2     0.00149210     0.00220107
Spot 1     0.00163917     0.00204270
Spot 2     0.00149158     0.00220033
Spot 1     0.00163896     0.00204438
Spot 2     0.00149202     0.00220106
Spot 1     0.00163910     0.00203948
Spot 2     0.00149258     0.00220015
20MABNDM000020_PR014
Spot 1     0.00268183     0.00230603
Spot 2     0.00251781     0.00231146
Spot 1     0.00268188     0.00230598
Spot 2     0.00251693     0.00231057
Spot 1     0.00268116     0.00230732
Spot 2     0.00251748     0.00231081
Spot 1     0.00268184     0.00230601
Spot 2     0.00251751     0.00231164
Spot 1     0.00268234     0.00230563
Spot 2     0.00251778     0.00231162
Spot 1     0.00268193     0.00230563
Spot 2     0.00251762     0.00231145
Spot 1     0.00268212     0.00230587
Spot 2     0.00251762     0.00231233
20MABNDM000020_20MABNDL000196
Spot 1     0.00200145     0.00072449
Spot 2     0.00024500     0.00217500
Spot 1     0.00200149     0.00072401
Spot 2     0.00024500     0.00217500
Spot 1     0.00200145     0.00072386
Spot 2     0.00024500     0.00217500
Spot 1     0.00200155     0.00072332
Spot 2     0.00024500     0.00217500
Spot 1     0.00200148     0.00072303
Spot 2     0.00024500     0.00217500
Spot 1     0.00200151     0.00072258
Spot 2     0.00024500     0.00217500
Spot 1     0.00200155     0.00072282
Spot 2     0.00024500     0.00217500
20MABNDM000020_PR035
Spot 1     0.00126578     0.00087274
Spot 2     0.00119852     0.00101732
Spot 1     0.00126597     0.00087269
Spot 2     0.00119872     0.00101642
Spot 1     0.00126584     0.00087269
Spot 2     0.00119858     0.00101820
Spot 1     0.00126563     0.00087275
Spot 2     0.00119867     0.00101982
Spot 1     0.00126568     0.00087299
Spot 2     0.00119861     0.00101986
Spot 1     0.00126566     0.00087310
Spot 2     0.00119861     0.00102087
Spot 1     0.00126569     0.00087308
Spot 2     0.00119863     0.00102094
20MABNDB000069_PR031
Spot 1     0.00028177     0.00140377
Spot 2     0.00035381     0.00140437
Spot 1     0.00028161     0.00140382
Spot 2     0.00035508     0.00140455
Spot 1     0.00028195     0.00140387
Spot 2     0.00035469     0.00140446
Spot 1     0.00028220     0.00140396
Spot 2     0.00035419     0.00140467
Spot 1     0.00028191     0.00140393
Spot 2     0.00035395     0.00140439
Spot 1     0.00028185     0.00140370
Spot 2     0.00035436     0.00140444
Spot 1     0.00028165     0.00140379
Spot 2     0.00035383     0.00140400
20MABNDB000069_PR033
Spot 1     0.00181970     0.00207549
Spot 2     0.00229032     0.00209530
Spot 1     0.00181970     0.00207554
Spot 2     0.00229028     0.00209536
Spot 1     0.00181964     0.00207565
Spot 2     0.00229030     0.00209544
Spot 1     0.00181966     0.00207556
Spot 2     0.00229018     0.00209544
Spot 1     0.00181958     0.00207553
Spot 2     0.00229034     0.00209532
Spot 1     0.00181966     0.00207563
Spot 2     0.00229022     0.00209536
Spot 1     0.00181974     0.00207557
Spot 2     0.00229038     0.00209540
20MABNDB000131_PR032
Spot 1     0.00277974     0.00107338
Spot 2     0.00284000     0.00107661
Spot 1     0.00277971     0.00107294
Spot 2     0.00284003     0.00107625
Spot 1     0.00277971     0.00107333
Spot 2     0.00283990     0.00107661
Spot 1     0.00277985     0.00107318
Spot 2     0.00284009     0.00107644
Spot 1     0.00277976     0.00107310
Spot 2     0.00284005     0.00107654
Spot 1     0.00277984     0.00107307
Spot 2     0.00283986     0.00107649
20MABNDB000131_PR034
Spot 1     0.00093246     0.00032528
Spot 2     0.00110903     0.00032497
Spot 1     0.00093241     0.00032517
Spot 2     0.00110897     0.00032483
Spot 1     0.00093249     0.00032528
Spot 2     0.00110898     0.00032497
Spot 1     0.00093247     0.00032528
Spot 2     0.00110909     0.00032497
Spot 1     0.00093251     0.00032549
Spot 2     0.00110884     0.00032503
Spot 1     0.00093255     0.00032552
Spot 2     0.00110897     0.00032493
20MABNDA000208_PR042
Spot 1     0.00304071     0.00096006
Spot 2     0.00296897     0.00096166
Spot 1     0.00304084     0.00095997
Spot 2     0.00296973     0.00096177
Spot 1     0.00304132     0.00095977
Spot 2     0.00296938     0.00096223
Spot 1     0.00304132     0.00095957
Spot 2     0.00296926     0.00096202
Spot 1     0.00304088     0.00095997
Spot 2     0.00296910     0.00096132
Spot 1     0.00304108     0.00095966
Spot 2     0.00296921     0.00096191
20MABNDA000208_PR046
Spot 1     0.00143843     0.00218095
Spot 2     0.00096795     0.00218450
Spot 1     0.00143845     0.00218096
Spot 2     0.00096788     0.00218442
Spot 1     0.00143848     0.00218103
Spot 2     0.00096802     0.00218444
Spot 1     0.00143850     0.00218101
Spot 2     0.00096778     0.00218439
Spot 1     0.00143845     0.00218098
Spot 2     0.00096776     0.00218459
Spot 1     0.00143846     0.00218094
Spot 2     0.00096780     0.00218455
20MABNDA000035_PR044
Spot 1     0.00074221     0.00125511
Spot 2     0.00068527     0.00124938
Spot 1     0.00074218     0.00125500
Spot 2     0.00068527     0.00124951
Spot 1     0.00074220     0.00125525
Spot 2     0.00068533     0.00124994
Spot 1     0.00074239     0.00125511
Spot 2     0.00068540     0.00124962
Spot 1     0.00074226     0.00125514
Spot 2     0.00068531     0.00124989
Spot 1     0.00074210     0.00125514
Spot 2     0.00068540     0.00124964
20MABNDA000035_PR045
Spot 1     0.00255296     0.00048256
Spot 2     0.00237627     0.00048103
Spot 1     0.00255294     0.00048273
Spot 2     0.00237624     0.00048122
Spot 1     0.00255309     0.00048262
Spot 2     0.00237624     0.00048114
Spot 1     0.00255308     0.00048271
Spot 2     0.00237634     0.00048114
Spot 1     0.00255295     0.00048283
Spot 2     0.00237612     0.00048132
Spot 1     0.00255310     0.00048279
Spot 2     0.00237619     0.00048132
20MABNDA000318_PR004
Spot 1     0.00215165     0.00162572
Spot 2     0.00193409     0.00162571
Spot 1     0.00215145     0.00162581
Spot 2     0.00193398     0.00162554
Spot 1     0.00215157     0.00162587
Spot 2     0.00193399     0.00162591
Spot 1     0.00215155     0.00162584
Spot 2     0.00193412     0.00162572
Spot 1     0.00215149     0.00162559
Spot 2     0.00193405     0.00162555
Spot 1     0.00215160     0.00162582
Spot 2     0.00193403     0.00162568
20MABNDA000334_PR005
Spot 1     0.00247808     0.00156991
Spot 2     0.00219790     0.00157017
Spot 1     0.00247805     0.00156995
Spot 2     0.00219786     0.00157017
Spot 1     0.00247802     0.00156986
Spot 2     0.00219777     0.00157000
Spot 1     0.00247807     0.00156986
Spot 2     0.00219782     0.00157008
Spot 1     0.00247806     0.00156982
Spot 2     0.00219784     0.00157013
Spot 1     0.00247802     0.00156993
Spot 2     0.00219801     0.00157021
20MABNDB000317_PR015
Spot 1     0.00149266     0.00160806
Spot 2     0.00171195     0.00160229
Spot 1     0.00149247     0.00160803
Spot 2     0.00171157     0.00160250
Spot 1     0.00149276     0.00160811
Spot 2     0.00171151     0.00160219
Spot 1     0.00149237     0.00160824
Spot 2     0.00171198     0.00160228
Spot 1     0.00149223     0.00160834
Spot 2     0.00171175     0.00160228
Spot 1     0.00149258     0.00160839
Spot 2     0.00171187     0.00160207
20MABNDB000146_PR016
Spot 1     0.00144833     0.00132966
Spot 2     0.00172381     0.00133232
Spot 1     0.00144842     0.00132974
Spot 2     0.00172362     0.00133224
Spot 1     0.00144848     0.00132966
Spot 2     0.00172349     0.00133215
Spot 1     0.00144837     0.00132973
Spot 2     0.00172373     0.00133241
Spot 1     0.00144827     0.00132982
Spot 2     0.00172365     0.00133219
Spot 1     0.00144835     0.00132965
Spot 2     0.00172361     0.00133228
20MABNDB000135_PR027
Spot 1     0.00189061     0.00092167
Spot 2     0.00210926     0.00092422
Spot 1     0.00189056     0.00092155
Spot 2     0.00210941     0.00092430
Spot 1     0.00189057     0.00092163
Spot 2     0.00210927     0.00092409
Spot 1     0.00189064     0.00092155
Spot 2     0.00210933     0.00092427
Spot 1     0.00189055     0.00092167
Spot 2     0.00210924     0.00092411
Spot 1     0.00189051     0.00092157
Spot 2     0.00210934     0.00092420
20MABNDB000126_PR028
Spot 1     0.00165029     0.00200182
Spot 2     0.00193230     0.00200401
Spot 1     0.00165038     0.00200195
Spot 2     0.00193226     0.00200414
Spot 1     0.00165035     0.00200190
Spot 2     0.00193234     0.00200422
Spot 1     0.00165030     0.00200193
Spot 2     0.00193236     0.00200422
Spot 1     0.00165033     0.00200190
Spot 2     0.00193234     0.00200426
Spot 1     0.00165037     0.00200181
Spot 2     0.00193232     0.00200411
20MABNDA000272_PR038
Spot 1     0.00192615     0.00096996
Spot 2     0.00170336     0.00096991
Spot 1     0.00192623     0.00096972
Spot 2     0.00170335     0.00097006
Spot 1     0.00192612     0.00096996
Spot 2     0.00170370     0.00097028
Spot 1     0.00192603     0.00096998
Spot 2     0.00170365     0.00097028
Spot 1     0.00192653     0.00097006
Spot 2     0.00170346     0.00097025
Spot 1     0.00192617     0.00097008
Spot 2     0.00170377     0.00097037
20MABNDA000003_PR039
Spot 1     0.00200938     0.00193026
Spot 2     0.00228715     0.00193010
Spot 1     0.00200948     0.00193024
Spot 2     0.00228717     0.00193006
Spot 1     0.00200948     0.00193035
Spot 2     0.00228713     0.00193006
Spot 1     0.00200948     0.00193031
Spot 2     0.00228709     0.00193012
Spot 1     0.00200941     0.00193025
Spot 2     0.00228729     0.00193014
Spot 1     0.00200947     0.00193035
Spot 2     0.00228715     0.00193014
20MABNDA000196_PR006
Spot 1     0.00197464     0.00075137
Spot 2     0.00160590     0.00074802
Spot 1     0.00197464     0.00075138
Spot 2     0.00160615     0.00074812
Spot 1     0.00197479     0.00075137
Spot 2     0.00160585     0.00074789
Spot 1     0.00197459     0.00075156
Spot 2     0.00160609     0.00074795
Spot 1     0.00197486     0.00075133
Spot 2     0.00160571     0.00074798
Spot 1     0.00197461     0.00075138
Spot 2     0.00160595     0.00074812
20MABNDA000324_PR007
Spot 1     0.00195530     0.00120886
Spot 2     0.00174939     0.00121426
Spot 1     0.00195531     0.00120890
Spot 2     0.00174949     0.00121439
Spot 1     0.00195528     0.00120893
Spot 2     0.00174955     0.00121426
Spot 1     0.00195516     0.00120888
Spot 2     0.00174963     0.00121435
Spot 1     0.00195540     0.00120883
Spot 2     0.00174945     0.00121439
Spot 1     0.00195520     0.00120891
Spot 2     0.00174941     0.00121451
20MABNDB000001_PR017
Spot 1     0.00188217     0.00047504
Spot 2     0.00225167     0.00048447
Spot 1     0.00188213     0.00047509
Spot 2     0.00225146     0.00048465
Spot 1     0.00188216     0.00047504
Spot 2     0.00225135     0.00048448
Spot 1     0.00188215     0.00047504
Spot 2     0.00225167     0.00048482
Spot 1     0.00188222     0.00047509
Spot 2     0.00225149     0.00048465
Spot 1     0.00188219     0.00047507
Spot 2     0.00225164     0.00048465
20MABNDB000260_PR019
Spot 1     0.00192272     0.00149150
Spot 2     0.00212580     0.00149155
Spot 1     0.00192260     0.00149172
Spot 2     0.00212560     0.00149114
Spot 1     0.00192248     0.00149163
Spot 2     0.00212590     0.00149096
Spot 1     0.00192264     0.00149146
Spot 2     0.00212599     0.00149130
Spot 1     0.00192289     0.00149138
Spot 2     0.00212605     0.00149105
Spot 1     0.00192265     0.00149138
Spot 2     0.00212606     0.00149112
20MABNDB000212_PR029
Spot 1     0.00223877     0.00072673
Spot 2     0.00187227     0.00072682
Spot 1     0.00223883     0.00072663
Spot 2     0.00187250     0.00072684
Spot 1     0.00223878     0.00072679
Spot 2     0.00187208     0.00072681
Spot 1     0.00223877     0.00072669
Spot 2     0.00187244     0.00072688
Spot 1     0.00223882     0.00072666
Spot 2     0.00187215     0.00072688
Spot 1     0.00223889     0.00072669
Spot 2     0.00187248     0.00072673
20MABNDB000128_PR030
Spot 1     0.00190093     0.00200263
Spot 2     0.00210558     0.00199763
Spot 1     0.00190095     0.00200265
Spot 2     0.00210554     0.00199773
Spot 1     0.00190099     0.00200252
Spot 2     0.00210572     0.00199753
Spot 1     0.00190104     0.00200281
Spot 2     0.00210559     0.00199750
Spot 1     0.00190084     0.00200281
Spot 2     0.00210547     0.00199769
Spot 1     0.00190091     0.00200270
Spot 2     0.00210570     0.00199773
20MABNDA000444_PR040
Spot 1     0.00074780     0.00038028
Spot 2     0.00111446     0.00037618
Spot 1     0.00074780     0.00038027
Spot 2     0.00111474     0.00037603
Spot 1     0.00074793     0.00038022
Spot 2     0.00111492     0.00037619
Spot 1     0.00074795     0.00038027
Spot 2     0.00111473     0.00037615
Spot 1     0.00074786     0.00038028
Spot 2     0.00111447     0.00037617
Spot 1     0.00074793     0.00038022
Spot 2     0.00111475     0.00037633
20MABNDA000053_PR041
Spot 1     0.00166112     0.00198763
Spot 2     0.00145789     0.00198390
Spot 1     0.00166083     0.00198734
Spot 2     0.00145803     0.00198369
Spot 1     0.00166084     0.00198770
Spot 2     0.00145784     0.00198406
Spot 1     0.00166089     0.00198743
Spot 2     0.00145794     0.00198364
Spot 1     0.00166111     0.00198749
Spot 2     0.00145792     0.00198376
Spot 1     0.00166096     0.00198765
Spot 2     0.00145781     0.00198382
20MABNDA000188_PR008
Spot 1     0.00283500     0.00012500
Spot 2     0.00283500     0.00012500
Spot 1     0.00283500     0.00012500
Spot 2     0.00283500     0.00012500
Spot 1     0.00313500     0.00066500
Spot 2     0.00283500     0.00012500
Spot 1     0.00283500     0.00012500
Spot 2     0.00283500     0.00012500
Spot 1     0.00283500     0.00012500
Spot 2     0.00283500     0.00012500
Spot 1     0.00278500     0.00023500
Spot 2     0.00313000     0.00067000
20MABNDA000188_PR018
Spot 1     0.00166624     0.00169876
Spot 2     0.00119895     0.00169612
Spot 1     0.00166606     0.00169874
Spot 2     0.00119884     0.00169609
Spot 1     0.00166620     0.00169882
Spot 2     0.00119897     0.00169621
Spot 1     0.00166614     0.00169894
Spot 2     0.00119889     0.00169605
Spot 1     0.00166611     0.00169879
Spot 2     0.00119890     0.00169621
Spot 1     0.00166614     0.00169881
Spot 2     0.00119894     0.00169600
20MABNDA000039_PR009
Spot 1     0.00066345     0.00117941
Spot 2     0.00061636     0.00118357
Spot 1     0.00066354     0.00117947
Spot 2     0.00061655     0.00118389
Spot 1     0.00066339     0.00117942
Spot 2     0.00061667     0.00118358
Spot 1     0.00066355     0.00117944
Spot 2     0.00061649     0.00118358
Spot 1     0.00066309     0.00117979
Spot 2     0.00061642     0.00118381
Spot 1     0.00066319     0.00117959
Spot 2     0.00061651     0.00118371
20MABNDA000039_PR011
Spot 1     0.00276525     0.00030235
Spot 2     0.00258989     0.00029760
Spot 1     0.00276514     0.00030247
Spot 2     0.00258983     0.00029760
Spot 1     0.00276522     0.00030237
Spot 2     0.00258979     0.00029764
Spot 1     0.00276520     0.00030249
Spot 2     0.00258990     0.00029773
Spot 1     0.00276522     0.00030241
Spot 2     0.00258983     0.00029766
Spot 1     0.00276512     0.00030240
Spot 2     0.00258991     0.00029769
20MABNDB000155_PR020
Spot 1     0.00061822     0.00112172
Spot 2     0.00068386     0.00111731
Spot 1     0.00061815     0.00112132
Spot 2     0.00068386     0.00111724
Spot 1     0.00061849     0.00112204
Spot 2     0.00068424     0.00111783
Spot 1     0.00061763     0.00112195
Spot 2     0.00068384     0.00111738
Spot 1     0.00061853     0.00112150
Spot 2     0.00068374     0.00111717
Spot 1     0.00061815     0.00112175
Spot 2     0.00068357     0.00111751
20MABNDB000155_PR022
Spot 1     0.00209713     0.00131207
Spot 2     0.00257051     0.00130778
Spot 1     0.00209718     0.00131202
Spot 2     0.00257051     0.00130787
Spot 1     0.00209730     0.00131207
Spot 2     0.00257046     0.00130796
Spot 1     0.00209728     0.00131200
Spot 2     0.00257050     0.00130779
Spot 1     0.00209720     0.00131214
Spot 2     0.00257047     0.00130783
Spot 1     0.00209735     0.00131206
Spot 2     0.00257055     0.00130783
20MABNDB000010_PR021
Spot 1     0.00286813     0.00115974
Spot 2     0.00292313     0.00116297
Spot 1     0.00286805     0.00115992
Spot 2     0.00292323     0.00116266
Spot 1     0.00286795     0.00115966
Spot 2     0.00292323     0.00116298
Spot 1     0.00286813     0.00115980
Spot 2     0.00292333     0.00116317
Spot 1     0.00286804     0.00115992
Spot 2     0.00292332     0.00116313
Spot 1     0.00286802     0.00115965
Spot 2     0.00292328     0.00116319
20MABNDB000010_PR023
Spot 1     0.00130998     0.00034631
Spot 2     0.00148503     0.00034553
Spot 1     0.00130997     0.00034616
Spot 2     0.00148507     0.00034537
Spot 1     0.00130995     0.00034642
Spot 2     0.00148512     0.00034527
Spot 1     0.00131002     0.00034633
Spot 2     0.00148477     0.00034534
Spot 1     0.00130997     0.00034641
Spot 2     0.00148474     0.00034537
Spot 1     0.00130993     0.00034636
Spot 2     0.00148492     0.00034531


****************************************************************coordonnees images transformees dans le repere MOUNT************************************************************************* 
20MABNDM000168_PR025
Spot 1    -0.01338016    -0.03564224    -0.00532900
Spot 2    -0.01322675    -0.03564133    -0.00532900
Spot 1    -0.01338008    -0.03564206    -0.00532900
Spot 2    -0.01322668    -0.03564125    -0.00532900
Spot 1    -0.01338002    -0.03564205    -0.00532900
Spot 2    -0.01322662    -0.03564119    -0.00532900
Spot 1    -0.01338030    -0.03564196    -0.00532900
Spot 2    -0.01322667    -0.03564140    -0.00532900
Spot 1    -0.01337993    -0.03564201    -0.00532900
Spot 2    -0.01322679    -0.03564121    -0.00532900
Spot 1    -0.01337992    -0.03564224    -0.00532900
Spot 2    -0.01322665    -0.03564126    -0.00532900
Spot 1    -0.01337988    -0.03564227    -0.00532900
Spot 2    -0.01322677    -0.03564114    -0.00532900
20MABNDM000168_PR026
Spot 1    -0.01189375    -0.03575495    -0.00532900
Spot 2    -0.01173281    -0.03575744    -0.00532900
Spot 1    -0.01189389    -0.03575500    -0.00532900
Spot 2    -0.01173300    -0.03575772    -0.00532900
Spot 1    -0.01189378    -0.03575486    -0.00532900
Spot 2    -0.01173311    -0.03575729    -0.00532900
Spot 1    -0.01189361    -0.03575504    -0.00532900
Spot 2    -0.01173266    -0.03575775    -0.00532900
Spot 1    -0.01189387    -0.03575492    -0.00532900
Spot 2    -0.01173305    -0.03575736    -0.00532900
Spot 1    -0.01189386    -0.03575510    -0.00532900
Spot 2    -0.01173326    -0.03575750    -0.00532900
Spot 1    -0.01189376    -0.03575488    -0.00532900
Spot 2    -0.01173319    -0.03575745    -0.00532900
20MABNDM000168_20MABNDL000077
Spot 1     0.01288791    -0.03533381    -0.07445100
Spot 2     0.01266943    -0.03529743    -0.07445100
Spot 1     0.01288787    -0.03533381    -0.07445100
Spot 2     0.01266944    -0.03529726    -0.07445100
Spot 1     0.01288787    -0.03533349    -0.07445100
Spot 2     0.01266943    -0.03529743    -0.07445100
Spot 1     0.01288768    -0.03533354    -0.07445100
Spot 2     0.01266969    -0.03529721    -0.07445100
Spot 1     0.01288772    -0.03533319    -0.07445100
Spot 2     0.01266950    -0.03529730    -0.07445100
Spot 1     0.01288767    -0.03533322    -0.07445100
Spot 2     0.01266943    -0.03529720    -0.07445100
Spot 1     0.01288769    -0.03533290    -0.07445100
Spot 2     0.01266978    -0.03529726    -0.07445100
20MABNDM000168_PR001
Spot 1     0.01371673    -0.03563639    -0.07445100
Spot 2     0.01361570    -0.03563137    -0.07445100
Spot 1     0.01371667    -0.03563625    -0.07445100
Spot 2     0.01361563    -0.03563637    -0.07445100
Spot 1     0.01371660    -0.03563637    -0.07445100
Spot 2     0.01361568    -0.03563304    -0.07445100
Spot 1     0.01371665    -0.03563616    -0.07445100
Spot 2     0.01361568    -0.03563304    -0.07445100
Spot 1     0.01371668    -0.03563625    -0.07445100
Spot 2     0.01361563    -0.03563637    -0.07445100
Spot 1     0.01371659    -0.03563632    -0.07445100
Spot 2     0.01361568    -0.03563304    -0.07445100
Spot 1     0.01371689    -0.03563601    -0.07445100
Spot 2     0.01361568    -0.03563304    -0.07445100
20MABNDL000196_PR036
Spot 1     0.01210236     0.03583559    -0.07483600
Spot 2     0.01193802     0.03583683    -0.07483600
Spot 1     0.01210267     0.03583568    -0.07483600
Spot 2     0.01193797     0.03583727    -0.07483600
Spot 1     0.01210252     0.03583561    -0.07483600
Spot 2     0.01193741     0.03583672    -0.07483600
Spot 1     0.01210249     0.03583559    -0.07483600
Spot 2     0.01193796     0.03583626    -0.07483600
Spot 1     0.01210262     0.03583573    -0.07483600
Spot 2     0.01193737     0.03583653    -0.07483600
Spot 1     0.01210249     0.03583569    -0.07483600
Spot 2     0.01193791     0.03583672    -0.07483600
Spot 1     0.01210247     0.03583562    -0.07483600
Spot 2     0.01193750     0.03583700    -0.07483600
20MABNDL000196_PR037
Spot 1     0.01361748     0.03536499    -0.07483600
Spot 2     0.01346275     0.03536648    -0.07483600
Spot 1     0.01361750     0.03536509    -0.07483600
Spot 2     0.01346288     0.03536646    -0.07483600
Spot 1     0.01361755     0.03536514    -0.07483600
Spot 2     0.01346287     0.03536621    -0.07483600
Spot 1     0.01361761     0.03536485    -0.07483600
Spot 2     0.01346311     0.03536638    -0.07483600
Spot 1     0.01361746     0.03536506    -0.07483600
Spot 2     0.01346280     0.03536626    -0.07483600
Spot 1     0.01361751     0.03536522    -0.07483600
Spot 2     0.01346287     0.03536612    -0.07483600
Spot 1     0.01361733     0.03536493    -0.07483600
Spot 2     0.01346300     0.03536629    -0.07483600
20MABNDL000196_20MABNDM000020
Spot 1    -0.01277591     0.03530315    -0.00611000
Spot 2    -0.01255448     0.03530705    -0.00611000
Spot 1    -0.01277591     0.03530319    -0.00611000
Spot 2    -0.01255442     0.03530707    -0.00611000
Spot 1    -0.01277585     0.03530319    -0.00611000
Spot 2    -0.01255433     0.03530711    -0.00611000
Spot 1    -0.01277587     0.03530305    -0.00611000
Spot 2    -0.01255431     0.03530714    -0.00611000
Spot 1    -0.01277584     0.03530324    -0.00611000
Spot 2    -0.01255438     0.03530708    -0.00611000
Spot 1    -0.01277597     0.03530300    -0.00611000
Spot 2    -0.01255441     0.03530711    -0.00611000
Spot 1    -0.01277584     0.03530297    -0.00611000
Spot 2    -0.01255445     0.03530698    -0.00611000
20MABNDL000196_PR012
Spot 1    -0.01272247     0.03432323    -0.00611000
Spot 2    -0.01343239     0.03431227    -0.00611000
Spot 1    -0.01329050     0.03438514    -0.00611000
Spot 2    -0.01386410     0.03435959    -0.00611000
Spot 1    -0.01329050     0.03438514    -0.00611000
Spot 2    -0.01386263     0.03436112    -0.00611000
Spot 1    -0.01329050     0.03438514    -0.00611000
Spot 2    -0.01386344     0.03436028    -0.00611000
Spot 1    -0.01329127     0.03438512    -0.00611000
Spot 2    -0.01386263     0.03436112    -0.00611000
Spot 1    -0.01329050     0.03438514    -0.00611000
Spot 2    -0.01397885     0.03429627    -0.00611000
Spot 1    -0.01329050     0.03438514    -0.00611000
Spot 2    -0.01386018     0.03436367    -0.00611000
20MABNDL000077_PR002
Spot 1     0.01192790     0.03562430    -0.07463200
Spot 2     0.01176765     0.03560975    -0.07463200
Spot 1     0.01192786     0.03562473    -0.07463200
Spot 2     0.01180797     0.03585108    -0.07463200
Spot 1     0.01192783     0.03562557    -0.07463200
Spot 2     0.01180812     0.03586607    -0.07463200
Spot 1     0.01192783     0.03562447    -0.07463200
Spot 2     0.01179907     0.03566379    -0.07463200
Spot 1     0.01192773     0.03562401    -0.07463200
Spot 2     0.01177816     0.03543713    -0.07463200
Spot 1     0.01192775     0.03562407    -0.07463200
Spot 2     0.01180826     0.03588103    -0.07463200
Spot 1     0.01192760     0.03562441    -0.07463200
Spot 2     0.01180773     0.03582599    -0.07463200
20MABNDL000077_PR003
Spot 1     0.01266501     0.03547781    -0.07463200
Spot 2     0.01254512     0.03554798    -0.07463200
Spot 1     0.01266501     0.03547775    -0.07463200
Spot 2     0.01255924     0.03597877    -0.07463200
Spot 1     0.01266507     0.03547804    -0.07463200
Spot 2     0.01256059     0.03611883    -0.07463200
Spot 1     0.01266484     0.03547781    -0.07463200
Spot 2     0.01243078     0.03521054    -0.07463200
Spot 1     0.01266475     0.03547786    -0.07463200
Spot 2     0.01255866     0.03591885    -0.07463200
Spot 1     0.01266471     0.03547768    -0.07463200
Spot 2     0.01253934     0.03549398    -0.07463200
Spot 1     0.01266463     0.03547802    -0.07463200
Spot 2     0.01256126     0.03618880    -0.07463200
20MABNDL000077_20MABNDM000168
Spot 1    -0.01272154     0.03561526    -0.00695400
Spot 2    -0.01403312     0.03406538    -0.00695400
Spot 1    -0.01272150     0.03561515    -0.00695400
Spot 2    -0.01403312     0.03406529    -0.00695400
Spot 1    -0.01272146     0.03561514    -0.00695400
Spot 2    -0.01403312     0.03406536    -0.00695400
Spot 1    -0.01272137     0.03561390    -0.00695400
Spot 2    -0.01403312     0.03406536    -0.00695400
Spot 1    -0.01272136     0.03561349    -0.00695400
Spot 2    -0.01403320     0.03406547    -0.00695400
Spot 1    -0.01272132     0.03561294    -0.00695400
Spot 2    -0.01267455     0.03463663    -0.00695400
Spot 1    -0.01272130     0.03561259    -0.00695400
Spot 2    -0.01267456     0.03463695    -0.00695400
20MABNDL000077_PR024
Spot 1    -0.01355579     0.03581456    -0.00695400
Spot 2    -0.01316828     0.03575008    -0.00695400
Spot 1    -0.01355601     0.03581367    -0.00695400
Spot 2    -0.01316818     0.03575056    -0.00695400
Spot 1    -0.01355566     0.03581399    -0.00695400
Spot 2    -0.01316848     0.03574862    -0.00695400
Spot 1    -0.01355574     0.03581378    -0.00695400
Spot 2    -0.01316838     0.03574914    -0.00695400
Spot 1    -0.01355582     0.03581136    -0.00695400
Spot 2    -0.01316847     0.03574845    -0.00695400
Spot 1    -0.01355582     0.03581129    -0.00695400
Spot 2    -0.01316824     0.03575015    -0.00695400
Spot 1    -0.01355536     0.03581133    -0.00695400
Spot 2    -0.01316803     0.03574842    -0.00695400
20MABNDM000020_PR013
Spot 1    -0.01270861    -0.03600223    -0.00523500
Spot 2    -0.01285204    -0.03616273    -0.00523500
Spot 1    -0.01270213    -0.03618294    -0.00523500
Spot 2    -0.01285244    -0.03616235    -0.00523500
Spot 1    -0.01270851    -0.03599966    -0.00523500
Spot 2    -0.01285131    -0.03616125    -0.00523500
Spot 1    -0.01270869    -0.03600011    -0.00523500
Spot 2    -0.01285190    -0.03616257    -0.00523500
Spot 1    -0.01270837    -0.03600099    -0.00523500
Spot 2    -0.01285244    -0.03616185    -0.00523500
Spot 1    -0.01270854    -0.03600267    -0.00523500
Spot 2    -0.01285198    -0.03616257    -0.00523500
Spot 1    -0.01270851    -0.03599777    -0.00523500
Spot 2    -0.01285144    -0.03616164    -0.00523500
20MABNDM000020_PR014
Spot 1    -0.01166014    -0.03624120    -0.00523500
Spot 2    -0.01182400    -0.03625025    -0.00523500
Spot 1    -0.01166009    -0.03624115    -0.00523500
Spot 2    -0.01182490    -0.03624938    -0.00523500
Spot 1    -0.01166078    -0.03624250    -0.00523500
Spot 2    -0.01182434    -0.03624961    -0.00523500
Spot 1    -0.01166013    -0.03624118    -0.00523500
Spot 2    -0.01182430    -0.03625044    -0.00523500
Spot 1    -0.01165964    -0.03624079    -0.00523500
Spot 2    -0.01182403    -0.03625041    -0.00523500
Spot 1    -0.01166005    -0.03624080    -0.00523500
Spot 2    -0.01182419    -0.03625025    -0.00523500
Spot 1    -0.01165985    -0.03624103    -0.00523500
Spot 2    -0.01182417    -0.03625113    -0.00523500
20MABNDM000020_20MABNDL000196
Spot 1     0.01268476    -0.03469306    -0.07583800
Spot 2     0.01444141    -0.03614332    -0.07583800
Spot 1     0.01268472    -0.03469258    -0.07583800
Spot 2     0.01444141    -0.03614332    -0.07583800
Spot 1     0.01268476    -0.03469243    -0.07583800
Spot 2     0.01444141    -0.03614332    -0.07583800
Spot 1     0.01268466    -0.03469189    -0.07583800
Spot 2     0.01444141    -0.03614332    -0.07583800
Spot 1     0.01268473    -0.03469160    -0.07583800
Spot 2     0.01444141    -0.03614332    -0.07583800
Spot 1     0.01268470    -0.03469115    -0.07583800
Spot 2     0.01444141    -0.03614332    -0.07583800
Spot 1     0.01268466    -0.03469139    -0.07583800
Spot 2     0.01444141    -0.03614332    -0.07583800
20MABNDM000020_PR035
Spot 1     0.01342046    -0.03484120    -0.07583800
Spot 2     0.01348774    -0.03498578    -0.07583800
Spot 1     0.01342027    -0.03484115    -0.07583800
Spot 2     0.01348753    -0.03498488    -0.07583800
Spot 1     0.01342040    -0.03484115    -0.07583800
Spot 2     0.01348768    -0.03498666    -0.07583800
Spot 1     0.01342061    -0.03484121    -0.07583800
Spot 2     0.01348759    -0.03498828    -0.07583800
Spot 1     0.01342056    -0.03484145    -0.07583800
Spot 2     0.01348765    -0.03498832    -0.07583800
Spot 1     0.01342058    -0.03484156    -0.07583800
Spot 2     0.01348765    -0.03498933    -0.07583800
Spot 1     0.01342055    -0.03484154    -0.07583800
Spot 2     0.01348763    -0.03498940    -0.07583800
20MABNDB000069_PR031
Spot 1    -0.01359453    -0.01286380    -0.07388500
Spot 2    -0.01352253    -0.01286617    -0.07388500
Spot 1    -0.01359469    -0.01286374    -0.07388500
Spot 2    -0.01352125    -0.01286604    -0.07388500
Spot 1    -0.01359435    -0.01286370    -0.07388500
Spot 2    -0.01352165    -0.01286612    -0.07388500
Spot 1    -0.01359409    -0.01286362    -0.07388500
Spot 2    -0.01352214    -0.01286589    -0.07388500
Spot 1    -0.01359439    -0.01286364    -0.07388500
Spot 2    -0.01352239    -0.01286616    -0.07388500
Spot 1    -0.01359446    -0.01286387    -0.07388500
Spot 2    -0.01352198    -0.01286612    -0.07388500
Spot 1    -0.01359465    -0.01286377    -0.07388500
Spot 2    -0.01352252    -0.01286654    -0.07388500
20MABNDB000069_PR033
Spot 1    -0.01203019    -0.01225612    -0.07388500
Spot 2    -0.01155916    -0.01225574    -0.07388500
Spot 1    -0.01203019    -0.01225607    -0.07388500
Spot 2    -0.01155919    -0.01225568    -0.07388500
Spot 1    -0.01203025    -0.01225595    -0.07388500
Spot 2    -0.01155917    -0.01225560    -0.07388500
Spot 1    -0.01203023    -0.01225604    -0.07388500
Spot 2    -0.01155929    -0.01225560    -0.07388500
Spot 1    -0.01203031    -0.01225607    -0.07388500
Spot 2    -0.01155914    -0.01225572    -0.07388500
Spot 1    -0.01203023    -0.01225597    -0.07388500
Spot 2    -0.01155925    -0.01225568    -0.07388500
Spot 1    -0.01203015    -0.01225604    -0.07388500
Spot 2    -0.01155909    -0.01225565    -0.07388500
20MABNDB000131_PR032
Spot 1    -0.01144039    -0.01304136    -0.07533000
Spot 2    -0.01138015    -0.01303783    -0.07533000
Spot 1    -0.01144042    -0.01304180    -0.07533000
Spot 2    -0.01138011    -0.01303819    -0.07533000
Spot 1    -0.01144042    -0.01304141    -0.07533000
Spot 2    -0.01138025    -0.01303783    -0.07533000
Spot 1    -0.01144028    -0.01304156    -0.07533000
Spot 2    -0.01138005    -0.01303800    -0.07533000
Spot 1    -0.01144037    -0.01304164    -0.07533000
Spot 2    -0.01138009    -0.01303790    -0.07533000
Spot 1    -0.01144029    -0.01304167    -0.07533000
Spot 2    -0.01138028    -0.01303795    -0.07533000
20MABNDB000131_PR034
Spot 1    -0.01328388    -0.01379875    -0.07533000
Spot 2    -0.01310731    -0.01379817    -0.07533000
Spot 1    -0.01328393    -0.01379886    -0.07533000
Spot 2    -0.01310737    -0.01379831    -0.07533000
Spot 1    -0.01328385    -0.01379875    -0.07533000
Spot 2    -0.01310736    -0.01379817    -0.07533000
Spot 1    -0.01328387    -0.01379875    -0.07533000
Spot 2    -0.01310725    -0.01379817    -0.07533000
Spot 1    -0.01328383    -0.01379854    -0.07533000
Spot 2    -0.01310750    -0.01379811    -0.07533000
Spot 1    -0.01328379    -0.01379851    -0.07533000
Spot 2    -0.01310737    -0.01379821    -0.07533000
20MABNDA000208_PR042
Spot 1    -0.01391142     0.01303597    -0.07273700
Spot 2    -0.01383968     0.01303444    -0.07273700
Spot 1    -0.01391155     0.01303606    -0.07273700
Spot 2    -0.01384044     0.01303433    -0.07273700
Spot 1    -0.01391203     0.01303626    -0.07273700
Spot 2    -0.01384009     0.01303387    -0.07273700
Spot 1    -0.01391203     0.01303646    -0.07273700
Spot 2    -0.01383997     0.01303408    -0.07273700
Spot 1    -0.01391159     0.01303606    -0.07273700
Spot 2    -0.01383981     0.01303478    -0.07273700
Spot 1    -0.01391179     0.01303637    -0.07273700
Spot 2    -0.01383992     0.01303419    -0.07273700
20MABNDA000208_PR046
Spot 1    -0.01230807     0.01181649    -0.07273700
Spot 2    -0.01183759     0.01181335    -0.07273700
Spot 1    -0.01230809     0.01181648    -0.07273700
Spot 2    -0.01183752     0.01181343    -0.07273700
Spot 1    -0.01230812     0.01181641    -0.07273700
Spot 2    -0.01183766     0.01181341    -0.07273700
Spot 1    -0.01230814     0.01181643    -0.07273700
Spot 2    -0.01183742     0.01181346    -0.07273700
Spot 1    -0.01230809     0.01181646    -0.07273700
Spot 2    -0.01183740     0.01181326    -0.07273700
Spot 1    -0.01230810     0.01181650    -0.07273700
Spot 2    -0.01183744     0.01181330    -0.07273700
20MABNDA000035_PR044
Spot 1    -0.01157684     0.01300216    -0.07483200
Spot 2    -0.01151986     0.01300749    -0.07483200
Spot 1    -0.01157681     0.01300227    -0.07483200
Spot 2    -0.01151987     0.01300736    -0.07483200
Spot 1    -0.01157684     0.01300202    -0.07483200
Spot 2    -0.01151993     0.01300693    -0.07483200
Spot 1    -0.01157702     0.01300217    -0.07483200
Spot 2    -0.01152000     0.01300725    -0.07483200
Spot 1    -0.01157689     0.01300214    -0.07483200
Spot 2    -0.01151991     0.01300698    -0.07483200
Spot 1    -0.01157673     0.01300213    -0.07483200
Spot 2    -0.01152000     0.01300723    -0.07483200
20MABNDA000035_PR045
Spot 1    -0.01338205     0.01378758    -0.07483200
Spot 2    -0.01320536     0.01378785    -0.07483200
Spot 1    -0.01338203     0.01378741    -0.07483200
Spot 2    -0.01320533     0.01378766    -0.07483200
Spot 1    -0.01338218     0.01378752    -0.07483200
Spot 2    -0.01320533     0.01378774    -0.07483200
Spot 1    -0.01338217     0.01378743    -0.07483200
Spot 2    -0.01320543     0.01378774    -0.07483200
Spot 1    -0.01338204     0.01378731    -0.07483200
Spot 2    -0.01320521     0.01378756    -0.07483200
Spot 1    -0.01338219     0.01378735    -0.07483200
Spot 2    -0.01320528     0.01378756    -0.07483200
20MABNDA000318_PR004
Spot 1    -0.01287147     0.01246950    -0.07310600
Spot 2    -0.01265391     0.01247015    -0.07310600
Spot 1    -0.01287127     0.01246941    -0.07310600
Spot 2    -0.01265380     0.01247032    -0.07310600
Spot 1    -0.01287139     0.01246935    -0.07310600
Spot 2    -0.01265381     0.01246995    -0.07310600
Spot 1    -0.01287137     0.01246938    -0.07310600
Spot 2    -0.01265394     0.01247014    -0.07310600
Spot 1    -0.01287131     0.01246963    -0.07310600
Spot 2    -0.01265387     0.01247031    -0.07310600
Spot 1    -0.01287142     0.01246940    -0.07310600
Spot 2    -0.01265385     0.01247018    -0.07310600
20MABNDA000334_PR005
Spot 1    -0.01312118     0.01255849    -0.07324100
Spot 2    -0.01284100     0.01255796    -0.07324100
Spot 1    -0.01312115     0.01255845    -0.07324100
Spot 2    -0.01284096     0.01255796    -0.07324100
Spot 1    -0.01312112     0.01255854    -0.07324100
Spot 2    -0.01284087     0.01255813    -0.07324100
Spot 1    -0.01312117     0.01255854    -0.07324100
Spot 2    -0.01284092     0.01255805    -0.07324100
Spot 1    -0.01312116     0.01255858    -0.07324100
Spot 2    -0.01284094     0.01255800    -0.07324100
Spot 1    -0.01312112     0.01255847    -0.07324100
Spot 2    -0.01284111     0.01255792    -0.07324100
20MABNDB000317_PR015
Spot 1    -0.01266172    -0.01248993    -0.07326100
Spot 2    -0.01244238    -0.01249314    -0.07326100
Spot 1    -0.01266191    -0.01248996    -0.07326100
Spot 2    -0.01244276    -0.01249294    -0.07326100
Spot 1    -0.01266163    -0.01248988    -0.07326100
Spot 2    -0.01244282    -0.01249325    -0.07326100
Spot 1    -0.01266202    -0.01248975    -0.07326100
Spot 2    -0.01244235    -0.01249315    -0.07326100
Spot 1    -0.01266216    -0.01248965    -0.07326100
Spot 2    -0.01244258    -0.01249316    -0.07326100
Spot 1    -0.01266181    -0.01248960    -0.07326100
Spot 2    -0.01244246    -0.01249337    -0.07326100
20MABNDB000146_PR016
Spot 1    -0.01276003    -0.01246394    -0.07450500
Spot 2    -0.01248455    -0.01246067    -0.07450500
Spot 1    -0.01275994    -0.01246386    -0.07450500
Spot 2    -0.01248474    -0.01246075    -0.07450500
Spot 1    -0.01275988    -0.01246394    -0.07450500
Spot 2    -0.01248487    -0.01246084    -0.07450500
Spot 1    -0.01275999    -0.01246387    -0.07450500
Spot 2    -0.01248463    -0.01246058    -0.07450500
Spot 1    -0.01276009    -0.01246378    -0.07450500
Spot 2    -0.01248471    -0.01246080    -0.07450500
Spot 1    -0.01276001    -0.01246395    -0.07450500
Spot 2    -0.01248475    -0.01246071    -0.07450500
20MABNDB000135_PR027
Spot 1    -0.01251400    -0.01319135    -0.07464700
Spot 2    -0.01229533    -0.01319123    -0.07464700
Spot 1    -0.01251405    -0.01319147    -0.07464700
Spot 2    -0.01229518    -0.01319115    -0.07464700
Spot 1    -0.01251404    -0.01319139    -0.07464700
Spot 2    -0.01229532    -0.01319136    -0.07464700
Spot 1    -0.01251397    -0.01319147    -0.07464700
Spot 2    -0.01229526    -0.01319118    -0.07464700
Spot 1    -0.01251406    -0.01319135    -0.07464700
Spot 2    -0.01229535    -0.01319134    -0.07464700
Spot 1    -0.01251410    -0.01319145    -0.07464700
Spot 2    -0.01229525    -0.01319125    -0.07464700
20MABNDB000126_PR028
Spot 1    -0.01252921    -0.01218032    -0.07500400
Spot 2    -0.01224721    -0.01217663    -0.07500400
Spot 1    -0.01252912    -0.01218019    -0.07500400
Spot 2    -0.01224725    -0.01217650    -0.07500400
Spot 1    -0.01252915    -0.01218024    -0.07500400
Spot 2    -0.01224717    -0.01217642    -0.07500400
Spot 1    -0.01252920    -0.01218021    -0.07500400
Spot 2    -0.01224715    -0.01217642    -0.07500400
Spot 1    -0.01252917    -0.01218024    -0.07500400
Spot 2    -0.01224717    -0.01217638    -0.07500400
Spot 1    -0.01252913    -0.01218033    -0.07500400
Spot 2    -0.01224719    -0.01217653    -0.07500400
20MABNDA000272_PR038
Spot 1    -0.01276184     0.01314151    -0.07417900
Spot 2    -0.01253905     0.01314117    -0.07417900
Spot 1    -0.01276192     0.01314175    -0.07417900
Spot 2    -0.01253904     0.01314102    -0.07417900
Spot 1    -0.01276181     0.01314151    -0.07417900
Spot 2    -0.01253939     0.01314080    -0.07417900
Spot 1    -0.01276172     0.01314149    -0.07417900
Spot 2    -0.01253934     0.01314080    -0.07417900
Spot 1    -0.01276222     0.01314141    -0.07417900
Spot 2    -0.01253915     0.01314083    -0.07417900
Spot 1    -0.01276186     0.01314139    -0.07417900
Spot 2    -0.01253946     0.01314071    -0.07417900
20MABNDA000003_PR039
Spot 1    -0.01281047     0.01212203    -0.07373400
Spot 2    -0.01308824     0.01212289    -0.07373400
Spot 1    -0.01281057     0.01212205    -0.07373400
Spot 2    -0.01308826     0.01212293    -0.07373400
Spot 1    -0.01281058     0.01212194    -0.07373400
Spot 2    -0.01308822     0.01212293    -0.07373400
Spot 1    -0.01281058     0.01212198    -0.07373400
Spot 2    -0.01308818     0.01212287    -0.07373400
Spot 1    -0.01281050     0.01212204    -0.07373400
Spot 2    -0.01308838     0.01212285    -0.07373400
Spot 1    -0.01281057     0.01212194    -0.07373400
Spot 2    -0.01308824     0.01212285    -0.07373400
20MABNDA000196_PR006
Spot 1    -0.01292963     0.01322671    -0.07967100
Spot 2    -0.01256088     0.01322532    -0.07967100
Spot 1    -0.01292963     0.01322670    -0.07967100
Spot 2    -0.01256113     0.01322522    -0.07967100
Spot 1    -0.01292978     0.01322671    -0.07967100
Spot 2    -0.01256083     0.01322545    -0.07967100
Spot 1    -0.01292958     0.01322652    -0.07967100
Spot 2    -0.01256107     0.01322539    -0.07967100
Spot 1    -0.01292985     0.01322675    -0.07967100
Spot 2    -0.01256069     0.01322536    -0.07967100
Spot 1    -0.01292960     0.01322670    -0.07967100
Spot 2    -0.01256093     0.01322522    -0.07967100
20MABNDA000324_PR007
Spot 1    -0.01256104     0.01281266    -0.07446800
Spot 2    -0.01235509     0.01280886    -0.07446800
Spot 1    -0.01256105     0.01281262    -0.07446800
Spot 2    -0.01235519     0.01280873    -0.07446800
Spot 1    -0.01256102     0.01281259    -0.07446800
Spot 2    -0.01235525     0.01280886    -0.07446800
Spot 1    -0.01256090     0.01281264    -0.07446800
Spot 2    -0.01235533     0.01280877    -0.07446800
Spot 1    -0.01256114     0.01281268    -0.07446800
Spot 2    -0.01235515     0.01280873    -0.07446800
Spot 1    -0.01256094     0.01281261    -0.07446800
Spot 2    -0.01235511     0.01280861    -0.07446800
20MABNDB000001_PR017
Spot 1    -0.01230581    -0.01351443    -0.07418400
Spot 2    -0.01193623    -0.01350892    -0.07418400
Spot 1    -0.01230585    -0.01351438    -0.07418400
Spot 2    -0.01193644    -0.01350874    -0.07418400
Spot 1    -0.01230582    -0.01351443    -0.07418400
Spot 2    -0.01193655    -0.01350890    -0.07418400
Spot 1    -0.01230583    -0.01351443    -0.07418400
Spot 2    -0.01193622    -0.01350857    -0.07418400
Spot 1    -0.01230576    -0.01351439    -0.07418400
Spot 2    -0.01193641    -0.01350874    -0.07418400
Spot 1    -0.01230579    -0.01351441    -0.07418400
Spot 2    -0.01193626    -0.01350874    -0.07418400
20MABNDB000260_PR019
Spot 1    -0.01240839    -0.01241104    -0.07492700
Spot 2    -0.01220535    -0.01240682    -0.07492700
Spot 1    -0.01240851    -0.01241082    -0.07492700
Spot 2    -0.01220555    -0.01240724    -0.07492700
Spot 1    -0.01240863    -0.01241091    -0.07492700
Spot 2    -0.01220524    -0.01240741    -0.07492700
Spot 1    -0.01240847    -0.01241108    -0.07492700
Spot 2    -0.01220516    -0.01240707    -0.07492700
Spot 1    -0.01240822    -0.01241115    -0.07492700
Spot 2    -0.01220509    -0.01240732    -0.07492700
Spot 1    -0.01240846    -0.01241116    -0.07492700
Spot 2    -0.01220509    -0.01240725    -0.07492700
20MABNDB000212_PR029
Spot 1    -0.01184880    -0.01325459    -0.07390500
Spot 2    -0.01221528    -0.01325059    -0.07390500
Spot 1    -0.01184874    -0.01325470    -0.07390500
Spot 2    -0.01221505    -0.01325057    -0.07390500
Spot 1    -0.01184879    -0.01325453    -0.07390500
Spot 2    -0.01221547    -0.01325060    -0.07390500
Spot 1    -0.01184880    -0.01325463    -0.07390500
Spot 2    -0.01221511    -0.01325053    -0.07390500
Spot 1    -0.01184875    -0.01325467    -0.07390500
Spot 2    -0.01221540    -0.01325053    -0.07390500
Spot 1    -0.01184868    -0.01325464    -0.07390500
Spot 2    -0.01221507    -0.01325068    -0.07390500
20MABNDB000128_PR030
Spot 1    -0.01245420    -0.01221468    -0.07353400
Spot 2    -0.01224953    -0.01221898    -0.07353400
Spot 1    -0.01245418    -0.01221466    -0.07353400
Spot 2    -0.01224957    -0.01221888    -0.07353400
Spot 1    -0.01245414    -0.01221479    -0.07353400
Spot 2    -0.01224939    -0.01221908    -0.07353400
Spot 1    -0.01245409    -0.01221450    -0.07353400
Spot 2    -0.01224952    -0.01221911    -0.07353400
Spot 1    -0.01245429    -0.01221450    -0.07353400
Spot 2    -0.01224964    -0.01221892    -0.07353400
Spot 1    -0.01245422    -0.01221461    -0.07353400
Spot 2    -0.01224941    -0.01221888    -0.07353400
20MABNDA000444_PR040
Spot 1    -0.01168729     0.01364950    -0.07412000
Spot 2    -0.01205398     0.01364895    -0.07412000
Spot 1    -0.01168729     0.01364951    -0.07412000
Spot 2    -0.01205426     0.01364910    -0.07412000
Spot 1    -0.01168742     0.01364956    -0.07412000
Spot 2    -0.01205444     0.01364893    -0.07412000
Spot 1    -0.01168744     0.01364951    -0.07412000
Spot 2    -0.01205425     0.01364898    -0.07412000
Spot 1    -0.01168735     0.01364950    -0.07412000
Spot 2    -0.01205399     0.01364896    -0.07412000
Spot 1    -0.01168742     0.01364956    -0.07412000
Spot 2    -0.01205426     0.01364880    -0.07412000
20MABNDA000053_PR041
Spot 1    -0.01241772     0.01212299    -0.07430100
Spot 2    -0.01221446     0.01212275    -0.07430100
Spot 1    -0.01241743     0.01212327    -0.07430100
Spot 2    -0.01221459     0.01212296    -0.07430100
Spot 1    -0.01241744     0.01212291    -0.07430100
Spot 2    -0.01221441     0.01212259    -0.07430100
Spot 1    -0.01241749     0.01212318    -0.07430100
Spot 2    -0.01221450     0.01212301    -0.07430100
Spot 1    -0.01241771     0.01212313    -0.07430100
Spot 2    -0.01221449     0.01212289    -0.07430100
Spot 1    -0.01241756     0.01212296    -0.07430100
Spot 2    -0.01221438     0.01212283    -0.07430100
20MABNDA000188_PR008
Spot 1    -0.01385116     0.01393841    -0.07502000
Spot 2    -0.01385116     0.01393841    -0.07502000
Spot 1    -0.01385116     0.01393841    -0.07502000
Spot 2    -0.01385116     0.01393841    -0.07502000
Spot 1    -0.01415577     0.01340100    -0.07502000
Spot 2    -0.01385116     0.01393841    -0.07502000
Spot 1    -0.01385116     0.01393841    -0.07502000
Spot 2    -0.01385116     0.01393841    -0.07502000
Spot 1    -0.01385116     0.01393841    -0.07502000
Spot 2    -0.01385116     0.01393841    -0.07502000
Spot 1    -0.01380210     0.01382799    -0.07502000
Spot 2    -0.01415082     0.01339596    -0.07502000
20MABNDA000188_PR018
Spot 1    -0.01269592     0.01235470    -0.07502000
Spot 2    -0.01222862     0.01235334    -0.07502000
Spot 1    -0.01269574     0.01235472    -0.07502000
Spot 2    -0.01222851     0.01235337    -0.07502000
Spot 1    -0.01269588     0.01235464    -0.07502000
Spot 2    -0.01222864     0.01235325    -0.07502000
Spot 1    -0.01269582     0.01235452    -0.07502000
Spot 2    -0.01222856     0.01235341    -0.07502000
Spot 1    -0.01269579     0.01235467    -0.07502000
Spot 2    -0.01222857     0.01235325    -0.07502000
Spot 1    -0.01269582     0.01235465    -0.07502000
Spot 2    -0.01222861     0.01235346    -0.07502000
20MABNDA000039_PR009
Spot 1    -0.01162560     0.01306472    -0.07444800
Spot 2    -0.01157853     0.01306036    -0.07444800
Spot 1    -0.01162569     0.01306466    -0.07444800
Spot 2    -0.01157872     0.01306004    -0.07444800
Spot 1    -0.01162554     0.01306471    -0.07444800
Spot 2    -0.01157884     0.01306035    -0.07444800
Spot 1    -0.01162570     0.01306469    -0.07444800
Spot 2    -0.01157866     0.01306035    -0.07444800
Spot 1    -0.01162524     0.01306434    -0.07444800
Spot 2    -0.01157859     0.01306012    -0.07444800
Spot 1    -0.01162534     0.01306454    -0.07444800
Spot 2    -0.01157868     0.01306022    -0.07444800
20MABNDA000039_PR011
Spot 1    -0.01372358     0.01395087    -0.07444800
Spot 2    -0.01354820     0.01395486    -0.07444800
Spot 1    -0.01372347     0.01395075    -0.07444800
Spot 2    -0.01354814     0.01395486    -0.07444800
Spot 1    -0.01372355     0.01395085    -0.07444800
Spot 2    -0.01354810     0.01395482    -0.07444800
Spot 1    -0.01372353     0.01395073    -0.07444800
Spot 2    -0.01354821     0.01395473    -0.07444800
Spot 1    -0.01372355     0.01395081    -0.07444800
Spot 2    -0.01354814     0.01395480    -0.07444800
Spot 1    -0.01372345     0.01395082    -0.07444800
Spot 2    -0.01354822     0.01395477    -0.07444800
20MABNDB000155_PR020
Spot 1    -0.01364783    -0.01313567    -0.07501700
Spot 2    -0.01358213    -0.01313918    -0.07501700
Spot 1    -0.01364789    -0.01313607    -0.07501700
Spot 2    -0.01358213    -0.01313925    -0.07501700
Spot 1    -0.01364756    -0.01313535    -0.07501700
Spot 2    -0.01358176    -0.01313866    -0.07501700
Spot 1    -0.01364842    -0.01313545    -0.07501700
Spot 2    -0.01358216    -0.01313911    -0.07501700
Spot 1    -0.01364752    -0.01313589    -0.07501700
Spot 2    -0.01358225    -0.01313932    -0.07501700
Spot 1    -0.01364790    -0.01313564    -0.07501700
Spot 2    -0.01358243    -0.01313899    -0.07501700
20MABNDB000155_PR022
Spot 1    -0.01217166    -0.01292509    -0.07501700
Spot 2    -0.01169827    -0.01292290    -0.07501700
Spot 1    -0.01217161    -0.01292514    -0.07501700
Spot 2    -0.01169827    -0.01292281    -0.07501700
Spot 1    -0.01217149    -0.01292509    -0.07501700
Spot 2    -0.01169832    -0.01292272    -0.07501700
Spot 1    -0.01217151    -0.01292516    -0.07501700
Spot 2    -0.01169828    -0.01292289    -0.07501700
Spot 1    -0.01217159    -0.01292502    -0.07501700
Spot 2    -0.01169831    -0.01292285    -0.07501700
Spot 1    -0.01217144    -0.01292510    -0.07501700
Spot 2    -0.01169823    -0.01292285    -0.07501700
20MABNDB000010_PR021
Spot 1    -0.01158299    -0.01291878    -0.07358200
Spot 2    -0.01152805    -0.01291462    -0.07358200
Spot 1    -0.01158307    -0.01291860    -0.07358200
Spot 2    -0.01152795    -0.01291493    -0.07358200
Spot 1    -0.01158317    -0.01291887    -0.07358200
Spot 2    -0.01152795    -0.01291461    -0.07358200
Spot 1    -0.01158299    -0.01291872    -0.07358200
Spot 2    -0.01152786    -0.01291442    -0.07358200
Spot 1    -0.01158308    -0.01291860    -0.07358200
Spot 2    -0.01152787    -0.01291446    -0.07358200
Spot 1    -0.01158310    -0.01291887    -0.07358200
Spot 2    -0.01152791    -0.01291440    -0.07358200
20MABNDB000010_PR023
Spot 1    -0.01312714    -0.01375849    -0.07358200
Spot 2    -0.01295210    -0.01375631    -0.07358200
Spot 1    -0.01312714    -0.01375864    -0.07358200
Spot 2    -0.01295206    -0.01375646    -0.07358200
Spot 1    -0.01312717    -0.01375838    -0.07358200
Spot 2    -0.01295200    -0.01375656    -0.07358200
Spot 1    -0.01312710    -0.01375847    -0.07358200
Spot 2    -0.01295236    -0.01375650    -0.07358200
Spot 1    -0.01312715    -0.01375839    -0.07358200
Spot 2    -0.01295239    -0.01375647    -0.07358200
Spot 1    -0.01312719    -0.01375844    -0.07358200
Spot 2    -0.01295220    -0.01375653    -0.07358200


*****************************************************************coordonnees du prisme dans le repere MOUNT********************************************************************************** 
20MABNDM000168_PR025
    0.01798684    -0.02082701    -3.78863955
    0.01798316    -0.02083345    -3.78863955
    0.01798020    -0.02083519    -3.78863955
    0.01798835    -0.02083219    -3.78863955
    0.01798218    -0.02083544    -3.78863955
    0.01797844    -0.02082853    -3.78863955
    0.01798043    -0.02083074    -3.78863955
20MABNDM000168_PR026
   -0.05797130    -0.01406770    -3.98428965
   -0.05796249    -0.01405907    -3.98428965
   -0.05796269    -0.01407390    -3.98428988
   -0.05797863    -0.01405732    -3.98428965
   -0.05796192    -0.01407052    -3.98428965
   -0.05795676    -0.01406217    -3.98428988
   -0.05796115    -0.01406921    -3.98428988
20MABNDM000168_20MABNDL000077
    0.01134670    -0.03774453     5.38884687
    0.01134769    -0.03775065     5.38884687
    0.01134797    -0.03775604     5.38884687
    0.01134536    -0.03776247     5.38884687
    0.01135098    -0.03777154     5.38884687
    0.01135525    -0.03777412     5.38884687
    0.01134182    -0.03778362     5.38884687
20MABNDM000168_PR001
   -0.05757341    -0.01320378     5.81470203
   -0.05756832    -0.01301545     5.81470203
   -0.05756744    -0.01313990     5.81470203
   -0.05756949    -0.01314801     5.81470203
   -0.05756871    -0.01301544     5.81470203
   -0.05756707    -0.01314184     5.81470203
   -0.05757849    -0.01315370     5.81470203
20MABNDL000196_PR036
    0.05077885     0.00554824     3.68777442
    0.05077250     0.00553521     3.68777442
    0.05078990     0.00555047     3.68777442
    0.05077711     0.00556222     3.68777466
    0.05078842     0.00555218     3.68777442
    0.05077836     0.00554848     3.68777442
    0.05078893     0.00554335     3.68777442
20MABNDL000196_PR037
   -0.02579615     0.02825981     3.88380599
   -0.02580003     0.02825773     3.88380599
   -0.02580107     0.02826290     3.88380599
   -0.02580858     0.02826598     3.88380599
   -0.02579693     0.02826368     3.88380599
   -0.02580004     0.02826316     3.88380599
   -0.02579849     0.02826626     3.88380599
20MABNDL000196_20MABNDM000020
   -0.01384197     0.03878680    -5.47473907
   -0.01384408     0.03878496    -5.47473907
   -0.01384944     0.03878342    -5.47473907
   -0.01384952     0.03878736    -5.47473907
   -0.01384799     0.03878272    -5.47473907
   -0.01384240     0.03879038    -5.47473907
   -0.01384574     0.03879571    -5.47473907
20MABNDL000196_PR012
    0.01810591     0.11575020    -5.91514874
    0.05695443     0.11150141    -5.91487074
    0.05689734     0.11144198    -5.91487217
    0.05692893     0.11147487    -5.91487217
    0.05692725     0.11144258    -5.91487217
    0.06141252     0.11396095    -5.91478348
    0.05680219     0.11134292    -5.91487503
20MABNDL000077_PR002
    0.05440141     0.01918679     3.70684814
    0.05340606     0.01321539     3.70682716
    0.05340326     0.01282441     3.70682478
    0.05362701     0.01784778     3.70685029
    0.05414607     0.02345752     3.70686793
    0.05340152     0.01249197     3.70682287
    0.05341856     0.01384290     3.70683074
20MABNDL000077_PR003
    0.01721007     0.02373337     3.89603233
    0.01684356     0.01255148     3.89598131
    0.01680691     0.00890794     3.89595747
    0.02018299     0.03249386     3.89604521
    0.01686526     0.01410403     3.89598989
    0.01736795     0.02513875     3.89603615
    0.01680084     0.00709205     3.89594460
20MABNDL000077_20MABNDM000168
    0.03731403     0.06657840    -5.46843815
    0.03731252     0.06658560    -5.46843815
    0.03731110     0.06658342    -5.46843815
    0.03730811     0.06662817    -5.46843815
    0.03731053     0.06663904    -5.46843815
   -0.01175759     0.04603252    -5.46874714
   -0.01175796     0.04603360    -5.46874714
20MABNDL000077_PR024
    0.04009324    -0.00443985    -5.89634180
    0.04009776    -0.00442382    -5.89634180
    0.04009556    -0.00436108    -5.89634228
    0.04009530    -0.00437316    -5.89634228
    0.04010186    -0.00425186    -5.89634275
    0.04009276    -0.00431511    -5.89634275
    0.04006675    -0.00424910    -5.89634323
20MABNDM000020_PR013
   -0.00506682     0.01124368    -3.80218077
   -0.00521777     0.01571705    -3.80212140
   -0.00508743     0.01114348    -3.80218220
   -0.00506830     0.01118733    -3.80218148
   -0.00506293     0.01119117    -3.80218148
   -0.00506996     0.01125081    -3.80218077
   -0.00508413     0.01110634    -3.80218267
20MABNDM000020_PR014
   -0.06774826     0.03338793    -4.74797249
   -0.06772181     0.03335928    -4.74797344
   -0.06771758     0.03340856    -4.74797249
   -0.06773935     0.03339310    -4.74797249
   -0.06776303     0.03338012    -4.74797249
   -0.06774519     0.03337523    -4.74797297
   -0.06775185     0.03340992    -4.74797201
20MABNDM000020_20MABNDL000196
   -0.04608243    -0.01334291     5.39446259
   -0.04608100    -0.01336011     5.39446259
   -0.04608243    -0.01336548     5.39446259
   -0.04607885    -0.01338482     5.39446306
   -0.04608136    -0.01339521     5.39446306
   -0.04608028    -0.01341134     5.39446306
   -0.04607885    -0.01340274     5.39446306
20MABNDM000020_PR035
   -0.04211804    -0.05052911     5.80101299
   -0.04210300    -0.05056570     5.80101299
   -0.04211341    -0.05049713     5.80101299
   -0.04211805    -0.05043241     5.80101299
   -0.04211843    -0.05042162     5.80101299
   -0.04211921    -0.05037847     5.80101299
   -0.04211728    -0.05037654     5.80101299
20MABNDB000069_PR031
    0.10247967    -0.03859929     9.20355988
    0.10241109    -0.03861058     9.20356083
    0.10241425    -0.03860825     9.20356083
    0.10242879    -0.03862727     9.20355988
    0.10246206    -0.03860961     9.20355988
    0.10244107    -0.03859770     9.20355988
    0.10248668    -0.03857810     9.20355988
20MABNDB000069_PR033
   -0.02675622    -0.02705838     1.28393996
   -0.02675591    -0.02705934     1.28393996
   -0.02675564    -0.02706097     1.28393996
   -0.02675475    -0.02706024     1.28393996
   -0.02675538    -0.02705893     1.28393996
   -0.02675509    -0.02706014     1.28393996
   -0.02675713    -0.02705989     1.28393996
20MABNDB000131_PR032
   -0.18837687    -0.02914864    11.00641537
   -0.18837717    -0.02909019    11.00641537
   -0.18836740    -0.02914494    11.00641537
   -0.18839163    -0.02912168    11.00641537
   -0.18838212    -0.02912309    11.00641537
   -0.18837410    -0.02911721    11.00641537
20MABNDB000131_PR034
    0.01393790     0.01644395     3.43338227
    0.01394038     0.01644966     3.43338203
    0.01393836     0.01644396     3.43338227
    0.01393630     0.01644395     3.43338227
    0.01394112     0.01643782     3.43338227
    0.01393724     0.01643939     3.43338227
20MABNDA000208_PR042
    0.12990709     0.01562529     9.20148849
    0.12996170     0.01562656     9.20148849
    0.12996966     0.01564253     9.20148849
    0.12996233     0.01561736     9.20148849
    0.12992552     0.01559891     9.20148849
    0.12994453     0.01561612     9.20148849
20MABNDA000208_PR046
   -0.02363579     0.03428176     1.28208590
   -0.02363622     0.03428116     1.28208613
   -0.02363477     0.03428194     1.28208613
   -0.02363664     0.03428134     1.28208590
   -0.02363724     0.03428279     1.28208590
   -0.02363682     0.03428210     1.28208590
20MABNDA000035_PR044
   -0.17939667     0.02644222    11.00803185
   -0.17939886     0.02644370    11.00803185
   -0.17939265     0.02649339    11.00803185
   -0.17937386     0.02645961    11.00803185
   -0.17938980     0.02648167    11.00803185
   -0.17939505     0.02646342    11.00803185
20MABNDA000035_PR045
    0.01496170    -0.01846598     3.43483877
    0.01496062    -0.01845775     3.43483877
    0.01496401    -0.01846211     3.43483877
    0.01496608    -0.01846007     3.43483877
    0.01495814    -0.01845317     3.43483877
    0.01496315    -0.01845412     3.43483877
20MABNDA000318_PR004
   -0.00823778     0.03838127     2.74965858
   -0.00824346     0.03837979     2.74965906
   -0.00824110     0.03838769     2.74965858
   -0.00823907     0.03838366     2.74965858
   -0.00824143     0.03837595     2.74965906
   -0.00823980     0.03838255     2.74965858
20MABNDA000334_PR005
   -0.00412805     0.03122822     2.14977503
   -0.00412905     0.03122879     2.14977503
   -0.00413076     0.03122508     2.14977503
   -0.00412933     0.03122622     2.14977503
   -0.00412919     0.03122636     2.14977503
   -0.00412733     0.03122908     2.14977503
20MABNDB000317_PR015
   -0.01754185    -0.03430129     2.75128746
   -0.01753143    -0.03430444     2.75128746
   -0.01753567    -0.03430030     2.75128746
   -0.01753708    -0.03430433     2.75128746
   -0.01753032    -0.03430607     2.75128746
   -0.01753891    -0.03430326     2.75128746
20MABNDB000146_PR016
   -0.01354292    -0.03171657     2.15201354
   -0.01354148    -0.03171656     2.15201354
   -0.01354048    -0.03171412     2.15201354
   -0.01354234    -0.03171887     2.15201330
   -0.01353975    -0.03171699     2.15201330
   -0.01354033    -0.03171584     2.15201354
20MABNDB000135_PR027
   -0.02099981    -0.01007485     2.74937153
   -0.02100164    -0.01007410     2.74937153
   -0.02099923    -0.01007174     2.74937153
   -0.02100163    -0.01007355     2.74937153
   -0.02099832    -0.01007285     2.74937153
   -0.02099942    -0.01007266     2.74937153
20MABNDB000126_PR028
   -0.02049410    -0.03876202     2.14679718
   -0.02049479    -0.03876573     2.14679694
   -0.02049550    -0.03876616     2.14679694
   -0.02049507    -0.03876659     2.14679694
   -0.02049521    -0.03876673     2.14679694
   -0.02049552    -0.03876331     2.14679694
20MABNDA000272_PR038
   -0.01313992     0.01150244     2.74965906
   -0.01313864     0.01150079     2.74965906
   -0.01313423     0.01150921     2.74965906
   -0.01313680     0.01150958     2.74965906
   -0.01313111     0.01151049     2.74965906
   -0.01313203     0.01151306     2.74965906
20MABNDA000003_PR039
   -0.00569339     0.04134160     2.14891338
   -0.00569167     0.04134074     2.14891338
   -0.00569224     0.04134231     2.14891338
   -0.00569281     0.04134259     2.14891338
   -0.00569096     0.04134202     2.14891338
   -0.00569210     0.04134345     2.14891338
20MABNDA000196_PR006
   -0.01067537     0.01040816     1.64206505
   -0.01067262     0.01040932     1.64206505
   -0.01067429     0.01040672     1.64206505
   -0.01067382     0.01040945     1.64206505
   -0.01067505     0.01040728     1.64206505
   -0.01067513     0.01040936     1.64206505
20MABNDA000324_PR007
   -0.02496724     0.02771943     2.95549369
   -0.02496510     0.02772279     2.95549369
   -0.02496450     0.02772083     2.95549369
   -0.02496529     0.02772161     2.95549369
   -0.02496411     0.02772142     2.95549369
   -0.02496886     0.02772532     2.95549369
20MABNDB000001_PR017
   -0.02405558    -0.00363714     1.64036512
   -0.02405288    -0.00363968     1.64036512
   -0.02405198    -0.00363729     1.64036512
   -0.02405540    -0.00364097     1.64036512
   -0.02405419    -0.00363967     1.64036512
   -0.02405550    -0.00363944     1.64036512
20MABNDB000260_PR019
   -0.02437124    -0.03791404     2.95627880
   -0.02436502    -0.03791017     2.95627880
   -0.02436867    -0.03790493     2.95627880
   -0.02437352    -0.03790837     2.95627880
   -0.02437976    -0.03790200     2.95627880
   -0.02437520    -0.03790329     2.95627880
20MABNDB000212_PR029
   -0.02545412    -0.00902990     1.64223897
   -0.02545729    -0.00902899     1.64223886
   -0.02545215    -0.00903047     1.64223897
   -0.02545598    -0.00903010     1.64223897
   -0.02545335    -0.00902980     1.64223897
   -0.02545772    -0.00902844     1.64223886
20MABNDB000128_PR030
   -0.01930792    -0.04686883     2.95496249
   -0.01930752    -0.04687119     2.95496249
   -0.01931187    -0.04686472     2.95496249
   -0.01931028    -0.04686983     2.95496249
   -0.01930397    -0.04687354     2.95496249
   -0.01930988    -0.04687218     2.95496249
20MABNDA000444_PR040
   -0.03019439     0.00146972     1.64491296
   -0.03019130     0.00146801     1.64491320
   -0.03018792     0.00146925     1.64491320
   -0.03018978     0.00146934     1.64491320
   -0.03019362     0.00146962     1.64491296
   -0.03018980     0.00147076     1.64491320
20MABNDA000053_PR041
   -0.02623605     0.05092162     2.95450783
   -0.02623919     0.05091187     2.95450783
   -0.02624244     0.05092626     2.95450759
   -0.02623976     0.05091266     2.95450783
   -0.02623576     0.05091612     2.95450783
   -0.02624078     0.05092054     2.95450783
20MABNDA000188_PR008
    0.12899831    -0.09474574     9.20333958
    0.12899831    -0.09474574     9.20333958
    0.14769700    -0.06175753     9.20335960
    0.12899831    -0.09474574     9.20333958
    0.12899831    -0.09474574     9.20333958
    0.14438300    -0.05467124     9.20347214
20MABNDA000188_PR018
   -0.01671233     0.02518067     1.28358722
   -0.01671482     0.02518026     1.28358722
   -0.01671249     0.02518195     1.28358722
   -0.01671369     0.02518162     1.28358722
   -0.01671386     0.02518171     1.28358722
   -0.01671328     0.02518008     1.28358722
20MABNDA000039_PR009
   -0.17121276     0.02550439    11.00701523
   -0.17119217     0.02553209    11.00701523
   -0.17119446     0.02550578    11.00701523
   -0.17119594     0.02550725    11.00701523
   -0.17123450     0.02554983    11.00701523
   -0.17122072     0.02552783    11.00701523
20MABNDA000039_PR011
    0.03065821    -0.02361120     3.43348217
    0.03065434    -0.02360845     3.43348217
    0.03065525    -0.02360982     3.43348217
    0.03065732    -0.02360504     3.43348217
    0.03065617    -0.02360846     3.43348217
    0.03065571    -0.02360800     3.43348217
20MABNDB000155_PR020
    0.10227539    -0.00791542     9.20028114
    0.10227929    -0.00788651     9.20028114
    0.10223620    -0.00796753     9.20028114
    0.10231308    -0.00793332     9.20027924
    0.10226342    -0.00789348     9.20028114
    0.10229766    -0.00792923     9.20027924
20MABNDB000155_PR022
   -0.02536342    -0.01604722     1.28071487
   -0.02536385    -0.01604757     1.28071487
   -0.02536443    -0.01604878     1.28071487
   -0.02536462    -0.01604673     1.28071487
   -0.02536367    -0.01604825     1.28071487
   -0.02536564    -0.01604760     1.28071487
20MABNDB000010_PR021
   -0.17606756    -0.03474136    11.00694561
   -0.17606920    -0.03473182    11.00694561
   -0.17606179    -0.03473611    11.00694656
   -0.17608196    -0.03476071    11.00694561
   -0.17607449    -0.03476647    11.00694561
   -0.17607033    -0.03475096    11.00694561
20MABNDB000010_PR023
    0.00444015     0.01871522     3.43378544
    0.00443934     0.01872232     3.43378544
    0.00443872     0.01871864     3.43378544
    0.00444513     0.01871920     3.43378544
    0.00444701     0.01871671     3.43378544
    0.00444375     0.01871918     3.43378544


*****************************************************************coordonnees du prisme dans le repere ATLAS********************************************************************************** 
20MABNDM000168_PR025 0.00000000
    2.83240986    -3.76331615    -6.47925854
    2.83240342    -3.76331234    -6.47925854
    2.83240175    -3.76330948    -6.47925854
    2.83240461    -3.76331758    -6.47925854
    2.83240151    -3.76331139    -6.47925854
    2.83240819    -3.76330781    -6.47925854
    2.83240604    -3.76330972    -6.47925854
20MABNDM000168_PR026 0.00000000
    2.83917737    -3.68743253    -6.67493725
    2.83918595    -3.68744135    -6.67493725
    2.83917117    -3.68744111    -6.67493725
    2.83918762    -3.68742514    -6.67493725
    2.83917451    -3.68744183    -6.67493725
    2.83918285    -3.68744707    -6.67493725
    2.83917594    -3.68744254    -6.67493725
20MABNDM000168_20MABNDL000077 0.00000000
    2.81605101    -3.75325894     2.69822598
    2.81604481    -3.75326014     2.69822598
    2.81603956    -3.75326037     2.69822598
    2.81603312    -3.75325775     2.69822598
    2.81602407    -3.75326324     2.69822598
    2.81602144    -3.75326753     2.69822598
    2.81601191    -3.75325418     2.69822598
20MABNDM000168_PR001 0.00000000
    2.84063578    -3.68418717     3.12405396
    2.84082413    -3.68419218     3.12405396
    2.84069967    -3.68419313     3.12405396
    2.84069157    -3.68419099     3.12405396
    2.84082413    -3.68419194     3.12405396
    2.84069777    -3.68419337     3.12405396
    2.84068584    -3.68418193     3.12405396
20MABNDL000196_PR036 0.00000000
   -2.84805894    -3.69349575    -6.47909737
   -2.84807205    -3.69350219    -6.47909737
   -2.84805679    -3.69348478    -6.47909737
   -2.84804511    -3.69349766    -6.47909784
   -2.84805512    -3.69348621    -6.47909737
   -2.84805870    -3.69349623    -6.47909737
   -2.84806395    -3.69348574    -6.47909737
20MABNDL000196_PR037 0.00000000
   -2.82531595    -3.77024269    -6.67505836
   -2.82531810    -3.77024651    -6.67505836
   -2.82531309    -3.77024746    -6.67505836
   -2.82530999    -3.77025509    -6.67505836
   -2.82531214    -3.77024341    -6.67505836
   -2.82531261    -3.77024651    -6.67505836
   -2.82530951    -3.77024484    -6.67505836
20MABNDL000196_20MABNDM000020 0.00000000
   -2.81459236    -3.74957824     2.68347168
   -2.81459427    -3.74958038     2.68347168
   -2.81459570    -3.74958563     2.68347168
   -2.81459188    -3.74958587     2.68347168
   -2.81459641    -3.74958420     2.68347168
   -2.81458879    -3.74957871     2.68347168
   -2.81458354    -3.74958205     2.68347168
20MABNDL000196_PR012 0.00000000
   -2.73763442    -3.71718478     3.12384963
   -2.74190116    -3.67833853     3.12353563
   -2.74196053    -3.67839575     3.12353706
   -2.74192786    -3.67836404     3.12353706
   -2.74196005    -3.67836595     3.12353706
   -2.73944378    -3.67387938     3.12344432
   -2.74205971    -3.67849088     3.12354016
20MABNDL000077_PR002 0.00000000
    2.83785558    -3.69011617     6.48613214
    2.84382653    -3.69111347     6.48610401
    2.84421754    -3.69111633     6.48610115
    2.83919430    -3.69089103     6.48613214
    2.83358479    -3.69037008     6.48615599
    2.84454989    -3.69111824     6.48609924
    2.84319901    -3.69110060     6.48610830
20MABNDL000077_PR003 0.00000000
    2.83348274    -3.72753954     6.67527485
    2.84466434    -3.72790956     6.67521238
    2.84830785    -3.72794724     6.67518473
    2.82472324    -3.72456384     6.67529964
    2.84311175    -3.72788739     6.67522240
    2.83207726    -3.72738123     6.67528009
    2.85012364    -3.72795391     6.67516994
20MABNDL000077_20MABNDM000168 0.00000000
    2.78145862    -3.69586802    -2.68911719
    2.78145146    -3.69586968    -2.68911719
    2.78145361    -3.69587111    -2.68911719
    2.78140903    -3.69587398    -2.68911719
    2.78139806    -3.69587159    -2.68911719
    2.80198860    -3.74494576    -2.68950701
    2.80198765    -3.74494624    -2.68950701
20MABNDL000077_PR024 0.00000000
    2.85205817    -3.69258356    -3.11708665
    2.85204196    -3.69257903    -3.11708665
    2.85197926    -3.69258118    -3.11708713
    2.85199142    -3.69258142    -3.11708713
    2.85187006    -3.69257474    -3.11708736
    2.85193348    -3.69258404    -3.11708736
    2.85186744    -3.69261003    -3.11708784
20MABNDM000020_PR013 0.00000000
   -2.86355257    -3.73440790     6.48603010
   -2.86802602    -3.73425555     6.48597193
   -2.86345243    -3.73438740     6.48603153
   -2.86349630    -3.73440647     6.48603106
   -2.86350012    -3.73441195     6.48603106
   -2.86355972    -3.73440480     6.48603010
   -2.86341524    -3.73439074     6.48603201
20MABNDM000020_PR014 0.00000000
   -2.88548851    -3.67243910     7.43187380
   -2.88545990    -3.67246556     7.43187475
   -2.88550901    -3.67246985     7.43187380
   -2.88549376    -3.67244792     7.43187380
   -2.88548064    -3.67242432     7.43187380
   -2.88547587    -3.67244220     7.43187428
   -2.88551044    -3.67243552     7.43187332
20MABNDM000020_20MABNDL000196 0.00000000
   -2.84079409    -3.68640566    -2.71058393
   -2.84077668    -3.68640709    -2.71058416
   -2.84077144    -3.68640566    -2.71058416
   -2.84075212    -3.68640924    -2.71058464
   -2.84074163    -3.68640661    -2.71058464
   -2.84072566    -3.68640780    -2.71058464
   -2.84073424    -3.68640924    -2.71058464
20MABNDM000020_PR035 0.00000000
   -2.80369043    -3.69007206    -3.11714482
   -2.80365372    -3.69008708    -3.11714482
   -2.80372238    -3.69007683    -3.11714482
   -2.80378699    -3.69007206    -3.11714482
   -2.80379796    -3.69007158    -3.11714482
   -2.80384088    -3.69007087    -3.11714482
   -2.80384302    -3.69007277    -3.11714482
20MABNDB000069_PR031 0.00000000
    3.68419623     3.84875321    -7.90180349
    3.68412781     3.84875441    -7.90179205
    3.68413091     3.84875417    -7.90179443
    3.68414545     3.84875345    -7.90177536
    3.68417859     3.84875321    -7.90179300
    3.68415761     3.84875321    -7.90180492
    3.68420339     3.84875298    -7.90182447
20MABNDB000069_PR033 0.00000000
    3.53354335    -4.07046270    -7.87861300
    3.53354359    -4.07046270    -7.87861204
    3.53354383    -4.07046270    -7.87861061
    3.53354478    -4.07046270    -7.87861109
    3.53354406    -4.07046270    -7.87861252
    3.53354454    -4.07046270    -7.87861109
    3.53354239    -4.07046270    -7.87861156
20MABNDB000131_PR032 0.00000000
    3.86917949     3.64756608   -12.93979168
    3.86917973     3.64756608   -12.93973351
    3.86916995     3.64756608   -12.93978786
    3.86919427     3.64756608   -12.93976498
    3.86918473     3.64756608   -12.93976593
    3.86917663     3.64756608   -12.93976021
20MABNDB000131_PR034 0.00000000
    3.67385149    -3.92563391   -12.89150333
    3.67384887    -3.92563415   -12.89149761
    3.67385101    -3.92563391   -12.89150333
    3.67385292    -3.92563391   -12.89150333
    3.67384815    -3.92563391   -12.89151001
    3.67385197    -3.92563391   -12.89150810
20MABNDA000208_PR042 0.00000000
   -3.67998576     3.84916711    -7.89585972
   -3.68004036     3.84916711    -7.89585829
   -3.68004823     3.84916711    -7.89584255
   -3.68004107     3.84916711    -7.89586782
   -3.68000412     3.84916711    -7.89588594
   -3.68002319     3.84916711    -7.89586878
20MABNDA000208_PR046 0.00000000
   -3.53212953    -4.07033634    -7.87423658
   -3.53212905    -4.07033634    -7.87423706
   -3.53213048    -4.07033634    -7.87423611
   -3.53212857    -4.07033634    -7.87423706
   -3.53212810    -4.07033634    -7.87423563
   -3.53212857    -4.07033634    -7.87423611
20MABNDA000035_PR044 0.00000000
   -3.86863756     3.64758682   -12.93212128
   -3.86863971     3.64758682   -12.93212318
   -3.86863351     3.64758682   -12.93217278
   -3.86861467     3.64758682   -12.93213844
   -3.86863065     3.64758682   -12.93216038
   -3.86863589     3.64758682   -12.93214226
20MABNDA000035_PR045 0.00000000
   -3.67576671    -3.92564845   -12.88791847
   -3.67576790    -3.92564845   -12.88792706
   -3.67576432    -3.92564845   -12.88792229
   -3.67576241    -3.92564845   -12.88792419
   -3.67577028    -3.92564845   -12.88793087
   -3.67576528    -3.92564845   -12.88792992
20MABNDA000318_PR004 0.00000000
    2.61476541    -4.19698906     3.83361721
    2.61475968    -4.19698858     3.83361888
    2.61476207    -4.19698906     3.83361101
    2.61476421    -4.19698906     3.83361483
    2.61476183    -4.19698858     3.83362269
    2.61476350    -4.19698906     3.83361602
20MABNDA000334_PR005 0.00000000
    2.61687040    -4.19702768     5.89803267
    2.61686945    -4.19702768     5.89803219
    2.61686778    -4.19702768     5.89803600
    2.61686921    -4.19702768     5.89803457
    2.61686945    -4.19702768     5.89803457
    2.61687112    -4.19702768     5.89803171
20MABNDB000317_PR015 0.00000000
   -2.61106539    -4.19700432     3.83571410
   -2.61107564    -4.19700432     3.83571100
   -2.61107159    -4.19700432     3.83571506
   -2.61107016    -4.19700432     3.83571100
   -2.61107683    -4.19700432     3.83570933
   -2.61106825    -4.19700432     3.83571219
20MABNDB000146_PR016 0.00000000
   -2.61275220    -4.19702435     5.89863348
   -2.61275363    -4.19702435     5.89863348
   -2.61275482    -4.19702435     5.89863634
   -2.61275291    -4.19702435     5.89863157
   -2.61275554    -4.19702435     5.89863348
   -2.61275482    -4.19702435     5.89863443
20MABNDB000135_PR027 0.00000000
    2.60386348    -4.19700384    -3.82528591
    2.60386157    -4.19700384    -3.82528687
    2.60386395    -4.19700384    -3.82528901
    2.60386157    -4.19700384    -3.82528734
    2.60386491    -4.19700384    -3.82528806
    2.60386372    -4.19700384    -3.82528830
20MABNDB000126_PR028 0.00000000
    2.60542297    -4.19702005    -5.89345789
    2.60542250    -4.19702005    -5.89345407
    2.60542178    -4.19702005    -5.89345360
    2.60542202    -4.19702005    -5.89345312
    2.60542202    -4.19702005    -5.89345312
    2.60542154    -4.19702005    -5.89345646
20MABNDA000272_PR038 0.00000000
   -2.61139679    -4.19698238    -3.82698178
   -2.61139822    -4.19698238    -3.82698345
   -2.61140251    -4.19698238    -3.82697511
   -2.61139989    -4.19698238    -3.82697463
   -2.61140561    -4.19698238    -3.82697392
   -2.61140466    -4.19698238    -3.82697129
20MABNDA000003_PR039 0.00000000
   -2.61603785    -4.19702291    -5.89142513
   -2.61603951    -4.19702291    -5.89142609
   -2.61603880    -4.19702291    -5.89142418
   -2.61603832    -4.19702291    -5.89142418
   -2.61604023    -4.19702291    -5.89142466
   -2.61603904    -4.19702291    -5.89142323
20MABNDA000196_PR006 0.00000000
    2.58513594    -4.19496298     6.54836464
    2.58513308    -4.19496298     6.54836607
    2.58513474    -4.19496298     6.54836321
    2.58513427    -4.19496298     6.54836607
    2.58513546    -4.19496298     6.54836369
    2.58513570    -4.19496298     6.54836607
20MABNDA000324_PR007 0.00000000
    2.59434748    -4.13996410     6.94819593
    2.59434962    -4.13996410     6.94819260
    2.59435034    -4.13996410     6.94819450
    2.59434962    -4.13996410     6.94819355
    2.59435058    -4.13996410     6.94819355
    2.59434605    -4.13996410     6.94818974
20MABNDB000001_PR017 0.00000000
   -2.59775710    -4.19505024     6.53896523
   -2.59775448    -4.19505024     6.53896761
   -2.59775352    -4.19505024     6.53896523
   -2.59775710    -4.19505024     6.53896904
   -2.59775567    -4.19505024     6.53896761
   -2.59775710    -4.19505024     6.53896761
20MABNDB000260_PR019 0.00000000
   -2.60439086    -4.13995600     6.94272995
   -2.60439706    -4.13995600     6.94273376
   -2.60439348    -4.13995600     6.94273901
   -2.60438848    -4.13995600     6.94273567
   -2.60438228    -4.13995600     6.94274187
   -2.60438681    -4.13995600     6.94274092
20MABNDB000212_PR029 0.00000000
    2.59913182    -4.19500971    -6.54801750
    2.59913492    -4.19500971    -6.54801702
    2.59912992    -4.19500971    -6.54801846
    2.59913373    -4.19500971    -6.54801798
    2.59913111    -4.19500971    -6.54801750
    2.59913540    -4.19500971    -6.54801607
20MABNDB000128_PR030 0.00000000
    2.60955071    -4.14002752    -6.93125248
    2.60955119    -4.14002752    -6.93125010
    2.60954690    -4.14002752    -6.93125629
    2.60954833    -4.14002752    -6.93125105
    2.60955477    -4.14002752    -6.93124771
    2.60954881    -4.14002752    -6.93124866
20MABNDA000444_PR040 0.00000000
   -2.60536695    -4.19509649    -6.54064989
   -2.60536385    -4.19509649    -6.54064846
   -2.60536051    -4.19509649    -6.54064941
   -2.60536242    -4.19509649    -6.54064941
   -2.60536623    -4.19509649    -6.54064989
   -2.60536242    -4.19509649    -6.54065084
20MABNDA000053_PR041 0.00000000
   -2.59430599    -4.14012337    -6.92699194
   -2.59430265    -4.14012337    -6.92700148
   -2.59429955    -4.14012337    -6.92698717
   -2.59430218    -4.14012337    -6.92700100
   -2.59430623    -4.14012337    -6.92699766
   -2.59430122    -4.14012337    -6.92699289
20MABNDA000188_PR008 0.00000000
    3.54177952     3.84863997     8.10601807
    3.54177952     3.84863997     8.10601807
    3.56096697     3.84931064     8.07331848
    3.54177952     3.84863997     8.10601807
    3.54177952     3.84863997     8.10601807
    3.55775785     3.84945083     8.06618404
20MABNDA000188_PR018 0.00000000
    3.52041507    -4.07060671     7.89826012
    3.52041245    -4.07060671     7.89826059
    3.52041483    -4.07060671     7.89825869
    3.52041364    -4.07060671     7.89825916
    3.52041364    -4.07060671     7.89825916
    3.52041411    -4.07060671     7.89826059
20MABNDA000039_PR009 0.00000000
    3.87538481     3.64747334    12.93679810
    3.87536407     3.64747334    12.93682575
    3.87536645     3.64747334    12.93680000
    3.87536788     3.64747334    12.93680096
    3.87540650     3.64747334    12.93684387
    3.87539268     3.64747334    12.93682194
20MABNDA000039_PR011 0.00000000
    3.66436577    -3.92579412    12.88522530
    3.66436958    -3.92579412    12.88522816
    3.66436887    -3.92579412    12.88522720
    3.66436672    -3.92579412    12.88523197
    3.66436791    -3.92579412    12.88522816
    3.66436839    -3.92579412    12.88522911
20MABNDB000155_PR020 0.00000000
   -3.68092799     3.84881401     7.89895153
   -3.68093204     3.84881401     7.89898062
   -3.68088889     3.84881401     7.89889956
   -3.68096566     3.84881186     7.89893389
   -3.68091607     3.84881401     7.89897346
   -3.68095040     3.84881210     7.89893770
20MABNDB000155_PR022 0.00000000
   -3.53461766    -4.07043028     7.89201212
   -3.53461719    -4.07043028     7.89201164
   -3.53461671    -4.07043028     7.89201021
   -3.53461647    -4.07043028     7.89201260
   -3.53461742    -4.07043028     7.89201069
   -3.53461552    -4.07043028     7.89201164
20MABNDB000010_PR021 0.00000000
   -3.86190391     3.64768338    12.93657112
   -3.86190557     3.64768338    12.93656158
   -3.86189818     3.64768434    12.93656540
   -3.86191821     3.64768338    12.93659019
   -3.86191082     3.64768338    12.93659592
   -3.86190653     3.64768338    12.93658066
20MABNDB000010_PR023 0.00000000
   -3.68522477    -3.92559052    12.88656044
   -3.68522573    -3.92559052    12.88655376
   -3.68522620    -3.92559052    12.88655663
   -3.68522000    -3.92559052    12.88655663
   -3.68521810    -3.92559052    12.88655853
   -3.68522120    -3.92559052    12.88655663


*****************************************************************Rapport********************************************************************************** 
CAM-LBC-US_EBC-US-HO-H         2015.09.16.16.40.27     2.83240506    -3.76331207    -6.47925854     0.00000293     0.00000334     0.00000000 0.00000000 VRAI 
CAM-LBC-US_JDC-US-H            2015.09.16.16.40.27     2.83917935    -3.68743879    -6.67493725     0.00000573     0.00000686     0.00000000 0.00000000 VRAI 
CAM-LBC-US_CAM-LBA-US          2015.09.16.16.40.27     2.81603227    -3.75326031     2.69822598     0.00001288     0.00000390     0.00000000 0.00000000 VRAI 
CAM-LBC-US_EBA-US-IP-H         2015.09.16.16.40.27     2.84072270    -3.68419010     3.12405396     0.00006720     0.00000385     0.00000000 0.00000000 VRAI 
CAM-LBC-USA_EBC-USA-HO-H       2015.09.16.16.40.27    -2.84805867    -3.69349265    -6.47909743     0.00000762     0.00000643     0.00000017 0.00000000 VRAI 
CAM-LBC-USA_JDC-USA-H          2015.09.16.16.40.27    -2.82531306    -3.77024664    -6.67505836     0.00000285     0.00000381     0.00000000 0.00000000 VRAI 
CAM-LBC-USA_CAM-LBA-USA        2015.09.16.16.40.27    -2.81459185    -3.74958215     2.68347168     0.00000414     0.00000294     0.00000000 0.00000000 VRAI 
CAM-LBC-USA_EBA-USA-IP-H       2015.09.16.16.40.27    -2.74098393    -3.68328847     3.12356871     0.00162073     0.01392546     0.00011911 0.00000000 VRAI 
CAM-LBA-US_EBA-US-HO-H         2015.09.16.16.40.27     2.84091823    -3.69083227     6.48611900     0.00385201     0.00038608     0.00001986 0.00000000 VRAI 
CAM-LBA-US_JDA-US-H            2015.09.16.16.40.27     2.83949869    -3.72731182     6.67523486     0.00878157     0.00114097     0.00004664 0.00000000 VRAI 
CAM-LBA-US_CAM-LBC-US          2015.09.16.16.40.27     2.78730672    -3.70989234    -2.68922857     0.00928536     0.02216988     0.00017610 0.00000000 VRAI 
CAM-LBA-US_EBC-US-IP-H         2015.09.16.16.40.27     2.85196311    -3.69258486    -3.11708716     0.00007072     0.00001067     0.00000039 0.00000000 VRAI 
CAM-LBA-USA_EBA-USA-HO-H       2015.09.16.16.40.27    -2.86414320    -3.73438069     6.48602254     0.00158586     0.00005178     0.00002067 0.00000000 VRAI 
CAM-LBA-USA_JDA-USA-H          2015.09.16.16.40.27    -2.88548831    -3.67244635     7.43187393     0.00001677     0.00001510     0.00000042 0.00000000 VRAI 
CAM-LBA-USA_CAM-LBC-USA        2015.09.16.16.40.27    -2.84075655    -3.68640733    -2.71058440     0.00002308     0.00000140     0.00000028 0.00000000 VRAI 
CAM-LBA-USA_EBC-USA-IP-H       2015.09.16.16.40.27    -2.80376220    -3.69007475    -3.11714482     0.00006879     0.00000534     0.00000000 0.00000000 VRAI 
CAM-ECTC-US-IP_ECTC-US-IP-T    2015.09.16.16.40.27     3.68416286     3.84875352    -7.90179825     0.00002824     0.00000051     0.00001396 0.00000000 VRAI 
CAM-ECTC-US-IP_ECTC-US-IP      2015.09.16.16.40.27     3.53354379    -4.07046270    -7.87861170     0.00000074     0.00000000     0.00000079 0.00000000 VRAI 
CAM-ECTC-US-HO_ECTC-US-HO-T    2015.09.16.16.40.27     3.86918080     3.64756608   -12.93976736     0.00000747     0.00000000     0.00001922 0.00000000 VRAI 
CAM-ECTC-US-HO_ECTC-US-HO      2015.09.16.16.40.27     3.67385074    -3.92563395   -12.89150429     0.00000169     0.00000009     0.00000397 0.00000000 VRAI 
CAM-ECTC-USA-IP_ECTC-USA-IP-T  2015.09.16.16.40.27    -3.68002379     3.84916711    -7.89586385     0.00002238     0.00000000     0.00001310 0.00000000 VRAI 
CAM-ECTC-USA-IP_ECTC-USA-IP    2015.09.16.16.40.27    -3.53212905    -4.07033634    -7.87423642     0.00000078     0.00000000     0.00000053 0.00000000 VRAI 
CAM-ECTC-USA-HO_ECTC-USA-HO-T  2015.09.16.16.40.27    -3.86863200     3.64758682   -12.93214305     0.00000826     0.00000000     0.00001859 0.00000000 VRAI 
CAM-ECTC-USA-HO_ECTC-USA-HO    2015.09.16.16.40.27    -3.67576615    -3.92564845   -12.88792547     0.00000253     0.00000000     0.00000432 0.00000000 VRAI 
CAM-EBA-US-IP_EBA-US-IP        2015.09.16.16.40.27     2.61476278    -4.19698890     3.83361677     0.00000185     0.00000022     0.00000359 0.00000000 VRAI 
CAM-EBA-US-HO_EBA-US-HO        2015.09.16.16.40.27     2.61686957    -4.19702768     5.89803362     0.00000104     0.00000000     0.00000153 0.00000000 VRAI 
CAM-EBA-USA-IP_EBA-USA-IP      2015.09.16.16.40.27    -2.61107131    -4.19700432     3.83571211     0.00000398     0.00000000     0.00000195 0.00000000 VRAI 
CAM-EBA-USA-HO_EBA-USA-HO      2015.09.16.16.40.27    -2.61275399    -4.19702435     5.89863380     0.00000117     0.00000000     0.00000142 0.00000000 VRAI 
CAM-EBC-US-IP_EBC-US-IP        2015.09.16.16.40.27     2.60386320    -4.19700384    -3.82528758     0.00000123     0.00000000     0.00000101 0.00000000 VRAI 
CAM-EBC-US-HO_EBC-US-HO        2015.09.16.16.40.27     2.60542214    -4.19702005    -5.89345471     0.00000047     0.00000000     0.00000182 0.00000000 VRAI 
CAM-EBC-USA-IP_EBC-USA-IP      2015.09.16.16.40.27    -2.61140128    -4.19698238    -3.82697670     0.00000324     0.00000000     0.00000438 0.00000000 VRAI 
CAM-EBC-USA-HO_EBC-USA-HO      2015.09.16.16.40.27    -2.61603896    -4.19702291    -5.89142458     0.00000077     0.00000000     0.00000089 0.00000000 VRAI 
CAM-JDA-US-IP_JDA-US-IP        2015.09.16.16.40.27     2.58513486    -4.19496298     6.54836496     0.00000098     0.00000000     0.00000119 0.00000000 VRAI 
CAM-JDA-US-HO_JDA-US-HO        2015.09.16.16.40.27     2.59434895    -4.13996410     6.94819331     0.00000164     0.00000000     0.00000190 0.00000000 VRAI 
CAM-JDA-USA-IP_JDA-USA-IP      2015.09.16.16.40.27    -2.59775583    -4.19505024     6.53896705     0.00000141     0.00000000     0.00000139 0.00000000 VRAI 
CAM-JDA-USA-HO_JDA-USA-HO      2015.09.16.16.40.27    -2.60438983    -4.13995600     6.94273686     0.00000474     0.00000000     0.00000418 0.00000000 VRAI 
CAM-JDC-US-IP_JDC-US-IP        2015.09.16.16.40.27     2.59913282    -4.19500971    -6.54801742     0.00000201     0.00000000     0.00000075 0.00000000 VRAI 
CAM-JDC-US-HO_JDC-US-HO        2015.09.16.16.40.27     2.60955012    -4.14002752    -6.93125105     0.00000253     0.00000000     0.00000281 0.00000000 VRAI 
CAM-JDC-USA-IP_JDC-USA-IP      2015.09.16.16.40.27    -2.60536373    -4.19509649    -6.54064965     0.00000225     0.00000000     0.00000072 0.00000000 VRAI 
CAM-JDC-USA-HO_JDC-USA-HO      2015.09.16.16.40.27    -2.59430297    -4.14012337    -6.92699536     0.00000242     0.00000000     0.00000515 0.00000000 VRAI 
CAM-ECTA-US-IP_ECTA-US-IP-T    2015.09.16.16.40.27     3.54764048     3.84888689     8.09392913     0.00834026     0.00035154     0.01721994 0.00000000 VRAI 
CAM-ECTA-US-IP_ECTA-US-IP      2015.09.16.16.40.27     3.52041396    -4.07060671     7.89825972     0.00000087     0.00000000     0.00000075 0.00000000 VRAI 
CAM-ECTA-US-HO_ECTA-US-HO-T    2015.09.16.16.40.27     3.87538040     3.64747334    12.93681510     0.00001565     0.00000000     0.00001686 0.00000000 VRAI 
CAM-ECTA-US-HO_ECTA-US-HO      2015.09.16.16.40.27     3.66436787    -3.92579412    12.88522832     0.00000129     0.00000000     0.00000202 0.00000000 VRAI 
CAM-ECTA-USA-IP_ECTA-USA-IP-T  2015.09.16.16.40.27    -3.68093018     3.84881334     7.89894613     0.00002443     0.00000096     0.00002694 0.00000000 VRAI 
CAM-ECTA-USA-IP_ECTA-USA-IP    2015.09.16.16.40.27    -3.53461683    -4.07043028     7.89201148     0.00000071     0.00000000     0.00000081 0.00000000 VRAI 
CAM-ECTA-USA-HO_ECTA-USA-HO-T  2015.09.16.16.40.27    -3.86190720     3.64768354    12.93657748     0.00000619     0.00000036     0.00001259 0.00000000 VRAI 
CAM-ECTA-USA-HO_ECTA-USA-HO    2015.09.16.16.40.27    -3.68522267    -3.92559052    12.88655710     0.00000307     0.00000000     0.00000204 0.00000000 VRAI 
