********** Fichier qui contient une sauvegarde des coordonnees images + coordonnees images transformees dans le repere BCAM (MOUNT) + coordonnees des prismes dans le repere MOUNT********** 
********************************************************************** Unite en metres (m)************************************************************************************************** 

*******************************************************************coordonnees images dans le repere CCD *********************************************************************************** 
20MABNDM000168_PR025
Spot 1     0.00117680     0.00130452
Spot 2     0.00102353     0.00130472
Spot 1     0.00117701     0.00130474
Spot 2     0.00102340     0.00130477
Spot 1     0.00117672     0.00130464
Spot 2     0.00102330     0.00130462
Spot 1     0.00117661     0.00130469
Spot 2     0.00102336     0.00130472
Spot 1     0.00117680     0.00130448
Spot 2     0.00102329     0.00130448
20MABNDM000168_PR026
Spot 1     0.00266947     0.00142652
Spot 2     0.00250919     0.00142390
Spot 1     0.00266946     0.00142663
Spot 2     0.00250930     0.00142399
Spot 1     0.00266950     0.00142676
Spot 2     0.00250940     0.00142414
Spot 1     0.00266941     0.00142655
Spot 2     0.00250931     0.00142367
Spot 1     0.00266935     0.00142660
Spot 2     0.00250917     0.00142396
20MABNDM000168_20MABNDL000077
Spot 1     0.00153750     0.00129728
Spot 2     0.00175524     0.00129956
Spot 1     0.00153745     0.00129749
Spot 2     0.00175529     0.00129963
Spot 1     0.00153739     0.00129751
Spot 2     0.00175570     0.00129978
Spot 1     0.00153739     0.00129743
Spot 2     0.00175564     0.00129965
Spot 1     0.00153738     0.00129746
Spot 2     0.00175553     0.00129947
20MABNDM000168_PR001
Spot 1     0.00080729     0.00161958
Spot 2     0.00070455     0.00162401
Spot 1     0.00080738     0.00162002
Spot 2     0.00070500     0.00162400
Spot 1     0.00080740     0.00161985
Spot 2     0.00070469     0.00162369
Spot 1     0.00080737     0.00161970
Spot 2     0.00070500     0.00162391
Spot 1     0.00080722     0.00161962
Spot 2     0.00070484     0.00162389
20MABNDL000196_PR036
Spot 1     0.00095865     0.00164773
Spot 2     0.00112230     0.00164759
Spot 1     0.00095858     0.00164777
Spot 2     0.00112190     0.00164733
Spot 1     0.00095863     0.00164754
Spot 2     0.00112241     0.00164718
Spot 1     0.00095870     0.00164758
Spot 2     0.00112224     0.00164743
Spot 1     0.00095849     0.00164756
Spot 2     0.00112222     0.00164741
20MABNDL000196_PR037
Spot 1     0.00248259     0.00117531
Spot 2     0.00263698     0.00117394
Spot 1     0.00248241     0.00117541
Spot 2     0.00263701     0.00117372
Spot 1     0.00248241     0.00117527
Spot 2     0.00263718     0.00117379
Spot 1     0.00248216     0.00117544
Spot 2     0.00263711     0.00117396
Spot 1     0.00248221     0.00117533
Spot 2     0.00263714     0.00117393
20MABNDL000196_20MABNDM000020
Spot 1     0.00195206     0.00103188
Spot 2     0.00173078     0.00103205
Spot 1     0.00195224     0.00103176
Spot 2     0.00173078     0.00103202
Spot 1     0.00195221     0.00103187
Spot 2     0.00173067     0.00103209
Spot 1     0.00195210     0.00103188
Spot 2     0.00173059     0.00103213
Spot 1     0.00195219     0.00103186
Spot 2     0.00173067     0.00103203
20MABNDL000196_PR012
Spot 1     0.00315643     0.00069500
Spot 2     0.00315643     0.00069500
Spot 1     0.00064643     0.00003643
Spot 2     0.00064500     0.00003500
Spot 1     0.00320625     0.00029500
Spot 2     0.00064500     0.00003500
Spot 1     0.00064500     0.00003500
Spot 2     0.00064500     0.00003500
Spot 1     0.00064500     0.00003500
Spot 2     0.00320667     0.00029667
20MABNDL000077_PR002
Spot 1     0.00079361     0.00149719
Spot 2     0.00095545     0.00149848
Spot 1     0.00079362     0.00149732
Spot 2     0.00095528     0.00149804
Spot 1     0.00079378     0.00149720
Spot 2     0.00095563     0.00149776
Spot 1     0.00079366     0.00149714
Spot 2     0.00095539     0.00149792
Spot 1     0.00079361     0.00149735
Spot 2     0.00095537     0.00149759
20MABNDL000077_PR003
Spot 1     0.00152392     0.00119194
Spot 2     0.00167444     0.00119416
Spot 1     0.00152385     0.00119202
Spot 2     0.00167437     0.00119431
Spot 1     0.00152404     0.00119184
Spot 2     0.00167418     0.00119423
Spot 1     0.00152364     0.00119182
Spot 2     0.00167444     0.00119438
Spot 1     0.00152381     0.00119186
Spot 2     0.00167418     0.00119438
20MABNDL000077_20MABNDM000168
Spot 1     0.00188291     0.00148461
Spot 2     0.00169780     0.00152007
Spot 1     0.00188297     0.00148484
Spot 2     0.00169644     0.00152026
Spot 1     0.00188278     0.00148475
Spot 2     0.00035500     0.00002500
Spot 1     0.00188285     0.00148487
Spot 2     0.00169706     0.00152119
Spot 1     0.00188295     0.00148468
Spot 2     0.00169740     0.00151917
20MABNDL000077_PR024
Spot 1     0.00262653     0.00171432
Spot 2     0.00272836     0.00171818
Spot 1     0.00262634     0.00171430
Spot 2     0.00272851     0.00171842
Spot 1     0.00262648     0.00171441
Spot 2     0.00272839     0.00171839
Spot 1     0.00262670     0.00171449
Spot 2     0.00272828     0.00171850
Spot 1     0.00262655     0.00171489
Spot 2     0.00272851     0.00171826
20MABNDM000020_PR013
Spot 1     0.00164257     0.00213814
Spot 2     0.00148887     0.00214283
Spot 1     0.00164215     0.00213842
Spot 2     0.00148958     0.00214297
Spot 1     0.00164198     0.00213893
Spot 2     0.00148929     0.00214273
Spot 1     0.00164212     0.00213809
Spot 2     0.00148917     0.00214265
Spot 1     0.00164206     0.00213838
Spot 2     0.00148933     0.00214240
20MABNDM000020_PR014
Spot 1     0.00267826     0.00227748
Spot 2     0.00251699     0.00228627
Spot 1     0.00267810     0.00227823
Spot 2     0.00251705     0.00228472
Spot 1     0.00267798     0.00227811
Spot 2     0.00251678     0.00228463
Spot 1     0.00267796     0.00227791
Spot 2     0.00251631     0.00228488
Spot 1     0.00267841     0.00227815
Spot 2     0.00251708     0.00228500
20MABNDM000020_20MABNDL000196
Spot 1     0.00200086     0.00057625
Spot 2     0.00080500     0.00021500
Spot 1     0.00200067     0.00057626
Spot 2     0.00096500     0.00046500
Spot 1     0.00200065     0.00057647
Spot 2     0.00096500     0.00046500
Spot 1     0.00200069     0.00057633
Spot 2     0.00096500     0.00046500
Spot 1     0.00200074     0.00057639
Spot 2     0.00096500     0.00046500
20MABNDM000020_PR035
Spot 1     0.00126609     0.00087039
Spot 2     0.00119487     0.00090243
Spot 1     0.00126529     0.00087048
Spot 2     0.00119475     0.00090261
Spot 1     0.00126534     0.00087046
Spot 2     0.00119468     0.00090283
Spot 1     0.00126543     0.00087051
Spot 2     0.00119468     0.00090288
Spot 1     0.00126542     0.00087077
Spot 2     0.00119452     0.00090309
20MABNDB000069_PR031
Spot 1     0.00028390     0.00140356
Spot 2     0.00021500     0.00240500
Spot 1     0.00028397     0.00140357
Spot 2     0.00035421     0.00140289
Spot 1     0.00028391     0.00140324
Spot 2     0.00035409     0.00140295
Spot 1     0.00028409     0.00140391
Spot 2     0.00021500     0.00240500
Spot 1     0.00028408     0.00140349
Spot 2     0.00021500     0.00240500
20MABNDB000069_PR033
Spot 1     0.00182204     0.00207665
Spot 2     0.00229197     0.00209614
Spot 1     0.00182214     0.00207687
Spot 2     0.00229200     0.00209625
Spot 1     0.00182208     0.00207691
Spot 2     0.00229196     0.00209641
Spot 1     0.00182214     0.00207674
Spot 2     0.00229190     0.00209644
Spot 1     0.00182211     0.00207676
Spot 2     0.00229194     0.00209639
20MABNDB000131_PR032
Spot 1     0.00277971     0.00107282
Spot 2     0.00283936     0.00107659
Spot 1     0.00277991     0.00107291
Spot 2     0.00283953     0.00107651
Spot 1     0.00277960     0.00107305
Spot 2     0.00283951     0.00107643
Spot 1     0.00278014     0.00107277
Spot 2     0.00283929     0.00107669
Spot 1     0.00278008     0.00107298
Spot 2     0.00283960     0.00107658
20MABNDB000131_PR034
Spot 1     0.00093218     0.00032477
Spot 2     0.00110858     0.00032481
Spot 1     0.00093214     0.00032475
Spot 2     0.00110858     0.00032458
Spot 1     0.00093232     0.00032472
Spot 2     0.00110861     0.00032470
Spot 1     0.00093226     0.00032489
Spot 2     0.00110859     0.00032473
Spot 1     0.00093224     0.00032497
Spot 2     0.00110876     0.00032461
20MABNDA000208_PR042
Spot 1     0.00303965     0.00096009
Spot 2     0.00297030     0.00096178
Spot 1     0.00303833     0.00095958
Spot 2     0.00297087     0.00096174
Spot 1     0.00303756     0.00095979
Spot 2     0.00297183     0.00096193
Spot 1     0.00303897     0.00095976
Spot 2     0.00297027     0.00096167
Spot 1     0.00303979     0.00095962
Spot 2     0.00297021     0.00096150
20MABNDA000208_PR046
Spot 1     0.00143762     0.00218195
Spot 2     0.00096754     0.00218558
Spot 1     0.00143755     0.00218212
Spot 2     0.00096738     0.00218542
Spot 1     0.00143770     0.00218200
Spot 2     0.00096743     0.00218545
Spot 1     0.00143768     0.00218199
Spot 2     0.00096760     0.00218545
Spot 1     0.00143771     0.00218200
Spot 2     0.00096727     0.00218554
20MABNDA000035_PR044
Spot 1     0.00074164     0.00125529
Spot 2     0.00068669     0.00124952
Spot 1     0.00074151     0.00125550
Spot 2     0.00068683     0.00124974
Spot 1     0.00074154     0.00125558
Spot 2     0.00068696     0.00124982
Spot 1     0.00074165     0.00125538
Spot 2     0.00068708     0.00124966
Spot 1     0.00074115     0.00125551
Spot 2     0.00068680     0.00124984
20MABNDA000035_PR045
Spot 1     0.00255286     0.00048265
Spot 2     0.00237657     0.00048121
Spot 1     0.00255280     0.00048255
Spot 2     0.00237689     0.00048119
Spot 1     0.00255263     0.00048254
Spot 2     0.00237659     0.00048125
Spot 1     0.00255251     0.00048251
Spot 2     0.00237650     0.00048154
20MABNDA000318_PR004
Spot 1     0.00215096     0.00162500
Spot 2     0.00193377     0.00162553
Spot 1     0.00215071     0.00162507
Spot 2     0.00193365     0.00162571
Spot 1     0.00215091     0.00162500
Spot 2     0.00193328     0.00162541
Spot 1     0.00215066     0.00162504
Spot 2     0.00193360     0.00162528
20MABNDA000334_PR005
Spot 1     0.00247739     0.00156978
Spot 2     0.00219716     0.00157028
Spot 1     0.00247723     0.00156982
Spot 2     0.00219690     0.00157042
Spot 1     0.00247743     0.00156991
Spot 2     0.00219711     0.00157032
Spot 1     0.00247723     0.00156990
Spot 2     0.00219709     0.00157044
20MABNDB000317_PR015
Spot 1     0.00149224     0.00160778
Spot 2     0.00171214     0.00160166
Spot 1     0.00149212     0.00160782
Spot 2     0.00171207     0.00160204
Spot 1     0.00149230     0.00160814
Spot 2     0.00171189     0.00160181
Spot 1     0.00149234     0.00160824
Spot 2     0.00171186     0.00160156
20MABNDB000146_PR016
Spot 1     0.00144895     0.00132900
Spot 2     0.00172433     0.00133183
Spot 1     0.00144902     0.00132902
Spot 2     0.00172442     0.00133165
Spot 1     0.00144899     0.00132904
Spot 2     0.00172459     0.00133167
Spot 1     0.00144890     0.00132920
Spot 2     0.00172427     0.00133169
20MABNDB000135_PR027
Spot 1     0.00189108     0.00092131
Spot 2     0.00210946     0.00092355
Spot 1     0.00189120     0.00092138
Spot 2     0.00210935     0.00092359
Spot 1     0.00189127     0.00092131
Spot 2     0.00210952     0.00092340
Spot 1     0.00189104     0.00092140
Spot 2     0.00210957     0.00092362
20MABNDB000126_PR028
Spot 1     0.00165088     0.00200124
Spot 2     0.00193212     0.00200294
Spot 1     0.00165087     0.00200113
Spot 2     0.00193210     0.00200305
Spot 1     0.00165098     0.00200128
Spot 2     0.00193247     0.00200296
Spot 1     0.00165101     0.00200118
Spot 2     0.00193210     0.00200286
20MABNDA000272_PR038
Spot 1     0.00192551     0.00096972
Spot 2     0.00170294     0.00096992
Spot 1     0.00192571     0.00097000
Spot 2     0.00170326     0.00096996
Spot 1     0.00192566     0.00096992
Spot 2     0.00170316     0.00096996
Spot 1     0.00192573     0.00096992
Spot 2     0.00170331     0.00097000
20MABNDA000003_PR039
Spot 1     0.00200876     0.00192997
Spot 2     0.00228664     0.00192940
Spot 1     0.00200888     0.00192977
Spot 2     0.00228660     0.00192938
Spot 1     0.00200880     0.00192995
Spot 2     0.00228651     0.00192959
Spot 1     0.00200874     0.00192978
Spot 2     0.00228659     0.00192946
20MABNDA000196_PR006
Spot 1     0.00197592     0.00075155
Spot 2     0.00160750     0.00074833
Spot 1     0.00197606     0.00075160
Spot 2     0.00160760     0.00074840
Spot 1     0.00197599     0.00075154
Spot 2     0.00160738     0.00074832
Spot 1     0.00197591     0.00075145
Spot 2     0.00160748     0.00074827
20MABNDA000324_PR007
Spot 1     0.00195483     0.00120845
Spot 2     0.00174938     0.00121370
Spot 1     0.00195489     0.00120824
Spot 2     0.00174924     0.00121374
Spot 1     0.00195473     0.00120824
Spot 2     0.00174881     0.00121394
Spot 1     0.00195489     0.00120826
Spot 2     0.00174935     0.00121378
20MABNDB000001_PR017
Spot 1     0.00196565     0.00048128
Spot 2     0.00198734     0.00056658
Spot 1     0.00196619     0.00048094
Spot 2     0.00198694     0.00056643
Spot 1     0.00196575     0.00048133
Spot 2     0.00198727     0.00056636
Spot 1     0.00196610     0.00048090
Spot 2     0.00198714     0.00056633
20MABNDB000260_PR019
Spot 1     0.00192343     0.00149191
Spot 2     0.00212659     0.00149103
Spot 1     0.00192362     0.00149182
Spot 2     0.00212693     0.00149096
Spot 1     0.00192342     0.00149184
Spot 2     0.00212703     0.00149093
Spot 1     0.00192359     0.00149144
Spot 2     0.00212653     0.00149093
20MABNDB000212_PR029
Spot 1     0.00223823     0.00072638
Spot 2     0.00187232     0.00072622
Spot 1     0.00223829     0.00072658
Spot 2     0.00187253     0.00072623
Spot 1     0.00223830     0.00072655
Spot 2     0.00187275     0.00072600
Spot 1     0.00223806     0.00072655
Spot 2     0.00187247     0.00072614
20MABNDB000128_PR030
Spot 1     0.00190109     0.00200264
Spot 2     0.00210554     0.00199754
Spot 1     0.00190088     0.00200242
Spot 2     0.00210553     0.00199737
Spot 1     0.00190123     0.00200244
Spot 2     0.00210581     0.00199748
Spot 1     0.00190103     0.00200246
Spot 2     0.00210567     0.00199733
20MABNDA000444_PR040
Spot 1     0.00075031     0.00038178
Spot 2     0.00111657     0.00037743
Spot 1     0.00075010     0.00038183
Spot 2     0.00111659     0.00037746
Spot 1     0.00075031     0.00038178
Spot 2     0.00111669     0.00037739
Spot 1     0.00075032     0.00038202
Spot 2     0.00111655     0.00037754
20MABNDA000053_PR041
Spot 1     0.00165981     0.00198749
Spot 2     0.00145709     0.00198372
Spot 1     0.00165985     0.00198685
Spot 2     0.00145726     0.00198319
Spot 1     0.00166006     0.00198693
Spot 2     0.00145712     0.00198318
Spot 1     0.00166011     0.00198736
Spot 2     0.00145745     0.00198375
20MABNDA000188_PR008
Spot 1     0.00283500     0.00012500
Spot 2     0.00283500     0.00012500
Spot 1     0.00283500     0.00012500
Spot 2     0.00283500     0.00012500
Spot 1     0.00283500     0.00012500
Spot 2     0.00279250     0.00010500
Spot 1     0.00283500     0.00012500
Spot 2     0.00283500     0.00012500
20MABNDA000188_PR018
Spot 1     0.00166580     0.00169982
Spot 2     0.00119871     0.00169706
Spot 1     0.00166580     0.00170000
Spot 2     0.00119892     0.00169716
Spot 1     0.00166566     0.00170010
Spot 2     0.00119887     0.00169709
Spot 1     0.00166571     0.00169995
Spot 2     0.00119891     0.00169734
20MABNDA000039_PR009
Spot 1     0.00066435     0.00117895
Spot 2     0.00061775     0.00118366
Spot 1     0.00066459     0.00117882
Spot 2     0.00061704     0.00118359
Spot 1     0.00066427     0.00117906
Spot 2     0.00061760     0.00118394
Spot 1     0.00066441     0.00117914
Spot 2     0.00061710     0.00118392
20MABNDA000039_PR011
Spot 1     0.00276582     0.00030189
Spot 2     0.00259019     0.00029722
Spot 1     0.00276562     0.00030178
Spot 2     0.00259029     0.00029725
Spot 1     0.00276571     0.00030176
Spot 2     0.00259021     0.00029729
Spot 1     0.00276547     0.00030175
Spot 2     0.00259021     0.00029738
20MABNDB000155_PR020
Spot 1     0.00061964     0.00112152
Spot 2     0.00068235     0.00111752
Spot 1     0.00061959     0.00112174
Spot 2     0.00068347     0.00111779
Spot 1     0.00061969     0.00112137
Spot 2     0.00068193     0.00111783
Spot 1     0.00062015     0.00112164
Spot 2     0.00068270     0.00111775
20MABNDB000155_PR022
Spot 1     0.00209930     0.00131366
Spot 2     0.00257230     0.00130965
Spot 1     0.00209945     0.00131368
Spot 2     0.00257232     0.00130938
Spot 1     0.00209946     0.00131356
Spot 2     0.00257238     0.00130962
Spot 1     0.00209947     0.00131360
Spot 2     0.00257240     0.00130959
20MABNDB000010_PR021
Spot 1     0.00286870     0.00115951
Spot 2     0.00292222     0.00116270
Spot 1     0.00286884     0.00115953
Spot 2     0.00292184     0.00116252
Spot 1     0.00286922     0.00115964
Spot 2     0.00292231     0.00116255
Spot 1     0.00286879     0.00115945
Spot 2     0.00292206     0.00116250
20MABNDB000010_PR023
Spot 1     0.00130993     0.00034527
Spot 2     0.00148457     0.00034430
Spot 1     0.00130985     0.00034554
Spot 2     0.00148457     0.00034457
Spot 1     0.00130993     0.00034534
Spot 2     0.00148441     0.00034451
Spot 1     0.00130986     0.00034519
Spot 2     0.00148439     0.00034467


****************************************************************coordonnees images transformees dans le repere MOUNT************************************************************************* 
20MABNDM000168_PR025
Spot 1    -0.01322606    -0.03564170    -0.00532900
Spot 2    -0.01337932    -0.03564256    -0.00532900
Spot 1    -0.01322585    -0.03564192    -0.00532900
Spot 2    -0.01337945    -0.03564261    -0.00532900
Spot 1    -0.01322614    -0.03564182    -0.00532900
Spot 2    -0.01337956    -0.03564246    -0.00532900
Spot 1    -0.01322625    -0.03564187    -0.00532900
Spot 2    -0.01337949    -0.03564256    -0.00532900
Spot 1    -0.01322606    -0.03564166    -0.00532900
Spot 2    -0.01337957    -0.03564232    -0.00532900
20MABNDM000168_PR026
Spot 1    -0.01173288    -0.03575729    -0.00532900
Spot 2    -0.01189317    -0.03575536    -0.00532900
Spot 1    -0.01173289    -0.03575740    -0.00532900
Spot 2    -0.01189306    -0.03575545    -0.00532900
Spot 1    -0.01173285    -0.03575753    -0.00532900
Spot 2    -0.01189296    -0.03575560    -0.00532900
Spot 1    -0.01173294    -0.03575732    -0.00532900
Spot 2    -0.01189305    -0.03575513    -0.00532900
Spot 1    -0.01173300    -0.03575737    -0.00532900
Spot 2    -0.01189319    -0.03575542    -0.00532900
20MABNDM000168_20MABNDL000077
Spot 1     0.01288800    -0.03529797    -0.07445100
Spot 2     0.01267025    -0.03529707    -0.07445100
Spot 1     0.01288805    -0.03529818    -0.07445100
Spot 2     0.01267020    -0.03529714    -0.07445100
Spot 1     0.01288811    -0.03529820    -0.07445100
Spot 2     0.01266979    -0.03529728    -0.07445100
Spot 1     0.01288811    -0.03529812    -0.07445100
Spot 2     0.01266985    -0.03529715    -0.07445100
Spot 1     0.01288812    -0.03529815    -0.07445100
Spot 2     0.01266996    -0.03529697    -0.07445100
20MABNDM000168_PR001
Spot 1     0.01361342    -0.03563092    -0.07445100
Spot 2     0.01371608    -0.03563685    -0.07445100
Spot 1     0.01361332    -0.03563136    -0.07445100
Spot 2     0.01371563    -0.03563684    -0.07445100
Spot 1     0.01361330    -0.03563119    -0.07445100
Spot 2     0.01371595    -0.03563653    -0.07445100
Spot 1     0.01361334    -0.03563104    -0.07445100
Spot 2     0.01371563    -0.03563675    -0.07445100
Spot 1     0.01361349    -0.03563096    -0.07445100
Spot 2     0.01371579    -0.03563673    -0.07445100
20MABNDL000196_PR036
Spot 1     0.01193856     0.03583645    -0.07483600
Spot 2     0.01210221     0.03583665    -0.07483600
Spot 1     0.01193849     0.03583649    -0.07483600
Spot 2     0.01210181     0.03583639    -0.07483600
Spot 1     0.01193854     0.03583626    -0.07483600
Spot 2     0.01210232     0.03583625    -0.07483600
Spot 1     0.01193861     0.03583630    -0.07483600
Spot 2     0.01210215     0.03583649    -0.07483600
Spot 1     0.01193840     0.03583628    -0.07483600
Spot 2     0.01210213     0.03583647    -0.07483600
20MABNDL000196_PR037
Spot 1     0.01346348     0.03536721    -0.07483600
Spot 2     0.01361787     0.03536617    -0.07483600
Spot 1     0.01346330     0.03536731    -0.07483600
Spot 2     0.01361790     0.03536595    -0.07483600
Spot 1     0.01346330     0.03536717    -0.07483600
Spot 2     0.01361807     0.03536602    -0.07483600
Spot 1     0.01346305     0.03536734    -0.07483600
Spot 2     0.01361800     0.03536619    -0.07483600
Spot 1     0.01346310     0.03536723    -0.07483600
Spot 2     0.01361803     0.03536616    -0.07483600
20MABNDL000196_20MABNDM000020
Spot 1    -0.01277591     0.03530256    -0.00611000
Spot 2    -0.01255468     0.03530718    -0.00611000
Spot 1    -0.01277609     0.03530243    -0.00611000
Spot 2    -0.01255468     0.03530715    -0.00611000
Spot 1    -0.01277606     0.03530255    -0.00611000
Spot 2    -0.01255457     0.03530722    -0.00611000
Spot 1    -0.01277595     0.03530256    -0.00611000
Spot 2    -0.01255449     0.03530726    -0.00611000
Spot 1    -0.01277604     0.03530254    -0.00611000
Spot 2    -0.01255457     0.03530716    -0.00611000
20MABNDL000196_PR012
Spot 1    -0.01397326     0.03494151    -0.00611000
Spot 2    -0.01397326     0.03494151    -0.00611000
Spot 1    -0.01145052     0.03433358    -0.00611000
Spot 2    -0.01144906     0.03433218    -0.00611000
Spot 1    -0.01401502     0.03454059    -0.00611000
Spot 2    -0.01144906     0.03433218    -0.00611000
Spot 1    -0.01144906     0.03433218    -0.00611000
Spot 2    -0.01144906     0.03433218    -0.00611000
Spot 1    -0.01144906     0.03433218    -0.00611000
Spot 2    -0.01401547     0.03454225    -0.00611000
20MABNDL000077_PR002
Spot 1     0.01186391     0.03557267    -0.07463200
Spot 2     0.01202575     0.03557240    -0.07463200
Spot 1     0.01186392     0.03557280    -0.07463200
Spot 2     0.01202558     0.03557197    -0.07463200
Spot 1     0.01186408     0.03557268    -0.07463200
Spot 2     0.01202593     0.03557168    -0.07463200
Spot 1     0.01186396     0.03557262    -0.07463200
Spot 2     0.01202569     0.03557184    -0.07463200
Spot 1     0.01186391     0.03557283    -0.07463200
Spot 2     0.01202566     0.03557151    -0.07463200
20MABNDL000077_PR003
Spot 1     0.01259125     0.03526041    -0.07463200
Spot 2     0.01274178     0.03526118    -0.07463200
Spot 1     0.01259118     0.03526049    -0.07463200
Spot 2     0.01274171     0.03526133    -0.07463200
Spot 1     0.01259137     0.03526031    -0.07463200
Spot 2     0.01274152     0.03526125    -0.07463200
Spot 1     0.01259096     0.03526029    -0.07463200
Spot 2     0.01274178     0.03526140    -0.07463200
Spot 1     0.01259114     0.03526033    -0.07463200
Spot 2     0.01274152     0.03526140    -0.07463200
20MABNDL000077_20MABNDM000168
Spot 1    -0.01272112     0.03554629    -0.00695400
Spot 2    -0.01253638     0.03558364    -0.00695400
Spot 1    -0.01272118     0.03554652    -0.00695400
Spot 2    -0.01253503     0.03558385    -0.00695400
Spot 1    -0.01272099     0.03554643    -0.00695400
Spot 2    -0.01117835     0.03410240    -0.00695400
Spot 1    -0.01272106     0.03554655    -0.00695400
Spot 2    -0.01253566     0.03558477    -0.00695400
Spot 1    -0.01272116     0.03554636    -0.00695400
Spot 2    -0.01253598     0.03558275    -0.00695400
20MABNDL000077_PR024
Spot 1    -0.01346705     0.03576838    -0.00695400
Spot 2    -0.01356892     0.03577120    -0.00695400
Spot 1    -0.01346686     0.03576836    -0.00695400
Spot 2    -0.01356907     0.03577143    -0.00695400
Spot 1    -0.01346700     0.03576847    -0.00695400
Spot 2    -0.01356895     0.03577141    -0.00695400
Spot 1    -0.01346723     0.03576855    -0.00695400
Spot 2    -0.01356884     0.03577152    -0.00695400
Spot 1    -0.01346708     0.03576895    -0.00695400
Spot 2    -0.01356907     0.03577127    -0.00695400
20MABNDM000020_PR013
Spot 1    -0.01270286    -0.03609633    -0.00523500
Spot 2    -0.01285642    -0.03610442    -0.00523500
Spot 1    -0.01270327    -0.03609662    -0.00523500
Spot 2    -0.01285571    -0.03610454    -0.00523500
Spot 1    -0.01270343    -0.03609713    -0.00523500
Spot 2    -0.01285600    -0.03610431    -0.00523500
Spot 1    -0.01270331    -0.03609629    -0.00523500
Spot 2    -0.01285612    -0.03610423    -0.00523500
Spot 1    -0.01270336    -0.03609658    -0.00523500
Spot 2    -0.01285597    -0.03610398    -0.00523500
20MABNDM000020_PR014
Spot 1    -0.01166434    -0.03621273    -0.00523500
Spot 2    -0.01182538    -0.03622509    -0.00523500
Spot 1    -0.01166448    -0.03621349    -0.00523500
Spot 2    -0.01182535    -0.03622354    -0.00523500
Spot 1    -0.01166461    -0.03621337    -0.00523500
Spot 2    -0.01182562    -0.03622345    -0.00523500
Spot 1    -0.01166463    -0.03621317    -0.00523500
Spot 2    -0.01182609    -0.03622371    -0.00523500
Spot 1    -0.01166418    -0.03621340    -0.00523500
Spot 2    -0.01182532    -0.03622382    -0.00523500
20MABNDM000020_20MABNDL000196
Spot 1     0.01268533    -0.03454482    -0.07583800
Spot 2     0.01388114    -0.03418340    -0.07583800
Spot 1     0.01268552    -0.03454483    -0.07583800
Spot 2     0.01372118    -0.03443342    -0.07583800
Spot 1     0.01268554    -0.03454504    -0.07583800
Spot 2     0.01372118    -0.03443342    -0.07583800
Spot 1     0.01268550    -0.03454490    -0.07583800
Spot 2     0.01372118    -0.03443342    -0.07583800
Spot 1     0.01268545    -0.03454496    -0.07583800
Spot 2     0.01372118    -0.03443342    -0.07583800
20MABNDM000020_PR035
Spot 1     0.01342014    -0.03483885    -0.07583800
Spot 2     0.01349137    -0.03487089    -0.07583800
Spot 1     0.01342094    -0.03483894    -0.07583800
Spot 2     0.01349149    -0.03487107    -0.07583800
Spot 1     0.01342089    -0.03483892    -0.07583800
Spot 2     0.01349156    -0.03487129    -0.07583800
Spot 1     0.01342080    -0.03483897    -0.07583800
Spot 2     0.01349156    -0.03487134    -0.07583800
Spot 1     0.01342081    -0.03483923    -0.07583800
Spot 2     0.01349172    -0.03487155    -0.07583800
20MABNDB000069_PR031
Spot 1    -0.01359241    -0.01286409    -0.07388500
Spot 2    -0.01361993    -0.01186066    -0.07388500
Spot 1    -0.01359234    -0.01286409    -0.07388500
Spot 2    -0.01352219    -0.01286767    -0.07388500
Spot 1    -0.01359242    -0.01286441    -0.07388500
Spot 2    -0.01352231    -0.01286760    -0.07388500
Spot 1    -0.01359221    -0.01286375    -0.07388500
Spot 2    -0.01361993    -0.01186066    -0.07388500
Spot 1    -0.01359224    -0.01286417    -0.07388500
Spot 2    -0.01361993    -0.01186066    -0.07388500
20MABNDB000069_PR033
Spot 1    -0.01202781    -0.01225505    -0.07388500
Spot 2    -0.01155747    -0.01225497    -0.07388500
Spot 1    -0.01202770    -0.01225484    -0.07388500
Spot 2    -0.01155744    -0.01225486    -0.07388500
Spot 1    -0.01202776    -0.01225479    -0.07388500
Spot 2    -0.01155747    -0.01225470    -0.07388500
Spot 1    -0.01202770    -0.01225497    -0.07388500
Spot 2    -0.01155753    -0.01225467    -0.07388500
Spot 1    -0.01202773    -0.01225495    -0.07388500
Spot 2    -0.01155749    -0.01225472    -0.07388500
20MABNDB000131_PR032
Spot 1    -0.01144042    -0.01304192    -0.07533000
Spot 2    -0.01138079    -0.01303785    -0.07533000
Spot 1    -0.01144022    -0.01304183    -0.07533000
Spot 2    -0.01138061    -0.01303793    -0.07533000
Spot 1    -0.01144053    -0.01304169    -0.07533000
Spot 2    -0.01138063    -0.01303801    -0.07533000
Spot 1    -0.01143999    -0.01304197    -0.07533000
Spot 2    -0.01138086    -0.01303775    -0.07533000
Spot 1    -0.01144005    -0.01304176    -0.07533000
Spot 2    -0.01138055    -0.01303786    -0.07533000
20MABNDB000131_PR034
Spot 1    -0.01328416    -0.01379926    -0.07533000
Spot 2    -0.01310776    -0.01379833    -0.07533000
Spot 1    -0.01328420    -0.01379928    -0.07533000
Spot 2    -0.01310776    -0.01379856    -0.07533000
Spot 1    -0.01328402    -0.01379931    -0.07533000
Spot 2    -0.01310773    -0.01379844    -0.07533000
Spot 1    -0.01328408    -0.01379914    -0.07533000
Spot 2    -0.01310775    -0.01379841    -0.07533000
Spot 1    -0.01328410    -0.01379906    -0.07533000
Spot 2    -0.01310758    -0.01379853    -0.07533000
20MABNDA000208_PR042
Spot 1    -0.01391036     0.01303595    -0.07273700
Spot 2    -0.01384101     0.01303432    -0.07273700
Spot 1    -0.01390904     0.01303646    -0.07273700
Spot 2    -0.01384158     0.01303436    -0.07273700
Spot 1    -0.01390827     0.01303625    -0.07273700
Spot 2    -0.01384254     0.01303417    -0.07273700
Spot 1    -0.01390968     0.01303628    -0.07273700
Spot 2    -0.01384098     0.01303443    -0.07273700
Spot 1    -0.01391050     0.01303642    -0.07273700
Spot 2    -0.01384092     0.01303460    -0.07273700
20MABNDA000208_PR046
Spot 1    -0.01230726     0.01181549    -0.07273700
Spot 2    -0.01183718     0.01181227    -0.07273700
Spot 1    -0.01230719     0.01181532    -0.07273700
Spot 2    -0.01183702     0.01181243    -0.07273700
Spot 1    -0.01230734     0.01181544    -0.07273700
Spot 2    -0.01183707     0.01181240    -0.07273700
Spot 1    -0.01230732     0.01181545    -0.07273700
Spot 2    -0.01183724     0.01181240    -0.07273700
Spot 1    -0.01230735     0.01181544    -0.07273700
Spot 2    -0.01183691     0.01181231    -0.07273700
20MABNDA000035_PR044
Spot 1    -0.01157628     0.01300198    -0.07483200
Spot 2    -0.01152129     0.01300736    -0.07483200
Spot 1    -0.01157615     0.01300177    -0.07483200
Spot 2    -0.01152143     0.01300714    -0.07483200
Spot 1    -0.01157618     0.01300169    -0.07483200
Spot 2    -0.01152156     0.01300706    -0.07483200
Spot 1    -0.01157629     0.01300189    -0.07483200
Spot 2    -0.01152168     0.01300722    -0.07483200
Spot 1    -0.01157579     0.01300176    -0.07483200
Spot 2    -0.01152140     0.01300704    -0.07483200
20MABNDA000035_PR045
Spot 1    -0.01338195     0.01378749    -0.07483200
Spot 2    -0.01320566     0.01378767    -0.07483200
Spot 1    -0.01338189     0.01378758    -0.07483200
Spot 2    -0.01320598     0.01378769    -0.07483200
Spot 1    -0.01338172     0.01378759    -0.07483200
Spot 2    -0.01320568     0.01378763    -0.07483200
Spot 1    -0.01338160     0.01378762    -0.07483200
Spot 2    -0.01320559     0.01378734    -0.07483200
20MABNDA000318_PR004
Spot 1    -0.01287078     0.01247022    -0.07310600
Spot 2    -0.01265359     0.01247033    -0.07310600
Spot 1    -0.01287053     0.01247015    -0.07310600
Spot 2    -0.01265347     0.01247015    -0.07310600
Spot 1    -0.01287073     0.01247022    -0.07310600
Spot 2    -0.01265310     0.01247045    -0.07310600
Spot 1    -0.01287048     0.01247018    -0.07310600
Spot 2    -0.01265342     0.01247058    -0.07310600
20MABNDA000334_PR005
Spot 1    -0.01312049     0.01255862    -0.07324100
Spot 2    -0.01284026     0.01255785    -0.07324100
Spot 1    -0.01312033     0.01255858    -0.07324100
Spot 2    -0.01284000     0.01255771    -0.07324100
Spot 1    -0.01312053     0.01255849    -0.07324100
Spot 2    -0.01284021     0.01255781    -0.07324100
Spot 1    -0.01312033     0.01255850    -0.07324100
Spot 2    -0.01284019     0.01255769    -0.07324100
20MABNDB000317_PR015
Spot 1    -0.01266214    -0.01249021    -0.07326100
Spot 2    -0.01244219    -0.01249377    -0.07326100
Spot 1    -0.01266226    -0.01249018    -0.07326100
Spot 2    -0.01244226    -0.01249339    -0.07326100
Spot 1    -0.01266209    -0.01248985    -0.07326100
Spot 2    -0.01244244    -0.01249362    -0.07326100
Spot 1    -0.01266205    -0.01248975    -0.07326100
Spot 2    -0.01244246    -0.01249388    -0.07326100
20MABNDB000146_PR016
Spot 1    -0.01275940    -0.01246460    -0.07450500
Spot 2    -0.01248403    -0.01246116    -0.07450500
Spot 1    -0.01275933    -0.01246458    -0.07450500
Spot 2    -0.01248394    -0.01246134    -0.07450500
Spot 1    -0.01275936    -0.01246456    -0.07450500
Spot 2    -0.01248377    -0.01246132    -0.07450500
Spot 1    -0.01275945    -0.01246440    -0.07450500
Spot 2    -0.01248409    -0.01246130    -0.07450500
20MABNDB000135_PR027
Spot 1    -0.01251353    -0.01319171    -0.07464700
Spot 2    -0.01229514    -0.01319190    -0.07464700
Spot 1    -0.01251341    -0.01319164    -0.07464700
Spot 2    -0.01229525    -0.01319186    -0.07464700
Spot 1    -0.01251334    -0.01319171    -0.07464700
Spot 2    -0.01229508    -0.01319205    -0.07464700
Spot 1    -0.01251357    -0.01319162    -0.07464700
Spot 2    -0.01229503    -0.01319183    -0.07464700
20MABNDB000126_PR028
Spot 1    -0.01252861    -0.01218090    -0.07500400
Spot 2    -0.01224739    -0.01217770    -0.07500400
Spot 1    -0.01252862    -0.01218101    -0.07500400
Spot 2    -0.01224741    -0.01217759    -0.07500400
Spot 1    -0.01252851    -0.01218086    -0.07500400
Spot 2    -0.01224704    -0.01217767    -0.07500400
Spot 1    -0.01252848    -0.01218096    -0.07500400
Spot 2    -0.01224741    -0.01217778    -0.07500400
20MABNDA000272_PR038
Spot 1    -0.01276120     0.01314175    -0.07417900
Spot 2    -0.01253863     0.01314116    -0.07417900
Spot 1    -0.01276140     0.01314147    -0.07417900
Spot 2    -0.01253895     0.01314112    -0.07417900
Spot 1    -0.01276135     0.01314155    -0.07417900
Spot 2    -0.01253885     0.01314112    -0.07417900
Spot 1    -0.01276142     0.01314155    -0.07417900
Spot 2    -0.01253900     0.01314108    -0.07417900
20MABNDA000003_PR039
Spot 1    -0.01280985     0.01212232    -0.07373400
Spot 2    -0.01308773     0.01212359    -0.07373400
Spot 1    -0.01280997     0.01212252    -0.07373400
Spot 2    -0.01308769     0.01212361    -0.07373400
Spot 1    -0.01280989     0.01212234    -0.07373400
Spot 2    -0.01308760     0.01212340    -0.07373400
Spot 1    -0.01280983     0.01212251    -0.07373400
Spot 2    -0.01308768     0.01212353    -0.07373400
20MABNDA000196_PR006
Spot 1    -0.01293091     0.01322655    -0.07967100
Spot 2    -0.01256248     0.01322503    -0.07967100
Spot 1    -0.01293105     0.01322650    -0.07967100
Spot 2    -0.01256258     0.01322496    -0.07967100
Spot 1    -0.01293098     0.01322656    -0.07967100
Spot 2    -0.01256236     0.01322504    -0.07967100
Spot 1    -0.01293090     0.01322665    -0.07967100
Spot 2    -0.01256246     0.01322509    -0.07967100
20MABNDA000324_PR007
Spot 1    -0.01256057     0.01281307    -0.07446800
Spot 2    -0.01235509     0.01280942    -0.07446800
Spot 1    -0.01256063     0.01281328    -0.07446800
Spot 2    -0.01235495     0.01280938    -0.07446800
Spot 1    -0.01256047     0.01281328    -0.07446800
Spot 2    -0.01235451     0.01280919    -0.07446800
Spot 1    -0.01256063     0.01281326    -0.07446800
Spot 2    -0.01235506     0.01280934    -0.07446800
20MABNDB000001_PR017
Spot 1    -0.01222227    -0.01350908    -0.07418400
Spot 2    -0.01219967    -0.01342401    -0.07418400
Spot 1    -0.01222173    -0.01350942    -0.07418400
Spot 2    -0.01220008    -0.01342416    -0.07418400
Spot 1    -0.01222217    -0.01350903    -0.07418400
Spot 2    -0.01219975    -0.01342423    -0.07418400
Spot 1    -0.01222182    -0.01350946    -0.07418400
Spot 2    -0.01219988    -0.01342426    -0.07418400
20MABNDB000260_PR019
Spot 1    -0.01240769    -0.01241061    -0.07492700
Spot 2    -0.01220455    -0.01240733    -0.07492700
Spot 1    -0.01240750    -0.01241070    -0.07492700
Spot 2    -0.01220421    -0.01240739    -0.07492700
Spot 1    -0.01240770    -0.01241068    -0.07492700
Spot 2    -0.01220411    -0.01240742    -0.07492700
Spot 1    -0.01240752    -0.01241108    -0.07492700
Spot 2    -0.01220461    -0.01240743    -0.07492700
20MABNDB000212_PR029
Spot 1    -0.01184934    -0.01325494    -0.07390500
Spot 2    -0.01221523    -0.01325119    -0.07390500
Spot 1    -0.01184928    -0.01325474    -0.07390500
Spot 2    -0.01221502    -0.01325119    -0.07390500
Spot 1    -0.01184927    -0.01325477    -0.07390500
Spot 2    -0.01221481    -0.01325142    -0.07390500
Spot 1    -0.01184951    -0.01325477    -0.07390500
Spot 2    -0.01221509    -0.01325127    -0.07390500
20MABNDB000128_PR030
Spot 1    -0.01245404    -0.01221467    -0.07353400
Spot 2    -0.01224957    -0.01221907    -0.07353400
Spot 1    -0.01245425    -0.01221489    -0.07353400
Spot 2    -0.01224958    -0.01221924    -0.07353400
Spot 1    -0.01245390    -0.01221487    -0.07353400
Spot 2    -0.01224930    -0.01221913    -0.07353400
Spot 1    -0.01245410    -0.01221485    -0.07353400
Spot 2    -0.01224944    -0.01221928    -0.07353400
20MABNDA000444_PR040
Spot 1    -0.01168978     0.01364797    -0.07412000
Spot 2    -0.01205607     0.01364767    -0.07412000
Spot 1    -0.01168957     0.01364792    -0.07412000
Spot 2    -0.01205609     0.01364764    -0.07412000
Spot 1    -0.01168978     0.01364797    -0.07412000
Spot 2    -0.01205619     0.01364771    -0.07412000
Spot 1    -0.01168979     0.01364773    -0.07412000
Spot 2    -0.01205605     0.01364756    -0.07412000
20MABNDA000053_PR041
Spot 1    -0.01241641     0.01212310    -0.07430100
Spot 2    -0.01221366     0.01212291    -0.07430100
Spot 1    -0.01241644     0.01212374    -0.07430100
Spot 2    -0.01221382     0.01212345    -0.07430100
Spot 1    -0.01241665     0.01212367    -0.07430100
Spot 2    -0.01221367     0.01212345    -0.07430100
Spot 1    -0.01241671     0.01212324    -0.07430100
Spot 2    -0.01221402     0.01212289    -0.07430100
20MABNDA000188_PR008
Spot 1    -0.01385116     0.01393841    -0.07502000
Spot 2    -0.01385116     0.01393841    -0.07502000
Spot 1    -0.01385116     0.01393841    -0.07502000
Spot 2    -0.01385116     0.01393841    -0.07502000
Spot 1    -0.01385116     0.01393841    -0.07502000
Spot 2    -0.01380849     0.01395805    -0.07502000
Spot 1    -0.01385116     0.01393841    -0.07502000
Spot 2    -0.01385116     0.01393841    -0.07502000
20MABNDA000188_PR018
Spot 1    -0.01269549     0.01235364    -0.07502000
Spot 2    -0.01222839     0.01235240    -0.07502000
Spot 1    -0.01269549     0.01235346    -0.07502000
Spot 2    -0.01222860     0.01235230    -0.07502000
Spot 1    -0.01269535     0.01235336    -0.07502000
Spot 2    -0.01222855     0.01235237    -0.07502000
Spot 1    -0.01269540     0.01235351    -0.07502000
Spot 2    -0.01222859     0.01235212    -0.07502000
20MABNDA000039_PR009
Spot 1    -0.01162649     0.01306519    -0.07444800
Spot 2    -0.01157992     0.01306027    -0.07444800
Spot 1    -0.01162673     0.01306532    -0.07444800
Spot 2    -0.01157921     0.01306034    -0.07444800
Spot 1    -0.01162642     0.01306508    -0.07444800
Spot 2    -0.01157977     0.01305999    -0.07444800
Spot 1    -0.01162656     0.01306500    -0.07444800
Spot 2    -0.01157927     0.01306001    -0.07444800
20MABNDA000039_PR011
Spot 1    -0.01372415     0.01395133    -0.07444800
Spot 2    -0.01354850     0.01395524    -0.07444800
Spot 1    -0.01372395     0.01395144    -0.07444800
Spot 2    -0.01354860     0.01395521    -0.07444800
Spot 1    -0.01372404     0.01395146    -0.07444800
Spot 2    -0.01354852     0.01395517    -0.07444800
Spot 1    -0.01372380     0.01395147    -0.07444800
Spot 2    -0.01354852     0.01395508    -0.07444800
20MABNDB000155_PR020
Spot 1    -0.01364641    -0.01313585    -0.07501700
Spot 2    -0.01358365    -0.01313899    -0.07501700
Spot 1    -0.01364646    -0.01313563    -0.07501700
Spot 2    -0.01358253    -0.01313871    -0.07501700
Spot 1    -0.01364635    -0.01313600    -0.07501700
Spot 2    -0.01358407    -0.01313869    -0.07501700
Spot 1    -0.01364590    -0.01313573    -0.07501700
Spot 2    -0.01358330    -0.01313876    -0.07501700
20MABNDB000155_PR022
Spot 1    -0.01216952    -0.01292347    -0.07501700
Spot 2    -0.01169650    -0.01292101    -0.07501700
Spot 1    -0.01216937    -0.01292345    -0.07501700
Spot 2    -0.01169648    -0.01292128    -0.07501700
Spot 1    -0.01216935    -0.01292357    -0.07501700
Spot 2    -0.01169642    -0.01292104    -0.07501700
Spot 1    -0.01216934    -0.01292353    -0.07501700
Spot 2    -0.01169640    -0.01292107    -0.07501700
20MABNDB000010_PR021
Spot 1    -0.01158242    -0.01291900    -0.07358200
Spot 2    -0.01152896    -0.01291491    -0.07358200
Spot 1    -0.01158228    -0.01291898    -0.07358200
Spot 2    -0.01152933    -0.01291509    -0.07358200
Spot 1    -0.01158190    -0.01291886    -0.07358200
Spot 2    -0.01152887    -0.01291505    -0.07358200
Spot 1    -0.01158232    -0.01291906    -0.07358200
Spot 2    -0.01152911    -0.01291511    -0.07358200
20MABNDB000010_PR023
Spot 1    -0.01312717    -0.01375953    -0.07358200
Spot 2    -0.01295254    -0.01375754    -0.07358200
Spot 1    -0.01312725    -0.01375926    -0.07358200
Spot 2    -0.01295254    -0.01375727    -0.07358200
Spot 1    -0.01312717    -0.01375946    -0.07358200
Spot 2    -0.01295270    -0.01375734    -0.07358200
Spot 1    -0.01312724    -0.01375961    -0.07358200
Spot 2    -0.01295272    -0.01375718    -0.07358200


*****************************************************************coordonnees du prisme dans le repere MOUNT********************************************************************************** 
20MABNDM000168_PR025
    0.01794907    -0.02080961    -3.78863955
    0.01794706    -0.02080295    -3.78863955
    0.01795673    -0.02080909    -3.78863955
    0.01795795    -0.02080537    -3.78863955
    0.01795503    -0.02081651    -3.78863955
20MABNDM000168_PR026
   -0.05798448    -0.01406099    -3.98428965
   -0.05798710    -0.01405579    -3.98428965
   -0.05799077    -0.01404852    -3.98428893
   -0.05798602    -0.01406620    -3.98428965
   -0.05798085    -0.01405733    -3.98428965
20MABNDM000168_20MABNDL000077
    0.01131366    -0.03904536     5.38884640
    0.01131380    -0.03903530     5.38884640
    0.01132647    -0.03902937     5.38884640
    0.01132420    -0.03903688     5.38884640
    0.01131981    -0.03904221     5.38884640
20MABNDM000168_PR001
   -0.05745990    -0.01320350     5.81470346
   -0.05743874    -0.01318713     5.81470394
   -0.05745023    -0.01320558     5.81470346
   -0.05743935    -0.01320302     5.81470394
   -0.05745142    -0.01320672     5.81470346
20MABNDL000196_PR036
    0.05076944     0.00553128     3.68777442
    0.05078096     0.00553670     3.68777442
    0.05076720     0.00554600     3.68777466
    0.05076966     0.00553888     3.68777466
    0.05077531     0.00553988     3.68777442
20MABNDL000196_PR037
   -0.02582513     0.02821062     3.88380575
   -0.02582125     0.02821373     3.88380575
   -0.02582565     0.02821553     3.88380575
   -0.02581736     0.02820676     3.88380575
   -0.02581944     0.02821038     3.88380575
20MABNDL000196_20MABNDM000020
   -0.01383475     0.03880347    -5.47473907
   -0.01382840     0.03880899    -5.47473907
   -0.01383330     0.03880243    -5.47473907
   -0.01384009     0.03880049    -5.47473907
   -0.01383407     0.03880493    -5.47473907
20MABNDL000196_PR012
    0.08772770     0.06726679    -5.91482639
   -0.10838966     0.11456494    -5.91446209
   -0.00873988     0.10653163    -5.91534805
   -0.10844630     0.11461935    -5.91446018
   -0.00872067     0.10646695    -5.91534805
20MABNDL000077_PR002
    0.04960749     0.02138419     3.70690870
    0.04961152     0.02139181     3.70690870
    0.04959901     0.02140180     3.70690870
    0.04960788     0.02139925     3.70690870
    0.04960965     0.02140220     3.70690870
20MABNDL000077_PR003
    0.01401952     0.03682308     3.89605379
    0.01402310     0.03681708     3.89605379
    0.01402316     0.03682383     3.89605379
    0.01402677     0.03682042     3.89605379
    0.01402909     0.03681935     3.89605379
20MABNDL000077_20MABNDM000168
   -0.01675485     0.01423716    -5.46871090
   -0.01680164     0.01422151    -5.46871090
   -0.06580335     0.06772716    -5.46840191
   -0.01678323     0.01418703    -5.46871090
   -0.01676815     0.01426700    -5.46871090
20MABNDL000077_PR024
    0.05225078    -0.00346202    -5.89622498
    0.05224930    -0.00347061    -5.89622498
    0.05225012    -0.00347372    -5.89622498
    0.05225448    -0.00348108    -5.89622498
    0.05225766    -0.00348728    -5.89622498
20MABNDM000020_PR013
   -0.00510089     0.01213178    -3.80216956
   -0.00510831     0.01214203    -3.80216932
   -0.00509705     0.01214899    -3.80216932
   -0.00509704     0.01212616    -3.80216956
   -0.00509954     0.01212710    -3.80216956
20MABNDM000020_PR014
   -0.06757498     0.03171952    -4.74799871
   -0.06757131     0.03169476    -4.74799967
   -0.06755904     0.03168850    -4.74799967
   -0.06754384     0.03169038    -4.74799967
   -0.06758203     0.03170074    -4.74799967
20MABNDM000020_20MABNDL000196
   -0.02603033    -0.08886994     5.39443207
   -0.02030695    -0.07991329     5.39455032
   -0.02030767    -0.07990576     5.39455032
   -0.02030623    -0.07991078     5.39455032
   -0.02030444    -0.07990863     5.39455032
20MABNDM000020_PR035
   -0.04224595    -0.05504591     5.80099869
   -0.04228139    -0.05503552     5.80099773
   -0.04228216    -0.05502781     5.80099773
   -0.04227870    -0.05502395     5.80099773
   -0.04228525    -0.05500585     5.80099773
20MABNDB000069_PR031
    0.10831715    -0.10024410     9.20310783
    0.10232462    -0.03848977     9.20356178
    0.10233633    -0.03847368     9.20356178
    0.10830463    -0.10026507     9.20310783
    0.10830630    -0.10023936     9.20310783
20MABNDB000069_PR033
   -0.02679101    -0.02707406     1.28393948
   -0.02679223    -0.02707683     1.28393936
   -0.02679145    -0.02707857     1.28393936
   -0.02679140    -0.02707738     1.28393936
   -0.02679148    -0.02707712     1.28393936
20MABNDB000131_PR032
   -0.18832815    -0.02910602    11.00641632
   -0.18835518    -0.02910689    11.00641632
   -0.18833105    -0.02911115    11.00641632
   -0.18835445    -0.02910981    11.00641632
   -0.18837264    -0.02911720    11.00641537
20MABNDB000131_PR034
    0.01395446     0.01645930     3.43338203
    0.01395534     0.01646501     3.43338203
    0.01395056     0.01646293     3.43338203
    0.01395241     0.01645838     3.43338203
    0.01394899     0.01645928     3.43338203
20MABNDA000208_PR042
    0.12992364     0.01563451     9.20148849
    0.12987766     0.01560071     9.20149040
    0.12988931     0.01562527     9.20149040
    0.12988010     0.01560747     9.20149040
    0.12992674     0.01558848     9.20148849
20MABNDA000208_PR046
   -0.02364623     0.03429952     1.28208542
   -0.02364819     0.03429960     1.28208542
   -0.02364648     0.03429884     1.28208566
   -0.02364520     0.03429875     1.28208566
   -0.02364776     0.03429960     1.28208542
20MABNDA000035_PR044
   -0.17933434     0.02646518    11.00803185
   -0.17933339     0.02649663    11.00803185
   -0.17932160     0.02650825    11.00803185
   -0.17930497     0.02648179    11.00803185
   -0.17936185     0.02650487    11.00803185
20MABNDA000035_PR045
    0.01496631    -0.01845985     3.43483877
    0.01497222    -0.01846262     3.43483853
    0.01496150    -0.01846141     3.43483877
    0.01495676    -0.01845544     3.43483877
20MABNDA000318_PR004
   -0.00825626     0.03836471     2.74965906
   -0.00826306     0.03836928     2.74965906
   -0.00826616     0.03836248     2.74965906
   -0.00826487     0.03836083     2.74965906
20MABNDA000334_PR005
   -0.00414848     0.03122795     2.14977503
   -0.00415448     0.03123053     2.14977503
   -0.00414862     0.03123038     2.14977503
   -0.00415176     0.03123196     2.14977503
20MABNDB000317_PR015
   -0.01753785    -0.03428467     2.75128794
   -0.01753430    -0.03429228     2.75128746
   -0.01753429    -0.03429392     2.75128746
   -0.01753450    -0.03429119     2.75128746
20MABNDB000146_PR016
   -0.01355934    -0.03170007     2.15201354
   -0.01356165    -0.03169777     2.15201354
   -0.01356366    -0.03169835     2.15201354
   -0.01355776    -0.03170093     2.15201354
20MABNDB000135_PR027
   -0.02101189    -0.01005583     2.74937153
   -0.02101209    -0.01005785     2.74937153
   -0.02101644    -0.01005303     2.74937153
   -0.02101320    -0.01005875     2.74937153
20MABNDB000126_PR028
   -0.02050007    -0.03873854     2.14679718
   -0.02049964    -0.03873853     2.14679718
   -0.02050648    -0.03873943     2.14679718
   -0.02050165    -0.03873655     2.14679718
20MABNDA000272_PR038
   -0.01315935     0.01149826     2.74965906
   -0.01314981     0.01150411     2.74965906
   -0.01315257     0.01150265     2.74965906
   -0.01314853     0.01150337     2.74965906
20MABNDA000003_PR039
   -0.00570957     0.04132749     2.14891386
   -0.00570844     0.04132435     2.14891386
   -0.00571085     0.04132992     2.14891338
   -0.00571058     0.04132564     2.14891386
20MABNDA000196_PR006
   -0.01064384     0.01041310     1.64206505
   -0.01064120     0.01041438     1.64206505
   -0.01064439     0.01041289     1.64206505
   -0.01064419     0.01041136     1.64206505
20MABNDA000324_PR007
   -0.02497654     0.02770027     2.95549369
   -0.02497808     0.02769691     2.95549369
   -0.02498973     0.02770075     2.95549369
   -0.02497593     0.02769810     2.95549369
20MABNDB000001_PR017
   -0.02208945    -0.00462352     1.64038277
   -0.02209093    -0.00461815     1.64038277
   -0.02208976    -0.00462166     1.64038277
   -0.02209211    -0.00461660     1.64038277
20MABNDB000260_PR019
   -0.02440082    -0.03791248     2.95627880
   -0.02441131    -0.03790954     2.95627832
   -0.02440935    -0.03790931     2.95627880
   -0.02440302    -0.03790130     2.95627880
20MABNDB000212_PR029
   -0.02544863    -0.00901954     1.64223897
   -0.02545162    -0.00902181     1.64223897
   -0.02545411    -0.00901893     1.64223886
   -0.02544842    -0.00902053     1.64223897
20MABNDB000128_PR030
   -0.01931029    -0.04686727     2.95496249
   -0.01930599    -0.04685959     2.95496249
   -0.01931836    -0.04686219     2.95496249
   -0.01931169    -0.04685961     2.95496249
20MABNDA000444_PR040
   -0.03014418     0.00150047     1.64491379
   -0.03014627     0.00150132     1.64491379
   -0.03014286     0.00150005     1.64491379
   -0.03014434     0.00150431     1.64491379
20MABNDA000053_PR041
   -0.02627759     0.05091615     2.95450759
   -0.02627392     0.05089310     2.95450783
   -0.02627252     0.05089445     2.95450783
   -0.02626467     0.05091394     2.95450783
20MABNDA000188_PR008
    0.12899831    -0.09474574     9.20333958
    0.12899831    -0.09474574     9.20333958
    0.12637952    -0.09595132     9.20336533
    0.12899831    -0.09474574     9.20333958
20MABNDA000188_PR018
   -0.01671800     0.02519783     1.28358698
   -0.01671619     0.02520021     1.28358698
   -0.01671781     0.02520049     1.28358698
   -0.01671703     0.02520134     1.28358698
20MABNDA000039_PR009
   -0.17104545     0.02547661    11.00701714
   -0.17107989     0.02546214    11.00701714
   -0.17106214     0.02550521    11.00701714
   -0.17108843     0.02550971    11.00701618
20MABNDA000039_PR011
    0.03067797    -0.02363045     3.43348193
    0.03067568    -0.02363226     3.43348193
    0.03067591    -0.02363180     3.43348193
    0.03067044    -0.02362995     3.43348193
20MABNDB000155_PR020
    0.10228093    -0.00791596     9.20028114
    0.10221566    -0.00794693     9.20028114
    0.10230376    -0.00792547     9.20027924
    0.10222843    -0.00793816     9.20028114
20MABNDB000155_PR022
   -0.02539685    -0.01607725     1.28071463
   -0.02539833    -0.01607513     1.28071463
   -0.02539892    -0.01607617     1.28071463
   -0.02539917    -0.01607626     1.28071463
20MABNDB000010_PR021
   -0.17604321    -0.03470418    11.00694656
   -0.17602578    -0.03469212    11.00694656
   -0.17608806    -0.03470347    11.00694561
   -0.17603838    -0.03468498    11.00694656
20MABNDB000010_PR023
    0.00445096     0.01876746     3.43378496
    0.00445300     0.01875511     3.43378496
    0.00445474     0.01876110     3.43378496
    0.00445680     0.01876091     3.43378496


*****************************************************************coordonnees du prisme dans le repere ATLAS********************************************************************************** 
20MABNDM000168_PR025 0.00000000
    2.83242726    -3.76327825    -6.47925854
    2.83243394    -3.76327634    -6.47925854
    2.83242774    -3.76328588    -6.47925854
    2.83243155    -3.76328731    -6.47925854
    2.83242035    -3.76328421    -6.47925854
20MABNDM000168_PR026 0.00000000
    2.83918405    -3.68741941    -6.67493725
    2.83918929    -3.68741679    -6.67493725
    2.83919644    -3.68741298    -6.67493629
    2.83917880    -3.68741775    -6.67493725
    2.83918762    -3.68742299    -6.67493725
20MABNDM000168_20MABNDL000077 0.00000000
    2.81475019    -3.75322556     2.69822550
    2.81476021    -3.75322580     2.69822550
    2.81476617    -3.75323844     2.69822550
    2.81475878    -3.75323629     2.69822550
    2.81475329    -3.75323176     2.69822550
20MABNDM000168_PR001 0.00000000
    2.84063601    -3.68430066     3.12405539
    2.84065247    -3.68432188     3.12405586
    2.84063411    -3.68431020     3.12405539
    2.84063649    -3.68432117     3.12405586
    2.84063292    -3.68430901     3.12405539
20MABNDL000196_PR036 0.00000000
   -2.84807587    -3.69350529    -6.47909737
   -2.84807062    -3.69349384    -6.47909737
   -2.84806132    -3.69350743    -6.47909784
   -2.84806824    -3.69350505    -6.47909784
   -2.84806728    -3.69349933    -6.47909737
20MABNDL000196_PR037 0.00000000
   -2.82536530    -3.77027154    -6.67505789
   -2.82536221    -3.77026772    -6.67505789
   -2.82536030    -3.77027202    -6.67505789
   -2.82536912    -3.77026391    -6.67505789
   -2.82536554    -3.77026582    -6.67505789
20MABNDL000196_20MABNDM000020 0.00000000
   -2.81457567    -3.74957108     2.68347168
   -2.81457019    -3.74956465     2.68347168
   -2.81457686    -3.74956942     2.68347168
   -2.81457877    -3.74957633     2.68347168
   -2.81457424    -3.74957037     2.68347168
20MABNDL000196_PR012 0.00000000
   -2.78615022    -3.64758611     3.12346363
   -2.73876071    -3.84368157     3.12328076
   -2.74684048    -3.74403477     3.12407422
   -2.73870635    -3.84373832     3.12327886
   -2.74690509    -3.74401569     3.12407422
20MABNDL000077_PR002 0.00000000
    2.83565664    -3.69490957     6.48618889
    2.83564901    -3.69490552     6.48618889
    2.83563900    -3.69491792     6.48618889
    2.83564162    -3.69490910     6.48618889
    2.83563876    -3.69490743     6.48618889
20MABNDL000077_PR003 0.00000000
    2.82039189    -3.73072577     6.67530489
    2.82039785    -3.73072219     6.67530489
    2.82039118    -3.73072219     6.67530489
    2.82039452    -3.73071861     6.67530489
    2.82039571    -3.73071623     6.67530489
20MABNDL000077_20MABNDM000168 0.00000000
    2.83378243    -3.74995327    -2.68950796
    2.83379817    -3.75000000    -2.68950820
    2.78027701    -3.79898500    -2.68920708
    2.83383250    -3.74998164    -2.68950820
    2.83375263    -3.74996662    -2.68950796
20MABNDL000077_PR024 0.00000000
    2.85108423    -3.68042588    -3.11695385
    2.85109282    -3.68042731    -3.11695385
    2.85109591    -3.68042660    -3.11695385
    2.85110331    -3.68042207    -3.11695385
    2.85110950    -3.68041897    -3.11695385
20MABNDM000020_PR013 0.00000000
   -2.86444068    -3.73437357     6.48601913
   -2.86445093    -3.73436618     6.48601913
   -2.86445808    -3.73437738     6.48601913
   -2.86443520    -3.73437762     6.48601913
   -2.86443615    -3.73437500     6.48601913
20MABNDM000020_PR014 0.00000000
   -2.88382006    -3.67261291     7.43189955
   -2.88379526    -3.67261672     7.43190050
   -2.88378906    -3.67262888     7.43190050
   -2.88379097    -3.67264414     7.43190050
   -2.88380122    -3.67260599     7.43190050
20MABNDM000020_20MABNDL000196 0.00000000
   -2.76527309    -3.70648074    -2.71058393
   -2.77423143    -3.71220136    -2.71070480
   -2.77423906    -3.71220064    -2.71070480
   -2.77423406    -3.71220207    -2.71070480
   -2.77423620    -3.71220374    -2.71070480
20MABNDM000020_PR035 0.00000000
   -2.79917359    -3.68994570    -3.11713123
   -2.79918385    -3.68991017    -3.11713028
   -2.79919171    -3.68990946    -3.11713028
   -2.79919553    -3.68991280    -3.11713028
   -2.79921365    -3.68990636    -3.11713028
20MABNDB000069_PR031 0.00000000
    3.69006419     3.84855509    -7.84016037
    3.68404126     3.84875488    -7.90191269
    3.68405294     3.84875488    -7.90192890
    3.69005179     3.84855509    -7.84013939
    3.69005346     3.84855509    -7.84016514
20MABNDB000069_PR033 0.00000000
    3.53350854    -4.07046318    -7.87859726
    3.53350735    -4.07046318    -7.87859440
    3.53350806    -4.07046318    -7.87859297
    3.53350806    -4.07046318    -7.87859392
    3.53350806    -4.07046318    -7.87859440
20MABNDB000131_PR032 0.00000000
    3.86913085     3.64756703   -12.93974876
    3.86915779     3.64756703   -12.93974972
    3.86913371     3.64756703   -12.93975449
    3.86915708     3.64756703   -12.93975258
    3.86917520     3.64756608   -12.93976021
20MABNDB000131_PR034 0.00000000
    3.67383480    -3.92563415   -12.89148808
    3.67383409    -3.92563415   -12.89148235
    3.67383885    -3.92563415   -12.89148426
    3.67383695    -3.92563415   -12.89148903
    3.67384028    -3.92563415   -12.89148808
20MABNDA000208_PR042 0.00000000
   -3.68000221     3.84916711    -7.89585066
   -3.67995644     3.84916902    -7.89588404
   -3.67996788     3.84916902    -7.89585972
   -3.67995882     3.84916902    -7.89587736
   -3.68000531     3.84916711    -7.89589643
20MABNDA000208_PR046 0.00000000
   -3.53211904    -4.07033682    -7.87421846
   -3.53211713    -4.07033682    -7.87421846
   -3.53211880    -4.07033682    -7.87421942
   -3.53211999    -4.07033682    -7.87421942
   -3.53211761    -4.07033682    -7.87421846
20MABNDA000035_PR044 0.00000000
   -3.86857533     3.64758682   -12.93214417
   -3.86857438     3.64758682   -12.93217564
   -3.86856246     3.64758682   -12.93218708
   -3.86854601     3.64758682   -12.93216133
   -3.86860275     3.64758682   -12.93218422
20MABNDA000035_PR045 0.00000000
   -3.67576218    -3.92564845   -12.88792419
   -3.67575622    -3.92564869   -12.88792133
   -3.67576694    -3.92564845   -12.88792324
   -3.67577171    -3.92564845   -12.88792896
20MABNDA000318_PR004 0.00000000
    2.61474705    -4.19698906     3.83363390
    2.61474013    -4.19698906     3.83362937
    2.61473703    -4.19698906     3.83363605
    2.61473846    -4.19698906     3.83363771
20MABNDA000334_PR005 0.00000000
    2.61685014    -4.19702768     5.89803314
    2.61684394    -4.19702768     5.89803028
    2.61684990    -4.19702768     5.89803028
    2.61684680    -4.19702768     5.89802885
20MABNDB000317_PR015 0.00000000
   -2.61106944    -4.19700384     3.83573079
   -2.61107278    -4.19700432     3.83572316
   -2.61107278    -4.19700432     3.83572149
   -2.61107278    -4.19700432     3.83572435
20MABNDB000146_PR016 0.00000000
   -2.61273599    -4.19702435     5.89865017
   -2.61273360    -4.19702435     5.89865255
   -2.61273146    -4.19702435     5.89865208
   -2.61273742    -4.19702435     5.89864922
20MABNDB000135_PR027 0.00000000
    2.60385132    -4.19700384    -3.82530499
    2.60385108    -4.19700384    -3.82530308
    2.60384679    -4.19700384    -3.82530785
    2.60385013    -4.19700384    -3.82530212
20MABNDB000126_PR028 0.00000000
    2.60541701    -4.19702005    -5.89348125
    2.60541749    -4.19702005    -5.89348125
    2.60541058    -4.19702005    -5.89348030
    2.60541558    -4.19702005    -5.89348316
20MABNDA000272_PR038 0.00000000
   -2.61137748    -4.19698238    -3.82698607
   -2.61138701    -4.19698238    -3.82698011
   -2.61138415    -4.19698238    -3.82698178
   -2.61138821    -4.19698238    -3.82698083
20MABNDA000003_PR039 0.00000000
   -2.61602163    -4.19702244    -5.89143944
   -2.61602283    -4.19702244    -5.89144230
   -2.61602020    -4.19702291    -5.89143658
   -2.61602068    -4.19702244    -5.89144087
20MABNDA000196_PR006 0.00000000
    2.58510423    -4.19496298     6.54836988
    2.58510160    -4.19496298     6.54837084
    2.58510494    -4.19496298     6.54836941
    2.58510470    -4.19496298     6.54836798
20MABNDA000324_PR007 0.00000000
    2.59433818    -4.13996410     6.94821501
    2.59433675    -4.13996410     6.94821835
    2.59432507    -4.13996410     6.94821453
    2.59433889    -4.13996410     6.94821692
20MABNDB000001_PR017 0.00000000
   -2.59579134    -4.19503069     6.53995228
   -2.59579277    -4.19503069     6.53994703
   -2.59579158    -4.19503069     6.53995037
   -2.59579396    -4.19503069     6.53994513
20MABNDB000260_PR019 0.00000000
   -2.60436130    -4.13995600     6.94273138
   -2.60435081    -4.13995647     6.94273424
   -2.60435271    -4.13995600     6.94273472
   -2.60435915    -4.13995600     6.94274282
20MABNDB000212_PR029 0.00000000
    2.59912634    -4.19500971    -6.54800749
    2.59912944    -4.19500971    -6.54800940
    2.59913182    -4.19500971    -6.54800653
    2.59912610    -4.19500971    -6.54800844
20MABNDB000128_PR030 0.00000000
    2.60954833    -4.14002752    -6.93125391
    2.60955262    -4.14002752    -6.93126154
    2.60954046    -4.14002752    -6.93125868
    2.60954714    -4.14002752    -6.93126154
20MABNDA000444_PR040 0.00000000
   -2.60531688    -4.19509554    -6.54068089
   -2.60531878    -4.19509554    -6.54068136
   -2.60531545    -4.19509554    -6.54068041
   -2.60531688    -4.19509554    -6.54068470
20MABNDA000053_PR041 0.00000000
   -2.59426427    -4.14012337    -6.92699718
   -2.59426808    -4.14012337    -6.92702055
   -2.59426951    -4.14012337    -6.92701912
   -2.59427714    -4.14012337    -6.92699957
20MABNDA000188_PR008 0.00000000
    3.54177952     3.84863997     8.10601807
    3.54177952     3.84863997     8.10601807
    3.53914285     3.84861231     8.10718346
    3.54177952     3.84863997     8.10601807
20MABNDA000188_PR018 0.00000000
    3.52040958    -4.07060671     7.89824295
    3.52041149    -4.07060671     7.89824057
    3.52040982    -4.07060671     7.89824009
    3.52041054    -4.07060671     7.89823914
20MABNDA000039_PR009 0.00000000
    3.87521744     3.64747548    12.93677044
    3.87525177     3.64747548    12.93675613
    3.87523413     3.64747548    12.93679905
    3.87526035     3.64747453    12.93680382
20MABNDA000039_PR011 0.00000000
    3.66434598    -3.92579436    12.88520622
    3.66434836    -3.92579436    12.88520432
    3.66434813    -3.92579436    12.88520527
    3.66435361    -3.92579436    12.88520718
20MABNDB000155_PR020 0.00000000
   -3.68093371     3.84881401     7.89895105
   -3.68086839     3.84881401     7.89892006
   -3.68095636     3.84881210     7.89894152
   -3.68088102     3.84881401     7.89892912
20MABNDB000155_PR022 0.00000000
   -3.53458428    -4.07043076     7.89198208
   -3.53458261    -4.07043076     7.89198399
   -3.53458214    -4.07043076     7.89198303
   -3.53458190    -4.07043076     7.89198303
20MABNDB000010_PR021 0.00000000
   -3.86187959     3.64768434    12.93653393
   -3.86186218     3.64768434    12.93652153
   -3.86192441     3.64768338    12.93653297
   -3.86187482     3.64768434    12.93651485
20MABNDB000010_PR023 0.00000000
   -3.68521404    -3.92559099    12.88650799
   -3.68521214    -3.92559099    12.88652039
   -3.68521023    -3.92559099    12.88651466
   -3.68520832    -3.92559099    12.88651466


*****************************************************************Rapport********************************************************************************** 
CAM-LBC-US_EBC-US-HO-H         2015.11.29.23.12.10     2.83242817    -3.76328239    -6.47925854     0.00000462     0.00000432     0.00000000 0.00000000 VRAI 
CAM-LBC-US_JDC-US-H            2015.11.29.23.12.10     2.83918724    -3.68741798    -6.67493706     0.00000584     0.00000328     0.00000038 0.00000000 VRAI 
CAM-LBC-US_CAM-LBA-US          2015.11.29.23.12.10     2.81475773    -3.75323157     2.69822550     0.00000557     0.00000527     0.00000000 0.00000000 VRAI 
CAM-LBC-US_EBA-US-IP-H         2015.11.29.23.12.10     2.84063840    -3.68431258     3.12405558     0.00000715     0.00000801     0.00000023 0.00000000 VRAI 
CAM-LBC-USA_EBC-USA-HO-H       2015.11.29.23.12.10    -2.84806867    -3.69350219    -6.47909756     0.00000473     0.00000496     0.00000023 0.00000000 VRAI 
CAM-LBC-USA_JDC-USA-H          2015.11.29.23.12.10    -2.82536449    -3.77026820    -6.67505789     0.00000303     0.00000316     0.00000000 0.00000000 VRAI 
CAM-LBC-USA_CAM-LBA-USA        2015.11.29.23.12.10    -2.81457515    -3.74957037     2.68347168     0.00000289     0.00000373     0.00000000 0.00000000 VRAI 
CAM-LBC-USA_EBA-USA-IP-H       2015.11.29.23.12.10    -2.75147257    -3.76461129     3.12363434     0.01771680     0.07356040     0.00036538 0.00000000 VRAI 
CAM-LBA-US_EBA-US-HO-H         2015.11.29.23.12.10     2.83564501    -3.69490991     6.48618889     0.00000690     0.00000425     0.00000000 0.00000000 VRAI 
CAM-LBA-US_JDA-US-H            2015.11.29.23.12.10     2.82039423    -3.73072100     6.67530489     0.00000246     0.00000329     0.00000000 0.00000000 VRAI 
CAM-LBA-US_CAM-LBC-US          2015.11.29.23.12.10     2.82308855    -3.75977731    -2.68944788     0.02140578     0.01960385     0.00012040 0.00000000 VRAI 
CAM-LBA-US_EBC-US-IP-H         2015.11.29.23.12.10     2.85109715    -3.68042417    -3.11695385     0.00000869     0.00000317     0.00000000 0.00000000 VRAI 
CAM-LBA-USA_EBA-USA-HO-H       2015.11.29.23.12.10    -2.86444421    -3.73437395     6.48601913     0.00000890     0.00000417     0.00000000 0.00000000 VRAI 
CAM-LBA-USA_JDA-USA-H          2015.11.29.23.12.10    -2.88379931    -3.67262173     7.43190031     0.00001118     0.00001345     0.00000038 0.00000000 VRAI 
CAM-LBA-USA_CAM-LBC-USA        2015.11.29.23.12.10    -2.77244277    -3.71105771    -2.71068063     0.00358484     0.00228848     0.00004835 0.00000000 VRAI 
CAM-LBA-USA_EBC-USA-IP-H       2015.11.29.23.12.10    -2.79919167    -3.68991690    -3.11713047     0.00001331     0.00001455     0.00000038 0.00000000 VRAI 
CAM-ECTC-US-IP_ECTC-US-IP-T    2015.11.29.23.12.10     3.68765273     3.84863501    -7.86486130     0.00294399     0.00009788     0.03025895 0.00000000 VRAI 
CAM-ECTC-US-IP_ECTC-US-IP      2015.11.29.23.12.10     3.53350801    -4.07046318    -7.87859459     0.00000038     0.00000000     0.00000143 0.00000000 VRAI 
CAM-ECTC-US-HO_ECTC-US-HO-T    2015.11.29.23.12.10     3.86915092     3.64756684   -12.93975315     0.00001657     0.00000038     0.00000407 0.00000000 VRAI 
CAM-ECTC-US-HO_ECTC-US-HO      2015.11.29.23.12.10     3.67383699    -3.92563415   -12.89148636     0.00000235     0.00000000     0.00000259 0.00000000 VRAI 
CAM-ECTC-USA-IP_ECTC-USA-IP-T  2015.11.29.23.12.10    -3.67997813     3.84916825    -7.89587364     0.00002129     0.00000093     0.00001651 0.00000000 VRAI 
CAM-ECTC-USA-IP_ECTC-USA-IP    2015.11.29.23.12.10    -3.53211851    -4.07033682    -7.87421885     0.00000103     0.00000000     0.00000047 0.00000000 VRAI 
CAM-ECTC-USA-HO_ECTC-USA-HO-T  2015.11.29.23.12.10    -3.86857219     3.64758682   -12.93217049     0.00001860     0.00000000     0.00001592 0.00000000 VRAI 
CAM-ECTC-USA-HO_ECTC-USA-HO    2015.11.29.23.12.10    -3.67576426    -3.92564851   -12.88792443     0.00000574     0.00000010     0.00000281 0.00000000 VRAI 
CAM-EBA-US-IP_EBA-US-IP        2015.11.29.23.12.10     2.61474067    -4.19698906     3.83363426     0.00000384     0.00000000     0.00000313 0.00000000 VRAI 
CAM-EBA-US-HO_EBA-US-HO        2015.11.29.23.12.10     2.61684769    -4.19702768     5.89803064     0.00000254     0.00000000     0.00000156 0.00000000 VRAI 
CAM-EBA-USA-IP_EBA-USA-IP      2015.11.29.23.12.10    -2.61107194    -4.19700420     3.83572495     0.00000145     0.00000021     0.00000352 0.00000000 VRAI 
CAM-EBA-USA-HO_EBA-USA-HO      2015.11.29.23.12.10    -2.61273462    -4.19702435     5.89865100     0.00000228     0.00000000     0.00000136 0.00000000 VRAI 
CAM-EBC-US-IP_EBC-US-IP        2015.11.29.23.12.10     2.60384983    -4.19700384    -3.82530451     0.00000181     0.00000000     0.00000219 0.00000000 VRAI 
CAM-EBC-US-HO_EBC-US-HO        2015.11.29.23.12.10     2.60541517    -4.19702005    -5.89348149     0.00000274     0.00000000     0.00000104 0.00000000 VRAI 
CAM-EBC-USA-IP_EBC-USA-IP      2015.11.29.23.12.10    -2.61138421    -4.19698238    -3.82698220     0.00000416     0.00000000     0.00000231 0.00000000 VRAI 
CAM-EBC-USA-HO_EBC-USA-HO      2015.11.29.23.12.10    -2.61602134    -4.19702256    -5.89143980     0.00000100     0.00000021     0.00000212 0.00000000 VRAI 
CAM-JDA-US-IP_JDA-US-IP        2015.11.29.23.12.10     2.58510387    -4.19496298     6.54836953     0.00000133     0.00000000     0.00000103 0.00000000 VRAI 
CAM-JDA-US-HO_JDA-US-HO        2015.11.29.23.12.10     2.59433472    -4.13996410     6.94821620     0.00000563     0.00000000     0.00000153 0.00000000 VRAI 
CAM-JDA-USA-IP_JDA-USA-IP      2015.11.29.23.12.10    -2.59579241    -4.19503069     6.53994870     0.00000105     0.00000000     0.00000279 0.00000000 VRAI 
CAM-JDA-USA-HO_JDA-USA-HO      2015.11.29.23.12.10    -2.60435599    -4.13995612     6.94273579     0.00000435     0.00000021     0.00000426 0.00000000 VRAI 
CAM-JDC-US-IP_JDC-US-IP        2015.11.29.23.12.10     2.59912843    -4.19500971    -6.54800797     0.00000236     0.00000000     0.00000107 0.00000000 VRAI 
CAM-JDC-US-HO_JDC-US-HO        2015.11.29.23.12.10     2.60954714    -4.14002752    -6.93125892     0.00000436     0.00000000     0.00000312 0.00000000 VRAI 
CAM-JDC-USA-IP_JDC-USA-IP      2015.11.29.23.12.10    -2.60531700    -4.19509554    -6.54068184     0.00000119     0.00000000     0.00000169 0.00000000 VRAI 
CAM-JDC-USA-HO_JDC-USA-HO      2015.11.29.23.12.10    -2.59426975    -4.14012337    -6.92700911     0.00000468     0.00000000     0.00001077 0.00000000 VRAI 
CAM-ECTA-US-IP_ECTA-US-IP-T    2015.11.29.23.12.10     3.54112035     3.84863305     8.10630941     0.00114171     0.00001198     0.00050463 0.00000000 VRAI 
CAM-ECTA-US-IP_ECTA-US-IP      2015.11.29.23.12.10     3.52041036    -4.07060671     7.89824069     0.00000074     0.00000000     0.00000141 0.00000000 VRAI 
CAM-ECTA-US-HO_ECTA-US-HO-T    2015.11.29.23.12.10     3.87524092     3.64747524    12.93678236     0.00001653     0.00000041     0.00001980 0.00000000 VRAI 
CAM-ECTA-US-HO_ECTA-US-HO      2015.11.29.23.12.10     3.66434902    -3.92579436    12.88520575     0.00000281     0.00000000     0.00000107 0.00000000 VRAI 
CAM-ECTA-USA-IP_ECTA-USA-IP-T  2015.11.29.23.12.10    -3.68090987     3.84881353     7.89893544     0.00003634     0.00000083     0.00001180 0.00000000 VRAI 
CAM-ECTA-USA-IP_ECTA-USA-IP    2015.11.29.23.12.10    -3.53458273    -4.07043076     7.89198303     0.00000093     0.00000000     0.00000067 0.00000000 VRAI 
CAM-ECTA-USA-HO_ECTA-USA-HO-T  2015.11.29.23.12.10    -3.86188525     3.64768410    12.93652582     0.00002349     0.00000041     0.00000799 0.00000000 VRAI 
CAM-ECTA-USA-HO_ECTA-USA-HO    2015.11.29.23.12.10    -3.68521118    -3.92559099    12.88651443     0.00000213     0.00000000     0.00000439 0.00000000 VRAI 
