********** Fichier qui contient une sauvegarde des coordonnees images + coordonnees images transformees dans le repere BCAM (MOUNT) + coordonnees des prismes dans le repere MOUNT********** 
********************************************************************** Unite en metres (m)************************************************************************************************** 

*******************************************************************coordonnees images dans le repere CCD *********************************************************************************** 
20MABNDB000069_PR031
Spot 1     0.00028184     0.00140405
Spot 2     0.00035389     0.00140423
Spot 1     0.00028195     0.00140410
Spot 2     0.00035466     0.00140433
Spot 1     0.00028183     0.00140391
Spot 2     0.00035372     0.00140397
Spot 1     0.00028192     0.00140404
Spot 2     0.00035438     0.00140446
Spot 1     0.00028200     0.00140400
Spot 2     0.00035436     0.00140422
Spot 1     0.00028168     0.00140412
Spot 2     0.00035444     0.00140431
20MABNDB000069_PR033
Spot 1     0.00182013     0.00207358
Spot 2     0.00229075     0.00209362
Spot 1     0.00182003     0.00207355
Spot 2     0.00229072     0.00209375
Spot 1     0.00182005     0.00207366
Spot 2     0.00229091     0.00209357
Spot 1     0.00182003     0.00207357
Spot 2     0.00229094     0.00209371
Spot 1     0.00182001     0.00207367
Spot 2     0.00229071     0.00209387
Spot 1     0.00181996     0.00207375
Spot 2     0.00229084     0.00209371
20MABNDB000131_PR032
Spot 1     0.00277988     0.00107380
Spot 2     0.00284046     0.00107668
Spot 1     0.00277998     0.00107388
Spot 2     0.00284066     0.00107682
Spot 1     0.00277992     0.00107381
Spot 2     0.00284082     0.00107664
Spot 1     0.00278021     0.00107384
Spot 2     0.00284061     0.00107675
Spot 1     0.00278005     0.00107370
Spot 2     0.00284087     0.00107674
Spot 1     0.00277976     0.00107380
Spot 2     0.00284045     0.00107685
20MABNDB000131_PR034
Spot 1     0.00093227     0.00032577
Spot 2     0.00110885     0.00032534
Spot 1     0.00093232     0.00032564
Spot 2     0.00110885     0.00032553
Spot 1     0.00093234     0.00032570
Spot 2     0.00110890     0.00032549
Spot 1     0.00093215     0.00032563
Spot 2     0.00110891     0.00032540
Spot 1     0.00093226     0.00032566
Spot 2     0.00110887     0.00032552
Spot 1     0.00093218     0.00032563
Spot 2     0.00110886     0.00032553
20MABNDA000208_PR042
Spot 1     0.00304106     0.00095918
Spot 2     0.00296924     0.00096166
Spot 1     0.00304139     0.00095958
Spot 2     0.00296944     0.00096136
Spot 1     0.00304197     0.00095915
Spot 2     0.00296902     0.00096152
Spot 1     0.00304113     0.00095944
Spot 2     0.00296941     0.00096142
Spot 1     0.00304163     0.00095945
Spot 2     0.00296921     0.00096180
Spot 1     0.00304138     0.00095986
Spot 2     0.00296879     0.00096141
20MABNDA000208_PR046
Spot 1     0.00143818     0.00217930
Spot 2     0.00096730     0.00218290
Spot 1     0.00143813     0.00217935
Spot 2     0.00096734     0.00218289
Spot 1     0.00143817     0.00217938
Spot 2     0.00096724     0.00218295
Spot 1     0.00143810     0.00217929
Spot 2     0.00096730     0.00218295
Spot 1     0.00143807     0.00217933
Spot 2     0.00096744     0.00218276
Spot 1     0.00143815     0.00217935
Spot 2     0.00096733     0.00218282
20MABNDA000035_PR044
Spot 1     0.00074229     0.00125524
Spot 2     0.00068503     0.00124980
Spot 1     0.00074230     0.00125521
Spot 2     0.00068478     0.00124999
Spot 1     0.00074253     0.00125523
Spot 2     0.00068497     0.00125001
Spot 1     0.00074240     0.00125535
Spot 2     0.00068490     0.00124993
Spot 1     0.00074289     0.00125536
Spot 2     0.00068505     0.00125017
Spot 1     0.00074246     0.00125558
Spot 2     0.00068466     0.00124996
20MABNDA000035_PR045
Spot 1     0.00255321     0.00048282
Spot 2     0.00237648     0.00048125
Spot 1     0.00255344     0.00048297
Spot 2     0.00237640     0.00048126
Spot 1     0.00255334     0.00048286
Spot 2     0.00237653     0.00048130
Spot 1     0.00255336     0.00048283
Spot 2     0.00237652     0.00048128
Spot 1     0.00255339     0.00048277
Spot 2     0.00237646     0.00048133
Spot 1     0.00255336     0.00048287
Spot 2     0.00237644     0.00048127
20MABNDL000077_PR002
Spot 1     0.00079235     0.00149903
Spot 2     0.00095521     0.00149688
Spot 1     0.00079230     0.00149897
Spot 2     0.00095531     0.00149656
Spot 1     0.00079239     0.00149890
Spot 2     0.00095531     0.00149675
Spot 1     0.00079240     0.00149883
Spot 2     0.00095529     0.00149643
Spot 1     0.00079234     0.00149885
Spot 2     0.00095519     0.00149650
Spot 1     0.00079238     0.00149880
Spot 2     0.00095537     0.00149656
20MABNDL000077_PR003
Spot 1     0.00152359     0.00119056
Spot 2     0.00167410     0.00119206
Spot 1     0.00152357     0.00119042
Spot 2     0.00167420     0.00119195
Spot 1     0.00152346     0.00119059
Spot 2     0.00167425     0.00119202
Spot 1     0.00152344     0.00119048
Spot 2     0.00167414     0.00119204
Spot 1     0.00152347     0.00119065
Spot 2     0.00167407     0.00119192
Spot 1     0.00152355     0.00119007
Spot 2     0.00167428     0.00119219
20MABNDL000077_20MABNDM000168
Spot 1     0.00188301     0.00148872
Spot 2    -0.00000100    -0.00000100
Spot 1     0.00188300     0.00148855
Spot 2    -0.00000100    -0.00000100
Spot 1     0.00188334     0.00148855
Spot 2    -0.00000100    -0.00000100
Spot 1     0.00188299     0.00148864
Spot 2    -0.00000100    -0.00000100
Spot 1     0.00188295     0.00148854
Spot 2    -0.00000100    -0.00000100
Spot 1     0.00188298     0.00148856
Spot 2    -0.00000100    -0.00000100
20MABNDL000077_PR024
Spot 1     0.00272857     0.00172114
Spot 2    -0.00000100    -0.00000100
Spot 1     0.00272805     0.00172129
Spot 2    -0.00000100    -0.00000100
Spot 1     0.00272812     0.00172102
Spot 2    -0.00000100    -0.00000100
Spot 1     0.00272809     0.00172118
Spot 2    -0.00000100    -0.00000100
Spot 1     0.00272827     0.00172105
Spot 2    -0.00000100    -0.00000100
Spot 1     0.00272812     0.00172110
Spot 2    -0.00000100    -0.00000100
20MABNDM000020_PR013
Spot 1     0.00164404     0.00213756
Spot 2     0.00149146     0.00214627
Spot 1     0.00164409     0.00213728
Spot 2     0.00149164     0.00214614
Spot 1     0.00164437     0.00213717
Spot 2     0.00149101     0.00214680
Spot 1     0.00164389     0.00213690
Spot 2     0.00149119     0.00214546
Spot 1     0.00164347     0.00213757
Spot 2     0.00149113     0.00214660
Spot 1     0.00164430     0.00213677
Spot 2     0.00149137     0.00214599
20MABNDM000020_PR014
Spot 1     0.00268037     0.00227834
Spot 2     0.00251791     0.00228576
Spot 1     0.00268023     0.00227827
Spot 2     0.00251819     0.00228515
Spot 1     0.00268066     0.00227862
Spot 2     0.00251772     0.00228656
Spot 1     0.00268090     0.00227773
Spot 2     0.00251762     0.00228500
Spot 1     0.00268083     0.00227931
Spot 2     0.00251751     0.00228635
Spot 1     0.00268034     0.00227791
Spot 2     0.00251827     0.00228568
20MABNDM000020_20MABNDL000196
Spot 1     0.00200328     0.00057785
Spot 2     0.00112500     0.00001500
Spot 1     0.00200329     0.00057799
Spot 2     0.00112500     0.00001500
Spot 1     0.00200330     0.00057795
Spot 2     0.00112500     0.00001500
Spot 1     0.00200336     0.00057789
Spot 2     0.00112500     0.00001500
Spot 1     0.00200324     0.00057787
Spot 2     0.00112500     0.00001500
Spot 1     0.00200327     0.00057782
Spot 2     0.00112500     0.00001500
20MABNDM000020_PR035
Spot 1     0.00126724     0.00087516
Spot 2     0.00119997     0.00107130
Spot 1     0.00126728     0.00087512
Spot 2     0.00119999     0.00107130
Spot 1     0.00126730     0.00087502
Spot 2     0.00119993     0.00107143
Spot 1     0.00126732     0.00087490
Spot 2     0.00119994     0.00107130
Spot 1     0.00126721     0.00087505
Spot 2     0.00119993     0.00107090
Spot 1     0.00126717     0.00087496
Spot 2     0.00120002     0.00107022
20MABNDM000168_PR025
Spot 1     0.00102294     0.00130201
Spot 2     0.00117632     0.00130157
Spot 1     0.00102348     0.00136333
Spot 2     0.00117503     0.00135583
Spot 1     0.00102356     0.00136346
Spot 2     0.00117512     0.00135595
Spot 1     0.00102357     0.00136349
Spot 2     0.00117512     0.00135608
Spot 1     0.00102351     0.00136357
Spot 2     0.00117507     0.00135622
Spot 1     0.00102361     0.00136369
Spot 2     0.00117505     0.00135609
20MABNDM000168_PR026
Spot 1     0.00250873     0.00142110
Spot 2     0.00267007     0.00142421
Spot 1     0.00250935     0.00148367
Spot 2     0.00267028     0.00145312
Spot 1     0.00250935     0.00148351
Spot 2     0.00267030     0.00145318
Spot 1     0.00250941     0.00148370
Spot 2     0.00267033     0.00145331
Spot 1     0.00250937     0.00148358
Spot 2     0.00267032     0.00145321
Spot 1     0.00250936     0.00148357
Spot 2     0.00267035     0.00145332
20MABNDM000168_20MABNDL000077
Spot 1     0.00153853     0.00129570
Spot 2    -0.00000100    -0.00000100
Spot 1     0.00153849     0.00129589
Spot 2    -0.00000100    -0.00000100
Spot 1     0.00153843     0.00129586
Spot 2    -0.00000100    -0.00000100
Spot 1     0.00153846     0.00129589
Spot 2    -0.00000100    -0.00000100
Spot 1     0.00153844     0.00129588
Spot 2    -0.00000100    -0.00000100
Spot 1     0.00153842     0.00129586
Spot 2    -0.00000100    -0.00000100
20MABNDM000168_PR001
Spot 1     0.00070474     0.00162321
Spot 2    -0.00000100    -0.00000100
Spot 1     0.00070479     0.00162322
Spot 2     0.00080500     0.00162500
Spot 1     0.00070467     0.00162312
Spot 2     0.00080500     0.00162000
Spot 1     0.00070475     0.00162331
Spot 2     0.00080500     0.00162500
Spot 1     0.00070451     0.00162335
Spot 2     0.00080500     0.00162500
Spot 1     0.00070487     0.00162311
Spot 2    -0.00000100    -0.00000100
20MABNDL000196_PR036
Spot 1     0.00112217     0.00164551
Spot 2     0.00095768     0.00164739
Spot 1     0.00112220     0.00164573
Spot 2     0.00095722     0.00164778
Spot 1     0.00112235     0.00164567
Spot 2     0.00095765     0.00164735
Spot 1     0.00112218     0.00164563
Spot 2     0.00095746     0.00164717
Spot 1     0.00112226     0.00164577
Spot 2     0.00095750     0.00164765
Spot 1     0.00112203     0.00164573
Spot 2     0.00095762     0.00164731
20MABNDL000196_PR037
Spot 1     0.00263627     0.00117222
Spot 2     0.00248094     0.00117368
Spot 1     0.00263605     0.00117230
Spot 2     0.00248119     0.00117367
Spot 1     0.00263611     0.00117226
Spot 2     0.00248098     0.00117360
Spot 1     0.00263623     0.00117250
Spot 2     0.00248079     0.00117360
Spot 1     0.00263605     0.00117254
Spot 2     0.00248083     0.00117374
Spot 1     0.00263633     0.00117234
Spot 2     0.00248098     0.00117363
20MABNDL000196_20MABNDM000020
Spot 1     0.00172881     0.00102975
Spot 2     0.00195097     0.00102985
Spot 1     0.00172875     0.00102976
Spot 2     0.00195088     0.00103004
Spot 1     0.00172888     0.00102969
Spot 2     0.00195086     0.00102998
Spot 1     0.00172882     0.00102987
Spot 2     0.00195084     0.00103023
Spot 1     0.00172885     0.00103007
Spot 2     0.00195086     0.00103029
Spot 1     0.00172877     0.00102991
Spot 2     0.00195091     0.00103024
20MABNDL000196_PR012
Spot 1     0.00194500     0.00125167
Spot 2     0.00095000     0.00024000
Spot 1     0.00175250     0.00117750
Spot 2     0.00194750     0.00125250
Spot 1     0.00316250     0.00069500
Spot 2     0.00080500     0.00009500
Spot 1     0.00336500     0.00032500
Spot 2     0.00316500     0.00069500
Spot 1     0.00174900     0.00117500
Spot 2     0.00336500     0.00032500
Spot 1     0.00175500     0.00117786
Spot 2     0.00336500     0.00032500
20MABNDA000318_PR004
Spot 1     0.00215162     0.00162524
Spot 2     0.00193370     0.00162525
Spot 1     0.00215153     0.00162518
Spot 2     0.00193368     0.00162537
Spot 1     0.00215151     0.00162525
Spot 2     0.00193343     0.00162529
Spot 1     0.00215165     0.00162521
Spot 2     0.00193359     0.00162527
Spot 1     0.00215161     0.00162531
Spot 2     0.00193363     0.00162525
Spot 1     0.00215156     0.00162538
Spot 2     0.00193349     0.00162515
20MABNDA000334_PR005
Spot 1     0.00247854     0.00156934
Spot 2     0.00219805     0.00156982
Spot 1     0.00247849     0.00156946
Spot 2     0.00219804     0.00157000
Spot 1     0.00247845     0.00156940
Spot 2     0.00219789     0.00157000
Spot 1     0.00247840     0.00156938
Spot 2     0.00219806     0.00156989
Spot 1     0.00247844     0.00156938
Spot 2     0.00219794     0.00156972
Spot 1     0.00247850     0.00156943
Spot 2     0.00219799     0.00156981
20MABNDB000317_PR015
Spot 1     0.00149255     0.00160842
Spot 2     0.00171176     0.00160133
Spot 1     0.00149260     0.00160813
Spot 2     0.00171175     0.00160152
Spot 1     0.00149233     0.00160813
Spot 2     0.00171215     0.00160126
Spot 1     0.00149254     0.00160840
Spot 2     0.00171204     0.00160152
Spot 1     0.00149251     0.00160812
Spot 2     0.00171177     0.00160156
Spot 1     0.00149263     0.00160819
Spot 2     0.00171161     0.00160140
20MABNDB000146_PR016
Spot 1     0.00144817     0.00132937
Spot 2     0.00172343     0.00133149
Spot 1     0.00144812     0.00132952
Spot 2     0.00172361     0.00133142
Spot 1     0.00144828     0.00132944
Spot 2     0.00172338     0.00133149
Spot 1     0.00144813     0.00132933
Spot 2     0.00172353     0.00133144
Spot 1     0.00144828     0.00132950
Spot 2     0.00172329     0.00133163
Spot 1     0.00144831     0.00132944
Spot 2     0.00172355     0.00133140
20MABNDB000135_PR027
Spot 1     0.00189031     0.00092137
Spot 2     0.00210892     0.00092378
Spot 1     0.00189021     0.00092127
Spot 2     0.00210905     0.00092382
Spot 1     0.00189021     0.00092138
Spot 2     0.00210883     0.00092372
Spot 1     0.00189027     0.00092125
Spot 2     0.00210895     0.00092366
Spot 1     0.00189024     0.00092127
Spot 2     0.00210877     0.00092366
Spot 1     0.00189014     0.00092131
Spot 2     0.00210889     0.00092391
20MABNDB000126_PR028
Spot 1     0.00164994     0.00200198
Spot 2     0.00193199     0.00200425
Spot 1     0.00164976     0.00200225
Spot 2     0.00193202     0.00200432
Spot 1     0.00164987     0.00200215
Spot 2     0.00193227     0.00200425
Spot 1     0.00164987     0.00200203
Spot 2     0.00193206     0.00200418
Spot 1     0.00164984     0.00200211
Spot 2     0.00193217     0.00200437
Spot 1     0.00164994     0.00200219
Spot 2     0.00193222     0.00200427
20MABNDA000272_PR038
Spot 1     0.00192657     0.00096956
Spot 2     0.00170364     0.00096852
Spot 1     0.00192677     0.00096940
Spot 2     0.00170390     0.00096858
Spot 1     0.00192670     0.00096941
Spot 2     0.00170376     0.00096843
Spot 1     0.00192694     0.00096940
Spot 2     0.00170384     0.00096843
Spot 1     0.00192684     0.00096944
Spot 2     0.00170360     0.00096854
Spot 1     0.00192668     0.00096944
Spot 2     0.00170367     0.00096870
20MABNDA000003_PR039
Spot 1     0.00200967     0.00193017
Spot 2     0.00228707     0.00193002
Spot 1     0.00200975     0.00193013
Spot 2     0.00228716     0.00192989
Spot 1     0.00200967     0.00193013
Spot 2     0.00228713     0.00193002
Spot 1     0.00200972     0.00193015
Spot 2     0.00228708     0.00193012
Spot 1     0.00200969     0.00193013
Spot 2     0.00228707     0.00192991
Spot 1     0.00200980     0.00193014
Spot 2     0.00228713     0.00193004
20MABNDA000196_PR006
Spot 1     0.00197449     0.00075141
Spot 2     0.00160567     0.00074790
Spot 1     0.00197448     0.00075138
Spot 2     0.00160572     0.00074784
Spot 1     0.00197467     0.00075136
Spot 2     0.00160563     0.00074797
Spot 1     0.00197450     0.00075137
Spot 2     0.00160545     0.00074796
Spot 1     0.00197463     0.00075142
Spot 2     0.00160560     0.00074789
Spot 1     0.00197446     0.00075134
Spot 2     0.00160551     0.00074781
20MABNDA000324_PR007
Spot 1     0.00195542     0.00120787
Spot 2     0.00174946     0.00121342
Spot 1     0.00195552     0.00120793
Spot 2     0.00174938     0.00121326
Spot 1     0.00195532     0.00120797
Spot 2     0.00174947     0.00121326
Spot 1     0.00195552     0.00120796
Spot 2     0.00174935     0.00121306
Spot 1     0.00195536     0.00120800
Spot 2     0.00174944     0.00121331
Spot 1     0.00195542     0.00120804
Spot 2     0.00174947     0.00121321
20MABNDB000001_PR017
Spot 1     0.00188185     0.00047550
Spot 2     0.00225167     0.00048509
Spot 1     0.00188203     0.00047570
Spot 2     0.00225202     0.00048475
Spot 1     0.00188207     0.00047554
Spot 2     0.00225202     0.00048482
Spot 1     0.00188190     0.00047554
Spot 2     0.00225167     0.00048473
Spot 1     0.00188196     0.00047563
Spot 2     0.00225178     0.00048483
Spot 1     0.00188195     0.00047569
Spot 2     0.00225209     0.00048491
20MABNDB000260_PR019
Spot 1     0.00192218     0.00149034
Spot 2     0.00212620     0.00149054
Spot 1     0.00192212     0.00149055
Spot 2     0.00212578     0.00149084
Spot 1     0.00192200     0.00149039
Spot 2     0.00212596     0.00149139
Spot 1     0.00192207     0.00149050
Spot 2     0.00212598     0.00149073
Spot 1     0.00192227     0.00149033
Spot 2     0.00212592     0.00149066
Spot 1     0.00192204     0.00149046
Spot 2     0.00212598     0.00149098
20MABNDB000212_PR029
Spot 1     0.00223891     0.00072684
Spot 2     0.00187199     0.00072721
Spot 1     0.00223911     0.00072665
Spot 2     0.00187211     0.00072707
Spot 1     0.00223901     0.00072683
Spot 2     0.00187198     0.00072709
Spot 1     0.00223905     0.00072690
Spot 2     0.00187212     0.00072705
Spot 1     0.00223900     0.00072679
Spot 2     0.00187219     0.00072719
Spot 1     0.00223901     0.00072689
Spot 2     0.00187206     0.00072699
20MABNDB000128_PR030
Spot 1     0.00190095     0.00200214
Spot 2     0.00210532     0.00199662
Spot 1     0.00190102     0.00200205
Spot 2     0.00210545     0.00199667
Spot 1     0.00190096     0.00200200
Spot 2     0.00210528     0.00199651
Spot 1     0.00190086     0.00200203
Spot 2     0.00210520     0.00199647
Spot 1     0.00190100     0.00200212
Spot 2     0.00210553     0.00199643
Spot 1     0.00190089     0.00200211
Spot 2     0.00210536     0.00199666
20MABNDA000444_PR040
Spot 1     0.00074764     0.00037988
Spot 2     0.00111434     0.00037583
Spot 1     0.00074760     0.00038004
Spot 2     0.00111448     0.00037587
Spot 1     0.00074759     0.00038006
Spot 2     0.00111458     0.00037592
Spot 1     0.00074758     0.00038000
Spot 2     0.00111466     0.00037602
Spot 1     0.00074756     0.00038000
Spot 2     0.00111466     0.00037578
Spot 1     0.00074741     0.00037997
Spot 2     0.00111468     0.00037585
20MABNDA000053_PR041
Spot 1     0.00166136     0.00198654
Spot 2     0.00145792     0.00198294
Spot 1     0.00166149     0.00198630
Spot 2     0.00145782     0.00198289
Spot 1     0.00166132     0.00198640
Spot 2     0.00145778     0.00198291
Spot 1     0.00166145     0.00198657
Spot 2     0.00145780     0.00198297
Spot 1     0.00166149     0.00198651
Spot 2     0.00145799     0.00198291
Spot 1     0.00166127     0.00198648
Spot 2     0.00145782     0.00198280
20MABNDA000188_PR008
Spot 1     0.00283500     0.00012500
Spot 2     0.00283500     0.00012500
Spot 1     0.00283500     0.00012500
Spot 2     0.00283500     0.00012500
Spot 1     0.00279500     0.00010500
Spot 2     0.00276500     0.00112500
Spot 1     0.00283500     0.00012500
Spot 2     0.00342500     0.00176500
Spot 1     0.00300500     0.00044500
Spot 2     0.00276500     0.00112500
Spot 1     0.00313500     0.00066500
Spot 2     0.00283500     0.00012500
20MABNDA000188_PR018
Spot 1     0.00166560     0.00169696
Spot 2     0.00119823     0.00169426
Spot 1     0.00166538     0.00169681
Spot 2     0.00119816     0.00169417
Spot 1     0.00166539     0.00169686
Spot 2     0.00119826     0.00169446
Spot 1     0.00166543     0.00169692
Spot 2     0.00119821     0.00169429
Spot 1     0.00166564     0.00169691
Spot 2     0.00119813     0.00169430
Spot 1     0.00166543     0.00169717
Spot 2     0.00119814     0.00169434
20MABNDA000039_PR009
Spot 1     0.00066429     0.00117983
Spot 2     0.00061564     0.00118455
Spot 1     0.00066382     0.00117997
Spot 2     0.00061555     0.00118451
Spot 1     0.00066402     0.00118000
Spot 2     0.00061533     0.00118443
Spot 1     0.00066440     0.00117977
Spot 2     0.00061557     0.00118447
Spot 1     0.00066410     0.00118044
Spot 2     0.00061580     0.00118462
Spot 1     0.00066401     0.00118004
Spot 2     0.00061567     0.00118458
20MABNDA000039_PR011
Spot 1     0.00276552     0.00030296
Spot 2     0.00259000     0.00029782
Spot 1     0.00276547     0.00030300
Spot 2     0.00258999     0.00029787
Spot 1     0.00276553     0.00030308
Spot 2     0.00259001     0.00029795
Spot 1     0.00276563     0.00030294
Spot 2     0.00258999     0.00029797
Spot 1     0.00276562     0.00030298
Spot 2     0.00259009     0.00029785
Spot 1     0.00276560     0.00030298
Spot 2     0.00259001     0.00029787
20MABNDB000155_PR020
Spot 1     0.00061770     0.00112095
Spot 2     0.00068435     0.00111776
Spot 1     0.00061738     0.00112083
Spot 2     0.00068409     0.00111675
Spot 1     0.00061816     0.00112075
Spot 2     0.00068477     0.00111683
Spot 1     0.00061734     0.00112126
Spot 2     0.00068462     0.00111704
Spot 1     0.00061777     0.00112082
Spot 2     0.00068482     0.00111682
Spot 1     0.00061780     0.00112067
Spot 2     0.00068469     0.00111711
20MABNDB000155_PR022
Spot 1     0.00209797     0.00131067
Spot 2     0.00257102     0.00130649
Spot 1     0.00209805     0.00131057
Spot 2     0.00257113     0.00130662
Spot 1     0.00209800     0.00131063
Spot 2     0.00257099     0.00130667
Spot 1     0.00209804     0.00131078
Spot 2     0.00257101     0.00130668
Spot 1     0.00209800     0.00131063
Spot 2     0.00257099     0.00130648
Spot 1     0.00209809     0.00131069
Spot 2     0.00257107     0.00130656
20MABNDB000010_PR021
Spot 1     0.00286831     0.00116014
Spot 2     0.00292352     0.00116336
Spot 1     0.00286848     0.00116034
Spot 2     0.00292359     0.00116336
Spot 1     0.00286857     0.00116065
Spot 2     0.00292372     0.00116316
Spot 1     0.00286875     0.00116024
Spot 2     0.00292353     0.00116314
Spot 1     0.00286857     0.00116031
Spot 2     0.00292352     0.00116323
Spot 1     0.00286828     0.00116042
Spot 2     0.00292345     0.00116345
20MABNDB000010_PR023
Spot 1     0.00130970     0.00034669
Spot 2     0.00148489     0.00034557
Spot 1     0.00130970     0.00034678
Spot 2     0.00148485     0.00034546
Spot 1     0.00130979     0.00034690
Spot 2     0.00148492     0.00034544
Spot 1     0.00130979     0.00034675
Spot 2     0.00148469     0.00034570
Spot 1     0.00130969     0.00034677
Spot 2     0.00148470     0.00034566
Spot 1     0.00130973     0.00034683
Spot 2     0.00148488     0.00034546


****************************************************************coordonnees images transformees dans le repere MOUNT************************************************************************* 
20MABNDB000069_PR031
Spot 1    -0.01359445    -0.01286352    -0.07388500
Spot 2    -0.01352245    -0.01286631    -0.07388500
Spot 1    -0.01359434    -0.01286347    -0.07388500
Spot 2    -0.01352168    -0.01286625    -0.07388500
Spot 1    -0.01359447    -0.01286366    -0.07388500
Spot 2    -0.01352264    -0.01286657    -0.07388500
Spot 1    -0.01359437    -0.01286353    -0.07388500
Spot 2    -0.01352196    -0.01286610    -0.07388500
Spot 1    -0.01359429    -0.01286358    -0.07388500
Spot 2    -0.01352199    -0.01286634    -0.07388500
Spot 1    -0.01359461    -0.01286344    -0.07388500
Spot 2    -0.01352190    -0.01286626    -0.07388500
20MABNDB000069_PR033
Spot 1    -0.01202984    -0.01225804    -0.07388500
Spot 2    -0.01155880    -0.01225744    -0.07388500
Spot 1    -0.01202994    -0.01225807    -0.07388500
Spot 2    -0.01155882    -0.01225731    -0.07388500
Spot 1    -0.01202992    -0.01225796    -0.07388500
Spot 2    -0.01155864    -0.01225750    -0.07388500
Spot 1    -0.01202994    -0.01225805    -0.07388500
Spot 2    -0.01155860    -0.01225736    -0.07388500
Spot 1    -0.01202996    -0.01225795    -0.07388500
Spot 2    -0.01155883    -0.01225719    -0.07388500
Spot 1    -0.01203000    -0.01225786    -0.07388500
Spot 2    -0.01155870    -0.01225735    -0.07388500
20MABNDB000131_PR032
Spot 1    -0.01144025    -0.01304094    -0.07533000
Spot 2    -0.01137969    -0.01303775    -0.07533000
Spot 1    -0.01144015    -0.01304086    -0.07533000
Spot 2    -0.01137949    -0.01303761    -0.07533000
Spot 1    -0.01144021    -0.01304093    -0.07533000
Spot 2    -0.01137933    -0.01303779    -0.07533000
Spot 1    -0.01143992    -0.01304090    -0.07533000
Spot 2    -0.01137954    -0.01303768    -0.07533000
Spot 1    -0.01144008    -0.01304104    -0.07533000
Spot 2    -0.01137928    -0.01303769    -0.07533000
Spot 1    -0.01144037    -0.01304094    -0.07533000
Spot 2    -0.01137970    -0.01303758    -0.07533000
20MABNDB000131_PR034
Spot 1    -0.01328407    -0.01379826    -0.07533000
Spot 2    -0.01310749    -0.01379780    -0.07533000
Spot 1    -0.01328402    -0.01379839    -0.07533000
Spot 2    -0.01310749    -0.01379761    -0.07533000
Spot 1    -0.01328400    -0.01379833    -0.07533000
Spot 2    -0.01310744    -0.01379765    -0.07533000
Spot 1    -0.01328419    -0.01379840    -0.07533000
Spot 2    -0.01310743    -0.01379774    -0.07533000
Spot 1    -0.01328408    -0.01379837    -0.07533000
Spot 2    -0.01310747    -0.01379762    -0.07533000
Spot 1    -0.01328416    -0.01379840    -0.07533000
Spot 2    -0.01310748    -0.01379761    -0.07533000
20MABNDA000208_PR042
Spot 1    -0.01391177     0.01303685    -0.07273700
Spot 2    -0.01383995     0.01303444    -0.07273700
Spot 1    -0.01391210     0.01303645    -0.07273700
Spot 2    -0.01384015     0.01303474    -0.07273700
Spot 1    -0.01391268     0.01303688    -0.07273700
Spot 2    -0.01383973     0.01303458    -0.07273700
Spot 1    -0.01391184     0.01303659    -0.07273700
Spot 2    -0.01384012     0.01303468    -0.07273700
Spot 1    -0.01391234     0.01303658    -0.07273700
Spot 2    -0.01383992     0.01303430    -0.07273700
Spot 1    -0.01391209     0.01303617    -0.07273700
Spot 2    -0.01383950     0.01303469    -0.07273700
20MABNDA000208_PR046
Spot 1    -0.01230782     0.01181814    -0.07273700
Spot 2    -0.01183694     0.01181495    -0.07273700
Spot 1    -0.01230777     0.01181809    -0.07273700
Spot 2    -0.01183698     0.01181496    -0.07273700
Spot 1    -0.01230781     0.01181806    -0.07273700
Spot 2    -0.01183688     0.01181490    -0.07273700
Spot 1    -0.01230774     0.01181815    -0.07273700
Spot 2    -0.01183694     0.01181490    -0.07273700
Spot 1    -0.01230771     0.01181811    -0.07273700
Spot 2    -0.01183708     0.01181509    -0.07273700
Spot 1    -0.01230779     0.01181809    -0.07273700
Spot 2    -0.01183697     0.01181503    -0.07273700
20MABNDA000035_PR044
Spot 1    -0.01157692     0.01300204    -0.07483200
Spot 2    -0.01151963     0.01300707    -0.07483200
Spot 1    -0.01157693     0.01300207    -0.07483200
Spot 2    -0.01151938     0.01300688    -0.07483200
Spot 1    -0.01157716     0.01300205    -0.07483200
Spot 2    -0.01151957     0.01300686    -0.07483200
Spot 1    -0.01157704     0.01300193    -0.07483200
Spot 2    -0.01151950     0.01300694    -0.07483200
Spot 1    -0.01157753     0.01300192    -0.07483200
Spot 2    -0.01151965     0.01300670    -0.07483200
Spot 1    -0.01157710     0.01300170    -0.07483200
Spot 2    -0.01151926     0.01300691    -0.07483200
20MABNDA000035_PR045
Spot 1    -0.01338230     0.01378732    -0.07483200
Spot 2    -0.01320557     0.01378763    -0.07483200
Spot 1    -0.01338254     0.01378717    -0.07483200
Spot 2    -0.01320549     0.01378762    -0.07483200
Spot 1    -0.01338243     0.01378728    -0.07483200
Spot 2    -0.01320562     0.01378758    -0.07483200
Spot 1    -0.01338245     0.01378731    -0.07483200
Spot 2    -0.01320561     0.01378760    -0.07483200
Spot 1    -0.01338248     0.01378737    -0.07483200
Spot 2    -0.01320555     0.01378755    -0.07483200
Spot 1    -0.01338245     0.01378727    -0.07483200
Spot 2    -0.01320553     0.01378761    -0.07483200
20MABNDL000077_PR002
Spot 1     0.01186266     0.03557452    -0.07463200
Spot 2     0.01202550     0.03557081    -0.07463200
Spot 1     0.01186261     0.03557446    -0.07463200
Spot 2     0.01202559     0.03557048    -0.07463200
Spot 1     0.01186270     0.03557439    -0.07463200
Spot 2     0.01202560     0.03557067    -0.07463200
Spot 1     0.01186271     0.03557432    -0.07463200
Spot 2     0.01202557     0.03557035    -0.07463200
Spot 1     0.01186265     0.03557434    -0.07463200
Spot 2     0.01202547     0.03557043    -0.07463200
Spot 1     0.01186269     0.03557429    -0.07463200
Spot 2     0.01202565     0.03557048    -0.07463200
20MABNDL000077_PR003
Spot 1     0.01259090     0.03525903    -0.07463200
Spot 2     0.01274142     0.03525908    -0.07463200
Spot 1     0.01259088     0.03525889    -0.07463200
Spot 2     0.01274152     0.03525897    -0.07463200
Spot 1     0.01259077     0.03525906    -0.07463200
Spot 2     0.01274157     0.03525904    -0.07463200
Spot 1     0.01259075     0.03525895    -0.07463200
Spot 2     0.01274146     0.03525906    -0.07463200
Spot 1     0.01259078     0.03525912    -0.07463200
Spot 2     0.01274139     0.03525894    -0.07463200
Spot 1     0.01259086     0.03525854    -0.07463200
Spot 2     0.01274160     0.03525921    -0.07463200
20MABNDL000077_20MABNDM000168
Spot 1    -0.01272126     0.03555040    -0.00695400
Spot 2    -0.01082210     0.03408004    -0.00695400
Spot 1    -0.01272125     0.03555023    -0.00695400
Spot 2    -0.01082210     0.03408004    -0.00695400
Spot 1    -0.01272159     0.03555023    -0.00695400
Spot 2    -0.01082210     0.03408004    -0.00695400
Spot 1    -0.01272124     0.03555032    -0.00695400
Spot 2    -0.01082210     0.03408004    -0.00695400
Spot 1    -0.01272120     0.03555022    -0.00695400
Spot 2    -0.01082210     0.03408004    -0.00695400
Spot 1    -0.01272123     0.03555024    -0.00695400
Spot 2    -0.01082210     0.03408004    -0.00695400
20MABNDL000077_PR024
Spot 1    -0.01356916     0.03577415    -0.00695400
Spot 2    -0.01082210     0.03408004    -0.00695400
Spot 1    -0.01356864     0.03577431    -0.00695400
Spot 2    -0.01082210     0.03408004    -0.00695400
Spot 1    -0.01356871     0.03577404    -0.00695400
Spot 2    -0.01082210     0.03408004    -0.00695400
Spot 1    -0.01356868     0.03577420    -0.00695400
Spot 2    -0.01082210     0.03408004    -0.00695400
Spot 1    -0.01356886     0.03577407    -0.00695400
Spot 2    -0.01082210     0.03408004    -0.00695400
Spot 1    -0.01356871     0.03577412    -0.00695400
Spot 2    -0.01082210     0.03408004    -0.00695400
20MABNDM000020_PR013
Spot 1    -0.01270140    -0.03609572    -0.00523500
Spot 2    -0.01285375    -0.03610780    -0.00523500
Spot 1    -0.01270136    -0.03609544    -0.00523500
Spot 2    -0.01285358    -0.03610767    -0.00523500
Spot 1    -0.01270108    -0.03609532    -0.00523500
Spot 2    -0.01285419    -0.03610834    -0.00523500
Spot 1    -0.01270157    -0.03609506    -0.00523500
Spot 2    -0.01285404    -0.03610700    -0.00523500
Spot 1    -0.01270197    -0.03609574    -0.00523500
Spot 2    -0.01285408    -0.03610814    -0.00523500
Spot 1    -0.01270116    -0.03609492    -0.00523500
Spot 2    -0.01285385    -0.03610752    -0.00523500
20MABNDM000020_PR014
Spot 1    -0.01166221    -0.03621355    -0.00523500
Spot 2    -0.01182447    -0.03622456    -0.00523500
Spot 1    -0.01166235    -0.03621348    -0.00523500
Spot 2    -0.01182420    -0.03622394    -0.00523500
Spot 1    -0.01166192    -0.03621382    -0.00523500
Spot 2    -0.01182464    -0.03622536    -0.00523500
Spot 1    -0.01166170    -0.03621293    -0.00523500
Spot 2    -0.01182478    -0.03622380    -0.00523500
Spot 1    -0.01166173    -0.03621451    -0.00523500
Spot 2    -0.01182486    -0.03622516    -0.00523500
Spot 1    -0.01166225    -0.03621312    -0.00523500
Spot 2    -0.01182411    -0.03622447    -0.00523500
20MABNDM000020_20MABNDL000196
Spot 1     0.01268291    -0.03454642    -0.07583800
Spot 2     0.01356112    -0.03398345    -0.07583800
Spot 1     0.01268290    -0.03454656    -0.07583800
Spot 2     0.01356112    -0.03398345    -0.07583800
Spot 1     0.01268289    -0.03454652    -0.07583800
Spot 2     0.01356112    -0.03398345    -0.07583800
Spot 1     0.01268283    -0.03454646    -0.07583800
Spot 2     0.01356112    -0.03398345    -0.07583800
Spot 1     0.01268295    -0.03454644    -0.07583800
Spot 2     0.01356112    -0.03398345    -0.07583800
Spot 1     0.01268292    -0.03454639    -0.07583800
Spot 2     0.01356112    -0.03398345    -0.07583800
20MABNDM000020_PR035
Spot 1     0.01341900    -0.03484362    -0.07583800
Spot 2     0.01348629    -0.03503976    -0.07583800
Spot 1     0.01341896    -0.03484359    -0.07583800
Spot 2     0.01348627    -0.03503976    -0.07583800
Spot 1     0.01341894    -0.03484349    -0.07583800
Spot 2     0.01348633    -0.03503989    -0.07583800
Spot 1     0.01341892    -0.03484337    -0.07583800
Spot 2     0.01348632    -0.03503976    -0.07583800
Spot 1     0.01341903    -0.03484351    -0.07583800
Spot 2     0.01348633    -0.03503936    -0.07583800
Spot 1     0.01341907    -0.03484342    -0.07583800
Spot 2     0.01348624    -0.03503868    -0.07583800
20MABNDM000168_PR025
Spot 1    -0.01337993    -0.03563985    -0.00532900
Spot 2    -0.01322655    -0.03563876    -0.00532900
Spot 1    -0.01337912    -0.03570117    -0.00532900
Spot 2    -0.01322761    -0.03569302    -0.00532900
Spot 1    -0.01337904    -0.03570130    -0.00532900
Spot 2    -0.01322752    -0.03569314    -0.00532900
Spot 1    -0.01337903    -0.03570133    -0.00532900
Spot 2    -0.01322752    -0.03569327    -0.00532900
Spot 1    -0.01337909    -0.03570141    -0.00532900
Spot 2    -0.01322756    -0.03569341    -0.00532900
Spot 1    -0.01337899    -0.03570153    -0.00532900
Spot 2    -0.01322759    -0.03569328    -0.00532900
20MABNDM000168_PR026
Spot 1    -0.01189364    -0.03575256    -0.00532900
Spot 2    -0.01173229    -0.03575498    -0.00532900
Spot 1    -0.01189275    -0.03581513    -0.00532900
Spot 2    -0.01173195    -0.03578389    -0.00532900
Spot 1    -0.01189275    -0.03581497    -0.00532900
Spot 2    -0.01173193    -0.03578395    -0.00532900
Spot 1    -0.01189269    -0.03581516    -0.00532900
Spot 2    -0.01173190    -0.03578408    -0.00532900
Spot 1    -0.01189273    -0.03581504    -0.00532900
Spot 2    -0.01173191    -0.03578398    -0.00532900
Spot 1    -0.01189274    -0.03581503    -0.00532900
Spot 2    -0.01173188    -0.03578409    -0.00532900
20MABNDM000168_20MABNDL000077
Spot 1     0.01288700    -0.03529638    -0.07445100
Spot 2     0.01444533    -0.03402234    -0.07445100
Spot 1     0.01288703    -0.03529657    -0.07445100
Spot 2     0.01444533    -0.03402234    -0.07445100
Spot 1     0.01288709    -0.03529654    -0.07445100
Spot 2     0.01444533    -0.03402234    -0.07445100
Spot 1     0.01288706    -0.03529657    -0.07445100
Spot 2     0.01444533    -0.03402234    -0.07445100
Spot 1     0.01288708    -0.03529656    -0.07445100
Spot 2     0.01444533    -0.03402234    -0.07445100
Spot 1     0.01288710    -0.03529654    -0.07445100
Spot 2     0.01444533    -0.03402234    -0.07445100
20MABNDM000168_PR001
Spot 1     0.01371590    -0.03563605    -0.07445100
Spot 2     0.01444533    -0.03402234    -0.07445100
Spot 1     0.01371585    -0.03563606    -0.07445100
Spot 2     0.01361563    -0.03563637    -0.07445100
Spot 1     0.01371598    -0.03563596    -0.07445100
Spot 2     0.01361570    -0.03563137    -0.07445100
Spot 1     0.01371589    -0.03563615    -0.07445100
Spot 2     0.01361563    -0.03563637    -0.07445100
Spot 1     0.01371613    -0.03563619    -0.07445100
Spot 2     0.01361563    -0.03563637    -0.07445100
Spot 1     0.01371578    -0.03563595    -0.07445100
Spot 2     0.01444533    -0.03402234    -0.07445100
20MABNDL000196_PR036
Spot 1     0.01210208     0.03583457    -0.07483600
Spot 2     0.01193759     0.03583611    -0.07483600
Spot 1     0.01210211     0.03583479    -0.07483600
Spot 2     0.01193713     0.03583650    -0.07483600
Spot 1     0.01210226     0.03583473    -0.07483600
Spot 2     0.01193756     0.03583607    -0.07483600
Spot 1     0.01210209     0.03583469    -0.07483600
Spot 2     0.01193737     0.03583589    -0.07483600
Spot 1     0.01210217     0.03583483    -0.07483600
Spot 2     0.01193741     0.03583637    -0.07483600
Spot 1     0.01210194     0.03583479    -0.07483600
Spot 2     0.01193753     0.03583603    -0.07483600
20MABNDL000196_PR037
Spot 1     0.01361717     0.03536444    -0.07483600
Spot 2     0.01346183     0.03536558    -0.07483600
Spot 1     0.01361695     0.03536452    -0.07483600
Spot 2     0.01346208     0.03536557    -0.07483600
Spot 1     0.01361701     0.03536448    -0.07483600
Spot 2     0.01346187     0.03536550    -0.07483600
Spot 1     0.01361713     0.03536472    -0.07483600
Spot 2     0.01346168     0.03536550    -0.07483600
Spot 1     0.01361695     0.03536476    -0.07483600
Spot 2     0.01346172     0.03536564    -0.07483600
Spot 1     0.01361723     0.03536456    -0.07483600
Spot 2     0.01346187     0.03536553    -0.07483600
20MABNDL000196_20MABNDM000020
Spot 1    -0.01255266     0.03530492    -0.00611000
Spot 2    -0.01277478     0.03530055    -0.00611000
Spot 1    -0.01255260     0.03530493    -0.00611000
Spot 2    -0.01277469     0.03530074    -0.00611000
Spot 1    -0.01255273     0.03530486    -0.00611000
Spot 2    -0.01277467     0.03530068    -0.00611000
Spot 1    -0.01255268     0.03530504    -0.00611000
Spot 2    -0.01277466     0.03530093    -0.00611000
Spot 1    -0.01255271     0.03530524    -0.00611000
Spot 2    -0.01277468     0.03530099    -0.00611000
Spot 1    -0.01255263     0.03530508    -0.00611000
Spot 2    -0.01277473     0.03530094    -0.00611000
20MABNDL000196_PR012
Spot 1    -0.01277327     0.03552245    -0.00611000
Spot 2    -0.01175812     0.03453100    -0.00611000
Spot 1    -0.01257932     0.03545216    -0.00611000
Spot 2    -0.01277579     0.03552323    -0.00611000
Spot 1    -0.01397933     0.03494139    -0.00611000
Spot 2    -0.01161023     0.03438895    -0.00611000
Spot 1    -0.01417434     0.03456739    -0.00611000
Spot 2    -0.01398183     0.03494134    -0.00611000
Spot 1    -0.01257577     0.03544973    -0.00611000
Spot 2    -0.01417434     0.03456739    -0.00611000
Spot 1    -0.01258183     0.03545247    -0.00611000
Spot 2    -0.01417434     0.03456739    -0.00611000
20MABNDA000318_PR004
Spot 1    -0.01287144     0.01246998    -0.07310600
Spot 2    -0.01265352     0.01247061    -0.07310600
Spot 1    -0.01287135     0.01247004    -0.07310600
Spot 2    -0.01265350     0.01247049    -0.07310600
Spot 1    -0.01287133     0.01246997    -0.07310600
Spot 2    -0.01265325     0.01247057    -0.07310600
Spot 1    -0.01287147     0.01247001    -0.07310600
Spot 2    -0.01265341     0.01247059    -0.07310600
Spot 1    -0.01287143     0.01246991    -0.07310600
Spot 2    -0.01265345     0.01247061    -0.07310600
Spot 1    -0.01287138     0.01246984    -0.07310600
Spot 2    -0.01265331     0.01247071    -0.07310600
20MABNDA000334_PR005
Spot 1    -0.01312164     0.01255906    -0.07324100
Spot 2    -0.01284115     0.01255831    -0.07324100
Spot 1    -0.01312159     0.01255894    -0.07324100
Spot 2    -0.01284114     0.01255813    -0.07324100
Spot 1    -0.01312155     0.01255900    -0.07324100
Spot 2    -0.01284099     0.01255813    -0.07324100
Spot 1    -0.01312150     0.01255902    -0.07324100
Spot 2    -0.01284116     0.01255824    -0.07324100
Spot 1    -0.01312154     0.01255902    -0.07324100
Spot 2    -0.01284104     0.01255841    -0.07324100
Spot 1    -0.01312160     0.01255897    -0.07324100
Spot 2    -0.01284109     0.01255832    -0.07324100
20MABNDB000317_PR015
Spot 1    -0.01266184    -0.01248957    -0.07326100
Spot 2    -0.01244256    -0.01249411    -0.07326100
Spot 1    -0.01266179    -0.01248986    -0.07326100
Spot 2    -0.01244257    -0.01249392    -0.07326100
Spot 1    -0.01266206    -0.01248986    -0.07326100
Spot 2    -0.01244217    -0.01249417    -0.07326100
Spot 1    -0.01266185    -0.01248959    -0.07326100
Spot 2    -0.01244228    -0.01249391    -0.07326100
Spot 1    -0.01266188    -0.01248987    -0.07326100
Spot 2    -0.01244255    -0.01249388    -0.07326100
Spot 1    -0.01266176    -0.01248980    -0.07326100
Spot 2    -0.01244271    -0.01249404    -0.07326100
20MABNDB000146_PR016
Spot 1    -0.01276018    -0.01246423    -0.07450500
Spot 2    -0.01248493    -0.01246150    -0.07450500
Spot 1    -0.01276023    -0.01246408    -0.07450500
Spot 2    -0.01248475    -0.01246157    -0.07450500
Spot 1    -0.01276007    -0.01246416    -0.07450500
Spot 2    -0.01248498    -0.01246150    -0.07450500
Spot 1    -0.01276022    -0.01246427    -0.07450500
Spot 2    -0.01248483    -0.01246155    -0.07450500
Spot 1    -0.01276007    -0.01246410    -0.07450500
Spot 2    -0.01248507    -0.01246136    -0.07450500
Spot 1    -0.01276004    -0.01246416    -0.07450500
Spot 2    -0.01248481    -0.01246159    -0.07450500
20MABNDB000135_PR027
Spot 1    -0.01251430    -0.01319164    -0.07464700
Spot 2    -0.01229568    -0.01319167    -0.07464700
Spot 1    -0.01251440    -0.01319174    -0.07464700
Spot 2    -0.01229555    -0.01319163    -0.07464700
Spot 1    -0.01251440    -0.01319163    -0.07464700
Spot 2    -0.01229577    -0.01319173    -0.07464700
Spot 1    -0.01251434    -0.01319176    -0.07464700
Spot 2    -0.01229565    -0.01319179    -0.07464700
Spot 1    -0.01251437    -0.01319174    -0.07464700
Spot 2    -0.01229583    -0.01319179    -0.07464700
Spot 1    -0.01251447    -0.01319170    -0.07464700
Spot 2    -0.01229571    -0.01319154    -0.07464700
20MABNDB000126_PR028
Spot 1    -0.01252956    -0.01218016    -0.07500400
Spot 2    -0.01224752    -0.01217639    -0.07500400
Spot 1    -0.01252974    -0.01217989    -0.07500400
Spot 2    -0.01224749    -0.01217632    -0.07500400
Spot 1    -0.01252963    -0.01217999    -0.07500400
Spot 2    -0.01224724    -0.01217639    -0.07500400
Spot 1    -0.01252963    -0.01218011    -0.07500400
Spot 2    -0.01224745    -0.01217646    -0.07500400
Spot 1    -0.01252966    -0.01218003    -0.07500400
Spot 2    -0.01224734    -0.01217627    -0.07500400
Spot 1    -0.01252956    -0.01217995    -0.07500400
Spot 2    -0.01224729    -0.01217637    -0.07500400
20MABNDA000272_PR038
Spot 1    -0.01276225     0.01314191    -0.07417900
Spot 2    -0.01253932     0.01314256    -0.07417900
Spot 1    -0.01276245     0.01314207    -0.07417900
Spot 2    -0.01253958     0.01314250    -0.07417900
Spot 1    -0.01276238     0.01314206    -0.07417900
Spot 2    -0.01253944     0.01314265    -0.07417900
Spot 1    -0.01276262     0.01314207    -0.07417900
Spot 2    -0.01253952     0.01314265    -0.07417900
Spot 1    -0.01276252     0.01314203    -0.07417900
Spot 2    -0.01253928     0.01314254    -0.07417900
Spot 1    -0.01276236     0.01314203    -0.07417900
Spot 2    -0.01253935     0.01314238    -0.07417900
20MABNDA000003_PR039
Spot 1    -0.01281076     0.01212212    -0.07373400
Spot 2    -0.01308816     0.01212297    -0.07373400
Spot 1    -0.01281084     0.01212216    -0.07373400
Spot 2    -0.01308825     0.01212310    -0.07373400
Spot 1    -0.01281076     0.01212216    -0.07373400
Spot 2    -0.01308822     0.01212297    -0.07373400
Spot 1    -0.01281081     0.01212214    -0.07373400
Spot 2    -0.01308817     0.01212287    -0.07373400
Spot 1    -0.01281078     0.01212216    -0.07373400
Spot 2    -0.01308816     0.01212308    -0.07373400
Spot 1    -0.01281089     0.01212215    -0.07373400
Spot 2    -0.01308822     0.01212295    -0.07373400
20MABNDA000196_PR006
Spot 1    -0.01292948     0.01322667    -0.07967100
Spot 2    -0.01256065     0.01322544    -0.07967100
Spot 1    -0.01292947     0.01322670    -0.07967100
Spot 2    -0.01256070     0.01322550    -0.07967100
Spot 1    -0.01292966     0.01322672    -0.07967100
Spot 2    -0.01256061     0.01322537    -0.07967100
Spot 1    -0.01292949     0.01322671    -0.07967100
Spot 2    -0.01256043     0.01322537    -0.07967100
Spot 1    -0.01292962     0.01322666    -0.07967100
Spot 2    -0.01256058     0.01322545    -0.07967100
Spot 1    -0.01292945     0.01322674    -0.07967100
Spot 2    -0.01256049     0.01322552    -0.07967100
20MABNDA000324_PR007
Spot 1    -0.01256117     0.01281364    -0.07446800
Spot 2    -0.01235517     0.01280970    -0.07446800
Spot 1    -0.01256127     0.01281358    -0.07446800
Spot 2    -0.01235509     0.01280986    -0.07446800
Spot 1    -0.01256107     0.01281355    -0.07446800
Spot 2    -0.01235518     0.01280986    -0.07446800
Spot 1    -0.01256127     0.01281355    -0.07446800
Spot 2    -0.01235506     0.01281006    -0.07446800
Spot 1    -0.01256110     0.01281351    -0.07446800
Spot 2    -0.01235515     0.01280981    -0.07446800
Spot 1    -0.01256116     0.01281347    -0.07446800
Spot 2    -0.01235518     0.01280991    -0.07446800
20MABNDB000001_PR017
Spot 1    -0.01230612    -0.01351397    -0.07418400
Spot 2    -0.01193622    -0.01350830    -0.07418400
Spot 1    -0.01230594    -0.01351377    -0.07418400
Spot 2    -0.01193588    -0.01350864    -0.07418400
Spot 1    -0.01230590    -0.01351393    -0.07418400
Spot 2    -0.01193587    -0.01350857    -0.07418400
Spot 1    -0.01230607    -0.01351393    -0.07418400
Spot 2    -0.01193623    -0.01350866    -0.07418400
Spot 1    -0.01230601    -0.01351384    -0.07418400
Spot 2    -0.01193611    -0.01350856    -0.07418400
Spot 1    -0.01230602    -0.01351378    -0.07418400
Spot 2    -0.01193580    -0.01350848    -0.07418400
20MABNDB000260_PR019
Spot 1    -0.01240891    -0.01241221    -0.07492700
Spot 2    -0.01220493    -0.01240783    -0.07492700
Spot 1    -0.01240897    -0.01241200    -0.07492700
Spot 2    -0.01220536    -0.01240753    -0.07492700
Spot 1    -0.01240909    -0.01241216    -0.07492700
Spot 2    -0.01220519    -0.01240698    -0.07492700
Spot 1    -0.01240902    -0.01241205    -0.07492700
Spot 2    -0.01220516    -0.01240764    -0.07492700
Spot 1    -0.01240882    -0.01241222    -0.07492700
Spot 2    -0.01220522    -0.01240771    -0.07492700
Spot 1    -0.01240905    -0.01241209    -0.07492700
Spot 2    -0.01220516    -0.01240739    -0.07492700
20MABNDB000212_PR029
Spot 1    -0.01184866    -0.01325449    -0.07390500
Spot 2    -0.01221555    -0.01325020    -0.07390500
Spot 1    -0.01184846    -0.01325468    -0.07390500
Spot 2    -0.01221544    -0.01325034    -0.07390500
Spot 1    -0.01184856    -0.01325450    -0.07390500
Spot 2    -0.01221557    -0.01325032    -0.07390500
Spot 1    -0.01184852    -0.01325443    -0.07390500
Spot 2    -0.01221543    -0.01325036    -0.07390500
Spot 1    -0.01184857    -0.01325454    -0.07390500
Spot 2    -0.01221535    -0.01325022    -0.07390500
Spot 1    -0.01184856    -0.01325444    -0.07390500
Spot 2    -0.01221549    -0.01325042    -0.07390500
20MABNDB000128_PR030
Spot 1    -0.01245418    -0.01221517    -0.07353400
Spot 2    -0.01224979    -0.01221999    -0.07353400
Spot 1    -0.01245411    -0.01221526    -0.07353400
Spot 2    -0.01224966    -0.01221994    -0.07353400
Spot 1    -0.01245417    -0.01221531    -0.07353400
Spot 2    -0.01224983    -0.01222010    -0.07353400
Spot 1    -0.01245427    -0.01221528    -0.07353400
Spot 2    -0.01224991    -0.01222014    -0.07353400
Spot 1    -0.01245413    -0.01221519    -0.07353400
Spot 2    -0.01224958    -0.01222018    -0.07353400
Spot 1    -0.01245424    -0.01221520    -0.07353400
Spot 2    -0.01224975    -0.01221995    -0.07353400
20MABNDA000444_PR040
Spot 1    -0.01168714     0.01364991    -0.07412000
Spot 2    -0.01205386     0.01364930    -0.07412000
Spot 1    -0.01168710     0.01364975    -0.07412000
Spot 2    -0.01205400     0.01364926    -0.07412000
Spot 1    -0.01168709     0.01364973    -0.07412000
Spot 2    -0.01205410     0.01364921    -0.07412000
Spot 1    -0.01168708     0.01364979    -0.07412000
Spot 2    -0.01205418     0.01364911    -0.07412000
Spot 1    -0.01168706     0.01364979    -0.07412000
Spot 2    -0.01205418     0.01364935    -0.07412000
Spot 1    -0.01168691     0.01364982    -0.07412000
Spot 2    -0.01205420     0.01364928    -0.07412000
20MABNDA000053_PR041
Spot 1    -0.01241794     0.01212408    -0.07430100
Spot 2    -0.01221447     0.01212371    -0.07430100
Spot 1    -0.01241807     0.01212432    -0.07430100
Spot 2    -0.01221437     0.01212376    -0.07430100
Spot 1    -0.01241790     0.01212422    -0.07430100
Spot 2    -0.01221433     0.01212374    -0.07430100
Spot 1    -0.01241803     0.01212405    -0.07430100
Spot 2    -0.01221435     0.01212368    -0.07430100
Spot 1    -0.01241807     0.01212411    -0.07430100
Spot 2    -0.01221454     0.01212374    -0.07430100
Spot 1    -0.01241785     0.01212414    -0.07430100
Spot 2    -0.01221437     0.01212385    -0.07430100
20MABNDA000188_PR008
Spot 1    -0.01385116     0.01393841    -0.07502000
Spot 2    -0.01385116     0.01393841    -0.07502000
Spot 1    -0.01385116     0.01393841    -0.07502000
Spot 2    -0.01385116     0.01393841    -0.07502000
Spot 1    -0.01381099     0.01395807    -0.07502000
Spot 2    -0.01378973     0.01293785    -0.07502000
Spot 1    -0.01385116     0.01393841    -0.07502000
Spot 2    -0.01445518     0.01230353    -0.07502000
Spot 1    -0.01402389     0.01361988    -0.07502000
Spot 2    -0.01378973     0.01293785    -0.07502000
Spot 1    -0.01415577     0.01340100    -0.07502000
Spot 2    -0.01385116     0.01393841    -0.07502000
20MABNDA000188_PR018
Spot 1    -0.01269526     0.01235650    -0.07502000
Spot 2    -0.01222789     0.01235519    -0.07502000
Spot 1    -0.01269504     0.01235665    -0.07502000
Spot 2    -0.01222782     0.01235528    -0.07502000
Spot 1    -0.01269505     0.01235660    -0.07502000
Spot 2    -0.01222792     0.01235500    -0.07502000
Spot 1    -0.01269509     0.01235654    -0.07502000
Spot 2    -0.01222787     0.01235516    -0.07502000
Spot 1    -0.01269530     0.01235655    -0.07502000
Spot 2    -0.01222779     0.01235515    -0.07502000
Spot 1    -0.01269510     0.01235629    -0.07502000
Spot 2    -0.01222780     0.01235511    -0.07502000
20MABNDA000039_PR009
Spot 1    -0.01162644     0.01306431    -0.07444800
Spot 2    -0.01157781     0.01305938    -0.07444800
Spot 1    -0.01162597     0.01306416    -0.07444800
Spot 2    -0.01157772     0.01305942    -0.07444800
Spot 1    -0.01162617     0.01306413    -0.07444800
Spot 2    -0.01157750     0.01305949    -0.07444800
Spot 1    -0.01162655     0.01306437    -0.07444800
Spot 2    -0.01157774     0.01305946    -0.07444800
Spot 1    -0.01162625     0.01306370    -0.07444800
Spot 2    -0.01157797     0.01305931    -0.07444800
Spot 1    -0.01162616     0.01306409    -0.07444800
Spot 2    -0.01157784     0.01305935    -0.07444800
20MABNDA000039_PR011
Spot 1    -0.01372386     0.01395026    -0.07444800
Spot 2    -0.01354831     0.01395464    -0.07444800
Spot 1    -0.01372381     0.01395022    -0.07444800
Spot 2    -0.01354830     0.01395459    -0.07444800
Spot 1    -0.01372387     0.01395014    -0.07444800
Spot 2    -0.01354833     0.01395451    -0.07444800
Spot 1    -0.01372397     0.01395028    -0.07444800
Spot 2    -0.01354831     0.01395449    -0.07444800
Spot 1    -0.01372396     0.01395024    -0.07444800
Spot 2    -0.01354840     0.01395461    -0.07444800
Spot 1    -0.01372394     0.01395024    -0.07444800
Spot 2    -0.01354832     0.01395459    -0.07444800
20MABNDB000155_PR020
Spot 1    -0.01364834    -0.01313645    -0.07501700
Spot 2    -0.01358165    -0.01313873    -0.07501700
Spot 1    -0.01364866    -0.01313657    -0.07501700
Spot 2    -0.01358190    -0.01313974    -0.07501700
Spot 1    -0.01364788    -0.01313664    -0.07501700
Spot 2    -0.01358122    -0.01313965    -0.07501700
Spot 1    -0.01364870    -0.01313614    -0.07501700
Spot 2    -0.01358137    -0.01313944    -0.07501700
Spot 1    -0.01364827    -0.01313658    -0.07501700
Spot 2    -0.01358117    -0.01313966    -0.07501700
Spot 1    -0.01364823    -0.01313673    -0.07501700
Spot 2    -0.01358130    -0.01313937    -0.07501700
20MABNDB000155_PR022
Spot 1    -0.01217080    -0.01292648    -0.07501700
Spot 2    -0.01169774    -0.01292419    -0.07501700
Spot 1    -0.01217072    -0.01292658    -0.07501700
Spot 2    -0.01169763    -0.01292405    -0.07501700
Spot 1    -0.01217077    -0.01292652    -0.07501700
Spot 2    -0.01169777    -0.01292401    -0.07501700
Spot 1    -0.01217074    -0.01292637    -0.07501700
Spot 2    -0.01169775    -0.01292400    -0.07501700
Spot 1    -0.01217077    -0.01292652    -0.07501700
Spot 2    -0.01169777    -0.01292420    -0.07501700
Spot 1    -0.01217068    -0.01292646    -0.07501700
Spot 2    -0.01169769    -0.01292412    -0.07501700
20MABNDB000010_PR021
Spot 1    -0.01158282    -0.01291838    -0.07358200
Spot 2    -0.01152767    -0.01291422    -0.07358200
Spot 1    -0.01158265    -0.01291818    -0.07358200
Spot 2    -0.01152760    -0.01291422    -0.07358200
Spot 1    -0.01158257    -0.01291786    -0.07358200
Spot 2    -0.01152747    -0.01291442    -0.07358200
Spot 1    -0.01158238    -0.01291827    -0.07358200
Spot 2    -0.01152766    -0.01291444    -0.07358200
Spot 1    -0.01158256    -0.01291820    -0.07358200
Spot 2    -0.01152767    -0.01291435    -0.07358200
Spot 1    -0.01158285    -0.01291810    -0.07358200
Spot 2    -0.01152774    -0.01291414    -0.07358200
20MABNDB000010_PR023
Spot 1    -0.01312742    -0.01375812    -0.07358200
Spot 2    -0.01295224    -0.01375627    -0.07358200
Spot 1    -0.01312742    -0.01375803    -0.07358200
Spot 2    -0.01295228    -0.01375638    -0.07358200
Spot 1    -0.01312734    -0.01375790    -0.07358200
Spot 2    -0.01295221    -0.01375640    -0.07358200
Spot 1    -0.01312733    -0.01375805    -0.07358200
Spot 2    -0.01295244    -0.01375614    -0.07358200
Spot 1    -0.01312743    -0.01375804    -0.07358200
Spot 2    -0.01295243    -0.01375618    -0.07358200
Spot 1    -0.01312740    -0.01375798    -0.07358200
Spot 2    -0.01295225    -0.01375638    -0.07358200


*****************************************************************coordonnees du prisme dans le repere MOUNT********************************************************************************** 
20MABNDB000069_PR031
    0.10247013    -0.03860749     9.20355988
    0.10241583    -0.03861446     9.20356083
    0.10248217    -0.03858344     9.20355988
    0.10243464    -0.03861953     9.20355988
    0.10243167    -0.03860222     9.20355988
    0.10244585    -0.03861570     9.20355988
20MABNDB000069_PR033
   -0.02676230    -0.02702741     1.28394020
   -0.02676122    -0.02702831     1.28394020
   -0.02676299    -0.02702764     1.28394020
   -0.02676310    -0.02702806     1.28394020
   -0.02676105    -0.02703037     1.28394020
   -0.02676171    -0.02702966     1.28394020
20MABNDB000131_PR032
   -0.18842053    -0.02918466    11.00641537
   -0.18844236    -0.02920085    11.00641441
   -0.18844974    -0.02918262    11.00641441
   -0.18845555    -0.02919288    11.00641441
   -0.18846291    -0.02918195    11.00641441
   -0.18841097    -0.02919704    11.00641537
20MABNDB000131_PR034
    0.01394643     0.01642440     3.43338227
    0.01394530     0.01642302     3.43338227
    0.01394370     0.01642256     3.43338227
    0.01394779     0.01642622     3.43338227
    0.01394621     0.01642280     3.43338227
    0.01394826     0.01642326     3.43338227
20MABNDA000208_PR042
    0.12994517     0.01557131     9.20148849
    0.12997770     0.01557748     9.20148849
    0.12998754     0.01556091     9.20148849
    0.12995991     0.01557255     9.20148849
    0.12997830     0.01559650     9.20148849
    0.12993717     0.01559770     9.20148849
20MABNDA000208_PR046
   -0.02364346     0.03425399     1.28208649
   -0.02364355     0.03425433     1.28208649
   -0.02364406     0.03425510     1.28208637
   -0.02364414     0.03425433     1.28208637
   -0.02364320     0.03425305     1.28208649
   -0.02364346     0.03425374     1.28208649
20MABNDA000035_PR044
   -0.17940809     0.02648253    11.00803185
   -0.17942554     0.02649435    11.00802994
   -0.17939481     0.02649706    11.00803185
   -0.17940941     0.02650009    11.00803185
   -0.17936248     0.02651804    11.00803185
   -0.17942244     0.02651920    11.00802994
20MABNDA000035_PR045
    0.01497227    -0.01845510     3.43483877
    0.01497572    -0.01845147     3.43483877
    0.01497640    -0.01845307     3.43483877
    0.01497662    -0.01845421     3.43483877
    0.01497593    -0.01845444     3.43483877
    0.01497480    -0.01845352     3.43483877
20MABNDL000077_PR002
    0.04964448     0.02137790     3.70690823
    0.04964334     0.02138730     3.70690823
    0.04964109     0.02138435     3.70690823
    0.04964143     0.02139399     3.70690823
    0.04964536     0.02139173     3.70690823
    0.04963992     0.02139153     3.70690823
20MABNDL000077_PR003
    0.01403778     0.03691326     3.89605379
    0.01403577     0.03691977     3.89605379
    0.01403727     0.03691352     3.89605379
    0.01404067     0.03691582     3.89605379
    0.01404169     0.03691452     3.89605379
    0.01403424     0.03692264     3.89605379
20MABNDL000077_20MABNDM000168
   -0.07865733     0.06839032    -5.46825504
   -0.07865775     0.06839646    -5.46825504
   -0.07864548     0.06839658    -5.46825600
   -0.07865808     0.06839320    -5.46825504
   -0.07865956     0.06839680    -5.46825504
   -0.07865848     0.06839609    -5.46825504
20MABNDL000077_PR024
   -0.05084792     0.06223911    -5.89653778
   -0.05086813     0.06223305    -5.89653778
   -0.05086551     0.06224361    -5.89653778
   -0.05086662     0.06223736    -5.89653778
   -0.05085965     0.06224250    -5.89653778
   -0.05086548     0.06224049    -5.89653778
20MABNDM000020_PR013
   -0.00520316     0.01220049    -3.80216908
   -0.00520864     0.01219019    -3.80216908
   -0.00520026     0.01220402    -3.80216908
   -0.00519194     0.01216426    -3.80216932
   -0.00518103     0.01220941    -3.80216837
   -0.00520679     0.01217385    -3.80216932
20MABNDM000020_PR014
   -0.06766948     0.03172834    -4.74799824
   -0.06767336     0.03170710    -4.74799824
   -0.06767334     0.03176185    -4.74799728
   -0.06767602     0.03168556    -4.74799824
   -0.06767243     0.03177682    -4.74799728
   -0.06767939     0.03171224    -4.74799824
20MABNDM000020_20MABNDL000196
   -0.01447834    -0.09597619     5.39442825
   -0.01447799    -0.09597117     5.39442825
   -0.01447763    -0.09597260     5.39442825
   -0.01447548    -0.09597476     5.39442825
   -0.01447978    -0.09597547     5.39442825
   -0.01447870    -0.09597726     5.39442825
20MABNDM000020_PR035
   -0.04200627    -0.04835622     5.80101871
   -0.04200397    -0.04835776     5.80101871
   -0.04200550    -0.04835660     5.80101871
   -0.04200435    -0.04836623     5.80101871
   -0.04200897    -0.04837587     5.80101871
   -0.04200704    -0.04840554     5.80101871
20MABNDM000168_PR025
    0.01797625    -0.02094944    -3.78864002
    0.01798241    -0.01809174    -3.78862715
    0.01797818    -0.01808558    -3.78862715
    0.01797791    -0.01808162    -3.78862715
    0.01798061    -0.01807617    -3.78862715
    0.01797863    -0.01807643    -3.78862715
20MABNDM000168_PR026
   -0.05798768    -0.01419401    -3.98429012
   -0.05801935    -0.01181305    -3.98427558
   -0.05801986    -0.01181566    -3.98427558
   -0.05802224    -0.01180734    -3.98427558
   -0.05802091    -0.01181306    -3.98427558
   -0.05802144    -0.01181046    -3.98427558
20MABNDM000168_20MABNDL000077
   -0.05241070    -0.08489037     5.38823175
   -0.05241204    -0.08488353     5.38823223
   -0.05241421    -0.08488457     5.38823175
   -0.05241312    -0.08488351     5.38823223
   -0.05241385    -0.08488386     5.38823223
   -0.05241457    -0.08488456     5.38823175
20MABNDM000168_PR001
   -0.08969083    -0.07558510     5.81413555
   -0.05753664    -0.01302289     5.81470203
   -0.05754420    -0.01322049     5.81470299
   -0.05753814    -0.01301938     5.81470203
   -0.05754742    -0.01301769     5.81470203
   -0.08968584    -0.07558905     5.81413555
20MABNDL000196_PR036
    0.05079620     0.00559074     3.68777466
    0.05080678     0.00557579     3.68777442
    0.05079252     0.00558779     3.68777466
    0.05080134     0.00559320     3.68777466
    0.05079843     0.00557798     3.68777466
    0.05080111     0.00558731     3.68777466
20MABNDL000196_PR037
   -0.02576417     0.02829736     3.88380623
   -0.02576495     0.02829555     3.88380623
   -0.02576108     0.02829840     3.88380623
   -0.02575925     0.02829220     3.88380623
   -0.02575562     0.02828755     3.88380623
   -0.02576676     0.02829555     3.88380623
20MABNDL000196_20MABNDM000020
   -0.01394782     0.03895680    -5.47473907
   -0.01395306     0.03894951    -5.47473907
   -0.01394921     0.03895426    -5.47473907
   -0.01395177     0.03893875    -5.47473907
   -0.01394979     0.03892945    -5.47473907
   -0.01395102     0.03893697    -5.47473907
20MABNDL000196_PR012
   -0.04498816     0.06064819    -5.91563320
   -0.01297391     0.02481607    -5.91576385
   -0.00386293     0.08875078    -5.91552973
    0.09587016     0.08180978    -5.91458464
    0.04124205     0.06205888    -5.91546726
    0.04147740     0.06195244    -5.91546535
20MABNDA000318_PR004
   -0.00824544     0.03836401     2.74965906
   -0.00824746     0.03836510     2.74965906
   -0.00825241     0.03836491     2.74965906
   -0.00824690     0.03836382     2.74965906
   -0.00824691     0.03836529     2.74965906
   -0.00825039     0.03836473     2.74965906
20MABNDA000334_PR005
   -0.00411934     0.03121506     2.14977503
   -0.00412020     0.03121935     2.14977503
   -0.00412291     0.03121850     2.14977503
   -0.00412120     0.03121664     2.14977503
   -0.00412234     0.03121421     2.14977503
   -0.00412077     0.03121621     2.14977503
20MABNDB000317_PR015
   -0.01753651    -0.03429030     2.75128746
   -0.01753726    -0.03428849     2.75128746
   -0.01753968    -0.03428378     2.75128794
   -0.01754139    -0.03429345     2.75128746
   -0.01753598    -0.03428902     2.75128746
   -0.01753527    -0.03428737     2.75128794
20MABNDB000146_PR016
   -0.01353519    -0.03170045     2.15201354
   -0.01353705    -0.03170160     2.15201354
   -0.01353605    -0.03170146     2.15201354
   -0.01353605    -0.03169915     2.15201354
   -0.01353475    -0.03170433     2.15201354
   -0.01353893    -0.03170017     2.15201354
20MABNDB000135_PR027
   -0.02098792    -0.01006141     2.74937153
   -0.02098846    -0.01006031     2.74937153
   -0.02098443    -0.01006054     2.74937153
   -0.02098769    -0.01005702     2.74937153
   -0.02098385    -0.01005743     2.74937153
   -0.02098427    -0.01006274     2.74937153
20MABNDB000126_PR028
   -0.02048466    -0.03876767     2.14679694
   -0.02048250    -0.03877250     2.14679694
   -0.02048764    -0.03877011     2.14679694
   -0.02048466    -0.03876738     2.14679694
   -0.02048578    -0.03877124     2.14679694
   -0.02048792    -0.03877096     2.14679694
20MABNDA000272_PR038
   -0.01312716     0.01146962     2.74965906
   -0.01311873     0.01146777     2.74965906
   -0.01312258     0.01146522     2.74965906
   -0.01311672     0.01146502     2.74965906
   -0.01312294     0.01146778     2.74965906
   -0.01312459     0.01147072     2.74965906
20MABNDA000003_PR039
   -0.00569039     0.04133916     2.14891338
   -0.00568797     0.04133673     2.14891338
   -0.00568954     0.04133859     2.14891338
   -0.00568953     0.04134030     2.14891338
   -0.00569011     0.04133702     2.14891338
   -0.00568768     0.04133901     2.14891338
20MABNDA000196_PR006
   -0.01067953     0.01040734     1.64206505
   -0.01067910     0.01040635     1.64206505
   -0.01067800     0.01040754     1.64206505
   -0.01068182     0.01040758     1.64206505
   -0.01067876     0.01040733     1.64206505
   -0.01068163     0.01040561     1.64206505
20MABNDA000324_PR007
   -0.02496322     0.02768345     2.95549393
   -0.02496281     0.02768148     2.95549393
   -0.02496498     0.02768225     2.95549393
   -0.02496338     0.02767813     2.95549393
   -0.02496480     0.02768383     2.95549393
   -0.02496302     0.02768266     2.95549393
20MABNDB000001_PR017
   -0.02405221    -0.00364898     1.64036512
   -0.02405799    -0.00364739     1.64036512
   -0.02405841    -0.00364640     1.64036512
   -0.02405272    -0.00364548     1.64036512
   -0.02405460    -0.00364753     1.64036512
   -0.02405789    -0.00364903     1.64036512
20MABNDB000260_PR019
   -0.02436936    -0.03787126     2.95627904
   -0.02435970    -0.03788111     2.95627904
   -0.02436073    -0.03788881     2.95627904
   -0.02436272    -0.03787802     2.95627904
   -0.02436557    -0.03787335     2.95627904
   -0.02436205    -0.03788214     2.95627904
20MABNDB000212_PR029
   -0.02545264    -0.00903540     1.64223897
   -0.02545611    -0.00903174     1.64223897
   -0.02545361    -0.00903396     1.64223897
   -0.02545559    -0.00903427     1.64223897
   -0.02545581    -0.00903460     1.64223897
   -0.02545448    -0.00903351     1.64223897
20MABNDB000128_PR030
   -0.01930331    -0.04683933     2.95496273
   -0.01930724    -0.04683856     2.95496273
   -0.01930274    -0.04683442     2.95496273
   -0.01929920    -0.04683421     2.95496273
   -0.01930843    -0.04683523     2.95496273
   -0.01930291    -0.04683953     2.95496273
20MABNDA000444_PR040
   -0.03019735     0.00146147     1.64491296
   -0.03019628     0.00146367     1.64491296
   -0.03019531     0.00146445     1.64491296
   -0.03019454     0.00146490     1.64491296
   -0.03019473     0.00146227     1.64491296
   -0.03019616     0.00146269     1.64491296
20MABNDA000053_PR041
   -0.02623154     0.05088129     2.95450854
   -0.02623106     0.05087558     2.95450854
   -0.02623514     0.05087802     2.95450854
   -0.02623210     0.05088247     2.95450854
   -0.02622764     0.05088003     2.95450854
   -0.02623535     0.05087743     2.95450854
20MABNDA000188_PR008
    0.12899831    -0.09474574     9.20333958
    0.12899831    -0.09474574     9.20333958
    0.12277041    -0.03453833     9.20394135
    0.16607445     0.00560789     9.20332336
    0.13583824    -0.01377727     9.20382404
    0.14769700    -0.06175753     9.20335960
20MABNDA000188_PR018
   -0.01672424     0.02514944     1.28358757
   -0.01672674     0.02514741     1.28358757
   -0.01672577     0.02515031     1.28358746
   -0.01672587     0.02514937     1.28358746
   -0.01672475     0.02514936     1.28358746
   -0.01672645     0.02515194     1.28358746
20MABNDA000039_PR009
   -0.17120355     0.02560674    11.00701523
   -0.17124446     0.02561423    11.00701427
   -0.17124593     0.02561058    11.00701427
   -0.17120066     0.02559649    11.00701523
   -0.17120552     0.02565647    11.00701523
   -0.17122176     0.02562437    11.00701523
20MABNDA000039_PR011
    0.03066696    -0.02359231     3.43348265
    0.03066560    -0.02359025     3.43348265
    0.03066744    -0.02358661     3.43348265
    0.03066925    -0.02358936     3.43348265
    0.03067130    -0.02359118     3.43348217
    0.03066902    -0.02359072     3.43348217
20MABNDB000155_PR020
    0.10227697    -0.00789575     9.20028114
    0.10231161    -0.00782590     9.20027924
    0.10222200    -0.00782712     9.20028114
    0.10228215    -0.00787050     9.20028114
    0.10224292    -0.00783052     9.20028114
    0.10224918    -0.00783903     9.20028114
20MABNDB000155_PR022
   -0.02537527    -0.01602440     1.28071475
   -0.02537689    -0.01602468     1.28071475
   -0.02537525    -0.01602560     1.28071475
   -0.02537575    -0.01602697     1.28071475
   -0.02537528    -0.01602397     1.28071475
   -0.02537671    -0.01602519     1.28071475
20MABNDB000010_PR021
   -0.17610848    -0.03480013    11.00694561
   -0.17612587    -0.03481513    11.00694561
   -0.17614189    -0.03482348    11.00694466
   -0.17614169    -0.03479187    11.00694466
   -0.17612755    -0.03480340    11.00694561
   -0.17610067    -0.03482720    11.00694561
20MABNDB000010_PR023
    0.00444994     0.01870576     3.43378544
    0.00445085     0.01870623     3.43378544
    0.00444722     0.01870387     3.43378544
    0.00445254     0.01870144     3.43378544
    0.00445460     0.01870194     3.43378544
    0.00444950     0.01870506     3.43378544


*****************************************************************coordonnees du prisme dans le repere ATLAS********************************************************************************** 
20MABNDB000069_PR031 0.00000000
    3.68418670     3.84875321    -7.90179539
    3.68413258     3.84875441    -7.90178823
    3.68419886     3.84875298    -7.90181923
    3.68415117     3.84875321    -7.90178299
    3.68414831     3.84875321    -7.90180063
    3.68416238     3.84875321    -7.90178680
20MABNDB000069_PR033 0.00000000
    3.53353715    -4.07046270    -7.87864399
    3.53353834    -4.07046270    -7.87864304
    3.53353643    -4.07046270    -7.87864399
    3.53353643    -4.07046270    -7.87864351
    3.53353834    -4.07046270    -7.87864113
    3.53353786    -4.07046270    -7.87864161
20MABNDB000131_PR032 0.00000000
    3.86922312     3.64756608   -12.93982792
    3.86924505     3.64756513   -12.93984413
    3.86925244     3.64756513   -12.93982506
    3.86925817     3.64756513   -12.93983555
    3.86926556     3.64756513   -12.93982506
    3.86921358     3.64756608   -12.93984032
20MABNDB000131_PR034 0.00000000
    3.67384291    -3.92563391   -12.89152336
    3.67384410    -3.92563391   -12.89152431
    3.67384553    -3.92563391   -12.89152527
    3.67384148    -3.92563391   -12.89152145
    3.67384315    -3.92563391   -12.89152527
    3.67384100    -3.92563391   -12.89152431
20MABNDA000208_PR042 0.00000000
   -3.68002391     3.84916711    -7.89591360
   -3.68005633     3.84916711    -7.89590740
   -3.68006611     3.84916711    -7.89592409
   -3.68003845     3.84916711    -7.89591265
   -3.68005705     3.84916711    -7.89588833
   -3.68001580     3.84916711    -7.89588737
20MABNDA000208_PR046 0.00000000
   -3.53212190    -4.07033587    -7.87426424
   -3.53212166    -4.07033587    -7.87426376
   -3.53212118    -4.07033587    -7.87426329
   -3.53212118    -4.07033587    -7.87426376
   -3.53212214    -4.07033587    -7.87426519
   -3.53212190    -4.07033587    -7.87426424
20MABNDA000035_PR044 0.00000000
   -3.86864901     3.64758682   -12.93216133
   -3.86866641     3.64758492   -12.93217373
   -3.86863565     3.64758682   -12.93217659
   -3.86865044     3.64758682   -12.93217945
   -3.86860347     3.64758682   -12.93219757
   -3.86866331     3.64758492   -12.93219852
20MABNDA000035_PR045 0.00000000
   -3.67575622    -3.92564845   -12.88792896
   -3.67575264    -3.92564845   -12.88793278
   -3.67575216    -3.92564845   -12.88793182
   -3.67575192    -3.92564845   -12.88792992
   -3.67575240    -3.92564845   -12.88792992
   -3.67575359    -3.92564845   -12.88793087
20MABNDL000077_PR002 0.00000000
    2.83566308    -3.69487262     6.48618841
    2.83565354    -3.69487357     6.48618841
    2.83565640    -3.69487596     6.48618841
    2.83564687    -3.69487548     6.48618841
    2.83564925    -3.69487166     6.48618841
    2.83564925    -3.69487715     6.48618841
20MABNDL000077_PR003 0.00000000
    2.82030177    -3.73070765     6.67530537
    2.82029533    -3.73070955     6.67530537
    2.82030153    -3.73070812     6.67530537
    2.82029915    -3.73070478     6.67530537
    2.82030058    -3.73070359     6.67530537
    2.82029247    -3.73071122     6.67530537
20MABNDL000077_20MABNDM000168 0.00000000
    2.77960992    -3.81183910    -2.68907547
    2.77960396    -3.81183934    -2.68907547
    2.77960372    -3.81182718    -2.68907642
    2.77960706    -3.81183982    -2.68907547
    2.77960348    -3.81184125    -2.68907547
    2.77960420    -3.81184030    -2.68907547
20MABNDL000077_PR024 0.00000000
    2.78535008    -3.78350329    -3.11732936
    2.78535604    -3.78352332    -3.11732936
    2.78534555    -3.78352070    -3.11732936
    2.78535175    -3.78352189    -3.11732936
    2.78534651    -3.78351498    -3.11732936
    2.78534865    -3.78352070    -3.11732936
20MABNDM000020_PR013 0.00000000
   -2.86450934    -3.73427129     6.48601913
   -2.86449909    -3.73426580     6.48601913
   -2.86451292    -3.73427415     6.48601913
   -2.86447334    -3.73428249     6.48601913
   -2.86451840    -3.73429346     6.48601818
   -2.86448288    -3.73426771     6.48601913
20MABNDM000020_PR014 0.00000000
   -2.88382888    -3.67251849     7.43189907
   -2.88380766    -3.67251468     7.43189907
   -2.88386250    -3.67251468     7.43189812
   -2.88378620    -3.67251182     7.43189907
   -2.88387728    -3.67251539     7.43189812
   -2.88381290    -3.67250848     7.43189907
20MABNDM000020_20MABNDL000196 0.00000000
   -2.75817037    -3.71803498    -2.71059036
   -2.75817537    -3.71803522    -2.71059036
   -2.75817394    -3.71803570    -2.71059036
   -2.75817180    -3.71803784    -2.71059036
   -2.75817108    -3.71803355    -2.71059036
   -2.75816941    -3.71803451    -2.71059036
20MABNDM000020_PR035 0.00000000
   -2.80586338    -3.69018316    -3.11715007
   -2.80586171    -3.69018555    -3.11715007
   -2.80586290    -3.69018388    -3.11715007
   -2.80585337    -3.69018507    -3.11715007
   -2.80584359    -3.69018054    -3.11715007
   -2.80581403    -3.69018245    -3.11715007
20MABNDM000168_PR025 0.00000000
    2.83228731    -3.76330543    -6.47925901
    2.83514500    -3.76331234    -6.47924614
    2.83515120    -3.76330805    -6.47924614
    2.83515525    -3.76330781    -6.47924614
    2.83516073    -3.76331067    -6.47924614
    2.83516049    -3.76330853    -6.47924614
20MABNDM000168_PR026 0.00000000
    2.83905101    -3.68741608    -6.67493773
    2.84143209    -3.68738508    -6.67492342
    2.84142947    -3.68738461    -6.67492342
    2.84143782    -3.68738222    -6.67492342
    2.84143209    -3.68738341    -6.67492342
    2.84143472    -3.68738294    -6.67492342
20MABNDM000168_20MABNDL000077 0.00000000
    2.76892209    -3.68948936     2.69758987
    2.76892877    -3.68948817     2.69759035
    2.76892781    -3.68948603     2.69758987
    2.76892877    -3.68948698     2.69759035
    2.76892853    -3.68948627     2.69759035
    2.76892781    -3.68948555     2.69758987
20MABNDM000168_PR001 0.00000000
    2.77826309    -3.65205336     3.12347937
    2.84081674    -3.68422389     3.12405396
    2.84061909    -3.68421626     3.12405491
    2.84082031    -3.68422246     3.12405396
    2.84082198    -3.68421316     3.12405396
    2.77825904    -3.65205836     3.12347937
20MABNDL000196_PR036 0.00000000
   -2.84801650    -3.69347835    -6.47909784
   -2.84803152    -3.69346786    -6.47909737
   -2.84801936    -3.69348216    -6.47909784
   -2.84801412    -3.69347334    -6.47909784
   -2.84802938    -3.69347620    -6.47909784
   -2.84801984    -3.69347358    -6.47909784
20MABNDL000196_PR037 0.00000000
   -2.82527852    -3.77021050    -6.67505836
   -2.82528043    -3.77021146    -6.67505836
   -2.82527757    -3.77020741    -6.67505836
   -2.82528377    -3.77020574    -6.67505836
   -2.82528830    -3.77020192    -6.67505836
   -2.82528043    -3.77021313    -6.67505836
20MABNDL000196_20MABNDM000020 0.00000000
   -2.81442237    -3.74968410     2.68347168
   -2.81442976    -3.74968934     2.68347168
   -2.81442499    -3.74968529     2.68347168
   -2.81444049    -3.74968791     2.68347168
   -2.81444979    -3.74968600     2.68347168
   -2.81444216    -3.74968719     2.68347168
20MABNDL000196_PR012 0.00000000
   -2.79270697    -3.78030419     3.12439418
   -2.82855392    -3.74830651     3.12449574
   -2.76462364    -3.73916602     3.12425184
   -2.77161098    -3.63943696     3.12321401
   -2.79133654    -3.69407344     3.12414789
   -2.79144287    -3.69383812     3.12414575
20MABNDA000318_PR004 0.00000000
    2.61475778    -4.19698906     3.83363461
    2.61475587    -4.19698906     3.83363342
    2.61475086    -4.19698906     3.83363366
    2.61475635    -4.19698906     3.83363485
    2.61475635    -4.19698906     3.83363342
    2.61475277    -4.19698906     3.83363390
20MABNDA000334_PR005 0.00000000
    2.61687922    -4.19702768     5.89804602
    2.61687827    -4.19702768     5.89804173
    2.61687565    -4.19702768     5.89804220
    2.61687732    -4.19702768     5.89804411
    2.61687613    -4.19702768     5.89804649
    2.61687779    -4.19702768     5.89804459
20MABNDB000317_PR015 0.00000000
   -2.61107063    -4.19700432     3.83572507
   -2.61106992    -4.19700432     3.83572698
   -2.61106753    -4.19700384     3.83573174
   -2.61106586    -4.19700432     3.83572197
   -2.61107111    -4.19700432     3.83572650
   -2.61107183    -4.19700384     3.83572817
20MABNDB000146_PR016 0.00000000
   -2.61276007    -4.19702435     5.89864969
   -2.61275816    -4.19702435     5.89864874
   -2.61275911    -4.19702435     5.89864874
   -2.61275911    -4.19702435     5.89865112
   -2.61276054    -4.19702435     5.89864588
   -2.61275625    -4.19702435     5.89865017
20MABNDB000135_PR027 0.00000000
    2.60387540    -4.19700384    -3.82529950
    2.60387468    -4.19700384    -3.82530046
    2.60387874    -4.19700384    -3.82530022
    2.60387564    -4.19700384    -3.82530379
    2.60387945    -4.19700384    -3.82530332
    2.60387897    -4.19700384    -3.82529807
20MABNDB000126_PR028 0.00000000
    2.60543251    -4.19702005    -5.89345217
    2.60543466    -4.19702005    -5.89344740
    2.60542965    -4.19702005    -5.89344978
    2.60543251    -4.19702005    -5.89345264
    2.60543132    -4.19702005    -5.89344835
    2.60542917    -4.19702005    -5.89344883
20MABNDA000272_PR038 0.00000000
   -2.61140966    -4.19698238    -3.82701468
   -2.61141801    -4.19698238    -3.82701659
   -2.61141419    -4.19698238    -3.82701921
   -2.61142015    -4.19698238    -3.82701921
   -2.61141372    -4.19698238    -3.82701659
   -2.61141229    -4.19698238    -3.82701349
20MABNDA000003_PR039 0.00000000
   -2.61604071    -4.19702291    -5.89142752
   -2.61604309    -4.19702291    -5.89142990
   -2.61604166    -4.19702291    -5.89142799
   -2.61604166    -4.19702291    -5.89142656
   -2.61604095    -4.19702291    -5.89142990
   -2.61604357    -4.19702291    -5.89142752
20MABNDA000196_PR006 0.00000000
    2.58513999    -4.19496298     6.54836369
    2.58513951    -4.19496298     6.54836273
    2.58513856    -4.19496298     6.54836416
    2.58514237    -4.19496298     6.54836416
    2.58513927    -4.19496298     6.54836369
    2.58514214    -4.19496298     6.54836226
20MABNDA000324_PR007 0.00000000
    2.59435153    -4.13996363     6.94823170
    2.59435201    -4.13996363     6.94823360
    2.59434986    -4.13996363     6.94823313
    2.59435153    -4.13996363     6.94823694
    2.59435010    -4.13996363     6.94823122
    2.59435177    -4.13996363     6.94823265
20MABNDB000001_PR017 0.00000000
   -2.59775376    -4.19505024     6.53897715
   -2.59775949    -4.19505024     6.53897572
   -2.59775996    -4.19505024     6.53897429
   -2.59775424    -4.19505024     6.53897381
   -2.59775615    -4.19505024     6.53897572
   -2.59775949    -4.19505024     6.53897715
20MABNDB000260_PR019 0.00000000
   -2.60439277    -4.13995552     6.94277287
   -2.60440230    -4.13995552     6.94276285
   -2.60440135    -4.13995552     6.94275522
   -2.60439944    -4.13995552     6.94276619
   -2.60439658    -4.13995552     6.94277048
   -2.60439992    -4.13995552     6.94276190
20MABNDB000212_PR029 0.00000000
    2.59913039    -4.19500971    -6.54802322
    2.59913373    -4.19500971    -6.54801941
    2.59913135    -4.19500971    -6.54802179
    2.59913325    -4.19500971    -6.54802227
    2.59913349    -4.19500971    -6.54802227
    2.59913230    -4.19500971    -6.54802132
20MABNDB000128_PR030 0.00000000
    2.60955548    -4.14002705    -6.93128157
    2.60955143    -4.14002705    -6.93128252
    2.60955596    -4.14002705    -6.93128681
    2.60955954    -4.14002705    -6.93128681
    2.60955024    -4.14002705    -6.93128586
    2.60955572    -4.14002705    -6.93128157
20MABNDA000444_PR040 0.00000000
   -2.60537004    -4.19509649    -6.54064178
   -2.60536885    -4.19509649    -6.54064369
   -2.60536790    -4.19509649    -6.54064465
   -2.60536718    -4.19509649    -6.54064512
   -2.60536742    -4.19509649    -6.54064226
   -2.60536885    -4.19509649    -6.54064274
20MABNDA000053_PR041 0.00000000
   -2.59431028    -4.14012241    -6.92703247
   -2.59431076    -4.14012241    -6.92703819
   -2.59430671    -4.14012241    -6.92703533
   -2.59430981    -4.14012241    -6.92703104
   -2.59431434    -4.14012241    -6.92703342
   -2.59430647    -4.14012241    -6.92703629
20MABNDA000188_PR008 0.00000000
    3.54177952     3.84863997     8.10601807
    3.54177952     3.84863997     8.10601807
    3.53644419     3.84981155     8.04573345
    3.58034801     3.85029984     8.00624180
    3.54982114     3.85012364     8.02517223
    3.56096697     3.84931064     8.07331848
20MABNDA000188_PR018 0.00000000
    3.52040267    -4.07060719     7.89829111
    3.52040005    -4.07060719     7.89829302
    3.52040124    -4.07060719     7.89829016
    3.52040100    -4.07060719     7.89829111
    3.52040219    -4.07060719     7.89829111
    3.52040052    -4.07060719     7.89828873
20MABNDA000039_PR009 0.00000000
    3.87537551     3.64747334    12.93690109
    3.87541652     3.64747238    12.93690872
    3.87541795     3.64747238    12.93690491
    3.87537265     3.64747334    12.93689060
    3.87537742     3.64747334    12.93695068
    3.87539363     3.64747334    12.93691826
20MABNDA000039_PR011 0.00000000
    3.66435719    -3.92579365    12.88524437
    3.66435838    -3.92579365    12.88524628
    3.66435647    -3.92579365    12.88525009
    3.66435480    -3.92579365    12.88524723
    3.66435266    -3.92579412    12.88524532
    3.66435504    -3.92579412    12.88524628
20MABNDB000155_PR020 0.00000000
   -3.68092966     3.84881401     7.89897156
   -3.68096423     3.84881210     7.89904118
   -3.68087482     3.84881401     7.89904022
   -3.68093491     3.84881401     7.89899635
   -3.68089557     3.84881401     7.89903641
   -3.68090200     3.84881401     7.89902830
20MABNDB000155_PR022 0.00000000
   -3.53460574    -4.07043028     7.89203453
   -3.53460407    -4.07043028     7.89203453
   -3.53460574    -4.07043028     7.89203358
   -3.53460526    -4.07043028     7.89203215
   -3.53460574    -4.07043028     7.89203501
   -3.53460431    -4.07043028     7.89203405
20MABNDB000010_PR021 0.00000000
   -3.86194468     3.64768362    12.93662930
   -3.86196208     3.64768362    12.93664455
   -3.86197805     3.64768267    12.93665314
   -3.86197805     3.64768267    12.93662167
   -3.86196375     3.64768362    12.93663311
   -3.86193681     3.64768362    12.93665695
20MABNDB000010_PR023 0.00000000
   -3.68521500    -3.92559052    12.88656998
   -3.68521428    -3.92559052    12.88656902
   -3.68521786    -3.92559052    12.88657188
   -3.68521237    -3.92559052    12.88657379
   -3.68521047    -3.92559052    12.88657379
   -3.68521547    -3.92559052    12.88657093


*****************************************************************Rapport********************************************************************************** 
CAM-ECTC-US-IP_ECTC-US-IP-T    2015.08.25.09.56.43     3.68416333     3.84875337    -7.90179555     0.00002283     0.00000047     0.00001207 0.00000000 VRAI 
CAM-ECTC-US-IP_ECTC-US-IP      2015.08.25.09.56.43     3.53353743    -4.07046270    -7.87864288     0.00000081     0.00000000     0.00000112 0.00000000 VRAI 
CAM-ECTC-US-HO_ECTC-US-HO-T    2015.08.25.09.56.43     3.86924299     3.64756544   -12.93983301     0.00001868     0.00000045     0.00000748 0.00000000 VRAI 
CAM-ECTC-US-HO_ECTC-US-HO      2015.08.25.09.56.43     3.67384303    -3.92563391   -12.89152400     0.00000153     0.00000000     0.00000131 0.00000000 VRAI 
CAM-ECTC-USA-IP_ECTC-USA-IP-T  2015.08.25.09.56.43    -3.68004294     3.84916711    -7.89590557     0.00001841     0.00000000     0.00001347 0.00000000 VRAI 
CAM-ECTC-USA-IP_ECTC-USA-IP    2015.08.25.09.56.43    -3.53212166    -4.07033587    -7.87426408     0.00000036     0.00000000     0.00000059 0.00000000 VRAI 
CAM-ECTC-USA-HO_ECTC-USA-HO-T  2015.08.25.09.56.43    -3.86864471     3.64758619   -12.93218120     0.00002102     0.00000090     0.00001318 0.00000000 VRAI 
CAM-ECTC-USA-HO_ECTC-USA-HO    2015.08.25.09.56.43    -3.67575316    -3.92564845   -12.88793071     0.00000147     0.00000000     0.00000128 0.00000000 VRAI 
CAM-LBA-US_EBA-US-HO-H         2015.08.25.09.56.43     2.83565307    -3.69487441     6.48618841     0.00000546     0.00000194     0.00000000 0.00000000 VRAI 
CAM-LBA-US_JDA-US-H            2015.08.25.09.56.43     2.82029847    -3.73070749     6.67530537     0.00000344     0.00000262     0.00000000 0.00000000 VRAI 
CAM-LBA-US_CAM-LBC-US          2015.08.25.09.56.43     2.77960539    -3.81183783    -2.68907563     0.00000235     0.00000481     0.00000036 0.00000000 VRAI 
CAM-LBA-US_EBC-US-IP-H         2015.08.25.09.56.43     2.78534977    -3.78351748    -3.11732936     0.00000349     0.00000685     0.00000000 0.00000000 VRAI 
CAM-LBA-USA_EBA-USA-HO-H       2015.08.25.09.56.43    -2.86449933    -3.73427582     6.48601898     0.00001630     0.00000953     0.00000036 0.00000000 VRAI 
CAM-LBA-USA_JDA-USA-H          2015.08.25.09.56.43    -2.88382924    -3.67251392     7.43189875     0.00003162     0.00000312     0.00000045 0.00000000 VRAI 
CAM-LBA-USA_CAM-LBC-USA        2015.08.25.09.56.43    -2.75817200    -3.71803530    -2.71059036     0.00000206     0.00000132     0.00000000 0.00000000 VRAI 
CAM-LBA-USA_EBC-USA-IP-H       2015.08.25.09.56.43    -2.80584983    -3.69018344    -3.11715007     0.00001746     0.00000167     0.00000000 0.00000000 VRAI 
CAM-LBC-US_EBC-US-HO-H         2015.08.25.09.56.43     2.83467666    -3.76330880    -6.47924829     0.00106856     0.00000220     0.00000480 0.00000000 VRAI 
CAM-LBC-US_JDC-US-H            2015.08.25.09.56.43     2.84103620    -3.68738906    -6.67492580     0.00088781     0.00001212     0.00000533 0.00000000 VRAI 
CAM-LBC-US_CAM-LBA-US          2015.08.25.09.56.43     2.76892730    -3.68948706     2.69759011     0.00000236     0.00000133     0.00000024 0.00000000 VRAI 
CAM-LBC-US_EBA-US-IP-H         2015.08.25.09.56.43     2.81993337    -3.67349792     3.12386258     0.02946686     0.01516182     0.00027098 0.00000000 VRAI 
CAM-LBC-USA_EBC-USA-HO-H       2015.08.25.09.56.43    -2.84802179    -3.69347525    -6.47909776     0.00000644     0.00000446     0.00000018 0.00000000 VRAI 
CAM-LBC-USA_JDC-USA-H          2015.08.25.09.56.43    -2.82528150    -3.77020836    -6.67505836     0.00000360     0.00000379     0.00000000 0.00000000 VRAI 
CAM-LBC-USA_CAM-LBA-USA        2015.08.25.09.56.43    -2.81443493    -3.74968664     2.68347168     0.00000989     0.00000173     0.00000000 0.00000000 VRAI 
CAM-LBC-USA_EBA-USA-IP-H       2015.08.25.09.56.43    -2.79004582    -3.71585421     3.12410824     0.02032939     0.04573310     0.00041936 0.00000000 VRAI 
CAM-EBA-US-IP_EBA-US-IP        2015.08.25.09.56.43     2.61475499    -4.19698906     3.83363398     0.00000239     0.00000000     0.00000056 0.00000000 VRAI 
CAM-EBA-US-HO_EBA-US-HO        2015.08.25.09.56.43     2.61687740    -4.19702768     5.89804419     0.00000122     0.00000000     0.00000177 0.00000000 VRAI 
CAM-EBA-USA-IP_EBA-USA-IP      2015.08.25.09.56.43    -2.61106948    -4.19700416     3.83572674     0.00000210     0.00000022     0.00000297 0.00000000 VRAI 
CAM-EBA-USA-HO_EBA-USA-HO      2015.08.25.09.56.43    -2.61275887    -4.19702435     5.89864906     0.00000140     0.00000000     0.00000164 0.00000000 VRAI 
CAM-EBC-US-IP_EBC-US-IP        2015.08.25.09.56.43     2.60387715    -4.19700384    -3.82530089     0.00000194     0.00000000     0.00000203 0.00000000 VRAI 
CAM-EBC-US-HO_EBC-US-HO        2015.08.25.09.56.43     2.60543164    -4.19702005    -5.89344986     0.00000186     0.00000000     0.00000194 0.00000000 VRAI 
CAM-EBC-USA-IP_EBC-USA-IP      2015.08.25.09.56.43    -2.61141467    -4.19698238    -3.82701663     0.00000349     0.00000000     0.00000212 0.00000000 VRAI 
CAM-EBC-USA-HO_EBC-USA-HO      2015.08.25.09.56.43    -2.61604194    -4.19702291    -5.89142823     0.00000105     0.00000000     0.00000125 0.00000000 VRAI 
CAM-JDA-US-IP_JDA-US-IP        2015.08.25.09.56.43     2.58514031    -4.19496298     6.54836345     0.00000144     0.00000000     0.00000072 0.00000000 VRAI 
CAM-JDA-US-HO_JDA-US-HO        2015.08.25.09.56.43     2.59435113    -4.13996363     6.94823321     0.00000083     0.00000000     0.00000186 0.00000000 VRAI 
CAM-JDA-USA-IP_JDA-USA-IP      2015.08.25.09.56.43    -2.59775718    -4.19505024     6.53897564     0.00000257     0.00000000     0.00000127 0.00000000 VRAI 
CAM-JDA-USA-HO_JDA-USA-HO      2015.08.25.09.56.43    -2.60439873    -4.13995552     6.94276492     0.00000321     0.00000000     0.00000582 0.00000000 VRAI 
CAM-JDC-US-IP_JDC-US-IP        2015.08.25.09.56.43     2.59913242    -4.19500971    -6.54802171     0.00000121     0.00000000     0.00000118 0.00000000 VRAI 
CAM-JDC-US-HO_JDC-US-HO        2015.08.25.09.56.43     2.60955473    -4.14002705    -6.93128419     0.00000309     0.00000000     0.00000235 0.00000000 VRAI 
CAM-JDC-USA-IP_JDC-USA-IP      2015.08.25.09.56.43    -2.60536838    -4.19509649    -6.54064337     0.00000098     0.00000000     0.00000122 0.00000000 VRAI 
CAM-JDC-USA-HO_JDC-USA-HO      2015.08.25.09.56.43    -2.59430973    -4.14012241    -6.92703446     0.00000266     0.00000000     0.00000241 0.00000000 VRAI 
CAM-ECTA-US-IP_ECTA-US-IP-T    2015.08.25.09.56.43     3.55185656     3.84947093     8.06041702     0.01494178     0.00066280     0.03811849 0.00000000 VRAI 
CAM-ECTA-US-IP_ECTA-US-IP      2015.08.25.09.56.43     3.52040128    -4.07060719     7.89829087     0.00000091     0.00000000     0.00000128 0.00000000 VRAI 
CAM-ECTA-US-HO_ECTA-US-HO-T    2015.08.25.09.56.43     3.87539228     3.64747302    12.93691238     0.00001887     0.00000045     0.00001903 0.00000000 VRAI 
CAM-ECTA-US-HO_ECTA-US-HO      2015.08.25.09.56.43     3.66435575    -3.92579381    12.88524659     0.00000185     0.00000022     0.00000180 0.00000000 VRAI 
CAM-ECTA-USA-IP_ECTA-USA-IP-T  2015.08.25.09.56.43    -3.68091687     3.84881369     7.89901900     0.00002937     0.00000071     0.00002613 0.00000000 VRAI 
CAM-ECTA-USA-IP_ECTA-USA-IP    2015.08.25.09.56.43    -3.53460515    -4.07043028     7.89203397     0.00000070     0.00000000     0.00000093 0.00000000 VRAI 
CAM-ECTA-USA-HO_ECTA-USA-HO-T  2015.08.25.09.56.43    -3.86196057     3.64768330    12.93663979     0.00001550     0.00000045     0.00001277 0.00000000 VRAI 
CAM-ECTA-USA-HO_ECTA-USA-HO    2015.08.25.09.56.43    -3.68521424    -3.92559052    12.88657157     0.00000234     0.00000000     0.00000180 0.00000000 VRAI 
