********** Fichier qui contient une sauvegarde des coordonnees images + coordonnees images transformees dans le repere BCAM (MOUNT) + coordonnees des prismes dans le repere MOUNT********** 
********************************************************************** Unite en metres (m)************************************************************************************************** 

*******************************************************************coordonnees images dans le repere CCD *********************************************************************************** 
20MABNDB000069_PR031
Spot 1     0.00031872     0.00138788
Spot 2     0.00038744     0.00138810
Spot 1     0.00031870     0.00138806
Spot 2     0.00038676     0.00138784
Spot 1     0.00031849     0.00138783
Spot 2     0.00038730     0.00138810
Spot 1     0.00031778     0.00138691
Spot 2     0.00038799     0.00138837
Spot 1     0.00031831     0.00138728
Spot 2     0.00038701     0.00138830
Spot 1     0.00031817     0.00138796
Spot 2     0.00038761     0.00138807
Spot 1     0.00031807     0.00138759
Spot 2     0.00038704     0.00138838
20MABNDB000069_PR033
Spot 1     0.00189696     0.00187022
Spot 2     0.00236745     0.00189067
Spot 1     0.00189695     0.00187023
Spot 2     0.00236751     0.00189077
Spot 1     0.00189696     0.00187018
Spot 2     0.00236754     0.00189077
Spot 1     0.00189696     0.00187035
Spot 2     0.00236751     0.00189069
Spot 1     0.00189701     0.00187032
Spot 2     0.00236739     0.00189079
Spot 1     0.00189696     0.00187038
Spot 2     0.00236750     0.00189084
Spot 1     0.00189698     0.00187030
Spot 2     0.00236752     0.00189078
20MABNDB000131_PR032
Spot 1     0.00278003     0.00110338
Spot 2     0.00284055     0.00110639
Spot 1     0.00278008     0.00110331
Spot 2     0.00284048     0.00110644
Spot 1     0.00277999     0.00110344
Spot 2     0.00284060     0.00110642
Spot 1     0.00278007     0.00110338
Spot 2     0.00284050     0.00110643
Spot 1     0.00277981     0.00110349
Spot 2     0.00284037     0.00110637
Spot 1     0.00277996     0.00110336
Spot 2     0.00284068     0.00110617
Spot 1     0.00278003     0.00110313
Spot 2     0.00284052     0.00110621
20MABNDB000131_PR034
Spot 1     0.00093539     0.00040144
Spot 2     0.00111162     0.00040129
Spot 1     0.00093532     0.00040136
Spot 2     0.00111174     0.00040114
Spot 1     0.00093538     0.00040134
Spot 2     0.00111188     0.00040105
Spot 1     0.00093529     0.00040128
Spot 2     0.00111167     0.00040123
Spot 1     0.00093503     0.00040141
Spot 2     0.00111151     0.00040128
Spot 1     0.00093524     0.00040136
Spot 2     0.00111187     0.00040113
Spot 1     0.00093537     0.00040149
Spot 2     0.00111163     0.00040123
20MABNDA000208_PR042
Spot 1     0.00299210     0.00092194
Spot 2     0.00292002     0.00092344
Spot 1     0.00299166     0.00092176
Spot 2     0.00291996     0.00092314
Spot 1     0.00299189     0.00092172
Spot 2     0.00291986     0.00092313
Spot 1     0.00299162     0.00092186
Spot 2     0.00291968     0.00092363
Spot 1     0.00299195     0.00092169
Spot 2     0.00291984     0.00092311
Spot 1     0.00299203     0.00092168
Spot 2     0.00291925     0.00092308
Spot 1     0.00299184     0.00092135
Spot 2     0.00291951     0.00092363
20MABNDA000208_PR046
Spot 1     0.00130659     0.00197851
Spot 2     0.00083623     0.00198171
Spot 1     0.00130650     0.00197853
Spot 2     0.00083597     0.00198171
Spot 1     0.00130638     0.00197860
Spot 2     0.00083621     0.00198184
Spot 1     0.00130658     0.00197859
Spot 2     0.00083613     0.00198180
Spot 1     0.00130651     0.00197871
Spot 2     0.00083621     0.00198180
Spot 1     0.00130663     0.00197871
Spot 2     0.00083622     0.00198183
Spot 1     0.00130661     0.00197865
Spot 2     0.00083616     0.00198174
20MABNDA000035_PR044
Spot 1     0.00074258     0.00128265
Spot 2     0.00068503     0.00127760
Spot 1     0.00074231     0.00128261
Spot 2     0.00068545     0.00127753
Spot 1     0.00074290     0.00128252
Spot 2     0.00068505     0.00127771
Spot 1     0.00074243     0.00128253
Spot 2     0.00068543     0.00127747
Spot 1     0.00074245     0.00128254
Spot 2     0.00068544     0.00127770
Spot 1     0.00074246     0.00128279
Spot 2     0.00068536     0.00127760
20MABNDA000035_PR045
Spot 1     0.00255260     0.00055390
Spot 2     0.00237557     0.00055219
Spot 1     0.00255253     0.00055391
Spot 2     0.00237555     0.00055230
Spot 1     0.00255245     0.00055397
Spot 2     0.00237573     0.00055217
Spot 1     0.00255244     0.00055389
Spot 2     0.00237569     0.00055223
Spot 1     0.00255249     0.00055394
Spot 2     0.00237563     0.00055218
Spot 1     0.00255252     0.00055387
Spot 2     0.00237569     0.00055207
20MABNDL000077_PR002
Spot 1     0.00079250     0.00149884
Spot 2     0.00095517     0.00149678
Spot 1     0.00079233     0.00149866
Spot 2     0.00095527     0.00149686
Spot 1     0.00079241     0.00149889
Spot 2     0.00095525     0.00149738
Spot 1     0.00079230     0.00149934
Spot 2     0.00095522     0.00149700
Spot 1     0.00079263     0.00149880
Spot 2     0.00095526     0.00149702
Spot 1     0.00079259     0.00149884
Spot 2     0.00095541     0.00149715
20MABNDL000077_PR003
Spot 1     0.00152264     0.00119078
Spot 2     0.00167278     0.00119289
Spot 1     0.00152257     0.00119181
Spot 2     0.00167232     0.00119290
Spot 1     0.00152253     0.00119204
Spot 2     0.00167251     0.00119295
Spot 1     0.00152242     0.00119242
Spot 2     0.00167253     0.00119288
Spot 1     0.00152243     0.00119184
Spot 2     0.00167241     0.00119285
Spot 1     0.00152245     0.00119215
Spot 2     0.00167251     0.00119299
20MABNDL000077_20MABNDM000168
Spot 1     0.00188293     0.00148760
Spot 2    -0.00000100    -0.00000100
Spot 1     0.00188302     0.00148741
Spot 2    -0.00000100    -0.00000100
Spot 1     0.00188295     0.00148759
Spot 2    -0.00000100    -0.00000100
Spot 1     0.00188292     0.00148752
Spot 2    -0.00000100    -0.00000100
Spot 1     0.00188292     0.00148740
Spot 2    -0.00000100    -0.00000100
Spot 1     0.00188315     0.00148755
Spot 2    -0.00000100    -0.00000100
20MABNDL000077_PR024
Spot 1     0.00272954     0.00172199
Spot 2    -0.00000100    -0.00000100
Spot 1     0.00272970     0.00172187
Spot 2    -0.00000100    -0.00000100
Spot 1     0.00272973     0.00172191
Spot 2    -0.00000100    -0.00000100
Spot 1     0.00272977     0.00172201
Spot 2    -0.00000100    -0.00000100
Spot 1     0.00272982     0.00172195
Spot 2    -0.00000100    -0.00000100
Spot 1     0.00272981     0.00172188
Spot 2    -0.00000100    -0.00000100
20MABNDM000020_PR013
Spot 1     0.00164457     0.00214084
Spot 2     0.00149281     0.00214803
Spot 1     0.00164482     0.00214075
Spot 2     0.00149228     0.00214867
Spot 1     0.00164471     0.00214143
Spot 2     0.00149224     0.00214847
Spot 1     0.00164480     0.00214080
Spot 2     0.00149236     0.00214900
Spot 1     0.00164450     0.00214108
Spot 2     0.00149228     0.00214852
Spot 1     0.00164455     0.00214094
Spot 2     0.00149244     0.00214872
20MABNDM000020_PR014
Spot 1     0.00267978     0.00228162
Spot 2     0.00251784     0.00228759
Spot 1     0.00267965     0.00228073
Spot 2     0.00251764     0.00228761
Spot 1     0.00267939     0.00228170
Spot 2     0.00251766     0.00228773
Spot 1     0.00267977     0.00228244
Spot 2     0.00251773     0.00228814
Spot 1     0.00267994     0.00228217
Spot 2     0.00251781     0.00228825
Spot 1     0.00267953     0.00228153
Spot 2     0.00251762     0.00228762
20MABNDM000020_20MABNDL000196
Spot 1     0.00200209     0.00057488
Spot 2     0.00112500     0.00001500
Spot 1     0.00200213     0.00057484
Spot 2     0.00112500     0.00001500
Spot 1     0.00200224     0.00057481
Spot 2     0.00112500     0.00001500
Spot 1     0.00200207     0.00057500
Spot 2     0.00112500     0.00001500
Spot 1     0.00200213     0.00057482
Spot 2     0.00112500     0.00001500
Spot 1     0.00200209     0.00057491
Spot 2     0.00112500     0.00001500
20MABNDM000020_PR035
Spot 1     0.00126526     0.00086794
Spot 2     0.00119845     0.00103459
Spot 1     0.00126521     0.00086806
Spot 2     0.00119846     0.00103375
Spot 1     0.00126528     0.00086813
Spot 2     0.00119852     0.00103342
Spot 1     0.00126527     0.00086814
Spot 2     0.00119844     0.00103377
Spot 1     0.00126514     0.00086818
Spot 2     0.00119843     0.00103303
Spot 1     0.00126535     0.00086802
Spot 2     0.00119845     0.00103276
20MABNDM000168_PR025
Spot 1     0.00102348     0.00136472
Spot 2     0.00117477     0.00136107
Spot 1     0.00102359     0.00136499
Spot 2     0.00117475     0.00136110
Spot 1     0.00102329     0.00136460
Spot 2     0.00117460     0.00136138
Spot 1     0.00102359     0.00136515
Spot 2     0.00117471     0.00136156
Spot 1     0.00102347     0.00136524
Spot 2     0.00117470     0.00136161
Spot 1     0.00102346     0.00136513
Spot 2     0.00117465     0.00136178
20MABNDM000168_PR026
Spot 1     0.00250697     0.00148555
Spot 2     0.00266784     0.00145678
Spot 1     0.00250700     0.00148558
Spot 2     0.00266788     0.00145670
Spot 1     0.00250688     0.00148557
Spot 2     0.00266776     0.00145669
Spot 1     0.00250687     0.00148537
Spot 2     0.00266778     0.00145658
Spot 1     0.00250699     0.00148551
Spot 2     0.00266784     0.00145672
Spot 1     0.00250685     0.00148553
Spot 2     0.00266781     0.00145656
20MABNDM000168_20MABNDL000077
Spot 1     0.00153754     0.00129808
Spot 2    -0.00000100    -0.00000100
Spot 1     0.00153768     0.00129808
Spot 2    -0.00000100    -0.00000100
Spot 1     0.00153763     0.00129800
Spot 2    -0.00000100    -0.00000100
Spot 1     0.00153745     0.00129812
Spot 2    -0.00000100    -0.00000100
Spot 1     0.00153758     0.00129804
Spot 2    -0.00000100    -0.00000100
Spot 1     0.00153750     0.00129803
Spot 2    -0.00000100    -0.00000100
20MABNDM000168_PR001
Spot 1     0.00070376     0.00162249
Spot 2     0.00080700     0.00161900
Spot 1     0.00070348     0.00162264
Spot 2     0.00080500     0.00162000
Spot 1     0.00070374     0.00162257
Spot 2     0.00080500     0.00162000
Spot 1     0.00070359     0.00162262
Spot 2     0.00080500     0.00162000
Spot 1     0.00070380     0.00162271
Spot 2     0.00080500     0.00162000
Spot 1     0.00070389     0.00162265
Spot 2     0.00080500     0.00162167
20MABNDL000196_PR036
Spot 1     0.00112340     0.00164598
Spot 2     0.00095892     0.00164755
Spot 1     0.00112321     0.00164603
Spot 2     0.00095920     0.00164760
Spot 1     0.00112326     0.00164600
Spot 2     0.00095892     0.00164814
Spot 1     0.00112326     0.00164628
Spot 2     0.00095896     0.00164771
Spot 1     0.00112350     0.00164615
Spot 2     0.00095858     0.00164802
Spot 1     0.00112334     0.00164599
Spot 2     0.00095853     0.00164735
20MABNDL000196_PR037
Spot 1     0.00263548     0.00117326
Spot 2     0.00248053     0.00117479
Spot 1     0.00263535     0.00117326
Spot 2     0.00248021     0.00117458
Spot 1     0.00263526     0.00117321
Spot 2     0.00248081     0.00117457
Spot 1     0.00263527     0.00117354
Spot 2     0.00248058     0.00117468
Spot 1     0.00263526     0.00117343
Spot 2     0.00248079     0.00117479
Spot 1     0.00263527     0.00117335
Spot 2     0.00248089     0.00117467
20MABNDL000196_20MABNDM000020
Spot 1     0.00195118     0.00103009
Spot 2     0.00172928     0.00102975
Spot 1     0.00195115     0.00103019
Spot 2     0.00172942     0.00103002
Spot 1     0.00195109     0.00103029
Spot 2     0.00172940     0.00103008
Spot 1     0.00195120     0.00103042
Spot 2     0.00172944     0.00103004
Spot 1     0.00195106     0.00103041
Spot 2     0.00172950     0.00102996
Spot 1     0.00195125     0.00103032
Spot 2     0.00172944     0.00103011
20MABNDL000196_PR012
Spot 1     0.00160000     0.00003500
Spot 2     0.00141833     0.00004167
Spot 1     0.00317500     0.00005000
Spot 2     0.00192167     0.00005167
Spot 1     0.00317500     0.00005000
Spot 2     0.00269250     0.00009000
Spot 1     0.00318500     0.00005300
Spot 2     0.00268750     0.00009750
Spot 1     0.00160500     0.00006833
Spot 2     0.00212000     0.00005000
Spot 1     0.00306500     0.00003750
Spot 2     0.00160500     0.00005750
20MABNDA000318_PR004
Spot 1     0.00214875     0.00162665
Spot 2     0.00193054     0.00162697
Spot 1     0.00214877     0.00162656
Spot 2     0.00193061     0.00162664
Spot 1     0.00214881     0.00162663
Spot 2     0.00193049     0.00162673
Spot 1     0.00214877     0.00162664
Spot 2     0.00193055     0.00162698
Spot 1     0.00214872     0.00162670
Spot 2     0.00193053     0.00162692
Spot 1     0.00214879     0.00162656
Spot 2     0.00193054     0.00162684
20MABNDA000334_PR005
Spot 1     0.00247770     0.00157285
Spot 2     0.00219723     0.00157316
Spot 1     0.00247766     0.00157272
Spot 2     0.00219712     0.00157328
Spot 1     0.00247769     0.00157294
Spot 2     0.00219741     0.00157331
Spot 1     0.00247768     0.00157270
Spot 2     0.00219717     0.00157303
Spot 1     0.00247763     0.00157267
Spot 2     0.00219734     0.00157324
Spot 1     0.00247762     0.00157285
Spot 2     0.00219713     0.00157332
20MABNDB000317_PR015
Spot 1     0.00171528     0.00160184
Spot 2     0.00149580     0.00160922
Spot 1     0.00171524     0.00160201
Spot 2     0.00149569     0.00160902
Spot 1     0.00171535     0.00160192
Spot 2     0.00149559     0.00160896
Spot 1     0.00171502     0.00160183
Spot 2     0.00149586     0.00160897
Spot 1     0.00171514     0.00160196
Spot 2     0.00149579     0.00160933
Spot 1     0.00171508     0.00160190
Spot 2     0.00149564     0.00160898
20MABNDB000146_PR016
Spot 1     0.00145131     0.00133292
Spot 2     0.00172690     0.00133439
Spot 1     0.00145138     0.00133286
Spot 2     0.00172693     0.00133458
Spot 1     0.00145135     0.00133267
Spot 2     0.00172707     0.00133447
Spot 1     0.00145146     0.00133288
Spot 2     0.00172671     0.00133457
Spot 1     0.00145141     0.00133281
Spot 2     0.00172674     0.00133469
Spot 1     0.00145122     0.00133284
Spot 2     0.00172689     0.00133463
20MABNDB000135_PR027
Spot 1     0.00189243     0.00092267
Spot 2     0.00211090     0.00092542
Spot 1     0.00189251     0.00092271
Spot 2     0.00211100     0.00092539
Spot 1     0.00189222     0.00092273
Spot 2     0.00211096     0.00092536
Spot 1     0.00189235     0.00092284
Spot 2     0.00211097     0.00092551
Spot 1     0.00189245     0.00092285
Spot 2     0.00211092     0.00092547
Spot 1     0.00189228     0.00092279
Spot 2     0.00211089     0.00092547
20MABNDB000126_PR028
Spot 1     0.00165167     0.00200391
Spot 2     0.00193390     0.00200633
Spot 1     0.00165163     0.00200389
Spot 2     0.00193404     0.00200637
Spot 1     0.00165166     0.00200389
Spot 2     0.00193393     0.00200621
Spot 1     0.00165157     0.00200400
Spot 2     0.00193389     0.00200626
Spot 1     0.00165162     0.00200385
Spot 2     0.00193390     0.00200602
Spot 1     0.00165162     0.00200394
Spot 2     0.00193390     0.00200622
20MABNDA000272_PR038
Spot 1     0.00192178     0.00097096
Spot 2     0.00169859     0.00096984
Spot 1     0.00192137     0.00097126
Spot 2     0.00169874     0.00096977
Spot 1     0.00192144     0.00097107
Spot 2     0.00169866     0.00096977
Spot 1     0.00192168     0.00097113
Spot 2     0.00169864     0.00096987
Spot 1     0.00192160     0.00097119
Spot 2     0.00169875     0.00096961
Spot 1     0.00192145     0.00097137
Spot 2     0.00169879     0.00096990
20MABNDA000003_PR039
Spot 1     0.00200704     0.00193240
Spot 2     0.00228438     0.00193180
Spot 1     0.00200676     0.00193253
Spot 2     0.00228424     0.00193202
Spot 1     0.00200705     0.00193244
Spot 2     0.00228433     0.00193185
Spot 1     0.00200699     0.00193245
Spot 2     0.00228435     0.00193185
Spot 1     0.00200712     0.00193260
Spot 2     0.00228442     0.00193192
Spot 1     0.00200692     0.00193260
Spot 2     0.00228415     0.00193180
20MABNDA000196_PR006
Spot 1     0.00197939     0.00075018
Spot 2     0.00161024     0.00074691
Spot 1     0.00197947     0.00075024
Spot 2     0.00161031     0.00074685
Spot 1     0.00197949     0.00075028
Spot 2     0.00161029     0.00074707
Spot 1     0.00197941     0.00075016
Spot 2     0.00161043     0.00074706
Spot 1     0.00197957     0.00075023
Spot 2     0.00161037     0.00074685
Spot 1     0.00197954     0.00075031
Spot 2     0.00161030     0.00074686
20MABNDA000324_PR007
Spot 1     0.00195212     0.00121388
Spot 2     0.00174603     0.00121959
Spot 1     0.00195200     0.00121379
Spot 2     0.00174622     0.00121957
Spot 1     0.00195196     0.00121395
Spot 2     0.00174605     0.00121973
Spot 1     0.00195210     0.00121397
Spot 2     0.00174613     0.00121969
Spot 1     0.00195212     0.00121381
Spot 2     0.00174633     0.00121964
Spot 1     0.00195205     0.00121378
Spot 2     0.00174627     0.00121957
20MABNDB000001_PR017
Spot 1     0.00187617     0.00047434
Spot 2     0.00224557     0.00048394
Spot 1     0.00187608     0.00047424
Spot 2     0.00224564     0.00048373
Spot 1     0.00187614     0.00047422
Spot 2     0.00224546     0.00048380
Spot 1     0.00187614     0.00047427
Spot 2     0.00224546     0.00048372
Spot 1     0.00187616     0.00047429
Spot 2     0.00224564     0.00048390
Spot 1     0.00187614     0.00047426
Spot 2     0.00224564     0.00048381
20MABNDB000260_PR019
Spot 1     0.00192721     0.00149686
Spot 2     0.00213154     0.00149679
Spot 1     0.00192703     0.00149723
Spot 2     0.00213167     0.00149722
Spot 1     0.00192738     0.00149673
Spot 2     0.00213167     0.00149698
Spot 1     0.00192729     0.00149685
Spot 2     0.00213225     0.00149700
Spot 1     0.00192731     0.00149720
Spot 2     0.00213167     0.00149762
Spot 1     0.00192690     0.00149677
Spot 2     0.00213162     0.00149695
20MABNDB000212_PR029
Spot 1     0.00223589     0.00072533
Spot 2     0.00186861     0.00072549
Spot 1     0.00223587     0.00072531
Spot 2     0.00186852     0.00072582
Spot 1     0.00223595     0.00072541
Spot 2     0.00186839     0.00072574
Spot 1     0.00223590     0.00072538
Spot 2     0.00186811     0.00072542
Spot 1     0.00223597     0.00072527
Spot 2     0.00186852     0.00072556
Spot 1     0.00223600     0.00072537
Spot 2     0.00186839     0.00072543
20MABNDB000128_PR030
Spot 1     0.00190440     0.00200830
Spot 2     0.00210824     0.00200256
Spot 1     0.00190436     0.00200825
Spot 2     0.00210835     0.00200242
Spot 1     0.00190431     0.00200836
Spot 2     0.00210818     0.00200234
Spot 1     0.00190432     0.00200861
Spot 2     0.00210819     0.00200252
Spot 1     0.00190434     0.00200862
Spot 2     0.00210813     0.00200250
Spot 1     0.00190429     0.00200825
Spot 2     0.00210820     0.00200248
20MABNDA000444_PR040
Spot 1     0.00074937     0.00038100
Spot 2     0.00111617     0.00037662
Spot 1     0.00074944     0.00038087
Spot 2     0.00111630     0.00037679
Spot 1     0.00074954     0.00038081
Spot 2     0.00111618     0.00037697
Spot 1     0.00074931     0.00038098
Spot 2     0.00111622     0.00037714
Spot 1     0.00074929     0.00038090
Spot 2     0.00111657     0.00037716
Spot 1     0.00074922     0.00038090
Spot 2     0.00111639     0.00037680
20MABNDA000053_PR041
Spot 1     0.00165847     0.00199144
Spot 2     0.00145406     0.00198805
Spot 1     0.00165864     0.00199124
Spot 2     0.00145429     0.00198786
Spot 1     0.00165867     0.00199142
Spot 2     0.00145422     0.00198814
Spot 1     0.00165842     0.00199125
Spot 2     0.00145415     0.00198759
Spot 1     0.00165839     0.00199150
Spot 2     0.00145431     0.00198784
Spot 1     0.00165863     0.00199122
Spot 2     0.00145442     0.00198818
20MABNDA000188_PR008
Spot 1     0.00279500     0.00010500
Spot 2     0.00279500     0.00010500
Spot 1     0.00279500     0.00010500
Spot 2     0.00283500     0.00012500
Spot 1     0.00283500     0.00012500
Spot 2     0.00283500     0.00012500
Spot 1     0.00278500     0.00023500
Spot 2     0.00279500     0.00010500
Spot 1     0.00278500     0.00023500
Spot 2     0.00296500     0.00106100
Spot 1     0.00279500     0.00010500
Spot 2     0.00313500     0.00066500
20MABNDA000188_PR018
Spot 1     0.00155698     0.00150074
Spot 2     0.00108988     0.00149740
Spot 1     0.00155693     0.00150079
Spot 2     0.00108988     0.00149736
Spot 1     0.00155689     0.00150087
Spot 2     0.00109000     0.00149736
Spot 1     0.00155714     0.00150084
Spot 2     0.00108980     0.00149732
Spot 1     0.00155692     0.00150084
Spot 2     0.00108986     0.00149749
Spot 1     0.00155695     0.00150088
Spot 2     0.00108988     0.00149738
20MABNDA000039_PR009
Spot 1     0.00066033     0.00120881
Spot 2     0.00061256     0.00121297
Spot 1     0.00066021     0.00120869
Spot 2     0.00061277     0.00121296
Spot 1     0.00066049     0.00120877
Spot 2     0.00061269     0.00121308
Spot 1     0.00066021     0.00120905
Spot 2     0.00061281     0.00121306
Spot 1     0.00066034     0.00120907
Spot 2     0.00061282     0.00121315
Spot 1     0.00066094     0.00120884
Spot 2     0.00061224     0.00121327
20MABNDA000039_PR011
Spot 1     0.00275968     0.00037335
Spot 2     0.00258425     0.00036817
Spot 1     0.00275965     0.00037340
Spot 2     0.00258413     0.00036826
Spot 1     0.00275967     0.00037320
Spot 2     0.00258435     0.00036813
Spot 1     0.00275973     0.00037331
Spot 2     0.00258413     0.00036832
Spot 1     0.00275971     0.00037360
Spot 2     0.00258415     0.00036823
Spot 1     0.00275962     0.00037328
Spot 2     0.00258419     0.00036818
20MABNDB000155_PR020
Spot 1     0.00067018     0.00108647
Spot 2     0.00073569     0.00108206
Spot 1     0.00067035     0.00108658
Spot 2     0.00073655     0.00108179
Spot 1     0.00067058     0.00108623
Spot 2     0.00073669     0.00108226
Spot 1     0.00067052     0.00108631
Spot 2     0.00073665     0.00108176
Spot 1     0.00067101     0.00108642
Spot 2     0.00073636     0.00108180
Spot 1     0.00067075     0.00108639
Spot 2     0.00073616     0.00108199
20MABNDB000155_PR022
Spot 1     0.00221031     0.00110133
Spot 2     0.00268331     0.00109738
Spot 1     0.00221029     0.00110149
Spot 2     0.00268319     0.00109753
Spot 1     0.00221018     0.00110146
Spot 2     0.00268329     0.00109736
Spot 1     0.00221020     0.00110129
Spot 2     0.00268328     0.00109744
Spot 1     0.00221033     0.00110138
Spot 2     0.00268331     0.00109746
Spot 1     0.00221027     0.00110143
Spot 2     0.00268325     0.00109736
20MABNDB000010_PR021
Spot 1     0.00286497     0.00118995
Spot 2     0.00292061     0.00119349
Spot 1     0.00286491     0.00118980
Spot 2     0.00292065     0.00119351
Spot 1     0.00286482     0.00118994
Spot 2     0.00292083     0.00119331
Spot 1     0.00286494     0.00119011
Spot 2     0.00292060     0.00119339
Spot 1     0.00286476     0.00118988
Spot 2     0.00292091     0.00119348
Spot 1     0.00286509     0.00119007
Spot 2     0.00292105     0.00119365
20MABNDB000010_PR023
Spot 1     0.00130724     0.00042296
Spot 2     0.00148220     0.00042082
Spot 1     0.00130722     0.00042288
Spot 2     0.00148218     0.00042090
Spot 1     0.00130745     0.00042301
Spot 2     0.00148221     0.00042087
Spot 1     0.00130729     0.00042291
Spot 2     0.00148196     0.00042118
Spot 1     0.00130723     0.00042284
Spot 2     0.00148226     0.00042089
Spot 1     0.00130734     0.00042284
Spot 2     0.00148228     0.00042099


****************************************************************coordonnees images transformees dans le repere MOUNT************************************************************************* 
20MABNDB000069_PR031
Spot 1    -0.01355827    -0.01288120    -0.07388500
Spot 2    -0.01348960    -0.01288381    -0.07388500
Spot 1    -0.01355828    -0.01288102    -0.07388500
Spot 2    -0.01349029    -0.01288405    -0.07388500
Spot 1    -0.01355850    -0.01288124    -0.07388500
Spot 2    -0.01348974    -0.01288381    -0.07388500
Spot 1    -0.01355925    -0.01288213    -0.07388500
Spot 2    -0.01348904    -0.01288357    -0.07388500
Spot 1    -0.01355870    -0.01288178    -0.07388500
Spot 2    -0.01349002    -0.01288360    -0.07388500
Spot 1    -0.01355882    -0.01288110    -0.07388500
Spot 2    -0.01348943    -0.01288385    -0.07388500
Spot 1    -0.01355893    -0.01288146    -0.07388500
Spot 2    -0.01348999    -0.01288352    -0.07388500
20MABNDB000069_PR033
Spot 1    -0.01196147    -0.01246440    -0.07388500
Spot 2    -0.01149054    -0.01246338    -0.07388500
Spot 1    -0.01196148    -0.01246439    -0.07388500
Spot 2    -0.01149047    -0.01246328    -0.07388500
Spot 1    -0.01196147    -0.01246444    -0.07388500
Spot 2    -0.01149044    -0.01246329    -0.07388500
Spot 1    -0.01196146    -0.01246427    -0.07388500
Spot 2    -0.01149048    -0.01246336    -0.07388500
Spot 1    -0.01196142    -0.01246430    -0.07388500
Spot 2    -0.01149059    -0.01246326    -0.07388500
Spot 1    -0.01196146    -0.01246424    -0.07388500
Spot 2    -0.01149048    -0.01246321    -0.07388500
Spot 1    -0.01196145    -0.01246432    -0.07388500
Spot 2    -0.01149046    -0.01246327    -0.07388500
20MABNDB000131_PR032
Spot 1    -0.01144025    -0.01301136    -0.07533000
Spot 2    -0.01137975    -0.01300804    -0.07533000
Spot 1    -0.01144020    -0.01301143    -0.07533000
Spot 2    -0.01137982    -0.01300799    -0.07533000
Spot 1    -0.01144029    -0.01301130    -0.07533000
Spot 2    -0.01137970    -0.01300801    -0.07533000
Spot 1    -0.01144021    -0.01301136    -0.07533000
Spot 2    -0.01137980    -0.01300800    -0.07533000
Spot 1    -0.01144047    -0.01301125    -0.07533000
Spot 2    -0.01137993    -0.01300806    -0.07533000
Spot 1    -0.01144032    -0.01301138    -0.07533000
Spot 2    -0.01137961    -0.01300826    -0.07533000
Spot 1    -0.01144025    -0.01301161    -0.07533000
Spot 2    -0.01137977    -0.01300822    -0.07533000
20MABNDB000131_PR034
Spot 1    -0.01328133    -0.01372258    -0.07533000
Spot 2    -0.01310510    -0.01372184    -0.07533000
Spot 1    -0.01328140    -0.01372266    -0.07533000
Spot 2    -0.01310498    -0.01372199    -0.07533000
Spot 1    -0.01328134    -0.01372268    -0.07533000
Spot 2    -0.01310484    -0.01372208    -0.07533000
Spot 1    -0.01328143    -0.01372274    -0.07533000
Spot 2    -0.01310505    -0.01372190    -0.07533000
Spot 1    -0.01328169    -0.01372261    -0.07533000
Spot 2    -0.01310521    -0.01372185    -0.07533000
Spot 1    -0.01328148    -0.01372266    -0.07533000
Spot 2    -0.01310485    -0.01372200    -0.07533000
Spot 1    -0.01328135    -0.01372253    -0.07533000
Spot 2    -0.01310509    -0.01372190    -0.07533000
20MABNDA000208_PR042
Spot 1    -0.01386285     0.01307414    -0.07273700
Spot 2    -0.01379077     0.01307270    -0.07273700
Spot 1    -0.01386241     0.01307432    -0.07273700
Spot 2    -0.01379071     0.01307300    -0.07273700
Spot 1    -0.01386264     0.01307436    -0.07273700
Spot 2    -0.01379061     0.01307301    -0.07273700
Spot 1    -0.01386237     0.01307422    -0.07273700
Spot 2    -0.01379043     0.01307251    -0.07273700
Spot 1    -0.01386270     0.01307439    -0.07273700
Spot 2    -0.01379059     0.01307303    -0.07273700
Spot 1    -0.01386278     0.01307440    -0.07273700
Spot 2    -0.01379000     0.01307306    -0.07273700
Spot 1    -0.01386259     0.01307473    -0.07273700
Spot 2    -0.01379026     0.01307251    -0.07273700
20MABNDA000208_PR046
Spot 1    -0.01217641     0.01201905    -0.07273700
Spot 2    -0.01170605     0.01201626    -0.07273700
Spot 1    -0.01217632     0.01201903    -0.07273700
Spot 2    -0.01170579     0.01201626    -0.07273700
Spot 1    -0.01217620     0.01201896    -0.07273700
Spot 2    -0.01170603     0.01201613    -0.07273700
Spot 1    -0.01217640     0.01201897    -0.07273700
Spot 2    -0.01170595     0.01201617    -0.07273700
Spot 1    -0.01217633     0.01201885    -0.07273700
Spot 2    -0.01170603     0.01201617    -0.07273700
Spot 1    -0.01217645     0.01201885    -0.07273700
Spot 2    -0.01170604     0.01201614    -0.07273700
Spot 1    -0.01217643     0.01201891    -0.07273700
Spot 2    -0.01170598     0.01201623    -0.07273700
20MABNDA000035_PR044
Spot 1    -0.01157741     0.01297463    -0.07483200
Spot 2    -0.01151983     0.01297927    -0.07483200
Spot 1    -0.01157714     0.01297467    -0.07483200
Spot 2    -0.01152024     0.01297934    -0.07483200
Spot 1    -0.01157773     0.01297476    -0.07483200
Spot 2    -0.01151985     0.01297916    -0.07483200
Spot 1    -0.01157726     0.01297475    -0.07483200
Spot 2    -0.01152022     0.01297940    -0.07483200
Spot 1    -0.01157728     0.01297474    -0.07483200
Spot 2    -0.01152024     0.01297917    -0.07483200
Spot 1    -0.01157729     0.01297449    -0.07483200
Spot 2    -0.01152016     0.01297927    -0.07483200
20MABNDA000035_PR045
Spot 1    -0.01338220     0.01371624    -0.07483200
Spot 2    -0.01320516     0.01371669    -0.07483200
Spot 1    -0.01338213     0.01371622    -0.07483200
Spot 2    -0.01320514     0.01371658    -0.07483200
Spot 1    -0.01338205     0.01371616    -0.07483200
Spot 2    -0.01320532     0.01371671    -0.07483200
Spot 1    -0.01338204     0.01371624    -0.07483200
Spot 2    -0.01320528     0.01371665    -0.07483200
Spot 1    -0.01338209     0.01371619    -0.07483200
Spot 2    -0.01320522     0.01371670    -0.07483200
Spot 1    -0.01338212     0.01371626    -0.07483200
Spot 2    -0.01320528     0.01371681    -0.07483200
20MABNDL000077_PR002
Spot 1     0.01186281     0.03557433    -0.07463200
Spot 2     0.01202546     0.03557071    -0.07463200
Spot 1     0.01186264     0.03557415    -0.07463200
Spot 2     0.01202556     0.03557079    -0.07463200
Spot 1     0.01186272     0.03557438    -0.07463200
Spot 2     0.01202554     0.03557131    -0.07463200
Spot 1     0.01186262     0.03557483    -0.07463200
Spot 2     0.01202551     0.03557093    -0.07463200
Spot 1     0.01186294     0.03557429    -0.07463200
Spot 2     0.01202555     0.03557095    -0.07463200
Spot 1     0.01186290     0.03557433    -0.07463200
Spot 2     0.01202570     0.03557107    -0.07463200
20MABNDL000077_PR003
Spot 1     0.01258995     0.03525926    -0.07463200
Spot 2     0.01274011     0.03525992    -0.07463200
Spot 1     0.01258989     0.03526029    -0.07463200
Spot 2     0.01273965     0.03525994    -0.07463200
Spot 1     0.01258986     0.03526052    -0.07463200
Spot 2     0.01273984     0.03525999    -0.07463200
Spot 1     0.01258975     0.03526090    -0.07463200
Spot 2     0.01273986     0.03525992    -0.07463200
Spot 1     0.01258976     0.03526032    -0.07463200
Spot 2     0.01273974     0.03525989    -0.07463200
Spot 1     0.01258978     0.03526063    -0.07463200
Spot 2     0.01273984     0.03526003    -0.07463200
20MABNDL000077_20MABNDM000168
Spot 1    -0.01272117     0.03554928    -0.00695400
Spot 2    -0.01082210     0.03408004    -0.00695400
Spot 1    -0.01272126     0.03554909    -0.00695400
Spot 2    -0.01082210     0.03408004    -0.00695400
Spot 1    -0.01272119     0.03554927    -0.00695400
Spot 2    -0.01082210     0.03408004    -0.00695400
Spot 1    -0.01272116     0.03554920    -0.00695400
Spot 2    -0.01082210     0.03408004    -0.00695400
Spot 1    -0.01272116     0.03554908    -0.00695400
Spot 2    -0.01082210     0.03408004    -0.00695400
Spot 1    -0.01272139     0.03554923    -0.00695400
Spot 2    -0.01082210     0.03408004    -0.00695400
20MABNDL000077_PR024
Spot 1    -0.01357014     0.03577499    -0.00695400
Spot 2    -0.01082210     0.03408004    -0.00695400
Spot 1    -0.01357030     0.03577487    -0.00695400
Spot 2    -0.01082210     0.03408004    -0.00695400
Spot 1    -0.01357033     0.03577491    -0.00695400
Spot 2    -0.01082210     0.03408004    -0.00695400
Spot 1    -0.01357037     0.03577501    -0.00695400
Spot 2    -0.01082210     0.03408004    -0.00695400
Spot 1    -0.01357042     0.03577495    -0.00695400
Spot 2    -0.01082210     0.03408004    -0.00695400
Spot 1    -0.01357041     0.03577488    -0.00695400
Spot 2    -0.01082210     0.03408004    -0.00695400
20MABNDM000020_PR013
Spot 1    -0.01270080    -0.03609899    -0.00523500
Spot 2    -0.01285236    -0.03610953    -0.00523500
Spot 1    -0.01270055    -0.03609889    -0.00523500
Spot 2    -0.01285288    -0.03611018    -0.00523500
Spot 1    -0.01270065    -0.03609957    -0.00523500
Spot 2    -0.01285292    -0.03610998    -0.00523500
Spot 1    -0.01270057    -0.03609894    -0.00523500
Spot 2    -0.01285279    -0.03611051    -0.00523500
Spot 1    -0.01270086    -0.03609923    -0.00523500
Spot 2    -0.01285288    -0.03611003    -0.00523500
Spot 1    -0.01270082    -0.03609909    -0.00523500
Spot 2    -0.01285272    -0.03611023    -0.00523500
20MABNDM000020_PR014
Spot 1    -0.01166273    -0.03621684    -0.00523500
Spot 2    -0.01182450    -0.03622639    -0.00523500
Spot 1    -0.01166288    -0.03621595    -0.00523500
Spot 2    -0.01182470    -0.03622641    -0.00523500
Spot 1    -0.01166312    -0.03621693    -0.00523500
Spot 2    -0.01182468    -0.03622653    -0.00523500
Spot 1    -0.01166272    -0.03621766    -0.00523500
Spot 2    -0.01182460    -0.03622694    -0.00523500
Spot 1    -0.01166256    -0.03621739    -0.00523500
Spot 2    -0.01182451    -0.03622705    -0.00523500
Spot 1    -0.01166298    -0.03621676    -0.00523500
Spot 2    -0.01182472    -0.03622642    -0.00523500
20MABNDM000020_20MABNDL000196
Spot 1     0.01268410    -0.03454345    -0.07583800
Spot 2     0.01356112    -0.03398345    -0.07583800
Spot 1     0.01268406    -0.03454341    -0.07583800
Spot 2     0.01356112    -0.03398345    -0.07583800
Spot 1     0.01268395    -0.03454338    -0.07583800
Spot 2     0.01356112    -0.03398345    -0.07583800
Spot 1     0.01268412    -0.03454357    -0.07583800
Spot 2     0.01356112    -0.03398345    -0.07583800
Spot 1     0.01268406    -0.03454339    -0.07583800
Spot 2     0.01356112    -0.03398345    -0.07583800
Spot 1     0.01268410    -0.03454348    -0.07583800
Spot 2     0.01356112    -0.03398345    -0.07583800
20MABNDM000020_PR035
Spot 1     0.01342097    -0.03483640    -0.07583800
Spot 2     0.01348781    -0.03500305    -0.07583800
Spot 1     0.01342102    -0.03483652    -0.07583800
Spot 2     0.01348780    -0.03500221    -0.07583800
Spot 1     0.01342095    -0.03483659    -0.07583800
Spot 2     0.01348774    -0.03500188    -0.07583800
Spot 1     0.01342096    -0.03483660    -0.07583800
Spot 2     0.01348782    -0.03500223    -0.07583800
Spot 1     0.01342109    -0.03483664    -0.07583800
Spot 2     0.01348783    -0.03500149    -0.07583800
Spot 1     0.01342088    -0.03483648    -0.07583800
Spot 2     0.01348781    -0.03500122    -0.07583800
20MABNDM000168_PR025
Spot 1    -0.01337912    -0.03570256    -0.00532900
Spot 2    -0.01322784    -0.03569826    -0.00532900
Spot 1    -0.01337901    -0.03570283    -0.00532900
Spot 2    -0.01322786    -0.03569829    -0.00532900
Spot 1    -0.01337931    -0.03570244    -0.00532900
Spot 2    -0.01322801    -0.03569857    -0.00532900
Spot 1    -0.01337901    -0.03570299    -0.00532900
Spot 2    -0.01322790    -0.03569875    -0.00532900
Spot 1    -0.01337912    -0.03570308    -0.00532900
Spot 2    -0.01322791    -0.03569880    -0.00532900
Spot 1    -0.01337914    -0.03570297    -0.00532900
Spot 2    -0.01322796    -0.03569897    -0.00532900
20MABNDM000168_PR026
Spot 1    -0.01189512    -0.03581702    -0.00532900
Spot 2    -0.01173438    -0.03578756    -0.00532900
Spot 1    -0.01189509    -0.03581705    -0.00532900
Spot 2    -0.01173434    -0.03578748    -0.00532900
Spot 1    -0.01189521    -0.03581704    -0.00532900
Spot 2    -0.01173446    -0.03578747    -0.00532900
Spot 1    -0.01189522    -0.03581684    -0.00532900
Spot 2    -0.01173444    -0.03578736    -0.00532900
Spot 1    -0.01189510    -0.03581698    -0.00532900
Spot 2    -0.01173438    -0.03578750    -0.00532900
Spot 1    -0.01189524    -0.03581700    -0.00532900
Spot 2    -0.01173441    -0.03578734    -0.00532900
20MABNDM000168_20MABNDL000077
Spot 1     0.01288795    -0.03529877    -0.07445100
Spot 2     0.01444533    -0.03402234    -0.07445100
Spot 1     0.01288781    -0.03529877    -0.07445100
Spot 2     0.01444533    -0.03402234    -0.07445100
Spot 1     0.01288786    -0.03529869    -0.07445100
Spot 2     0.01444533    -0.03402234    -0.07445100
Spot 1     0.01288804    -0.03529881    -0.07445100
Spot 2     0.01444533    -0.03402234    -0.07445100
Spot 1     0.01288791    -0.03529873    -0.07445100
Spot 2     0.01444533    -0.03402234    -0.07445100
Spot 1     0.01288799    -0.03529872    -0.07445100
Spot 2     0.01444533    -0.03402234    -0.07445100
20MABNDM000168_PR001
Spot 1     0.01371689    -0.03563534    -0.07445100
Spot 2     0.01361372    -0.03563034    -0.07445100
Spot 1     0.01371717    -0.03563550    -0.07445100
Spot 2     0.01361570    -0.03563137    -0.07445100
Spot 1     0.01371691    -0.03563542    -0.07445100
Spot 2     0.01361570    -0.03563137    -0.07445100
Spot 1     0.01371706    -0.03563548    -0.07445100
Spot 2     0.01361570    -0.03563137    -0.07445100
Spot 1     0.01371685    -0.03563556    -0.07445100
Spot 2     0.01361570    -0.03563137    -0.07445100
Spot 1     0.01371676    -0.03563550    -0.07445100
Spot 2     0.01361568    -0.03563304    -0.07445100
20MABNDL000196_PR036
Spot 1     0.01210331     0.03583505    -0.07483600
Spot 2     0.01193883     0.03583627    -0.07483600
Spot 1     0.01210312     0.03583510    -0.07483600
Spot 2     0.01193911     0.03583632    -0.07483600
Spot 1     0.01210317     0.03583507    -0.07483600
Spot 2     0.01193883     0.03583686    -0.07483600
Spot 1     0.01210317     0.03583535    -0.07483600
Spot 2     0.01193887     0.03583643    -0.07483600
Spot 1     0.01210341     0.03583522    -0.07483600
Spot 2     0.01193849     0.03583674    -0.07483600
Spot 1     0.01210325     0.03583506    -0.07483600
Spot 2     0.01193844     0.03583607    -0.07483600
20MABNDL000196_PR037
Spot 1     0.01361637     0.03536548    -0.07483600
Spot 2     0.01346142     0.03536669    -0.07483600
Spot 1     0.01361624     0.03536548    -0.07483600
Spot 2     0.01346110     0.03536648    -0.07483600
Spot 1     0.01361615     0.03536543    -0.07483600
Spot 2     0.01346170     0.03536647    -0.07483600
Spot 1     0.01361616     0.03536576    -0.07483600
Spot 2     0.01346147     0.03536658    -0.07483600
Spot 1     0.01361615     0.03536565    -0.07483600
Spot 2     0.01346168     0.03536669    -0.07483600
Spot 1     0.01361616     0.03536557    -0.07483600
Spot 2     0.01346178     0.03536657    -0.07483600
20MABNDL000196_20MABNDM000020
Spot 1    -0.01277500     0.03530079    -0.00611000
Spot 2    -0.01255313     0.03530491    -0.00611000
Spot 1    -0.01277497     0.03530089    -0.00611000
Spot 2    -0.01255328     0.03530518    -0.00611000
Spot 1    -0.01277491     0.03530099    -0.00611000
Spot 2    -0.01255326     0.03530524    -0.00611000
Spot 1    -0.01277502     0.03530112    -0.00611000
Spot 2    -0.01255330     0.03530520    -0.00611000
Spot 1    -0.01277488     0.03530111    -0.00611000
Spot 2    -0.01255336     0.03530512    -0.00611000
Spot 1    -0.01277507     0.03530101    -0.00611000
Spot 2    -0.01255330     0.03530527    -0.00611000
20MABNDL000196_PR012
Spot 1    -0.01240387     0.03431296    -0.00611000
Spot 2    -0.01222237     0.03432329    -0.00611000
Spot 1    -0.01397885     0.03429627    -0.00611000
Spot 2    -0.01272581     0.03432316    -0.00611000
Spot 1    -0.01397885     0.03429627    -0.00611000
Spot 2    -0.01349725     0.03434597    -0.00611000
Spot 1    -0.01398891     0.03429907    -0.00611000
Spot 2    -0.01349240     0.03435357    -0.00611000
Spot 1    -0.01240953     0.03434619    -0.00611000
Spot 2    -0.01292406     0.03431750    -0.00611000
Spot 1    -0.01386862     0.03428599    -0.00611000
Spot 2    -0.01240932     0.03433536    -0.00611000
20MABNDA000318_PR004
Spot 1    -0.01286857     0.01246858    -0.07310600
Spot 2    -0.01265036     0.01246890    -0.07310600
Spot 1    -0.01286859     0.01246867    -0.07310600
Spot 2    -0.01265043     0.01246923    -0.07310600
Spot 1    -0.01286863     0.01246860    -0.07310600
Spot 2    -0.01265031     0.01246914    -0.07310600
Spot 1    -0.01286859     0.01246859    -0.07310600
Spot 2    -0.01265037     0.01246889    -0.07310600
Spot 1    -0.01286854     0.01246853    -0.07310600
Spot 2    -0.01265035     0.01246895    -0.07310600
Spot 1    -0.01286861     0.01246867    -0.07310600
Spot 2    -0.01265036     0.01246903    -0.07310600
20MABNDA000334_PR005
Spot 1    -0.01312080     0.01255555    -0.07324100
Spot 2    -0.01284033     0.01255497    -0.07324100
Spot 1    -0.01312076     0.01255568    -0.07324100
Spot 2    -0.01284022     0.01255485    -0.07324100
Spot 1    -0.01312079     0.01255546    -0.07324100
Spot 2    -0.01284051     0.01255482    -0.07324100
Spot 1    -0.01312078     0.01255570    -0.07324100
Spot 2    -0.01284027     0.01255510    -0.07324100
Spot 1    -0.01312073     0.01255573    -0.07324100
Spot 2    -0.01284044     0.01255489    -0.07324100
Spot 1    -0.01312072     0.01255555    -0.07324100
Spot 2    -0.01284023     0.01255481    -0.07324100
20MABNDB000317_PR015
Spot 1    -0.01243905    -0.01249356    -0.07326100
Spot 2    -0.01265860    -0.01248873    -0.07326100
Spot 1    -0.01243909    -0.01249339    -0.07326100
Spot 2    -0.01265871    -0.01248893    -0.07326100
Spot 1    -0.01243898    -0.01249347    -0.07326100
Spot 2    -0.01265881    -0.01248900    -0.07326100
Spot 1    -0.01243931    -0.01249357    -0.07326100
Spot 2    -0.01265854    -0.01248898    -0.07326100
Spot 1    -0.01243919    -0.01249344    -0.07326100
Spot 2    -0.01265861    -0.01248862    -0.07326100
Spot 1    -0.01243925    -0.01249350    -0.07326100
Spot 2    -0.01265876    -0.01248897    -0.07326100
20MABNDB000146_PR016
Spot 1    -0.01275705    -0.01246068    -0.07450500
Spot 2    -0.01248147    -0.01245860    -0.07450500
Spot 1    -0.01275698    -0.01246074    -0.07450500
Spot 2    -0.01248144    -0.01245841    -0.07450500
Spot 1    -0.01275701    -0.01246093    -0.07450500
Spot 2    -0.01248130    -0.01245852    -0.07450500
Spot 1    -0.01275690    -0.01246072    -0.07450500
Spot 2    -0.01248166    -0.01245842    -0.07450500
Spot 1    -0.01275695    -0.01246079    -0.07450500
Spot 2    -0.01248163    -0.01245830    -0.07450500
Spot 1    -0.01275714    -0.01246076    -0.07450500
Spot 2    -0.01248148    -0.01245836    -0.07450500
20MABNDB000135_PR027
Spot 1    -0.01251217    -0.01319037    -0.07464700
Spot 2    -0.01229368    -0.01319005    -0.07464700
Spot 1    -0.01251209    -0.01319033    -0.07464700
Spot 2    -0.01229358    -0.01319008    -0.07464700
Spot 1    -0.01251238    -0.01319030    -0.07464700
Spot 2    -0.01229362    -0.01319011    -0.07464700
Spot 1    -0.01251225    -0.01319020    -0.07464700
Spot 2    -0.01229361    -0.01318996    -0.07464700
Spot 1    -0.01251215    -0.01319019    -0.07464700
Spot 2    -0.01229366    -0.01319000    -0.07464700
Spot 1    -0.01251232    -0.01319024    -0.07464700
Spot 2    -0.01229369    -0.01319000    -0.07464700
20MABNDB000126_PR028
Spot 1    -0.01252784    -0.01217822    -0.07500400
Spot 2    -0.01224562    -0.01217430    -0.07500400
Spot 1    -0.01252788    -0.01217824    -0.07500400
Spot 2    -0.01224548    -0.01217426    -0.07500400
Spot 1    -0.01252785    -0.01217824    -0.07500400
Spot 2    -0.01224559    -0.01217442    -0.07500400
Spot 1    -0.01252794    -0.01217813    -0.07500400
Spot 2    -0.01224563    -0.01217437    -0.07500400
Spot 1    -0.01252789    -0.01217828    -0.07500400
Spot 2    -0.01224562    -0.01217461    -0.07500400
Spot 1    -0.01252789    -0.01217819    -0.07500400
Spot 2    -0.01224562    -0.01217441    -0.07500400
20MABNDA000272_PR038
Spot 1    -0.01275747     0.01314051    -0.07417900
Spot 2    -0.01253428     0.01314123    -0.07417900
Spot 1    -0.01275706     0.01314020    -0.07417900
Spot 2    -0.01253443     0.01314130    -0.07417900
Spot 1    -0.01275713     0.01314039    -0.07417900
Spot 2    -0.01253435     0.01314130    -0.07417900
Spot 1    -0.01275737     0.01314034    -0.07417900
Spot 2    -0.01253433     0.01314120    -0.07417900
Spot 1    -0.01275729     0.01314028    -0.07417900
Spot 2    -0.01253444     0.01314146    -0.07417900
Spot 1    -0.01275714     0.01314009    -0.07417900
Spot 2    -0.01253448     0.01314117    -0.07417900
20MABNDA000003_PR039
Spot 1    -0.01280814     0.01211988    -0.07373400
Spot 2    -0.01308548     0.01212119    -0.07373400
Spot 1    -0.01280786     0.01211975    -0.07373400
Spot 2    -0.01308534     0.01212097    -0.07373400
Spot 1    -0.01280815     0.01211984    -0.07373400
Spot 2    -0.01308543     0.01212114    -0.07373400
Spot 1    -0.01280809     0.01211983    -0.07373400
Spot 2    -0.01308545     0.01212114    -0.07373400
Spot 1    -0.01280822     0.01211968    -0.07373400
Spot 2    -0.01308552     0.01212107    -0.07373400
Spot 1    -0.01280802     0.01211968    -0.07373400
Spot 2    -0.01308525     0.01212119    -0.07373400
20MABNDA000196_PR006
Spot 1    -0.01293437     0.01322796    -0.07967100
Spot 2    -0.01256520     0.01322649    -0.07967100
Spot 1    -0.01293445     0.01322790    -0.07967100
Spot 2    -0.01256527     0.01322655    -0.07967100
Spot 1    -0.01293447     0.01322786    -0.07967100
Spot 2    -0.01256526     0.01322633    -0.07967100
Spot 1    -0.01293439     0.01322798    -0.07967100
Spot 2    -0.01256540     0.01322634    -0.07967100
Spot 1    -0.01293455     0.01322791    -0.07967100
Spot 2    -0.01256533     0.01322655    -0.07967100
Spot 1    -0.01293452     0.01322783    -0.07967100
Spot 2    -0.01256526     0.01322654    -0.07967100
20MABNDA000324_PR007
Spot 1    -0.01255782     0.01280766    -0.07446800
Spot 2    -0.01235169     0.01280356    -0.07446800
Spot 1    -0.01255770     0.01280775    -0.07446800
Spot 2    -0.01235188     0.01280358    -0.07446800
Spot 1    -0.01255766     0.01280759    -0.07446800
Spot 2    -0.01235171     0.01280342    -0.07446800
Spot 1    -0.01255780     0.01280757    -0.07446800
Spot 2    -0.01235179     0.01280346    -0.07446800
Spot 1    -0.01255782     0.01280773    -0.07446800
Spot 2    -0.01235199     0.01280351    -0.07446800
Spot 1    -0.01255775     0.01280776    -0.07446800
Spot 2    -0.01235193     0.01280358    -0.07446800
20MABNDB000001_PR017
Spot 1    -0.01231181    -0.01351507    -0.07418400
Spot 2    -0.01194233    -0.01350938    -0.07418400
Spot 1    -0.01231191    -0.01351517    -0.07418400
Spot 2    -0.01194227    -0.01350959    -0.07418400
Spot 1    -0.01231185    -0.01351519    -0.07418400
Spot 2    -0.01194244    -0.01350952    -0.07418400
Spot 1    -0.01231185    -0.01351514    -0.07418400
Spot 2    -0.01194245    -0.01350960    -0.07418400
Spot 1    -0.01231182    -0.01351512    -0.07418400
Spot 2    -0.01194226    -0.01350942    -0.07418400
Spot 1    -0.01231185    -0.01351515    -0.07418400
Spot 2    -0.01194226    -0.01350951    -0.07418400
20MABNDB000260_PR019
Spot 1    -0.01240401    -0.01240559    -0.07492700
Spot 2    -0.01219972    -0.01240147    -0.07492700
Spot 1    -0.01240420    -0.01240522    -0.07492700
Spot 2    -0.01219960    -0.01240103    -0.07492700
Spot 1    -0.01240384    -0.01240571    -0.07492700
Spot 2    -0.01219960    -0.01240127    -0.07492700
Spot 1    -0.01240393    -0.01240559    -0.07492700
Spot 2    -0.01219902    -0.01240124    -0.07492700
Spot 1    -0.01240392    -0.01240524    -0.07492700
Spot 2    -0.01219961    -0.01240063    -0.07492700
Spot 1    -0.01240432    -0.01240568    -0.07492700
Spot 2    -0.01219965    -0.01240131    -0.07492700
20MABNDB000212_PR029
Spot 1    -0.01185170    -0.01325596    -0.07390500
Spot 2    -0.01221895    -0.01325188    -0.07390500
Spot 1    -0.01185172    -0.01325598    -0.07390500
Spot 2    -0.01221904    -0.01325155    -0.07390500
Spot 1    -0.01185163    -0.01325588    -0.07390500
Spot 2    -0.01221917    -0.01325163    -0.07390500
Spot 1    -0.01185168    -0.01325591    -0.07390500
Spot 2    -0.01221945    -0.01325195    -0.07390500
Spot 1    -0.01185162    -0.01325602    -0.07390500
Spot 2    -0.01221904    -0.01325181    -0.07390500
Spot 1    -0.01185158    -0.01325593    -0.07390500
Spot 2    -0.01221917    -0.01325194    -0.07390500
20MABNDB000128_PR030
Spot 1    -0.01245075    -0.01220900    -0.07353400
Spot 2    -0.01224689    -0.01221404    -0.07353400
Spot 1    -0.01245079    -0.01220905    -0.07353400
Spot 2    -0.01224678    -0.01221418    -0.07353400
Spot 1    -0.01245084    -0.01220894    -0.07353400
Spot 2    -0.01224695    -0.01221426    -0.07353400
Spot 1    -0.01245083    -0.01220869    -0.07353400
Spot 2    -0.01224694    -0.01221408    -0.07353400
Spot 1    -0.01245081    -0.01220868    -0.07353400
Spot 2    -0.01224700    -0.01221410    -0.07353400
Spot 1    -0.01245086    -0.01220905    -0.07353400
Spot 2    -0.01224693    -0.01221412    -0.07353400
20MABNDA000444_PR040
Spot 1    -0.01168885     0.01364876    -0.07412000
Spot 2    -0.01205568     0.01364849    -0.07412000
Spot 1    -0.01168893     0.01364889    -0.07412000
Spot 2    -0.01205581     0.01364832    -0.07412000
Spot 1    -0.01168903     0.01364895    -0.07412000
Spot 2    -0.01205569     0.01364814    -0.07412000
Spot 1    -0.01168879     0.01364878    -0.07412000
Spot 2    -0.01205572     0.01364797    -0.07412000
Spot 1    -0.01168878     0.01364886    -0.07412000
Spot 2    -0.01205607     0.01364794    -0.07412000
Spot 1    -0.01168871     0.01364887    -0.07412000
Spot 2    -0.01205590     0.01364831    -0.07412000
20MABNDA000053_PR041
Spot 1    -0.01241515     0.01211913    -0.07430100
Spot 2    -0.01221071     0.01211852    -0.07430100
Spot 1    -0.01241531     0.01211933    -0.07430100
Spot 2    -0.01221094     0.01211872    -0.07430100
Spot 1    -0.01241535     0.01211915    -0.07430100
Spot 2    -0.01221087     0.01211844    -0.07430100
Spot 1    -0.01241509     0.01211932    -0.07430100
Spot 2    -0.01221079     0.01211899    -0.07430100
Spot 1    -0.01241507     0.01211907    -0.07430100
Spot 2    -0.01221096     0.01211874    -0.07430100
Spot 1    -0.01241530     0.01211935    -0.07430100
Spot 2    -0.01221107     0.01211840    -0.07430100
20MABNDA000188_PR008
Spot 1    -0.01381099     0.01395807    -0.07502000
Spot 2    -0.01381099     0.01395807    -0.07502000
Spot 1    -0.01381099     0.01395807    -0.07502000
Spot 2    -0.01385116     0.01393841    -0.07502000
Spot 1    -0.01385116     0.01393841    -0.07502000
Spot 2    -0.01385116     0.01393841    -0.07502000
Spot 1    -0.01380210     0.01382799    -0.07502000
Spot 2    -0.01381099     0.01395807    -0.07502000
Spot 1    -0.01380210     0.01382799    -0.07502000
Spot 2    -0.01398917     0.01300356    -0.07502000
Spot 1    -0.01381099     0.01395807    -0.07502000
Spot 2    -0.01415577     0.01340100    -0.07502000
20MABNDA000188_PR018
Spot 1    -0.01258497     0.01255178    -0.07502000
Spot 2    -0.01211786     0.01255112    -0.07502000
Spot 1    -0.01258492     0.01255173    -0.07502000
Spot 2    -0.01211786     0.01255116    -0.07502000
Spot 1    -0.01258488     0.01255165    -0.07502000
Spot 2    -0.01211798     0.01255116    -0.07502000
Spot 1    -0.01258513     0.01255168    -0.07502000
Spot 2    -0.01211778     0.01255120    -0.07502000
Spot 1    -0.01258491     0.01255168    -0.07502000
Spot 2    -0.01211784     0.01255103    -0.07502000
Spot 1    -0.01258494     0.01255164    -0.07502000
Spot 2    -0.01211786     0.01255114    -0.07502000
20MABNDA000039_PR009
Spot 1    -0.01162260     0.01303531    -0.07444800
Spot 2    -0.01157485     0.01303094    -0.07444800
Spot 1    -0.01162248     0.01303543    -0.07444800
Spot 2    -0.01157506     0.01303095    -0.07444800
Spot 1    -0.01162276     0.01303535    -0.07444800
Spot 2    -0.01157498     0.01303083    -0.07444800
Spot 1    -0.01162249     0.01303507    -0.07444800
Spot 2    -0.01157510     0.01303085    -0.07444800
Spot 1    -0.01162262     0.01303505    -0.07444800
Spot 2    -0.01157511     0.01303076    -0.07444800
Spot 1    -0.01162321     0.01303528    -0.07444800
Spot 2    -0.01157453     0.01303064    -0.07444800
20MABNDA000039_PR011
Spot 1    -0.01371832     0.01387984    -0.07444800
Spot 2    -0.01354287     0.01388427    -0.07444800
Spot 1    -0.01371829     0.01387979    -0.07444800
Spot 2    -0.01354275     0.01388417    -0.07444800
Spot 1    -0.01371831     0.01387999    -0.07444800
Spot 2    -0.01354297     0.01388431    -0.07444800
Spot 1    -0.01371837     0.01387988    -0.07444800
Spot 2    -0.01354275     0.01388411    -0.07444800
Spot 1    -0.01371835     0.01387959    -0.07444800
Spot 2    -0.01354277     0.01388420    -0.07444800
Spot 1    -0.01371826     0.01387991    -0.07444800
Spot 2    -0.01354281     0.01388425    -0.07444800
20MABNDB000155_PR020
Spot 1    -0.01359539    -0.01317021    -0.07501700
Spot 2    -0.01352983    -0.01317372    -0.07501700
Spot 1    -0.01359522    -0.01317009    -0.07501700
Spot 2    -0.01352896    -0.01317398    -0.07501700
Spot 1    -0.01359499    -0.01317044    -0.07501700
Spot 2    -0.01352883    -0.01317351    -0.07501700
Spot 1    -0.01359505    -0.01317036    -0.07501700
Spot 2    -0.01352886    -0.01317401    -0.07501700
Spot 1    -0.01359456    -0.01317025    -0.07501700
Spot 2    -0.01352915    -0.01317397    -0.07501700
Spot 1    -0.01359482    -0.01317028    -0.07501700
Spot 2    -0.01352936    -0.01317378    -0.07501700
20MABNDB000155_PR022
Spot 1    -0.01205561    -0.01313426    -0.07501700
Spot 2    -0.01158260    -0.01313174    -0.07501700
Spot 1    -0.01205563    -0.01313410    -0.07501700
Spot 2    -0.01158272    -0.01313159    -0.07501700
Spot 1    -0.01205574    -0.01313414    -0.07501700
Spot 2    -0.01158262    -0.01313176    -0.07501700
Spot 1    -0.01205572    -0.01313431    -0.07501700
Spot 2    -0.01158263    -0.01313168    -0.07501700
Spot 1    -0.01205559    -0.01313421    -0.07501700
Spot 2    -0.01158260    -0.01313166    -0.07501700
Spot 1    -0.01205565    -0.01313417    -0.07501700
Spot 2    -0.01158266    -0.01313176    -0.07501700
20MABNDB000010_PR021
Spot 1    -0.01158666    -0.01288863    -0.07358200
Spot 2    -0.01153109    -0.01288415    -0.07358200
Spot 1    -0.01158672    -0.01288878    -0.07358200
Spot 2    -0.01153105    -0.01288413    -0.07358200
Spot 1    -0.01158681    -0.01288864    -0.07358200
Spot 2    -0.01153087    -0.01288432    -0.07358200
Spot 1    -0.01158669    -0.01288847    -0.07358200
Spot 2    -0.01153110    -0.01288425    -0.07358200
Spot 1    -0.01158687    -0.01288870    -0.07358200
Spot 2    -0.01153079    -0.01288415    -0.07358200
Spot 1    -0.01158654    -0.01288851    -0.07358200
Spot 2    -0.01153065    -0.01288398    -0.07358200
20MABNDB000010_PR023
Spot 1    -0.01313117    -0.01368190    -0.07358200
Spot 2    -0.01295620    -0.01368107    -0.07358200
Spot 1    -0.01313119    -0.01368198    -0.07358200
Spot 2    -0.01295622    -0.01368099    -0.07358200
Spot 1    -0.01313097    -0.01368184    -0.07358200
Spot 2    -0.01295619    -0.01368102    -0.07358200
Spot 1    -0.01313112    -0.01368195    -0.07358200
Spot 2    -0.01295645    -0.01368072    -0.07358200
Spot 1    -0.01313118    -0.01368202    -0.07358200
Spot 2    -0.01295614    -0.01368100    -0.07358200
Spot 1    -0.01313107    -0.01368202    -0.07358200
Spot 2    -0.01295613    -0.01368090    -0.07358200


*****************************************************************coordonnees du prisme dans le repere MOUNT********************************************************************************** 
20MABNDB000069_PR031
    0.09823678    -0.03645011     9.20361805
    0.09827988    -0.03644698     9.20361805
    0.09825957    -0.03644799     9.20361805
    0.09826244    -0.03640820     9.20361805
    0.09828925    -0.03642772     9.20361710
    0.09825993    -0.03645414     9.20361805
    0.09830114    -0.03645215     9.20361710
20MABNDB000069_PR033
   -0.02793095    -0.02350179     1.28396034
   -0.02793141    -0.02350271     1.28396034
   -0.02793174    -0.02350227     1.28396034
   -0.02793152    -0.02350305     1.28396034
   -0.02793094    -0.02350367     1.28396034
   -0.02793149    -0.02350459     1.28396022
   -0.02793178    -0.02350338     1.28396022
20MABNDB000131_PR032
   -0.18841614    -0.03351678    11.00640774
   -0.18841469    -0.03351530    11.00640774
   -0.18841684    -0.03352335    11.00640774
   -0.18841539    -0.03351969    11.00640774
   -0.18838689    -0.03352320    11.00640869
   -0.18842062    -0.03349926    11.00640774
   -0.18841410    -0.03348535    11.00640774
20MABNDB000131_PR034
    0.01382981     0.01296830     3.43341112
    0.01382864     0.01297354     3.43341112
    0.01382407     0.01297602     3.43341112
    0.01383092     0.01297332     3.43341112
    0.01384052     0.01296927     3.43341112
    0.01382750     0.01297376     3.43341112
    0.01383004     0.01296853     3.43341112
20MABNDA000208_PR042
    0.12392458     0.01093448     9.20158005
    0.12389392     0.01090499     9.20158005
    0.12390191     0.01090193     9.20158005
    0.12387425     0.01094119     9.20158005
    0.12390437     0.01089886     9.20158005
    0.12387307     0.01089638     9.20158005
    0.12387735     0.01090989     9.20158005
20MABNDA000208_PR046
   -0.02588509     0.03081770     1.28211761
   -0.02588808     0.03081786     1.28211737
   -0.02588706     0.03081957     1.28211737
   -0.02588603     0.03081915     1.28211737
   -0.02588595     0.03082017     1.28211737
   -0.02588484     0.03082043     1.28211737
   -0.02588552     0.03081915     1.28211737
20MABNDA000035_PR044
   -0.17935807     0.03052046    11.00802612
   -0.17934716     0.03051234    11.00802612
   -0.17933321     0.03051882    11.00802612
   -0.17933992     0.03050204    11.00802612
   -0.17933759     0.03051958    11.00802612
   -0.17934263     0.03053059    11.00802612
20MABNDA000035_PR045
    0.01496087    -0.01521414     3.43486714
    0.01495884    -0.01521139     3.43486714
    0.01496111    -0.01521300     3.43486714
    0.01495996    -0.01521345     3.43486714
    0.01495973    -0.01521345     3.43486714
    0.01496176    -0.01521757     3.43486714
20MABNDL000077_PR002
    0.04964183     0.02138509     3.70690823
    0.04964359     0.02138754     3.70690823
    0.04964192     0.02136903     3.70690775
    0.04964536     0.02136727     3.70690775
    0.04963635     0.02138020     3.70690823
    0.04963359     0.02137603     3.70690823
20MABNDL000077_PR003
    0.01409645     0.03688543     3.89605379
    0.01410995     0.03685830     3.89605379
    0.01410599     0.03685107     3.89605379
    0.01410825     0.03684300     3.89605379
    0.01411125     0.03685881     3.89605379
    0.01410803     0.03684716     3.89605379
20MABNDL000077_20MABNDM000168
   -0.07866064     0.06843074    -5.46825504
   -0.07865746     0.06843763    -5.46825504
   -0.07865991     0.06843111    -5.46825504
   -0.07866102     0.06843362    -5.46825504
   -0.07866107     0.06843796    -5.46825504
   -0.07865271     0.06843262    -5.46825504
20MABNDL000077_PR024
   -0.05080977     0.06220636    -5.89653873
   -0.05080359     0.06221110    -5.89653873
   -0.05080240     0.06220955    -5.89653873
   -0.05080080     0.06220567    -5.89653873
   -0.05079887     0.06220803    -5.89653873
   -0.05079929     0.06221075    -5.89653873
20MABNDM000020_PR013
   -0.00525256     0.01232445    -3.80216765
   -0.00524592     0.01233824    -3.80216694
   -0.00524247     0.01235023    -3.80216694
   -0.00524762     0.01234763    -3.80216694
   -0.00523808     0.01234288    -3.80216694
   -0.00524333     0.01234425    -3.80216694
20MABNDM000020_PR014
   -0.06765243     0.03188775    -4.74799585
   -0.06764157     0.03186090    -4.74799633
   -0.06763485     0.03189498    -4.74799585
   -0.06764963     0.03193045    -4.74799538
   -0.06765731     0.03192528    -4.74799538
   -0.06763777     0.03188621    -4.74799633
20MABNDM000020_20MABNDL000196
   -0.01452096    -0.09608258     5.39442635
   -0.01451952    -0.09608401     5.39442635
   -0.01451558    -0.09608509     5.39442635
   -0.01452167    -0.09607828     5.39442635
   -0.01451952    -0.09608473     5.39442635
   -0.01452096    -0.09608150     5.39442635
20MABNDM000020_PR035
   -0.04214083    -0.05004869     5.80101299
   -0.04214237    -0.05007643     5.80101299
   -0.04213736    -0.05008644     5.80101299
   -0.04214083    -0.05007257     5.80101299
   -0.04214622    -0.05009954     5.80101299
   -0.04213735    -0.05011611     5.80101299
20MABNDM000168_PR025
    0.01798813    -0.01792779    -3.78862667
    0.01798587    -0.01792038    -3.78862667
    0.01799701    -0.01792306    -3.78862667
    0.01798679    -0.01790505    -3.78862667
    0.01798999    -0.01790157    -3.78862667
    0.01799146    -0.01790009    -3.78862596
20MABNDM000168_PR026
   -0.05789452    -0.01166831    -3.98427653
   -0.05789633    -0.01166962    -3.98427653
   -0.05789008    -0.01167011    -3.98427653
   -0.05789031    -0.01167818    -3.98427653
   -0.05789503    -0.01167091    -3.98427653
   -0.05789059    -0.01167454    -3.98427653
20MABNDM000168_20MABNDL000077
   -0.05244501    -0.08480437     5.38823223
   -0.05243999    -0.08480445     5.38823223
   -0.05244182    -0.08480729     5.38823223
   -0.05244822    -0.08480289     5.38823223
   -0.05244360    -0.08480583     5.38823223
   -0.05244648    -0.08480614     5.38823223
20MABNDM000168_PR001
   -0.05750288    -0.01328428     5.81470346
   -0.05759059    -0.01323842     5.81470203
   -0.05758055    -0.01324128     5.81470203
   -0.05758633    -0.01323926     5.81470203
   -0.05757814    -0.01323589     5.81470203
   -0.05757374    -0.01317354     5.81470203
20MABNDL000196_PR036
    0.05073560     0.00557515     3.68777514
    0.05073339     0.00557269     3.68777514
    0.05073906     0.00556018     3.68777514
    0.05073807     0.00556386     3.68777514
    0.05074152     0.00555944     3.68777514
    0.05074663     0.00557983     3.68777514
20MABNDL000196_PR037
   -0.02573303     0.02824184     3.88380623
   -0.02572141     0.02824729     3.88380671
   -0.02573460     0.02824882     3.88380623
   -0.02572889     0.02823745     3.88380671
   -0.02573406     0.02823744     3.88380623
   -0.02573691     0.02824261     3.88380623
20MABNDL000196_20MABNDM000020
   -0.01392320     0.03894867    -5.47473907
   -0.01391898     0.03893546    -5.47473907
   -0.01392174     0.03892966    -5.47473907
   -0.01391629     0.03892653    -5.47473907
   -0.01391923     0.03892970    -5.47473907
   -0.01391452     0.03892764    -5.47473907
20MABNDL000196_PR012
   -0.04129978     0.11572099    -5.91516113
    0.03947011     0.11637229    -5.91498852
    0.06944473     0.11548121    -5.91465569
    0.06964722     0.11507721    -5.91465855
   -0.01380992     0.11465602    -5.91524506
    0.02288817     0.11629957    -5.91511440
20MABNDA000318_PR004
   -0.00835623     0.03842110     2.74965858
   -0.00835455     0.03841341     2.74965858
   -0.00835603     0.03841633     2.74965858
   -0.00835568     0.03842110     2.74965858
   -0.00835696     0.03842110     2.74965858
   -0.00835548     0.03841707     2.74965858
20MABNDA000334_PR005
   -0.00414297     0.03131296     2.14977455
   -0.00414512     0.03131282     2.14977455
   -0.00414054     0.03131638     2.14977455
   -0.00414412     0.03130896     2.14977455
   -0.00414240     0.03131153     2.14977455
   -0.00414554     0.03131525     2.14977455
20MABNDB000317_PR015
   -0.01765945    -0.03431558     2.75128746
   -0.01765673    -0.03431500     2.75128746
   -0.01765694    -0.03431228     2.75128746
   -0.01765587    -0.03431081     2.75128746
   -0.01765667    -0.03431974     2.75128746
   -0.01765294    -0.03431223     2.75128746
20MABNDB000146_PR016
   -0.01363002    -0.03179339     2.15201259
   -0.01363145    -0.03179526     2.15201259
   -0.01363305    -0.03179095     2.15201259
   -0.01362944    -0.03179540     2.15201259
   -0.01362915    -0.03179612     2.15201259
   -0.01362858    -0.03179569     2.15201259
20MABNDB000135_PR027
   -0.02106370    -0.01011448     2.74937153
   -0.02106700    -0.01011463     2.74937153
   -0.02106095    -0.01011451     2.74937153
   -0.02106357    -0.01011925     2.74937153
   -0.02106448    -0.01011869     2.74937153
   -0.02106080    -0.01011763     2.74937153
20MABNDB000126_PR028
   -0.02053623    -0.03882509     2.14679623
   -0.02053766    -0.03882538     2.14679623
   -0.02053653    -0.03882309     2.14679623
   -0.02053466    -0.03882536     2.14679623
   -0.02053555    -0.03881981     2.14679623
   -0.02053552    -0.03882394     2.14679623
20MABNDA000272_PR038
   -0.01330737     0.01151978     2.74965906
   -0.01331213     0.01152400     2.74965906
   -0.01331231     0.01152052     2.74965906
   -0.01330828     0.01152345     2.74965906
   -0.01330774     0.01151978     2.74965906
   -0.01330974     0.01152840     2.74965906
20MABNDA000003_PR039
   -0.00576627     0.04139665     2.14891291
   -0.00577226     0.04140167     2.14891291
   -0.00576684     0.04139794     2.14891291
   -0.00576741     0.04139808     2.14891291
   -0.00576455     0.04140122     2.14891291
   -0.00577127     0.04139952     2.14891291
20MABNDA000196_PR006
   -0.01057640     0.01038176     1.64206481
   -0.01057476     0.01038174     1.64206481
   -0.01057472     0.01038458     1.64206481
   -0.01057408     0.01038315     1.64206481
   -0.01057301     0.01038160     1.64206481
   -0.01057409     0.01038260     1.64206481
20MABNDA000324_PR007
   -0.02509752     0.02792209     2.95549226
   -0.02509613     0.02791994     2.95549226
   -0.02510031     0.02792620     2.95549226
   -0.02509598     0.02792584     2.95549226
   -0.02509162     0.02792174     2.95549226
   -0.02509416     0.02791975     2.95549226
20MABNDB000001_PR017
   -0.02392321    -0.00362509     1.64036584
   -0.02392296    -0.00362171     1.64036584
   -0.02392165    -0.00362227     1.64036584
   -0.02392165    -0.00362194     1.64036584
   -0.02392386    -0.00362410     1.64036584
   -0.02392362    -0.00362279     1.64036584
20MABNDB000260_PR019
   -0.02456836    -0.03812684     2.95627618
   -0.02456705    -0.03814257     2.95627618
   -0.02457424    -0.03812815     2.95627618
   -0.02458383    -0.03813110     2.95627618
   -0.02457241    -0.03814997     2.95627594
   -0.02456380    -0.03812813     2.95627618
20MABNDB000212_PR029
   -0.02538209    -0.00900073     1.64223957
   -0.02538092    -0.00900414     1.64223957
   -0.02538038    -0.00900437     1.64223957
   -0.02537672    -0.00900057     1.64223957
   -0.02538198    -0.00900084     1.64223957
   -0.02538089    -0.00900052     1.64223957
20MABNDB000128_PR030
   -0.01942770    -0.04707760     2.95495987
   -0.01942909    -0.04707386     2.95495987
   -0.01942476    -0.04707444     2.95495987
   -0.01942512    -0.04708289     2.95495963
   -0.01942434    -0.04708269     2.95495963
   -0.01942476    -0.04707503     2.95495987
20MABNDA000444_PR040
   -0.03015863     0.00148288     1.64491343
   -0.03015645     0.00148334     1.64491367
   -0.03015668     0.00148465     1.64491367
   -0.03015881     0.00148835     1.64491367
   -0.03015519     0.00148774     1.64491367
   -0.03015788     0.00148376     1.64491343
20MABNDA000053_PR041
   -0.02636019     0.05108032     2.95450497
   -0.02635249     0.05107252     2.95450497
   -0.02635309     0.05108156     2.95450497
   -0.02635965     0.05106755     2.95450497
   -0.02635691     0.05107731     2.95450497
   -0.02635002     0.05107836     2.95450497
20MABNDA000188_PR008
    0.12406749    -0.09715948     9.20338535
    0.12653290    -0.09595264     9.20336342
    0.12899831    -0.09474574     9.20333958
    0.12352349    -0.08917569     9.20348549
    0.13446558    -0.03058592     9.20378208
    0.14523140    -0.06296510     9.20339298
20MABNDA000188_PR018
   -0.01861039     0.02180075     1.28360724
   -0.01861082     0.02180084     1.28360724
   -0.01861013     0.02180152     1.28360724
   -0.01860971     0.02180091     1.28360724
   -0.01861106     0.02180238     1.28360724
   -0.01861064     0.02180178     1.28360724
20MABNDA000039_PR009
   -0.17170003     0.02980660    11.00700188
   -0.17169349     0.02979706    11.00700188
   -0.17167881     0.02981162    11.00700188
   -0.17169043     0.02983069    11.00700188
   -0.17168014     0.02983869    11.00700188
   -0.17167872     0.02983064    11.00700188
20MABNDA000039_PR011
    0.03041694    -0.02038136     3.43351841
    0.03041354    -0.02037815     3.43351889
    0.03041897    -0.02038570     3.43351841
    0.03041536    -0.02037884     3.43351889
    0.03041538    -0.02037428     3.43351889
    0.03041421    -0.02038272     3.43351889
20MABNDB000155_PR020
    0.09584577    -0.00367487     9.20035553
    0.09578243    -0.00366591     9.20035553
    0.09575981    -0.00367359     9.20035553
    0.09576561    -0.00364772     9.20035553
    0.09575346    -0.00365710     9.20035648
    0.09578183    -0.00366653     9.20035553
20MABNDB000155_PR022
   -0.02734334    -0.01247529     1.28069687
   -0.02734211    -0.01247793     1.28069699
   -0.02734204    -0.01247622     1.28069699
   -0.02734214    -0.01247545     1.28069699
   -0.02734349    -0.01247641     1.28069687
   -0.02734247    -0.01247597     1.28069699
20MABNDB000010_PR021
   -0.17557441    -0.03919816    11.00694275
   -0.17557308    -0.03918858    11.00694275
   -0.17557979    -0.03918428    11.00694275
   -0.17557138    -0.03920252    11.00694275
   -0.17558113    -0.03919239    11.00694275
   -0.17561521    -0.03921944    11.00694275
20MABNDB000010_PR023
    0.00462702     0.01523412     3.43381476
    0.00462794     0.01523413     3.43381476
    0.00462202     0.01523174     3.43381524
    0.00463150     0.01522708     3.43381476
    0.00462586     0.01523525     3.43381476
    0.00462291     0.01523290     3.43381476


*****************************************************************coordonnees du prisme dans le repere ATLAS********************************************************************************** 
20MABNDB000069_PR031 0.00000000
    3.67995238     3.84881330    -7.90395069
    3.67999554     3.84881330    -7.90395403
    3.67997527     3.84881330    -7.90395308
    3.67997813     3.84881306    -7.90399265
    3.68000484     3.84881210    -7.90397310
    3.67997575     3.84881330    -7.90394688
    3.68001676     3.84881234    -7.90394878
20MABNDB000069_PR033 0.00000000
    3.53236675    -4.07045460    -7.88216925
    3.53236628    -4.07045460    -7.88216829
    3.53236604    -4.07045460    -7.88216877
    3.53236628    -4.07045460    -7.88216782
    3.53236675    -4.07045460    -7.88216734
    3.53236628    -4.07045507    -7.88216639
    3.53236604    -4.07045507    -7.88216734
20MABNDB000131_PR032 0.00000000
    3.86921740     3.64755702   -12.94415951
    3.86921597     3.64755702   -12.94415855
    3.86921811     3.64755702   -12.94416618
    3.86921668     3.64755702   -12.94416237
    3.86918807     3.64755774   -12.94416618
    3.86922193     3.64755702   -12.94414234
    3.86921549     3.64755702   -12.94412804
20MABNDB000131_PR034 0.00000000
    3.67395830    -3.92560601   -12.89497948
    3.67395949    -3.92560601   -12.89497375
    3.67396426    -3.92560601   -12.89497185
    3.67395735    -3.92560601   -12.89497471
    3.67394781    -3.92560601   -12.89497852
    3.67396069    -3.92560601   -12.89497375
    3.67395830    -3.92560601   -12.89497948
20MABNDA000208_PR042 0.00000000
   -3.67400074     3.84925270    -7.90054750
   -3.67396998     3.84925270    -7.90057659
   -3.67397809     3.84925270    -7.90057993
   -3.67395043     3.84925270    -7.90054083
   -3.67398047     3.84925270    -7.90058279
   -3.67394924     3.84925246    -7.90058517
   -3.67395353     3.84925270    -7.90057182
20MABNDA000208_PR046 0.00000000
   -3.52987838    -4.07030773    -7.87769938
   -3.52987528    -4.07030773    -7.87769890
   -3.52987647    -4.07030773    -7.87769747
   -3.52987742    -4.07030773    -7.87769794
   -3.52987742    -4.07030773    -7.87769699
   -3.52987862    -4.07030773    -7.87769651
   -3.52987790    -4.07030773    -7.87769794
20MABNDA000035_PR044 0.00000000
   -3.86859965     3.64758158   -12.93619919
   -3.86858869     3.64758158   -12.93619156
   -3.86857486     3.64758158   -12.93619823
   -3.86858153     3.64758158   -12.93618107
   -3.86857915     3.64758158   -12.93619919
   -3.86858416     3.64758158   -12.93620968
20MABNDA000035_PR045 0.00000000
   -3.67576814    -3.92561984   -12.89117050
   -3.67577028    -3.92561984   -12.89117336
   -3.67576790    -3.92561984   -12.89117146
   -3.67576909    -3.92561984   -12.89117050
   -3.67576933    -3.92561984   -12.89117050
   -3.67576718    -3.92561984   -12.89116669
20MABNDL000077_PR002 0.00000000
    2.83565569    -3.69487524     6.48618841
    2.83565331    -3.69487333     6.48618841
    2.83567190    -3.69487500     6.48618793
    2.83567357    -3.69487166     6.48618793
    2.83566070    -3.69488072     6.48618841
    2.83566475    -3.69488335     6.48618841
20MABNDL000077_PR003 0.00000000
    2.82032967    -3.73064899     6.67530537
    2.82035685    -3.73063540     6.67530537
    2.82036400    -3.73063946     6.67530537
    2.82037210    -3.73063707     6.67530537
    2.82035637    -3.73063421     6.67530537
    2.82036781    -3.73063731     6.67530537
20MABNDL000077_20MABNDM000168 0.00000000
    2.77956963    -3.81184244    -2.68907547
    2.77956271    -3.81183910    -2.68907547
    2.77956915    -3.81184149    -2.68907547
    2.77956676    -3.81184268    -2.68907547
    2.77956247    -3.81184268    -2.68907547
    2.77956772    -3.81183434    -2.68907547
20MABNDL000077_PR024 0.00000000
    2.78538275    -3.78346515    -3.11733031
    2.78537798    -3.78345895    -3.11733031
    2.78537965    -3.78345776    -3.11733031
    2.78538346    -3.78345609    -3.11733031
    2.78538108    -3.78345418    -3.11733031
    2.78537846    -3.78345466    -3.11733031
20MABNDM000020_PR013 0.00000000
   -2.86463332    -3.73422194     6.48601770
   -2.86464715    -3.73422861     6.48601675
   -2.86465907    -3.73423195     6.48601675
   -2.86465669    -3.73422694     6.48601675
   -2.86465192    -3.73423648     6.48601675
   -2.86465311    -3.73423123     6.48601675
20MABNDM000020_PR014 0.00000000
   -2.88398838    -3.67253542     7.43189669
   -2.88396144    -3.67254639     7.43189716
   -2.88399553    -3.67255306     7.43189669
   -2.88403106    -3.67253828     7.43189621
   -2.88402581    -3.67253065     7.43189621
   -2.88398671    -3.67255020     7.43189716
20MABNDM000020_20MABNDL000196 0.00000000
   -2.75806403    -3.71799231    -2.71058846
   -2.75806260    -3.71799374    -2.71058846
   -2.75806141    -3.71799779    -2.71058846
   -2.75806832    -3.71799159    -2.71058846
   -2.75806189    -3.71799374    -2.71058846
   -2.75806499    -3.71799231    -2.71058846
20MABNDM000020_PR035 0.00000000
   -2.80417085    -3.69004917    -3.11714458
   -2.80414295    -3.69004774    -3.11714458
   -2.80413294    -3.69005275    -3.11714458
   -2.80414677    -3.69004917    -3.11714458
   -2.80411983    -3.69004393    -3.11714458
   -2.80410337    -3.69005275    -3.11714458
20MABNDM000168_PR025 0.00000000
    2.83530903    -3.76331806    -6.47924566
    2.83531642    -3.76331592    -6.47924566
    2.83531380    -3.76332712    -6.47924566
    2.83533168    -3.76331687    -6.47924566
    2.83533525    -3.76331997    -6.47924566
    2.83533669    -3.76332140    -6.47924519
20MABNDM000168_PR026 0.00000000
    2.84157681    -3.68751001    -6.67492437
    2.84157538    -3.68750811    -6.67492437
    2.84157491    -3.68751431    -6.67492437
    2.84156680    -3.68751407    -6.67492437
    2.84157419    -3.68750930    -6.67492437
    2.84157038    -3.68751383    -6.67492437
20MABNDM000168_20MABNDL000077 0.00000000
    2.76900792    -3.68945503     2.69759035
    2.76900792    -3.68946028     2.69759035
    2.76900506    -3.68945837     2.69759035
    2.76900959    -3.68945193     2.69759035
    2.76900649    -3.68945646     2.69759035
    2.76900625    -3.68945360     2.69759035
20MABNDM000168_PR001 0.00000000
    2.84055543    -3.68425751     3.12405539
    2.84060121    -3.68417001     3.12405396
    2.84059834    -3.68418002     3.12405396
    2.84060049    -3.68417406     3.12405396
    2.84060383    -3.68418241     3.12405396
    2.84066606    -3.68418670     3.12405396
20MABNDL000196_PR036 0.00000000
   -2.84803200    -3.69353914    -6.47909832
   -2.84803462    -3.69354129    -6.47909784
   -2.84804702    -3.69353557    -6.47909832
   -2.84804344    -3.69353652    -6.47909832
   -2.84804773    -3.69353318    -6.47909832
   -2.84802747    -3.69352794    -6.47909832
20MABNDL000196_PR037 0.00000000
   -2.82533407    -3.77017951    -6.67505836
   -2.82532859    -3.77016783    -6.67505884
   -2.82532716    -3.77018094    -6.67505836
   -2.82533836    -3.77017522    -6.67505884
   -2.82533836    -3.77018046    -6.67505836
   -2.82533336    -3.77018332    -6.67505836
20MABNDL000196_20MABNDM000020 0.00000000
   -2.81443048    -3.74965930     2.68347168
   -2.81444383    -3.74965525     2.68347168
   -2.81444955    -3.74965787     2.68347168
   -2.81445265    -3.74965239     2.68347168
   -2.81444955    -3.74965549     2.68347168
   -2.81445146    -3.74965072     2.68347168
20MABNDL000196_PR012 0.00000000
   -2.73763585    -3.77659059     3.12391734
   -2.73702216    -3.69582057     3.12366962
   -2.73792720    -3.66584659     3.12330890
   -2.73833132    -3.66564441     3.12331152
   -2.73871374    -3.74910116     3.12397575
   -2.73708725    -3.71240234     3.12381101
20MABNDA000318_PR004 0.00000000
    2.61464691    -4.19698858     3.83357763
    2.61464858    -4.19698858     3.83358526
    2.61464715    -4.19698858     3.83358240
    2.61464763    -4.19698858     3.83357763
    2.61464620    -4.19698858     3.83357763
    2.61464763    -4.19698858     3.83358145
20MABNDA000334_PR005 0.00000000
    2.61685562    -4.19702816     5.89794779
    2.61685348    -4.19702816     5.89794827
    2.61685801    -4.19702816     5.89794445
    2.61685443    -4.19702816     5.89795208
    2.61685610    -4.19702816     5.89794922
    2.61685300    -4.19702816     5.89794588
20MABNDB000317_PR015 0.00000000
   -2.61094761    -4.19700384     3.83569980
   -2.61095047    -4.19700384     3.83570051
   -2.61095023    -4.19700384     3.83570313
   -2.61095142    -4.19700384     3.83570457
   -2.61095047    -4.19700384     3.83569574
   -2.61095428    -4.19700384     3.83570313
20MABNDB000146_PR016 0.00000000
   -2.61266518    -4.19702530     5.89855671
   -2.61266375    -4.19702530     5.89855480
   -2.61266208    -4.19702530     5.89855909
   -2.61266565    -4.19702530     5.89855480
   -2.61266613    -4.19702530     5.89855433
   -2.61266661    -4.19702530     5.89855480
20MABNDB000135_PR027 0.00000000
    2.60379958    -4.19700384    -3.82524633
    2.60379624    -4.19700384    -3.82524633
    2.60380220    -4.19700384    -3.82524633
    2.60379958    -4.19700384    -3.82524157
    2.60379887    -4.19700384    -3.82524228
    2.60380244    -4.19700384    -3.82524323
20MABNDB000126_PR028 0.00000000
    2.60538101    -4.19702053    -5.89339447
    2.60537958    -4.19702053    -5.89339447
    2.60538077    -4.19702053    -5.89339685
    2.60538244    -4.19702053    -5.89339447
    2.60538173    -4.19702053    -5.89340019
    2.60538173    -4.19702053    -5.89339590
20MABNDA000272_PR038 0.00000000
   -2.61122942    -4.19698238    -3.82696462
   -2.61122465    -4.19698238    -3.82696033
   -2.61122441    -4.19698238    -3.82696390
   -2.61122847    -4.19698238    -3.82696080
   -2.61122894    -4.19698238    -3.82696462
   -2.61122704    -4.19698238    -3.82695603
20MABNDA000003_PR039 0.00000000
   -2.61596489    -4.19702291    -5.89136982
   -2.61595893    -4.19702291    -5.89136505
   -2.61596441    -4.19702291    -5.89136887
   -2.61596370    -4.19702291    -5.89136839
   -2.61596656    -4.19702291    -5.89136553
   -2.61595988    -4.19702291    -5.89136696
20MABNDA000196_PR006 0.00000000
    2.58503699    -4.19496346     6.54833841
    2.58503532    -4.19496346     6.54833841
    2.58503532    -4.19496346     6.54834127
    2.58503461    -4.19496346     6.54833984
    2.58503342    -4.19496346     6.54833794
    2.58503461    -4.19496346     6.54833937
20MABNDA000324_PR007 0.00000000
    2.59421730    -4.13996601     6.94799328
    2.59421873    -4.13996601     6.94799519
    2.59421444    -4.13996601     6.94798899
    2.59421873    -4.13996601     6.94798946
    2.59422326    -4.13996601     6.94799328
    2.59422064    -4.13996601     6.94799519
20MABNDB000001_PR017 0.00000000
   -2.59762478    -4.19504976     6.53895330
   -2.59762454    -4.19504976     6.53894997
   -2.59762311    -4.19504976     6.53895044
   -2.59762311    -4.19504976     6.53894997
   -2.59762549    -4.19504976     6.53895235
   -2.59762526    -4.19504976     6.53895092
20MABNDB000260_PR019 0.00000000
   -2.60419369    -4.13995790     6.94251728
   -2.60419488    -4.13995790     6.94250154
   -2.60418773    -4.13995790     6.94251585
   -2.60417819    -4.13995790     6.94251299
   -2.60418963    -4.13995838     6.94249392
   -2.60419822    -4.13995790     6.94251585
20MABNDB000212_PR029 0.00000000
    2.59905982    -4.19500923    -6.54798841
    2.59905863    -4.19500923    -6.54799175
    2.59905815    -4.19500923    -6.54799223
    2.59905434    -4.19500923    -6.54798841
    2.59905982    -4.19500923    -6.54798889
    2.59905863    -4.19500923    -6.54798841
20MABNDB000128_PR030 0.00000000
    2.60943103    -4.14002943    -6.93104362
    2.60942960    -4.14002943    -6.93104744
    2.60943389    -4.14002943    -6.93104649
    2.60943365    -4.14002943    -6.93103838
    2.60943437    -4.14002943    -6.93103838
    2.60943389    -4.14002943    -6.93104601
20MABNDA000444_PR040 0.00000000
   -2.60533118    -4.19509602    -6.54066324
   -2.60532904    -4.19509602    -6.54066372
   -2.60532928    -4.19509602    -6.54066467
   -2.60533142    -4.19509602    -6.54066849
   -2.60532784    -4.19509602    -6.54066801
   -2.60533047    -4.19509602    -6.54066420
20MABNDA000053_PR041 0.00000000
   -2.59418178    -4.14012575    -6.92683315
   -2.59418941    -4.14012575    -6.92684126
   -2.59418893    -4.14012575    -6.92683220
   -2.59418225    -4.14012575    -6.92684603
   -2.59418511    -4.14012575    -6.92683601
   -2.59419203    -4.14012575    -6.92683506
20MABNDA000188_PR008 0.00000000
    3.53681302     3.84858370     8.10835648
    3.53929639     3.84861279     8.10718727
    3.54177952     3.84863997     8.10601807
    3.53638697     3.84876370     8.10036755
    3.54819822     3.84987497     8.04195595
    3.55848336     3.84929299     8.07448864
20MABNDA000188_PR018 0.00000000
    3.51846647    -4.07065296     7.90161085
    3.51846623    -4.07065296     7.90161085
    3.51846695    -4.07065296     7.90161037
    3.51846719    -4.07065296     7.90161085
    3.51846600    -4.07065296     7.90160942
    3.51846623    -4.07065296     7.90160990
20MABNDA000039_PR009 0.00000000
    3.87587142     3.64745808    12.94110107
    3.87586498     3.64745808    12.94109154
    3.87585020     3.64745808    12.94110584
    3.87586188     3.64745808    12.94112492
    3.87585163     3.64745808    12.94113255
    3.87585020     3.64745808    12.94112492
20MABNDA000039_PR011 0.00000000
    3.66460681    -3.92575908    12.88845539
    3.66461015    -3.92575884    12.88845825
    3.66460466    -3.92575908    12.88845062
    3.66460848    -3.92575860    12.88845825
    3.66460824    -3.92575884    12.88846207
    3.66460943    -3.92575860    12.88845444
20MABNDB000155_PR020 0.00000000
   -3.67449999     3.84890413     7.90319443
   -3.67443681     3.84890437     7.90320349
   -3.67441416     3.84890437     7.90319586
   -3.67441988     3.84890437     7.90322161
   -3.67440772     3.84890532     7.90321207
   -3.67443609     3.84890437     7.90320253
20MABNDB000155_PR022 0.00000000
   -3.53263879    -4.07044315     7.89558458
   -3.53264022    -4.07044315     7.89558172
   -3.53264022    -4.07044315     7.89558363
   -3.53263998    -4.07044315     7.89558458
   -3.53263879    -4.07044315     7.89558363
   -3.53263974    -4.07044315     7.89558363
20MABNDB000010_PR021 0.00000000
   -3.86140680     3.64768243    12.94102764
   -3.86140561     3.64768243    12.94101810
   -3.86141229     3.64768243    12.94101334
   -3.86140370     3.64768243    12.94103146
   -3.86141348     3.64768243    12.94102192
   -3.86144757     3.64768243    12.94104862
20MABNDB000010_PR023 0.00000000
   -3.68503499    -3.92555976    12.89004135
   -3.68503404    -3.92555976    12.89004135
   -3.68504000    -3.92555928    12.89004326
   -3.68503046    -3.92555976    12.89004803
   -3.68503618    -3.92555976    12.89004040
   -3.68503904    -3.92555976    12.89004230


*****************************************************************Rapport********************************************************************************** 
CAM-ECTC-US-IP_ECTC-US-IP-T    2015.08.01.20.56.59     3.67998552     3.84881295    -7.90395989     0.00002001     0.00000047     0.00001561 0.00000000 VRAI 
CAM-ECTC-US-IP_ECTC-US-IP      2015.08.01.20.56.59     3.53236634    -4.07045473    -7.88216788     0.00000028     0.00000022     0.00000090 0.00000000 VRAI 
CAM-ECTC-US-HO_ECTC-US-HO-T    2015.08.01.20.56.59     3.86921338     3.64755712   -12.94415474     0.00001052     0.00000025     0.00001322 0.00000000 VRAI 
CAM-ECTC-US-HO_ECTC-US-HO      2015.08.01.20.56.59     3.67395803    -3.92560601   -12.89497593     0.00000468     0.00000000     0.00000292 0.00000000 VRAI 
CAM-ECTC-USA-IP_ECTC-USA-IP-T  2015.08.01.20.56.59    -3.67396893     3.84925267    -7.90056923     0.00001772     0.00000008     0.00001644 0.00000000 VRAI 
CAM-ECTC-USA-IP_ECTC-USA-IP    2015.08.01.20.56.59    -3.52987736    -4.07030773    -7.87769788     0.00000107     0.00000000     0.00000093 0.00000000 VRAI 
CAM-ECTC-USA-HO_ECTC-USA-HO-T  2015.08.01.20.56.59    -3.86858467     3.64758158   -12.93619649     0.00000793     0.00000000     0.00000870 0.00000000 VRAI 
CAM-ECTC-USA-HO_ECTC-USA-HO    2015.08.01.20.56.59    -3.67576865    -3.92561984   -12.89117050     0.00000102     0.00000000     0.00000199 0.00000000 VRAI 
CAM-LBA-US_EBA-US-HO-H         2015.08.01.20.56.59     2.83566332    -3.69487655     6.48618825     0.00000760     0.00000412     0.00000022 0.00000000 VRAI 
CAM-LBA-US_JDA-US-H            2015.08.01.20.56.59     2.82035780    -3.73063874     6.67530537     0.00001377     0.00000487     0.00000000 0.00000000 VRAI 
CAM-LBA-US_CAM-LBC-US          2015.08.01.20.56.59     2.77956641    -3.81184045    -2.68907547     0.00000285     0.00000301     0.00000000 0.00000000 VRAI 
CAM-LBA-US_EBC-US-IP-H         2015.08.01.20.56.59     2.78538056    -3.78345780    -3.11733031     0.00000206     0.00000368     0.00000000 0.00000000 VRAI 
CAM-LBA-USA_EBA-USA-HO-H       2015.08.01.20.56.59    -2.86465021    -3.73422952     6.48601691     0.00000843     0.00000451     0.00000036 0.00000000 VRAI 
CAM-LBA-USA_JDA-USA-H          2015.08.01.20.56.59    -2.88399816    -3.67254233     7.43189669     0.00002391     0.00000811     0.00000039 0.00000000 VRAI 
CAM-LBA-USA_CAM-LBC-USA        2015.08.01.20.56.59    -2.75806387    -3.71799358    -2.71058846     0.00000233     0.00000204     0.00000000 0.00000000 VRAI 
CAM-LBA-USA_EBC-USA-IP-H       2015.08.01.20.56.59    -2.80413612    -3.69004925    -3.11714458     0.00002127     0.00000303     0.00000000 0.00000000 VRAI 
CAM-LBC-US_EBC-US-HO-H         2015.08.01.20.56.59     2.83532381    -3.76331989    -6.47924558     0.00001105     0.00000372     0.00000018 0.00000000 VRAI 
CAM-LBC-US_JDC-US-H            2015.08.01.20.56.59     2.84157308    -3.68751160    -6.67492437     0.00000343     0.00000253     0.00000000 0.00000000 VRAI 
CAM-LBC-US_CAM-LBA-US          2015.08.01.20.56.59     2.76900721    -3.68945595     2.69759035     0.00000146     0.00000281     0.00000000 0.00000000 VRAI 
CAM-LBC-US_EBA-US-IP-H         2015.08.01.20.56.59     2.84060423    -3.68419178     3.12405419     0.00003231     0.00002989     0.00000053 0.00000000 VRAI 
CAM-LBC-USA_EBC-USA-HO-H       2015.08.01.20.56.59    -2.84803871    -3.69353561    -6.47909824     0.00000776     0.00000429     0.00000018 0.00000000 VRAI 
CAM-LBC-USA_JDC-USA-H          2015.08.01.20.56.59    -2.82533332    -3.77017788    -6.67505852     0.00000432     0.00000511     0.00000022 0.00000000 VRAI 
CAM-LBC-USA_CAM-LBA-USA        2015.08.01.20.56.59    -2.81444625    -3.74965517     2.68347168     0.00000758     0.00000294     0.00000000 0.00000000 VRAI 
CAM-LBC-USA_EBA-USA-IP-H       2015.08.01.20.56.59    -2.73778625    -3.71090094     3.12366569     0.00061539     0.04099209     0.00026874 0.00000000 VRAI 
CAM-EBA-US-IP_EBA-US-IP        2015.08.01.20.56.59     2.61464735    -4.19698858     3.83358033     0.00000073     0.00000000     0.00000294 0.00000000 VRAI 
CAM-EBA-US-HO_EBA-US-HO        2015.08.01.20.56.59     2.61685510    -4.19702816     5.89794795     0.00000169     0.00000000     0.00000243 0.00000000 VRAI 
CAM-EBA-USA-IP_EBA-USA-IP      2015.08.01.20.56.59    -2.61095075    -4.19700384     3.83570115     0.00000197     0.00000000     0.00000292 0.00000000 VRAI 
CAM-EBA-USA-HO_EBA-USA-HO      2015.08.01.20.56.59    -2.61266490    -4.19702530     5.89855576     0.00000155     0.00000000     0.00000167 0.00000000 VRAI 
CAM-EBC-US-IP_EBC-US-IP        2015.08.01.20.56.59     2.60379982    -4.19700384    -3.82524435     0.00000210     0.00000000     0.00000204 0.00000000 VRAI 
CAM-EBC-US-HO_EBC-US-HO        2015.08.01.20.56.59     2.60538121    -4.19702053    -5.89339606     0.00000091     0.00000000     0.00000205 0.00000000 VRAI 
CAM-EBC-USA-IP_EBC-USA-IP      2015.08.01.20.56.59    -2.61122715    -4.19698238    -3.82696172     0.00000199     0.00000000     0.00000307 0.00000000 VRAI 
CAM-EBC-USA-HO_EBC-USA-HO      2015.08.01.20.56.59    -2.61596306    -4.19702291    -5.89136744     0.00000274     0.00000000     0.00000174 0.00000000 VRAI 
CAM-JDA-US-IP_JDA-US-IP        2015.08.01.20.56.59     2.58503505    -4.19496346     6.54833921     0.00000108     0.00000000     0.00000112 0.00000000 VRAI 
CAM-JDA-US-HO_JDA-US-HO        2015.08.01.20.56.59     2.59421885    -4.13996601     6.94799256     0.00000272     0.00000000     0.00000249 0.00000000 VRAI 
CAM-JDA-USA-IP_JDA-USA-IP      2015.08.01.20.56.59    -2.59762438    -4.19504976     6.53895116     0.00000095     0.00000000     0.00000125 0.00000000 VRAI 
CAM-JDA-USA-HO_JDA-USA-HO      2015.08.01.20.56.59    -2.60419039    -4.13995798     6.94250957     0.00000644     0.00000018     0.00000875 0.00000000 VRAI 
CAM-JDC-US-IP_JDC-US-IP        2015.08.01.20.56.59     2.59905823    -4.19500923    -6.54798969     0.00000185     0.00000000     0.00000164 0.00000000 VRAI 
CAM-JDC-US-HO_JDC-US-HO        2015.08.01.20.56.59     2.60943274    -4.14002943    -6.93104339     0.00000178     0.00000000     0.00000372 0.00000000 VRAI 
CAM-JDC-USA-IP_JDC-USA-IP      2015.08.01.20.56.59    -2.60532987    -4.19509602    -6.54066539     0.00000127     0.00000000     0.00000207 0.00000000 VRAI 
CAM-JDC-USA-HO_JDC-USA-HO      2015.08.01.20.56.59    -2.59418658    -4.14012575    -6.92683729     0.00000381     0.00000000     0.00000486 0.00000000 VRAI 
CAM-ECTA-US-IP_ECTA-US-IP-T    2015.08.01.20.56.59     3.54349291     3.84896135     8.08972899     0.00777298     0.00047455     0.02430644 0.00000000 VRAI 
CAM-ECTA-US-IP_ECTA-US-IP      2015.08.01.20.56.59     3.51846651    -4.07065296     7.90161037     0.00000042     0.00000000     0.00000055 0.00000000 VRAI 
CAM-ECTA-US-HO_ECTA-US-HO-T    2015.08.01.20.56.59     3.87585839     3.64745808    12.94111347     0.00000822     0.00000000     0.00001483 0.00000000 VRAI 
CAM-ECTA-US-HO_ECTA-US-HO      2015.08.01.20.56.59     3.66460796    -3.92575884    12.88845650     0.00000180     0.00000019     0.00000359 0.00000000 VRAI 
CAM-ECTA-USA-IP_ECTA-USA-IP-T  2015.08.01.20.56.59    -3.67443577     3.84890449     7.90320500     0.00003064     0.00000038     0.00000939 0.00000000 VRAI 
CAM-ECTA-USA-IP_ECTA-USA-IP    2015.08.01.20.56.59    -3.53263962    -4.07044315     7.89558363     0.00000061     0.00000000     0.00000095 0.00000000 VRAI 
CAM-ECTA-USA-HO_ECTA-USA-HO-T  2015.08.01.20.56.59    -3.86141491     3.64768243    12.94102685     0.00001502     0.00000000     0.00001140 0.00000000 VRAI 
CAM-ECTA-USA-HO_ECTA-USA-HO    2015.08.01.20.56.59    -3.68503579    -3.92555968    12.89004278     0.00000318     0.00000018     0.00000251 0.00000000 VRAI 
