********** Fichier qui contient une sauvegarde des coordonnees images + coordonnees images transformees dans le repere BCAM (MOUNT) + coordonnees des prismes dans le repere MOUNT********** 
********************************************************************** Unite en metres (m)************************************************************************************************** 

*******************************************************************coordonnees images dans le repere CCD *********************************************************************************** 
20MABNDB000069_PR031
Spot 1     0.00031906     0.00138891
Spot 2     0.00038737     0.00138868
Spot 1     0.00031818     0.00138781
Spot 2     0.00038704     0.00138730
Spot 1     0.00031853     0.00138895
Spot 2     0.00038715     0.00138843
Spot 1     0.00031837     0.00138887
Spot 2     0.00038726     0.00138839
Spot 1     0.00031836     0.00138836
Spot 2     0.00038780     0.00138780
Spot 1     0.00031868     0.00138847
Spot 2     0.00038667     0.00138692
Spot 1     0.00031814     0.00138806
Spot 2     0.00038691     0.00138763
Spot 1     0.00031763     0.00138855
Spot 2     0.00038689     0.00138725
Spot 1     0.00031791     0.00138869
Spot 2     0.00038718     0.00138748
Spot 1     0.00031757     0.00138728
Spot 2     0.00038683     0.00138698
Spot 1     0.00031887     0.00138925
Spot 2     0.00038755     0.00138762
Spot 1     0.00031744     0.00138827
Spot 2     0.00038724     0.00138744
20MABNDB000069_PR033
Spot 1     0.00189823     0.00186970
Spot 2     0.00236814     0.00188985
Spot 1     0.00189817     0.00186974
Spot 2     0.00236822     0.00188987
Spot 1     0.00189806     0.00186964
Spot 2     0.00236822     0.00188991
Spot 1     0.00189816     0.00186965
Spot 2     0.00236820     0.00188985
Spot 1     0.00189810     0.00186962
Spot 2     0.00236822     0.00188992
Spot 1     0.00189819     0.00186976
Spot 2     0.00236810     0.00188989
Spot 1     0.00189813     0.00186977
Spot 2     0.00236828     0.00188994
Spot 1     0.00189808     0.00186964
Spot 2     0.00236821     0.00188996
Spot 1     0.00189820     0.00186967
Spot 2     0.00236822     0.00188990
Spot 1     0.00189819     0.00186984
Spot 2     0.00236819     0.00189010
Spot 1     0.00189810     0.00187325
Spot 2     0.00236806     0.00188995
Spot 1     0.00189812     0.00186962
Spot 2     0.00236822     0.00188999
20MABNDB000131_PR032
Spot 1     0.00278111     0.00110509
Spot 2     0.00284057     0.00110809
Spot 1     0.00278131     0.00110485
Spot 2     0.00284095     0.00110807
Spot 1     0.00278107     0.00110497
Spot 2     0.00284063     0.00110816
Spot 1     0.00278103     0.00110529
Spot 2     0.00284084     0.00110822
Spot 1     0.00278114     0.00110497
Spot 2     0.00284074     0.00110795
Spot 1     0.00278113     0.00110500
Spot 2     0.00284078     0.00110804
Spot 1     0.00278107     0.00110500
Spot 2     0.00284054     0.00110824
Spot 1     0.00278119     0.00110503
Spot 2     0.00284053     0.00110802
Spot 1     0.00278130     0.00110506
Spot 2     0.00284068     0.00110851
Spot 1     0.00278063     0.00110515
Spot 2     0.00284032     0.00110794
Spot 1     0.00278109     0.00110486
Spot 2     0.00284068     0.00110799
Spot 1     0.00278093     0.00110503
Spot 2     0.00284063     0.00110825
20MABNDB000131_PR034
Spot 1     0.00093490     0.00040273
Spot 2     0.00111114     0.00040235
Spot 1     0.00093490     0.00040269
Spot 2     0.00111136     0.00040234
Spot 1     0.00093486     0.00040279
Spot 2     0.00111136     0.00040241
Spot 1     0.00093500     0.00040278
Spot 2     0.00111124     0.00040259
Spot 1     0.00093502     0.00040288
Spot 2     0.00111131     0.00040238
Spot 1     0.00093498     0.00040287
Spot 2     0.00111133     0.00040247
Spot 1     0.00093488     0.00040287
Spot 2     0.00111117     0.00040259
Spot 1     0.00093485     0.00040280
Spot 2     0.00111119     0.00040246
Spot 1     0.00093498     0.00040284
Spot 2     0.00111117     0.00040256
Spot 1     0.00093493     0.00040290
Spot 2     0.00111113     0.00040259
Spot 1     0.00093484     0.00040281
Spot 2     0.00111123     0.00040267
Spot 1     0.00093486     0.00040293
Spot 2     0.00111125     0.00040256
20MABNDA000208_PR042
Spot 1     0.00299193     0.00092131
Spot 2     0.00292019     0.00092311
Spot 1     0.00299183     0.00092178
Spot 2     0.00292009     0.00092351
Spot 1     0.00299164     0.00092169
Spot 2     0.00291964     0.00092349
Spot 1     0.00299087     0.00092142
Spot 2     0.00292034     0.00092372
Spot 1     0.00299232     0.00092199
Spot 2     0.00292053     0.00092388
Spot 1     0.00299226     0.00092183
Spot 2     0.00291999     0.00092387
Spot 1     0.00299215     0.00092164
Spot 2     0.00291962     0.00092382
Spot 1     0.00299196     0.00092177
Spot 2     0.00291955     0.00092370
Spot 1     0.00299209     0.00092146
Spot 2     0.00292017     0.00092363
Spot 1     0.00299173     0.00092193
Spot 2     0.00292079     0.00092338
Spot 1     0.00299193     0.00092167
Spot 2     0.00292012     0.00092373
Spot 1     0.00299251     0.00092238
Spot 2     0.00291951     0.00092359
20MABNDA000208_PR046
Spot 1     0.00130658     0.00200537
Spot 2     0.00083629     0.00198791
Spot 1     0.00130659     0.00200509
Spot 2     0.00083635     0.00198778
Spot 1     0.00130657     0.00200425
Spot 2     0.00083633     0.00198754
Spot 1     0.00130655     0.00200360
Spot 2     0.00083629     0.00198729
Spot 1     0.00130657     0.00200570
Spot 2     0.00083625     0.00198825
Spot 1     0.00130655     0.00200684
Spot 2     0.00083626     0.00198893
Spot 1     0.00130655     0.00200583
Spot 2     0.00083628     0.00198837
Spot 1     0.00130659     0.00200537
Spot 2     0.00083633     0.00198800
Spot 1     0.00130654     0.00200647
Spot 2     0.00083633     0.00198874
Spot 1     0.00130656     0.00200424
Spot 2     0.00083629     0.00198751
Spot 1     0.00130655     0.00200948
Spot 2     0.00083627     0.00199012
Spot 1     0.00130656     0.00200425
Spot 2     0.00083626     0.00198749
20MABNDA000035_PR044
Spot 1     0.00074123     0.00128391
Spot 2     0.00068526     0.00127899
Spot 1     0.00074100     0.00128406
Spot 2     0.00068532     0.00127876
Spot 1     0.00074111     0.00128411
Spot 2     0.00068546     0.00127881
Spot 1     0.00074104     0.00128396
Spot 2     0.00068508     0.00127888
Spot 1     0.00074183     0.00128399
Spot 2     0.00068582     0.00127892
Spot 1     0.00074114     0.00128419
Spot 2     0.00068562     0.00127903
Spot 1     0.00074125     0.00128396
Spot 2     0.00068540     0.00127892
Spot 1     0.00074126     0.00128402
Spot 2     0.00068528     0.00127907
Spot 1     0.00074118     0.00128367
Spot 2     0.00068558     0.00127891
Spot 1     0.00074107     0.00128404
Spot 2     0.00068518     0.00127896
Spot 1     0.00074133     0.00128431
Spot 2     0.00068538     0.00127902
Spot 1     0.00074130     0.00128426
Spot 2     0.00068520     0.00127900
20MABNDA000035_PR047
Spot 1     0.00255336     0.00055773
Spot 2     0.00237567     0.00055933
Spot 1     0.00255348     0.00055780
Spot 2     0.00237562     0.00055934
Spot 1     0.00255347     0.00055756
Spot 2     0.00237585     0.00055931
Spot 1     0.00255321     0.00055780
Spot 2     0.00237564     0.00055953
Spot 1     0.00255290     0.00059369
Spot 2     0.00237556     0.00055962
Spot 1     0.00255339     0.00055772
Spot 2     0.00237578     0.00055941
Spot 1     0.00255319     0.00055777
Spot 2     0.00237551     0.00055929
Spot 1     0.00255330     0.00055797
Spot 2     0.00237554     0.00055937
Spot 1     0.00255363     0.00055789
Spot 2     0.00237573     0.00055953
Spot 1     0.00255340     0.00055765
Spot 2     0.00237559     0.00055981
Spot 1     0.00255346     0.00055781
Spot 2     0.00237563     0.00055969
Spot 1     0.00255350     0.00055777
Spot 2     0.00237571     0.00055943
20MABNDA000188_PR008
Spot 1     0.00283500     0.00012500
Spot 2     0.00283500     0.00012500
Spot 1     0.00283500     0.00012500
Spot 2     0.00283500     0.00012500
Spot 1     0.00283500     0.00012500
Spot 2     0.00283500     0.00012500
Spot 1     0.00283500     0.00012500
Spot 2     0.00283500     0.00012500
Spot 1     0.00283500     0.00012500
Spot 2     0.00279500     0.00010500
Spot 1     0.00283500     0.00012500
Spot 2     0.00283500     0.00012500
Spot 1     0.00283500     0.00012500
Spot 2     0.00283500     0.00012500
Spot 1     0.00283500     0.00012500
Spot 2     0.00283500     0.00012500
Spot 1     0.00283500     0.00012500
Spot 2     0.00283500     0.00012500
Spot 1     0.00283500     0.00012500
Spot 2     0.00283500     0.00012500
Spot 1     0.00283500     0.00012500
Spot 2     0.00283500     0.00012500
Spot 1     0.00283500     0.00012500
Spot 2     0.00283500     0.00012500
20MABNDA000188_PR010
Spot 1     0.00155264     0.00170011
Spot 2     0.00108585     0.00150045
Spot 1     0.00155249     0.00170007
Spot 2     0.00108580     0.00150041
Spot 1     0.00155250     0.00169972
Spot 2     0.00108587     0.00150041
Spot 1     0.00155254     0.00169984
Spot 2     0.00108583     0.00150064
Spot 1     0.00155257     0.00169966
Spot 2     0.00108590     0.00150055
Spot 1     0.00155259     0.00169962
Spot 2     0.00108585     0.00150060
Spot 1     0.00155259     0.00169966
Spot 2     0.00108582     0.00150061
Spot 1     0.00155256     0.00169949
Spot 2     0.00108580     0.00150065
Spot 1     0.00155251     0.00169946
Spot 2     0.00108578     0.00150062
Spot 1     0.00155251     0.00169974
Spot 2     0.00108583     0.00150056
Spot 1     0.00155257     0.00169974
Spot 2     0.00108586     0.00150064
Spot 1     0.00155255     0.00170015
Spot 2     0.00108580     0.00150063
20MABNDA000039_PR009
Spot 1     0.00065969     0.00121101
Spot 2     0.00061188     0.00121449
Spot 1     0.00065937     0.00121111
Spot 2     0.00061200     0.00121468
Spot 1     0.00065965     0.00121094
Spot 2     0.00061197     0.00121432
Spot 1     0.00065976     0.00121092
Spot 2     0.00061234     0.00121400
Spot 1     0.00065979     0.00121072
Spot 2     0.00061255     0.00121446
Spot 1     0.00065955     0.00121074
Spot 2     0.00061222     0.00121458
Spot 1     0.00065955     0.00121096
Spot 2     0.00061246     0.00121438
Spot 1     0.00065955     0.00121093
Spot 2     0.00061203     0.00121448
Spot 1     0.00065987     0.00121067
Spot 2     0.00061234     0.00121431
Spot 1     0.00065953     0.00121063
Spot 2     0.00061237     0.00121416
Spot 1     0.00065993     0.00121061
Spot 2     0.00061211     0.00121433
Spot 1     0.00065983     0.00121063
Spot 2     0.00061199     0.00121404
20MABNDA000039_PR011
Spot 1     0.00275989     0.00037375
Spot 2     0.00258419     0.00036889
Spot 1     0.00275980     0.00037367
Spot 2     0.00258448     0.00036881
Spot 1     0.00275980     0.00037374
Spot 2     0.00258422     0.00036878
Spot 1     0.00275972     0.00037379
Spot 2     0.00258435     0.00036880
Spot 1     0.00275981     0.00037376
Spot 2     0.00258429     0.00036880
Spot 1     0.00275974     0.00037387
Spot 2     0.00258427     0.00036892
Spot 1     0.00275988     0.00037376
Spot 2     0.00258430     0.00036888
Spot 1     0.00275972     0.00037375
Spot 2     0.00258420     0.00036888
Spot 1     0.00275970     0.00037381
Spot 2     0.00258429     0.00036886
Spot 1     0.00275976     0.00037384
Spot 2     0.00258434     0.00036869
Spot 1     0.00275975     0.00037387
Spot 2     0.00258423     0.00036882
Spot 1     0.00275981     0.00037370
Spot 2     0.00258438     0.00036884
20MABNDB000155_PR020
Spot 1     0.00067160     0.00108788
Spot 2     0.00073703     0.00108390
Spot 1     0.00067178     0.00108727
Spot 2     0.00073641     0.00108340
Spot 1     0.00067213     0.00108780
Spot 2     0.00073723     0.00108357
Spot 1     0.00067183     0.00108763
Spot 2     0.00073739     0.00108328
Spot 1     0.00067296     0.00108749
Spot 2     0.00073799     0.00108366
Spot 1     0.00067256     0.00108714
Spot 2     0.00073769     0.00108333
Spot 1     0.00067207     0.00108782
Spot 2     0.00073654     0.00108381
Spot 1     0.00067152     0.00108761
Spot 2     0.00073718     0.00108358
Spot 1     0.00067207     0.00108772
Spot 2     0.00073759     0.00108336
Spot 1     0.00067237     0.00108733
Spot 2     0.00073751     0.00108358
Spot 1     0.00067239     0.00108754
Spot 2     0.00073754     0.00108347
Spot 1     0.00067230     0.00108734
Spot 2     0.00073722     0.00108326
20MABNDB000155_PR022
Spot 1     0.00221219     0.00110090
Spot 2     0.00268546     0.00109676
Spot 1     0.00221208     0.00110088
Spot 2     0.00268540     0.00109687
Spot 1     0.00221220     0.00110091
Spot 2     0.00268549     0.00109688
Spot 1     0.00221204     0.00110103
Spot 2     0.00268545     0.00109690
Spot 1     0.00221205     0.00110093
Spot 2     0.00268549     0.00109684
Spot 1     0.00221219     0.00110087
Spot 2     0.00268545     0.00109690
Spot 1     0.00221199     0.00110090
Spot 2     0.00268545     0.00109698
Spot 1     0.00221211     0.00110098
Spot 2     0.00268549     0.00109688
Spot 1     0.00221215     0.00110094
Spot 2     0.00268554     0.00109689
Spot 1     0.00221224     0.00110087
Spot 2     0.00268554     0.00109680
Spot 1     0.00221214     0.00110099
Spot 2     0.00268555     0.00109685
Spot 1     0.00221219     0.00110089
Spot 2     0.00268548     0.00109705
20MABNDB000010_PR021
Spot 1     0.00286597     0.00119202
Spot 2     0.00292060     0.00119456
Spot 1     0.00286583     0.00119159
Spot 2     0.00292124     0.00119493
Spot 1     0.00286571     0.00119192
Spot 2     0.00292083     0.00119472
Spot 1     0.00286577     0.00119170
Spot 2     0.00292090     0.00119467
Spot 1     0.00286532     0.00119148
Spot 2     0.00292096     0.00119461
Spot 1     0.00286539     0.00119155
Spot 2     0.00292084     0.00119454
Spot 1     0.00286590     0.00119158
Spot 2     0.00292097     0.00119474
Spot 1     0.00286549     0.00119158
Spot 2     0.00292081     0.00119445
Spot 1     0.00286563     0.00119194
Spot 2     0.00292066     0.00119497
Spot 1     0.00286565     0.00119162
Spot 2     0.00292047     0.00119474
Spot 1     0.00286548     0.00119171
Spot 2     0.00292087     0.00119486
Spot 1     0.00286567     0.00119169
Spot 2     0.00292036     0.00119472
20MABNDB000010_PR023
Spot 1     0.00130708     0.00042318
Spot 2     0.00148192     0.00042187
Spot 1     0.00130697     0.00042330
Spot 2     0.00148186     0.00042189
Spot 1     0.00130705     0.00042333
Spot 2     0.00148192     0.00042183
Spot 1     0.00130710     0.00042328
Spot 2     0.00148197     0.00042184
Spot 1     0.00130698     0.00042324
Spot 2     0.00148197     0.00042170
Spot 1     0.00130711     0.00042324
Spot 2     0.00148197     0.00042180
Spot 1     0.00130702     0.00042329
Spot 2     0.00148192     0.00042189
Spot 1     0.00130697     0.00042319
Spot 2     0.00148196     0.00042187
Spot 1     0.00130699     0.00042334
Spot 2     0.00148192     0.00042197
Spot 1     0.00130700     0.00042326
Spot 2     0.00148188     0.00042181
Spot 1     0.00130702     0.00042354
Spot 2     0.00148198     0.00042193


****************************************************************coordonnees images transformees dans le repere MOUNT************************************************************************* 
20MABNDB000069_PR031
Spot 1    -0.01355789    -0.01288018    -0.07388500
Spot 2    -0.01348965    -0.01288323    -0.07388500
Spot 1    -0.01355881    -0.01288125    -0.07388500
Spot 2    -0.01349003    -0.01288460    -0.07388500
Spot 1    -0.01355842    -0.01288012    -0.07388500
Spot 2    -0.01348988    -0.01288347    -0.07388500
Spot 1    -0.01355858    -0.01288019    -0.07388500
Spot 2    -0.01348977    -0.01288352    -0.07388500
Spot 1    -0.01355861    -0.01288070    -0.07388500
Spot 2    -0.01348925    -0.01288413    -0.07388500
Spot 1    -0.01355829    -0.01288061    -0.07388500
Spot 2    -0.01349042    -0.01288496    -0.07388500
Spot 1    -0.01355884    -0.01288099    -0.07388500
Spot 2    -0.01349015    -0.01288426    -0.07388500
Spot 1    -0.01355933    -0.01288048    -0.07388500
Spot 2    -0.01349018    -0.01288464    -0.07388500
Spot 1    -0.01355905    -0.01288036    -0.07388500
Spot 2    -0.01348988    -0.01288442    -0.07388500
Spot 1    -0.01355944    -0.01288175    -0.07388500
Spot 2    -0.01349025    -0.01288491    -0.07388500
Spot 1    -0.01355806    -0.01287984    -0.07388500
Spot 2    -0.01348951    -0.01288430    -0.07388500
Spot 1    -0.01355953    -0.01288076    -0.07388500
Spot 2    -0.01348983    -0.01288447    -0.07388500
20MABNDB000069_PR033
Spot 1    -0.01196022    -0.01246497    -0.07388500
Spot 2    -0.01148988    -0.01246423    -0.07388500
Spot 1    -0.01196028    -0.01246493    -0.07388500
Spot 2    -0.01148980    -0.01246421    -0.07388500
Spot 1    -0.01196039    -0.01246502    -0.07388500
Spot 2    -0.01148980    -0.01246417    -0.07388500
Spot 1    -0.01196029    -0.01246502    -0.07388500
Spot 2    -0.01148982    -0.01246423    -0.07388500
Spot 1    -0.01196035    -0.01246505    -0.07388500
Spot 2    -0.01148980    -0.01246416    -0.07388500
Spot 1    -0.01196026    -0.01246491    -0.07388500
Spot 2    -0.01148992    -0.01246419    -0.07388500
Spot 1    -0.01196032    -0.01246490    -0.07388500
Spot 2    -0.01148974    -0.01246415    -0.07388500
Spot 1    -0.01196037    -0.01246502    -0.07388500
Spot 2    -0.01148981    -0.01246412    -0.07388500
Spot 1    -0.01196025    -0.01246500    -0.07388500
Spot 2    -0.01148980    -0.01246418    -0.07388500
Spot 1    -0.01196026    -0.01246483    -0.07388500
Spot 2    -0.01148982    -0.01246398    -0.07388500
Spot 1    -0.01196021    -0.01246142    -0.07388500
Spot 2    -0.01148996    -0.01246413    -0.07388500
Spot 1    -0.01196033    -0.01246505    -0.07388500
Spot 2    -0.01148979    -0.01246409    -0.07388500
20MABNDB000131_PR032
Spot 1    -0.01143918    -0.01300964    -0.07533000
Spot 2    -0.01137973    -0.01300634    -0.07533000
Spot 1    -0.01143898    -0.01300988    -0.07533000
Spot 2    -0.01137935    -0.01300636    -0.07533000
Spot 1    -0.01143922    -0.01300976    -0.07533000
Spot 2    -0.01137967    -0.01300627    -0.07533000
Spot 1    -0.01143926    -0.01300944    -0.07533000
Spot 2    -0.01137946    -0.01300621    -0.07533000
Spot 1    -0.01143915    -0.01300976    -0.07533000
Spot 2    -0.01137956    -0.01300648    -0.07533000
Spot 1    -0.01143916    -0.01300973    -0.07533000
Spot 2    -0.01137952    -0.01300639    -0.07533000
Spot 1    -0.01143922    -0.01300973    -0.07533000
Spot 2    -0.01137976    -0.01300619    -0.07533000
Spot 1    -0.01143910    -0.01300970    -0.07533000
Spot 2    -0.01137977    -0.01300641    -0.07533000
Spot 1    -0.01143899    -0.01300967    -0.07533000
Spot 2    -0.01137963    -0.01300592    -0.07533000
Spot 1    -0.01143966    -0.01300959    -0.07533000
Spot 2    -0.01137998    -0.01300650    -0.07533000
Spot 1    -0.01143920    -0.01300987    -0.07533000
Spot 2    -0.01137962    -0.01300644    -0.07533000
Spot 1    -0.01143936    -0.01300970    -0.07533000
Spot 2    -0.01137967    -0.01300618    -0.07533000
20MABNDB000131_PR034
Spot 1    -0.01328183    -0.01372129    -0.07533000
Spot 2    -0.01310559    -0.01372078    -0.07533000
Spot 1    -0.01328183    -0.01372133    -0.07533000
Spot 2    -0.01310537    -0.01372079    -0.07533000
Spot 1    -0.01328187    -0.01372123    -0.07533000
Spot 2    -0.01310537    -0.01372072    -0.07533000
Spot 1    -0.01328173    -0.01372124    -0.07533000
Spot 2    -0.01310549    -0.01372054    -0.07533000
Spot 1    -0.01328171    -0.01372114    -0.07533000
Spot 2    -0.01310542    -0.01372075    -0.07533000
Spot 1    -0.01328175    -0.01372115    -0.07533000
Spot 2    -0.01310540    -0.01372066    -0.07533000
Spot 1    -0.01328185    -0.01372115    -0.07533000
Spot 2    -0.01310556    -0.01372054    -0.07533000
Spot 1    -0.01328188    -0.01372122    -0.07533000
Spot 2    -0.01310554    -0.01372067    -0.07533000
Spot 1    -0.01328175    -0.01372118    -0.07533000
Spot 2    -0.01310556    -0.01372057    -0.07533000
Spot 1    -0.01328180    -0.01372112    -0.07533000
Spot 2    -0.01310560    -0.01372054    -0.07533000
Spot 1    -0.01328189    -0.01372121    -0.07533000
Spot 2    -0.01310550    -0.01372046    -0.07533000
Spot 1    -0.01328187    -0.01372109    -0.07533000
Spot 2    -0.01310548    -0.01372057    -0.07533000
20MABNDA000208_PR042
Spot 1    -0.01386268     0.01307477    -0.07273700
Spot 2    -0.01379094     0.01307303    -0.07273700
Spot 1    -0.01386258     0.01307430    -0.07273700
Spot 2    -0.01379084     0.01307263    -0.07273700
Spot 1    -0.01386239     0.01307439    -0.07273700
Spot 2    -0.01379039     0.01307265    -0.07273700
Spot 1    -0.01386162     0.01307466    -0.07273700
Spot 2    -0.01379109     0.01307242    -0.07273700
Spot 1    -0.01386307     0.01307409    -0.07273700
Spot 2    -0.01379128     0.01307226    -0.07273700
Spot 1    -0.01386301     0.01307425    -0.07273700
Spot 2    -0.01379074     0.01307227    -0.07273700
Spot 1    -0.01386290     0.01307444    -0.07273700
Spot 2    -0.01379037     0.01307232    -0.07273700
Spot 1    -0.01386271     0.01307431    -0.07273700
Spot 2    -0.01379030     0.01307244    -0.07273700
Spot 1    -0.01386284     0.01307462    -0.07273700
Spot 2    -0.01379092     0.01307251    -0.07273700
Spot 1    -0.01386248     0.01307415    -0.07273700
Spot 2    -0.01379154     0.01307276    -0.07273700
Spot 1    -0.01386268     0.01307441    -0.07273700
Spot 2    -0.01379087     0.01307241    -0.07273700
Spot 1    -0.01386326     0.01307370    -0.07273700
Spot 2    -0.01379026     0.01307255    -0.07273700
20MABNDA000208_PR046
Spot 1    -0.01217638     0.01199219    -0.07273700
Spot 2    -0.01170610     0.01201006    -0.07273700
Spot 1    -0.01217639     0.01199247    -0.07273700
Spot 2    -0.01170616     0.01201019    -0.07273700
Spot 1    -0.01217637     0.01199331    -0.07273700
Spot 2    -0.01170614     0.01201043    -0.07273700
Spot 1    -0.01217635     0.01199396    -0.07273700
Spot 2    -0.01170610     0.01201068    -0.07273700
Spot 1    -0.01217637     0.01199186    -0.07273700
Spot 2    -0.01170606     0.01200972    -0.07273700
Spot 1    -0.01217635     0.01199072    -0.07273700
Spot 2    -0.01170607     0.01200904    -0.07273700
Spot 1    -0.01217635     0.01199173    -0.07273700
Spot 2    -0.01170609     0.01200960    -0.07273700
Spot 1    -0.01217639     0.01199219    -0.07273700
Spot 2    -0.01170614     0.01200997    -0.07273700
Spot 1    -0.01217634     0.01199109    -0.07273700
Spot 2    -0.01170614     0.01200923    -0.07273700
Spot 1    -0.01217636     0.01199332    -0.07273700
Spot 2    -0.01170610     0.01201046    -0.07273700
Spot 1    -0.01217634     0.01198808    -0.07273700
Spot 2    -0.01170608     0.01200785    -0.07273700
Spot 1    -0.01217636     0.01199331    -0.07273700
Spot 2    -0.01170607     0.01201048    -0.07273700
20MABNDA000035_PR044
Spot 1    -0.01157607     0.01297336    -0.07483200
Spot 2    -0.01152007     0.01297788    -0.07483200
Spot 1    -0.01157584     0.01297321    -0.07483200
Spot 2    -0.01152012     0.01297811    -0.07483200
Spot 1    -0.01157595     0.01297316    -0.07483200
Spot 2    -0.01152026     0.01297806    -0.07483200
Spot 1    -0.01157588     0.01297331    -0.07483200
Spot 2    -0.01151988     0.01297799    -0.07483200
Spot 1    -0.01157667     0.01297328    -0.07483200
Spot 2    -0.01152062     0.01297795    -0.07483200
Spot 1    -0.01157598     0.01297308    -0.07483200
Spot 2    -0.01152043     0.01297784    -0.07483200
Spot 1    -0.01157609     0.01297331    -0.07483200
Spot 2    -0.01152020     0.01297795    -0.07483200
Spot 1    -0.01157610     0.01297325    -0.07483200
Spot 2    -0.01152009     0.01297780    -0.07483200
Spot 1    -0.01157602     0.01297360    -0.07483200
Spot 2    -0.01152038     0.01297796    -0.07483200
Spot 1    -0.01157591     0.01297323    -0.07483200
Spot 2    -0.01151999     0.01297791    -0.07483200
Spot 1    -0.01157617     0.01297296    -0.07483200
Spot 2    -0.01152019     0.01297785    -0.07483200
Spot 1    -0.01157614     0.01297301    -0.07483200
Spot 2    -0.01152001     0.01297787    -0.07483200
20MABNDA000035_PR047
Spot 1    -0.01338299     0.01371241    -0.07483200
Spot 2    -0.01320531     0.01370955    -0.07483200
Spot 1    -0.01338311     0.01371234    -0.07483200
Spot 2    -0.01320526     0.01370954    -0.07483200
Spot 1    -0.01338310     0.01371258    -0.07483200
Spot 2    -0.01320549     0.01370957    -0.07483200
Spot 1    -0.01338284     0.01371234    -0.07483200
Spot 2    -0.01320528     0.01370935    -0.07483200
Spot 1    -0.01338278     0.01367645    -0.07483200
Spot 2    -0.01320521     0.01370926    -0.07483200
Spot 1    -0.01338302     0.01371242    -0.07483200
Spot 2    -0.01320542     0.01370947    -0.07483200
Spot 1    -0.01338282     0.01371237    -0.07483200
Spot 2    -0.01320515     0.01370959    -0.07483200
Spot 1    -0.01338293     0.01371217    -0.07483200
Spot 2    -0.01320518     0.01370951    -0.07483200
Spot 1    -0.01338326     0.01371225    -0.07483200
Spot 2    -0.01320537     0.01370935    -0.07483200
Spot 1    -0.01338303     0.01371249    -0.07483200
Spot 2    -0.01320524     0.01370907    -0.07483200
Spot 1    -0.01338309     0.01371233    -0.07483200
Spot 2    -0.01320528     0.01370919    -0.07483200
Spot 1    -0.01338313     0.01371237    -0.07483200
Spot 2    -0.01320535     0.01370945    -0.07483200
20MABNDA000188_PR008
Spot 1    -0.01385116     0.01393841    -0.07502000
Spot 2    -0.01385116     0.01393841    -0.07502000
Spot 1    -0.01385116     0.01393841    -0.07502000
Spot 2    -0.01385116     0.01393841    -0.07502000
Spot 1    -0.01385116     0.01393841    -0.07502000
Spot 2    -0.01385116     0.01393841    -0.07502000
Spot 1    -0.01385116     0.01393841    -0.07502000
Spot 2    -0.01385116     0.01393841    -0.07502000
Spot 1    -0.01385116     0.01393841    -0.07502000
Spot 2    -0.01381099     0.01395807    -0.07502000
Spot 1    -0.01385116     0.01393841    -0.07502000
Spot 2    -0.01385116     0.01393841    -0.07502000
Spot 1    -0.01385116     0.01393841    -0.07502000
Spot 2    -0.01385116     0.01393841    -0.07502000
Spot 1    -0.01385116     0.01393841    -0.07502000
Spot 2    -0.01385116     0.01393841    -0.07502000
Spot 1    -0.01385116     0.01393841    -0.07502000
Spot 2    -0.01385116     0.01393841    -0.07502000
Spot 1    -0.01385116     0.01393841    -0.07502000
Spot 2    -0.01385116     0.01393841    -0.07502000
Spot 1    -0.01385116     0.01393841    -0.07502000
Spot 2    -0.01385116     0.01393841    -0.07502000
Spot 1    -0.01385116     0.01393841    -0.07502000
Spot 2    -0.01385116     0.01393841    -0.07502000
20MABNDA000188_PR010
Spot 1    -0.01258233     0.01235238    -0.07502000
Spot 2    -0.01211385     0.01254804    -0.07502000
Spot 1    -0.01258218     0.01235242    -0.07502000
Spot 2    -0.01211380     0.01254807    -0.07502000
Spot 1    -0.01258219     0.01235277    -0.07502000
Spot 2    -0.01211387     0.01254808    -0.07502000
Spot 1    -0.01258223     0.01235265    -0.07502000
Spot 2    -0.01211383     0.01254785    -0.07502000
Spot 1    -0.01258226     0.01235283    -0.07502000
Spot 2    -0.01211390     0.01254794    -0.07502000
Spot 1    -0.01258228     0.01235287    -0.07502000
Spot 2    -0.01211385     0.01254789    -0.07502000
Spot 1    -0.01258228     0.01235283    -0.07502000
Spot 2    -0.01211382     0.01254788    -0.07502000
Spot 1    -0.01258225     0.01235300    -0.07502000
Spot 2    -0.01211380     0.01254783    -0.07502000
Spot 1    -0.01258220     0.01235303    -0.07502000
Spot 2    -0.01211378     0.01254786    -0.07502000
Spot 1    -0.01258220     0.01235275    -0.07502000
Spot 2    -0.01211383     0.01254793    -0.07502000
Spot 1    -0.01258226     0.01235275    -0.07502000
Spot 2    -0.01211386     0.01254785    -0.07502000
Spot 1    -0.01258225     0.01235234    -0.07502000
Spot 2    -0.01211380     0.01254785    -0.07502000
20MABNDA000039_PR009
Spot 1    -0.01162197     0.01303311    -0.07444800
Spot 2    -0.01157418     0.01302942    -0.07444800
Spot 1    -0.01162165     0.01303300    -0.07444800
Spot 2    -0.01157430     0.01302923    -0.07444800
Spot 1    -0.01162193     0.01303318    -0.07444800
Spot 2    -0.01157427     0.01302959    -0.07444800
Spot 1    -0.01162204     0.01303320    -0.07444800
Spot 2    -0.01157464     0.01302991    -0.07444800
Spot 1    -0.01162207     0.01303340    -0.07444800
Spot 2    -0.01157485     0.01302945    -0.07444800
Spot 1    -0.01162183     0.01303338    -0.07444800
Spot 2    -0.01157452     0.01302933    -0.07444800
Spot 1    -0.01162183     0.01303316    -0.07444800
Spot 2    -0.01157476     0.01302953    -0.07444800
Spot 1    -0.01162183     0.01303319    -0.07444800
Spot 2    -0.01157433     0.01302943    -0.07444800
Spot 1    -0.01162215     0.01303345    -0.07444800
Spot 2    -0.01157464     0.01302960    -0.07444800
Spot 1    -0.01162181     0.01303349    -0.07444800
Spot 2    -0.01157467     0.01302975    -0.07444800
Spot 1    -0.01162221     0.01303351    -0.07444800
Spot 2    -0.01157441     0.01302958    -0.07444800
Spot 1    -0.01162211     0.01303349    -0.07444800
Spot 2    -0.01157429     0.01302987    -0.07444800
20MABNDA000039_PR011
Spot 1    -0.01371853     0.01387945    -0.07444800
Spot 2    -0.01354281     0.01388354    -0.07444800
Spot 1    -0.01371844     0.01387952    -0.07444800
Spot 2    -0.01354310     0.01388363    -0.07444800
Spot 1    -0.01371844     0.01387945    -0.07444800
Spot 2    -0.01354284     0.01388365    -0.07444800
Spot 1    -0.01371836     0.01387940    -0.07444800
Spot 2    -0.01354297     0.01388364    -0.07444800
Spot 1    -0.01371845     0.01387943    -0.07444800
Spot 2    -0.01354291     0.01388364    -0.07444800
Spot 1    -0.01371838     0.01387932    -0.07444800
Spot 2    -0.01354289     0.01388352    -0.07444800
Spot 1    -0.01371852     0.01387944    -0.07444800
Spot 2    -0.01354292     0.01388356    -0.07444800
Spot 1    -0.01371836     0.01387944    -0.07444800
Spot 2    -0.01354282     0.01388355    -0.07444800
Spot 1    -0.01371834     0.01387938    -0.07444800
Spot 2    -0.01354291     0.01388358    -0.07444800
Spot 1    -0.01371840     0.01387935    -0.07444800
Spot 2    -0.01354296     0.01388375    -0.07444800
Spot 1    -0.01371839     0.01387932    -0.07444800
Spot 2    -0.01354285     0.01388362    -0.07444800
Spot 1    -0.01371845     0.01387949    -0.07444800
Spot 2    -0.01354300     0.01388360    -0.07444800
20MABNDB000155_PR020
Spot 1    -0.01359399    -0.01316878    -0.07501700
Spot 2    -0.01352851    -0.01317186    -0.07501700
Spot 1    -0.01359380    -0.01316939    -0.07501700
Spot 2    -0.01352913    -0.01317237    -0.07501700
Spot 1    -0.01359346    -0.01316885    -0.07501700
Spot 2    -0.01352831    -0.01317219    -0.07501700
Spot 1    -0.01359376    -0.01316902    -0.07501700
Spot 2    -0.01352814    -0.01317248    -0.07501700
Spot 1    -0.01359263    -0.01316915    -0.07501700
Spot 2    -0.01352755    -0.01317209    -0.07501700
Spot 1    -0.01359302    -0.01316950    -0.07501700
Spot 2    -0.01352784    -0.01317242    -0.07501700
Spot 1    -0.01359352    -0.01316883    -0.07501700
Spot 2    -0.01352900    -0.01317196    -0.07501700
Spot 1    -0.01359407    -0.01316905    -0.07501700
Spot 2    -0.01352836    -0.01317218    -0.07501700
Spot 1    -0.01359352    -0.01316893    -0.07501700
Spot 2    -0.01352795    -0.01317239    -0.07501700
Spot 1    -0.01359321    -0.01316932    -0.07501700
Spot 2    -0.01352803    -0.01317217    -0.07501700
Spot 1    -0.01359320    -0.01316911    -0.07501700
Spot 2    -0.01352800    -0.01317228    -0.07501700
Spot 1    -0.01359328    -0.01316931    -0.07501700
Spot 2    -0.01352831    -0.01317250    -0.07501700
20MABNDB000155_PR022
Spot 1    -0.01205372    -0.01313467    -0.07501700
Spot 2    -0.01158044    -0.01313233    -0.07501700
Spot 1    -0.01205383    -0.01313469    -0.07501700
Spot 2    -0.01158050    -0.01313222    -0.07501700
Spot 1    -0.01205371    -0.01313466    -0.07501700
Spot 2    -0.01158041    -0.01313221    -0.07501700
Spot 1    -0.01205388    -0.01313454    -0.07501700
Spot 2    -0.01158045    -0.01313219    -0.07501700
Spot 1    -0.01205386    -0.01313464    -0.07501700
Spot 2    -0.01158041    -0.01313225    -0.07501700
Spot 1    -0.01205372    -0.01313470    -0.07501700
Spot 2    -0.01158045    -0.01313219    -0.07501700
Spot 1    -0.01205392    -0.01313467    -0.07501700
Spot 2    -0.01158045    -0.01313211    -0.07501700
Spot 1    -0.01205380    -0.01313459    -0.07501700
Spot 2    -0.01158041    -0.01313221    -0.07501700
Spot 1    -0.01205376    -0.01313463    -0.07501700
Spot 2    -0.01158036    -0.01313220    -0.07501700
Spot 1    -0.01205367    -0.01313470    -0.07501700
Spot 2    -0.01158036    -0.01313229    -0.07501700
Spot 1    -0.01205377    -0.01313458    -0.07501700
Spot 2    -0.01158035    -0.01313224    -0.07501700
Spot 1    -0.01205372    -0.01313468    -0.07501700
Spot 2    -0.01158043    -0.01313204    -0.07501700
20MABNDB000010_PR021
Spot 1    -0.01158570    -0.01288654    -0.07358200
Spot 2    -0.01153112    -0.01288308    -0.07358200
Spot 1    -0.01158583    -0.01288698    -0.07358200
Spot 2    -0.01153048    -0.01288270    -0.07358200
Spot 1    -0.01158595    -0.01288665    -0.07358200
Spot 2    -0.01153089    -0.01288291    -0.07358200
Spot 1    -0.01158589    -0.01288687    -0.07358200
Spot 2    -0.01153082    -0.01288296    -0.07358200
Spot 1    -0.01158634    -0.01288709    -0.07358200
Spot 2    -0.01153076    -0.01288302    -0.07358200
Spot 1    -0.01158627    -0.01288702    -0.07358200
Spot 2    -0.01153088    -0.01288309    -0.07358200
Spot 1    -0.01158576    -0.01288698    -0.07358200
Spot 2    -0.01153075    -0.01288289    -0.07358200
Spot 1    -0.01158617    -0.01288699    -0.07358200
Spot 2    -0.01153091    -0.01288318    -0.07358200
Spot 1    -0.01158603    -0.01288663    -0.07358200
Spot 2    -0.01153106    -0.01288267    -0.07358200
Spot 1    -0.01158601    -0.01288695    -0.07358200
Spot 2    -0.01153125    -0.01288290    -0.07358200
Spot 1    -0.01158618    -0.01288686    -0.07358200
Spot 2    -0.01153085    -0.01288277    -0.07358200
Spot 1    -0.01158599    -0.01288688    -0.07358200
Spot 2    -0.01153136    -0.01288292    -0.07358200
20MABNDB000010_PR023
Spot 1    -0.01313134    -0.01368168    -0.07358200
Spot 2    -0.01295650    -0.01368003    -0.07358200
Spot 1    -0.01313145    -0.01368156    -0.07358200
Spot 2    -0.01295656    -0.01368001    -0.07358200
Spot 1    -0.01313137    -0.01368153    -0.07358200
Spot 2    -0.01295650    -0.01368007    -0.07358200
Spot 1    -0.01313132    -0.01368158    -0.07358200
Spot 2    -0.01295645    -0.01368006    -0.07358200
Spot 1    -0.01313144    -0.01368162    -0.07358200
Spot 2    -0.01295645    -0.01368020    -0.07358200
Spot 1    -0.01313131    -0.01368162    -0.07358200
Spot 2    -0.01295645    -0.01368010    -0.07358200
Spot 1    -0.01313140    -0.01368157    -0.07358200
Spot 2    -0.01295650    -0.01368001    -0.07358200
Spot 1    -0.01313145    -0.01368167    -0.07358200
Spot 2    -0.01295646    -0.01368003    -0.07358200
Spot 1    -0.01313143    -0.01368152    -0.07358200
Spot 2    -0.01295650    -0.01367993    -0.07358200
Spot 1    -0.01313142    -0.01368160    -0.07358200
Spot 2    -0.01295654    -0.01368009    -0.07358200
Spot 1    -0.01313140    -0.01368132    -0.07358200
Spot 2    -0.01295644    -0.01367997    -0.07358200


*****************************************************************coordonnees du prisme dans le repere MOUNT********************************************************************************** 
20MABNDB000069_PR031
    0.09821615    -0.03654809     9.20361805
    0.09829657    -0.03639918     9.20361710
    0.09826264    -0.03653711     9.20361710
    0.09826601    -0.03652989     9.20361710
    0.09823632    -0.03646114     9.20361805
    0.09828790    -0.03641601     9.20361710
    0.09830552    -0.03643515     9.20361710
    0.09833772    -0.03644323     9.20361710
    0.09830186    -0.03646446     9.20361710
    0.09834897    -0.03634916     9.20361710
    0.09821859    -0.03650399     9.20361805
    0.09832814    -0.03643731     9.20361710
20MABNDB000069_PR033
   -0.02794722    -0.02348964     1.28396022
   -0.02794741    -0.02349015     1.28396022
   -0.02794645    -0.02348967     1.28396022
   -0.02794712    -0.02348922     1.28396022
   -0.02794679    -0.02348958     1.28396022
   -0.02794657    -0.02349053     1.28396022
   -0.02794762    -0.02349100     1.28396022
   -0.02794655    -0.02349010     1.28396022
   -0.02794765    -0.02348980     1.28396022
   -0.02794744    -0.02349297     1.28396022
   -0.02794671    -0.02352090     1.28395987
   -0.02794699    -0.02349017     1.28396022
20MABNDB000131_PR032
   -0.18849525    -0.03376633    11.00640678
   -0.18853770    -0.03374754    11.00640488
   -0.18849671    -0.03376268    11.00640678
   -0.18850899    -0.03379051    11.00640488
   -0.18850993    -0.03374740    11.00640488
   -0.18851209    -0.03375618    11.00640488
   -0.18849009    -0.03377069    11.00640678
   -0.18849821    -0.03375684    11.00640678
   -0.18851700    -0.03379493    11.00640488
   -0.18844195    -0.03375948    11.00640678
   -0.18850192    -0.03374225    11.00640488
   -0.18848643    -0.03377359    11.00640678
20MABNDB000131_PR034
    0.01385219     0.01291486     3.43341160
    0.01384717     0.01291597     3.43341160
    0.01384810     0.01291210     3.43341160
    0.01384767     0.01290822     3.43341160
    0.01384560     0.01291072     3.43341160
    0.01384607     0.01290890     3.43341160
    0.01385201     0.01290619     3.43341160
    0.01385221     0.01291075     3.43341160
    0.01384972     0.01290755     3.43341160
    0.01385178     0.01290551     3.43341160
    0.01385155     0.01290574     3.43341160
    0.01385064     0.01290550     3.43341160
20MABNDA000208_PR042
    0.12392464     0.01087555     9.20158005
    0.12391232     0.01092894     9.20158005
    0.12387305     0.01092216     9.20158005
    0.12386875     0.01091970     9.20158005
    0.12396935     0.01096459     9.20158005
    0.12393255     0.01095412     9.20158005
    0.12390310     0.01093937     9.20158005
    0.12388714     0.01093997     9.20158005
    0.12393320     0.01091669     9.20158005
    0.12394914     0.01093020     9.20158005
    0.12392029     0.01093570     9.20158005
    0.12391842     0.01097069     9.20158005
20MABNDA000208_PR046
   -0.02588487     0.03110014     1.28211355
   -0.02588427     0.03109663     1.28211355
   -0.02588461     0.03108740     1.28211367
   -0.02588511     0.03107972     1.28211379
   -0.02588530     0.03110586     1.28211331
   -0.02588540     0.03112141     1.28211331
   -0.02588522     0.03110799     1.28211331
   -0.02588444     0.03110090     1.28211355
   -0.02588488     0.03111662     1.28211331
   -0.02588503     0.03108706     1.28211367
   -0.02588534     0.03115413     1.28211284
   -0.02588529     0.03108698     1.28211367
20MABNDA000035_PR044
   -0.17943859     0.03071486    11.00802422
   -0.17945106     0.03070910    11.00802422
   -0.17943272     0.03071628    11.00802422
   -0.17946568     0.03071067    11.00802422
   -0.17935374     0.03071499    11.00802612
   -0.17941867     0.03073813    11.00802422
   -0.17942689     0.03071332    11.00802422
   -0.17943482     0.03072873    11.00802422
   -0.17941901     0.03069132    11.00802422
   -0.17945607     0.03072230    11.00802422
   -0.17942227     0.03074620    11.00802422
   -0.17943767     0.03074119    11.00802422
20MABNDA000035_PR047
    0.01498229    -0.01496396     3.43486881
    0.01498390    -0.01496214     3.43486881
    0.01498888    -0.01496834     3.43486881
    0.01497823    -0.01495777     3.43486929
    0.01497522    -0.01413667     3.43487549
    0.01498550    -0.01496238     3.43486881
    0.01497476    -0.01496391     3.43486929
    0.01497800    -0.01495754     3.43486929
    0.01498988    -0.01495580     3.43486881
    0.01498144    -0.01495483     3.43486929
    0.01498373    -0.01495393     3.43486929
    0.01498642    -0.01496079     3.43486881
20MABNDA000188_PR008
    0.12899831    -0.09474574     9.20333958
    0.12899831    -0.09474574     9.20333958
    0.12899831    -0.09474574     9.20333958
    0.12899831    -0.09474574     9.20333958
    0.12653294    -0.09595262     9.20336342
    0.12899831    -0.09474574     9.20333958
    0.12899831    -0.09474574     9.20333958
    0.12899831    -0.09474574     9.20333958
    0.12899831    -0.09474574     9.20333958
    0.12899831    -0.09474574     9.20333958
    0.12899831    -0.09474574     9.20333958
    0.12899831    -0.09474574     9.20333958
20MABNDA000188_PR010
   -0.01866714     0.02353401     1.28359413
   -0.01866886     0.02353334     1.28359413
   -0.01866820     0.02353034     1.28359413
   -0.01866817     0.02353334     1.28359413
   -0.01866734     0.02353102     1.28359413
   -0.01866759     0.02353111     1.28359413
   -0.01866784     0.02353153     1.28359413
   -0.01866828     0.02353043     1.28359413
   -0.01866889     0.02352992     1.28359413
   -0.01866844     0.02353180     1.28359413
   -0.01866766     0.02353248     1.28359413
   -0.01866832     0.02353591     1.28359413
20MABNDA000039_PR009
   -0.17179537     0.03007906    11.00700092
   -0.17180990     0.03010033    11.00699997
   -0.17179179     0.03006149    11.00700092
   -0.17175680     0.03003647    11.00700092
   -0.17173916     0.03005541    11.00700092
   -0.17178079     0.03006583    11.00700092
   -0.17176324     0.03006721    11.00700092
   -0.17179465     0.03007247    11.00700092
   -0.17174873     0.03004082    11.00700092
   -0.17177145     0.03002703    11.00700092
   -0.17176117     0.03003795    11.00700092
   -0.17177735     0.03001828    11.00700092
20MABNDA000039_PR011
    0.03042048    -0.02035583     3.43351889
    0.03042502    -0.02035950     3.43351889
    0.03041910    -0.02035856     3.43351889
    0.03042024    -0.02035697     3.43351889
    0.03042093    -0.02035765     3.43351889
    0.03041890    -0.02035240     3.43351889
    0.03042276    -0.02035584     3.43351889
    0.03041683    -0.02035604     3.43351889
    0.03041843    -0.02035514     3.43351889
    0.03042093    -0.02035834     3.43351889
    0.03041820    -0.02035468     3.43351889
    0.03042298    -0.02035812     3.43351889
20MABNDB000155_PR020
    0.09567912    -0.00387669     9.20035744
    0.09570518    -0.00380818     9.20035648
    0.09563395    -0.00385214     9.20035744
    0.09564216    -0.00382378     9.20035744
    0.09553619    -0.00383996     9.20035934
    0.09557858    -0.00379763     9.20035934
    0.09568022    -0.00386747     9.20035744
    0.09567432    -0.00384053     9.20035744
    0.09561531    -0.00383458     9.20035934
    0.09560166    -0.00382433     9.20035934
    0.09559868    -0.00383051     9.20035934
    0.09562349    -0.00380500     9.20035744
20MABNDB000155_PR022
   -0.02737789    -0.01246680     1.28069639
   -0.02737642    -0.01246754     1.28069639
   -0.02737821    -0.01246791     1.28069639
   -0.02737649    -0.01246908     1.28069639
   -0.02737693    -0.01246772     1.28069639
   -0.02737779    -0.01246773     1.28069639
   -0.02737607    -0.01246865     1.28069639
   -0.02737744    -0.01246850     1.28069639
   -0.02737821    -0.01246825     1.28069639
   -0.02737900    -0.01246690     1.28069639
   -0.02737821    -0.01246834     1.28069639
   -0.02737803    -0.01246919     1.28069639
20MABNDB000010_PR021
   -0.17564325    -0.03943019    11.00694180
   -0.17568006    -0.03942640    11.00694084
   -0.17564097    -0.03943456    11.00694180
   -0.17565086    -0.03941488    11.00694180
   -0.17562254    -0.03939381    11.00694180
   -0.17561886    -0.03939375    11.00694180
   -0.17566562    -0.03941146    11.00694180
   -0.17562407    -0.03938943    11.00694180
   -0.17562225    -0.03945410    11.00694180
   -0.17561045    -0.03941346    11.00694180
   -0.17562708    -0.03942918    11.00694180
   -0.17560376    -0.03941702    11.00694180
20MABNDB000010_PR023
    0.00463761     0.01520517     3.43381524
    0.00464156     0.01520203     3.43381524
    0.00463834     0.01520267     3.43381524
    0.00463603     0.01520354     3.43381524
    0.00463871     0.01520772     3.43381524
    0.00463577     0.01520537     3.43381524
    0.00463903     0.01520222     3.43381524
    0.00463921     0.01520497     3.43381524
    0.00463977     0.01519925     3.43381524
    0.00464036     0.01520476     3.43381524
    0.00463777     0.01519555     3.43381524


*****************************************************************coordonnees du prisme dans le repere ATLAS********************************************************************************** 
20MABNDB000069_PR031 0.00000000
    3.67993188     3.84881377    -7.90385294
    3.68001223     3.84881210    -7.90400171
    3.67997837     3.84881282    -7.90386391
    3.67998171     3.84881258    -7.90387106
    3.67995214     3.84881330    -7.90393972
    3.68000364     3.84881210    -7.90398502
    3.68002129     3.84881210    -7.90396595
    3.68005347     3.84881210    -7.90395784
    3.68001747     3.84881234    -7.90393639
    3.68006468     3.84881163    -7.90405178
    3.67993426     3.84881353    -7.90389681
    3.68004394     3.84881210    -7.90396357
20MABNDB000069_PR033 0.00000000
    3.53235054    -4.07045507    -7.88218117
    3.53235030    -4.07045507    -7.88218069
    3.53235126    -4.07045507    -7.88218117
    3.53235054    -4.07045507    -7.88218164
    3.53235102    -4.07045507    -7.88218117
    3.53235126    -4.07045507    -7.88218021
    3.53235006    -4.07045507    -7.88217974
    3.53235126    -4.07045507    -7.88218069
    3.53235006    -4.07045507    -7.88218117
    3.53235030    -4.07045507    -7.88217783
    3.53235102    -4.07045507    -7.88215017
    3.53235078    -4.07045507    -7.88218069
20MABNDB000131_PR032 0.00000000
    3.86929655     3.64755607   -12.94440937
    3.86933899     3.64755416   -12.94439030
    3.86929798     3.64755607   -12.94440556
    3.86931014     3.64755416   -12.94443321
    3.86931109     3.64755416   -12.94439030
    3.86931324     3.64755416   -12.94439888
    3.86929131     3.64755607   -12.94441319
    3.86929941     3.64755607   -12.94439983
    3.86931825     3.64755416   -12.94443798
    3.86924314     3.64755583   -12.94440269
    3.86930323     3.64755416   -12.94438553
    3.86928773     3.64755583   -12.94441605
20MABNDB000131_PR034 0.00000000
    3.67393613    -3.92560577   -12.89503288
    3.67394114    -3.92560554   -12.89503193
    3.67394018    -3.92560554   -12.89503574
    3.67394042    -3.92560554   -12.89503956
    3.67394257    -3.92560554   -12.89503670
    3.67394209    -3.92560554   -12.89503860
    3.67393613    -3.92560577   -12.89504147
    3.67393589    -3.92560577   -12.89503670
    3.67393851    -3.92560577   -12.89504051
    3.67393637    -3.92560577   -12.89504242
    3.67393661    -3.92560577   -12.89504242
    3.67393756    -3.92560577   -12.89504242
20MABNDA000208_PR042 0.00000000
   -3.67400074     3.84925270    -7.90060616
   -3.67398834     3.84925270    -7.90055275
   -3.67394924     3.84925270    -7.90055943
   -3.67394495     3.84925246    -7.90056229
   -3.67404556     3.84925270    -7.90051746
   -3.67400861     3.84925270    -7.90052748
   -3.67397928     3.84925270    -7.90054226
   -3.67396331     3.84925270    -7.90054178
   -3.67400932     3.84925270    -7.90056515
   -3.67402530     3.84925270    -7.90055180
   -3.67399645     3.84925270    -7.90054607
   -3.67399454     3.84925270    -7.90051126
20MABNDA000208_PR046 0.00000000
   -3.52987862    -4.07031155    -7.87741709
   -3.52987933    -4.07031155    -7.87742043
   -3.52987885    -4.07031155    -7.87742949
   -3.52987838    -4.07031107    -7.87743711
   -3.52987838    -4.07031155    -7.87741137
   -3.52987814    -4.07031155    -7.87739563
   -3.52987838    -4.07031155    -7.87740898
   -3.52987909    -4.07031155    -7.87741613
   -3.52987862    -4.07031155    -7.87740040
   -3.52987862    -4.07031155    -7.87742996
   -3.52987814    -4.07031202    -7.87736273
   -3.52987838    -4.07031155    -7.87742996
20MABNDA000035_PR044 0.00000000
   -3.86868024     3.64757967   -12.93639374
   -3.86869264     3.64757967   -12.93638802
   -3.86867452     3.64757967   -12.93639565
   -3.86870742     3.64757967   -12.93638992
   -3.86859536     3.64758158   -12.93639374
   -3.86866045     3.64757967   -12.93641758
   -3.86866856     3.64757967   -12.93639278
   -3.86867642     3.64757967   -12.93640804
   -3.86866069     3.64757967   -12.93637085
   -3.86869764     3.64757967   -12.93640137
   -3.86866403     3.64757967   -12.93642521
   -3.86867929     3.64757967   -12.93642044
20MABNDA000035_PR047 0.00000000
   -3.67574668    -3.92561817   -12.89142036
   -3.67574525    -3.92561817   -12.89142227
   -3.67574024    -3.92561817   -12.89141655
   -3.67575073    -3.92561769   -12.89142704
   -3.67575407    -3.92561150   -12.89224815
   -3.67574358    -3.92561817   -12.89142227
   -3.67575431    -3.92561769   -12.89142036
   -3.67575097    -3.92561769   -12.89142704
   -3.67573929    -3.92561817   -12.89142895
   -3.67574763    -3.92561769   -12.89142990
   -3.67574525    -3.92561769   -12.89143085
   -3.67574263    -3.92561817   -12.89142323
20MABNDA000188_PR008 0.00000000
    3.54177952     3.84863997     8.10601807
    3.54177952     3.84863997     8.10601807
    3.54177952     3.84863997     8.10601807
    3.54177952     3.84863997     8.10601807
    3.53929639     3.84861279     8.10718727
    3.54177952     3.84863997     8.10601807
    3.54177952     3.84863997     8.10601807
    3.54177952     3.84863997     8.10601807
    3.54177952     3.84863997     8.10601807
    3.54177952     3.84863997     8.10601807
    3.54177952     3.84863997     8.10601807
    3.54177952     3.84863997     8.10601807
20MABNDA000188_PR010 0.00000000
    3.51843596    -4.07064819     7.89987707
    3.51843429    -4.07064819     7.89987755
    3.51843476    -4.07064819     7.89988041
    3.51843500    -4.07064819     7.89987755
    3.51843572    -4.07064819     7.89987993
    3.51843548    -4.07064819     7.89987993
    3.51843524    -4.07064819     7.89987946
    3.51843476    -4.07064819     7.89988041
    3.51843405    -4.07064819     7.89988089
    3.51843452    -4.07064819     7.89987898
    3.51843548    -4.07064819     7.89987850
    3.51843476    -4.07064819     7.89987516
20MABNDA000039_PR009 0.00000000
    3.87596679     3.64745688    12.94137287
    3.87598133     3.64745593    12.94139481
    3.87596321     3.64745688    12.94135571
    3.87592816     3.64745688    12.94133091
    3.87591052     3.64745688    12.94134903
    3.87595224     3.64745688    12.94135952
    3.87593460     3.64745688    12.94136143
    3.87596607     3.64745688    12.94136620
    3.87592030     3.64745688    12.94133472
    3.87594295     3.64745688    12.94132137
    3.87593269     3.64745688    12.94133186
    3.87594891     3.64745688    12.94131279
20MABNDA000039_PR011 0.00000000
    3.66460323    -3.92575884    12.88848114
    3.66459870    -3.92575860    12.88847733
    3.66460466    -3.92575884    12.88847828
    3.66460347    -3.92575860    12.88848019
    3.66460276    -3.92575860    12.88847923
    3.66460490    -3.92575884    12.88848400
    3.66460085    -3.92575860    12.88848114
    3.66460681    -3.92575884    12.88848019
    3.66460538    -3.92575884    12.88848114
    3.66460276    -3.92575860    12.88847828
    3.66460562    -3.92575884    12.88848209
    3.66460085    -3.92575860    12.88847828
20MABNDB000155_PR020 0.00000000
   -3.67433333     3.84890652     7.90299273
   -3.67435956     3.84890532     7.90306091
   -3.67428827     3.84890652     7.90301704
   -3.67429638     3.84890652     7.90304565
   -3.67419052     3.84890866     7.90302944
   -3.67423296     3.84890866     7.90307188
   -3.67433453     3.84890628     7.90300179
   -3.67432857     3.84890652     7.90302896
   -3.67426968     3.84890842     7.90303469
   -3.67425585     3.84890842     7.90304518
   -3.67425299     3.84890842     7.90303898
   -3.67427778     3.84890652     7.90306425
20MABNDB000155_PR022 0.00000000
   -3.53260422    -4.07044363     7.89559317
   -3.53260589    -4.07044363     7.89559221
   -3.53260398    -4.07044363     7.89559174
   -3.53260565    -4.07044363     7.89559078
   -3.53260517    -4.07044363     7.89559221
   -3.53260446    -4.07044363     7.89559221
   -3.53260612    -4.07044363     7.89559126
   -3.53260469    -4.07044363     7.89559126
   -3.53260398    -4.07044363     7.89559174
   -3.53260326    -4.07044363     7.89559269
   -3.53260398    -4.07044363     7.89559126
   -3.53260422    -4.07044363     7.89559078
20MABNDB000010_PR021 0.00000000
   -3.86147547     3.64768171    12.94125938
   -3.86151218     3.64768076    12.94125557
   -3.86147308     3.64768171    12.94126415
   -3.86148310     3.64768171    12.94124413
   -3.86145473     3.64768171    12.94122314
   -3.86145115     3.64768171    12.94122314
   -3.86149788     3.64768171    12.94124031
   -3.86145639     3.64768171    12.94121838
   -3.86145449     3.64768171    12.94128323
   -3.86144257     3.64768171    12.94124222
   -3.86145926     3.64768171    12.94125843
   -3.86143589     3.64768171    12.94124603
20MABNDB000010_PR023 0.00000000
   -3.68502426    -3.92555904    12.89006996
   -3.68502045    -3.92555904    12.89007378
   -3.68502355    -3.92555904    12.89007282
   -3.68502593    -3.92555904    12.89007187
   -3.68502331    -3.92555904    12.89006805
   -3.68502617    -3.92555904    12.89006996
   -3.68502283    -3.92555904    12.89007282
   -3.68502283    -3.92555904    12.89007092
   -3.68502212    -3.92555904    12.89007664
   -3.68502164    -3.92555904    12.89007092
   -3.68502426    -3.92555904    12.89007950


*****************************************************************Rapport********************************************************************************** 
CAM-ECTC-US-IP_ECTC-US-IP-T    2015.06.17.12.53.53     3.67999959     3.84881254    -7.90394056     0.00004277     0.00000064     0.00005764 0.00000000 VRAI 
CAM-ECTC-US-IP_ECTC-US-IP      2015.06.17.12.53.53     3.53235070    -4.07045507    -7.88217803     0.00000044     0.00000000     0.00000845 0.00000000 VRAI 
CAM-ECTC-US-HO_ECTC-US-HO-T    2015.06.17.12.53.53     3.86930092     3.64755507   -12.94440691     0.00002185     0.00000092     0.00001562 0.00000000 VRAI 
CAM-ECTC-US-HO_ECTC-US-HO      2015.06.17.12.53.53     3.67393863    -3.92560567   -12.89503845     0.00000241     0.00000012     0.00000352 0.00000000 VRAI 
CAM-ECTC-USA-IP_ECTC-USA-IP-T  2015.06.17.12.53.53    -3.67399214     3.84925268    -7.90054866     0.00002843     0.00000007     0.00002384 0.00000000 VRAI 
CAM-ECTC-USA-IP_ECTC-USA-IP    2015.06.17.12.53.53    -3.52987858    -4.07031155    -7.87741327     0.00000035     0.00000019     0.00001940 0.00000000 VRAI 
CAM-ECTC-USA-HO_ECTC-USA-HO-T  2015.06.17.12.53.53    -3.86867144     3.64757983   -12.93639978     0.00002691     0.00000053     0.00001492 0.00000000 VRAI 
CAM-ECTC-USA-HO_ECTC-USA-HO    2015.06.17.12.53.53    -3.67574672    -3.92561742   -12.89149308     0.00000479     0.00000180     0.00022770 0.00000000 VRAI 
CAM-ECTA-US-IP_ECTA-US-IP-T    2015.06.17.12.53.53     3.54157259     3.84863770     8.10611550     0.00068630     0.00000751     0.00032315 0.00000000 VRAI 
CAM-ECTA-US-IP_ECTA-US-IP      2015.06.17.12.53.53     3.51843500    -4.07064819     7.89987882     0.00000056     0.00000000     0.00000163 0.00000000 VRAI 
CAM-ECTA-US-HO_ECTA-US-HO-T    2015.06.17.12.53.53     3.87594565     3.64745680    12.94134927     0.00002037     0.00000026     0.00002268 0.00000000 VRAI 
CAM-ECTA-US-HO_ECTA-US-HO      2015.06.17.12.53.53     3.66460333    -3.92575872    12.88848011     0.00000224     0.00000012     0.00000185 0.00000000 VRAI 
CAM-ECTA-USA-IP_ECTA-USA-IP-T  2015.06.17.12.53.53    -3.67428503     3.84890723     7.90303596     0.00004671     0.00000114     0.00002307 0.00000000 VRAI 
CAM-ECTA-USA-IP_ECTA-USA-IP    2015.06.17.12.53.53    -3.53260463    -4.07044363     7.89559178     0.00000085     0.00000000     0.00000071 0.00000000 VRAI 
CAM-ECTA-USA-HO_ECTA-USA-HO-T  2015.06.17.12.53.53    -3.86146635     3.64768163    12.94124651     0.00002171     0.00000026     0.00001825 0.00000000 VRAI 
CAM-ECTA-USA-HO_ECTA-USA-HO    2015.06.17.12.53.53    -3.68502339    -3.92555904    12.89007248     0.00000164     0.00000000     0.00000310 0.00000000 VRAI 
