********** Fichier qui contient une sauvegarde des coordonnees images + coordonnees images transformees dans le repere BCAM (MOUNT) + coordonnees des prismes dans le repere MOUNT********** 
********************************************************************** Unite en metres (m)************************************************************************************************** 

*******************************************************************coordonnees images dans le repere CCD *********************************************************************************** 
20MABNDM000168_PR025
Spot 1     0.00117662     0.00130485
Spot 2     0.00102329     0.00130495
Spot 1     0.00117670     0.00130438
Spot 2     0.00102339     0.00130462
Spot 1     0.00117677     0.00130449
Spot 2     0.00102323     0.00130482
Spot 1     0.00117658     0.00130449
Spot 2     0.00102325     0.00130463
Spot 1     0.00117680     0.00130420
Spot 2     0.00102331     0.00130462
20MABNDM000168_PR026
Spot 1     0.00266939     0.00142656
Spot 2     0.00250889     0.00142385
Spot 1     0.00266931     0.00142659
Spot 2     0.00250895     0.00142381
Spot 1     0.00266929     0.00142667
Spot 2     0.00250917     0.00142385
Spot 1     0.00266941     0.00142657
Spot 2     0.00250917     0.00142377
Spot 1     0.00266950     0.00142664
Spot 2     0.00250924     0.00142368
20MABNDM000168_20MABNDL000077
Spot 1     0.00153761     0.00129728
Spot 2     0.00175463     0.00129891
Spot 1     0.00153751     0.00129743
Spot 2     0.00175468     0.00129901
Spot 1     0.00153748     0.00129726
Spot 2     0.00175496     0.00129913
Spot 1     0.00153743     0.00129739
Spot 2     0.00175472     0.00129914
Spot 1     0.00153734     0.00129754
Spot 2     0.00175495     0.00129906
20MABNDM000168_PR001
Spot 1     0.00080717     0.00161978
Spot 2     0.00070505     0.00162403
Spot 1     0.00080687     0.00161983
Spot 2     0.00070473     0.00162405
Spot 1     0.00080733     0.00161987
Spot 2     0.00070489     0.00162391
Spot 1     0.00080729     0.00161979
Spot 2     0.00070473     0.00162382
Spot 1     0.00080721     0.00161976
Spot 2     0.00070482     0.00162403
20MABNDL000196_PR036
Spot 1     0.00095844     0.00164773
Spot 2     0.00112204     0.00164742
Spot 1     0.00095845     0.00164769
Spot 2     0.00112230     0.00164770
Spot 1     0.00095855     0.00164769
Spot 2     0.00112217     0.00164671
Spot 1     0.00095845     0.00164772
Spot 2     0.00112259     0.00164746
Spot 1     0.00095850     0.00164770
Spot 2     0.00112240     0.00164760
20MABNDL000196_PR037
Spot 1     0.00248230     0.00117535
Spot 2     0.00263699     0.00117384
Spot 1     0.00248201     0.00117510
Spot 2     0.00263681     0.00117370
Spot 1     0.00248205     0.00117516
Spot 2     0.00263693     0.00117369
Spot 1     0.00248259     0.00117550
Spot 2     0.00263717     0.00117361
Spot 1     0.00248217     0.00117520
Spot 2     0.00263698     0.00117373
20MABNDL000196_20MABNDM000020
Spot 1     0.00195254     0.00103179
Spot 2     0.00173084     0.00103247
Spot 1     0.00195214     0.00103198
Spot 2     0.00173081     0.00103235
Spot 1     0.00195222     0.00103192
Spot 2     0.00173086     0.00103228
Spot 1     0.00195231     0.00103179
Spot 2     0.00173090     0.00103240
Spot 1     0.00195218     0.00103174
Spot 2     0.00173091     0.00103235
20MABNDL000196_PR012
Spot 1     0.00315654     0.00069500
Spot 2     0.00073500     0.00047500
Spot 1     0.00315577     0.00069500
Spot 2     0.00315577     0.00069500
Spot 1     0.00064500     0.00003500
Spot 2     0.00320500     0.00029500
Spot 1     0.00064500     0.00003500
Spot 2     0.00064500     0.00003500
Spot 1     0.00064500     0.00003500
Spot 2     0.00064500     0.00003500
20MABNDL000077_PR002
Spot 1     0.00079379     0.00149708
Spot 2     0.00095563     0.00149771
Spot 1     0.00079371     0.00149725
Spot 2     0.00095554     0.00149814
Spot 1     0.00079377     0.00149724
Spot 2     0.00095555     0.00149761
Spot 1     0.00079379     0.00149721
Spot 2     0.00095564     0.00149739
Spot 1     0.00079370     0.00149748
Spot 2     0.00095566     0.00149724
20MABNDL000077_PR003
Spot 1     0.00152399     0.00119167
Spot 2     0.00167428     0.00119438
Spot 1     0.00152388     0.00119176
Spot 2     0.00167438     0.00119444
Spot 1     0.00152388     0.00119174
Spot 2     0.00167433     0.00119454
Spot 1     0.00152389     0.00119161
Spot 2     0.00167439     0.00119428
Spot 1     0.00152403     0.00119170
Spot 2     0.00167438     0.00119471
20MABNDL000077_20MABNDM000168
Spot 1     0.00188285     0.00148478
Spot 2     0.00170087     0.00151784
Spot 1     0.00188309     0.00148500
Spot 2     0.00170092     0.00151786
Spot 1     0.00188290     0.00148495
Spot 2     0.00170085     0.00151810
Spot 1     0.00188295     0.00148494
Spot 2     0.00170104     0.00151797
Spot 1     0.00188286     0.00148500
Spot 2     0.00170101     0.00151810
20MABNDL000077_PR024
Spot 1     0.00262679     0.00171477
Spot 2     0.00272841     0.00171857
Spot 1     0.00262650     0.00171476
Spot 2     0.00272838     0.00171857
Spot 1     0.00262649     0.00171471
Spot 2     0.00272850     0.00171853
Spot 1     0.00262674     0.00171488
Spot 2     0.00272852     0.00171862
Spot 1     0.00262681     0.00171477
Spot 2     0.00272842     0.00171872
20MABNDM000020_PR013
Spot 1     0.00164209     0.00213819
Spot 2     0.00148922     0.00214354
Spot 1     0.00164253     0.00213816
Spot 2     0.00148932     0.00214379
Spot 1     0.00164255     0.00213878
Spot 2     0.00148919     0.00214342
Spot 1     0.00164188     0.00213840
Spot 2     0.00148952     0.00214249
Spot 1     0.00164237     0.00213867
Spot 2     0.00148918     0.00214241
20MABNDM000020_PR014
Spot 1     0.00267816     0.00227890
Spot 2     0.00251653     0.00228516
Spot 1     0.00267811     0.00227904
Spot 2     0.00251668     0.00228543
Spot 1     0.00267842     0.00227889
Spot 2     0.00251677     0.00228497
Spot 1     0.00267842     0.00227842
Spot 2     0.00251695     0.00228485
Spot 1     0.00267833     0.00227859
Spot 2     0.00251699     0.00228437
20MABNDM000020_20MABNDL000196
Spot 1     0.00200071     0.00057620
Spot 2     0.00096500     0.00046500
Spot 1     0.00200043     0.00057630
Spot 2     0.00080500     0.00021500
Spot 1     0.00200081     0.00057643
Spot 2     0.00080500     0.00021500
Spot 1     0.00200053     0.00057617
Spot 2     0.00096500     0.00046500
Spot 1     0.00200062     0.00057651
Spot 2     0.00096500     0.00046500
20MABNDM000020_PR035
Spot 1     0.00126515     0.00086994
Spot 2     0.00119509     0.00090265
Spot 1     0.00126529     0.00086966
Spot 2     0.00119488     0.00090276
Spot 1     0.00126532     0.00087004
Spot 2     0.00119488     0.00090275
Spot 1     0.00126525     0.00087010
Spot 2     0.00119482     0.00090288
20MABNDB000069_PR031
Spot 1     0.00028385     0.00140331
Spot 2     0.00035389     0.00140322
Spot 1     0.00028364     0.00140324
Spot 2     0.00021500     0.00240500
Spot 1     0.00028370     0.00140309
Spot 2     0.00021500     0.00240500
Spot 1     0.00028387     0.00140358
Spot 2     0.00021500     0.00240500
20MABNDB000069_PR033
Spot 1     0.00182181     0.00207665
Spot 2     0.00229191     0.00209599
Spot 1     0.00182194     0.00207655
Spot 2     0.00229206     0.00209607
Spot 1     0.00182194     0.00207671
Spot 2     0.00229213     0.00209622
Spot 1     0.00182183     0.00207663
Spot 2     0.00229208     0.00209612
20MABNDB000131_PR032
Spot 1     0.00277962     0.00107325
Spot 2     0.00283944     0.00107679
Spot 1     0.00277982     0.00107323
Spot 2     0.00283943     0.00107678
Spot 1     0.00277986     0.00107314
Spot 2     0.00283973     0.00107690
Spot 1     0.00277984     0.00107295
Spot 2     0.00283959     0.00107663
20MABNDB000131_PR034
Spot 1     0.00093215     0.00032487
Spot 2     0.00110863     0.00032473
Spot 1     0.00093211     0.00032490
Spot 2     0.00110851     0.00032463
Spot 1     0.00093209     0.00032504
Spot 2     0.00110842     0.00032488
Spot 1     0.00093205     0.00032500
Spot 2     0.00110865     0.00032484
20MABNDA000208_PR042
Spot 1     0.00303918     0.00095991
Spot 2     0.00297037     0.00096194
Spot 1     0.00303964     0.00095932
Spot 2     0.00297131     0.00096224
Spot 1     0.00303964     0.00095948
Spot 2     0.00296943     0.00096224
Spot 1     0.00303955     0.00095977
Spot 2     0.00296955     0.00096179
20MABNDA000208_PR046
Spot 1     0.00143763     0.00218181
Spot 2     0.00096726     0.00218515
Spot 1     0.00143765     0.00218179
Spot 2     0.00096721     0.00218528
Spot 1     0.00143759     0.00218181
Spot 2     0.00096721     0.00218539
Spot 1     0.00143755     0.00218183
Spot 2     0.00096736     0.00218521
20MABNDA000035_PR044
Spot 1     0.00074194     0.00125508
Spot 2     0.00068654     0.00124958
Spot 1     0.00074171     0.00125533
Spot 2     0.00068649     0.00124979
Spot 1     0.00074154     0.00125541
Spot 2     0.00068654     0.00124970
Spot 1     0.00074216     0.00125544
Spot 2     0.00068648     0.00124978
20MABNDA000035_PR045
Spot 1     0.00255288     0.00048271
Spot 2     0.00237654     0.00048117
Spot 1     0.00255293     0.00048240
Spot 2     0.00237662     0.00048134
Spot 1     0.00255278     0.00048261
Spot 2     0.00237682     0.00048128
Spot 1     0.00255275     0.00048267
Spot 2     0.00237654     0.00048129
20MABNDA000318_PR004
Spot 1     0.00215096     0.00162537
Spot 2     0.00193381     0.00162554
Spot 1     0.00215109     0.00162515
Spot 2     0.00193402     0.00162580
Spot 1     0.00215110     0.00162485
Spot 2     0.00193384     0.00162567
Spot 1     0.00215111     0.00162513
Spot 2     0.00193371     0.00162522
20MABNDA000334_PR005
Spot 1     0.00247755     0.00156962
Spot 2     0.00219724     0.00157031
Spot 1     0.00247739     0.00156934
Spot 2     0.00219718     0.00157027
Spot 1     0.00247742     0.00156935
Spot 2     0.00219721     0.00157021
Spot 1     0.00247719     0.00156953
Spot 2     0.00219713     0.00157036
20MABNDB000317_PR015
Spot 1     0.00149237     0.00160824
Spot 2     0.00171179     0.00160228
Spot 1     0.00149243     0.00160835
Spot 2     0.00171199     0.00160192
Spot 1     0.00149240     0.00160824
Spot 2     0.00171183     0.00160205
Spot 1     0.00149250     0.00160840
Spot 2     0.00171169     0.00160220
20MABNDB000146_PR016
Spot 1     0.00144881     0.00132901
Spot 2     0.00172438     0.00133173
Spot 1     0.00144879     0.00132904
Spot 2     0.00172439     0.00133152
Spot 1     0.00144886     0.00132920
Spot 2     0.00172439     0.00133152
Spot 1     0.00144886     0.00132896
Spot 2     0.00172420     0.00133170
20MABNDB000135_PR027
Spot 1     0.00189099     0.00092131
Spot 2     0.00210948     0.00092340
Spot 1     0.00189085     0.00092121
Spot 2     0.00210944     0.00092360
Spot 1     0.00189112     0.00092136
Spot 2     0.00210943     0.00092351
Spot 1     0.00189084     0.00092122
Spot 2     0.00210937     0.00092336
20MABNDB000126_PR028
Spot 1     0.00165074     0.00200082
Spot 2     0.00193225     0.00200290
Spot 1     0.00165067     0.00200091
Spot 2     0.00193242     0.00200282
Spot 1     0.00165050     0.00200090
Spot 2     0.00193219     0.00200299
Spot 1     0.00165066     0.00200085
Spot 2     0.00193222     0.00200302
20MABNDA000272_PR038
Spot 1     0.00192563     0.00096992
Spot 2     0.00170302     0.00096981
Spot 1     0.00192584     0.00096982
Spot 2     0.00170311     0.00096965
Spot 1     0.00192563     0.00097003
Spot 2     0.00170329     0.00096965
Spot 1     0.00192550     0.00097010
Spot 2     0.00170318     0.00097000
20MABNDA000003_PR039
Spot 1     0.00200891     0.00193003
Spot 2     0.00228670     0.00192955
Spot 1     0.00200882     0.00192987
Spot 2     0.00228632     0.00192967
Spot 1     0.00200900     0.00193010
Spot 2     0.00228659     0.00192963
Spot 1     0.00200892     0.00192977
Spot 2     0.00228667     0.00192951
20MABNDA000196_PR006
Spot 1     0.00197583     0.00075150
Spot 2     0.00160752     0.00074837
Spot 1     0.00197594     0.00075157
Spot 2     0.00160750     0.00074810
Spot 1     0.00197595     0.00075163
Spot 2     0.00160734     0.00074818
Spot 1     0.00197586     0.00075159
Spot 2     0.00160740     0.00074830
20MABNDA000324_PR007
Spot 1     0.00195483     0.00120811
Spot 2     0.00174930     0.00121381
Spot 1     0.00195488     0.00120843
Spot 2     0.00174921     0.00121375
Spot 1     0.00195477     0.00120829
Spot 2     0.00174914     0.00121376
Spot 1     0.00195488     0.00120827
Spot 2     0.00174919     0.00121399
20MABNDB000001_PR017
Spot 1     0.00196600     0.00048132
Spot 2     0.00198724     0.00056632
Spot 1     0.00196594     0.00048126
Spot 2     0.00198730     0.00056638
Spot 1     0.00196579     0.00048144
Spot 2     0.00198713     0.00056632
Spot 1     0.00196590     0.00048147
Spot 2     0.00198743     0.00056642
20MABNDB000260_PR019
Spot 1     0.00192383     0.00149144
Spot 2     0.00212672     0.00149086
Spot 1     0.00192364     0.00149174
Spot 2     0.00212643     0.00149095
Spot 1     0.00192356     0.00149139
Spot 2     0.00212654     0.00149115
Spot 1     0.00192358     0.00149156
Spot 2     0.00212621     0.00149076
20MABNDB000212_PR029
Spot 1     0.00223817     0.00072641
Spot 2     0.00187272     0.00072614
Spot 1     0.00223820     0.00072641
Spot 2     0.00187260     0.00072633
Spot 1     0.00223825     0.00072650
Spot 2     0.00187247     0.00072627
Spot 1     0.00223827     0.00072650
Spot 2     0.00187236     0.00072626
20MABNDB000128_PR030
Spot 1     0.00190089     0.00200246
Spot 2     0.00210538     0.00199755
Spot 1     0.00190095     0.00200244
Spot 2     0.00210565     0.00199741
Spot 1     0.00190109     0.00200251
Spot 2     0.00210572     0.00199740
Spot 1     0.00190085     0.00200233
Spot 2     0.00210569     0.00199746
20MABNDA000444_PR040
Spot 1     0.00075010     0.00038148
Spot 2     0.00111630     0.00037717
Spot 1     0.00075011     0.00038164
Spot 2     0.00111647     0.00037706
Spot 1     0.00075021     0.00038174
Spot 2     0.00111613     0.00037697
Spot 1     0.00075000     0.00038186
Spot 2     0.00111629     0.00037726
20MABNDA000053_PR041
Spot 1     0.00165996     0.00198723
Spot 2     0.00145719     0.00198356
Spot 1     0.00166021     0.00198750
Spot 2     0.00145750     0.00198367
Spot 1     0.00165998     0.00198713
Spot 2     0.00145738     0.00198336
Spot 1     0.00165960     0.00198732
Spot 2     0.00145688     0.00198343
20MABNDA000188_PR008
Spot 1     0.00279500     0.00010500
Spot 2     0.00279500     0.00010500
Spot 1     0.00278500     0.00023500
Spot 2     0.00278900     0.00010500
Spot 1     0.00279500     0.00010500
Spot 2     0.00279500     0.00010500
Spot 1     0.00279500     0.00010500
Spot 2     0.00323500     0.00013750
20MABNDA000188_PR018
Spot 1     0.00166572     0.00169962
Spot 2     0.00119878     0.00169695
Spot 1     0.00166577     0.00169964
Spot 2     0.00119898     0.00169704
Spot 1     0.00166572     0.00169969
Spot 2     0.00119866     0.00169702
Spot 1     0.00166582     0.00169977
Spot 2     0.00119880     0.00169709
20MABNDA000039_PR009
Spot 1     0.00066444     0.00117919
Spot 2     0.00061738     0.00118381
Spot 1     0.00066470     0.00117890
Spot 2     0.00061747     0.00118386
Spot 1     0.00066441     0.00117922
Spot 2     0.00061758     0.00118389
Spot 1     0.00066470     0.00117916
Spot 2     0.00061746     0.00118396
20MABNDA000039_PR011
Spot 1     0.00276568     0.00030167
Spot 2     0.00259037     0.00029738
Spot 1     0.00276587     0.00030160
Spot 2     0.00259024     0.00029716
Spot 1     0.00276553     0.00030170
Spot 2     0.00259016     0.00029727
Spot 1     0.00276559     0.00030172
Spot 2     0.00259015     0.00029736
20MABNDB000155_PR020
Spot 1     0.00061961     0.00112164
Spot 2     0.00068325     0.00111767
Spot 1     0.00061925     0.00112116
Spot 2     0.00068330     0.00111726
Spot 1     0.00061886     0.00112137
Spot 2     0.00068357     0.00111748
Spot 1     0.00061963     0.00112165
Spot 2     0.00068288     0.00111803
20MABNDB000155_PR022
Spot 1     0.00209939     0.00131361
Spot 2     0.00257254     0.00130932
Spot 1     0.00209936     0.00131345
Spot 2     0.00257251     0.00130928
Spot 1     0.00209949     0.00131350
Spot 2     0.00257258     0.00130923
Spot 1     0.00209959     0.00131326
Spot 2     0.00257240     0.00130923
20MABNDB000010_PR021
Spot 1     0.00286872     0.00115997
Spot 2     0.00292266     0.00116290
Spot 1     0.00286842     0.00115954
Spot 2     0.00292222     0.00116259
Spot 1     0.00286910     0.00115995
Spot 2     0.00292216     0.00116258
Spot 1     0.00286826     0.00115943
Spot 2     0.00292238     0.00116266
20MABNDB000010_PR023
Spot 1     0.00130986     0.00034561
Spot 2     0.00148446     0.00034450
Spot 1     0.00130981     0.00034563
Spot 2     0.00148469     0.00034464
Spot 1     0.00130991     0.00034574
Spot 2     0.00148475     0.00034470
Spot 1     0.00130988     0.00034575
Spot 2     0.00148459     0.00034470


****************************************************************coordonnees images transformees dans le repere MOUNT************************************************************************* 
20MABNDM000168_PR025
Spot 1    -0.01322624    -0.03564203    -0.00532900
Spot 2    -0.01337956    -0.03564279    -0.00532900
Spot 1    -0.01322616    -0.03564156    -0.00532900
Spot 2    -0.01337947    -0.03564246    -0.00532900
Spot 1    -0.01322609    -0.03564167    -0.00532900
Spot 2    -0.01337962    -0.03564266    -0.00532900
Spot 1    -0.01322628    -0.03564167    -0.00532900
Spot 2    -0.01337961    -0.03564247    -0.00532900
Spot 1    -0.01322606    -0.03564138    -0.00532900
Spot 2    -0.01337955    -0.03564246    -0.00532900
20MABNDM000168_PR026
Spot 1    -0.01173296    -0.03575733    -0.00532900
Spot 2    -0.01189347    -0.03575531    -0.00532900
Spot 1    -0.01173304    -0.03575736    -0.00532900
Spot 2    -0.01189341    -0.03575527    -0.00532900
Spot 1    -0.01173306    -0.03575744    -0.00532900
Spot 2    -0.01189319    -0.03575531    -0.00532900
Spot 1    -0.01173294    -0.03575734    -0.00532900
Spot 2    -0.01189319    -0.03575523    -0.00532900
Spot 1    -0.01173285    -0.03575741    -0.00532900
Spot 2    -0.01189312    -0.03575514    -0.00532900
20MABNDM000168_20MABNDL000077
Spot 1     0.01288789    -0.03529797    -0.07445100
Spot 2     0.01267087    -0.03529642    -0.07445100
Spot 1     0.01288799    -0.03529812    -0.07445100
Spot 2     0.01267082    -0.03529652    -0.07445100
Spot 1     0.01288802    -0.03529795    -0.07445100
Spot 2     0.01267054    -0.03529664    -0.07445100
Spot 1     0.01288807    -0.03529808    -0.07445100
Spot 2     0.01267078    -0.03529665    -0.07445100
Spot 1     0.01288816    -0.03529823    -0.07445100
Spot 2     0.01267055    -0.03529657    -0.07445100
20MABNDM000168_PR001
Spot 1     0.01361354    -0.03563112    -0.07445100
Spot 2     0.01371558    -0.03563687    -0.07445100
Spot 1     0.01361383    -0.03563118    -0.07445100
Spot 2     0.01371590    -0.03563689    -0.07445100
Spot 1     0.01361337    -0.03563121    -0.07445100
Spot 2     0.01371574    -0.03563675    -0.07445100
Spot 1     0.01361342    -0.03563113    -0.07445100
Spot 2     0.01371591    -0.03563666    -0.07445100
Spot 1     0.01361350    -0.03563110    -0.07445100
Spot 2     0.01371581    -0.03563687    -0.07445100
20MABNDL000196_PR036
Spot 1     0.01193835     0.03583645    -0.07483600
Spot 2     0.01210195     0.03583648    -0.07483600
Spot 1     0.01193836     0.03583641    -0.07483600
Spot 2     0.01210221     0.03583676    -0.07483600
Spot 1     0.01193846     0.03583641    -0.07483600
Spot 2     0.01210208     0.03583577    -0.07483600
Spot 1     0.01193836     0.03583644    -0.07483600
Spot 2     0.01210250     0.03583653    -0.07483600
Spot 1     0.01193841     0.03583642    -0.07483600
Spot 2     0.01210231     0.03583667    -0.07483600
20MABNDL000196_PR037
Spot 1     0.01346319     0.03536725    -0.07483600
Spot 2     0.01361788     0.03536607    -0.07483600
Spot 1     0.01346290     0.03536700    -0.07483600
Spot 2     0.01361770     0.03536593    -0.07483600
Spot 1     0.01346294     0.03536706    -0.07483600
Spot 2     0.01361782     0.03536592    -0.07483600
Spot 1     0.01346348     0.03536740    -0.07483600
Spot 2     0.01361806     0.03536584    -0.07483600
Spot 1     0.01346306     0.03536710    -0.07483600
Spot 2     0.01361787     0.03536596    -0.07483600
20MABNDL000196_20MABNDM000020
Spot 1    -0.01277639     0.03530246    -0.00611000
Spot 2    -0.01255475     0.03530760    -0.00611000
Spot 1    -0.01277599     0.03530266    -0.00611000
Spot 2    -0.01255472     0.03530748    -0.00611000
Spot 1    -0.01277607     0.03530259    -0.00611000
Spot 2    -0.01255476     0.03530741    -0.00611000
Spot 1    -0.01277616     0.03530246    -0.00611000
Spot 2    -0.01255481     0.03530753    -0.00611000
Spot 1    -0.01277603     0.03530242    -0.00611000
Spot 2    -0.01255482     0.03530748    -0.00611000
20MABNDL000196_PR012
Spot 1    -0.01397337     0.03494151    -0.00611000
Spot 2    -0.01154789     0.03477028    -0.00611000
Spot 1    -0.01397260     0.03494153    -0.00611000
Spot 2    -0.01397260     0.03494153    -0.00611000
Spot 1    -0.01144906     0.03433218    -0.00611000
Spot 2    -0.01401377     0.03454062    -0.00611000
Spot 1    -0.01144906     0.03433218    -0.00611000
Spot 2    -0.01144906     0.03433218    -0.00611000
Spot 1    -0.01144906     0.03433218    -0.00611000
Spot 2    -0.01144906     0.03433218    -0.00611000
20MABNDL000077_PR002
Spot 1     0.01186409     0.03557256    -0.07463200
Spot 2     0.01202592     0.03557163    -0.07463200
Spot 1     0.01186401     0.03557273    -0.07463200
Spot 2     0.01202584     0.03557206    -0.07463200
Spot 1     0.01186407     0.03557272    -0.07463200
Spot 2     0.01202584     0.03557153    -0.07463200
Spot 1     0.01186409     0.03557269    -0.07463200
Spot 2     0.01202593     0.03557131    -0.07463200
Spot 1     0.01186400     0.03557296    -0.07463200
Spot 2     0.01202595     0.03557116    -0.07463200
20MABNDL000077_PR003
Spot 1     0.01259131     0.03526014    -0.07463200
Spot 2     0.01274162     0.03526140    -0.07463200
Spot 1     0.01259120     0.03526023    -0.07463200
Spot 2     0.01274172     0.03526146    -0.07463200
Spot 1     0.01259120     0.03526021    -0.07463200
Spot 2     0.01274167     0.03526156    -0.07463200
Spot 1     0.01259121     0.03526008    -0.07463200
Spot 2     0.01274173     0.03526130    -0.07463200
Spot 1     0.01259135     0.03526017    -0.07463200
Spot 2     0.01274173     0.03526173    -0.07463200
20MABNDL000077_20MABNDM000168
Spot 1    -0.01272106     0.03554646    -0.00695400
Spot 2    -0.01253943     0.03558138    -0.00695400
Spot 1    -0.01272131     0.03554668    -0.00695400
Spot 2    -0.01253948     0.03558140    -0.00695400
Spot 1    -0.01272112     0.03554663    -0.00695400
Spot 2    -0.01253941     0.03558164    -0.00695400
Spot 1    -0.01272117     0.03554662    -0.00695400
Spot 2    -0.01253960     0.03558151    -0.00695400
Spot 1    -0.01272108     0.03554668    -0.00695400
Spot 2    -0.01253957     0.03558164    -0.00695400
20MABNDL000077_PR024
Spot 1    -0.01346732     0.03576883    -0.00695400
Spot 2    -0.01356897     0.03577159    -0.00695400
Spot 1    -0.01346703     0.03576882    -0.00695400
Spot 2    -0.01356894     0.03577159    -0.00695400
Spot 1    -0.01346702     0.03576877    -0.00695400
Spot 2    -0.01356906     0.03577154    -0.00695400
Spot 1    -0.01346727     0.03576894    -0.00695400
Spot 2    -0.01356908     0.03577163    -0.00695400
Spot 1    -0.01346734     0.03576883    -0.00695400
Spot 2    -0.01356898     0.03577173    -0.00695400
20MABNDM000020_PR013
Spot 1    -0.01270334    -0.03609639    -0.00523500
Spot 2    -0.01285605    -0.03610512    -0.00523500
Spot 1    -0.01270290    -0.03609635    -0.00523500
Spot 2    -0.01285595    -0.03610537    -0.00523500
Spot 1    -0.01270287    -0.03609697    -0.00523500
Spot 2    -0.01285608    -0.03610500    -0.00523500
Spot 1    -0.01270354    -0.03609661    -0.00523500
Spot 2    -0.01285578    -0.03610406    -0.00523500
Spot 1    -0.01270305    -0.03609687    -0.00523500
Spot 2    -0.01285612    -0.03610399    -0.00523500
20MABNDM000020_PR014
Spot 1    -0.01166441    -0.03621416    -0.00523500
Spot 2    -0.01182586    -0.03622399    -0.00523500
Spot 1    -0.01166446    -0.03621430    -0.00523500
Spot 2    -0.01182571    -0.03622426    -0.00523500
Spot 1    -0.01166415    -0.03621414    -0.00523500
Spot 2    -0.01182563    -0.03622379    -0.00523500
Spot 1    -0.01166416    -0.03621367    -0.00523500
Spot 2    -0.01182545    -0.03622367    -0.00523500
Spot 1    -0.01166425    -0.03621384    -0.00523500
Spot 2    -0.01182542    -0.03622319    -0.00523500
20MABNDM000020_20MABNDL000196
Spot 1     0.01268548    -0.03454477    -0.07583800
Spot 2     0.01372118    -0.03443342    -0.07583800
Spot 1     0.01268576    -0.03454487    -0.07583800
Spot 2     0.01388114    -0.03418340    -0.07583800
Spot 1     0.01268538    -0.03454500    -0.07583800
Spot 2     0.01388114    -0.03418340    -0.07583800
Spot 1     0.01268566    -0.03454474    -0.07583800
Spot 2     0.01372118    -0.03443342    -0.07583800
Spot 1     0.01268557    -0.03454508    -0.07583800
Spot 2     0.01372118    -0.03443342    -0.07583800
20MABNDM000020_PR035
Spot 1     0.01342108    -0.03483840    -0.07583800
Spot 2     0.01349115    -0.03487111    -0.07583800
Spot 1     0.01342094    -0.03483812    -0.07583800
Spot 2     0.01349136    -0.03487122    -0.07583800
Spot 1     0.01342091    -0.03483850    -0.07583800
Spot 2     0.01349136    -0.03487121    -0.07583800
Spot 1     0.01342098    -0.03483856    -0.07583800
Spot 2     0.01349142    -0.03487134    -0.07583800
20MABNDB000069_PR031
Spot 1    -0.01359247    -0.01286434    -0.07388500
Spot 2    -0.01352250    -0.01286732    -0.07388500
Spot 1    -0.01359269    -0.01286440    -0.07388500
Spot 2    -0.01361993    -0.01186066    -0.07388500
Spot 1    -0.01359263    -0.01286456    -0.07388500
Spot 2    -0.01361993    -0.01186066    -0.07388500
Spot 1    -0.01359244    -0.01286407    -0.07388500
Spot 2    -0.01361993    -0.01186066    -0.07388500
20MABNDB000069_PR033
Spot 1    -0.01202804    -0.01225504    -0.07388500
Spot 2    -0.01155754    -0.01225512    -0.07388500
Spot 1    -0.01202791    -0.01225515    -0.07388500
Spot 2    -0.01155739    -0.01225505    -0.07388500
Spot 1    -0.01202790    -0.01225499    -0.07388500
Spot 2    -0.01155731    -0.01225490    -0.07388500
Spot 1    -0.01202802    -0.01225506    -0.07388500
Spot 2    -0.01155736    -0.01225500    -0.07388500
20MABNDB000131_PR032
Spot 1    -0.01144051    -0.01304149    -0.07533000
Spot 2    -0.01138071    -0.01303765    -0.07533000
Spot 1    -0.01144031    -0.01304151    -0.07533000
Spot 2    -0.01138072    -0.01303766    -0.07533000
Spot 1    -0.01144027    -0.01304160    -0.07533000
Spot 2    -0.01138042    -0.01303754    -0.07533000
Spot 1    -0.01144029    -0.01304179    -0.07533000
Spot 2    -0.01138056    -0.01303781    -0.07533000
20MABNDB000131_PR034
Spot 1    -0.01328419    -0.01379916    -0.07533000
Spot 2    -0.01310771    -0.01379841    -0.07533000
Spot 1    -0.01328423    -0.01379913    -0.07533000
Spot 2    -0.01310783    -0.01379851    -0.07533000
Spot 1    -0.01328425    -0.01379899    -0.07533000
Spot 2    -0.01310792    -0.01379827    -0.07533000
Spot 1    -0.01328429    -0.01379903    -0.07533000
Spot 2    -0.01310769    -0.01379830    -0.07533000
20MABNDA000208_PR042
Spot 1    -0.01390989     0.01303613    -0.07273700
Spot 2    -0.01384108     0.01303416    -0.07273700
Spot 1    -0.01391035     0.01303672    -0.07273700
Spot 2    -0.01384202     0.01303386    -0.07273700
Spot 1    -0.01391035     0.01303656    -0.07273700
Spot 2    -0.01384014     0.01303386    -0.07273700
Spot 1    -0.01391026     0.01303627    -0.07273700
Spot 2    -0.01384026     0.01303431    -0.07273700
20MABNDA000208_PR046
Spot 1    -0.01230727     0.01181563    -0.07273700
Spot 2    -0.01183690     0.01181270    -0.07273700
Spot 1    -0.01230729     0.01181565    -0.07273700
Spot 2    -0.01183685     0.01181257    -0.07273700
Spot 1    -0.01230723     0.01181563    -0.07273700
Spot 2    -0.01183685     0.01181246    -0.07273700
Spot 1    -0.01230719     0.01181561    -0.07273700
Spot 2    -0.01183700     0.01181264    -0.07273700
20MABNDA000035_PR044
Spot 1    -0.01157657     0.01300219    -0.07483200
Spot 2    -0.01152114     0.01300730    -0.07483200
Spot 1    -0.01157635     0.01300194    -0.07483200
Spot 2    -0.01152109     0.01300709    -0.07483200
Spot 1    -0.01157618     0.01300186    -0.07483200
Spot 2    -0.01152114     0.01300718    -0.07483200
Spot 1    -0.01157680     0.01300183    -0.07483200
Spot 2    -0.01152108     0.01300710    -0.07483200
20MABNDA000035_PR045
Spot 1    -0.01338197     0.01378743    -0.07483200
Spot 2    -0.01320563     0.01378771    -0.07483200
Spot 1    -0.01338202     0.01378774    -0.07483200
Spot 2    -0.01320571     0.01378754    -0.07483200
Spot 1    -0.01338187     0.01378752    -0.07483200
Spot 2    -0.01320591     0.01378760    -0.07483200
Spot 1    -0.01338184     0.01378746    -0.07483200
Spot 2    -0.01320563     0.01378759    -0.07483200
20MABNDA000318_PR004
Spot 1    -0.01287078     0.01246985    -0.07310600
Spot 2    -0.01265363     0.01247032    -0.07310600
Spot 1    -0.01287091     0.01247007    -0.07310600
Spot 2    -0.01265384     0.01247006    -0.07310600
Spot 1    -0.01287092     0.01247037    -0.07310600
Spot 2    -0.01265366     0.01247019    -0.07310600
Spot 1    -0.01287093     0.01247009    -0.07310600
Spot 2    -0.01265353     0.01247064    -0.07310600
20MABNDA000334_PR005
Spot 1    -0.01312065     0.01255878    -0.07324100
Spot 2    -0.01284034     0.01255782    -0.07324100
Spot 1    -0.01312049     0.01255906    -0.07324100
Spot 2    -0.01284028     0.01255786    -0.07324100
Spot 1    -0.01312052     0.01255905    -0.07324100
Spot 2    -0.01284031     0.01255792    -0.07324100
Spot 1    -0.01312029     0.01255887    -0.07324100
Spot 2    -0.01284023     0.01255777    -0.07324100
20MABNDB000317_PR015
Spot 1    -0.01266202    -0.01248975    -0.07326100
Spot 2    -0.01244254    -0.01249316    -0.07326100
Spot 1    -0.01266196    -0.01248964    -0.07326100
Spot 2    -0.01244234    -0.01249351    -0.07326100
Spot 1    -0.01266199    -0.01248975    -0.07326100
Spot 2    -0.01244250    -0.01249339    -0.07326100
Spot 1    -0.01266189    -0.01248959    -0.07326100
Spot 2    -0.01244264    -0.01249324    -0.07326100
20MABNDB000146_PR016
Spot 1    -0.01275954    -0.01246459    -0.07450500
Spot 2    -0.01248398    -0.01246126    -0.07450500
Spot 1    -0.01275956    -0.01246456    -0.07450500
Spot 2    -0.01248397    -0.01246147    -0.07450500
Spot 1    -0.01275949    -0.01246440    -0.07450500
Spot 2    -0.01248397    -0.01246147    -0.07450500
Spot 1    -0.01275949    -0.01246464    -0.07450500
Spot 2    -0.01248416    -0.01246129    -0.07450500
20MABNDB000135_PR027
Spot 1    -0.01251362    -0.01319171    -0.07464700
Spot 2    -0.01229512    -0.01319205    -0.07464700
Spot 1    -0.01251376    -0.01319181    -0.07464700
Spot 2    -0.01229516    -0.01319185    -0.07464700
Spot 1    -0.01251349    -0.01319166    -0.07464700
Spot 2    -0.01229517    -0.01319194    -0.07464700
Spot 1    -0.01251377    -0.01319180    -0.07464700
Spot 2    -0.01229523    -0.01319209    -0.07464700
20MABNDB000126_PR028
Spot 1    -0.01252875    -0.01218132    -0.07500400
Spot 2    -0.01224726    -0.01217774    -0.07500400
Spot 1    -0.01252882    -0.01218123    -0.07500400
Spot 2    -0.01224709    -0.01217781    -0.07500400
Spot 1    -0.01252899    -0.01218124    -0.07500400
Spot 2    -0.01224732    -0.01217765    -0.07500400
Spot 1    -0.01252883    -0.01218129    -0.07500400
Spot 2    -0.01224729    -0.01217762    -0.07500400
20MABNDA000272_PR038
Spot 1    -0.01276132     0.01314155    -0.07417900
Spot 2    -0.01253871     0.01314127    -0.07417900
Spot 1    -0.01276153     0.01314165    -0.07417900
Spot 2    -0.01253880     0.01314143    -0.07417900
Spot 1    -0.01276132     0.01314144    -0.07417900
Spot 2    -0.01253898     0.01314143    -0.07417900
Spot 1    -0.01276119     0.01314137    -0.07417900
Spot 2    -0.01253887     0.01314108    -0.07417900
20MABNDA000003_PR039
Spot 1    -0.01281000     0.01212226    -0.07373400
Spot 2    -0.01308779     0.01212344    -0.07373400
Spot 1    -0.01280991     0.01212242    -0.07373400
Spot 2    -0.01308741     0.01212332    -0.07373400
Spot 1    -0.01281009     0.01212219    -0.07373400
Spot 2    -0.01308768     0.01212336    -0.07373400
Spot 1    -0.01281001     0.01212252    -0.07373400
Spot 2    -0.01308776     0.01212348    -0.07373400
20MABNDA000196_PR006
Spot 1    -0.01293082     0.01322660    -0.07967100
Spot 2    -0.01256250     0.01322499    -0.07967100
Spot 1    -0.01293093     0.01322653    -0.07967100
Spot 2    -0.01256248     0.01322526    -0.07967100
Spot 1    -0.01293094     0.01322647    -0.07967100
Spot 2    -0.01256232     0.01322518    -0.07967100
Spot 1    -0.01293085     0.01322651    -0.07967100
Spot 2    -0.01256238     0.01322506    -0.07967100
20MABNDA000324_PR007
Spot 1    -0.01256057     0.01281341    -0.07446800
Spot 2    -0.01235501     0.01280931    -0.07446800
Spot 1    -0.01256062     0.01281309    -0.07446800
Spot 2    -0.01235492     0.01280937    -0.07446800
Spot 1    -0.01256051     0.01281323    -0.07446800
Spot 2    -0.01235485     0.01280936    -0.07446800
Spot 1    -0.01256062     0.01281325    -0.07446800
Spot 2    -0.01235489     0.01280913    -0.07446800
20MABNDB000001_PR017
Spot 1    -0.01222192    -0.01350904    -0.07418400
Spot 2    -0.01219978    -0.01342427    -0.07418400
Spot 1    -0.01222198    -0.01350910    -0.07418400
Spot 2    -0.01219972    -0.01342421    -0.07418400
Spot 1    -0.01222212    -0.01350892    -0.07418400
Spot 2    -0.01219989    -0.01342427    -0.07418400
Spot 1    -0.01222201    -0.01350889    -0.07418400
Spot 2    -0.01219959    -0.01342417    -0.07418400
20MABNDB000260_PR019
Spot 1    -0.01240728    -0.01241107    -0.07492700
Spot 2    -0.01220442    -0.01240749    -0.07492700
Spot 1    -0.01240748    -0.01241078    -0.07492700
Spot 2    -0.01220471    -0.01240741    -0.07492700
Spot 1    -0.01240755    -0.01241113    -0.07492700
Spot 2    -0.01220461    -0.01240721    -0.07492700
Spot 1    -0.01240753    -0.01241096    -0.07492700
Spot 2    -0.01220493    -0.01240760    -0.07492700
20MABNDB000212_PR029
Spot 1    -0.01184940    -0.01325491    -0.07390500
Spot 2    -0.01221484    -0.01325128    -0.07390500
Spot 1    -0.01184937    -0.01325491    -0.07390500
Spot 2    -0.01221495    -0.01325109    -0.07390500
Spot 1    -0.01184932    -0.01325482    -0.07390500
Spot 2    -0.01221508    -0.01325114    -0.07390500
Spot 1    -0.01184930    -0.01325482    -0.07390500
Spot 2    -0.01221519    -0.01325115    -0.07390500
20MABNDB000128_PR030
Spot 1    -0.01245424    -0.01221485    -0.07353400
Spot 2    -0.01224973    -0.01221906    -0.07353400
Spot 1    -0.01245418    -0.01221487    -0.07353400
Spot 2    -0.01224946    -0.01221920    -0.07353400
Spot 1    -0.01245404    -0.01221480    -0.07353400
Spot 2    -0.01224939    -0.01221921    -0.07353400
Spot 1    -0.01245428    -0.01221498    -0.07353400
Spot 2    -0.01224942    -0.01221915    -0.07353400
20MABNDA000444_PR040
Spot 1    -0.01168958     0.01364827    -0.07412000
Spot 2    -0.01205580     0.01364794    -0.07412000
Spot 1    -0.01168959     0.01364811    -0.07412000
Spot 2    -0.01205597     0.01364804    -0.07412000
Spot 1    -0.01168968     0.01364801    -0.07412000
Spot 2    -0.01205564     0.01364814    -0.07412000
Spot 1    -0.01168947     0.01364790    -0.07412000
Spot 2    -0.01205579     0.01364785    -0.07412000
20MABNDA000053_PR041
Spot 1    -0.01241656     0.01212337    -0.07430100
Spot 2    -0.01221375     0.01212308    -0.07430100
Spot 1    -0.01241681     0.01212310    -0.07430100
Spot 2    -0.01221406     0.01212297    -0.07430100
Spot 1    -0.01241657     0.01212347    -0.07430100
Spot 2    -0.01221394     0.01212328    -0.07430100
Spot 1    -0.01241620     0.01212327    -0.07430100
Spot 2    -0.01221344     0.01212320    -0.07430100
20MABNDA000188_PR008
Spot 1    -0.01381099     0.01395807    -0.07502000
Spot 2    -0.01381099     0.01395807    -0.07502000
Spot 1    -0.01380210     0.01382799    -0.07502000
Spot 2    -0.01380499     0.01395802    -0.07502000
Spot 1    -0.01381099     0.01395807    -0.07502000
Spot 2    -0.01381099     0.01395807    -0.07502000
Spot 1    -0.01381099     0.01395807    -0.07502000
Spot 2    -0.01425125     0.01392934    -0.07502000
20MABNDA000188_PR018
Spot 1    -0.01269541     0.01235384    -0.07502000
Spot 2    -0.01222846     0.01235251    -0.07502000
Spot 1    -0.01269546     0.01235382    -0.07502000
Spot 2    -0.01222866     0.01235242    -0.07502000
Spot 1    -0.01269541     0.01235377    -0.07502000
Spot 2    -0.01222834     0.01235244    -0.07502000
Spot 1    -0.01269551     0.01235369    -0.07502000
Spot 2    -0.01222848     0.01235237    -0.07502000
20MABNDA000039_PR009
Spot 1    -0.01162659     0.01306495    -0.07444800
Spot 2    -0.01157955     0.01306012    -0.07444800
Spot 1    -0.01162684     0.01306524    -0.07444800
Spot 2    -0.01157964     0.01306007    -0.07444800
Spot 1    -0.01162656     0.01306492    -0.07444800
Spot 2    -0.01157975     0.01306004    -0.07444800
Spot 1    -0.01162685     0.01306498    -0.07444800
Spot 2    -0.01157963     0.01305997    -0.07444800
20MABNDA000039_PR011
Spot 1    -0.01372401     0.01395155    -0.07444800
Spot 2    -0.01354868     0.01395508    -0.07444800
Spot 1    -0.01372420     0.01395162    -0.07444800
Spot 2    -0.01354855     0.01395530    -0.07444800
Spot 1    -0.01372386     0.01395152    -0.07444800
Spot 2    -0.01354847     0.01395519    -0.07444800
Spot 1    -0.01372392     0.01395150    -0.07444800
Spot 2    -0.01354846     0.01395510    -0.07444800
20MABNDB000155_PR020
Spot 1    -0.01364644    -0.01313573    -0.07501700
Spot 2    -0.01358275    -0.01313883    -0.07501700
Spot 1    -0.01364679    -0.01313622    -0.07501700
Spot 2    -0.01358269    -0.01313924    -0.07501700
Spot 1    -0.01364718    -0.01313601    -0.07501700
Spot 2    -0.01358243    -0.01313902    -0.07501700
Spot 1    -0.01364642    -0.01313572    -0.07501700
Spot 2    -0.01358312    -0.01313848    -0.07501700
20MABNDB000155_PR022
Spot 1    -0.01216942    -0.01292352    -0.07501700
Spot 2    -0.01169626    -0.01292134    -0.07501700
Spot 1    -0.01216945    -0.01292368    -0.07501700
Spot 2    -0.01169629    -0.01292138    -0.07501700
Spot 1    -0.01216932    -0.01292363    -0.07501700
Spot 2    -0.01169622    -0.01292142    -0.07501700
Spot 1    -0.01216922    -0.01292387    -0.07501700
Spot 2    -0.01169640    -0.01292143    -0.07501700
20MABNDB000010_PR021
Spot 1    -0.01158240    -0.01291854    -0.07358200
Spot 2    -0.01152852    -0.01291470    -0.07358200
Spot 1    -0.01158270    -0.01291898    -0.07358200
Spot 2    -0.01152896    -0.01291502    -0.07358200
Spot 1    -0.01158202    -0.01291856    -0.07358200
Spot 2    -0.01152902    -0.01291503    -0.07358200
Spot 1    -0.01158285    -0.01291909    -0.07358200
Spot 2    -0.01152880    -0.01291494    -0.07358200
20MABNDB000010_PR023
Spot 1    -0.01312724    -0.01375919    -0.07358200
Spot 2    -0.01295265    -0.01375734    -0.07358200
Spot 1    -0.01312730    -0.01375917    -0.07358200
Spot 2    -0.01295242    -0.01375720    -0.07358200
Spot 1    -0.01312720    -0.01375906    -0.07358200
Spot 2    -0.01295236    -0.01375714    -0.07358200
Spot 1    -0.01312723    -0.01375905    -0.07358200
Spot 2    -0.01295252    -0.01375714    -0.07358200


*****************************************************************coordonnees du prisme dans le repere MOUNT********************************************************************************** 
20MABNDM000168_PR025
    0.01795940    -0.02079572    -3.78863955
    0.01795503    -0.02081553    -3.78863955
    0.01795722    -0.02080785    -3.78863955
    0.01796145    -0.02081253    -3.78863955
    0.01795455    -0.02081998    -3.78863955
20MABNDM000168_PR026
   -0.05797458    -0.01406121    -3.98428965
   -0.05797407    -0.01406146    -3.98428965
   -0.05797929    -0.01405836    -3.98428965
   -0.05798239    -0.01406306    -3.98428965
   -0.05798655    -0.01406360    -3.98428965
20MABNDM000168_20MABNDL000077
    0.01129536    -0.03906844     5.38884640
    0.01129369    -0.03905944     5.38884640
    0.01130265    -0.03906136     5.38884640
    0.01129230    -0.03905618     5.38884640
    0.01129737    -0.03905374     5.38884640
20MABNDM000168_PR001
   -0.05744506    -0.01319518     5.81470394
   -0.05746903    -0.01319212     5.81470346
   -0.05744507    -0.01319635     5.81470394
   -0.05745292    -0.01320282     5.81470346
   -0.05745243    -0.01319585     5.81470346
20MABNDL000196_PR036
    0.05078097     0.00553547     3.68777442
    0.05077435     0.00552957     3.68777442
    0.05077504     0.00555387     3.68777466
    0.05076722     0.00553471     3.68777442
    0.05077066     0.00553177     3.68777442
20MABNDL000196_PR037
   -0.02581789     0.02821219     3.88380575
   -0.02580576     0.02822230     3.88380575
   -0.02580990     0.02822100     3.88380575
   -0.02583005     0.02821423     3.88380575
   -0.02581428     0.02821892     3.88380575
20MABNDL000196_20MABNDM000020
   -0.01381512     0.03879201    -5.47473907
   -0.01383051     0.03878919    -5.47473907
   -0.01382594     0.03879395    -5.47473907
   -0.01382128     0.03879440    -5.47473907
   -0.01382566     0.03879791    -5.47473907
20MABNDL000196_PR012
   -0.00651722     0.07392652    -5.91564846
    0.08767642     0.06726576    -5.91482735
   -0.00878687     0.10653053    -5.91534805
   -0.10844630     0.11461935    -5.91446018
   -0.10844630     0.11461935    -5.91446018
20MABNDL000077_PR002
    0.04959881     0.02140601     3.70690870
    0.04960287     0.02139115     3.70690870
    0.04960126     0.02140450     3.70690870
    0.04959861     0.02141070     3.70690870
    0.04960031     0.02140772     3.70690870
20MABNDL000077_PR003
    0.01402187     0.03682436     3.89605379
    0.01402209     0.03682046     3.89605379
    0.01402337     0.03681837     3.89605379
    0.01402165     0.03682851     3.89605379
    0.01401815     0.03681505     3.89605379
20MABNDL000077_20MABNDM000168
   -0.01664690     0.01431267    -5.46871090
   -0.01663634     0.01430411    -5.46871090
   -0.01664566     0.01429715    -5.46871090
   -0.01663704     0.01430229    -5.46871090
   -0.01664131     0.01429539    -5.46871090
20MABNDL000077_PR024
    0.05226319    -0.00349464    -5.89622498
    0.05225072    -0.00349437    -5.89622498
    0.05225497    -0.00349082    -5.89622498
    0.05226560    -0.00350085    -5.89622498
    0.05226442    -0.00350047    -5.89622498
20MABNDM000020_PR013
   -0.00509808     0.01215070    -3.80216932
   -0.00511160     0.01215586    -3.80216932
   -0.00510900     0.01216212    -3.80216932
   -0.00509985     0.01212982    -3.80216956
   -0.00510368     0.01213445    -3.80216956
20MABNDM000020_PR014
   -0.06755778     0.03172961    -4.74799967
   -0.06756116     0.03174228    -4.74799871
   -0.06757319     0.03172304    -4.74799871
   -0.06757839     0.03170456    -4.74799967
   -0.06757662     0.03169496    -4.74799967
20MABNDM000020_20MABNDL000196
   -0.02030551    -0.07991544     5.39455032
   -0.02604574    -0.08886816     5.39443207
   -0.02603213    -0.08886351     5.39443207
   -0.02031196    -0.07991651     5.39455032
   -0.02030874    -0.07990433     5.39455032
20MABNDM000020_PR035
   -0.04227369    -0.05505478     5.80099773
   -0.04227638    -0.05506133     5.80099773
   -0.04227523    -0.05504707     5.80099773
   -0.04228024    -0.05503975     5.80099773
20MABNDB000069_PR031
    0.10235141    -0.03849517     9.20356178
    0.10833390    -0.10022515     9.20310783
    0.10833060    -0.10021581     9.20310783
    0.10831894    -0.10024540     9.20310783
20MABNDB000069_PR033
   -0.02678848    -0.02707288     1.28393948
   -0.02679086    -0.02707261     1.28393948
   -0.02679157    -0.02707523     1.28393948
   -0.02679014    -0.02707375     1.28393948
20MABNDB000131_PR032
   -0.18832719    -0.02915205    11.00641632
   -0.18834108    -0.02914992    11.00641632
   -0.18836591    -0.02915224    11.00641537
   -0.18835439    -0.02911857    11.00641632
20MABNDB000131_PR034
    0.01395400     0.01645885     3.43338203
    0.01395764     0.01646046     3.43338203
    0.01396019     0.01645159     3.43338203
    0.01395585     0.01645339     3.43338203
20MABNDA000208_PR042
    0.12989908     0.01563326     9.20148849
    0.12998503     0.01561554     9.20148849
    0.12986965     0.01562526     9.20149040
    0.12987150     0.01561544     9.20149040
20MABNDA000208_PR046
   -0.02364853     0.03429465     1.28208566
   -0.02364879     0.03429559     1.28208566
   -0.02364930     0.03429670     1.28208566
   -0.02364836     0.03429533     1.28208566
20MABNDA000035_PR044
   -0.17932343     0.02645413    11.00803185
   -0.17934367     0.02648792    11.00803185
   -0.17935246     0.02648725    11.00803185
   -0.17931145     0.02649501    11.00803185
20MABNDA000035_PR045
    0.01496608    -0.01845939     3.43483877
    0.01496902    -0.01846260     3.43483853
    0.01497019    -0.01845919     3.43483877
    0.01496313    -0.01845754     3.43483877
20MABNDA000318_PR004
   -0.00825555     0.03837169     2.74965906
   -0.00824931     0.03837243     2.74965906
   -0.00825241     0.03836454     2.74965906
   -0.00825460     0.03836142     2.74965906
20MABNDA000334_PR005
   -0.00414505     0.03122609     2.14977503
   -0.00414820     0.03122152     2.14977503
   -0.00414734     0.03122081     2.14977503
   -0.00415177     0.03122553     2.14977503
20MABNDB000317_PR015
   -0.01753362    -0.03430428     2.75128746
   -0.01753841    -0.03429979     2.75128746
   -0.01753494    -0.03430011     2.75128746
   -0.01753415    -0.03430575     2.75128746
20MABNDB000146_PR016
   -0.01355805    -0.03169877     2.15201354
   -0.01355791    -0.03169619     2.15201354
   -0.01355892    -0.03169849     2.15201354
   -0.01355619    -0.03169762     2.15201354
20MABNDB000135_PR027
   -0.02101057    -0.01005309     2.74937153
   -0.02100729    -0.01005496     2.74937153
   -0.02101207    -0.01005601     2.74937153
   -0.02100578    -0.01005076     2.74937153
20MABNDB000126_PR028
   -0.02049996    -0.03873198     2.14679718
   -0.02050139    -0.03873213     2.14679718
   -0.02049567    -0.03873438     2.14679718
   -0.02049838    -0.03873411     2.14679718
20MABNDA000272_PR038
   -0.01315569     0.01149991     2.74965906
   -0.01315020     0.01149513     2.74965906
   -0.01315074     0.01149898     2.74965906
   -0.01315512     0.01150668     2.74965906
20MABNDA000003_PR039
   -0.00570656     0.04133049     2.14891338
   -0.00571328     0.04132994     2.14891386
   -0.00570684     0.04133263     2.14891338
   -0.00570686     0.04132620     2.14891386
20MABNDA000196_PR006
   -0.01064460     0.01041301     1.64206505
   -0.01064365     0.01041081     1.64206505
   -0.01064527     0.01041236     1.64206505
   -0.01064558     0.01041324     1.64206505
20MABNDA000324_PR007
   -0.02497808     0.02769573     2.95549369
   -0.02497890     0.02770084     2.95549369
   -0.02498242     0.02769825     2.95549369
   -0.02497931     0.02770241     2.95549369
20MABNDB000001_PR017
   -0.02209216    -0.00462108     1.64038277
   -0.02209216    -0.00462108     1.64038277
   -0.02208868    -0.00462243     1.64038277
   -0.02209317    -0.00462381     1.64038277
20MABNDB000260_PR019
   -0.02441151    -0.03790009     2.95627880
   -0.02440190    -0.03790758     2.95627880
   -0.02440255    -0.03790464     2.95627880
   -0.02439654    -0.03790018     2.95627880
20MABNDB000212_PR029
   -0.02545235    -0.00901895     1.64223897
   -0.02545139    -0.00902105     1.64223897
   -0.02545052    -0.00902138     1.64223897
   -0.02544953    -0.00902129     1.64223897
20MABNDB000128_PR030
   -0.01930322    -0.04686391     2.95496249
   -0.01930972    -0.04686078     2.95496249
   -0.01931384    -0.04686198     2.95496249
   -0.01930854    -0.04685960     2.95496249
20MABNDA000444_PR040
   -0.03014936     0.00149428     1.64491367
   -0.03014739     0.00149485     1.64491379
   -0.03015002     0.00149492     1.64491367
   -0.03015063     0.00149941     1.64491379
20MABNDA000053_PR041
   -0.02627285     0.05090781     2.95450783
   -0.02626171     0.05091505     2.95450783
   -0.02626884     0.05090184     2.95450783
   -0.02628601     0.05090728     2.95450783
20MABNDA000188_PR008
    0.12406749    -0.09715948     9.20338535
    0.12315529    -0.08917260     9.20349121
    0.12406749    -0.09715948     9.20338535
    0.15108457    -0.09539095     9.20296574
20MABNDA000188_PR018
   -0.01671811     0.02519518     1.28358698
   -0.01671596     0.02519610     1.28358698
   -0.01671913     0.02519639     1.28358698
   -0.01671706     0.02519765     1.28358698
20MABNDA000039_PR009
   -0.17106579     0.02550522    11.00701714
   -0.17104028     0.02548756    11.00701714
   -0.17105334     0.02551321    11.00701714
   -0.17104089     0.02551389    11.00701714
20MABNDA000039_PR011
    0.03067887    -0.02363182     3.43348193
    0.03068021    -0.02363844     3.43348193
    0.03067065    -0.02363360     3.43348193
    0.03067181    -0.02363110     3.43348193
20MABNDB000155_PR020
    0.10222775    -0.00793326     9.20028114
    0.10224603    -0.00787837     9.20028114
    0.10225375    -0.00790466     9.20028114
    0.10224955    -0.00795568     9.20028114
20MABNDB000155_PR022
   -0.02539971    -0.01607404     1.28071463
   -0.02539923    -0.01607233     1.28071463
   -0.02540093    -0.01607235     1.28071463
   -0.02540028    -0.01607029     1.28071463
20MABNDB000010_PR021
   -0.17607619    -0.03475326    11.00694561
   -0.17602274    -0.03469795    11.00694656
   -0.17606780    -0.03472812    11.00694656
   -0.17602278    -0.03469501    11.00694656
20MABNDB000010_PR023
    0.00445530     0.01875515     3.43378496
    0.00445123     0.01875141     3.43378496
    0.00444763     0.01874745     3.43378496
    0.00445199     0.01874730     3.43378496


*****************************************************************coordonnees du prisme dans le repere ATLAS********************************************************************************** 
20MABNDM000168_PR025 0.00000000
    2.83244109    -3.76328874    -6.47925854
    2.83242130    -3.76328421    -6.47925854
    2.83242893    -3.76328659    -6.47925854
    2.83242440    -3.76329064    -6.47925854
    2.83241677    -3.76328373    -6.47925854
20MABNDM000168_PR026 0.00000000
    2.83918381    -3.68742919    -6.67493725
    2.83918357    -3.68742967    -6.67493725
    2.83918667    -3.68742442    -6.67493725
    2.83918190    -3.68742132    -6.67493725
    2.83918142    -3.68741727    -6.67493725
20MABNDM000168_20MABNDL000077 0.00000000
    2.81472707    -3.75320745     2.69822550
    2.81473613    -3.75320578     2.69822550
    2.81473422    -3.75321460     2.69822550
    2.81473947    -3.75320435     2.69822550
    2.81474185    -3.75320935     2.69822550
20MABNDM000168_PR001 0.00000000
    2.84064436    -3.68431544     3.12405586
    2.84064746    -3.68429160     3.12405539
    2.84064317    -3.68431544     3.12405586
    2.84063673    -3.68430758     3.12405539
    2.84064364    -3.68430805     3.12405539
20MABNDL000196_PR036 0.00000000
   -2.84807181    -3.69349360    -6.47909737
   -2.84807777    -3.69350028    -6.47909737
   -2.84805346    -3.69349957    -6.47909784
   -2.84807253    -3.69350743    -6.47909737
   -2.84807539    -3.69350410    -6.47909737
20MABNDL000196_PR037 0.00000000
   -2.82536364    -3.77026439    -6.67505789
   -2.82535362    -3.77025223    -6.67505789
   -2.82535481    -3.77025628    -6.67505789
   -2.82536173    -3.77027655    -6.67505789
   -2.82535696    -3.77026081    -6.67505789
20MABNDL000196_20MABNDM000020 0.00000000
   -2.81458712    -3.74955130     2.68347168
   -2.81458998    -3.74956679     2.68347168
   -2.81458521    -3.74956226     2.68347168
   -2.81458473    -3.74955750     2.68347168
   -2.81458139    -3.74956179     2.68347168
20MABNDL000196_PR012 0.00000000
   -2.77944660    -3.74182701     3.12437320
   -2.78615117    -3.64763737     3.12346458
   -2.74684143    -3.74408174     3.12407422
   -2.73870635    -3.84373832     3.12327886
   -2.73870635    -3.84373832     3.12327886
20MABNDL000077_PR002 0.00000000
    2.83563495    -3.69491816     6.48618889
    2.83564973    -3.69491410     6.48618889
    2.83563638    -3.69491577     6.48618889
    2.83563018    -3.69491839     6.48618889
    2.83563304    -3.69491673     6.48618889
20MABNDL000077_PR003 0.00000000
    2.82039070    -3.73072362     6.67530489
    2.82039452    -3.73072338     6.67530489
    2.82039666    -3.73072195     6.67530489
    2.82038665    -3.73072386     6.67530489
    2.82040000    -3.73072720     6.67530489
20MABNDL000077_20MABNDM000168 0.00000000
    2.83370686    -3.74984527    -2.68950796
    2.83371544    -3.74983478    -2.68950772
    2.83372259    -3.74984407    -2.68950796
    2.83371735    -3.74983549    -2.68950772
    2.83372426    -3.74983978    -2.68950796
20MABNDL000077_PR024 0.00000000
    2.85111690    -3.68041348    -3.11695385
    2.85111666    -3.68042588    -3.11695385
    2.85111308    -3.68042159    -3.11695385
    2.85112309    -3.68041110    -3.11695385
    2.85112262    -3.68041229    -3.11695385
20MABNDM000020_PR013 0.00000000
   -2.86445975    -3.73437643     6.48601913
   -2.86446476    -3.73436284     6.48601913
   -2.86447120    -3.73436546     6.48601913
   -2.86443877    -3.73437476     6.48601913
   -2.86444354    -3.73437095     6.48601913
20MABNDM000020_PR014 0.00000000
   -2.88383031    -3.67263007     7.43190050
   -2.88384295    -3.67262673     7.43189955
   -2.88382363    -3.67261481     7.43189955
   -2.88380504    -3.67260957     7.43190050
   -2.88379550    -3.67261124     7.43190050
20MABNDM000020_20MABNDL000196 0.00000000
   -2.77422929    -3.71220279    -2.71070480
   -2.76527476    -3.70646548    -2.71058393
   -2.76527953    -3.70647907    -2.71058393
   -2.77422833    -3.71219635    -2.71070480
   -2.77424049    -3.71219945    -2.71070480
20MABNDM000020_PR035 0.00000000
   -2.79916453    -3.68991780    -3.11713028
   -2.79915810    -3.68991518    -3.11713028
   -2.79917240    -3.68991637    -3.11713028
   -2.79917955    -3.68991137    -3.11713028
20MABNDB000069_PR031 0.00000000
    3.68406796     3.84875488    -7.90190744
    3.69008112     3.84855485    -7.84017897
    3.69007778     3.84855485    -7.84018850
    3.69006610     3.84855509    -7.84015894
20MABNDB000069_PR033 0.00000000
    3.53351116    -4.07046318    -7.87859869
    3.53350878    -4.07046318    -7.87859869
    3.53350806    -4.07046318    -7.87859631
    3.53350949    -4.07046318    -7.87859774
20MABNDB000131_PR032 0.00000000
    3.86912990     3.64756703   -12.93979454
    3.86914372     3.64756703   -12.93979263
    3.86916852     3.64756608   -12.93979549
    3.86915708     3.64756703   -12.93976116
20MABNDB000131_PR034 0.00000000
    3.67383528    -3.92563415   -12.89148903
    3.67383170    -3.92563415   -12.89148712
    3.67382908    -3.92563415   -12.89149570
    3.67383337    -3.92563415   -12.89149380
20MABNDA000208_PR042 0.00000000
   -3.67997766     3.84916711    -7.89585161
   -3.68006372     3.84916711    -7.89586926
   -3.67994833     3.84916902    -7.89585972
   -3.67995024     3.84916902    -7.89586973
20MABNDA000208_PR046 0.00000000
   -3.53211665    -4.07033682    -7.87422371
   -3.53211641    -4.07033682    -7.87422276
   -3.53211594    -4.07033682    -7.87422132
   -3.53211689    -4.07033682    -7.87422276
20MABNDA000035_PR044 0.00000000
   -3.86856437     3.64758682   -12.93213367
   -3.86858463     3.64758682   -12.93216705
   -3.86859345     3.64758682   -12.93216610
   -3.86855245     3.64758682   -12.93217373
20MABNDA000035_PR045 0.00000000
   -3.67576241    -3.92564845   -12.88792515
   -3.67575932    -3.92564869   -12.88792229
   -3.67575836    -3.92564845   -12.88792515
   -3.67576528    -3.92564845   -12.88792706
20MABNDA000318_PR004 0.00000000
    2.61474776    -4.19698858     3.83362699
    2.61475396    -4.19698858     3.83362627
    2.61475086    -4.19698906     3.83363414
    2.61474872    -4.19698906     3.83363724
20MABNDA000334_PR005 0.00000000
    2.61685348    -4.19702768     5.89803457
    2.61685038    -4.19702768     5.89803934
    2.61685109    -4.19702768     5.89804029
    2.61684680    -4.19702768     5.89803553
20MABNDB000317_PR015 0.00000000
   -2.61107349    -4.19700432     3.83571124
   -2.61106873    -4.19700432     3.83571577
   -2.61107230    -4.19700432     3.83571529
   -2.61107302    -4.19700432     3.83570981
20MABNDB000146_PR016 0.00000000
   -2.61273718    -4.19702435     5.89865160
   -2.61273742    -4.19702435     5.89865398
   -2.61273623    -4.19702435     5.89865160
   -2.61273909    -4.19702435     5.89865255
20MABNDB000135_PR027 0.00000000
    2.60385275    -4.19700384    -3.82530785
    2.60385585    -4.19700384    -3.82530594
    2.60385108    -4.19700384    -3.82530475
    2.60385752    -4.19700384    -3.82530999
20MABNDB000126_PR028 0.00000000
    2.60541725    -4.19702005    -5.89348793
    2.60541582    -4.19702005    -5.89348745
    2.60542154    -4.19702005    -5.89348555
    2.60541868    -4.19702005    -5.89348555
20MABNDA000272_PR038 0.00000000
   -2.61138105    -4.19698238    -3.82698441
   -2.61138654    -4.19698238    -3.82698917
   -2.61138606    -4.19698238    -3.82698536
   -2.61138153    -4.19698238    -3.82697773
20MABNDA000003_PR039 0.00000000
   -2.61602449    -4.19702291    -5.89143610
   -2.61601782    -4.19702244    -5.89143658
   -2.61602426    -4.19702291    -5.89143419
   -2.61602426    -4.19702244    -5.89144039
20MABNDA000196_PR006 0.00000000
    2.58510518    -4.19496298     6.54836941
    2.58510423    -4.19496298     6.54836750
    2.58510566    -4.19496298     6.54836893
    2.58510613    -4.19496298     6.54836988
20MABNDA000324_PR007 0.00000000
    2.59433675    -4.13996410     6.94821930
    2.59433579    -4.13996410     6.94821453
    2.59433246    -4.13996410     6.94821692
    2.59433556    -4.13996410     6.94821262
20MABNDB000001_PR017 0.00000000
   -2.59579396    -4.19503069     6.53994989
   -2.59579396    -4.19503069     6.53994989
   -2.59579062    -4.19503069     6.53995132
   -2.59579515    -4.19503069     6.53995275
20MABNDB000260_PR019 0.00000000
   -2.60435057    -4.13995600     6.94274378
   -2.60436010    -4.13995600     6.94273663
   -2.60435963    -4.13995600     6.94273949
   -2.60436559    -4.13995600     6.94274378
20MABNDB000212_PR029 0.00000000
    2.59913015    -4.19500971    -6.54800653
    2.59912920    -4.19500971    -6.54800892
    2.59912825    -4.19500971    -6.54800940
    2.59912729    -4.19500971    -6.54800892
20MABNDB000128_PR030 0.00000000
    2.60955548    -4.14002752    -6.93125725
    2.60954905    -4.14002752    -6.93126011
    2.60954499    -4.14002752    -6.93125916
    2.60955024    -4.14002752    -6.93126154
20MABNDA000444_PR040 0.00000000
   -2.60532188    -4.19509602    -6.54067469
   -2.60531998    -4.19509554    -6.54067516
   -2.60532260    -4.19509602    -6.54067516
   -2.60532331    -4.19509554    -6.54067945
20MABNDA000053_PR041 0.00000000
   -2.59426904    -4.14012337    -6.92700577
   -2.59428024    -4.14012337    -6.92699862
   -2.59427309    -4.14012337    -6.92701149
   -2.59425592    -4.14012337    -6.92700624
20MABNDA000188_PR008 0.00000000
    3.53681302     3.84858370     8.10835648
    3.53601885     3.84876370     8.10035896
    3.53681302     3.84858370     8.10835648
    3.56385684     3.84859729     8.10699272
20MABNDA000188_PR018 0.00000000
    3.52040958    -4.07060719     7.89824533
    3.52041173    -4.07060671     7.89824438
    3.52040839    -4.07060719     7.89824438
    3.52041054    -4.07060671     7.89824295
20MABNDA000039_PR009 0.00000000
    3.87523770     3.64747548    12.93679905
    3.87521219     3.64747548    12.93678188
    3.87522531     3.64747548    12.93680763
    3.87521291     3.64747548    12.93680763
20MABNDA000039_PR011 0.00000000
    3.66434526    -3.92579436    12.88520527
    3.66434383    -3.92579436    12.88519859
    3.66435337    -3.92579436    12.88520336
    3.66435218    -3.92579436    12.88520527
20MABNDB000155_PR020 0.00000000
   -3.68088055     3.84881401     7.89893389
   -3.68089867     3.84881401     7.89898872
   -3.68090653     3.84881401     7.89896250
   -3.68090224     3.84881401     7.89891148
20MABNDB000155_PR022 0.00000000
   -3.53458142    -4.07043076     7.89198494
   -3.53458190    -4.07043076     7.89198685
   -3.53458023    -4.07043076     7.89198685
   -3.53458071    -4.07043076     7.89198875
20MABNDB000010_PR021 0.00000000
   -3.86191249     3.64768338    12.93658257
   -3.86185908     3.64768434    12.93652725
   -3.86190414     3.64768434    12.93655777
   -3.86185908     3.64768434    12.93652439
20MABNDB000010_PR023 0.00000000
   -3.68520975    -3.92559099    12.88652039
   -3.68521380    -3.92559099    12.88652420
   -3.68521738    -3.92559099    12.88652802
   -3.68521309    -3.92559099    12.88652802


*****************************************************************Rapport********************************************************************************** 
CAM-LBC-US_EBC-US-HO-H         2015.11.24.04.58.46     2.83242650    -3.76328678    -6.47925854     0.00000830     0.00000264     0.00000000 0.00000000 VRAI 
CAM-LBC-US_JDC-US-H            2015.11.24.04.58.46     2.83918347    -3.68742437    -6.67493725     0.00000184     0.00000471     0.00000000 0.00000000 VRAI 
CAM-LBC-US_CAM-LBA-US          2015.11.24.04.58.46     2.81473575    -3.75320830     2.69822550     0.00000508     0.00000356     0.00000000 0.00000000 VRAI 
CAM-LBC-US_EBA-US-IP-H         2015.11.24.04.58.46     2.84064307    -3.68430762     3.12405558     0.00000351     0.00000871     0.00000023 0.00000000 VRAI 
CAM-LBC-USA_EBC-USA-HO-H       2015.11.24.04.58.46    -2.84807019    -3.69350100    -6.47909746     0.00000863     0.00000465     0.00000019 0.00000000 VRAI 
CAM-LBC-USA_JDC-USA-H          2015.11.24.04.58.46    -2.82535815    -3.77026205    -6.67505789     0.00000390     0.00000833     0.00000000 0.00000000 VRAI 
CAM-LBC-USA_CAM-LBA-USA        2015.11.24.04.58.46    -2.81458569    -3.74955993     2.68347168     0.00000283     0.00000522     0.00000000 0.00000000 VRAI 
CAM-LBC-USA_EBA-USA-IP-H       2015.11.24.04.58.46    -2.75797038    -3.76420455     3.12369394     0.02059827     0.07368152     0.00044793 0.00000000 VRAI 
CAM-LBA-US_EBA-US-HO-H         2015.11.24.04.58.46     2.83563685    -3.69491663     6.48618889     0.00000676     0.00000159     0.00000000 0.00000000 VRAI 
CAM-LBA-US_JDA-US-H            2015.11.24.04.58.46     2.82039371    -3.73072400     6.67530489     0.00000464     0.00000173     0.00000000 0.00000000 VRAI 
CAM-LBA-US_CAM-LBC-US          2015.11.24.04.58.46     2.83371730    -3.74983988    -2.68950787     0.00000615     0.00000429     0.00000012 0.00000000 VRAI 
CAM-LBA-US_EBC-US-IP-H         2015.11.24.04.58.46     2.85111847    -3.68041687    -3.11695385     0.00000383     0.00000582     0.00000000 0.00000000 VRAI 
CAM-LBA-USA_EBA-USA-HO-H       2015.11.24.04.58.46    -2.86445560    -3.73437009     6.48601913     0.00001243     0.00000523     0.00000000 0.00000000 VRAI 
CAM-LBA-USA_JDA-USA-H          2015.11.24.04.58.46    -2.88381948    -3.67261848     7.43190012     0.00001714     0.00000834     0.00000047 0.00000000 VRAI 
CAM-LBA-USA_CAM-LBC-USA        2015.11.24.04.58.46    -2.77065048    -3.70990863    -2.71065645     0.00438731     0.00280577     0.00005922 0.00000000 VRAI 
CAM-LBA-USA_EBC-USA-IP-H       2015.11.24.04.58.46    -2.79916865    -3.68991518    -3.11713028     0.00000808     0.00000239     0.00000000 0.00000000 VRAI 
CAM-ECTC-US-IP_ECTC-US-IP-T    2015.11.24.04.58.46     3.68857324     3.84860492    -7.85560846     0.00260113     0.00008658     0.02673073 0.00000000 VRAI 
CAM-ECTC-US-IP_ECTC-US-IP      2015.11.24.04.58.46     3.53350937    -4.07046318    -7.87859786     0.00000115     0.00000000     0.00000098 0.00000000 VRAI 
CAM-ECTC-US-HO_ECTC-US-HO-T    2015.11.24.04.58.46     3.86914980     3.64756680   -12.93978596     0.00001446     0.00000041     0.00001435 0.00000000 VRAI 
CAM-ECTC-US-HO_ECTC-US-HO      2015.11.24.04.58.46     3.67383236    -3.92563415   -12.89149141     0.00000228     0.00000000     0.00000347 0.00000000 VRAI 
CAM-ECTC-USA-IP_ECTC-USA-IP-T  2015.11.24.04.58.46    -3.67998499     3.84916806    -7.89586258     0.00004692     0.00000095     0.00000749 0.00000000 VRAI 
CAM-ECTC-USA-IP_ECTC-USA-IP    2015.11.24.04.58.46    -3.53211647    -4.07033682    -7.87422264     0.00000035     0.00000000     0.00000085 0.00000000 VRAI 
CAM-ECTC-USA-HO_ECTC-USA-HO-T  2015.11.24.04.58.46    -3.86857373     3.64758682   -12.93216014     0.00001619     0.00000000     0.00001556 0.00000000 VRAI 
CAM-ECTC-USA-HO_ECTC-USA-HO    2015.11.24.04.58.46    -3.67576134    -3.92564851   -12.88792491     0.00000272     0.00000010     0.00000170 0.00000000 VRAI 
CAM-EBA-US-IP_EBA-US-IP        2015.11.24.04.58.46     2.61475033    -4.19698882     3.83363116     0.00000238     0.00000024     0.00000467 0.00000000 VRAI 
CAM-EBA-US-HO_EBA-US-HO        2015.11.24.04.58.46     2.61685044    -4.19702768     5.89803743     0.00000239     0.00000000     0.00000243 0.00000000 VRAI 
CAM-EBA-USA-IP_EBA-USA-IP      2015.11.24.04.58.46    -2.61107188    -4.19700432     3.83571303     0.00000187     0.00000000     0.00000256 0.00000000 VRAI 
CAM-EBA-USA-HO_EBA-USA-HO      2015.11.24.04.58.46    -2.61273748    -4.19702435     5.89865243     0.00000103     0.00000000     0.00000098 0.00000000 VRAI 
CAM-EBC-US-IP_EBC-US-IP        2015.11.24.04.58.46     2.60385430    -4.19700384    -3.82530713     0.00000253     0.00000000     0.00000199 0.00000000 VRAI 
CAM-EBC-US-HO_EBC-US-HO        2015.11.24.04.58.46     2.60541832    -4.19702005    -5.89348662     0.00000212     0.00000000     0.00000109 0.00000000 VRAI 
CAM-EBC-USA-IP_EBC-USA-IP      2015.11.24.04.58.46    -2.61138380    -4.19698238    -3.82698417     0.00000251     0.00000000     0.00000412 0.00000000 VRAI 
CAM-EBC-USA-HO_EBC-USA-HO      2015.11.24.04.58.46    -2.61602271    -4.19702268    -5.89143682     0.00000282     0.00000024     0.00000225 0.00000000 VRAI 
CAM-JDA-US-IP_JDA-US-IP        2015.11.24.04.58.46     2.58510530    -4.19496298     6.54836893     0.00000071     0.00000000     0.00000089 0.00000000 VRAI 
CAM-JDA-US-HO_JDA-US-HO        2015.11.24.04.58.46     2.59433514    -4.13996410     6.94821584     0.00000161     0.00000000     0.00000251 0.00000000 VRAI 
CAM-JDA-USA-IP_JDA-USA-IP      2015.11.24.04.58.46    -2.59579343    -4.19503069     6.53995097     0.00000169     0.00000000     0.00000119 0.00000000 VRAI 
CAM-JDA-USA-HO_JDA-USA-HO      2015.11.24.04.58.46    -2.60435897    -4.13995600     6.94274092     0.00000539     0.00000000     0.00000303 0.00000000 VRAI 
CAM-JDC-US-IP_JDC-US-IP        2015.11.24.04.58.46     2.59912872    -4.19500971    -6.54800844     0.00000107     0.00000000     0.00000112 0.00000000 VRAI 
CAM-JDC-US-HO_JDC-US-HO        2015.11.24.04.58.46     2.60954994    -4.14002752    -6.93125951     0.00000374     0.00000000     0.00000156 0.00000000 VRAI 
CAM-JDC-USA-IP_JDC-USA-IP      2015.11.24.04.58.46    -2.60532194    -4.19509578    -6.54067612     0.00000124     0.00000024     0.00000194 0.00000000 VRAI 
CAM-JDC-USA-HO_JDC-USA-HO      2015.11.24.04.58.46    -2.59426957    -4.14012337    -6.92700553     0.00000884     0.00000000     0.00000458 0.00000000 VRAI 
CAM-ECTA-US-IP_ECTA-US-IP-T    2015.11.24.04.58.46     3.54337543     3.84863210     8.10601616     0.01182939     0.00007619     0.00331330 0.00000000 VRAI 
CAM-ECTA-US-IP_ECTA-US-IP      2015.11.24.04.58.46     3.52041006    -4.07060695     7.89824426     0.00000123     0.00000024     0.00000085 0.00000000 VRAI 
CAM-ECTA-US-HO_ECTA-US-HO-T    2015.11.24.04.58.46     3.87522203     3.64747548    12.93679905     0.00001044     0.00000000     0.00001051 0.00000000 VRAI 
CAM-ECTA-US-HO_ECTA-US-HO      2015.11.24.04.58.46     3.66434866    -3.92579436    12.88520312     0.00000417     0.00000000     0.00000273 0.00000000 VRAI 
CAM-ECTA-USA-IP_ECTA-USA-IP-T  2015.11.24.04.58.46    -3.68089700     3.84881401     7.89894915     0.00000990     0.00000000     0.00002914 0.00000000 VRAI 
CAM-ECTA-USA-IP_ECTA-USA-IP    2015.11.24.04.58.46    -3.53458107    -4.07043076     7.89198685     0.00000064     0.00000000     0.00000135 0.00000000 VRAI 
CAM-ECTA-USA-HO_ECTA-USA-HO-T  2015.11.24.04.58.46    -3.86188370     3.64768410    12.93654799     0.00002479     0.00000041     0.00002386 0.00000000 VRAI 
CAM-ECTA-USA-HO_ECTA-USA-HO    2015.11.24.04.58.46    -3.68521351    -3.92559099    12.88652515     0.00000271     0.00000000     0.00000316 0.00000000 VRAI 
