********** Fichier qui contient une sauvegarde des coordonnees images + coordonnees images transformees dans le repere BCAM (MOUNT) + coordonnees des prismes dans le repere MOUNT********** 
********************************************************************** Unite en metres (m)************************************************************************************************** 

*******************************************************************coordonnees images dans le repere CCD *********************************************************************************** 
20MABNDB000069_PR031
Spot 1     0.00031790     0.00138987
Spot 2     0.00038619     0.00138608
Spot 1     0.00031880     0.00138974
Spot 2     0.00038720     0.00138592
Spot 1     0.00031803     0.00138946
Spot 2     0.00038702     0.00138641
Spot 1     0.00031827     0.00139013
Spot 2     0.00038604     0.00138623
Spot 1     0.00031858     0.00138972
Spot 2     0.00038585     0.00138646
Spot 1     0.00031827     0.00139032
Spot 2     0.00038663     0.00138637
Spot 1     0.00031830     0.00139038
Spot 2     0.00038620     0.00138693
20MABNDB000069_PR033
Spot 1     0.00189550     0.00187062
Spot 2     0.00236609     0.00189121
Spot 1     0.00189550     0.00187050
Spot 2     0.00236615     0.00189127
Spot 1     0.00189553     0.00187058
Spot 2     0.00236621     0.00189133
Spot 1     0.00189556     0.00187056
Spot 2     0.00236614     0.00189127
Spot 1     0.00189555     0.00187063
Spot 2     0.00236617     0.00189146
Spot 1     0.00189539     0.00187058
Spot 2     0.00236624     0.00189130
Spot 1     0.00189551     0.00187063
Spot 2     0.00236613     0.00189133
20MABNDB000131_PR032
Spot 1     0.00278014     0.00110404
Spot 2     0.00284104     0.00110693
Spot 1     0.00278005     0.00110410
Spot 2     0.00284087     0.00110697
Spot 1     0.00278020     0.00110434
Spot 2     0.00284108     0.00110739
Spot 1     0.00278021     0.00110418
Spot 2     0.00284087     0.00110719
Spot 1     0.00277992     0.00110437
Spot 2     0.00284103     0.00110733
Spot 1     0.00278000     0.00110413
Spot 2     0.00284081     0.00110718
Spot 1     0.00278000     0.00110422
Spot 2     0.00284088     0.00110731
20MABNDB000131_PR034
Spot 1     0.00093523     0.00040208
Spot 2     0.00111178     0.00040218
Spot 1     0.00093533     0.00040193
Spot 2     0.00111192     0.00040195
Spot 1     0.00093540     0.00040216
Spot 2     0.00111202     0.00040210
Spot 1     0.00093543     0.00040207
Spot 2     0.00111184     0.00040200
Spot 1     0.00093546     0.00040219
Spot 2     0.00111176     0.00040213
Spot 1     0.00093530     0.00040199
Spot 2     0.00111174     0.00040188
Spot 1     0.00093530     0.00040198
Spot 2     0.00111186     0.00040207
20MABNDA000208_PR042
Spot 1     0.00299222     0.00092295
Spot 2     0.00291940     0.00092430
Spot 1     0.00299249     0.00092331
Spot 2     0.00291943     0.00092461
Spot 1     0.00299211     0.00092324
Spot 2     0.00291979     0.00092440
Spot 1     0.00299260     0.00092293
Spot 2     0.00292028     0.00092462
Spot 1     0.00299281     0.00092314
Spot 2     0.00291984     0.00092452
Spot 1     0.00299222     0.00092310
Spot 2     0.00291963     0.00092432
Spot 1     0.00299210     0.00092306
Spot 2     0.00291981     0.00092434
20MABNDA000208_PR046
Spot 1     0.00130675     0.00197941
Spot 2     0.00083616     0.00198249
Spot 1     0.00130677     0.00197954
Spot 2     0.00083635     0.00198279
Spot 1     0.00130687     0.00197971
Spot 2     0.00083619     0.00198276
Spot 1     0.00130686     0.00197940
Spot 2     0.00083618     0.00198269
Spot 1     0.00130686     0.00197955
Spot 2     0.00083612     0.00198272
Spot 1     0.00130678     0.00197963
Spot 2     0.00083628     0.00198279
Spot 1     0.00130678     0.00197953
Spot 2     0.00083639     0.00198274
20MABNDA000035_PR044
Spot 1     0.00074242     0.00128304
Spot 2     0.00068460     0.00127812
Spot 1     0.00074223     0.00128308
Spot 2     0.00068469     0.00127821
Spot 1     0.00074281     0.00128301
Spot 2     0.00068475     0.00127832
Spot 1     0.00074250     0.00128306
Spot 2     0.00068458     0.00127833
Spot 1     0.00074210     0.00128309
Spot 2     0.00068429     0.00127825
Spot 1     0.00074252     0.00128314
Spot 2     0.00068480     0.00127824
20MABNDA000035_PR045
Spot 1     0.00255238     0.00055418
Spot 2     0.00237534     0.00055237
Spot 1     0.00255237     0.00055409
Spot 2     0.00237545     0.00055258
Spot 1     0.00255243     0.00055410
Spot 2     0.00237548     0.00055257
Spot 1     0.00255226     0.00055410
Spot 2     0.00237550     0.00055242
Spot 1     0.00255238     0.00055408
Spot 2     0.00237540     0.00055249
Spot 1     0.00255249     0.00055413
Spot 2     0.00237546     0.00055256
20MABNDL000077_PR002
Spot 1     0.00079141     0.00149768
Spot 2     0.00095460     0.00149510
Spot 1     0.00079135     0.00149807
Spot 2     0.00095464     0.00149545
Spot 1     0.00079127     0.00149786
Spot 2     0.00095442     0.00149510
Spot 1     0.00079136     0.00149752
Spot 2     0.00095454     0.00149537
Spot 1     0.00079133     0.00149837
Spot 2     0.00095467     0.00149573
Spot 1     0.00079136     0.00149780
Spot 2     0.00095455     0.00149527
20MABNDL000077_PR003
Spot 1     0.00152266     0.00119014
Spot 2     0.00167344     0.00119162
Spot 1     0.00152264     0.00119010
Spot 2     0.00167341     0.00119146
Spot 1     0.00152266     0.00118937
Spot 2     0.00167348     0.00119161
Spot 1     0.00152280     0.00118999
Spot 2     0.00167340     0.00119141
Spot 1     0.00152263     0.00119029
Spot 2     0.00167350     0.00119150
Spot 1     0.00152267     0.00119014
Spot 2     0.00167338     0.00119146
20MABNDL000077_20MABNDM000168
Spot 1     0.00188288     0.00148824
Spot 2    -0.00000100    -0.00000100
Spot 1     0.00188275     0.00148830
Spot 2    -0.00000100    -0.00000100
Spot 1     0.00188271     0.00148829
Spot 2    -0.00000100    -0.00000100
Spot 1     0.00188282     0.00148833
Spot 2    -0.00000100    -0.00000100
Spot 1     0.00188284     0.00148826
Spot 2    -0.00000100    -0.00000100
Spot 1     0.00188273     0.00148827
Spot 2    -0.00000100    -0.00000100
20MABNDL000077_PR024
Spot 1     0.00272811     0.00172189
Spot 2    -0.00000100    -0.00000100
Spot 1     0.00272810     0.00172197
Spot 2    -0.00000100    -0.00000100
Spot 1     0.00272823     0.00172199
Spot 2    -0.00000100    -0.00000100
Spot 1     0.00272817     0.00172198
Spot 2    -0.00000100    -0.00000100
Spot 1     0.00272824     0.00172197
Spot 2    -0.00000100    -0.00000100
Spot 1     0.00272824     0.00172198
Spot 2    -0.00000100    -0.00000100
20MABNDM000020_PR013
Spot 1     0.00164616     0.00214004
Spot 2     0.00149384     0.00214906
Spot 1     0.00164614     0.00214009
Spot 2     0.00149364     0.00214827
Spot 1     0.00164613     0.00214036
Spot 2     0.00149348     0.00214936
Spot 1     0.00164600     0.00214004
Spot 2     0.00149357     0.00214858
Spot 1     0.00164654     0.00214039
Spot 2     0.00149351     0.00214961
Spot 1     0.00164560     0.00213988
Spot 2     0.00149310     0.00214900
20MABNDM000020_PR014
Spot 1     0.00268275     0.00228076
Spot 2     0.00251997     0.00228797
Spot 1     0.00268275     0.00228063
Spot 2     0.00252036     0.00228754
Spot 1     0.00268263     0.00228060
Spot 2     0.00252019     0.00228766
Spot 1     0.00268237     0.00228011
Spot 2     0.00252021     0.00228737
Spot 1     0.00268259     0.00228076
Spot 2     0.00252009     0.00228775
Spot 1     0.00268274     0.00228036
Spot 2     0.00252022     0.00228781
20MABNDM000020_20MABNDL000196
Spot 1     0.00200313     0.00057699
Spot 2     0.00112500     0.00001500
Spot 1     0.00200334     0.00057701
Spot 2     0.00112500     0.00001500
Spot 1     0.00200321     0.00057690
Spot 2     0.00112500     0.00001500
Spot 1     0.00200334     0.00057690
Spot 2     0.00112500     0.00001500
Spot 1     0.00200321     0.00057702
Spot 2     0.00112500     0.00001500
Spot 1     0.00200320     0.00057687
Spot 2     0.00112500     0.00001500
20MABNDM000020_PR035
Spot 1     0.00126571     0.00087463
Spot 2     0.00119967     0.00105950
Spot 1     0.00126578     0.00087449
Spot 2     0.00119979     0.00105959
Spot 1     0.00126571     0.00087459
Spot 2     0.00119971     0.00105911
Spot 1     0.00126573     0.00087442
Spot 2     0.00119977     0.00105860
Spot 1     0.00126585     0.00087420
Spot 2     0.00119985     0.00105690
Spot 1     0.00126579     0.00087417
Spot 2     0.00119978     0.00105694
20MABNDM000168_PR025
Spot 1     0.00102487     0.00130458
Spot 2     0.00117826     0.00130391
Spot 1     0.00102481     0.00130452
Spot 2     0.00117822     0.00130394
Spot 1     0.00102485     0.00130455
Spot 2     0.00117818     0.00130407
Spot 1     0.00102483     0.00130455
Spot 2     0.00117826     0.00130401
Spot 1     0.00102493     0.00130457
Spot 2     0.00117812     0.00130402
Spot 1     0.00102479     0.00130451
Spot 2     0.00117817     0.00130403
20MABNDM000168_PR026
Spot 1     0.00251066     0.00142278
Spot 2     0.00267228     0.00142601
Spot 1     0.00251067     0.00142261
Spot 2     0.00267217     0.00142613
Spot 1     0.00251059     0.00142254
Spot 2     0.00267208     0.00142624
Spot 1     0.00251053     0.00142274
Spot 2     0.00267210     0.00142613
Spot 1     0.00251069     0.00142260
Spot 2     0.00267202     0.00142610
Spot 1     0.00251065     0.00142268
Spot 2     0.00267212     0.00142600
20MABNDM000168_20MABNDL000077
Spot 1     0.00153862     0.00129613
Spot 2    -0.00000100    -0.00000100
Spot 1     0.00153865     0.00129618
Spot 2    -0.00000100    -0.00000100
Spot 1     0.00153854     0.00129611
Spot 2    -0.00000100    -0.00000100
Spot 1     0.00153862     0.00129613
Spot 2    -0.00000100    -0.00000100
Spot 1     0.00153850     0.00129619
Spot 2    -0.00000100    -0.00000100
Spot 1     0.00153852     0.00129621
Spot 2    -0.00000100    -0.00000100
20MABNDM000168_PR001
Spot 1     0.00070522     0.00162289
Spot 2     0.00080833     0.00161833
Spot 1     0.00070513     0.00162297
Spot 2     0.00080500     0.00162500
Spot 1     0.00070526     0.00162278
Spot 2     0.00080500     0.00162000
Spot 1     0.00070525     0.00162287
Spot 2     0.00080500     0.00162500
Spot 1     0.00070517     0.00162286
Spot 2     0.00080500     0.00162500
Spot 1     0.00070513     0.00162289
Spot 2     0.00080500     0.00162500
20MABNDL000196_PR036
Spot 1     0.00112073     0.00164475
Spot 2     0.00095605     0.00164640
Spot 1     0.00112079     0.00164483
Spot 2     0.00095567     0.00164617
Spot 1     0.00112062     0.00164500
Spot 2     0.00095638     0.00164672
Spot 1     0.00112070     0.00164492
Spot 2     0.00095623     0.00164623
Spot 1     0.00112086     0.00164480
Spot 2     0.00095600     0.00164600
Spot 1     0.00112077     0.00164484
Spot 2     0.00095597     0.00164677
20MABNDL000196_PR037
Spot 1     0.00263496     0.00117236
Spot 2     0.00247995     0.00117374
Spot 1     0.00263519     0.00117250
Spot 2     0.00248005     0.00117362
Spot 1     0.00263500     0.00117253
Spot 2     0.00247987     0.00117385
Spot 1     0.00263504     0.00117239
Spot 2     0.00248005     0.00117383
Spot 1     0.00263496     0.00117233
Spot 2     0.00247991     0.00117391
Spot 1     0.00263523     0.00117253
Spot 2     0.00248005     0.00117374
20MABNDL000196_20MABNDM000020
Spot 1     0.00172878     0.00102963
Spot 2     0.00195088     0.00102996
Spot 1     0.00172873     0.00102965
Spot 2     0.00195083     0.00102991
Spot 1     0.00172876     0.00102969
Spot 2     0.00195083     0.00102996
Spot 1     0.00172878     0.00102978
Spot 2     0.00195092     0.00103005
Spot 1     0.00172875     0.00102968
Spot 2     0.00195085     0.00103005
Spot 1     0.00172885     0.00102971
Spot 2     0.00195084     0.00103015
20MABNDL000196_PR012
Spot 1     0.00309528     0.00005972
Spot 2     0.00294250     0.00005792
Spot 1     0.00320981     0.00012004
Spot 2     0.00335595     0.00005024
Spot 1     0.00104357     0.00002643
Spot 2     0.00310500     0.00001900
Spot 1     0.00149500     0.00003071
Spot 2     0.00105300     0.00002700
Spot 1     0.00227100     0.00002700
Spot 2     0.00312100     0.00002300
Spot 1     0.00106227     0.00003682
Spot 2     0.00116500     0.00002500
20MABNDA000318_PR004
Spot 1     0.00214963     0.00162753
Spot 2     0.00193127     0.00162814
Spot 1     0.00214944     0.00162779
Spot 2     0.00193115     0.00162799
Spot 1     0.00214956     0.00162757
Spot 2     0.00193107     0.00162809
Spot 1     0.00214943     0.00162754
Spot 2     0.00193117     0.00162795
Spot 1     0.00214946     0.00162749
Spot 2     0.00193116     0.00162806
Spot 1     0.00214947     0.00162749
Spot 2     0.00193109     0.00162810
20MABNDA000334_PR005
Spot 1     0.00247812     0.00157310
Spot 2     0.00219757     0.00157343
Spot 1     0.00247799     0.00157301
Spot 2     0.00219754     0.00157337
Spot 1     0.00247821     0.00157311
Spot 2     0.00219771     0.00157361
Spot 1     0.00247800     0.00157306
Spot 2     0.00219782     0.00157333
Spot 1     0.00247778     0.00157312
Spot 2     0.00219742     0.00157345
Spot 1     0.00247814     0.00157312
Spot 2     0.00219752     0.00157338
20MABNDB000317_PR015
Spot 1     0.00171475     0.00160385
Spot 2     0.00149555     0.00161086
Spot 1     0.00171494     0.00160406
Spot 2     0.00149534     0.00161105
Spot 1     0.00171498     0.00160409
Spot 2     0.00149532     0.00161089
Spot 1     0.00171484     0.00160420
Spot 2     0.00149535     0.00161107
Spot 1     0.00171500     0.00160409
Spot 2     0.00149548     0.00161083
Spot 1     0.00171492     0.00160405
Spot 2     0.00149541     0.00161094
20MABNDB000146_PR016
Spot 1     0.00145070     0.00133299
Spot 2     0.00172629     0.00133482
Spot 1     0.00145077     0.00133310
Spot 2     0.00172636     0.00133494
Spot 1     0.00145075     0.00133299
Spot 2     0.00172644     0.00133471
Spot 1     0.00145074     0.00133299
Spot 2     0.00172659     0.00133474
Spot 1     0.00145062     0.00133311
Spot 2     0.00172647     0.00133494
Spot 1     0.00145085     0.00133306
Spot 2     0.00172655     0.00133500
20MABNDB000135_PR027
Spot 1     0.00189158     0.00092445
Spot 2     0.00211023     0.00092721
Spot 1     0.00189149     0.00092452
Spot 2     0.00211025     0.00092722
Spot 1     0.00189157     0.00092442
Spot 2     0.00211034     0.00092728
Spot 1     0.00189148     0.00092431
Spot 2     0.00211027     0.00092746
Spot 1     0.00189154     0.00092452
Spot 2     0.00211014     0.00092748
Spot 1     0.00189154     0.00092445
Spot 2     0.00211021     0.00092740
20MABNDB000126_PR028
Spot 1     0.00165135     0.00200432
Spot 2     0.00193391     0.00200630
Spot 1     0.00165144     0.00200429
Spot 2     0.00193388     0.00200641
Spot 1     0.00165133     0.00200436
Spot 2     0.00193398     0.00200642
Spot 1     0.00165134     0.00200432
Spot 2     0.00193382     0.00200641
Spot 1     0.00165135     0.00200436
Spot 2     0.00193382     0.00200639
Spot 1     0.00165138     0.00200428
Spot 2     0.00193360     0.00200633
20MABNDA000272_PR038
Spot 1     0.00192210     0.00097296
Spot 2     0.00169953     0.00097149
Spot 1     0.00192195     0.00097302
Spot 2     0.00169957     0.00097136
Spot 1     0.00192217     0.00097295
Spot 2     0.00169986     0.00097151
Spot 1     0.00192206     0.00097320
Spot 2     0.00169968     0.00097135
Spot 1     0.00192214     0.00097324
Spot 2     0.00169948     0.00097169
Spot 1     0.00192215     0.00097310
Spot 2     0.00169944     0.00097167
20MABNDA000003_PR039
Spot 1     0.00200721     0.00193185
Spot 2     0.00228426     0.00193138
Spot 1     0.00200723     0.00193189
Spot 2     0.00228419     0.00193130
Spot 1     0.00200726     0.00193187
Spot 2     0.00228420     0.00193133
Spot 1     0.00200721     0.00193200
Spot 2     0.00228419     0.00193137
Spot 1     0.00200726     0.00193192
Spot 2     0.00228409     0.00193141
Spot 1     0.00200719     0.00193190
Spot 2     0.00228417     0.00193141
20MABNDA000196_PR006
Spot 1     0.00197846     0.00075116
Spot 2     0.00160936     0.00074789
Spot 1     0.00197849     0.00075120
Spot 2     0.00160949     0.00074796
Spot 1     0.00197841     0.00075124
Spot 2     0.00160929     0.00074805
Spot 1     0.00197836     0.00075116
Spot 2     0.00160943     0.00074795
Spot 1     0.00197858     0.00075125
Spot 2     0.00160923     0.00074817
Spot 1     0.00197846     0.00075119
Spot 2     0.00160935     0.00074801
20MABNDA000324_PR007
Spot 1     0.00195236     0.00121379
Spot 2     0.00174654     0.00121962
Spot 1     0.00195258     0.00121383
Spot 2     0.00174650     0.00121954
Spot 1     0.00195245     0.00121381
Spot 2     0.00174631     0.00121945
Spot 1     0.00195244     0.00121388
Spot 2     0.00174643     0.00121950
Spot 1     0.00195242     0.00121398
Spot 2     0.00174650     0.00121946
Spot 1     0.00195250     0.00121384
Spot 2     0.00174646     0.00121953
20MABNDB000001_PR017
Spot 1     0.00187739     0.00047570
Spot 2     0.00224664     0.00048484
Spot 1     0.00187739     0.00047563
Spot 2     0.00224694     0.00048472
Spot 1     0.00187749     0.00047567
Spot 2     0.00224694     0.00048491
Spot 1     0.00187740     0.00047574
Spot 2     0.00224683     0.00048483
Spot 1     0.00187742     0.00047575
Spot 2     0.00224669     0.00048492
Spot 1     0.00187751     0.00047579
Spot 2     0.00224682     0.00048500
20MABNDB000260_PR019
Spot 1     0.00192702     0.00149629
Spot 2     0.00213113     0.00149548
Spot 1     0.00192716     0.00149651
Spot 2     0.00213076     0.00149585
Spot 1     0.00192714     0.00149609
Spot 2     0.00213123     0.00149533
Spot 1     0.00192709     0.00149653
Spot 2     0.00213057     0.00149566
Spot 1     0.00192682     0.00149613
Spot 2     0.00213113     0.00149548
Spot 1     0.00192719     0.00149632
Spot 2     0.00213076     0.00149551
20MABNDB000212_PR029
Spot 1     0.00223727     0.00072673
Spot 2     0.00186944     0.00072739
Spot 1     0.00223707     0.00072669
Spot 2     0.00186964     0.00072700
Spot 1     0.00223723     0.00072649
Spot 2     0.00186952     0.00072726
Spot 1     0.00223707     0.00072670
Spot 2     0.00186932     0.00072695
Spot 1     0.00223713     0.00072662
Spot 2     0.00186949     0.00072695
Spot 1     0.00223715     0.00072663
Spot 2     0.00186956     0.00072711
20MABNDB000128_PR030
Spot 1     0.00190413     0.00200790
Spot 2     0.00210836     0.00200207
Spot 1     0.00190425     0.00200813
Spot 2     0.00210839     0.00200217
Spot 1     0.00190424     0.00200789
Spot 2     0.00210828     0.00200199
Spot 1     0.00190398     0.00200802
Spot 2     0.00210826     0.00200213
Spot 1     0.00190415     0.00200796
Spot 2     0.00210827     0.00200211
Spot 1     0.00190408     0.00200813
Spot 2     0.00210811     0.00200216
20MABNDA000444_PR040
Spot 1     0.00074811     0.00038205
Spot 2     0.00111512     0.00037809
Spot 1     0.00074824     0.00038204
Spot 2     0.00111513     0.00037760
Spot 1     0.00074835     0.00038205
Spot 2     0.00111521     0.00037830
Spot 1     0.00074833     0.00038220
Spot 2     0.00111500     0.00037805
Spot 1     0.00074803     0.00038223
Spot 2     0.00111524     0.00037806
Spot 1     0.00074820     0.00038216
Spot 2     0.00111553     0.00037816
20MABNDA000053_PR041
Spot 1     0.00165890     0.00199033
Spot 2     0.00145456     0.00198709
Spot 1     0.00165883     0.00199026
Spot 2     0.00145459     0.00198693
Spot 1     0.00165895     0.00199039
Spot 2     0.00145448     0.00198691
Spot 1     0.00165885     0.00199016
Spot 2     0.00145492     0.00198701
Spot 1     0.00165894     0.00199041
Spot 2     0.00145469     0.00198709
Spot 1     0.00165898     0.00199046
Spot 2     0.00145460     0.00198723
20MABNDA000188_PR008
Spot 1     0.00313500     0.00066500
Spot 2     0.00283500     0.00012500
Spot 1     0.00313500     0.00066500
Spot 2     0.00329750     0.00125250
Spot 1     0.00283500     0.00012500
Spot 2     0.00283500     0.00012500
Spot 1     0.00283500     0.00012500
Spot 2     0.00283500     0.00012500
Spot 1     0.00283500     0.00012500
Spot 2     0.00283500     0.00012500
Spot 1     0.00278500     0.00023500
Spot 2     0.00283500     0.00012500
20MABNDA000188_PR018
Spot 1     0.00155759     0.00150185
Spot 2     0.00109026     0.00149860
Spot 1     0.00155767     0.00150213
Spot 2     0.00109025     0.00149870
Spot 1     0.00155752     0.00150188
Spot 2     0.00109014     0.00149861
Spot 1     0.00155770     0.00150210
Spot 2     0.00109038     0.00149875
Spot 1     0.00155757     0.00150188
Spot 2     0.00109023     0.00149875
Spot 1     0.00155753     0.00150204
Spot 2     0.00109026     0.00149867
20MABNDA000039_PR009
Spot 1     0.00066090     0.00120967
Spot 2     0.00061197     0.00121374
Spot 1     0.00066051     0.00120934
Spot 2     0.00061235     0.00121370
Spot 1     0.00066108     0.00120970
Spot 2     0.00061202     0.00121378
Spot 1     0.00066039     0.00120927
Spot 2     0.00061225     0.00121370
Spot 1     0.00066025     0.00120967
Spot 2     0.00061221     0.00121367
Spot 1     0.00066095     0.00120945
Spot 2     0.00061232     0.00121370
20MABNDA000039_PR011
Spot 1     0.00275969     0.00037389
Spot 2     0.00258423     0.00036841
Spot 1     0.00275981     0.00037375
Spot 2     0.00258438     0.00036841
Spot 1     0.00275969     0.00037394
Spot 2     0.00258419     0.00036845
Spot 1     0.00275987     0.00037399
Spot 2     0.00258430     0.00036847
Spot 1     0.00275989     0.00037395
Spot 2     0.00258425     0.00036861
Spot 1     0.00275980     0.00037389
Spot 2     0.00258436     0.00036849
20MABNDB000155_PR020
Spot 1     0.00067000     0.00108741
Spot 2     0.00073672     0.00108259
Spot 1     0.00067019     0.00108783
Spot 2     0.00073722     0.00108210
Spot 1     0.00067056     0.00108719
Spot 2     0.00073703     0.00108257
Spot 1     0.00066978     0.00108753
Spot 2     0.00073711     0.00108252
Spot 1     0.00067037     0.00108718
Spot 2     0.00073658     0.00108273
Spot 1     0.00067000     0.00108741
Spot 2     0.00073687     0.00108268
20MABNDB000155_PR022
Spot 1     0.00220920     0.00110273
Spot 2     0.00268228     0.00109846
Spot 1     0.00220911     0.00110293
Spot 2     0.00268235     0.00109851
Spot 1     0.00220932     0.00110288
Spot 2     0.00268224     0.00109850
Spot 1     0.00220916     0.00110265
Spot 2     0.00268233     0.00109846
Spot 1     0.00220929     0.00110275
Spot 2     0.00268231     0.00109839
Spot 1     0.00220926     0.00110275
Spot 2     0.00268231     0.00109863
20MABNDB000010_PR021
Spot 1     0.00286554     0.00119091
Spot 2     0.00292098     0.00119434
Spot 1     0.00286538     0.00119108
Spot 2     0.00292111     0.00119455
Spot 1     0.00286492     0.00119065
Spot 2     0.00292125     0.00119413
Spot 1     0.00286562     0.00119096
Spot 2     0.00292142     0.00119375
Spot 1     0.00286542     0.00119066
Spot 2     0.00292128     0.00119412
Spot 1     0.00286556     0.00119062
Spot 2     0.00292142     0.00119382
20MABNDB000010_PR023
Spot 1     0.00130746     0.00042304
Spot 2     0.00148242     0.00042132
Spot 1     0.00130757     0.00042307
Spot 2     0.00148263     0.00042131
Spot 1     0.00130748     0.00042345
Spot 2     0.00148248     0.00042140
Spot 1     0.00130737     0.00042314
Spot 2     0.00148239     0.00042123
Spot 1     0.00130752     0.00042297
Spot 2     0.00148253     0.00042125
Spot 1     0.00130733     0.00042309
Spot 2     0.00148248     0.00042120


****************************************************************coordonnees images transformees dans le repere MOUNT************************************************************************* 
20MABNDB000069_PR031
Spot 1    -0.01355901    -0.01287918    -0.07388500
Spot 2    -0.01349093    -0.01288578    -0.07388500
Spot 1    -0.01355811    -0.01287934    -0.07388500
Spot 2    -0.01348993    -0.01288598    -0.07388500
Spot 1    -0.01355889    -0.01287959    -0.07388500
Spot 2    -0.01349009    -0.01288549    -0.07388500
Spot 1    -0.01355863    -0.01287893    -0.07388500
Spot 2    -0.01349108    -0.01288562    -0.07388500
Spot 1    -0.01355833    -0.01287935    -0.07388500
Spot 2    -0.01349126    -0.01288539    -0.07388500
Spot 1    -0.01355862    -0.01287874    -0.07388500
Spot 2    -0.01349048    -0.01288551    -0.07388500
Spot 1    -0.01355859    -0.01287868    -0.07388500
Spot 2    -0.01349089    -0.01288493    -0.07388500
20MABNDB000069_PR033
Spot 1    -0.01196291    -0.01246394    -0.07388500
Spot 2    -0.01149187    -0.01246279    -0.07388500
Spot 1    -0.01196292    -0.01246406    -0.07388500
Spot 2    -0.01149181    -0.01246273    -0.07388500
Spot 1    -0.01196288    -0.01246398    -0.07388500
Spot 2    -0.01149175    -0.01246267    -0.07388500
Spot 1    -0.01196285    -0.01246400    -0.07388500
Spot 2    -0.01149182    -0.01246273    -0.07388500
Spot 1    -0.01196286    -0.01246393    -0.07388500
Spot 2    -0.01149178    -0.01246254    -0.07388500
Spot 1    -0.01196302    -0.01246397    -0.07388500
Spot 2    -0.01149172    -0.01246270    -0.07388500
Spot 1    -0.01196290    -0.01246393    -0.07388500
Spot 2    -0.01149183    -0.01246267    -0.07388500
20MABNDB000131_PR032
Spot 1    -0.01144014    -0.01301070    -0.07533000
Spot 2    -0.01137926    -0.01300750    -0.07533000
Spot 1    -0.01144023    -0.01301064    -0.07533000
Spot 2    -0.01137943    -0.01300746    -0.07533000
Spot 1    -0.01144008    -0.01301040    -0.07533000
Spot 2    -0.01137922    -0.01300704    -0.07533000
Spot 1    -0.01144007    -0.01301056    -0.07533000
Spot 2    -0.01137943    -0.01300724    -0.07533000
Spot 1    -0.01144036    -0.01301037    -0.07533000
Spot 2    -0.01137927    -0.01300710    -0.07533000
Spot 1    -0.01144028    -0.01301061    -0.07533000
Spot 2    -0.01137949    -0.01300725    -0.07533000
Spot 1    -0.01144028    -0.01301052    -0.07533000
Spot 2    -0.01137942    -0.01300712    -0.07533000
20MABNDB000131_PR034
Spot 1    -0.01328149    -0.01372194    -0.07533000
Spot 2    -0.01310495    -0.01372095    -0.07533000
Spot 1    -0.01328139    -0.01372209    -0.07533000
Spot 2    -0.01310481    -0.01372118    -0.07533000
Spot 1    -0.01328133    -0.01372186    -0.07533000
Spot 2    -0.01310471    -0.01372103    -0.07533000
Spot 1    -0.01328129    -0.01372195    -0.07533000
Spot 2    -0.01310489    -0.01372113    -0.07533000
Spot 1    -0.01328127    -0.01372183    -0.07533000
Spot 2    -0.01310497    -0.01372100    -0.07533000
Spot 1    -0.01328142    -0.01372203    -0.07533000
Spot 2    -0.01310499    -0.01372125    -0.07533000
Spot 1    -0.01328142    -0.01372204    -0.07533000
Spot 2    -0.01310487    -0.01372106    -0.07533000
20MABNDA000208_PR042
Spot 1    -0.01386297     0.01307313    -0.07273700
Spot 2    -0.01379014     0.01307184    -0.07273700
Spot 1    -0.01386324     0.01307277    -0.07273700
Spot 2    -0.01379017     0.01307153    -0.07273700
Spot 1    -0.01386286     0.01307284    -0.07273700
Spot 2    -0.01379053     0.01307174    -0.07273700
Spot 1    -0.01386335     0.01307315    -0.07273700
Spot 2    -0.01379102     0.01307152    -0.07273700
Spot 1    -0.01386356     0.01307294    -0.07273700
Spot 2    -0.01379058     0.01307162    -0.07273700
Spot 1    -0.01386297     0.01307298    -0.07273700
Spot 2    -0.01379037     0.01307182    -0.07273700
Spot 1    -0.01386285     0.01307302    -0.07273700
Spot 2    -0.01379055     0.01307180    -0.07273700
20MABNDA000208_PR046
Spot 1    -0.01217657     0.01201815    -0.07273700
Spot 2    -0.01170598     0.01201548    -0.07273700
Spot 1    -0.01217659     0.01201802    -0.07273700
Spot 2    -0.01170617     0.01201518    -0.07273700
Spot 1    -0.01217669     0.01201785    -0.07273700
Spot 2    -0.01170601     0.01201521    -0.07273700
Spot 1    -0.01217668     0.01201816    -0.07273700
Spot 2    -0.01170600     0.01201528    -0.07273700
Spot 1    -0.01217668     0.01201801    -0.07273700
Spot 2    -0.01170594     0.01201525    -0.07273700
Spot 1    -0.01217660     0.01201793    -0.07273700
Spot 2    -0.01170610     0.01201518    -0.07273700
Spot 1    -0.01217660     0.01201803    -0.07273700
Spot 2    -0.01170621     0.01201523    -0.07273700
20MABNDA000035_PR044
Spot 1    -0.01157725     0.01297424    -0.07483200
Spot 2    -0.01151940     0.01297875    -0.07483200
Spot 1    -0.01157706     0.01297420    -0.07483200
Spot 2    -0.01151949     0.01297866    -0.07483200
Spot 1    -0.01157764     0.01297427    -0.07483200
Spot 2    -0.01151955     0.01297855    -0.07483200
Spot 1    -0.01157733     0.01297422    -0.07483200
Spot 2    -0.01151938     0.01297854    -0.07483200
Spot 1    -0.01157693     0.01297418    -0.07483200
Spot 2    -0.01151909     0.01297861    -0.07483200
Spot 1    -0.01157735     0.01297414    -0.07483200
Spot 2    -0.01151960     0.01297863    -0.07483200
20MABNDA000035_PR045
Spot 1    -0.01338198     0.01371595    -0.07483200
Spot 2    -0.01320493     0.01371650    -0.07483200
Spot 1    -0.01338197     0.01371604    -0.07483200
Spot 2    -0.01320505     0.01371630    -0.07483200
Spot 1    -0.01338203     0.01371603    -0.07483200
Spot 2    -0.01320508     0.01371631    -0.07483200
Spot 1    -0.01338186     0.01371603    -0.07483200
Spot 2    -0.01320509     0.01371646    -0.07483200
Spot 1    -0.01338198     0.01371605    -0.07483200
Spot 2    -0.01320499     0.01371638    -0.07483200
Spot 1    -0.01338209     0.01371600    -0.07483200
Spot 2    -0.01320506     0.01371632    -0.07483200
20MABNDL000077_PR002
Spot 1     0.01186171     0.03557318    -0.07463200
Spot 2     0.01202487     0.03556903    -0.07463200
Spot 1     0.01186166     0.03557357    -0.07463200
Spot 2     0.01202491     0.03556938    -0.07463200
Spot 1     0.01186157     0.03557336    -0.07463200
Spot 2     0.01202469     0.03556903    -0.07463200
Spot 1     0.01186166     0.03557302    -0.07463200
Spot 2     0.01202481     0.03556930    -0.07463200
Spot 1     0.01186164     0.03557387    -0.07463200
Spot 2     0.01202495     0.03556966    -0.07463200
Spot 1     0.01186166     0.03557330    -0.07463200
Spot 2     0.01202482     0.03556920    -0.07463200
20MABNDL000077_PR003
Spot 1     0.01258997     0.03525862    -0.07463200
Spot 2     0.01274076     0.03525865    -0.07463200
Spot 1     0.01258995     0.03525858    -0.07463200
Spot 2     0.01274072     0.03525849    -0.07463200
Spot 1     0.01258996     0.03525785    -0.07463200
Spot 2     0.01274080     0.03525864    -0.07463200
Spot 1     0.01259011     0.03525847    -0.07463200
Spot 2     0.01274071     0.03525844    -0.07463200
Spot 1     0.01258994     0.03525877    -0.07463200
Spot 2     0.01274081     0.03525853    -0.07463200
Spot 1     0.01258998     0.03525862    -0.07463200
Spot 2     0.01274069     0.03525849    -0.07463200
20MABNDL000077_20MABNDM000168
Spot 1    -0.01272113     0.03554992    -0.00695400
Spot 2    -0.01082210     0.03408004    -0.00695400
Spot 1    -0.01272100     0.03554998    -0.00695400
Spot 2    -0.01082210     0.03408004    -0.00695400
Spot 1    -0.01272096     0.03554997    -0.00695400
Spot 2    -0.01082210     0.03408004    -0.00695400
Spot 1    -0.01272107     0.03555001    -0.00695400
Spot 2    -0.01082210     0.03408004    -0.00695400
Spot 1    -0.01272109     0.03554994    -0.00695400
Spot 2    -0.01082210     0.03408004    -0.00695400
Spot 1    -0.01272098     0.03554995    -0.00695400
Spot 2    -0.01082210     0.03408004    -0.00695400
20MABNDL000077_PR024
Spot 1    -0.01356871     0.03577491    -0.00695400
Spot 2    -0.01082210     0.03408004    -0.00695400
Spot 1    -0.01356870     0.03577499    -0.00695400
Spot 2    -0.01082210     0.03408004    -0.00695400
Spot 1    -0.01356883     0.03577501    -0.00695400
Spot 2    -0.01082210     0.03408004    -0.00695400
Spot 1    -0.01356877     0.03577500    -0.00695400
Spot 2    -0.01082210     0.03408004    -0.00695400
Spot 1    -0.01356884     0.03577499    -0.00695400
Spot 2    -0.01082210     0.03408004    -0.00695400
Spot 1    -0.01356884     0.03577500    -0.00695400
Spot 2    -0.01082210     0.03408004    -0.00695400
20MABNDM000020_PR013
Spot 1    -0.01269923    -0.03609815    -0.00523500
Spot 2    -0.01285131    -0.03611054    -0.00523500
Spot 1    -0.01269925    -0.03609820    -0.00523500
Spot 2    -0.01285153    -0.03610975    -0.00523500
Spot 1    -0.01269925    -0.03609847    -0.00523500
Spot 2    -0.01285166    -0.03611085    -0.00523500
Spot 1    -0.01269939    -0.03609815    -0.00523500
Spot 2    -0.01285159    -0.03611006    -0.00523500
Spot 1    -0.01269884    -0.03609849    -0.00523500
Spot 2    -0.01285163    -0.03611109    -0.00523500
Spot 1    -0.01269979    -0.03609800    -0.00523500
Spot 2    -0.01285205    -0.03611049    -0.00523500
20MABNDM000020_PR014
Spot 1    -0.01165978    -0.03621591    -0.00523500
Spot 2    -0.01182236    -0.03622672    -0.00523500
Spot 1    -0.01165978    -0.03621578    -0.00523500
Spot 2    -0.01182198    -0.03622628    -0.00523500
Spot 1    -0.01165990    -0.03621576    -0.00523500
Spot 2    -0.01182215    -0.03622641    -0.00523500
Spot 1    -0.01166017    -0.03621527    -0.00523500
Spot 2    -0.01182213    -0.03622612    -0.00523500
Spot 1    -0.01165994    -0.03621592    -0.00523500
Spot 2    -0.01182225    -0.03622650    -0.00523500
Spot 1    -0.01165980    -0.03621551    -0.00523500
Spot 2    -0.01182211    -0.03622656    -0.00523500
20MABNDM000020_20MABNDL000196
Spot 1     0.01268306    -0.03454556    -0.07583800
Spot 2     0.01356112    -0.03398345    -0.07583800
Spot 1     0.01268285    -0.03454558    -0.07583800
Spot 2     0.01356112    -0.03398345    -0.07583800
Spot 1     0.01268298    -0.03454547    -0.07583800
Spot 2     0.01356112    -0.03398345    -0.07583800
Spot 1     0.01268285    -0.03454547    -0.07583800
Spot 2     0.01356112    -0.03398345    -0.07583800
Spot 1     0.01268298    -0.03454559    -0.07583800
Spot 2     0.01356112    -0.03398345    -0.07583800
Spot 1     0.01268299    -0.03454544    -0.07583800
Spot 2     0.01356112    -0.03398345    -0.07583800
20MABNDM000020_PR035
Spot 1     0.01342053    -0.03484309    -0.07583800
Spot 2     0.01348659    -0.03502796    -0.07583800
Spot 1     0.01342046    -0.03484295    -0.07583800
Spot 2     0.01348647    -0.03502805    -0.07583800
Spot 1     0.01342053    -0.03484305    -0.07583800
Spot 2     0.01348655    -0.03502757    -0.07583800
Spot 1     0.01342051    -0.03484288    -0.07583800
Spot 2     0.01348649    -0.03502706    -0.07583800
Spot 1     0.01342039    -0.03484266    -0.07583800
Spot 2     0.01348641    -0.03502536    -0.07583800
Spot 1     0.01342045    -0.03484263    -0.07583800
Spot 2     0.01348648    -0.03502540    -0.07583800
20MABNDM000168_PR025
Spot 1    -0.01337799    -0.03564242    -0.00532900
Spot 2    -0.01322460    -0.03564109    -0.00532900
Spot 1    -0.01337805    -0.03564236    -0.00532900
Spot 2    -0.01322464    -0.03564112    -0.00532900
Spot 1    -0.01337801    -0.03564239    -0.00532900
Spot 2    -0.01322468    -0.03564125    -0.00532900
Spot 1    -0.01337803    -0.03564239    -0.00532900
Spot 2    -0.01322460    -0.03564119    -0.00532900
Spot 1    -0.01337793    -0.03564241    -0.00532900
Spot 2    -0.01322474    -0.03564120    -0.00532900
Spot 1    -0.01337807    -0.03564235    -0.00532900
Spot 2    -0.01322469    -0.03564121    -0.00532900
20MABNDM000168_PR026
Spot 1    -0.01189170    -0.03575423    -0.00532900
Spot 2    -0.01173007    -0.03575677    -0.00532900
Spot 1    -0.01189169    -0.03575406    -0.00532900
Spot 2    -0.01173018    -0.03575689    -0.00532900
Spot 1    -0.01189177    -0.03575399    -0.00532900
Spot 2    -0.01173027    -0.03575700    -0.00532900
Spot 1    -0.01189183    -0.03575419    -0.00532900
Spot 2    -0.01173025    -0.03575689    -0.00532900
Spot 1    -0.01189167    -0.03575405    -0.00532900
Spot 2    -0.01173033    -0.03575686    -0.00532900
Spot 1    -0.01189171    -0.03575413    -0.00532900
Spot 2    -0.01173023    -0.03575676    -0.00532900
20MABNDM000168_20MABNDL000077
Spot 1     0.01288690    -0.03529681    -0.07445100
Spot 2     0.01444533    -0.03402234    -0.07445100
Spot 1     0.01288687    -0.03529685    -0.07445100
Spot 2     0.01444533    -0.03402234    -0.07445100
Spot 1     0.01288698    -0.03529679    -0.07445100
Spot 2     0.01444533    -0.03402234    -0.07445100
Spot 1     0.01288690    -0.03529681    -0.07445100
Spot 2     0.01444533    -0.03402234    -0.07445100
Spot 1     0.01288702    -0.03529687    -0.07445100
Spot 2     0.01444533    -0.03402234    -0.07445100
Spot 1     0.01288700    -0.03529689    -0.07445100
Spot 2     0.01444533    -0.03402234    -0.07445100
20MABNDM000168_PR001
Spot 1     0.01371543    -0.03563572    -0.07445100
Spot 2     0.01361240    -0.03562966    -0.07445100
Spot 1     0.01371552    -0.03563580    -0.07445100
Spot 2     0.01361563    -0.03563637    -0.07445100
Spot 1     0.01371539    -0.03563561    -0.07445100
Spot 2     0.01361570    -0.03563137    -0.07445100
Spot 1     0.01371540    -0.03563570    -0.07445100
Spot 2     0.01361563    -0.03563637    -0.07445100
Spot 1     0.01371548    -0.03563569    -0.07445100
Spot 2     0.01361563    -0.03563637    -0.07445100
Spot 1     0.01371552    -0.03563572    -0.07445100
Spot 2     0.01361563    -0.03563637    -0.07445100
20MABNDL000196_PR036
Spot 1     0.01210064     0.03583381    -0.07483600
Spot 2     0.01193596     0.03583512    -0.07483600
Spot 1     0.01210070     0.03583389    -0.07483600
Spot 2     0.01193558     0.03583489    -0.07483600
Spot 1     0.01210053     0.03583406    -0.07483600
Spot 2     0.01193629     0.03583544    -0.07483600
Spot 1     0.01210061     0.03583398    -0.07483600
Spot 2     0.01193614     0.03583495    -0.07483600
Spot 1     0.01210077     0.03583386    -0.07483600
Spot 2     0.01193591     0.03583472    -0.07483600
Spot 1     0.01210068     0.03583390    -0.07483600
Spot 2     0.01193588     0.03583549    -0.07483600
20MABNDL000196_PR037
Spot 1     0.01361586     0.03536458    -0.07483600
Spot 2     0.01346084     0.03536564    -0.07483600
Spot 1     0.01361609     0.03536472    -0.07483600
Spot 2     0.01346094     0.03536552    -0.07483600
Spot 1     0.01361590     0.03536475    -0.07483600
Spot 2     0.01346076     0.03536575    -0.07483600
Spot 1     0.01361594     0.03536461    -0.07483600
Spot 2     0.01346094     0.03536573    -0.07483600
Spot 1     0.01361586     0.03536455    -0.07483600
Spot 2     0.01346080     0.03536581    -0.07483600
Spot 1     0.01361613     0.03536475    -0.07483600
Spot 2     0.01346094     0.03536564    -0.07483600
20MABNDL000196_20MABNDM000020
Spot 1    -0.01255263     0.03530480    -0.00611000
Spot 2    -0.01277469     0.03530066    -0.00611000
Spot 1    -0.01255258     0.03530482    -0.00611000
Spot 2    -0.01277464     0.03530061    -0.00611000
Spot 1    -0.01255261     0.03530486    -0.00611000
Spot 2    -0.01277464     0.03530066    -0.00611000
Spot 1    -0.01255263     0.03530495    -0.00611000
Spot 2    -0.01277473     0.03530075    -0.00611000
Spot 1    -0.01255260     0.03530485    -0.00611000
Spot 2    -0.01277466     0.03530075    -0.00611000
Spot 1    -0.01255270     0.03530488    -0.00611000
Spot 2    -0.01277466     0.03530085    -0.00611000
20MABNDL000196_PR012
Spot 1    -0.01389934     0.03430759    -0.00611000
Spot 2    -0.01374655     0.03430887    -0.00611000
Spot 1    -0.01401506     0.03436560    -0.00611000
Spot 2    -0.01415977     0.03429287    -0.00611000
Spot 1    -0.01184738     0.03431559    -0.00611000
Spot 2    -0.01390824     0.03426669    -0.00611000
Spot 1    -0.01229880     0.03431079    -0.00611000
Spot 2    -0.01185682     0.03431597    -0.00611000
Spot 1    -0.01307457     0.03429146    -0.00611000
Spot 2    -0.01392432     0.03427036    -0.00611000
Spot 1    -0.01186628     0.03432560    -0.00611000
Spot 2    -0.01196875     0.03431172    -0.00611000
20MABNDA000318_PR004
Spot 1    -0.01286945     0.01246769    -0.07310600
Spot 2    -0.01265108     0.01246772    -0.07310600
Spot 1    -0.01286925     0.01246743    -0.07310600
Spot 2    -0.01265096     0.01246787    -0.07310600
Spot 1    -0.01286937     0.01246765    -0.07310600
Spot 2    -0.01265088     0.01246777    -0.07310600
Spot 1    -0.01286925     0.01246768    -0.07310600
Spot 2    -0.01265098     0.01246791    -0.07310600
Spot 1    -0.01286928     0.01246773    -0.07310600
Spot 2    -0.01265097     0.01246780    -0.07310600
Spot 1    -0.01286929     0.01246773    -0.07310600
Spot 2    -0.01265090     0.01246776    -0.07310600
20MABNDA000334_PR005
Spot 1    -0.01312122     0.01255530    -0.07324100
Spot 2    -0.01284067     0.01255470    -0.07324100
Spot 1    -0.01312109     0.01255539    -0.07324100
Spot 2    -0.01284064     0.01255476    -0.07324100
Spot 1    -0.01312131     0.01255529    -0.07324100
Spot 2    -0.01284081     0.01255452    -0.07324100
Spot 1    -0.01312110     0.01255534    -0.07324100
Spot 2    -0.01284092     0.01255480    -0.07324100
Spot 1    -0.01312088     0.01255528    -0.07324100
Spot 2    -0.01284052     0.01255468    -0.07324100
Spot 1    -0.01312124     0.01255528    -0.07324100
Spot 2    -0.01284062     0.01255475    -0.07324100
20MABNDB000317_PR015
Spot 1    -0.01243960    -0.01249155    -0.07326100
Spot 2    -0.01265887    -0.01248710    -0.07326100
Spot 1    -0.01243941    -0.01249134    -0.07326100
Spot 2    -0.01265908    -0.01248691    -0.07326100
Spot 1    -0.01243937    -0.01249131    -0.07326100
Spot 2    -0.01265910    -0.01248707    -0.07326100
Spot 1    -0.01243952    -0.01249120    -0.07326100
Spot 2    -0.01265907    -0.01248689    -0.07326100
Spot 1    -0.01243935    -0.01249131    -0.07326100
Spot 2    -0.01265894    -0.01248713    -0.07326100
Spot 1    -0.01243943    -0.01249135    -0.07326100
Spot 2    -0.01265901    -0.01248702    -0.07326100
20MABNDB000146_PR016
Spot 1    -0.01275766    -0.01246061    -0.07450500
Spot 2    -0.01248208    -0.01245817    -0.07450500
Spot 1    -0.01275759    -0.01246050    -0.07450500
Spot 2    -0.01248201    -0.01245805    -0.07450500
Spot 1    -0.01275761    -0.01246061    -0.07450500
Spot 2    -0.01248193    -0.01245828    -0.07450500
Spot 1    -0.01275762    -0.01246061    -0.07450500
Spot 2    -0.01248178    -0.01245825    -0.07450500
Spot 1    -0.01275774    -0.01246049    -0.07450500
Spot 2    -0.01248190    -0.01245805    -0.07450500
Spot 1    -0.01275751    -0.01246054    -0.07450500
Spot 2    -0.01248182    -0.01245799    -0.07450500
20MABNDB000135_PR027
Spot 1    -0.01251300    -0.01318858    -0.07464700
Spot 2    -0.01229433    -0.01318825    -0.07464700
Spot 1    -0.01251309    -0.01318851    -0.07464700
Spot 2    -0.01229431    -0.01318824    -0.07464700
Spot 1    -0.01251301    -0.01318861    -0.07464700
Spot 2    -0.01229422    -0.01318818    -0.07464700
Spot 1    -0.01251310    -0.01318872    -0.07464700
Spot 2    -0.01229429    -0.01318800    -0.07464700
Spot 1    -0.01251304    -0.01318851    -0.07464700
Spot 2    -0.01229442    -0.01318798    -0.07464700
Spot 1    -0.01251304    -0.01318858    -0.07464700
Spot 2    -0.01229435    -0.01318806    -0.07464700
20MABNDB000126_PR028
Spot 1    -0.01252816    -0.01217782    -0.07500400
Spot 2    -0.01224561    -0.01217433    -0.07500400
Spot 1    -0.01252807    -0.01217785    -0.07500400
Spot 2    -0.01224564    -0.01217422    -0.07500400
Spot 1    -0.01252818    -0.01217778    -0.07500400
Spot 2    -0.01224554    -0.01217421    -0.07500400
Spot 1    -0.01252817    -0.01217782    -0.07500400
Spot 2    -0.01224570    -0.01217422    -0.07500400
Spot 1    -0.01252816    -0.01217778    -0.07500400
Spot 2    -0.01224570    -0.01217424    -0.07500400
Spot 1    -0.01252813    -0.01217786    -0.07500400
Spot 2    -0.01224592    -0.01217430    -0.07500400
20MABNDA000272_PR038
Spot 1    -0.01275779     0.01313851    -0.07417900
Spot 2    -0.01253522     0.01313958    -0.07417900
Spot 1    -0.01275764     0.01313845    -0.07417900
Spot 2    -0.01253526     0.01313971    -0.07417900
Spot 1    -0.01275786     0.01313852    -0.07417900
Spot 2    -0.01253555     0.01313956    -0.07417900
Spot 1    -0.01275775     0.01313827    -0.07417900
Spot 2    -0.01253537     0.01313972    -0.07417900
Spot 1    -0.01275783     0.01313823    -0.07417900
Spot 2    -0.01253517     0.01313938    -0.07417900
Spot 1    -0.01275784     0.01313837    -0.07417900
Spot 2    -0.01253513     0.01313940    -0.07417900
20MABNDA000003_PR039
Spot 1    -0.01280831     0.01212043    -0.07373400
Spot 2    -0.01308536     0.01212161    -0.07373400
Spot 1    -0.01280833     0.01212039    -0.07373400
Spot 2    -0.01308529     0.01212169    -0.07373400
Spot 1    -0.01280836     0.01212041    -0.07373400
Spot 2    -0.01308530     0.01212166    -0.07373400
Spot 1    -0.01280831     0.01212028    -0.07373400
Spot 2    -0.01308529     0.01212162    -0.07373400
Spot 1    -0.01280836     0.01212036    -0.07373400
Spot 2    -0.01308519     0.01212158    -0.07373400
Spot 1    -0.01280829     0.01212038    -0.07373400
Spot 2    -0.01308527     0.01212158    -0.07373400
20MABNDA000196_PR006
Spot 1    -0.01293345     0.01322697    -0.07967100
Spot 2    -0.01256434     0.01322549    -0.07967100
Spot 1    -0.01293348     0.01322693    -0.07967100
Spot 2    -0.01256447     0.01322543    -0.07967100
Spot 1    -0.01293340     0.01322689    -0.07967100
Spot 2    -0.01256427     0.01322533    -0.07967100
Spot 1    -0.01293335     0.01322697    -0.07967100
Spot 2    -0.01256441     0.01322543    -0.07967100
Spot 1    -0.01293357     0.01322688    -0.07967100
Spot 2    -0.01256421     0.01322521    -0.07967100
Spot 1    -0.01293345     0.01322694    -0.07967100
Spot 2    -0.01256433     0.01322537    -0.07967100
20MABNDA000324_PR007
Spot 1    -0.01255806     0.01280775    -0.07446800
Spot 2    -0.01235220     0.01280353    -0.07446800
Spot 1    -0.01255828     0.01280771    -0.07446800
Spot 2    -0.01235216     0.01280361    -0.07446800
Spot 1    -0.01255815     0.01280773    -0.07446800
Spot 2    -0.01235197     0.01280370    -0.07446800
Spot 1    -0.01255814     0.01280766    -0.07446800
Spot 2    -0.01235209     0.01280365    -0.07446800
Spot 1    -0.01255812     0.01280756    -0.07446800
Spot 2    -0.01235216     0.01280369    -0.07446800
Spot 1    -0.01255820     0.01280770    -0.07446800
Spot 2    -0.01235212     0.01280362    -0.07446800
20MABNDB000001_PR017
Spot 1    -0.01231058    -0.01351372    -0.07418400
Spot 2    -0.01194125    -0.01350849    -0.07418400
Spot 1    -0.01231058    -0.01351379    -0.07418400
Spot 2    -0.01194096    -0.01350862    -0.07418400
Spot 1    -0.01231048    -0.01351376    -0.07418400
Spot 2    -0.01194095    -0.01350843    -0.07418400
Spot 1    -0.01231057    -0.01351368    -0.07418400
Spot 2    -0.01194106    -0.01350851    -0.07418400
Spot 1    -0.01231055    -0.01351367    -0.07418400
Spot 2    -0.01194120    -0.01350841    -0.07418400
Spot 1    -0.01231046    -0.01351364    -0.07418400
Spot 2    -0.01194107    -0.01350834    -0.07418400
20MABNDB000260_PR019
Spot 1    -0.01240419    -0.01240616    -0.07492700
Spot 2    -0.01220011    -0.01240279    -0.07492700
Spot 1    -0.01240405    -0.01240594    -0.07492700
Spot 2    -0.01220048    -0.01240242    -0.07492700
Spot 1    -0.01240407    -0.01240636    -0.07492700
Spot 2    -0.01220000    -0.01240293    -0.07492700
Spot 1    -0.01240412    -0.01240592    -0.07492700
Spot 2    -0.01220067    -0.01240262    -0.07492700
Spot 1    -0.01240439    -0.01240632    -0.07492700
Spot 2    -0.01220011    -0.01240279    -0.07492700
Spot 1    -0.01240402    -0.01240613    -0.07492700
Spot 2    -0.01220048    -0.01240276    -0.07492700
20MABNDB000212_PR029
Spot 1    -0.01185030    -0.01325458    -0.07390500
Spot 2    -0.01221810    -0.01324999    -0.07390500
Spot 1    -0.01185050    -0.01325462    -0.07390500
Spot 2    -0.01221791    -0.01325038    -0.07390500
Spot 1    -0.01185034    -0.01325482    -0.07390500
Spot 2    -0.01221802    -0.01325012    -0.07390500
Spot 1    -0.01185050    -0.01325461    -0.07390500
Spot 2    -0.01221823    -0.01325043    -0.07390500
Spot 1    -0.01185044    -0.01325469    -0.07390500
Spot 2    -0.01221806    -0.01325043    -0.07390500
Spot 1    -0.01185042    -0.01325468    -0.07390500
Spot 2    -0.01221799    -0.01325027    -0.07390500
20MABNDB000128_PR030
Spot 1    -0.01245102    -0.01220940    -0.07353400
Spot 2    -0.01224677    -0.01221453    -0.07353400
Spot 1    -0.01245090    -0.01220917    -0.07353400
Spot 2    -0.01224674    -0.01221443    -0.07353400
Spot 1    -0.01245091    -0.01220941    -0.07353400
Spot 2    -0.01224685    -0.01221461    -0.07353400
Spot 1    -0.01245117    -0.01220928    -0.07353400
Spot 2    -0.01224687    -0.01221447    -0.07353400
Spot 1    -0.01245100    -0.01220934    -0.07353400
Spot 2    -0.01224686    -0.01221449    -0.07353400
Spot 1    -0.01245107    -0.01220917    -0.07353400
Spot 2    -0.01224702    -0.01221444    -0.07353400
20MABNDA000444_PR040
Spot 1    -0.01168758     0.01364773    -0.07412000
Spot 2    -0.01205461     0.01364703    -0.07412000
Spot 1    -0.01168771     0.01364774    -0.07412000
Spot 2    -0.01205463     0.01364752    -0.07412000
Spot 1    -0.01168782     0.01364773    -0.07412000
Spot 2    -0.01205470     0.01364682    -0.07412000
Spot 1    -0.01168780     0.01364758    -0.07412000
Spot 2    -0.01205449     0.01364707    -0.07412000
Spot 1    -0.01168750     0.01364755    -0.07412000
Spot 2    -0.01205473     0.01364706    -0.07412000
Spot 1    -0.01168767     0.01364762    -0.07412000
Spot 2    -0.01205502     0.01364696    -0.07412000
20MABNDA000053_PR041
Spot 1    -0.01241556     0.01212025    -0.07430100
Spot 2    -0.01221119     0.01211949    -0.07430100
Spot 1    -0.01241548     0.01212031    -0.07430100
Spot 2    -0.01221122     0.01211966    -0.07430100
Spot 1    -0.01241561     0.01212019    -0.07430100
Spot 2    -0.01221111     0.01211967    -0.07430100
Spot 1    -0.01241550     0.01212041    -0.07430100
Spot 2    -0.01221155     0.01211958    -0.07430100
Spot 1    -0.01241560     0.01212017    -0.07430100
Spot 2    -0.01221132     0.01211950    -0.07430100
Spot 1    -0.01241564     0.01212012    -0.07430100
Spot 2    -0.01221123     0.01211936    -0.07430100
20MABNDA000188_PR008
Spot 1    -0.01415577     0.01340100    -0.07502000
Spot 2    -0.01385116     0.01393841    -0.07502000
Spot 1    -0.01415577     0.01340100    -0.07502000
Spot 2    -0.01432330     0.01281492    -0.07502000
Spot 1    -0.01385116     0.01393841    -0.07502000
Spot 2    -0.01385116     0.01393841    -0.07502000
Spot 1    -0.01385116     0.01393841    -0.07502000
Spot 2    -0.01385116     0.01393841    -0.07502000
Spot 1    -0.01385116     0.01393841    -0.07502000
Spot 2    -0.01385116     0.01393841    -0.07502000
Spot 1    -0.01380210     0.01382799    -0.07502000
Spot 2    -0.01385116     0.01393841    -0.07502000
20MABNDA000188_PR018
Spot 1    -0.01258559     0.01255068    -0.07502000
Spot 2    -0.01211825     0.01254992    -0.07502000
Spot 1    -0.01258567     0.01255040    -0.07502000
Spot 2    -0.01211824     0.01254982    -0.07502000
Spot 1    -0.01258552     0.01255064    -0.07502000
Spot 2    -0.01211813     0.01254991    -0.07502000
Spot 1    -0.01258570     0.01255043    -0.07502000
Spot 2    -0.01211837     0.01254977    -0.07502000
Spot 1    -0.01258557     0.01255064    -0.07502000
Spot 2    -0.01211822     0.01254977    -0.07502000
Spot 1    -0.01258553     0.01255048    -0.07502000
Spot 2    -0.01211825     0.01254985    -0.07502000
20MABNDA000039_PR009
Spot 1    -0.01162318     0.01303445    -0.07444800
Spot 2    -0.01157427     0.01303017    -0.07444800
Spot 1    -0.01162279     0.01303478    -0.07444800
Spot 2    -0.01157465     0.01303021    -0.07444800
Spot 1    -0.01162336     0.01303442    -0.07444800
Spot 2    -0.01157432     0.01303013    -0.07444800
Spot 1    -0.01162267     0.01303485    -0.07444800
Spot 2    -0.01157455     0.01303021    -0.07444800
Spot 1    -0.01162253     0.01303445    -0.07444800
Spot 2    -0.01157451     0.01303024    -0.07444800
Spot 1    -0.01162323     0.01303467    -0.07444800
Spot 2    -0.01157462     0.01303021    -0.07444800
20MABNDA000039_PR011
Spot 1    -0.01371833     0.01387930    -0.07444800
Spot 2    -0.01354285     0.01388403    -0.07444800
Spot 1    -0.01371845     0.01387944    -0.07444800
Spot 2    -0.01354300     0.01388403    -0.07444800
Spot 1    -0.01371833     0.01387925    -0.07444800
Spot 2    -0.01354281     0.01388398    -0.07444800
Spot 1    -0.01371851     0.01387920    -0.07444800
Spot 2    -0.01354292     0.01388397    -0.07444800
Spot 1    -0.01371853     0.01387925    -0.07444800
Spot 2    -0.01354287     0.01388383    -0.07444800
Spot 1    -0.01371844     0.01387930    -0.07444800
Spot 2    -0.01354298     0.01388395    -0.07444800
20MABNDB000155_PR020
Spot 1    -0.01359558    -0.01316927    -0.07501700
Spot 2    -0.01352880    -0.01317318    -0.07501700
Spot 1    -0.01359540    -0.01316885    -0.07501700
Spot 2    -0.01352830    -0.01317366    -0.07501700
Spot 1    -0.01359502    -0.01316948    -0.07501700
Spot 2    -0.01352849    -0.01317319    -0.07501700
Spot 1    -0.01359581    -0.01316915    -0.07501700
Spot 2    -0.01352841    -0.01317324    -0.07501700
Spot 1    -0.01359521    -0.01316949    -0.07501700
Spot 2    -0.01352895    -0.01317304    -0.07501700
Spot 1    -0.01359558    -0.01316927    -0.07501700
Spot 2    -0.01352866    -0.01317308    -0.07501700
20MABNDB000155_PR022
Spot 1    -0.01205674    -0.01313288    -0.07501700
Spot 2    -0.01158364    -0.01313067    -0.07501700
Spot 1    -0.01205683    -0.01313268    -0.07501700
Spot 2    -0.01158357    -0.01313062    -0.07501700
Spot 1    -0.01205662    -0.01313273    -0.07501700
Spot 2    -0.01158368    -0.01313063    -0.07501700
Spot 1    -0.01205678    -0.01313296    -0.07501700
Spot 2    -0.01158359    -0.01313067    -0.07501700
Spot 1    -0.01205665    -0.01313286    -0.07501700
Spot 2    -0.01158361    -0.01313074    -0.07501700
Spot 1    -0.01205668    -0.01313286    -0.07501700
Spot 2    -0.01158362    -0.01313050    -0.07501700
20MABNDB000010_PR021
Spot 1    -0.01158611    -0.01288766    -0.07358200
Spot 2    -0.01153073    -0.01288329    -0.07358200
Spot 1    -0.01158627    -0.01288749    -0.07358200
Spot 2    -0.01153061    -0.01288308    -0.07358200
Spot 1    -0.01158672    -0.01288793    -0.07358200
Spot 2    -0.01153046    -0.01288350    -0.07358200
Spot 1    -0.01158603    -0.01288761    -0.07358200
Spot 2    -0.01153028    -0.01288387    -0.07358200
Spot 1    -0.01158622    -0.01288791    -0.07358200
Spot 2    -0.01153043    -0.01288351    -0.07358200
Spot 1    -0.01158608    -0.01288795    -0.07358200
Spot 2    -0.01153028    -0.01288380    -0.07358200
20MABNDB000010_PR023
Spot 1    -0.01313096    -0.01368181    -0.07358200
Spot 2    -0.01295599    -0.01368057    -0.07358200
Spot 1    -0.01313085    -0.01368178    -0.07358200
Spot 2    -0.01295578    -0.01368058    -0.07358200
Spot 1    -0.01313094    -0.01368140    -0.07358200
Spot 2    -0.01295593    -0.01368049    -0.07358200
Spot 1    -0.01313105    -0.01368172    -0.07358200
Spot 2    -0.01295602    -0.01368066    -0.07358200
Spot 1    -0.01313089    -0.01368188    -0.07358200
Spot 2    -0.01295588    -0.01368064    -0.07358200
Spot 1    -0.01313109    -0.01368177    -0.07358200
Spot 2    -0.01295593    -0.01368069    -0.07358200


*****************************************************************coordonnees du prisme dans le repere MOUNT********************************************************************************** 
20MABNDB000069_PR031
    0.09836368    -0.03645351     9.20361614
    0.09824739    -0.03643091     9.20361805
    0.09830506    -0.03644618     9.20361710
    0.09834917    -0.03647808     9.20361710
    0.09834227    -0.03646675     9.20361710
    0.09831218    -0.03649681     9.20361710
    0.09833512    -0.03653581     9.20361710
20MABNDB000069_PR033
   -0.02790719    -0.02351081     1.28396058
   -0.02790768    -0.02351028     1.28396058
   -0.02790850    -0.02351144     1.28396058
   -0.02790813    -0.02351077     1.28396058
   -0.02790839    -0.02351299     1.28396058
   -0.02790755    -0.02351123     1.28396058
   -0.02790766    -0.02351191     1.28396058
20MABNDB000131_PR032
   -0.18845952    -0.03360467    11.00640678
   -0.18844050    -0.03361188    11.00640774
   -0.18846655    -0.03366024    11.00640678
   -0.18845208    -0.03363386    11.00640678
   -0.18844247    -0.03365792    11.00640774
   -0.18843238    -0.03362938    11.00640774
   -0.18843740    -0.03364548    11.00640774
20MABNDB000131_PR034
    0.01382999     0.01293343     3.43341160
    0.01382448     0.01294207     3.43341160
    0.01382065     0.01293339     3.43341160
    0.01382404     0.01293774     3.43341160
    0.01382521     0.01293204     3.43341160
    0.01382926     0.01294232     3.43341160
    0.01382655     0.01293820     3.43341160
20MABNDA000208_PR042
    0.12389380     0.01104923     9.20158005
    0.12391218     0.01109037     9.20158005
    0.12391097     0.01107318     9.20158005
    0.12397112     0.01106771     9.20158005
    0.12395699     0.01107445     9.20158005
    0.12390791     0.01105967     9.20158005
    0.12391160     0.01105845     9.20158005
20MABNDA000208_PR046
   -0.02588433     0.03083205     1.28211725
   -0.02588254     0.03083573     1.28211725
   -0.02588305     0.03083692     1.28211725
   -0.02588322     0.03083367     1.28211725
   -0.02588373     0.03083521     1.28211725
   -0.02588305     0.03083649     1.28211725
   -0.02588211     0.03083521     1.28211725
20MABNDA000035_PR044
   -0.17940073     0.03058732    11.00802422
   -0.17940797     0.03059688    11.00802422
   -0.17936116     0.03059948    11.00802612
   -0.17939621     0.03060411    11.00802422
   -0.17944670     0.03060082    11.00802422
   -0.17937869     0.03060326    11.00802612
20MABNDA000035_PR045
    0.01495068    -0.01520357     3.43486714
    0.01495298    -0.01520085     3.43486714
    0.01495503    -0.01520087     3.43486714
    0.01495158    -0.01520426     3.43486714
    0.01495205    -0.01520313     3.43486714
    0.01495595    -0.01520042     3.43486714
20MABNDL000077_PR002
    0.04968350     0.02145484     3.70690775
    0.04968382     0.02143656     3.70690775
    0.04969137     0.02145032     3.70690775
    0.04968620     0.02145210     3.70690775
    0.04968344     0.02142224     3.70690775
    0.04968591     0.02144766     3.70690775
20MABNDL000077_PR003
    0.01407928     0.03693519     3.89605379
    0.01408062     0.03694037     3.89605379
    0.01407843     0.03695545     3.89605379
    0.01407677     0.03694455     3.89605379
    0.01407849     0.03693441     3.89605379
    0.01408061     0.03693933     3.89605379
20MABNDL000077_20MABNDM000168
   -0.07866220     0.06840761    -5.46825504
   -0.07866688     0.06840539    -5.46825504
   -0.07866833     0.06840574    -5.46825504
   -0.07866434     0.06840433    -5.46825504
   -0.07866364     0.06840687    -5.46825504
   -0.07866761     0.06840647    -5.46825504
20MABNDL000077_PR024
   -0.05086555     0.06220969    -5.89653778
   -0.05086591     0.06220657    -5.89653778
   -0.05086084     0.06220584    -5.89653778
   -0.05086318     0.06220620    -5.89653778
   -0.05086046     0.06220663    -5.89653778
   -0.05086045     0.06220623    -5.89653778
20MABNDM000020_PR013
   -0.00531768     0.01232872    -3.80216765
   -0.00531182     0.01231049    -3.80216789
   -0.00530835     0.01234430    -3.80216694
   -0.00530675     0.01231705    -3.80216765
   -0.00531942     0.01235101    -3.80216694
   -0.00528531     0.01232397    -3.80216765
20MABNDM000020_PR014
   -0.06781075     0.03186926    -4.74799442
   -0.06782249     0.03185158    -4.74799442
   -0.06781353     0.03185458    -4.74799442
   -0.06780553     0.03183048    -4.74799442
   -0.06780935     0.03186245    -4.74799442
   -0.06781782     0.03185167    -4.74799442
20MABNDM000020_20MABNDL000196
   -0.01448371    -0.09600699     5.39442730
   -0.01447619    -0.09600627     5.39442730
   -0.01448084    -0.09601022     5.39442730
   -0.01447619    -0.09601022     5.39442730
   -0.01448085    -0.09600592     5.39442730
   -0.01448120    -0.09601129     5.39442730
20MABNDM000020_PR035
   -0.04207669    -0.04883125     5.80101681
   -0.04206938    -0.04883318     5.80101728
   -0.04207515    -0.04884782     5.80101681
   -0.04207207    -0.04887402     5.80101681
   -0.04206435    -0.04894799     5.80101681
   -0.04206936    -0.04894760     5.80101681
20MABNDM000168_PR025
    0.01788004    -0.02082845    -3.78864050
    0.01788252    -0.02082918    -3.78864050
    0.01788250    -0.02082523    -3.78864050
    0.01788102    -0.02082672    -3.78864050
    0.01788201    -0.02082597    -3.78864050
    0.01788424    -0.02082720    -3.78864050
20MABNDM000168_PR026
   -0.05809581    -0.01410390    -3.98428845
   -0.05809321    -0.01410519    -3.98428845
   -0.05808879    -0.01410413    -3.98428845
   -0.05808775    -0.01410178    -3.98428845
   -0.05808982    -0.01410621    -3.98428845
   -0.05809138    -0.01410674    -3.98428845
20MABNDM000168_20MABNDL000077
   -0.05240725    -0.08487498     5.38823223
   -0.05240615    -0.08487320     5.38823223
   -0.05241013    -0.08487566     5.38823223
   -0.05240725    -0.08487498     5.38823223
   -0.05241153    -0.08487276     5.38823223
   -0.05241080    -0.08487205     5.38823223
20MABNDM000168_PR001
   -0.05739491    -0.01329632     5.81470490
   -0.05752361    -0.01303277     5.81470203
   -0.05752152    -0.01323400     5.81470299
   -0.05751902    -0.01303671     5.81470203
   -0.05752213    -0.01303705     5.81470203
   -0.05752366    -0.01303587     5.81470203
20MABNDL000196_PR036
    0.05087147     0.00563386     3.68777442
    0.05087932     0.00563756     3.68777442
    0.05086610     0.00561986     3.68777442
    0.05086779     0.00563385     3.68777442
    0.05086949     0.00564245     3.68777442
    0.05087247     0.00562258     3.68777394
20MABNDL000196_PR037
   -0.02570470     0.02829231     3.88380671
   -0.02571323     0.02829178     3.88380671
   -0.02570365     0.02828507     3.88380671
   -0.02570935     0.02828920     3.88380671
   -0.02570366     0.02828870     3.88380671
   -0.02571426     0.02828790     3.88380671
20MABNDL000196_20MABNDM000020
   -0.01395214     0.03895707    -5.47473907
   -0.01395575     0.03895808    -5.47473907
   -0.01395461     0.03895487    -5.47473907
   -0.01395053     0.03894848    -5.47473907
   -0.01395419     0.03895200    -5.47473907
   -0.01395087     0.03894740    -5.47473907
20MABNDL000196_PR012
    0.07604118     0.11648154    -5.91454554
    0.09658837     0.11484486    -5.91421890
    0.00259110     0.11781883    -5.91518211
   -0.05958798     0.11608823    -5.91503716
    0.05090325     0.11860871    -5.91484356
   -0.07204495     0.11567631    -5.91492939
20MABNDA000318_PR004
   -0.00832680     0.03845879     2.74965811
   -0.00833249     0.03846079     2.74965811
   -0.00833176     0.03845860     2.74965811
   -0.00833230     0.03845548     2.74965835
   -0.00833193     0.03845657     2.74965811
   -0.00833303     0.03845730     2.74965811
20MABNDA000334_PR005
   -0.00413211     0.03132038     2.14977455
   -0.00413440     0.03131824     2.14977455
   -0.00412882     0.03132309     2.14977455
   -0.00413025     0.03131837     2.14977455
   -0.00413911     0.03132096     2.14977455
   -0.00413254     0.03131995     2.14977455
20MABNDB000317_PR015
   -0.01764448    -0.03438186     2.75128675
   -0.01764403    -0.03438914     2.75128675
   -0.01764442    -0.03438678     2.75128675
   -0.01764236    -0.03439203     2.75128675
   -0.01764771    -0.03438572     2.75128675
   -0.01764496    -0.03438696     2.75128675
20MABNDB000146_PR016
   -0.01361246    -0.03180054     2.15201259
   -0.01361447    -0.03180385     2.15201259
   -0.01361534    -0.03179897     2.15201259
   -0.01361736    -0.03179940     2.15201259
   -0.01361389    -0.03180400     2.15201259
   -0.01361835    -0.03180414     2.15201259
20MABNDB000135_PR027
   -0.02103656    -0.01018025     2.74937153
   -0.02103529    -0.01018173     2.74937153
   -0.02103840    -0.01018096     2.74937153
   -0.02103548    -0.01018228     2.74937153
   -0.02103424    -0.01018651     2.74937153
   -0.02103550    -0.01018375     2.74937153
20MABNDB000126_PR028
   -0.02053178    -0.03883048     2.14679623
   -0.02053263    -0.03883163     2.14679623
   -0.02053249    -0.03883276     2.14679623
   -0.02053035    -0.03883204     2.14679623
   -0.02053049    -0.03883233     2.14679623
   -0.02052779    -0.03883032     2.14679623
20MABNDA000272_PR038
   -0.01328416     0.01158662     2.74965906
   -0.01328618     0.01158534     2.74965906
   -0.01327683     0.01158679     2.74965906
   -0.01328214     0.01158845     2.74965906
   -0.01328433     0.01159541     2.74965906
   -0.01328489     0.01159248     2.74965906
20MABNDA000003_PR039
   -0.00576560     0.04138279     2.14891291
   -0.00576631     0.04138222     2.14891291
   -0.00576574     0.04138236     2.14891291
   -0.00576659     0.04138479     2.14891291
   -0.00576731     0.04138422     2.14891291
   -0.00576716     0.04138394     2.14891291
20MABNDA000196_PR006
   -0.01059589     0.01040342     1.64206505
   -0.01059413     0.01040460     1.64206505
   -0.01059717     0.01040606     1.64206505
   -0.01059621     0.01040408     1.64206505
   -0.01059595     0.01040746     1.64206505
   -0.01059598     0.01040506     1.64206505
20MABNDA000324_PR007
   -0.02508275     0.02792102     2.95549226
   -0.02507921     0.02792026     2.95549226
   -0.02508549     0.02791805     2.95549226
   -0.02508334     0.02792043     2.95549226
   -0.02508237     0.02792162     2.95549226
   -0.02508157     0.02792025     2.95549226
20MABNDB000001_PR017
   -0.02394850    -0.00364953     1.64036584
   -0.02395175    -0.00364742     1.64036572
   -0.02395287    -0.00364992     1.64036584
   -0.02395069    -0.00364983     1.64036584
   -0.02394939    -0.00365094     1.64036584
   -0.02395180    -0.00365222     1.64036584
20MABNDB000260_PR019
   -0.02455731    -0.03808959     2.95627642
   -0.02455254    -0.03810111     2.95627642
   -0.02456178    -0.03808279     2.95627642
   -0.02454749    -0.03809766     2.95627642
   -0.02455343    -0.03808635     2.95627642
   -0.02455334    -0.03809069     2.95627642
20MABNDB000212_PR029
   -0.02540671    -0.00903666     1.64223933
   -0.02540666    -0.00903194     1.64223933
   -0.02540711    -0.00903259     1.64223933
   -0.02540315    -0.00903154     1.64223933
   -0.02540566    -0.00903064     1.64223933
   -0.02540667    -0.00903249     1.64223933
20MABNDB000128_PR030
   -0.01942481    -0.04706009     2.95495987
   -0.01942774    -0.04706658     2.95495987
   -0.01942541    -0.04705832     2.95495987
   -0.01941988    -0.04706361     2.95495987
   -0.01942343    -0.04706205     2.95495987
   -0.01941889    -0.04706636     2.95495987
20MABNDA000444_PR040
   -0.03018428     0.00151015     1.64491343
   -0.03018268     0.00150470     1.64491343
   -0.03018069     0.00151250     1.64491343
   -0.03018320     0.00151137     1.64491343
   -0.03018386     0.00151180     1.64491343
   -0.03017883     0.00151219     1.64491343
20MABNDA000053_PR041
   -0.02634273     0.05103935     2.95450568
   -0.02634360     0.05103484     2.95450568
   -0.02634336     0.05103700     2.95450568
   -0.02633674     0.05103432     2.95450568
   -0.02633936     0.05104085     2.95450568
   -0.02634027     0.05104460     2.95450568
20MABNDA000188_PR008
    0.14769700    -0.06175753     9.20335960
    0.17667305     0.00720600     9.20311165
    0.12899831    -0.09474574     9.20333958
    0.12899831    -0.09474574     9.20333958
    0.12899831    -0.09474574     9.20333958
    0.12598890    -0.08796883     9.20346260
20MABNDA000188_PR018
   -0.01860175     0.02182045     1.28360724
   -0.01860112     0.02182369     1.28360724
   -0.01860337     0.02182080     1.28360724
   -0.01859975     0.02182385     1.28360724
   -0.01860216     0.02182199     1.28360724
   -0.01860224     0.02182268     1.28360724
20MABNDA000039_PR009
   -0.17170098     0.02992580    11.00700188
   -0.17170182     0.02989875    11.00700188
   -0.17168413     0.02993085    11.00700188
   -0.17171794     0.02989370    11.00700188
   -0.17173098     0.02992081    11.00700188
   -0.17167181     0.02990666    11.00700188
20MABNDA000039_PR011
    0.03041679    -0.02036357     3.43351889
    0.03042294    -0.02036679     3.43351889
    0.03041589    -0.02036151     3.43351889
    0.03042251    -0.02035994     3.43351889
    0.03042184    -0.02035766     3.43351889
    0.03042228    -0.02036176     3.43351889
20MABNDB000155_PR020
    0.09579484    -0.00376582     9.20035553
    0.09575244    -0.00376210     9.20035648
    0.09574125    -0.00375182     9.20035648
    0.09578446    -0.00376903     9.20035553
    0.09578065    -0.00376049     9.20035553
    0.09578571    -0.00377147     9.20035553
20MABNDB000155_PR022
   -0.02732476    -0.01249623     1.28069711
   -0.02732456    -0.01249837     1.28069711
   -0.02732543    -0.01249787     1.28069711
   -0.02732486    -0.01249555     1.28069711
   -0.02732579    -0.01249582     1.28069711
   -0.02732551    -0.01249787     1.28069711
20MABNDB000010_PR021
   -0.17564124    -0.03933237    11.00694180
   -0.17563856    -0.03936027    11.00694180
   -0.17561610    -0.03929739    11.00694275
   -0.17568013    -0.03929333    11.00694180
   -0.17565504    -0.03929805    11.00694180
   -0.17567605    -0.03927341    11.00694180
20MABNDB000010_PR023
    0.00461716     0.01522065     3.43381524
    0.00460983     0.01522007     3.43381524
    0.00461552     0.01520939     3.43381524
    0.00461992     0.01522047     3.43381524
    0.00461321     0.01522380     3.43381524
    0.00461874     0.01522228     3.43381524


*****************************************************************coordonnees du prisme dans le repere ATLAS********************************************************************************** 
20MABNDB000069_PR031 0.00000000
    3.68007946     3.84881115    -7.90394735
    3.67996311     3.84881330    -7.90396976
    3.68002081     3.84881210    -7.90395451
    3.68006492     3.84881234    -7.90392303
    3.68005800     3.84881210    -7.90393400
    3.68002796     3.84881234    -7.90390396
    3.68005085     3.84881258    -7.90386486
20MABNDB000069_PR033 0.00000000
    3.53239059    -4.07045460    -7.88216019
    3.53239012    -4.07045460    -7.88216066
    3.53238916    -4.07045460    -7.88215923
    3.53238964    -4.07045460    -7.88216019
    3.53238940    -4.07045460    -7.88215780
    3.53239012    -4.07045460    -7.88215971
    3.53239012    -4.07045460    -7.88215876
20MABNDB000131_PR032 0.00000000
    3.86926079     3.64755607   -12.94424725
    3.86924171     3.64755702   -12.94425488
    3.86926770     3.64755607   -12.94430351
    3.86925340     3.64755607   -12.94427681
    3.86924362     3.64755678   -12.94430065
    3.86923361     3.64755678   -12.94427204
    3.86923862     3.64755678   -12.94428825
20MABNDB000131_PR034 0.00000000
    3.67395830    -3.92560554   -12.89501381
    3.67396379    -3.92560554   -12.89500523
    3.67396760    -3.92560554   -12.89501476
    3.67396426    -3.92560554   -12.89500999
    3.67396307    -3.92560554   -12.89501572
    3.67395902    -3.92560554   -12.89500523
    3.67396164    -3.92560554   -12.89500904
20MABNDA000208_PR042 0.00000000
   -3.67396998     3.84925270    -7.90043259
   -3.67398834     3.84925270    -7.90039158
   -3.67398715     3.84925270    -7.90040874
   -3.67404723     3.84925270    -7.90041399
   -3.67403316     3.84925270    -7.90040731
   -3.67398405     3.84925270    -7.90042210
   -3.67398787     3.84925270    -7.90042353
20MABNDA000208_PR046 0.00000000
   -3.52987909    -4.07030773    -7.87768507
   -3.52988076    -4.07030773    -7.87768126
   -3.52988029    -4.07030773    -7.87768030
   -3.52988029    -4.07030773    -7.87768316
   -3.52987957    -4.07030773    -7.87768173
   -3.52988029    -4.07030773    -7.87768030
   -3.52988124    -4.07030773    -7.87768173
20MABNDA000035_PR044 0.00000000
   -3.86864233     3.64757967   -12.93626690
   -3.86864972     3.64757967   -12.93627644
   -3.86860275     3.64758158   -12.93627834
   -3.86863780     3.64757967   -12.93628311
   -3.86868834     3.64757967   -12.93628025
   -3.86862040     3.64758158   -12.93628216
20MABNDA000035_PR045 0.00000000
   -3.67577839    -3.92561984   -12.89118099
   -3.67577600    -3.92561984   -12.89118385
   -3.67577410    -3.92561984   -12.89118385
   -3.67577744    -3.92561984   -12.89118004
   -3.67577696    -3.92561984   -12.89118099
   -3.67577314    -3.92561984   -12.89118385
20MABNDL000077_PR002 0.00000000
    2.83558607    -3.69483352     6.48618793
    2.83560443    -3.69483304     6.48618793
    2.83559060    -3.69482565     6.48618793
    2.83558869    -3.69483066     6.48618793
    2.83561873    -3.69483352     6.48618793
    2.83559322    -3.69483113     6.48618793
20MABNDL000077_PR003 0.00000000
    2.82027984    -3.73066616     6.67530537
    2.82027459    -3.73066473     6.67530537
    2.82025957    -3.73066688     6.67530537
    2.82027054    -3.73066854     6.67530537
    2.82028055    -3.73066688     6.67530537
    2.82027578    -3.73066473     6.67530537
20MABNDL000077_20MABNDM000168 0.00000000
    2.77959275    -3.81184387    -2.68907547
    2.77959490    -3.81184864    -2.68907547
    2.77959466    -3.81185007    -2.68907547
    2.77959609    -3.81184602    -2.68907547
    2.77959347    -3.81184530    -2.68907547
    2.77959394    -3.81184936    -2.68907547
20MABNDL000077_PR024 0.00000000
    2.78537941    -3.78352094    -3.11732936
    2.78538251    -3.78352118    -3.11732936
    2.78538322    -3.78351617    -3.11732936
    2.78538299    -3.78351855    -3.11732936
    2.78538251    -3.78351569    -3.11732936
    2.78538275    -3.78351569    -3.11732936
20MABNDM000020_PR013 0.00000000
   -2.86463761    -3.73415685     6.48601770
   -2.86461949    -3.73416257     6.48601770
   -2.86465335    -3.73416615     6.48601675
   -2.86462593    -3.73416781     6.48601770
   -2.86466002    -3.73415518     6.48601675
   -2.86463284    -3.73418927     6.48601770
20MABNDM000020_PR014 0.00000000
   -2.88396978    -3.67237711     7.43189573
   -2.88395214    -3.67236543     7.43189573
   -2.88395500    -3.67237425     7.43189573
   -2.88393092    -3.67238235     7.43189573
   -2.88396287    -3.67237854     7.43189573
   -2.88395214    -3.67236996     7.43189573
20MABNDM000020_20MABNDL000196 0.00000000
   -2.75813961    -3.71802950    -2.71058941
   -2.75814033    -3.71803713    -2.71058941
   -2.75813627    -3.71803236    -2.71058941
   -2.75813627    -3.71803713    -2.71058941
   -2.75814056    -3.71803236    -2.71058941
   -2.75813532    -3.71803212    -2.71058941
20MABNDM000020_PR035 0.00000000
   -2.80538821    -3.69011283    -3.11714840
   -2.80538630    -3.69012022    -3.11714888
   -2.80537176    -3.69011450    -3.11714840
   -2.80534554    -3.69011760    -3.11714840
   -2.80527139    -3.69012523    -3.11714840
   -2.80527186    -3.69012022    -3.11714840
20MABNDM000168_PR025 0.00000000
    2.83240843    -3.76320934    -6.47925949
    2.83240771    -3.76321173    -6.47925949
    2.83241153    -3.76321173    -6.47925949
    2.83241010    -3.76321030    -6.47925949
    2.83241081    -3.76321125    -6.47925949
    2.83240962    -3.76321340    -6.47925949
20MABNDM000168_PR026 0.00000000
    2.83914113    -3.68730807    -6.67493629
    2.83913994    -3.68731070    -6.67493629
    2.83914089    -3.68731499    -6.67493629
    2.83914328    -3.68731594    -6.67493629
    2.83913875    -3.68731403    -6.67493629
    2.83913827    -3.68731236    -6.67493629
20MABNDM000168_20MABNDL000077 0.00000000
    2.76893735    -3.68949294     2.69759035
    2.76893926    -3.68949389     2.69759035
    2.76893663    -3.68949008     2.69759035
    2.76893735    -3.68949294     2.69759035
    2.76893973    -3.68948865     2.69759035
    2.76894045    -3.68948936     2.69759035
20MABNDM000168_PR001 0.00000000
    2.84054327    -3.68436551     3.12405682
    2.84080696    -3.68423700     3.12405396
    2.84060574    -3.68423891     3.12405491
    2.84080291    -3.68424153     3.12405396
    2.84080267    -3.68423843     3.12405396
    2.84080386    -3.68423700     3.12405396
20MABNDL000196_PR036 0.00000000
   -2.84797335    -3.69340324    -6.47909737
   -2.84796977    -3.69339538    -6.47909737
   -2.84798741    -3.69340849    -6.47909737
   -2.84797335    -3.69340682    -6.47909737
   -2.84796476    -3.69340515    -6.47909737
   -2.84798479    -3.69340205    -6.47909689
20MABNDL000196_PR037 0.00000000
   -2.82528353    -3.77015114    -6.67505884
   -2.82528424    -3.77015972    -6.67505884
   -2.82529092    -3.77015018    -6.67505884
   -2.82528663    -3.77015567    -6.67505884
   -2.82528710    -3.77015018    -6.67505884
   -2.82528806    -3.77016068    -6.67505884
20MABNDL000196_20MABNDM000020 0.00000000
   -2.81442213    -3.74968839     2.68347168
   -2.81442118    -3.74969196     2.68347168
   -2.81442428    -3.74969077     2.68347168
   -2.81443071    -3.74968672     2.68347168
   -2.81442714    -3.74969029     2.68347168
   -2.81443167    -3.74968696     2.68347168
20MABNDL000196_PR012 0.00000000
   -2.73692989    -3.65924978     3.12319255
   -2.73857617    -3.63870382     3.12284684
   -2.73555851    -3.73269868     3.12389755
   -2.73726010    -3.79487872     3.12381029
   -2.73479104    -3.68438649     3.12351394
   -2.73766637    -3.80733585     3.12371421
20MABNDA000318_PR004 0.00000000
    2.61467648    -4.19698858     3.83353972
    2.61467075    -4.19698858     3.83353782
    2.61467147    -4.19698858     3.83353996
    2.61467099    -4.19698858     3.83354306
    2.61467123    -4.19698858     3.83354211
    2.61467028    -4.19698858     3.83354139
20MABNDA000334_PR005 0.00000000
    2.61686635    -4.19702816     5.89794064
    2.61686420    -4.19702816     5.89794254
    2.61686969    -4.19702816     5.89793777
    2.61686826    -4.19702816     5.89794254
    2.61685944    -4.19702816     5.89794016
    2.61686611    -4.19702816     5.89794111
20MABNDB000317_PR015 0.00000000
   -2.61096263    -4.19700384     3.83563352
   -2.61096311    -4.19700384     3.83562636
   -2.61096287    -4.19700384     3.83562875
   -2.61096478    -4.19700384     3.83562350
   -2.61095953    -4.19700384     3.83562970
   -2.61096215    -4.19700384     3.83562851
20MABNDB000146_PR016 0.00000000
   -2.61268282    -4.19702530     5.89854956
   -2.61268067    -4.19702530     5.89854622
   -2.61267996    -4.19702530     5.89855146
   -2.61267781    -4.19702530     5.89855099
   -2.61268139    -4.19702530     5.89854622
   -2.61267686    -4.19702530     5.89854622
20MABNDB000135_PR027 0.00000000
    2.60382676    -4.19700384    -3.82518053
    2.60382795    -4.19700384    -3.82517910
    2.60382485    -4.19700384    -3.82517982
    2.60382771    -4.19700384    -3.82517862
    2.60382891    -4.19700384    -3.82517433
    2.60382771    -4.19700384    -3.82517719
20MABNDB000126_PR028 0.00000000
    2.60538530    -4.19702053    -5.89338923
    2.60538459    -4.19702053    -5.89338827
    2.60538483    -4.19702053    -5.89338684
    2.60538697    -4.19702053    -5.89338779
    2.60538673    -4.19702053    -5.89338732
    2.60538936    -4.19702053    -5.89338923
20MABNDA000272_PR038 0.00000000
   -2.61125255    -4.19698238    -3.82689762
   -2.61125064    -4.19698238    -3.82689905
   -2.61125994    -4.19698238    -3.82689762
   -2.61125469    -4.19698238    -3.82689595
   -2.61125231    -4.19698238    -3.82688904
   -2.61125183    -4.19698238    -3.82689190
20MABNDA000003_PR039 0.00000000
   -2.61596560    -4.19702291    -5.89138412
   -2.61596489    -4.19702291    -5.89138460
   -2.61596537    -4.19702291    -5.89138412
   -2.61596465    -4.19702291    -5.89138174
   -2.61596394    -4.19702291    -5.89138269
   -2.61596394    -4.19702291    -5.89138269
20MABNDA000196_PR006 0.00000000
    2.58505630    -4.19496298     6.54835987
    2.58505464    -4.19496298     6.54836130
    2.58505774    -4.19496298     6.54836273
    2.58505678    -4.19496298     6.54836082
    2.58505654    -4.19496298     6.54836416
    2.58505654    -4.19496298     6.54836178
20MABNDA000324_PR007 0.00000000
    2.59423208    -4.13996601     6.94799423
    2.59423566    -4.13996601     6.94799471
    2.59422922    -4.13996601     6.94799709
    2.59423137    -4.13996601     6.94799471
    2.59423256    -4.13996601     6.94799376
    2.59423327    -4.13996601     6.94799471
20MABNDB000001_PR017 0.00000000
   -2.59765005    -4.19504976     6.53897762
   -2.59765339    -4.19504976     6.53897572
   -2.59765434    -4.19504976     6.53897810
   -2.59765220    -4.19504976     6.53897810
   -2.59765100    -4.19504976     6.53897905
   -2.59765339    -4.19504976     6.53898048
20MABNDB000260_PR019 0.00000000
   -2.60420465    -4.13995790     6.94255447
   -2.60420942    -4.13995790     6.94254303
   -2.60420012    -4.13995790     6.94256115
   -2.60421443    -4.13995790     6.94254637
   -2.60420847    -4.13995790     6.94255781
   -2.60420871    -4.13995790     6.94255352
20MABNDB000212_PR029 0.00000000
    2.59908438    -4.19500923    -6.54802465
    2.59908438    -4.19500923    -6.54801989
    2.59908485    -4.19500923    -6.54802036
    2.59908080    -4.19500923    -6.54801941
    2.59908342    -4.19500923    -6.54801846
    2.59908438    -4.19500923    -6.54802036
20MABNDB000128_PR030 0.00000000
    2.60943389    -4.14002943    -6.93106079
    2.60943103    -4.14002943    -6.93105459
    2.60943317    -4.14002943    -6.93106270
    2.60943890    -4.14002943    -6.93105745
    2.60943532    -4.14002943    -6.93105888
    2.60943985    -4.14002943    -6.93105459
20MABNDA000444_PR040 0.00000000
   -2.60535693    -4.19509602    -6.54069042
   -2.60535526    -4.19509602    -6.54068470
   -2.60535336    -4.19509602    -6.54069281
   -2.60535574    -4.19509602    -6.54069138
   -2.60535645    -4.19509602    -6.54069185
   -2.60535145    -4.19509602    -6.54069233
20MABNDA000053_PR041 0.00000000
   -2.59419918    -4.14012527    -6.92687416
   -2.59419847    -4.14012527    -6.92687893
   -2.59419870    -4.14012527    -6.92687654
   -2.59420514    -4.14012527    -6.92687941
   -2.59420252    -4.14012527    -6.92687273
   -2.59420156    -4.14012527    -6.92686892
20MABNDA000188_PR008 0.00000000
    3.56096697     3.84931064     8.07331848
    3.59097123     3.85026813     8.00480175
    3.54177952     3.84863997     8.10601807
    3.54177952     3.84863997     8.10601807
    3.54177952     3.84863997     8.10601807
    3.53887033     3.84879184     8.09919739
20MABNDA000188_PR018 0.00000000
    3.51847553    -4.07065296     7.90159130
    3.51847625    -4.07065296     7.90158796
    3.51847386    -4.07065296     7.90159082
    3.51847744    -4.07065296     7.90158796
    3.51847506    -4.07065296     7.90158987
    3.51847506    -4.07065296     7.90158892
20MABNDA000039_PR009 0.00000000
    3.87587237     3.64745784    12.94122028
    3.87587333     3.64745784    12.94119263
    3.87585568     3.64745808    12.94122505
    3.87588930     3.64745784    12.94118786
    3.87590241     3.64745784    12.94121456
    3.87584329     3.64745808    12.94120026
20MABNDA000039_PR011 0.00000000
    3.66460681    -3.92575884    12.88847351
    3.66460085    -3.92575860    12.88846970
    3.66460776    -3.92575884    12.88847542
    3.66460133    -3.92575860    12.88847637
    3.66460180    -3.92575860    12.88847923
    3.66460133    -3.92575860    12.88847446
20MABNDB000155_PR020 0.00000000
   -3.67444921     3.84890413     7.90310335
   -3.67440677     3.84890532     7.90310717
   -3.67439556     3.84890532     7.90311766
   -3.67443871     3.84890437     7.90310001
   -3.67443490     3.84890437     7.90310860
   -3.67443991     3.84890437     7.90309763
20MABNDB000155_PR022 0.00000000
   -3.53265738    -4.07044315     7.89556360
   -3.53265762    -4.07044315     7.89556122
   -3.53265667    -4.07044315     7.89556217
   -3.53265738    -4.07044315     7.89556408
   -3.53265643    -4.07044315     7.89556408
   -3.53265667    -4.07044315     7.89556170
20MABNDB000010_PR021 0.00000000
   -3.86147356     3.64768171    12.94116116
   -3.86147094     3.64768171    12.94118977
   -3.86144853     3.64768243    12.94112682
   -3.86151242     3.64768171    12.94112206
   -3.86148739     3.64768171    12.94112682
   -3.86150837     3.64768171    12.94110298
20MABNDB000010_PR023 0.00000000
   -3.68504477    -3.92555904    12.89005470
   -3.68505216    -3.92555904    12.89005566
   -3.68504643    -3.92555904    12.89006615
   -3.68504214    -3.92555904    12.89005470
   -3.68504882    -3.92555904    12.89005184
   -3.68504333    -3.92555904    12.89005280


*****************************************************************Rapport********************************************************************************** 
CAM-ECTC-US-IP_ECTC-US-IP-T    2015.08.10.03.44.41     3.68003787     3.84881227    -7.90392821     0.00003588     0.00000059     0.00003262 0.00000000 VRAI 
CAM-ECTC-US-IP_ECTC-US-IP      2015.08.10.03.44.41     3.53238988    -4.07045460    -7.88215951     0.00000046     0.00000000     0.00000091 0.00000000 VRAI 
CAM-ECTC-US-HO_ECTC-US-HO-T    2015.08.10.03.44.41     3.86924849     3.64755651   -12.94427763     0.00001155     0.00000039     0.00001995 0.00000000 VRAI 
CAM-ECTC-US-HO_ECTC-US-HO      2015.08.10.03.44.41     3.67396252    -3.92560554   -12.89501054     0.00000297     0.00000000     0.00000404 0.00000000 VRAI 
CAM-ECTC-USA-IP_ECTC-USA-IP-T  2015.08.10.03.44.41    -3.67399968     3.84925270    -7.90041426     0.00002655     0.00000000     0.00001240 0.00000000 VRAI 
CAM-ECTC-USA-IP_ECTC-USA-IP    2015.08.10.03.44.41    -3.52988022    -4.07030773    -7.87768194     0.00000066     0.00000000     0.00000157 0.00000000 VRAI 
CAM-ECTC-USA-HO_ECTC-USA-HO-T  2015.08.10.03.44.41    -3.86864022     3.64758031   -12.93627787     0.00002650     0.00000090     0.00000539 0.00000000 VRAI 
CAM-ECTC-USA-HO_ECTC-USA-HO    2015.08.10.03.44.41    -3.67577600    -3.92561984   -12.89118226     0.00000185     0.00000000     0.00000162 0.00000000 VRAI 
CAM-LBA-US_EBA-US-HO-H         2015.08.10.03.44.41     2.83559696    -3.69483125     6.48618793     0.00001134     0.00000275     0.00000000 0.00000000 VRAI 
CAM-LBA-US_JDA-US-H            2015.08.10.03.44.41     2.82027348    -3.73066632     6.67530537     0.00000706     0.00000133     0.00000000 0.00000000 VRAI 
CAM-LBA-US_CAM-LBC-US          2015.08.10.03.44.41     2.77959430    -3.81184721    -2.68907547     0.00000107     0.00000227     0.00000000 0.00000000 VRAI 
CAM-LBA-US_EBC-US-IP-H         2015.08.10.03.44.41     2.78538223    -3.78351804    -3.11732936     0.00000129     0.00000235     0.00000000 0.00000000 VRAI 
CAM-LBA-USA_EBA-USA-HO-H       2015.08.10.03.44.41    -2.86463821    -3.73416630     6.48601739     0.00001435     0.00001123     0.00000045 0.00000000 VRAI 
CAM-LBA-USA_JDA-USA-H          2015.08.10.03.44.41    -2.88395381    -3.67237461     7.43189573     0.00001203     0.00000559     0.00000000 0.00000000 VRAI 
CAM-LBA-USA_CAM-LBC-USA        2015.08.10.03.44.41    -2.75813806    -3.71803343    -2.71058941     0.00000215     0.00000279     0.00000000 0.00000000 VRAI 
CAM-LBA-USA_EBC-USA-IP-H       2015.08.10.03.44.41    -2.80533918    -3.69011843    -3.11714848     0.00004976     0.00000409     0.00000018 0.00000000 VRAI 
CAM-LBC-US_EBC-US-HO-H         2015.08.10.03.44.41     2.83240970    -3.76321129    -6.47925949     0.00000131     0.00000126     0.00000000 0.00000000 VRAI 
CAM-LBC-US_JDC-US-H            2015.08.10.03.44.41     2.83914038    -3.68731268    -6.67493629     0.00000166     0.00000268     0.00000000 0.00000000 VRAI 
CAM-LBC-US_CAM-LBA-US          2015.08.10.03.44.41     2.76893846    -3.68949131     2.69759035     0.00000141     0.00000202     0.00000000 0.00000000 VRAI 
CAM-LBC-US_EBA-US-IP-H         2015.08.10.03.44.41     2.84072757    -3.68425973     3.12405459     0.00010973     0.00004733     0.00000105 0.00000000 VRAI 
CAM-LBC-USA_EBC-USA-HO-H       2015.08.10.03.44.41    -2.84797557    -3.69340352    -6.47909729     0.00000802     0.00000422     0.00000018 0.00000000 VRAI 
CAM-LBC-USA_JDC-USA-H          2015.08.10.03.44.41    -2.82528675    -3.77015460    -6.67505884     0.00000245     0.00000438     0.00000000 0.00000000 VRAI 
CAM-LBC-USA_CAM-LBA-USA        2015.08.10.03.44.41    -2.81442618    -3.74968918     2.68347168     0.00000401     0.00000196     0.00000000 0.00000000 VRAI 
CAM-LBC-USA_EBA-USA-IP-H       2015.08.10.03.44.41    -2.73679701    -3.71954223     3.12349590     0.00127221     0.06450110     0.00037001 0.00000000 VRAI 
CAM-EBA-US-IP_EBA-US-IP        2015.08.10.03.44.41     2.61467187    -4.19698858     3.83354068     0.00000210     0.00000000     0.00000172 0.00000000 VRAI 
CAM-EBA-US-HO_EBA-US-HO        2015.08.10.03.44.41     2.61686567    -4.19702816     5.89794079     0.00000328     0.00000000     0.00000162 0.00000000 VRAI 
CAM-EBA-USA-IP_EBA-USA-IP      2015.08.10.03.44.41    -2.61096251    -4.19700384     3.83562839     0.00000156     0.00000000     0.00000306 0.00000000 VRAI 
CAM-EBA-USA-HO_EBA-USA-HO      2015.08.10.03.44.41    -2.61267992    -4.19702530     5.89854844     0.00000204     0.00000000     0.00000230 0.00000000 VRAI 
CAM-EBC-US-IP_EBC-US-IP        2015.08.10.03.44.41     2.60382732    -4.19700384    -3.82517827     0.00000127     0.00000000     0.00000204 0.00000000 VRAI 
CAM-EBC-US-HO_EBC-US-HO        2015.08.10.03.44.41     2.60538630    -4.19702053    -5.89338811     0.00000164     0.00000000     0.00000090 0.00000000 VRAI 
CAM-EBC-USA-IP_EBC-USA-IP      2015.08.10.03.44.41    -2.61125366    -4.19698238    -3.82689520     0.00000306     0.00000000     0.00000356 0.00000000 VRAI 
CAM-EBC-USA-HO_EBC-USA-HO      2015.08.10.03.44.41    -2.61596473    -4.19702291    -5.89138333     0.00000064     0.00000000     0.00000102 0.00000000 VRAI 
CAM-JDA-US-IP_JDA-US-IP        2015.08.10.03.44.41     2.58505642    -4.19496298     6.54836178     0.00000092     0.00000000     0.00000138 0.00000000 VRAI 
CAM-JDA-US-HO_JDA-US-HO        2015.08.10.03.44.41     2.59423236    -4.13996601     6.94799487     0.00000194     0.00000000     0.00000105 0.00000000 VRAI 
CAM-JDA-USA-IP_JDA-USA-IP      2015.08.10.03.44.41    -2.59765240    -4.19504976     6.53897818     0.00000149     0.00000000     0.00000144 0.00000000 VRAI 
CAM-JDA-USA-HO_JDA-USA-HO      2015.08.10.03.44.41    -2.60420763    -4.13995790     6.94255273     0.00000441     0.00000000     0.00000626 0.00000000 VRAI 
CAM-JDC-US-IP_JDC-US-IP        2015.08.10.03.44.41     2.59908370    -4.19500923    -6.54802052     0.00000137     0.00000000     0.00000196 0.00000000 VRAI 
CAM-JDC-US-HO_JDC-US-HO        2015.08.10.03.44.41     2.60943536    -4.14002943    -6.93105817     0.00000312     0.00000000     0.00000300 0.00000000 VRAI 
CAM-JDC-USA-IP_JDC-USA-IP      2015.08.10.03.44.41    -2.60535487    -4.19509602    -6.54069058     0.00000190     0.00000000     0.00000273 0.00000000 VRAI 
CAM-JDC-USA-HO_JDC-USA-HO      2015.08.10.03.44.41    -2.59420093    -4.14012527    -6.92687511     0.00000241     0.00000000     0.00000365 0.00000000 VRAI 
CAM-ECTA-US-IP_ECTA-US-IP-T    2015.08.10.03.44.41     3.55269118     3.84904842     8.08256197     0.01862820     0.00059481     0.03665014 0.00000000 VRAI 
CAM-ECTA-US-IP_ECTA-US-IP      2015.08.10.03.44.41     3.51847553    -4.07065296     7.90158947     0.00000111     0.00000000     0.00000130 0.00000000 VRAI 
CAM-ECTA-US-HO_ECTA-US-HO-T    2015.08.10.03.44.41     3.87587273     3.64745792    12.94120677     0.00001964     0.00000011     0.00001401 0.00000000 VRAI 
CAM-ECTA-US-HO_ECTA-US-HO      2015.08.10.03.44.41     3.66460331    -3.92575868    12.88847478     0.00000284     0.00000011     0.00000290 0.00000000 VRAI 
CAM-ECTA-USA-IP_ECTA-USA-IP-T  2015.08.10.03.44.41    -3.67442751     3.84890465     7.90310574     0.00001939     0.00000049     0.00000654 0.00000000 VRAI 
CAM-ECTA-USA-IP_ECTA-USA-IP    2015.08.10.03.44.41    -3.53265703    -4.07044315     7.89556281     0.00000045     0.00000000     0.00000116 0.00000000 VRAI 
CAM-ECTA-USA-HO_ECTA-USA-HO-T  2015.08.10.03.44.41    -3.86148353     3.64768183    12.94113827     0.00002217     0.00000027     0.00002871 0.00000000 VRAI 
CAM-ECTA-USA-HO_ECTA-USA-HO    2015.08.10.03.44.41    -3.68504628    -3.92555904    12.89005597     0.00000339     0.00000000     0.00000473 0.00000000 VRAI 
