********** Fichier qui contient une sauvegarde des coordonnees images + coordonnees images transformees dans le repere BCAM (MOUNT) + coordonnees des prismes dans le repere MOUNT********** 
********************************************************************** Unite en metres (m)************************************************************************************************** 

*******************************************************************coordonnees images dans le repere CCD *********************************************************************************** 
20MABNDM000168_PR025
Spot 1     0.00117638     0.00130418
Spot 2     0.00102303     0.00130430
Spot 1     0.00117663     0.00130423
Spot 2     0.00102303     0.00130445
Spot 1     0.00117642     0.00130432
Spot 2     0.00102297     0.00130423
Spot 1     0.00117654     0.00130428
Spot 2     0.00102310     0.00130444
Spot 1     0.00117650     0.00130407
Spot 2     0.00102302     0.00130415
20MABNDM000168_PR026
Spot 1     0.00266979     0.00142669
Spot 2     0.00250888     0.00142354
Spot 1     0.00266971     0.00142665
Spot 2     0.00250892     0.00142377
Spot 1     0.00266958     0.00142663
Spot 2     0.00250885     0.00142354
Spot 1     0.00266943     0.00142669
Spot 2     0.00250883     0.00142374
Spot 1     0.00266956     0.00142677
Spot 2     0.00250883     0.00142371
20MABNDM000168_20MABNDL000077
Spot 1     0.00153779     0.00129682
Spot 2     0.00175567     0.00130000
Spot 1     0.00153786     0.00129690
Spot 2     0.00175582     0.00129969
Spot 1     0.00153782     0.00129670
Spot 2     0.00175578     0.00129963
Spot 1     0.00153764     0.00129673
Spot 2     0.00175559     0.00129968
Spot 1     0.00153772     0.00129676
Spot 2     0.00175563     0.00129963
20MABNDM000168_PR001
Spot 1     0.00080724     0.00161989
Spot 2     0.00070429     0.00162412
Spot 1     0.00080720     0.00161989
Spot 2     0.00070446     0.00162398
Spot 1     0.00080713     0.00161955
Spot 2     0.00070445     0.00162395
Spot 1     0.00080708     0.00161955
Spot 2     0.00070447     0.00162388
Spot 1     0.00080743     0.00161978
Spot 2     0.00070489     0.00162405
20MABNDL000196_PR036
Spot 1     0.00095800     0.00164709
Spot 2     0.00112238     0.00164623
Spot 1     0.00095812     0.00164689
Spot 2     0.00112236     0.00164583
Spot 1     0.00095807     0.00164702
Spot 2     0.00112250     0.00164636
Spot 1     0.00095825     0.00164692
Spot 2     0.00112223     0.00164599
Spot 1     0.00095822     0.00164694
Spot 2     0.00112249     0.00164612
20MABNDL000196_PR037
Spot 1     0.00248126     0.00117438
Spot 2     0.00263665     0.00117297
Spot 1     0.00248150     0.00117460
Spot 2     0.00263679     0.00117299
Spot 1     0.00248170     0.00117459
Spot 2     0.00263672     0.00117288
Spot 1     0.00248170     0.00117438
Spot 2     0.00263670     0.00117285
Spot 1     0.00248152     0.00117470
Spot 2     0.00263668     0.00117282
20MABNDL000196_20MABNDM000020
Spot 1     0.00195243     0.00103217
Spot 2     0.00173071     0.00103242
Spot 1     0.00195221     0.00103221
Spot 2     0.00173062     0.00103241
Spot 1     0.00195208     0.00103219
Spot 2     0.00173058     0.00103230
Spot 1     0.00195221     0.00103224
Spot 2     0.00173075     0.00103228
Spot 1     0.00195222     0.00103242
Spot 2     0.00173065     0.00103227
20MABNDL000196_PR012
Spot 1     0.00304700     0.00006500
Spot 2     0.00304500     0.00006500
Spot 1     0.00304667     0.00006500
Spot 2     0.00304700     0.00006500
Spot 1     0.00073500     0.00047500
Spot 2     0.00073500     0.00047500
Spot 1     0.00073500     0.00047500
Spot 2     0.00304500     0.00006500
Spot 1     0.00073500     0.00047500
Spot 2     0.00304700     0.00006500
20MABNDL000077_PR002
Spot 1     0.00079376     0.00149637
Spot 2     0.00095574     0.00149709
Spot 1     0.00079373     0.00149670
Spot 2     0.00095570     0.00149740
Spot 1     0.00079379     0.00149674
Spot 2     0.00095574     0.00149709
Spot 1     0.00079377     0.00149690
Spot 2     0.00095581     0.00149690
Spot 1     0.00079369     0.00149698
Spot 2     0.00095585     0.00149620
20MABNDL000077_PR003
Spot 1     0.00152402     0.00119103
Spot 2     0.00167511     0.00119348
Spot 1     0.00152452     0.00119165
Spot 2     0.00167505     0.00119400
Spot 1     0.00152411     0.00119145
Spot 2     0.00167500     0.00119348
Spot 1     0.00152387     0.00119111
Spot 2     0.00167473     0.00119376
Spot 1     0.00152407     0.00119117
Spot 2     0.00167495     0.00119382
20MABNDL000077_20MABNDM000168
Spot 1     0.00188292     0.00148456
Spot 2     0.00169900     0.00151650
Spot 1     0.00188305     0.00148476
Spot 2     0.00169917     0.00151611
Spot 1     0.00188301     0.00148450
Spot 2     0.00169882     0.00151618
Spot 1     0.00188289     0.00148475
Spot 2     0.00169861     0.00151667
Spot 1     0.00188307     0.00148488
Spot 2     0.00169737     0.00151684
20MABNDL000077_PR024
Spot 1     0.00262637     0.00171471
Spot 2     0.00272885     0.00171851
Spot 1     0.00262689     0.00171430
Spot 2     0.00272843     0.00171870
Spot 1     0.00262640     0.00171471
Spot 2     0.00272855     0.00171882
Spot 1     0.00262646     0.00171478
Spot 2     0.00272876     0.00171873
Spot 1     0.00262640     0.00171494
Spot 2     0.00272864     0.00171885
20MABNDM000020_PR013
Spot 1     0.00164282     0.00213867
Spot 2     0.00149001     0.00214300
Spot 1     0.00164272     0.00213880
Spot 2     0.00148961     0.00214376
Spot 1     0.00164276     0.00213870
Spot 2     0.00148985     0.00214322
Spot 1     0.00164316     0.00213806
Spot 2     0.00148953     0.00214419
Spot 1     0.00164282     0.00213824
Spot 2     0.00149028     0.00214411
20MABNDM000020_PR014
Spot 1     0.00267893     0.00227798
Spot 2     0.00251667     0.00228533
Spot 1     0.00267922     0.00227787
Spot 2     0.00251699     0.00228540
Spot 1     0.00267901     0.00227862
Spot 2     0.00251692     0.00228559
Spot 1     0.00267931     0.00227816
Spot 2     0.00251768     0.00228539
Spot 1     0.00267881     0.00227874
Spot 2     0.00251670     0.00228460
20MABNDM000020_20MABNDL000196
Spot 1     0.00200078     0.00057651
Spot 2     0.00080500     0.00021500
Spot 1     0.00200084     0.00057650
Spot 2     0.00080500     0.00021500
Spot 1     0.00200088     0.00057649
Spot 2     0.00080500     0.00021500
Spot 1     0.00200093     0.00057654
Spot 2     0.00080500     0.00021500
Spot 1     0.00200058     0.00057647
Spot 2     0.00080500     0.00021500
20MABNDM000020_PR035
Spot 1     0.00126627     0.00087044
Spot 2     0.00119554     0.00090235
Spot 1     0.00126631     0.00087041
Spot 2     0.00119557     0.00090246
Spot 1     0.00126646     0.00087063
Spot 2     0.00119547     0.00090234
Spot 1     0.00126619     0.00087059
Spot 2     0.00119557     0.00090232
Spot 1     0.00126635     0.00087065
Spot 2     0.00119563     0.00090241
20MABNDB000069_PR031
Spot 1     0.00028338     0.00140433
Spot 2     0.00035451     0.00140441
Spot 1     0.00028255     0.00140423
Spot 2     0.00035339     0.00140443
Spot 1     0.00028249     0.00140405
Spot 2     0.00035483     0.00140440
Spot 1     0.00028302     0.00140390
Spot 2     0.00035342     0.00140421
Spot 1     0.00028290     0.00140430
Spot 2     0.00035325     0.00140450
20MABNDB000069_PR033
Spot 1     0.00182093     0.00207471
Spot 2     0.00229107     0.00209454
Spot 1     0.00182081     0.00207475
Spot 2     0.00229124     0.00209461
Spot 1     0.00182086     0.00207471
Spot 2     0.00229108     0.00209450
Spot 1     0.00182104     0.00207462
Spot 2     0.00229113     0.00209448
20MABNDB000131_PR032
Spot 1     0.00277944     0.00107324
Spot 2     0.00283994     0.00107666
Spot 1     0.00277945     0.00107339
Spot 2     0.00283971     0.00107678
Spot 1     0.00277958     0.00107329
Spot 2     0.00283990     0.00107671
Spot 1     0.00277970     0.00107322
Spot 2     0.00283976     0.00107654
20MABNDB000131_PR034
Spot 1     0.00093222     0.00032565
Spot 2     0.00110862     0.00032508
Spot 1     0.00093232     0.00032592
Spot 2     0.00110880     0.00032512
Spot 1     0.00093251     0.00032582
Spot 2     0.00110881     0.00032507
Spot 1     0.00093222     0.00032563
Spot 2     0.00110862     0.00032516
20MABNDA000208_PR042
Spot 1     0.00303952     0.00095885
Spot 2     0.00296897     0.00096154
Spot 1     0.00304115     0.00095892
Spot 2     0.00296912     0.00096133
Spot 1     0.00304032     0.00095835
Spot 2     0.00296948     0.00096148
Spot 1     0.00303970     0.00095890
Spot 2     0.00296935     0.00096167
20MABNDA000208_PR046
Spot 1     0.00143750     0.00217996
Spot 2     0.00096679     0.00218315
Spot 1     0.00143748     0.00217989
Spot 2     0.00096673     0.00218316
Spot 1     0.00143735     0.00217998
Spot 2     0.00096712     0.00218315
Spot 1     0.00143748     0.00218004
Spot 2     0.00096676     0.00218298
20MABNDA000035_PR044
Spot 1     0.00074216     0.00125524
Spot 2     0.00068601     0.00124994
Spot 1     0.00074193     0.00125541
Spot 2     0.00068589     0.00124985
Spot 1     0.00074223     0.00125504
Spot 2     0.00068594     0.00124974
Spot 1     0.00074265     0.00125528
Spot 2     0.00068579     0.00124995
20MABNDA000035_PR045
Spot 1     0.00255295     0.00048309
Spot 2     0.00237638     0.00048144
Spot 1     0.00255288     0.00048311
Spot 2     0.00237632     0.00048170
Spot 1     0.00255286     0.00048300
Spot 2     0.00237638     0.00048159
Spot 1     0.00255287     0.00048296
Spot 2     0.00237646     0.00048143
20MABNDA000318_PR004
Spot 1     0.00215144     0.00162530
Spot 2     0.00193380     0.00162536
Spot 1     0.00215155     0.00162566
Spot 2     0.00193361     0.00162557
Spot 1     0.00215117     0.00162516
Spot 2     0.00193405     0.00162582
Spot 1     0.00215144     0.00162571
Spot 2     0.00193377     0.00162572
20MABNDA000334_PR005
Spot 1     0.00247761     0.00156927
Spot 2     0.00219721     0.00156964
Spot 1     0.00247755     0.00156940
Spot 2     0.00219747     0.00156973
Spot 1     0.00247755     0.00156954
Spot 2     0.00219725     0.00156975
Spot 1     0.00247760     0.00156938
Spot 2     0.00219740     0.00156975
20MABNDB000317_PR015
Spot 1     0.00171114     0.00160186
Spot 2     0.00149256     0.00160768
Spot 1     0.00171160     0.00160154
Spot 2     0.00149187     0.00160790
Spot 1     0.00149225     0.00160773
Spot 2     0.00171114     0.00160167
Spot 1     0.00171129     0.00160158
Spot 2     0.00149235     0.00160790
20MABNDB000146_PR016
Spot 1     0.00144904     0.00132909
Spot 2     0.00172417     0.00133130
Spot 1     0.00144881     0.00132926
Spot 2     0.00172455     0.00133158
Spot 1     0.00144882     0.00132912
Spot 2     0.00172411     0.00133152
Spot 1     0.00144881     0.00132892
Spot 2     0.00172434     0.00133142
20MABNDB000135_PR027
Spot 1     0.00189064     0.00092133
Spot 2     0.00210929     0.00092374
Spot 1     0.00189056     0.00092107
Spot 2     0.00210931     0.00092362
Spot 1     0.00189052     0.00092140
Spot 2     0.00210908     0.00092351
Spot 1     0.00189064     0.00092119
Spot 2     0.00210909     0.00092386
20MABNDB000126_PR028
Spot 1     0.00165046     0.00200099
Spot 2     0.00193230     0.00200270
Spot 1     0.00165055     0.00200101
Spot 2     0.00193212     0.00200283
Spot 1     0.00165056     0.00200102
Spot 2     0.00193226     0.00200298
Spot 1     0.00165056     0.00200109
Spot 2     0.00193229     0.00200278
20MABNDA000272_PR038
Spot 1     0.00192586     0.00096992
Spot 2     0.00170361     0.00097016
Spot 1     0.00192594     0.00096978
Spot 2     0.00170343     0.00096988
Spot 1     0.00192578     0.00096997
Spot 2     0.00170361     0.00096967
Spot 1     0.00192582     0.00096989
Spot 2     0.00170341     0.00097000
20MABNDA000003_PR039
Spot 1     0.00200892     0.00192980
Spot 2     0.00228673     0.00192951
Spot 1     0.00200899     0.00192990
Spot 2     0.00228696     0.00192942
Spot 1     0.00200907     0.00192992
Spot 2     0.00228675     0.00192956
Spot 1     0.00200903     0.00192988
Spot 2     0.00228688     0.00192938
20MABNDA000196_PR006
Spot 1     0.00197536     0.00075161
Spot 2     0.00160684     0.00074829
Spot 1     0.00197550     0.00075167
Spot 2     0.00160676     0.00074833
Spot 1     0.00197540     0.00075163
Spot 2     0.00160688     0.00074843
Spot 1     0.00197551     0.00075165
Spot 2     0.00160690     0.00074837
20MABNDA000324_PR007
Spot 1     0.00195506     0.00120841
Spot 2     0.00174956     0.00121372
Spot 1     0.00195495     0.00120845
Spot 2     0.00174911     0.00121405
Spot 1     0.00195505     0.00120852
Spot 2     0.00174925     0.00121410
Spot 1     0.00195515     0.00120796
Spot 2     0.00174915     0.00121396
20MABNDB000001_PR017
Spot 1     0.00188151     0.00047548
Spot 2     0.00225256     0.00048500
Spot 1     0.00188155     0.00047545
Spot 2     0.00225250     0.00048510
Spot 1     0.00188161     0.00047515
Spot 2     0.00225253     0.00048521
Spot 1     0.00188149     0.00047545
Spot 2     0.00225242     0.00048500
20MABNDB000260_PR019
Spot 1     0.00192320     0.00149117
Spot 2     0.00212630     0.00149109
Spot 1     0.00192298     0.00149111
Spot 2     0.00212670     0.00149138
Spot 1     0.00192289     0.00149103
Spot 2     0.00212622     0.00149031
Spot 1     0.00192318     0.00149115
Spot 2     0.00212667     0.00149125
20MABNDB000212_PR029
Spot 1     0.00223773     0.00072692
Spot 2     0.00187167     0.00072736
Spot 1     0.00223800     0.00072717
Spot 2     0.00187146     0.00072703
Spot 1     0.00223801     0.00072694
Spot 2     0.00187084     0.00072682
Spot 1     0.00223768     0.00072715
Spot 2     0.00187146     0.00072728
20MABNDB000128_PR030
Spot 1     0.00190112     0.00200222
Spot 2     0.00210583     0.00199714
Spot 1     0.00190127     0.00200214
Spot 2     0.00210594     0.00199708
Spot 1     0.00190113     0.00200225
Spot 2     0.00210585     0.00199735
Spot 1     0.00190104     0.00200220
Spot 2     0.00210584     0.00199697
20MABNDA000444_PR040
Spot 1     0.00074888     0.00038071
Spot 2     0.00111544     0.00037647
Spot 1     0.00074895     0.00038080
Spot 2     0.00111551     0.00037718
Spot 1     0.00074882     0.00038080
Spot 2     0.00111566     0.00037684
Spot 1     0.00074882     0.00038097
Spot 2     0.00111530     0.00037667
20MABNDA000053_PR041
Spot 1     0.00166045     0.00198746
Spot 2     0.00145768     0.00198342
Spot 1     0.00166021     0.00198709
Spot 2     0.00145734     0.00198315
Spot 1     0.00166048     0.00198722
Spot 2     0.00145747     0.00198318
Spot 1     0.00166038     0.00198733
Spot 2     0.00145778     0.00198334
20MABNDA000188_PR008
Spot 1     0.00313500     0.00066500
Spot 2     0.00336500     0.00014500
Spot 1     0.00283500     0.00012500
Spot 2     0.00296500     0.00106500
Spot 1     0.00318500     0.00003500
Spot 2     0.00276500     0.00112500
Spot 1     0.00283500     0.00012500
Spot 2     0.00323250     0.00022500
20MABNDA000188_PR018
Spot 1     0.00166586     0.00169802
Spot 2     0.00119865     0.00169572
Spot 1     0.00166605     0.00169842
Spot 2     0.00119866     0.00169560
Spot 1     0.00166600     0.00169837
Spot 2     0.00119872     0.00169577
Spot 1     0.00166573     0.00169809
Spot 2     0.00119866     0.00169571
20MABNDA000039_PR009
Spot 1     0.00066389     0.00117970
Spot 2     0.00061674     0.00118381
Spot 1     0.00066362     0.00117973
Spot 2     0.00061702     0.00118381
Spot 1     0.00066355     0.00117986
Spot 2     0.00061693     0.00118360
Spot 1     0.00066345     0.00117961
Spot 2     0.00061674     0.00118395
20MABNDA000039_PR011
Spot 1     0.00276542     0.00030201
Spot 2     0.00259003     0.00029743
Spot 1     0.00276541     0.00030208
Spot 2     0.00259007     0.00029758
Spot 1     0.00276532     0.00030203
Spot 2     0.00258997     0.00029764
Spot 1     0.00276542     0.00030215
Spot 2     0.00259000     0.00029777
20MABNDB000155_PR020
Spot 1     0.00061879     0.00112113
Spot 2     0.00068435     0.00111727
Spot 1     0.00061877     0.00112089
Spot 2     0.00068400     0.00111720
Spot 1     0.00061859     0.00112120
Spot 2     0.00068438     0.00111727
Spot 1     0.00061839     0.00112118
Spot 2     0.00068485     0.00111716
20MABNDB000155_PR022
Spot 1     0.00209871     0.00131175
Spot 2     0.00257198     0.00130781
Spot 1     0.00209874     0.00131175
Spot 2     0.00257180     0.00130776
Spot 1     0.00209861     0.00131160
Spot 2     0.00257178     0.00130762
Spot 1     0.00209863     0.00131168
Spot 2     0.00257175     0.00130775
20MABNDB000010_PR021
Spot 1     0.00286842     0.00115982
Spot 2     0.00292277     0.00116273
Spot 1     0.00286827     0.00115990
Spot 2     0.00292289     0.00116285
Spot 1     0.00286866     0.00115998
Spot 2     0.00292265     0.00116316
Spot 1     0.00286832     0.00115998
Spot 2     0.00292284     0.00116296
20MABNDB000010_PR023
Spot 1     0.00130997     0.00034636
Spot 2     0.00148466     0.00034520
Spot 1     0.00130979     0.00034652
Spot 2     0.00148485     0.00034534
Spot 1     0.00130983     0.00034627
Spot 2     0.00148470     0.00034525
Spot 1     0.00130988     0.00034600
Spot 2     0.00148490     0.00034559


****************************************************************coordonnees images transformees dans le repere MOUNT************************************************************************* 
20MABNDM000168_PR025
Spot 1    -0.01322648    -0.03564137    -0.00532900
Spot 2    -0.01337983    -0.03564214    -0.00532900
Spot 1    -0.01322623    -0.03564141    -0.00532900
Spot 2    -0.01337983    -0.03564229    -0.00532900
Spot 1    -0.01322644    -0.03564151    -0.00532900
Spot 2    -0.01337989    -0.03564207    -0.00532900
Spot 1    -0.01322632    -0.03564146    -0.00532900
Spot 2    -0.01337976    -0.03564228    -0.00532900
Spot 1    -0.01322636    -0.03564126    -0.00532900
Spot 2    -0.01337984    -0.03564199    -0.00532900
20MABNDM000168_PR026
Spot 1    -0.01173256    -0.03575746    -0.00532900
Spot 2    -0.01189348    -0.03575500    -0.00532900
Spot 1    -0.01173264    -0.03575742    -0.00532900
Spot 2    -0.01189344    -0.03575523    -0.00532900
Spot 1    -0.01173277    -0.03575740    -0.00532900
Spot 2    -0.01189351    -0.03575500    -0.00532900
Spot 1    -0.01173292    -0.03575746    -0.00532900
Spot 2    -0.01189353    -0.03575520    -0.00532900
Spot 1    -0.01173279    -0.03575754    -0.00532900
Spot 2    -0.01189353    -0.03575517    -0.00532900
20MABNDM000168_20MABNDL000077
Spot 1     0.01288772    -0.03529751    -0.07445100
Spot 2     0.01266982    -0.03529750    -0.07445100
Spot 1     0.01288765    -0.03529759    -0.07445100
Spot 2     0.01266967    -0.03529719    -0.07445100
Spot 1     0.01288769    -0.03529739    -0.07445100
Spot 2     0.01266971    -0.03529713    -0.07445100
Spot 1     0.01288787    -0.03529742    -0.07445100
Spot 2     0.01266990    -0.03529718    -0.07445100
Spot 1     0.01288779    -0.03529745    -0.07445100
Spot 2     0.01266986    -0.03529713    -0.07445100
20MABNDM000168_PR001
Spot 1     0.01361346    -0.03563123    -0.07445100
Spot 2     0.01371634    -0.03563697    -0.07445100
Spot 1     0.01361350    -0.03563123    -0.07445100
Spot 2     0.01371617    -0.03563682    -0.07445100
Spot 1     0.01361358    -0.03563089    -0.07445100
Spot 2     0.01371618    -0.03563679    -0.07445100
Spot 1     0.01361363    -0.03563089    -0.07445100
Spot 2     0.01371616    -0.03563672    -0.07445100
Spot 1     0.01361328    -0.03563112    -0.07445100
Spot 2     0.01371574    -0.03563689    -0.07445100
20MABNDL000196_PR036
Spot 1     0.01193791     0.03583581    -0.07483600
Spot 2     0.01210229     0.03583529    -0.07483600
Spot 1     0.01193803     0.03583561    -0.07483600
Spot 2     0.01210227     0.03583489    -0.07483600
Spot 1     0.01193798     0.03583574    -0.07483600
Spot 2     0.01210241     0.03583543    -0.07483600
Spot 1     0.01193816     0.03583564    -0.07483600
Spot 2     0.01210214     0.03583505    -0.07483600
Spot 1     0.01193813     0.03583566    -0.07483600
Spot 2     0.01210240     0.03583519    -0.07483600
20MABNDL000196_PR037
Spot 1     0.01346215     0.03536628    -0.07483600
Spot 2     0.01361754     0.03536519    -0.07483600
Spot 1     0.01346239     0.03536650    -0.07483600
Spot 2     0.01361768     0.03536522    -0.07483600
Spot 1     0.01346259     0.03536649    -0.07483600
Spot 2     0.01361761     0.03536510    -0.07483600
Spot 1     0.01346259     0.03536628    -0.07483600
Spot 2     0.01361759     0.03536507    -0.07483600
Spot 1     0.01346241     0.03536660    -0.07483600
Spot 2     0.01361757     0.03536504    -0.07483600
20MABNDL000196_20MABNDM000020
Spot 1    -0.01277629     0.03530284    -0.00611000
Spot 2    -0.01255462     0.03530755    -0.00611000
Spot 1    -0.01277607     0.03530288    -0.00611000
Spot 2    -0.01255453     0.03530754    -0.00611000
Spot 1    -0.01277594     0.03530287    -0.00611000
Spot 2    -0.01255448     0.03530743    -0.00611000
Spot 1    -0.01277607     0.03530291    -0.00611000
Spot 2    -0.01255465     0.03530741    -0.00611000
Spot 1    -0.01277608     0.03530309    -0.00611000
Spot 2    -0.01255455     0.03530740    -0.00611000
20MABNDL000196_PR012
Spot 1    -0.01385118     0.03431384    -0.00611000
Spot 2    -0.01384918     0.03431388    -0.00611000
Spot 1    -0.01385085     0.03431385    -0.00611000
Spot 2    -0.01385118     0.03431384    -0.00611000
Spot 1    -0.01154789     0.03477028    -0.00611000
Spot 2    -0.01154789     0.03477028    -0.00611000
Spot 1    -0.01154789     0.03477028    -0.00611000
Spot 2    -0.01384918     0.03431388    -0.00611000
Spot 1    -0.01154789     0.03477028    -0.00611000
Spot 2    -0.01385118     0.03431384    -0.00611000
20MABNDL000077_PR002
Spot 1     0.01186405     0.03557185    -0.07463200
Spot 2     0.01202603     0.03557101    -0.07463200
Spot 1     0.01186402     0.03557218    -0.07463200
Spot 2     0.01202599     0.03557132    -0.07463200
Spot 1     0.01186408     0.03557222    -0.07463200
Spot 2     0.01202603     0.03557101    -0.07463200
Spot 1     0.01186406     0.03557238    -0.07463200
Spot 2     0.01202610     0.03557082    -0.07463200
Spot 1     0.01186399     0.03557246    -0.07463200
Spot 2     0.01202613     0.03557012    -0.07463200
20MABNDL000077_PR003
Spot 1     0.01259134     0.03525950    -0.07463200
Spot 2     0.01274244     0.03526049    -0.07463200
Spot 1     0.01259184     0.03526011    -0.07463200
Spot 2     0.01274239     0.03526101    -0.07463200
Spot 1     0.01259143     0.03525992    -0.07463200
Spot 2     0.01274233     0.03526049    -0.07463200
Spot 1     0.01259119     0.03525958    -0.07463200
Spot 2     0.01274207     0.03526078    -0.07463200
Spot 1     0.01259139     0.03525964    -0.07463200
Spot 2     0.01274229     0.03526083    -0.07463200
20MABNDL000077_20MABNDM000168
Spot 1    -0.01272113     0.03554624    -0.00695400
Spot 2    -0.01253755     0.03558006    -0.00695400
Spot 1    -0.01272126     0.03554644    -0.00695400
Spot 2    -0.01253771     0.03557967    -0.00695400
Spot 1    -0.01272122     0.03554618    -0.00695400
Spot 2    -0.01253736     0.03557974    -0.00695400
Spot 1    -0.01272110     0.03554643    -0.00695400
Spot 2    -0.01253716     0.03558024    -0.00695400
Spot 1    -0.01272128     0.03554656    -0.00695400
Spot 2    -0.01253592     0.03558042    -0.00695400
20MABNDL000077_PR024
Spot 1    -0.01346690     0.03576877    -0.00695400
Spot 2    -0.01356941     0.03577152    -0.00695400
Spot 1    -0.01346741     0.03576835    -0.00695400
Spot 2    -0.01356899     0.03577171    -0.00695400
Spot 1    -0.01346693     0.03576877    -0.00695400
Spot 2    -0.01356911     0.03577183    -0.00695400
Spot 1    -0.01346699     0.03576884    -0.00695400
Spot 2    -0.01356932     0.03577174    -0.00695400
Spot 1    -0.01346693     0.03576900    -0.00695400
Spot 2    -0.01356921     0.03577186    -0.00695400
20MABNDM000020_PR013
Spot 1    -0.01270260    -0.03609686    -0.00523500
Spot 2    -0.01285527    -0.03610456    -0.00523500
Spot 1    -0.01270269    -0.03609699    -0.00523500
Spot 2    -0.01285566    -0.03610533    -0.00523500
Spot 1    -0.01270266    -0.03609689    -0.00523500
Spot 2    -0.01285543    -0.03610479    -0.00523500
Spot 1    -0.01270227    -0.03609624    -0.00523500
Spot 2    -0.01285573    -0.03610576    -0.00523500
Spot 1    -0.01270261    -0.03609643    -0.00523500
Spot 2    -0.01285498    -0.03610567    -0.00523500
20MABNDM000020_PR014
Spot 1    -0.01166366    -0.03621322    -0.00523500
Spot 2    -0.01182572    -0.03622416    -0.00523500
Spot 1    -0.01166337    -0.03621310    -0.00523500
Spot 2    -0.01182540    -0.03622422    -0.00523500
Spot 1    -0.01166357    -0.03621386    -0.00523500
Spot 2    -0.01182546    -0.03622441    -0.00523500
Spot 1    -0.01166328    -0.03621339    -0.00523500
Spot 2    -0.01182471    -0.03622419    -0.00523500
Spot 1    -0.01166376    -0.03621398    -0.00523500
Spot 2    -0.01182570    -0.03622343    -0.00523500
20MABNDM000020_20MABNDL000196
Spot 1     0.01268541    -0.03454508    -0.07583800
Spot 2     0.01388114    -0.03418340    -0.07583800
Spot 1     0.01268535    -0.03454507    -0.07583800
Spot 2     0.01388114    -0.03418340    -0.07583800
Spot 1     0.01268531    -0.03454506    -0.07583800
Spot 2     0.01388114    -0.03418340    -0.07583800
Spot 1     0.01268526    -0.03454511    -0.07583800
Spot 2     0.01388114    -0.03418340    -0.07583800
Spot 1     0.01268561    -0.03454504    -0.07583800
Spot 2     0.01388114    -0.03418340    -0.07583800
20MABNDM000020_PR035
Spot 1     0.01341996    -0.03483890    -0.07583800
Spot 2     0.01349070    -0.03487081    -0.07583800
Spot 1     0.01341992    -0.03483887    -0.07583800
Spot 2     0.01349067    -0.03487092    -0.07583800
Spot 1     0.01341977    -0.03483909    -0.07583800
Spot 2     0.01349077    -0.03487080    -0.07583800
Spot 1     0.01342004    -0.03483905    -0.07583800
Spot 2     0.01349067    -0.03487078    -0.07583800
Spot 1     0.01341988    -0.03483911    -0.07583800
Spot 2     0.01349061    -0.03487087    -0.07583800
20MABNDB000069_PR031
Spot 1    -0.01359290    -0.01286330    -0.07388500
Spot 2    -0.01352183    -0.01286616    -0.07388500
Spot 1    -0.01359373    -0.01286337    -0.07388500
Spot 2    -0.01352295    -0.01286609    -0.07388500
Spot 1    -0.01359380    -0.01286355    -0.07388500
Spot 2    -0.01352151    -0.01286618    -0.07388500
Spot 1    -0.01359328    -0.01286372    -0.07388500
Spot 2    -0.01352293    -0.01286631    -0.07388500
Spot 1    -0.01359338    -0.01286331    -0.07388500
Spot 2    -0.01352308    -0.01286602    -0.07388500
20MABNDB000069_PR033
Spot 1    -0.01202900    -0.01225695    -0.07388500
Spot 2    -0.01155844    -0.01225653    -0.07388500
Spot 1    -0.01202911    -0.01225690    -0.07388500
Spot 2    -0.01155827    -0.01225647    -0.07388500
Spot 1    -0.01202907    -0.01225694    -0.07388500
Spot 2    -0.01155843    -0.01225657    -0.07388500
Spot 1    -0.01202889    -0.01225704    -0.07388500
Spot 2    -0.01155838    -0.01225660    -0.07388500
20MABNDB000131_PR032
Spot 1    -0.01144069    -0.01304150    -0.07533000
Spot 2    -0.01138021    -0.01303778    -0.07533000
Spot 1    -0.01144068    -0.01304135    -0.07533000
Spot 2    -0.01138044    -0.01303766    -0.07533000
Spot 1    -0.01144055    -0.01304145    -0.07533000
Spot 2    -0.01138025    -0.01303773    -0.07533000
Spot 1    -0.01144043    -0.01304152    -0.07533000
Spot 2    -0.01138038    -0.01303790    -0.07533000
20MABNDB000131_PR034
Spot 1    -0.01328412    -0.01379838    -0.07533000
Spot 2    -0.01310772    -0.01379806    -0.07533000
Spot 1    -0.01328402    -0.01379811    -0.07533000
Spot 2    -0.01310754    -0.01379802    -0.07533000
Spot 1    -0.01328383    -0.01379821    -0.07533000
Spot 2    -0.01310753    -0.01379807    -0.07533000
Spot 1    -0.01328412    -0.01379840    -0.07533000
Spot 2    -0.01310772    -0.01379798    -0.07533000
20MABNDA000208_PR042
Spot 1    -0.01391023     0.01303719    -0.07273700
Spot 2    -0.01383968     0.01303456    -0.07273700
Spot 1    -0.01391186     0.01303711    -0.07273700
Spot 2    -0.01383983     0.01303477    -0.07273700
Spot 1    -0.01391103     0.01303769    -0.07273700
Spot 2    -0.01384019     0.01303462    -0.07273700
Spot 1    -0.01391041     0.01303714    -0.07273700
Spot 2    -0.01384006     0.01303443    -0.07273700
20MABNDA000208_PR046
Spot 1    -0.01230714     0.01181748    -0.07273700
Spot 2    -0.01183643     0.01181470    -0.07273700
Spot 1    -0.01230712     0.01181755    -0.07273700
Spot 2    -0.01183637     0.01181469    -0.07273700
Spot 1    -0.01230699     0.01181746    -0.07273700
Spot 2    -0.01183676     0.01181470    -0.07273700
Spot 1    -0.01230712     0.01181740    -0.07273700
Spot 2    -0.01183640     0.01181487    -0.07273700
20MABNDA000035_PR044
Spot 1    -0.01157679     0.01300203    -0.07483200
Spot 2    -0.01152061     0.01300693    -0.07483200
Spot 1    -0.01157657     0.01300186    -0.07483200
Spot 2    -0.01152049     0.01300702    -0.07483200
Spot 1    -0.01157686     0.01300223    -0.07483200
Spot 2    -0.01152054     0.01300713    -0.07483200
Spot 1    -0.01157729     0.01300200    -0.07483200
Spot 2    -0.01152039     0.01300692    -0.07483200
20MABNDA000035_PR045
Spot 1    -0.01338205     0.01378705    -0.07483200
Spot 2    -0.01320547     0.01378744    -0.07483200
Spot 1    -0.01338198     0.01378703    -0.07483200
Spot 2    -0.01320541     0.01378718    -0.07483200
Spot 1    -0.01338196     0.01378714    -0.07483200
Spot 2    -0.01320547     0.01378729    -0.07483200
Spot 1    -0.01338197     0.01378718    -0.07483200
Spot 2    -0.01320555     0.01378745    -0.07483200
20MABNDA000318_PR004
Spot 1    -0.01287126     0.01246992    -0.07310600
Spot 2    -0.01265362     0.01247050    -0.07310600
Spot 1    -0.01287137     0.01246956    -0.07310600
Spot 2    -0.01265343     0.01247029    -0.07310600
Spot 1    -0.01287099     0.01247006    -0.07310600
Spot 2    -0.01265387     0.01247004    -0.07310600
Spot 1    -0.01287126     0.01246951    -0.07310600
Spot 2    -0.01265359     0.01247014    -0.07310600
20MABNDA000334_PR005
Spot 1    -0.01312071     0.01255913    -0.07324100
Spot 2    -0.01284031     0.01255849    -0.07324100
Spot 1    -0.01312065     0.01255900    -0.07324100
Spot 2    -0.01284057     0.01255840    -0.07324100
Spot 1    -0.01312065     0.01255886    -0.07324100
Spot 2    -0.01284035     0.01255838    -0.07324100
Spot 1    -0.01312070     0.01255902    -0.07324100
Spot 2    -0.01284050     0.01255838    -0.07324100
20MABNDB000317_PR015
Spot 1    -0.01244319    -0.01249358    -0.07326100
Spot 2    -0.01266182    -0.01249031    -0.07326100
Spot 1    -0.01244272    -0.01249390    -0.07326100
Spot 2    -0.01266251    -0.01249010    -0.07326100
Spot 1    -0.01266213    -0.01249026    -0.07326100
Spot 2    -0.01244319    -0.01249377    -0.07326100
Spot 1    -0.01244303    -0.01249386    -0.07326100
Spot 2    -0.01266203    -0.01249009    -0.07326100
20MABNDB000146_PR016
Spot 1    -0.01275931    -0.01246451    -0.07450500
Spot 2    -0.01248419    -0.01246169    -0.07450500
Spot 1    -0.01275954    -0.01246434    -0.07450500
Spot 2    -0.01248381    -0.01246141    -0.07450500
Spot 1    -0.01275953    -0.01246448    -0.07450500
Spot 2    -0.01248425    -0.01246147    -0.07450500
Spot 1    -0.01275954    -0.01246468    -0.07450500
Spot 2    -0.01248402    -0.01246157    -0.07450500
20MABNDB000135_PR027
Spot 1    -0.01251397    -0.01319169    -0.07464700
Spot 2    -0.01229531    -0.01319171    -0.07464700
Spot 1    -0.01251405    -0.01319195    -0.07464700
Spot 2    -0.01229529    -0.01319183    -0.07464700
Spot 1    -0.01251409    -0.01319162    -0.07464700
Spot 2    -0.01229552    -0.01319194    -0.07464700
Spot 1    -0.01251397    -0.01319183    -0.07464700
Spot 2    -0.01229551    -0.01319159    -0.07464700
20MABNDB000126_PR028
Spot 1    -0.01252903    -0.01218115    -0.07500400
Spot 2    -0.01224720    -0.01217794    -0.07500400
Spot 1    -0.01252894    -0.01218113    -0.07500400
Spot 2    -0.01224739    -0.01217781    -0.07500400
Spot 1    -0.01252893    -0.01218112    -0.07500400
Spot 2    -0.01224725    -0.01217766    -0.07500400
Spot 1    -0.01252893    -0.01218105    -0.07500400
Spot 2    -0.01224721    -0.01217786    -0.07500400
20MABNDA000272_PR038
Spot 1    -0.01276155     0.01314155    -0.07417900
Spot 2    -0.01253930     0.01314092    -0.07417900
Spot 1    -0.01276163     0.01314169    -0.07417900
Spot 2    -0.01253912     0.01314120    -0.07417900
Spot 1    -0.01276147     0.01314150    -0.07417900
Spot 2    -0.01253930     0.01314141    -0.07417900
Spot 1    -0.01276151     0.01314158    -0.07417900
Spot 2    -0.01253910     0.01314108    -0.07417900
20MABNDA000003_PR039
Spot 1    -0.01281001     0.01212249    -0.07373400
Spot 2    -0.01308782     0.01212348    -0.07373400
Spot 1    -0.01281008     0.01212239    -0.07373400
Spot 2    -0.01308805     0.01212357    -0.07373400
Spot 1    -0.01281016     0.01212237    -0.07373400
Spot 2    -0.01308784     0.01212343    -0.07373400
Spot 1    -0.01281012     0.01212241    -0.07373400
Spot 2    -0.01308797     0.01212361    -0.07373400
20MABNDA000196_PR006
Spot 1    -0.01293035     0.01322648    -0.07967100
Spot 2    -0.01256182     0.01322506    -0.07967100
Spot 1    -0.01293050     0.01322642    -0.07967100
Spot 2    -0.01256174     0.01322502    -0.07967100
Spot 1    -0.01293039     0.01322646    -0.07967100
Spot 2    -0.01256186     0.01322492    -0.07967100
Spot 1    -0.01293050     0.01322644    -0.07967100
Spot 2    -0.01256188     0.01322498    -0.07967100
20MABNDA000324_PR007
Spot 1    -0.01256080     0.01281311    -0.07446800
Spot 2    -0.01235527     0.01280940    -0.07446800
Spot 1    -0.01256069     0.01281307    -0.07446800
Spot 2    -0.01235481     0.01280908    -0.07446800
Spot 1    -0.01256079     0.01281300    -0.07446800
Spot 2    -0.01235495     0.01280902    -0.07446800
Spot 1    -0.01256090     0.01281356    -0.07446800
Spot 2    -0.01235485     0.01280916    -0.07446800
20MABNDB000001_PR017
Spot 1    -0.01230646    -0.01351399    -0.07418400
Spot 2    -0.01193533    -0.01350840    -0.07418400
Spot 1    -0.01230642    -0.01351402    -0.07418400
Spot 2    -0.01193539    -0.01350830    -0.07418400
Spot 1    -0.01230637    -0.01351432    -0.07418400
Spot 2    -0.01193536    -0.01350819    -0.07418400
Spot 1    -0.01230648    -0.01351402    -0.07418400
Spot 2    -0.01193547    -0.01350840    -0.07418400
20MABNDB000260_PR019
Spot 1    -0.01240790    -0.01241136    -0.07492700
Spot 2    -0.01220484    -0.01240727    -0.07492700
Spot 1    -0.01240812    -0.01241142    -0.07492700
Spot 2    -0.01220445    -0.01240698    -0.07492700
Spot 1    -0.01240821    -0.01241150    -0.07492700
Spot 2    -0.01220491    -0.01240805    -0.07492700
Spot 1    -0.01240792    -0.01241138    -0.07492700
Spot 2    -0.01220448    -0.01240711    -0.07492700
20MABNDB000212_PR029
Spot 1    -0.01184984    -0.01325439    -0.07390500
Spot 2    -0.01221587    -0.01325005    -0.07390500
Spot 1    -0.01184957    -0.01325415    -0.07390500
Spot 2    -0.01221609    -0.01325037    -0.07390500
Spot 1    -0.01184956    -0.01325438    -0.07390500
Spot 2    -0.01221671    -0.01325058    -0.07390500
Spot 1    -0.01184989    -0.01325416    -0.07390500
Spot 2    -0.01221608    -0.01325012    -0.07390500
20MABNDB000128_PR030
Spot 1    -0.01245401    -0.01221509    -0.07353400
Spot 2    -0.01224928    -0.01221947    -0.07353400
Spot 1    -0.01245386    -0.01221517    -0.07353400
Spot 2    -0.01224917    -0.01221952    -0.07353400
Spot 1    -0.01245400    -0.01221506    -0.07353400
Spot 2    -0.01224926    -0.01221926    -0.07353400
Spot 1    -0.01245409    -0.01221511    -0.07353400
Spot 2    -0.01224927    -0.01221964    -0.07353400
20MABNDA000444_PR040
Spot 1    -0.01168837     0.01364906    -0.07412000
Spot 2    -0.01205495     0.01364865    -0.07412000
Spot 1    -0.01168844     0.01364897    -0.07412000
Spot 2    -0.01205501     0.01364794    -0.07412000
Spot 1    -0.01168831     0.01364897    -0.07412000
Spot 2    -0.01205517     0.01364827    -0.07412000
Spot 1    -0.01168830     0.01364880    -0.07412000
Spot 2    -0.01205481     0.01364845    -0.07412000
20MABNDA000053_PR041
Spot 1    -0.01241705     0.01212314    -0.07430100
Spot 2    -0.01221424     0.01212322    -0.07430100
Spot 1    -0.01241680     0.01212351    -0.07430100
Spot 2    -0.01221389     0.01212349    -0.07430100
Spot 1    -0.01241707     0.01212339    -0.07430100
Spot 2    -0.01221402     0.01212346    -0.07430100
Spot 1    -0.01241698     0.01212327    -0.07430100
Spot 2    -0.01221434     0.01212331    -0.07430100
20MABNDA000188_PR008
Spot 1    -0.01415577     0.01340100    -0.07502000
Spot 2    -0.01438131     0.01392295    -0.07502000
Spot 1    -0.01385116     0.01393841    -0.07502000
Spot 2    -0.01398920     0.01299956    -0.07502000
Spot 1    -0.01420038     0.01403141    -0.07502000
Spot 2    -0.01378973     0.01293785    -0.07502000
Spot 1    -0.01385116     0.01393841    -0.07502000
Spot 2    -0.01424950     0.01384182    -0.07502000
20MABNDA000188_PR018
Spot 1    -0.01269553     0.01235544    -0.07502000
Spot 2    -0.01222832     0.01235374    -0.07502000
Spot 1    -0.01269573     0.01235504    -0.07502000
Spot 2    -0.01222833     0.01235386    -0.07502000
Spot 1    -0.01269568     0.01235509    -0.07502000
Spot 2    -0.01222839     0.01235369    -0.07502000
Spot 1    -0.01269540     0.01235537    -0.07502000
Spot 2    -0.01222833     0.01235375    -0.07502000
20MABNDA000039_PR009
Spot 1    -0.01162604     0.01306443    -0.07444800
Spot 2    -0.01157891     0.01306012    -0.07444800
Spot 1    -0.01162577     0.01306440    -0.07444800
Spot 2    -0.01157919     0.01306012    -0.07444800
Spot 1    -0.01162570     0.01306427    -0.07444800
Spot 2    -0.01157910     0.01306033    -0.07444800
Spot 1    -0.01162560     0.01306452    -0.07444800
Spot 2    -0.01157891     0.01305998    -0.07444800
20MABNDA000039_PR011
Spot 1    -0.01372375     0.01395121    -0.07444800
Spot 2    -0.01354834     0.01395503    -0.07444800
Spot 1    -0.01372374     0.01395114    -0.07444800
Spot 2    -0.01354838     0.01395488    -0.07444800
Spot 1    -0.01372365     0.01395119    -0.07444800
Spot 2    -0.01354828     0.01395482    -0.07444800
Spot 1    -0.01372375     0.01395107    -0.07444800
Spot 2    -0.01354831     0.01395469    -0.07444800
20MABNDB000155_PR020
Spot 1    -0.01364725    -0.01313625    -0.07501700
Spot 2    -0.01358164    -0.01313922    -0.07501700
Spot 1    -0.01364727    -0.01313649    -0.07501700
Spot 2    -0.01358199    -0.01313929    -0.07501700
Spot 1    -0.01364745    -0.01313619    -0.07501700
Spot 2    -0.01358161    -0.01313922    -0.07501700
Spot 1    -0.01364765    -0.01313621    -0.07501700
Spot 2    -0.01358114    -0.01313932    -0.07501700
20MABNDB000155_PR022
Spot 1    -0.01217008    -0.01292539    -0.07501700
Spot 2    -0.01169680    -0.01292285    -0.07501700
Spot 1    -0.01217005    -0.01292539    -0.07501700
Spot 2    -0.01169698    -0.01292291    -0.07501700
Spot 1    -0.01217018    -0.01292554    -0.07501700
Spot 2    -0.01169700    -0.01292305    -0.07501700
Spot 1    -0.01217016    -0.01292546    -0.07501700
Spot 2    -0.01169703    -0.01292292    -0.07501700
20MABNDB000010_PR021
Spot 1    -0.01158270    -0.01291870    -0.07358200
Spot 2    -0.01152841    -0.01291487    -0.07358200
Spot 1    -0.01158285    -0.01291862    -0.07358200
Spot 2    -0.01152829    -0.01291474    -0.07358200
Spot 1    -0.01158246    -0.01291853    -0.07358200
Spot 2    -0.01152854    -0.01291444    -0.07358200
Spot 1    -0.01158280    -0.01291854    -0.07358200
Spot 2    -0.01152834    -0.01291464    -0.07358200
20MABNDB000010_PR023
Spot 1    -0.01312715    -0.01375844    -0.07358200
Spot 2    -0.01295246    -0.01375664    -0.07358200
Spot 1    -0.01312733    -0.01375828    -0.07358200
Spot 2    -0.01295228    -0.01375650    -0.07358200
Spot 1    -0.01312729    -0.01375853    -0.07358200
Spot 2    -0.01295242    -0.01375659    -0.07358200
Spot 1    -0.01312723    -0.01375880    -0.07358200
Spot 2    -0.01295223    -0.01375625    -0.07358200


*****************************************************************coordonnees du prisme dans le repere MOUNT********************************************************************************** 
20MABNDM000168_PR025
    0.01797190    -0.02082831    -3.78863955
    0.01796569    -0.02082339    -3.78863955
    0.01797238    -0.02082657    -3.78863955
    0.01796618    -0.02082240    -3.78863955
    0.01796920    -0.02083475    -3.78863955
20MABNDM000168_PR026
   -0.05798472    -0.01406593    -3.98428965
   -0.05798370    -0.01406098    -3.98428965
   -0.05797847    -0.01406747    -3.98428965
   -0.05797407    -0.01406068    -3.98428965
   -0.05797746    -0.01405939    -3.98428965
20MABNDM000168_20MABNDL000077
    0.01133951    -0.03904645     5.38884640
    0.01134729    -0.03905483     5.38884640
    0.01134428    -0.03906413     5.38884640
    0.01133103    -0.03906106     5.38884640
    0.01133533    -0.03906184     5.38884640
20MABNDM000168_PR001
   -0.05747168    -0.01318704     5.81470346
   -0.05746672    -0.01319254     5.81470346
   -0.05747003    -0.01320684     5.81470346
   -0.05747123    -0.01320953     5.81470346
   -0.05744117    -0.01319446     5.81470394
20MABNDL000196_PR036
    0.05078333     0.00558040     3.68777466
    0.05078085     0.00559513     3.68777466
    0.05077866     0.00557892     3.68777466
    0.05078085     0.00559046     3.68777466
    0.05077522     0.00558677     3.68777466
20MABNDL000196_PR037
   -0.02578232     0.02825984     3.88380599
   -0.02579213     0.02825361     3.88380599
   -0.02579549     0.02825671     3.88380599
   -0.02579499     0.02826291     3.88380599
   -0.02578980     0.02825542     3.88380599
20MABNDL000196_20MABNDM000020
   -0.01382350     0.03877998    -5.47473907
   -0.01383461     0.03877869    -5.47473907
   -0.01384082     0.03878323    -5.47473907
   -0.01383002     0.03878237    -5.47473907
   -0.01383313     0.03877620    -5.47473907
20MABNDL000196_PR012
    0.07815692     0.11604337    -5.91451836
    0.07822178     0.11604466    -5.91451740
   -0.10077265     0.08057615    -5.91493988
   -0.01134260     0.09831737    -5.91544247
   -0.01126489     0.09831893    -5.91544247
20MABNDL000077_PR002
    0.04959715     0.02143887     3.70690870
    0.04959873     0.02142305     3.70690870
    0.04959632     0.02142974     3.70690870
    0.04959510     0.02143050     3.70690870
    0.04959624     0.02144580     3.70690894
20MABNDL000077_PR003
    0.01399993     0.03686455     3.89605379
    0.01398822     0.03683507     3.89605379
    0.01400035     0.03685364     3.89605379
    0.01401360     0.03685507     3.89605379
    0.01400267     0.03685206     3.89605379
20MABNDL000077_20MABNDM000168
   -0.01671248     0.01436834    -5.46871090
   -0.01670172     0.01437531    -5.46871090
   -0.01671588     0.01438203    -5.46871090
   -0.01672752     0.01435518    -5.46871090
   -0.01676569     0.01434396    -5.46871090
20MABNDL000077_PR024
    0.05226392    -0.00348995    -5.89622498
    0.05226773    -0.00348133    -5.89622498
    0.05225352    -0.00350214    -5.89622498
    0.05226404    -0.00350125    -5.89622498
    0.05225714    -0.00351224    -5.89622498
20MABNDM000020_PR013
   -0.00513575     0.01214838    -3.80216932
   -0.00512384     0.01217072    -3.80216908
   -0.00513043     0.01215470    -3.80216932
   -0.00513260     0.01216284    -3.80216932
   -0.00514282     0.01216510    -3.80216932
20MABNDM000020_PR014
   -0.06758558     0.03170563    -4.74799967
   -0.06760453     0.03170396    -4.74799871
   -0.06759645     0.03173339    -4.74799824
   -0.06762896     0.03171213    -4.74799824
   -0.06758280     0.03170665    -4.74799967
20MABNDM000020_20MABNDL000196
   -0.02603320    -0.08886063     5.39443207
   -0.02603105    -0.08886099     5.39443207
   -0.02602962    -0.08886135     5.39443207
   -0.02602783    -0.08885956     5.39443207
   -0.02604037    -0.08886208     5.39443207
20MABNDM000020_PR035
   -0.04221321    -0.05504707     5.80099869
   -0.04221051    -0.05504398     5.80099869
   -0.04220858    -0.05504013     5.80099869
   -0.04221513    -0.05504244     5.80099869
   -0.04220666    -0.05503666     5.80099869
20MABNDB000069_PR031
    0.10233663    -0.03863022     9.20356178
    0.10245630    -0.03863024     9.20355988
    0.10237227    -0.03861389     9.20356083
    0.10242707    -0.03859528     9.20356083
    0.10244307    -0.03863829     9.20355988
20MABNDB000069_PR033
   -0.02677259    -0.02704453     1.28393996
   -0.02677306    -0.02704545     1.28393996
   -0.02677206    -0.02704421     1.28393996
   -0.02677399    -0.02704319     1.28393996
20MABNDB000131_PR032
   -0.18835062    -0.02914193    11.00641632
   -0.18833445    -0.02916158    11.00641632
   -0.18835789    -0.02914928    11.00641632
   -0.18835652    -0.02913173    11.00641632
20MABNDB000131_PR034
    0.01395277     0.01643309     3.43338227
    0.01394642     0.01642599     3.43338227
    0.01394185     0.01642939     3.43338227
    0.01395277     0.01643172     3.43338227
20MABNDA000208_PR042
    0.12983412     0.01554359     9.20149040
    0.12994337     0.01553510     9.20148849
    0.12991455     0.01550929     9.20148849
    0.12986848     0.01555467     9.20149040
20MABNDA000208_PR046
   -0.02365363     0.03426176     1.28208613
   -0.02365432     0.03426124     1.28208613
   -0.02365210     0.03426193     1.28208613
   -0.02365406     0.03426099     1.28208613
20MABNDA000035_PR044
   -0.17934585     0.02649232    11.00803185
   -0.17937140     0.02649836    11.00803185
   -0.17934605     0.02646307    11.00803185
   -0.17932609     0.02649584    11.00803185
20MABNDA000035_PR045
    0.01496413    -0.01844454     3.43483877
    0.01496121    -0.01843813     3.43483877
    0.01496209    -0.01844316     3.43483877
    0.01496411    -0.01844774     3.43483877
20MABNDA000318_PR004
   -0.00824691     0.03836712     2.74965906
   -0.00824841     0.03837758     2.74965906
   -0.00824730     0.03837299     2.74965906
   -0.00824750     0.03838125     2.74965906
20MABNDA000334_PR005
   -0.00414464     0.03121152     2.14977551
   -0.00414178     0.03121466     2.14977503
   -0.00414492     0.03121695     2.14977503
   -0.00414206     0.03121466     2.14977503
20MABNDB000317_PR015
   -0.01752543    -0.03428635     2.75128794
   -0.01752126    -0.03428448     2.75128794
   -0.01751984    -0.03428373     2.75128794
   -0.01752434    -0.03428525     2.75128794
20MABNDB000146_PR016
   -0.01355835    -0.03169374     2.15201354
   -0.01356049    -0.03170022     2.15201354
   -0.01355432    -0.03169733     2.15201354
   -0.01355749    -0.03169302     2.15201354
20MABNDB000135_PR027
   -0.02100074    -0.01005981     2.74937153
   -0.02099957    -0.01005285     2.74937153
   -0.02099466    -0.01005694     2.74937153
   -0.02099707    -0.01005948     2.74937153
20MABNDB000126_PR028
   -0.02049669    -0.03873154     2.14679718
   -0.02049539    -0.03873367     2.14679718
   -0.02049752    -0.03873596     2.14679718
   -0.02049796    -0.03873411     2.14679718
20MABNDA000272_PR038
   -0.01314065     0.01150629     2.74965906
   -0.01314249     0.01149860     2.74965906
   -0.01314213     0.01149823     2.74965906
   -0.01314505     0.01150282     2.74965906
20MABNDA000003_PR039
   -0.00570600     0.04132663     2.14891386
   -0.00570171     0.04132676     2.14891386
   -0.00570357     0.04132905     2.14891338
   -0.00570229     0.04132590     2.14891386
20MABNDA000196_PR006
   -0.01065716     0.01041349     1.64206505
   -0.01065649     0.01041458     1.64206505
   -0.01065626     0.01041523     1.64206505
   -0.01065485     0.01041478     1.64206505
20MABNDA000324_PR007
   -0.02496847     0.02769993     2.95549369
   -0.02497954     0.02770713     2.95549369
   -0.02497484     0.02770953     2.95549369
   -0.02497473     0.02769575     2.95549369
20MABNDB000001_PR017
   -0.02405821    -0.00364771     1.64036512
   -0.02405800    -0.00364848     1.64036512
   -0.02405896    -0.00364639     1.64036512
   -0.02405646    -0.00364740     1.64036512
20MABNDB000260_PR019
   -0.02439085    -0.03789888     2.95627880
   -0.02439431    -0.03790348     2.95627880
   -0.02438355    -0.03788061     2.95627904
   -0.02439769    -0.03790178     2.95627880
20MABNDB000212_PR029
   -0.02543622    -0.00903810     1.64223909
   -0.02543687    -0.00903721     1.64223909
   -0.02543013    -0.00903246     1.64223909
   -0.02543339    -0.00903977     1.64223909
20MABNDB000128_PR030
   -0.01931663    -0.04685117     2.95496249
   -0.01932175    -0.04684844     2.95496249
   -0.01931721    -0.04685589     2.95496249
   -0.01931527    -0.04684743     2.95496249
20MABNDA000444_PR040
   -0.03017193     0.00147789     1.64491320
   -0.03017051     0.00148667     1.64491343
   -0.03017024     0.00148295     1.64491343
   -0.03017418     0.00148290     1.64491320
20MABNDA000053_PR041
   -0.02625358     0.05090920     2.95450783
   -0.02626520     0.05089686     2.95450783
   -0.02625729     0.05089985     2.95450783
   -0.02625307     0.05090507     2.95450783
20MABNDA000188_PR008
    0.18022625    -0.06080357     9.20274353
    0.13747776    -0.03711853     9.20370007
    0.14666697    -0.03903804     9.20353413
    0.15344341    -0.08881288     9.20299816
20MABNDA000188_PR018
   -0.01671823     0.02517096     1.28358722
   -0.01671650     0.02517334     1.28358722
   -0.01671641     0.02517437     1.28358722
   -0.01671926     0.02517148     1.28358722
20MABNDA000039_PR009
   -0.17115265     0.02554289    11.00701618
   -0.17115191     0.02554508    11.00701618
   -0.17116362     0.02553928    11.00701523
   -0.17118479     0.02554669    11.00701523
20MABNDA000039_PR011
    0.03066523    -0.02362286     3.43348217
    0.03066593    -0.02361785     3.43348217
    0.03066160    -0.02361760     3.43348217
    0.03066459    -0.02361191     3.43348217
20MABNDB000155_PR020
    0.10220981    -0.00787763     9.20028114
    0.10223225    -0.00785829     9.20028114
    0.10222030    -0.00788179     9.20028114
    0.10220362    -0.00787404     9.20028114
20MABNDB000155_PR022
   -0.02538951    -0.01604510     1.28071475
   -0.02538824    -0.01604466     1.28071475
   -0.02538699    -0.01604216     1.28071475
   -0.02538688    -0.01604396     1.28071475
20MABNDB000010_PR021
   -0.17606264    -0.03472951    11.00694656
   -0.17606017    -0.03474417    11.00694656
   -0.17607071    -0.03477302    11.00694561
   -0.17605996    -0.03475814    11.00694656
20MABNDB000010_PR023
    0.00444875     0.01872179     3.43378544
    0.00444864     0.01871491     3.43378544
    0.00445103     0.01872274     3.43378544
    0.00444533     0.01872104     3.43378544


*****************************************************************coordonnees du prisme dans le repere ATLAS********************************************************************************** 
20MABNDM000168_PR025 0.00000000
    2.83240843    -3.76330113    -6.47925854
    2.83241343    -3.76329494    -6.47925854
    2.83241034    -3.76330161    -6.47925854
    2.83241439    -3.76329541    -6.47925854
    2.83240199    -3.76329851    -6.47925854
20MABNDM000168_PR026 0.00000000
    2.83917904    -3.68741918    -6.67493725
    2.83918405    -3.68742013    -6.67493725
    2.83917761    -3.68742537    -6.67493725
    2.83918428    -3.68742967    -6.67493725
    2.83918571    -3.68742633    -6.67493725
20MABNDM000168_20MABNDL000077 0.00000000
    2.81474900    -3.75325155     2.69822550
    2.81474066    -3.75325942     2.69822550
    2.81473136    -3.75325632     2.69822550
    2.81473446    -3.75324297     2.69822550
    2.81473374    -3.75324726     2.69822550
20MABNDM000168_PR001 0.00000000
    2.84065247    -3.68428874     3.12405539
    2.84064698    -3.68429375     3.12405539
    2.84063268    -3.68429041     3.12405539
    2.84063005    -3.68428922     3.12405539
    2.84064507    -3.68431926     3.12405586
20MABNDL000196_PR036 0.00000000
   -2.84802675    -3.69349122    -6.47909784
   -2.84801221    -3.69349384    -6.47909784
   -2.84802842    -3.69349599    -6.47909784
   -2.84801674    -3.69349384    -6.47909784
   -2.84802055    -3.69349933    -6.47909784
20MABNDL000196_PR037 0.00000000
   -2.82531595    -3.77022862    -6.67505836
   -2.82532215    -3.77023864    -6.67505836
   -2.82531905    -3.77024198    -6.67505836
   -2.82531285    -3.77024150    -6.67505836
   -2.82532048    -3.77023625    -6.67505836
20MABNDL000196_20MABNDM000020 0.00000000
   -2.81459928    -3.74955964     2.68347168
   -2.81460047    -3.74957085     2.68347168
   -2.81459594    -3.74957705     2.68347168
   -2.81459689    -3.74956632     2.68347168
   -2.81460309    -3.74956942     2.68347168
20MABNDL000196_PR012 0.00000000
   -2.73736906    -3.65713429     3.12316346
   -2.73736787    -3.65706944     3.12316251
   -2.77275324    -3.83607984     3.12375212
   -2.75505352    -3.74664116     3.12417126
   -2.75505185    -3.74656343     3.12417126
20MABNDL000077_PR002 0.00000000
    2.83560205    -3.69491982     6.48618889
    2.83561778    -3.69491816     6.48618889
    2.83561110    -3.69492054     6.48618889
    2.83561039    -3.69492197     6.48618889
    2.83559513    -3.69492078     6.48618937
20MABNDL000077_PR003 0.00000000
    2.82035041    -3.73074555     6.67530489
    2.82037997    -3.73075724     6.67530489
    2.82036138    -3.73074508     6.67530489
    2.82035995    -3.73073173     6.67530489
    2.82036304    -3.73074269     6.67530489
20MABNDL000077_20MABNDM000168 0.00000000
    2.83365130    -3.74991083    -2.68950796
    2.83364439    -3.74990010    -2.68950796
    2.83363748    -3.74991417    -2.68950796
    2.83366442    -3.74992585    -2.68950796
    2.83367562    -3.74996400    -2.68950796
20MABNDL000077_PR024 0.00000000
    2.85111213    -3.68041277    -3.11695385
    2.85110354    -3.68040895    -3.11695385
    2.85112429    -3.68042302    -3.11695385
    2.85112357    -3.68041253    -3.11695385
    2.85113454    -3.68041945    -3.11695385
20MABNDM000020_PR013 0.00000000
   -2.86445737    -3.73433876     6.48601913
   -2.86447978    -3.73435068     6.48601866
   -2.86446381    -3.73434401     6.48601913
   -2.86447191    -3.73434186     6.48601913
   -2.86447406    -3.73433161     6.48601913
20MABNDM000020_PR014 0.00000000
   -2.88380623    -3.67260242     7.43190050
   -2.88380456    -3.67258334     7.43189955
   -2.88383389    -3.67259145     7.43189907
   -2.88381267    -3.67255902     7.43189907
   -2.88380718    -3.67260504     7.43190050
20MABNDM000020_20MABNDL000196 0.00000000
   -2.76528239    -3.70647788    -2.71058393
   -2.76528192    -3.70648003    -2.71058393
   -2.76528168    -3.70648146    -2.71058393
   -2.76528358    -3.70648336    -2.71058393
   -2.76528096    -3.70647073    -2.71058393
20MABNDM000020_PR035 0.00000000
   -2.79917240    -3.68997836    -3.11713123
   -2.79917550    -3.68998098    -3.11713123
   -2.79917932    -3.68998289    -3.11713123
   -2.79917693    -3.68997645    -3.11713123
   -2.79918265    -3.68998480    -3.11713123
20MABNDB000069_PR031 0.00000000
    3.68405318     3.84875560    -7.90177250
    3.68417287     3.84875321    -7.90177250
    3.68408895     3.84875441    -7.90178871
    3.68414378     3.84875417    -7.90180731
    3.68415976     3.84875345    -7.90176439
20MABNDB000069_PR033 0.00000000
    3.53352690    -4.07046270    -7.87862682
    3.53352642    -4.07046270    -7.87862587
    3.53352737    -4.07046270    -7.87862730
    3.53352547    -4.07046270    -7.87862825
20MABNDB000131_PR032 0.00000000
    3.86915326     3.64756703   -12.93978500
    3.86913705     3.64756703   -12.93980408
    3.86916041     3.64756703   -12.93979263
    3.86915922     3.64756703   -12.93977451
20MABNDB000131_PR034 0.00000000
    3.67383647    -3.92563391   -12.89151478
    3.67384291    -3.92563391   -12.89152145
    3.67384744    -3.92563391   -12.89151859
    3.67383647    -3.92563391   -12.89151573
20MABNDA000208_PR042 0.00000000
   -3.67991281     3.84916902    -7.89594126
   -3.68002200     3.84916711    -7.89594984
   -3.67999315     3.84916711    -7.89597559
   -3.67994714     3.84916902    -7.89593029
20MABNDA000208_PR046 0.00000000
   -3.53211164    -4.07033634    -7.87425661
   -3.53211093    -4.07033634    -7.87425709
   -3.53211308    -4.07033634    -7.87425613
   -3.53211117    -4.07033634    -7.87425709
20MABNDA000035_PR044 0.00000000
   -3.86858678     3.64758682   -12.93217182
   -3.86861229     3.64758682   -12.93217754
   -3.86858702     3.64758682   -12.93214226
   -3.86856699     3.64758682   -12.93217468
20MABNDA000035_PR045 0.00000000
   -3.67576432    -3.92564845   -12.88793945
   -3.67576718    -3.92564845   -12.88794613
   -3.67576647    -3.92564845   -12.88794136
   -3.67576432    -3.92564845   -12.88793659
20MABNDA000318_PR004 0.00000000
    2.61475635    -4.19698906     3.83363152
    2.61475492    -4.19698858     3.83362103
    2.61475587    -4.19698858     3.83362556
    2.61475563    -4.19698858     3.83361745
20MABNDA000334_PR005 0.00000000
    2.61685395    -4.19702721     5.89804935
    2.61685681    -4.19702768     5.89804602
    2.61685371    -4.19702768     5.89804411
    2.61685658    -4.19702768     5.89804602
20MABNDB000317_PR015 0.00000000
   -2.61108184    -4.19700384     3.83572912
   -2.61108589    -4.19700384     3.83573103
   -2.61108732    -4.19700384     3.83573174
   -2.61108279    -4.19700384     3.83573031
20MABNDB000146_PR016 0.00000000
   -2.61273694    -4.19702435     5.89865637
   -2.61273479    -4.19702435     5.89865017
   -2.61274099    -4.19702435     5.89865303
   -2.61273766    -4.19702435     5.89865732
20MABNDB000135_PR027 0.00000000
    2.60386252    -4.19700384    -3.82530093
    2.60386372    -4.19700384    -3.82530808
    2.60386848    -4.19700384    -3.82530403
    2.60386610    -4.19700384    -3.82530141
20MABNDB000126_PR028 0.00000000
    2.60542035    -4.19702005    -5.89348841
    2.60542178    -4.19702005    -5.89348602
    2.60541964    -4.19702005    -5.89348364
    2.60541916    -4.19702005    -5.89348555
20MABNDA000272_PR038 0.00000000
   -2.61139607    -4.19698238    -3.82697797
   -2.61139417    -4.19698238    -3.82698584
   -2.61139464    -4.19698238    -3.82698607
   -2.61139178    -4.19698238    -3.82698154
20MABNDA000003_PR039 0.00000000
   -2.61602521    -4.19702244    -5.89143991
   -2.61602950    -4.19702244    -5.89143991
   -2.61602759    -4.19702291    -5.89143753
   -2.61602879    -4.19702244    -5.89144087
20MABNDA000196_PR006 0.00000000
    2.58511758    -4.19496298     6.54836988
    2.58511710    -4.19496298     6.54837132
    2.58511686    -4.19496298     6.54837179
    2.58511543    -4.19496298     6.54837132
20MABNDA000324_PR007 0.00000000
    2.59434628    -4.13996410     6.94821501
    2.59433532    -4.13996410     6.94820786
    2.59433985    -4.13996410     6.94820547
    2.59434009    -4.13996410     6.94821930
20MABNDB000001_PR017 0.00000000
   -2.59775972    -4.19505024     6.53897572
   -2.59775949    -4.19505024     6.53897667
   -2.59776044    -4.19505024     6.53897429
   -2.59775805    -4.19505024     6.53897572
20MABNDB000260_PR019 0.00000000
   -2.60437131    -4.13995600     6.94274521
   -2.60436773    -4.13995600     6.94274044
   -2.60437846    -4.13995552     6.94276333
   -2.60436440    -4.13995600     6.94274235
20MABNDB000212_PR029 0.00000000
    2.59911394    -4.19500971    -6.54802608
    2.59911466    -4.19500971    -6.54802513
    2.59910798    -4.19500971    -6.54802036
    2.59911108    -4.19500971    -6.54802752
20MABNDB000128_PR030 0.00000000
    2.60954213    -4.14002752    -6.93127012
    2.60953689    -4.14002752    -6.93127251
    2.60954142    -4.14002752    -6.93126535
    2.60954356    -4.14002752    -6.93127346
20MABNDA000444_PR040 0.00000000
   -2.60534453    -4.19509649    -6.54065800
   -2.60534310    -4.19509602    -6.54066706
   -2.60534286    -4.19509602    -6.54066324
   -2.60534668    -4.19509649    -6.54066324
20MABNDA000053_PR041 0.00000000
   -2.59428835    -4.14012337    -6.92700434
   -2.59427667    -4.14012337    -6.92701674
   -2.59428453    -4.14012337    -6.92701387
   -2.59428883    -4.14012337    -6.92700863
20MABNDA000188_PR008 0.00000000
    3.59351230     3.84920311     8.07284927
    3.55111313     3.84976673     8.04853249
    3.56027412     3.84972048     8.05058861
    3.56631303     3.84873843     8.10045147
20MABNDA000188_PR018 0.00000000
    3.52040911    -4.07060719     7.89826965
    3.52041078    -4.07060719     7.89826727
    3.52041078    -4.07060671     7.89826632
    3.52040792    -4.07060719     7.89826918
20MABNDA000039_PR009 0.00000000
    3.87532473     3.64747429    12.93683720
    3.87532377     3.64747429    12.93683910
    3.87533569     3.64747334    12.93683338
    3.87535667     3.64747334    12.93684101
20MABNDA000039_PR011 0.00000000
    3.66435885    -3.92579412    12.88521385
    3.66435814    -3.92579412    12.88521862
    3.66436243    -3.92579412    12.88521862
    3.66435933    -3.92579412    12.88522434
20MABNDB000155_PR020 0.00000000
   -3.68086243     3.84881425     7.89898968
   -3.68088484     3.84881401     7.89900875
   -3.68087292     3.84881401     7.89898539
   -3.68085623     3.84881425     7.89899302
20MABNDB000155_PR022 0.00000000
   -3.53459144    -4.07043028     7.89201403
   -3.53459287    -4.07043028     7.89201450
   -3.53459406    -4.07043028     7.89201689
   -3.53459406    -4.07043028     7.89201498
20MABNDB000010_PR021 0.00000000
   -3.86189890     3.64768434    12.93655872
   -3.86189651     3.64768434    12.93657398
   -3.86190701     3.64768338    12.93660259
   -3.86189628     3.64768434    12.93658733
20MABNDB000010_PR023 0.00000000
   -3.68521619    -3.92559052    12.88655376
   -3.68521643    -3.92559052    12.88656044
   -3.68521404    -3.92559052    12.88655281
   -3.68521976    -3.92559052    12.88655472


*****************************************************************Rapport********************************************************************************** 
CAM-LBC-US_EBC-US-HO-H         2015.10.14.23.35.56     2.83240972    -3.76329832    -6.47925854     0.00000441     0.00000278     0.00000000 0.00000000 VRAI 
CAM-LBC-US_JDC-US-H            2015.10.14.23.35.56     2.83918214    -3.68742414    -6.67493725     0.00000320     0.00000394     0.00000000 0.00000000 VRAI 
CAM-LBC-US_CAM-LBA-US          2015.10.14.23.35.56     2.81473784    -3.75325150     2.69822550     0.00000637     0.00000594     0.00000000 0.00000000 VRAI 
CAM-LBC-US_EBA-US-IP-H         2015.10.14.23.35.56     2.84064145    -3.68429627     3.12405548     0.00000862     0.00001162     0.00000019 0.00000000 VRAI 
CAM-LBC-USA_EBC-USA-HO-H       2015.10.14.23.35.56    -2.84802094    -3.69349484    -6.47909784     0.00000606     0.00000270     0.00000000 0.00000000 VRAI 
CAM-LBC-USA_JDC-USA-H          2015.10.14.23.35.56    -2.82531810    -3.77023740    -6.67505836     0.00000332     0.00000485     0.00000000 0.00000000 VRAI 
CAM-LBC-USA_CAM-LBA-USA        2015.10.14.23.35.56    -2.81459913    -3.74956865     2.68347168     0.00000256     0.00000570     0.00000000 0.00000000 VRAI 
CAM-LBC-USA_EBA-USA-IP-H       2015.10.14.23.35.56    -2.75151911    -3.72869763     3.12368412     0.01323890     0.06696865     0.00045219 0.00000000 VRAI 
CAM-LBA-US_EBA-US-HO-H         2015.10.14.23.35.56     2.83560729    -3.69492025     6.48618898     0.00000787     0.00000126     0.00000019 0.00000000 VRAI 
CAM-LBA-US_JDA-US-H            2015.10.14.23.35.56     2.82036295    -3.73074446     6.67530489     0.00000958     0.00000813     0.00000000 0.00000000 VRAI 
CAM-LBA-US_CAM-LBC-US          2015.10.14.23.35.56     2.83365464    -3.74992299    -2.68950796     0.00001376     0.00002209     0.00000000 0.00000000 VRAI 
CAM-LBA-US_EBC-US-IP-H         2015.10.14.23.35.56     2.85111961    -3.68041534    -3.11695385     0.00001072     0.00000512     0.00000000 0.00000000 VRAI 
CAM-LBA-USA_EBA-USA-HO-H       2015.10.14.23.35.56    -2.86446939    -3.73434138     6.48601904     0.00000790     0.00000626     0.00000019 0.00000000 VRAI 
CAM-LBA-USA_JDA-USA-H          2015.10.14.23.35.56    -2.88381290    -3.67258825     7.43189974     0.00001084     0.00001656     0.00000065 0.00000000 VRAI 
CAM-LBA-USA_CAM-LBC-USA        2015.10.14.23.35.56    -2.76528211    -3.70647869    -2.71058393     0.00000087     0.00000437     0.00000000 0.00000000 VRAI 
CAM-LBA-USA_EBC-USA-IP-H       2015.10.14.23.35.56    -2.79917736    -3.68998070    -3.11713123     0.00000347     0.00000301     0.00000000 0.00000000 VRAI 
CAM-ECTC-US-IP_ECTC-US-IP-T    2015.10.14.23.35.56     3.68412371     3.84875417    -7.90178108     0.00004539     0.00000084     0.00001531 0.00000000 VRAI 
CAM-ECTC-US-IP_ECTC-US-IP      2015.10.14.23.35.56     3.53352654    -4.07046270    -7.87862706     0.00000071     0.00000000     0.00000086 0.00000000 VRAI 
CAM-ECTC-US-HO_ECTC-US-HO-T    2015.10.14.23.35.56     3.86915249     3.64756703   -12.93978906     0.00000932     0.00000000     0.00001080 0.00000000 VRAI 
CAM-ECTC-US-HO_ECTC-US-HO      2015.10.14.23.35.56     3.67384082    -3.92563391   -12.89151764     0.00000464     0.00000000     0.00000261 0.00000000 VRAI 
CAM-ECTC-USA-IP_ECTC-USA-IP-T  2015.10.14.23.35.56    -3.67996877     3.84916806    -7.89594924     0.00004192     0.00000095     0.00001671 0.00000000 VRAI 
CAM-ECTC-USA-IP_ECTC-USA-IP    2015.10.14.23.35.56    -3.53211170    -4.07033634    -7.87425673     0.00000083     0.00000000     0.00000040 0.00000000 VRAI 
CAM-ECTC-USA-HO_ECTC-USA-HO-T  2015.10.14.23.35.56    -3.86858827     3.64758682   -12.93216658     0.00001607     0.00000000     0.00001419 0.00000000 VRAI 
CAM-ECTC-USA-HO_ECTC-USA-HO    2015.10.14.23.35.56    -3.67576557    -3.92564845   -12.88794088     0.00000128     0.00000000     0.00000347 0.00000000 VRAI 
CAM-EBA-US-IP_EBA-US-IP        2015.10.14.23.35.56     2.61475569    -4.19698870     3.83362389     0.00000052     0.00000021     0.00000526 0.00000000 VRAI 
CAM-EBA-US-HO_EBA-US-HO        2015.10.14.23.35.56     2.61685526    -4.19702756     5.89804637     0.00000144     0.00000021     0.00000189 0.00000000 VRAI 
CAM-EBA-USA-IP_EBA-USA-IP      2015.10.14.23.35.56    -2.61108446    -4.19700384     3.83573055     0.00000223     0.00000000     0.00000097 0.00000000 VRAI 
CAM-EBA-USA-HO_EBA-USA-HO      2015.10.14.23.35.56    -2.61273760    -4.19702435     5.89865422     0.00000223     0.00000000     0.00000283 0.00000000 VRAI 
CAM-EBC-US-IP_EBC-US-IP        2015.10.14.23.35.56     2.60386521    -4.19700384    -3.82530361     0.00000229     0.00000000     0.00000284 0.00000000 VRAI 
CAM-EBC-US-HO_EBC-US-HO        2015.10.14.23.35.56     2.60542023    -4.19702005    -5.89348590     0.00000099     0.00000000     0.00000170 0.00000000 VRAI 
CAM-EBC-USA-IP_EBC-USA-IP      2015.10.14.23.35.56    -2.61139417    -4.19698238    -3.82698286     0.00000155     0.00000000     0.00000335 0.00000000 VRAI 
CAM-EBC-USA-HO_EBC-USA-HO      2015.10.14.23.35.56    -2.61602777    -4.19702256    -5.89143956     0.00000163     0.00000021     0.00000123 0.00000000 VRAI 
CAM-JDA-US-IP_JDA-US-IP        2015.10.14.23.35.56     2.58511674    -4.19496298     6.54837108     0.00000080     0.00000000     0.00000072 0.00000000 VRAI 
CAM-JDA-US-HO_JDA-US-HO        2015.10.14.23.35.56     2.59434038    -4.13996410     6.94821191     0.00000390     0.00000000     0.00000552 0.00000000 VRAI 
CAM-JDA-USA-IP_JDA-USA-IP      2015.10.14.23.35.56    -2.59775943    -4.19505024     6.53897560     0.00000087     0.00000000     0.00000085 0.00000000 VRAI 
CAM-JDA-USA-HO_JDA-USA-HO      2015.10.14.23.35.56    -2.60437047    -4.13995588     6.94274783     0.00000522     0.00000021     0.00000911 0.00000000 VRAI 
CAM-JDC-US-IP_JDC-US-IP        2015.10.14.23.35.56     2.59911191    -4.19500971    -6.54802477     0.00000264     0.00000000     0.00000268 0.00000000 VRAI 
CAM-JDC-US-HO_JDC-US-HO        2015.10.14.23.35.56     2.60954100    -4.14002752    -6.93127036     0.00000250     0.00000000     0.00000314 0.00000000 VRAI 
CAM-JDC-USA-IP_JDC-USA-IP      2015.10.14.23.35.56    -2.60534430    -4.19509625    -6.54066288     0.00000152     0.00000024     0.00000322 0.00000000 VRAI 
CAM-JDC-USA-HO_JDC-USA-HO      2015.10.14.23.35.56    -2.59428459    -4.14012337    -6.92701089     0.00000487     0.00000000     0.00000477 0.00000000 VRAI 
CAM-ECTA-US-IP_ECTA-US-IP-T    2015.10.14.23.35.56     3.56780314     3.84935719     8.06810546     0.01579892     0.00042021     0.02096849 0.00000000 VRAI 
CAM-ECTA-US-IP_ECTA-US-IP      2015.10.14.23.35.56     3.52040964    -4.07060707     7.89826810     0.00000121     0.00000021     0.00000136 0.00000000 VRAI 
CAM-ECTA-US-HO_ECTA-US-HO-T    2015.10.14.23.35.56     3.87533522     3.64747381    12.93683767     0.00001324     0.00000048     0.00000282 0.00000000 VRAI 
CAM-ECTA-US-HO_ECTA-US-HO      2015.10.14.23.35.56     3.66435969    -3.92579412    12.88521886     0.00000164     0.00000000     0.00000372 0.00000000 VRAI 
CAM-ECTA-USA-IP_ECTA-USA-IP-T  2015.10.14.23.35.56    -3.68086910     3.84881413     7.89899421     0.00001087     0.00000012     0.00000882 0.00000000 VRAI 
CAM-ECTA-USA-IP_ECTA-USA-IP    2015.10.14.23.35.56    -3.53459311    -4.07043028     7.89201510     0.00000108     0.00000000     0.00000109 0.00000000 VRAI 
CAM-ECTA-USA-HO_ECTA-USA-HO-T  2015.10.14.23.35.56    -3.86189967     3.64768410    12.93658066     0.00000436     0.00000041     0.00001621 0.00000000 VRAI 
CAM-ECTA-USA-HO_ECTA-USA-HO    2015.10.14.23.35.56    -3.68521661    -3.92559052    12.88655543     0.00000205     0.00000000     0.00000297 0.00000000 VRAI 
