********** Fichier qui contient une sauvegarde des coordonnees images + coordonnees images transformees dans le repere BCAM (MOUNT) + coordonnees des prismes dans le repere MOUNT********** 
********************************************************************** Unite en metres (m)************************************************************************************************** 

*******************************************************************coordonnees images dans le repere CCD *********************************************************************************** 
20MABNDB000069_PR031
Spot 1     0.00032083     0.00138151
Spot 2     0.00037244     0.00139113
Spot 1     0.00032043     0.00138275
Spot 2     0.00037036     0.00138961
Spot 1     0.00032099     0.00138276
Spot 2     0.00037064     0.00138980
Spot 1     0.00032101     0.00138164
Spot 2     0.00037150     0.00139040
Spot 1     0.00032194     0.00138236
Spot 2     0.00037178     0.00139056
20MABNDB000069_PR033
Spot 1     0.00191609     0.00182276
Spot 2     0.00238494     0.00184189
Spot 1     0.00191571     0.00182279
Spot 2     0.00238478     0.00184205
Spot 1     0.00191574     0.00182290
Spot 2     0.00238475     0.00184213
Spot 1     0.00191582     0.00182291
Spot 2     0.00238472     0.00184211
Spot 1     0.00191577     0.00182299
Spot 2     0.00238479     0.00184203
20MABNDB000131_PR032
Spot 1     0.00277968     0.00111164
Spot 2     0.00283897     0.00111632
Spot 1     0.00277965     0.00111139
Spot 2     0.00283833     0.00111633
Spot 1     0.00277962     0.00111158
Spot 2     0.00283848     0.00111595
Spot 1     0.00277968     0.00111168
Spot 2     0.00283819     0.00111643
Spot 1     0.00277932     0.00111184
Spot 2     0.00283849     0.00111629
20MABNDB000131_PR034
Spot 1     0.00093246     0.00042234
Spot 2     0.00110860     0.00042316
Spot 1     0.00093249     0.00042237
Spot 2     0.00110867     0.00042330
Spot 1     0.00093244     0.00042252
Spot 2     0.00110860     0.00042320
Spot 1     0.00093255     0.00042243
Spot 2     0.00110857     0.00042326
Spot 1     0.00093250     0.00042230
Spot 2     0.00110864     0.00042336
20MABNDA000208_PR042
Spot 1     0.00300158     0.00090351
Spot 2     0.00293131     0.00090748
Spot 1     0.00300144     0.00090263
Spot 2     0.00293135     0.00090717
Spot 1     0.00300303     0.00090343
Spot 2     0.00293077     0.00090799
Spot 1     0.00300175     0.00090304
Spot 2     0.00293531     0.00090588
Spot 1     0.00300095     0.00090334
Spot 2     0.00293478     0.00090555
20MABNDA000208_PR046
Spot 1     0.00132466     0.00191328
Spot 2     0.00085223     0.00191610
Spot 1     0.00132465     0.00191316
Spot 2     0.00085235     0.00191629
Spot 1     0.00132461     0.00191324
Spot 2     0.00085207     0.00191644
Spot 1     0.00132470     0.00191321
Spot 2     0.00085132     0.00191679
Spot 1     0.00132458     0.00191326
Spot 2     0.00085111     0.00191683
20MABNDA000035_PR044
Spot 1     0.00074085     0.00129478
Spot 2     0.00068656     0.00128894
Spot 1     0.00074081     0.00129487
Spot 2     0.00068660     0.00128879
Spot 1     0.00074042     0.00129485
Spot 2     0.00068694     0.00128897
Spot 1     0.00074066     0.00129491
Spot 2     0.00068654     0.00128903
Spot 1     0.00074074     0.00129513
Spot 2     0.00068651     0.00128886
20MABNDA000035_PR045
Spot 1     0.00254845     0.00058034
Spot 2     0.00237194     0.00057873
Spot 1     0.00254855     0.00058054
Spot 2     0.00237213     0.00057887
Spot 1     0.00254832     0.00058050
Spot 2     0.00237194     0.00057871
Spot 1     0.00254852     0.00058068
Spot 2     0.00237195     0.00057890
Spot 1     0.00254855     0.00058038
Spot 2     0.00237196     0.00057881
20MABNDL000077_PR002
Spot 1     0.00079469     0.00149625
Spot 2     0.00095671     0.00149738
Spot 1     0.00079474     0.00149642
Spot 2     0.00095632     0.00149800
Spot 1     0.00079497     0.00149659
Spot 2     0.00095638     0.00149738
Spot 1     0.00079418     0.00149675
Spot 2     0.00095647     0.00149703
Spot 1     0.00079429     0.00149686
Spot 2     0.00095636     0.00149676
20MABNDL000077_PR003
Spot 1     0.00152357     0.00119005
Spot 2     0.00167410     0.00119220
Spot 1     0.00152355     0.00119020
Spot 2     0.00167393     0.00119236
Spot 1     0.00152340     0.00119030
Spot 2     0.00167376     0.00119236
Spot 1     0.00152343     0.00119029
Spot 2     0.00167392     0.00119247
Spot 1     0.00152339     0.00119033
Spot 2     0.00167386     0.00119267
20MABNDL000077_20MABNDM000168
Spot 1     0.00188370     0.00148357
Spot 2     0.00204500     0.00205500
Spot 1     0.00188384     0.00148384
Spot 2     0.00204500     0.00205500
Spot 1     0.00188370     0.00148389
Spot 2     0.00204500     0.00205500
Spot 1     0.00188382     0.00148399
Spot 2     0.00204500     0.00205500
Spot 1     0.00188392     0.00148399
Spot 2     0.00204500     0.00205500
20MABNDL000077_PR024
Spot 1     0.00262958     0.00171281
Spot 2     0.00272989     0.00171759
Spot 1     0.00262887     0.00171339
Spot 2     0.00273003     0.00171785
Spot 1     0.00262932     0.00171446
Spot 2     0.00273013     0.00171779
Spot 1     0.00262934     0.00171331
Spot 2     0.00273008     0.00171801
20MABNDM000020_PR013
Spot 1     0.00164414     0.00214177
Spot 2     0.00149088     0.00214613
Spot 1     0.00164436     0.00214144
Spot 2     0.00149102     0.00214668
Spot 1     0.00164427     0.00214176
Spot 2     0.00149107     0.00214590
Spot 1     0.00164420     0.00214113
Spot 2     0.00149120     0.00214695
20MABNDM000020_PR014
Spot 1     0.00267883     0.00227907
Spot 2     0.00251670     0.00228746
Spot 1     0.00267816     0.00227990
Spot 2     0.00251691     0.00228713
Spot 1     0.00267842     0.00228042
Spot 2     0.00251713     0.00228707
Spot 1     0.00267807     0.00228119
Spot 2     0.00251690     0.00228792
20MABNDM000020_20MABNDL000196
Spot 1     0.00200076     0.00057869
Spot 2     0.00080500     0.00021500
Spot 1     0.00200064     0.00057870
Spot 2     0.00080500     0.00021500
Spot 1     0.00200068     0.00057850
Spot 2     0.00080500     0.00021500
Spot 1     0.00200049     0.00057872
Spot 2     0.00080500     0.00021500
20MABNDM000020_PR035
Spot 1     0.00126158     0.00086950
Spot 2     0.00119234     0.00090542
Spot 1     0.00126148     0.00086928
Spot 2     0.00119232     0.00090517
Spot 1     0.00126143     0.00086940
Spot 2     0.00119221     0.00090514
Spot 1     0.00126154     0.00086910
Spot 2     0.00119213     0.00090500
20MABNDA000188_PR008
Spot 1     0.00283500     0.00012500
Spot 2     0.00330700     0.00005500
Spot 1     0.00283500     0.00012500
Spot 2     0.00330100     0.00005100
Spot 1     0.00272100     0.00017300
Spot 2     0.00279500     0.00010500
Spot 1     0.00271750     0.00017250
Spot 2     0.00283500     0.00012250
20MABNDA000188_PR018
Spot 1     0.00154722     0.00153959
Spot 2     0.00108053     0.00153708
Spot 1     0.00154718     0.00153981
Spot 2     0.00108046     0.00153732
Spot 1     0.00154718     0.00153976
Spot 2     0.00108048     0.00153716
Spot 1     0.00154711     0.00153966
Spot 2     0.00108067     0.00153716
20MABNDA000039_PR009
Spot 1     0.00066175     0.00120618
Spot 2     0.00061397     0.00121070
Spot 1     0.00066185     0.00120672
Spot 2     0.00061418     0.00121057
Spot 1     0.00066162     0.00120667
Spot 2     0.00061420     0.00121047
Spot 1     0.00066183     0.00120639
Spot 2     0.00061406     0.00121058
20MABNDA000039_PR011
Spot 1     0.00276151     0.00035942
Spot 2     0.00258668     0.00035529
Spot 1     0.00276152     0.00035940
Spot 2     0.00258664     0.00035532
Spot 1     0.00276140     0.00035944
Spot 2     0.00258674     0.00035524
Spot 1     0.00276153     0.00035941
Spot 2     0.00258672     0.00035527
20MABNDB000155_PR020
Spot 1     0.00067113     0.00108975
Spot 2     0.00073313     0.00108687
Spot 1     0.00067098     0.00108966
Spot 2     0.00073353     0.00108647
Spot 1     0.00067102     0.00109011
Spot 2     0.00073323     0.00108655
Spot 1     0.00067157     0.00109041
Spot 2     0.00073333     0.00108662
20MABNDB000155_PR022
Spot 1     0.00220430     0.00114095
Spot 2     0.00267688     0.00113693
Spot 1     0.00220430     0.00114102
Spot 2     0.00267720     0.00113683
Spot 1     0.00220409     0.00114096
Spot 2     0.00267714     0.00113682
Spot 1     0.00220414     0.00114091
Spot 2     0.00267708     0.00113690
20MABNDB000010_PR021
Spot 1     0.00286495     0.00118709
Spot 2     0.00291728     0.00118980
Spot 1     0.00286496     0.00118731
Spot 2     0.00291738     0.00118946
Spot 1     0.00286472     0.00118702
Spot 2     0.00291704     0.00118963
Spot 1     0.00286435     0.00118673
Spot 2     0.00291724     0.00118978
20MABNDB000010_PR023
Spot 1     0.00130840     0.00040769
Spot 2     0.00148247     0.00040615
Spot 1     0.00130838     0.00040742
Spot 2     0.00148317     0.00040611
Spot 1     0.00130849     0.00040767
Spot 2     0.00148247     0.00040621
Spot 1     0.00130825     0.00040765
Spot 2     0.00148260     0.00040595
20MABNDB000212_PR029
Spot 1     0.00225773     0.00072183
Spot 2     0.00189162     0.00072148
Spot 1     0.00225766     0.00072171
Spot 2     0.00189185     0.00072130
Spot 1     0.00225776     0.00072162
Spot 2     0.00189214     0.00072129
Spot 1     0.00225769     0.00072175
Spot 2     0.00189196     0.00072123
20MABNDB000128_PR030
Spot 1     0.00189005     0.00201168
Spot 2     0.00209392     0.00200675
Spot 1     0.00189005     0.00201178
Spot 2     0.00209395     0.00200683
Spot 1     0.00189002     0.00201187
Spot 2     0.00209411     0.00200693
Spot 1     0.00188995     0.00201189
Spot 2     0.00209421     0.00200679
20MABNDA000444_PR040
Spot 1     0.00078295     0.00037114
Spot 2     0.00114875     0.00037031
Spot 1     0.00078286     0.00037087
Spot 2     0.00114823     0.00037048
Spot 1     0.00078274     0.00037089
Spot 2     0.00114817     0.00037033
Spot 1     0.00078274     0.00037113
Spot 2     0.00114844     0.00037057
20MABNDA000053_PR041
Spot 1     0.00164158     0.00199599
Spot 2     0.00143939     0.00199355
Spot 1     0.00164162     0.00199616
Spot 2     0.00143936     0.00199367
Spot 1     0.00164161     0.00199595
Spot 2     0.00143953     0.00199339
Spot 1     0.00164136     0.00199582
Spot 2     0.00143915     0.00199326
20MABNDA000196_PR006
Spot 1     0.00198876     0.00075773
Spot 2     0.00162366     0.00075311
Spot 1     0.00198885     0.00075785
Spot 2     0.00162349     0.00075285
Spot 1     0.00198865     0.00075801
Spot 2     0.00162340     0.00075296
Spot 1     0.00198864     0.00075802
Spot 2     0.00162333     0.00075324
20MABNDA000324_PR007
Spot 1     0.00194827     0.00121080
Spot 2     0.00174287     0.00121665
Spot 1     0.00194845     0.00121081
Spot 2     0.00174289     0.00121651
Spot 1     0.00194837     0.00121063
Spot 2     0.00174286     0.00121660
Spot 1     0.00194838     0.00121059
Spot 2     0.00174286     0.00121676
20MABNDB000001_PR017
Spot 1     0.00187916     0.00047051
Spot 2     0.00224686     0.00048129
Spot 1     0.00187936     0.00047050
Spot 2     0.00224694     0.00048127
Spot 1     0.00187929     0.00047055
Spot 2     0.00224709     0.00048067
Spot 1     0.00187925     0.00047053
Spot 2     0.00224717     0.00048109
20MABNDB000260_PR019
Spot 1     0.00192628     0.00149989
Spot 2     0.00213000     0.00149929
Spot 1     0.00192626     0.00149935
Spot 2     0.00213000     0.00149941
Spot 1     0.00192650     0.00149969
Spot 2     0.00212926     0.00149985
Spot 1     0.00192597     0.00150000
Spot 2     0.00212941     0.00149941
20MABNDB000135_PR027
Spot 1     0.00189370     0.00092525
Spot 2     0.00211210     0.00092838
Spot 1     0.00189372     0.00092541
Spot 2     0.00211214     0.00092833
Spot 1     0.00189387     0.00092549
Spot 2     0.00211218     0.00092842
Spot 1     0.00189379     0.00092545
Spot 2     0.00211201     0.00092847
20MABNDB000126_PR028
Spot 1     0.00164709     0.00200485
Spot 2     0.00192823     0.00200740
Spot 1     0.00164695     0.00200463
Spot 2     0.00192835     0.00200739
Spot 1     0.00164711     0.00200479
Spot 2     0.00192828     0.00200743
Spot 1     0.00164707     0.00200475
Spot 2     0.00192816     0.00200751
20MABNDA000272_PR038
Spot 1     0.00191916     0.00096487
Spot 2     0.00169723     0.00096357
Spot 1     0.00191909     0.00096513
Spot 2     0.00169671     0.00096428
Spot 1     0.00191919     0.00096539
Spot 2     0.00169712     0.00096394
Spot 1     0.00191910     0.00096505
Spot 2     0.00169730     0.00096392
20MABNDA000003_PR039
Spot 1     0.00199871     0.00192440
Spot 2     0.00227574     0.00192440
Spot 1     0.00199865     0.00192413
Spot 2     0.00227576     0.00192459
Spot 1     0.00199862     0.00192439
Spot 2     0.00227569     0.00192531
Spot 1     0.00199828     0.00192424
Spot 2     0.00227603     0.00192455
20MABNDA000318_PR004
Spot 1     0.00214385     0.00163286
Spot 2     0.00192645     0.00163362
Spot 1     0.00214358     0.00163270
Spot 2     0.00192633     0.00163339
Spot 1     0.00214347     0.00163255
Spot 2     0.00192633     0.00163374
Spot 1     0.00214366     0.00163240
Spot 2     0.00192641     0.00163366
20MABNDA000334_PR005
Spot 1     0.00247329     0.00158210
Spot 2     0.00219309     0.00158258
Spot 1     0.00247338     0.00158212
Spot 2     0.00219289     0.00158270
Spot 1     0.00247356     0.00158207
Spot 2     0.00219305     0.00158265
Spot 1     0.00247314     0.00158219
Spot 2     0.00219296     0.00158272
20MABNDB000317_PR015
Spot 1     0.00149237     0.00160947
Spot 2     0.00171234     0.00160278
Spot 1     0.00149237     0.00160961
Spot 2     0.00171212     0.00160308
Spot 1     0.00149219     0.00160963
Spot 2     0.00171184     0.00160307
Spot 1     0.00149239     0.00160973
Spot 2     0.00171188     0.00160289
20MABNDB000146_PR016
Spot 1     0.00145037     0.00133477
Spot 2     0.00172603     0.00133718
Spot 1     0.00145050     0.00133476
Spot 2     0.00172606     0.00133752
Spot 1     0.00145050     0.00133481
Spot 2     0.00172612     0.00133737
Spot 1     0.00145055     0.00133453
Spot 2     0.00172600     0.00133740
20MABNDM000168_PR025
Spot 1     0.00105500     0.00031500
Spot 2     0.00105500     0.00031500
Spot 1     0.00105500     0.00031500
Spot 2     0.00105500     0.00031500
Spot 1     0.00105500     0.00031500
Spot 2     0.00105500     0.00031500
Spot 1     0.00105500     0.00031500
Spot 2     0.00105500     0.00031500
20MABNDM000168_PR026
Spot 1     0.00256500     0.00017500
Spot 2     0.00277500     0.00187500
Spot 1     0.00277500     0.00187500
Spot 2     0.00277500     0.00187500
Spot 1     0.00277500     0.00187500
Spot 2     0.00277500     0.00187500
Spot 1     0.00277500     0.00187500
Spot 2     0.00277500     0.00187500
20MABNDM000168_20MABNDL000077
Spot 1     0.00153655     0.00129704
Spot 2     0.00175559     0.00130002
Spot 1     0.00153671     0.00129700
Spot 2     0.00175552     0.00130002
Spot 1     0.00153651     0.00129690
Spot 2     0.00175539     0.00129988
Spot 1     0.00153686     0.00129686
Spot 2     0.00175539     0.00129993
20MABNDM000168_PR001
Spot 1     0.00080343     0.00161437
Spot 2     0.00070266     0.00161986
Spot 1     0.00080350     0.00161432
Spot 2     0.00070266     0.00161991
Spot 1     0.00080325     0.00161415
Spot 2     0.00070259     0.00161977
Spot 1     0.00080322     0.00161407
Spot 2     0.00070252     0.00161969
20MABNDL000196_PR036
Spot 1     0.00095977     0.00164445
Spot 2     0.00112358     0.00164379
Spot 1     0.00095956     0.00164457
Spot 2     0.00112348     0.00164385
Spot 1     0.00095977     0.00164451
Spot 2     0.00112359     0.00164391
Spot 1     0.00095955     0.00164445
Spot 2     0.00112340     0.00164393
20MABNDL000196_PR037
Spot 1     0.00248108     0.00116611
Spot 2     0.00263482     0.00116463
Spot 1     0.00248119     0.00116627
Spot 2     0.00263438     0.00116469
Spot 1     0.00248094     0.00116650
Spot 2     0.00263478     0.00116484
Spot 1     0.00248113     0.00116645
Spot 2     0.00263449     0.00116455
20MABNDL000196_20MABNDM000020
Spot 1     0.00195268     0.00102969
Spot 2     0.00173063     0.00102961
Spot 1     0.00195282     0.00102995
Spot 2     0.00173066     0.00102974
Spot 1     0.00195281     0.00103012
Spot 2     0.00173061     0.00102974
Spot 1     0.00195283     0.00103005
Spot 2     0.00173067     0.00102974
20MABNDL000196_PR012
Spot 1     0.00315611     0.00069500
Spot 2     0.00273800     0.00137500
Spot 1     0.00315611     0.00069500
Spot 2     0.00315600     0.00069500
Spot 1     0.00315600     0.00069500
Spot 2     0.00315600     0.00069500
Spot 1     0.00315591     0.00069500
Spot 2     0.00273731     0.00137423


****************************************************************coordonnees images transformees dans le repere MOUNT************************************************************************* 
20MABNDB000069_PR031
Spot 1    -0.01355642    -0.01288765    -0.07388500
Spot 2    -0.01350446    -0.01288017    -0.07388500
Spot 1    -0.01355677    -0.01288639    -0.07388500
Spot 2    -0.01350660    -0.01288160    -0.07388500
Spot 1    -0.01355621    -0.01288641    -0.07388500
Spot 2    -0.01350631    -0.01288142    -0.07388500
Spot 1    -0.01355624    -0.01288753    -0.07388500
Spot 2    -0.01350543    -0.01288086    -0.07388500
Spot 1    -0.01355528    -0.01288685    -0.07388500
Spot 2    -0.01350514    -0.01288071    -0.07388500
20MABNDB000069_PR033
Spot 1    -0.01194431    -0.01251261    -0.07388500
Spot 2    -0.01147507    -0.01251284    -0.07388500
Spot 1    -0.01194469    -0.01251256    -0.07388500
Spot 2    -0.01147523    -0.01251268    -0.07388500
Spot 1    -0.01194466    -0.01251245    -0.07388500
Spot 2    -0.01147525    -0.01251259    -0.07388500
Spot 1    -0.01194458    -0.01251245    -0.07388500
Spot 2    -0.01147528    -0.01251261    -0.07388500
Spot 1    -0.01194462    -0.01251236    -0.07388500
Spot 2    -0.01147522    -0.01251270    -0.07388500
20MABNDB000131_PR032
Spot 1    -0.01144064    -0.01300310    -0.07533000
Spot 2    -0.01138138    -0.01299812    -0.07533000
Spot 1    -0.01144067    -0.01300335    -0.07533000
Spot 2    -0.01138202    -0.01299812    -0.07533000
Spot 1    -0.01144070    -0.01300316    -0.07533000
Spot 2    -0.01138186    -0.01299849    -0.07533000
Spot 1    -0.01144064    -0.01300306    -0.07533000
Spot 2    -0.01138216    -0.01299802    -0.07533000
Spot 1    -0.01144100    -0.01300290    -0.07533000
Spot 2    -0.01138185    -0.01299815    -0.07533000
20MABNDB000131_PR034
Spot 1    -0.01328437    -0.01370169    -0.07533000
Spot 2    -0.01310823    -0.01369999    -0.07533000
Spot 1    -0.01328434    -0.01370166    -0.07533000
Spot 2    -0.01310816    -0.01369985    -0.07533000
Spot 1    -0.01328439    -0.01370151    -0.07533000
Spot 2    -0.01310823    -0.01369995    -0.07533000
Spot 1    -0.01328428    -0.01370160    -0.07533000
Spot 2    -0.01310826    -0.01369989    -0.07533000
Spot 1    -0.01328433    -0.01370173    -0.07533000
Spot 2    -0.01310819    -0.01369979    -0.07533000
20MABNDA000208_PR042
Spot 1    -0.01387234     0.01309256    -0.07273700
Spot 2    -0.01380207     0.01308865    -0.07273700
Spot 1    -0.01387220     0.01309344    -0.07273700
Spot 2    -0.01380211     0.01308896    -0.07273700
Spot 1    -0.01387379     0.01309264    -0.07273700
Spot 2    -0.01380153     0.01308814    -0.07273700
Spot 1    -0.01387251     0.01309303    -0.07273700
Spot 2    -0.01380607     0.01309025    -0.07273700
Spot 1    -0.01387171     0.01309273    -0.07273700
Spot 2    -0.01380554     0.01309058    -0.07273700
20MABNDA000208_PR046
Spot 1    -0.01219454     0.01208426    -0.07273700
Spot 2    -0.01172211     0.01208186    -0.07273700
Spot 1    -0.01219453     0.01208438    -0.07273700
Spot 2    -0.01172223     0.01208166    -0.07273700
Spot 1    -0.01219449     0.01208430    -0.07273700
Spot 2    -0.01172195     0.01208152    -0.07273700
Spot 1    -0.01219458     0.01208433    -0.07273700
Spot 2    -0.01172119     0.01208117    -0.07273700
Spot 1    -0.01219446     0.01208428    -0.07273700
Spot 2    -0.01172098     0.01208113    -0.07273700
20MABNDA000035_PR044
Spot 1    -0.01157577     0.01296249    -0.07483200
Spot 2    -0.01152144     0.01296794    -0.07483200
Spot 1    -0.01157573     0.01296240    -0.07483200
Spot 2    -0.01152148     0.01296809    -0.07483200
Spot 1    -0.01157534     0.01296241    -0.07483200
Spot 2    -0.01152182     0.01296791    -0.07483200
Spot 1    -0.01157558     0.01296235    -0.07483200
Spot 2    -0.01152142     0.01296785    -0.07483200
Spot 1    -0.01157566     0.01296214    -0.07483200
Spot 2    -0.01152139     0.01296802    -0.07483200
20MABNDA000035_PR045
Spot 1    -0.01337824     0.01368977    -0.07483200
Spot 2    -0.01320172     0.01369012    -0.07483200
Spot 1    -0.01337834     0.01368957    -0.07483200
Spot 2    -0.01320191     0.01368998    -0.07483200
Spot 1    -0.01337811     0.01368961    -0.07483200
Spot 2    -0.01320172     0.01369014    -0.07483200
Spot 1    -0.01337831     0.01368943    -0.07483200
Spot 2    -0.01320173     0.01368995    -0.07483200
Spot 1    -0.01337834     0.01368973    -0.07483200
Spot 2    -0.01320174     0.01369004    -0.07483200
20MABNDL000077_PR002
Spot 1     0.01186498     0.03557172    -0.07463200
Spot 2     0.01202700     0.03557129    -0.07463200
Spot 1     0.01186503     0.03557189    -0.07463200
Spot 2     0.01202662     0.03557191    -0.07463200
Spot 1     0.01186526     0.03557206    -0.07463200
Spot 2     0.01202667     0.03557129    -0.07463200
Spot 1     0.01186447     0.03557223    -0.07463200
Spot 2     0.01202676     0.03557094    -0.07463200
Spot 1     0.01186458     0.03557233    -0.07463200
Spot 2     0.01202665     0.03557067    -0.07463200
20MABNDL000077_PR003
Spot 1     0.01259088     0.03525852    -0.07463200
Spot 2     0.01274142     0.03525922    -0.07463200
Spot 1     0.01259086     0.03525867    -0.07463200
Spot 2     0.01274125     0.03525938    -0.07463200
Spot 1     0.01259071     0.03525877    -0.07463200
Spot 2     0.01274108     0.03525939    -0.07463200
Spot 1     0.01259074     0.03525876    -0.07463200
Spot 2     0.01274124     0.03525949    -0.07463200
Spot 1     0.01259070     0.03525880    -0.07463200
Spot 2     0.01274119     0.03525969    -0.07463200
20MABNDL000077_20MABNDM000168
Spot 1    -0.01272190     0.03554524    -0.00695400
Spot 2    -0.01288904     0.03611499    -0.00695400
Spot 1    -0.01272204     0.03554551    -0.00695400
Spot 2    -0.01288904     0.03611499    -0.00695400
Spot 1    -0.01272190     0.03554556    -0.00695400
Spot 2    -0.01288904     0.03611499    -0.00695400
Spot 1    -0.01272203     0.03554566    -0.00695400
Spot 2    -0.01288904     0.03611499    -0.00695400
Spot 1    -0.01272213     0.03554566    -0.00695400
Spot 2    -0.01288904     0.03611499    -0.00695400
20MABNDL000077_PR024
Spot 1    -0.01347009     0.03576684    -0.00695400
Spot 2    -0.01357044     0.03577059    -0.00695400
Spot 1    -0.01346938     0.03576742    -0.00695400
Spot 2    -0.01357058     0.03577085    -0.00695400
Spot 1    -0.01346985     0.03576849    -0.00695400
Spot 2    -0.01357068     0.03577079    -0.00695400
Spot 1    -0.01346985     0.03576734    -0.00695400
Spot 2    -0.01357064     0.03577101    -0.00695400
20MABNDM000020_PR013
Spot 1    -0.01270121    -0.03609993    -0.00523500
Spot 2    -0.01285434    -0.03610767    -0.00523500
Spot 1    -0.01270100    -0.03609959    -0.00523500
Spot 2    -0.01285418    -0.03610822    -0.00523500
Spot 1    -0.01270108    -0.03609991    -0.00523500
Spot 2    -0.01285415    -0.03610744    -0.00523500
Spot 1    -0.01270116    -0.03609928    -0.00523500
Spot 2    -0.01285400    -0.03610849    -0.00523500
20MABNDM000020_PR014
Spot 1    -0.01166374    -0.03621431    -0.00523500
Spot 2    -0.01182564    -0.03622628    -0.00523500
Spot 1    -0.01166439    -0.03621516    -0.00523500
Spot 2    -0.01182544    -0.03622595    -0.00523500
Spot 1    -0.01166412    -0.03621567    -0.00523500
Spot 2    -0.01182522    -0.03622589    -0.00523500
Spot 1    -0.01166445    -0.03621645    -0.00523500
Spot 2    -0.01182543    -0.03622674    -0.00523500
20MABNDM000020_20MABNDL000196
Spot 1     0.01268543    -0.03454726    -0.07583800
Spot 2     0.01388114    -0.03418340    -0.07583800
Spot 1     0.01268555    -0.03454727    -0.07583800
Spot 2     0.01388114    -0.03418340    -0.07583800
Spot 1     0.01268551    -0.03454707    -0.07583800
Spot 2     0.01388114    -0.03418340    -0.07583800
Spot 1     0.01268570    -0.03454729    -0.07583800
Spot 2     0.01388114    -0.03418340    -0.07583800
20MABNDM000020_PR035
Spot 1     0.01342465    -0.03483796    -0.07583800
Spot 2     0.01349390    -0.03487387    -0.07583800
Spot 1     0.01342475    -0.03483774    -0.07583800
Spot 2     0.01349392    -0.03487362    -0.07583800
Spot 1     0.01342480    -0.03483786    -0.07583800
Spot 2     0.01349403    -0.03487359    -0.07583800
Spot 1     0.01342469    -0.03483756    -0.07583800
Spot 2     0.01349411    -0.03487345    -0.07583800
20MABNDA000188_PR008
Spot 1    -0.01385116     0.01393841    -0.07502000
Spot 2    -0.01432254     0.01401245    -0.07502000
Spot 1    -0.01385116     0.01393841    -0.07502000
Spot 2    -0.01431651     0.01401640    -0.07502000
Spot 1    -0.01373757     0.01388944    -0.07502000
Spot 2    -0.01381099     0.01395807    -0.07502000
Spot 1    -0.01373407     0.01388991    -0.07502000
Spot 2    -0.01385114     0.01394091    -0.07502000
20MABNDA000188_PR018
Spot 1    -0.01257554     0.01251285    -0.07502000
Spot 2    -0.01210885     0.01251136    -0.07502000
Spot 1    -0.01257550     0.01251263    -0.07502000
Spot 2    -0.01210878     0.01251112    -0.07502000
Spot 1    -0.01257550     0.01251268    -0.07502000
Spot 2    -0.01210880     0.01251128    -0.07502000
Spot 1    -0.01257543     0.01251278    -0.07502000
Spot 2    -0.01210899     0.01251128    -0.07502000
20MABNDA000039_PR009
Spot 1    -0.01162401     0.01303795    -0.07444800
Spot 2    -0.01157625     0.01303322    -0.07444800
Spot 1    -0.01162412     0.01303741    -0.07444800
Spot 2    -0.01157646     0.01303335    -0.07444800
Spot 1    -0.01162388     0.01303745    -0.07444800
Spot 2    -0.01157648     0.01303345    -0.07444800
Spot 1    -0.01162409     0.01303774    -0.07444800
Spot 2    -0.01157634     0.01303334    -0.07444800
20MABNDA000039_PR011
Spot 1    -0.01372009     0.01389378    -0.07444800
Spot 2    -0.01354524     0.01389716    -0.07444800
Spot 1    -0.01372010     0.01389380    -0.07444800
Spot 2    -0.01354520     0.01389713    -0.07444800
Spot 1    -0.01371998     0.01389376    -0.07444800
Spot 2    -0.01354530     0.01389721    -0.07444800
Spot 1    -0.01372011     0.01389379    -0.07444800
Spot 2    -0.01354528     0.01389718    -0.07444800
20MABNDB000155_PR020
Spot 1    -0.01359449    -0.01316691    -0.07501700
Spot 2    -0.01353245    -0.01316895    -0.07501700
Spot 1    -0.01359464    -0.01316701    -0.07501700
Spot 2    -0.01353205    -0.01316934    -0.07501700
Spot 1    -0.01359460    -0.01316656    -0.07501700
Spot 2    -0.01353235    -0.01316926    -0.07501700
Spot 1    -0.01359406    -0.01316625    -0.07501700
Spot 2    -0.01353225    -0.01316919    -0.07501700
20MABNDB000155_PR022
Spot 1    -0.01206216    -0.01309473    -0.07501700
Spot 2    -0.01158957    -0.01309228    -0.07501700
Spot 1    -0.01206216    -0.01309466    -0.07501700
Spot 2    -0.01158925    -0.01309238    -0.07501700
Spot 1    -0.01206237    -0.01309472    -0.07501700
Spot 2    -0.01158931    -0.01309239    -0.07501700
Spot 1    -0.01206232    -0.01309477    -0.07501700
Spot 2    -0.01158937    -0.01309231    -0.07501700
20MABNDB000010_PR021
Spot 1    -0.01158663    -0.01289149    -0.07358200
Spot 2    -0.01153436    -0.01288789    -0.07358200
Spot 1    -0.01158663    -0.01289127    -0.07358200
Spot 2    -0.01153425    -0.01288823    -0.07358200
Spot 1    -0.01158686    -0.01289156    -0.07358200
Spot 2    -0.01153459    -0.01288807    -0.07358200
Spot 1    -0.01158723    -0.01289186    -0.07358200
Spot 2    -0.01153440    -0.01288791    -0.07358200
20MABNDB000010_PR023
Spot 1    -0.01312976    -0.01369715    -0.07358200
Spot 2    -0.01295569    -0.01369574    -0.07358200
Spot 1    -0.01312977    -0.01369742    -0.07358200
Spot 2    -0.01295498    -0.01369577    -0.07358200
Spot 1    -0.01312967    -0.01369716    -0.07358200
Spot 2    -0.01295569    -0.01369568    -0.07358200
Spot 1    -0.01312991    -0.01369719    -0.07358200
Spot 2    -0.01295555    -0.01369594    -0.07358200
20MABNDB000212_PR029
Spot 1    -0.01182989    -0.01325970    -0.07390500
Spot 2    -0.01219599    -0.01325614    -0.07390500
Spot 1    -0.01182997    -0.01325982    -0.07390500
Spot 2    -0.01219576    -0.01325632    -0.07390500
Spot 1    -0.01182987    -0.01325991    -0.07390500
Spot 2    -0.01219547    -0.01325633    -0.07390500
Spot 1    -0.01182993    -0.01325978    -0.07390500
Spot 2    -0.01219565    -0.01325639    -0.07390500
20MABNDB000128_PR030
Spot 1    -0.01246511    -0.01220567    -0.07353400
Spot 2    -0.01226122    -0.01220990    -0.07353400
Spot 1    -0.01246511    -0.01220557    -0.07353400
Spot 2    -0.01226119    -0.01220982    -0.07353400
Spot 1    -0.01246514    -0.01220548    -0.07353400
Spot 2    -0.01226103    -0.01220972    -0.07353400
Spot 1    -0.01246521    -0.01220546    -0.07353400
Spot 2    -0.01226093    -0.01220986    -0.07353400
20MABNDA000444_PR040
Spot 1    -0.01172256     0.01365820    -0.07412000
Spot 2    -0.01208834     0.01365438    -0.07412000
Spot 1    -0.01172247     0.01365847    -0.07412000
Spot 2    -0.01208782     0.01365422    -0.07412000
Spot 1    -0.01172235     0.01365845    -0.07412000
Spot 2    -0.01208776     0.01365437    -0.07412000
Spot 1    -0.01172235     0.01365821    -0.07412000
Spot 2    -0.01208802     0.01365413    -0.07412000
20MABNDA000053_PR041
Spot 1    -0.01239835     0.01211425    -0.07430100
Spot 2    -0.01219615     0.01211274    -0.07430100
Spot 1    -0.01239839     0.01211408    -0.07430100
Spot 2    -0.01219612     0.01211262    -0.07430100
Spot 1    -0.01239838     0.01211429    -0.07430100
Spot 2    -0.01219629     0.01211290    -0.07430100
Spot 1    -0.01239813     0.01211441    -0.07430100
Spot 2    -0.01219591     0.01211302    -0.07430100
20MABNDA000196_PR006
Spot 1    -0.01294383     0.01322053    -0.07967100
Spot 2    -0.01257870     0.01322046    -0.07967100
Spot 1    -0.01294392     0.01322041    -0.07967100
Spot 2    -0.01257853     0.01322072    -0.07967100
Spot 1    -0.01294373     0.01322025    -0.07967100
Spot 2    -0.01257844     0.01322060    -0.07967100
Spot 1    -0.01294372     0.01322024    -0.07967100
Spot 2    -0.01257837     0.01322032    -0.07967100
20MABNDA000324_PR007
Spot 1    -0.01255399     0.01281077    -0.07446800
Spot 2    -0.01234855     0.01280652    -0.07446800
Spot 1    -0.01255417     0.01281076    -0.07446800
Spot 2    -0.01234858     0.01280666    -0.07446800
Spot 1    -0.01255409     0.01281094    -0.07446800
Spot 2    -0.01234854     0.01280657    -0.07446800
Spot 1    -0.01255410     0.01281098    -0.07446800
Spot 2    -0.01234854     0.01280641    -0.07446800
20MABNDB000001_PR017
Spot 1    -0.01230886    -0.01351893    -0.07418400
Spot 2    -0.01194107    -0.01351205    -0.07418400
Spot 1    -0.01230867    -0.01351894    -0.07418400
Spot 2    -0.01194099    -0.01351207    -0.07418400
Spot 1    -0.01230873    -0.01351889    -0.07418400
Spot 2    -0.01194085    -0.01351267    -0.07418400
Spot 1    -0.01230877    -0.01351891    -0.07418400
Spot 2    -0.01194076    -0.01351225    -0.07418400
20MABNDB000260_PR019
Spot 1    -0.01240500    -0.01240258    -0.07492700
Spot 2    -0.01220131    -0.01239900    -0.07492700
Spot 1    -0.01240501    -0.01240312    -0.07492700
Spot 2    -0.01220132    -0.01239888    -0.07492700
Spot 1    -0.01240478    -0.01240277    -0.07492700
Spot 2    -0.01220206    -0.01239845    -0.07492700
Spot 1    -0.01240532    -0.01240247    -0.07492700
Spot 2    -0.01220191    -0.01239889    -0.07492700
20MABNDB000135_PR027
Spot 1    -0.01251087    -0.01318780    -0.07464700
Spot 2    -0.01229245    -0.01318710    -0.07464700
Spot 1    -0.01251085    -0.01318764    -0.07464700
Spot 2    -0.01229241    -0.01318715    -0.07464700
Spot 1    -0.01251070    -0.01318756    -0.07464700
Spot 2    -0.01229237    -0.01318706    -0.07464700
Spot 1    -0.01251078    -0.01318760    -0.07464700
Spot 2    -0.01229254    -0.01318701    -0.07464700
20MABNDB000126_PR028
Spot 1    -0.01253242    -0.01217731    -0.07500400
Spot 2    -0.01225130    -0.01217326    -0.07500400
Spot 1    -0.01253256    -0.01217753    -0.07500400
Spot 2    -0.01225118    -0.01217327    -0.07500400
Spot 1    -0.01253240    -0.01217737    -0.07500400
Spot 2    -0.01225125    -0.01217323    -0.07500400
Spot 1    -0.01253244    -0.01217741    -0.07500400
Spot 2    -0.01225137    -0.01217315    -0.07500400
20MABNDA000272_PR038
Spot 1    -0.01275484     0.01314659    -0.07417900
Spot 2    -0.01253290     0.01314750    -0.07417900
Spot 1    -0.01275477     0.01314633    -0.07417900
Spot 2    -0.01253239     0.01314679    -0.07417900
Spot 1    -0.01275487     0.01314607    -0.07417900
Spot 2    -0.01253280     0.01314713    -0.07417900
Spot 1    -0.01275478     0.01314641    -0.07417900
Spot 2    -0.01253298     0.01314715    -0.07417900
20MABNDA000003_PR039
Spot 1    -0.01279979     0.01212786    -0.07373400
Spot 2    -0.01307682     0.01212856    -0.07373400
Spot 1    -0.01279973     0.01212813    -0.07373400
Spot 2    -0.01307684     0.01212837    -0.07373400
Spot 1    -0.01279970     0.01212787    -0.07373400
Spot 2    -0.01307677     0.01212765    -0.07373400
Spot 1    -0.01279936     0.01212802    -0.07373400
Spot 2    -0.01307711     0.01212842    -0.07373400
20MABNDA000318_PR004
Spot 1    -0.01286365     0.01246238    -0.07310600
Spot 2    -0.01264625     0.01246226    -0.07310600
Spot 1    -0.01286338     0.01246254    -0.07310600
Spot 2    -0.01264613     0.01246249    -0.07310600
Spot 1    -0.01286327     0.01246269    -0.07310600
Spot 2    -0.01264613     0.01246214    -0.07310600
Spot 1    -0.01286346     0.01246284    -0.07310600
Spot 2    -0.01264621     0.01246222    -0.07310600
20MABNDA000334_PR005
Spot 1    -0.01311640     0.01254629    -0.07324100
Spot 2    -0.01283620     0.01254555    -0.07324100
Spot 1    -0.01311649     0.01254627    -0.07324100
Spot 2    -0.01283600     0.01254543    -0.07324100
Spot 1    -0.01311667     0.01254632    -0.07324100
Spot 2    -0.01283616     0.01254548    -0.07324100
Spot 1    -0.01311625     0.01254620    -0.07324100
Spot 2    -0.01283607     0.01254541    -0.07324100
20MABNDB000317_PR015
Spot 1    -0.01266203    -0.01248852    -0.07326100
Spot 2    -0.01244200    -0.01249265    -0.07326100
Spot 1    -0.01266203    -0.01248838    -0.07326100
Spot 2    -0.01244222    -0.01249235    -0.07326100
Spot 1    -0.01266221    -0.01248836    -0.07326100
Spot 2    -0.01244250    -0.01249237    -0.07326100
Spot 1    -0.01266201    -0.01248826    -0.07326100
Spot 2    -0.01244246    -0.01249255    -0.07326100
20MABNDB000146_PR016
Spot 1    -0.01275800    -0.01245883    -0.07450500
Spot 2    -0.01248234    -0.01245581    -0.07450500
Spot 1    -0.01275787    -0.01245884    -0.07450500
Spot 2    -0.01248231    -0.01245547    -0.07450500
Spot 1    -0.01275787    -0.01245879    -0.07450500
Spot 2    -0.01248225    -0.01245562    -0.07450500
Spot 1    -0.01275782    -0.01245907    -0.07450500
Spot 2    -0.01248237    -0.01245559    -0.07450500
20MABNDM000168_PR025
Spot 1    -0.01335211    -0.03465272    -0.00532900
Spot 2    -0.01335211    -0.03465272    -0.00532900
Spot 1    -0.01335211    -0.03465272    -0.00532900
Spot 2    -0.01335211    -0.03465272    -0.00532900
Spot 1    -0.01335211    -0.03465272    -0.00532900
Spot 2    -0.01335211    -0.03465272    -0.00532900
Spot 1    -0.01335211    -0.03465272    -0.00532900
Spot 2    -0.01335211    -0.03465272    -0.00532900
20MABNDM000168_PR026
Spot 1    -0.01184272    -0.03450623    -0.00532900
Spot 2    -0.01162542    -0.03620531    -0.00532900
Spot 1    -0.01162542    -0.03620531    -0.00532900
Spot 2    -0.01162542    -0.03620531    -0.00532900
Spot 1    -0.01162542    -0.03620531    -0.00532900
Spot 2    -0.01162542    -0.03620531    -0.00532900
Spot 1    -0.01162542    -0.03620531    -0.00532900
Spot 2    -0.01162542    -0.03620531    -0.00532900
20MABNDM000168_20MABNDL000077
Spot 1     0.01288896    -0.03529775    -0.07445100
Spot 2     0.01266990    -0.03529752    -0.07445100
Spot 1     0.01288880    -0.03529770    -0.07445100
Spot 2     0.01266997    -0.03529752    -0.07445100
Spot 1     0.01288900    -0.03529761    -0.07445100
Spot 2     0.01267010    -0.03529738    -0.07445100
Spot 1     0.01288865    -0.03529756    -0.07445100
Spot 2     0.01267010    -0.03529743    -0.07445100
20MABNDM000168_PR001
Spot 1     0.01361735    -0.03562577    -0.07445100
Spot 2     0.01371803    -0.03563273    -0.07445100
Spot 1     0.01361729    -0.03562572    -0.07445100
Spot 2     0.01371803    -0.03563278    -0.07445100
Spot 1     0.01361754    -0.03562555    -0.07445100
Spot 2     0.01371810    -0.03563264    -0.07445100
Spot 1     0.01361757    -0.03562547    -0.07445100
Spot 2     0.01371818    -0.03563256    -0.07445100
20MABNDL000196_PR036
Spot 1     0.01193968     0.03583318    -0.07483600
Spot 2     0.01210350     0.03583286    -0.07483600
Spot 1     0.01193947     0.03583330    -0.07483600
Spot 2     0.01210340     0.03583292    -0.07483600
Spot 1     0.01193968     0.03583324    -0.07483600
Spot 2     0.01210351     0.03583298    -0.07483600
Spot 1     0.01193946     0.03583318    -0.07483600
Spot 2     0.01210332     0.03583300    -0.07483600
20MABNDL000196_PR037
Spot 1     0.01346199     0.03535801    -0.07483600
Spot 2     0.01361573     0.03535685    -0.07483600
Spot 1     0.01346210     0.03535817    -0.07483600
Spot 2     0.01361529     0.03535691    -0.07483600
Spot 1     0.01346185     0.03535840    -0.07483600
Spot 2     0.01361569     0.03535706    -0.07483600
Spot 1     0.01346204     0.03535835    -0.07483600
Spot 2     0.01361540     0.03535677    -0.07483600
20MABNDL000196_20MABNDM000020
Spot 1    -0.01277649     0.03530036    -0.00611000
Spot 2    -0.01255448     0.03530474    -0.00611000
Spot 1    -0.01277663     0.03530061    -0.00611000
Spot 2    -0.01255451     0.03530487    -0.00611000
Spot 1    -0.01277663     0.03530078    -0.00611000
Spot 2    -0.01255446     0.03530487    -0.00611000
Spot 1    -0.01277664     0.03530071    -0.00611000
Spot 2    -0.01255452     0.03530487    -0.00611000
20MABNDL000196_PR012
Spot 1    -0.01397294     0.03494152    -0.00611000
Spot 2    -0.01356860     0.03562980    -0.00611000
Spot 1    -0.01397294     0.03494152    -0.00611000
Spot 2    -0.01397283     0.03494152    -0.00611000
Spot 1    -0.01397283     0.03494152    -0.00611000
Spot 2    -0.01397283     0.03494152    -0.00611000
Spot 1    -0.01397274     0.03494153    -0.00611000
Spot 2    -0.01356789     0.03562904    -0.00611000


*****************************************************************coordonnees du prisme dans le repere MOUNT********************************************************************************** 
20MABNDB000069_PR031
    0.09903498    -0.03627804     9.20360851
    0.09918764    -0.03626716     9.20360661
    0.09913568    -0.03627729     9.20360756
    0.09908307    -0.03624319     9.20360756
    0.09900670    -0.03629406     9.20360851
20MABNDB000069_PR033
   -0.02820992    -0.02266658     1.28396344
   -0.02820537    -0.02266839     1.28396344
   -0.02820544    -0.02267001     1.28396344
   -0.02820586    -0.02266991     1.28396344
   -0.02820603    -0.02266990     1.28396344
20MABNDB000131_PR032
   -0.18826844    -0.03484512    11.00640774
   -0.18821958    -0.03482734    11.00640869
   -0.18822843    -0.03481350    11.00640869
   -0.18821140    -0.03485579    11.00640869
   -0.18820700    -0.03485723    11.00640869
20MABNDB000131_PR034
    0.01397038     0.01199423     3.43341732
    0.01396812     0.01199035     3.43341732
    0.01397086     0.01198922     3.43341732
    0.01396903     0.01198990     3.43341732
    0.01396857     0.01199058     3.43341732
20MABNDA000208_PR042
    0.12520096     0.00882482     9.20156002
    0.12519489     0.00875178     9.20156002
    0.12525678     0.00885126     9.20155907
    0.12545696     0.00869799     9.20155716
    0.12537533     0.00869608     9.20155716
20MABNDA000208_PR046
   -0.02559317     0.02970018     1.28213549
   -0.02559223     0.02970078     1.28213549
   -0.02559496     0.02970275     1.28213537
   -0.02560061     0.02970548     1.28213537
   -0.02560343     0.02970624     1.28213525
20MABNDA000035_PR044
   -0.17936043     0.03223716    11.00802326
   -0.17936048     0.03223278    11.00802326
   -0.17936404     0.03224451    11.00802326
   -0.17937568     0.03225337    11.00802326
   -0.17937198     0.03225700    11.00802326
20MABNDA000035_PR045
    0.01479202    -0.01400394     3.43487835
    0.01479869    -0.01399623     3.43487835
    0.01478907    -0.01400072     3.43487835
    0.01479393    -0.01399231     3.43487835
    0.01479478    -0.01400122     3.43487835
20MABNDL000077_PR002
    0.04955019     0.02143512     3.70690918
    0.04955839     0.02141553     3.70690894
    0.04955135     0.02142671     3.70690918
    0.04956868     0.02143124     3.70690894
    0.04956871     0.02143519     3.70690894
20MABNDL000077_PR003
    0.01403840     0.03692286     3.89605379
    0.01404325     0.03691476     3.89605379
    0.01405153     0.03691208     3.89605379
    0.01404658     0.03690954     3.89605379
    0.01404911     0.03690328     3.89605379
20MABNDL000077_20MABNDM000168
   -0.00399027    -0.00491434    -5.46859360
   -0.00398511    -0.00492404    -5.46859360
   -0.00399015    -0.00492590    -5.46859360
   -0.00398578    -0.00492947    -5.46859360
   -0.00398217    -0.00492943    -5.46859360
20MABNDL000077_PR024
    0.05242845    -0.00337832    -5.89622355
    0.05240657    -0.00341129    -5.89622355
    0.05242841    -0.00345044    -5.89622355
    0.05242687    -0.00341420    -5.89622355
20MABNDM000020_PR013
   -0.00519349     0.01230169    -3.80216765
   -0.00520254     0.01230695    -3.80216765
   -0.00520130     0.01229556    -3.80216789
   -0.00520302     0.01230594    -3.80216765
20MABNDM000020_PR014
   -0.06758559     0.03180580    -4.74799728
   -0.06757161     0.03182169    -4.74799728
   -0.06758685     0.03183568    -4.74799728
   -0.06756993     0.03188646    -4.74799681
20MABNDM000020_20MABNDL000196
   -0.02603394    -0.08878254     5.39443254
   -0.02603824    -0.08878218     5.39443254
   -0.02603680    -0.08878934     5.39443207
   -0.02604361    -0.08878146     5.39443207
20MABNDM000020_PR035
   -0.04251717    -0.05496504     5.80099583
   -0.04252178    -0.05498315     5.80099583
   -0.04252794    -0.05497968     5.80099583
   -0.04252679    -0.05499663     5.80099583
20MABNDA000188_PR008
    0.15792292    -0.09928381     9.20279408
    0.15755263    -0.09952622     9.20279884
    0.11956263    -0.09294794     9.20350075
    0.12181169    -0.09192341     9.20347977
20MABNDA000188_PR018
   -0.01876819     0.02247433     1.28360188
   -0.01876910     0.02247828     1.28360176
   -0.01876894     0.02247647     1.28360176
   -0.01876792     0.02247561     1.28360176
20MABNDA000039_PR009
   -0.17149466     0.02944737    11.00700569
   -0.17147189     0.02947726    11.00700665
   -0.17148727     0.02946635    11.00700569
   -0.17148224     0.02945390    11.00700665
20MABNDA000039_PR011
    0.03051138    -0.02099323     3.43351126
    0.03051069    -0.02099300     3.43351126
    0.03051023    -0.02099391     3.43351126
    0.03051274    -0.02099392     3.43351126
20MABNDB000155_PR020
    0.09595141    -0.00417013     9.20035553
    0.09593564    -0.00414026     9.20035553
    0.09595206    -0.00417258     9.20035553
    0.09591246    -0.00419584     9.20035553
20MABNDB000155_PR022
   -0.02722780    -0.01315029     1.28069830
   -0.02723054    -0.01315007     1.28069830
   -0.02722824    -0.01314944     1.28069830
   -0.02722815    -0.01314969     1.28069830
20MABNDB000010_PR021
   -0.17533642    -0.03871255    11.00694847
   -0.17534465    -0.03870387    11.00694847
   -0.17530215    -0.03869432    11.00694847
   -0.17528984    -0.03868382    11.00694847
20MABNDB000010_PR023
    0.00458258     0.01591995     3.43380928
    0.00456687     0.01592680     3.43380928
    0.00458053     0.01591900     3.43380928
    0.00458294     0.01592546     3.43380928
20MABNDB000212_PR029
   -0.02587295    -0.00891315     1.64223528
   -0.02587467    -0.00890984     1.64223528
   -0.02587893    -0.00890869     1.64223528
   -0.02587620    -0.00890949     1.64223528
20MABNDB000128_PR030
   -0.01886360    -0.04722445     2.95495939
   -0.01886417    -0.04722799     2.95495939
   -0.01886672    -0.04723173     2.95495939
   -0.01886731    -0.04722938     2.95495939
20MABNDA000444_PR040
   -0.02943188     0.00131494     1.64491987
   -0.02943854     0.00131376     1.64491987
   -0.02944050     0.00131231     1.64491987
   -0.02943761     0.00131760     1.64491987
20MABNDA000053_PR041
   -0.02697583     0.05128963     2.95449972
   -0.02697552     0.05129532     2.95449924
   -0.02697257     0.05128565     2.95449972
   -0.02698504     0.05128078     2.95449972
20MABNDA000196_PR006
   -0.01032553     0.01052875     1.64206481
   -0.01032642     0.01052723     1.64206481
   -0.01032955     0.01053022     1.64206481
   -0.01033038     0.01053340     1.64206481
20MABNDA000324_PR007
   -0.02523455     0.02780255     2.95549226
   -0.02523059     0.02780002     2.95549226
   -0.02523274     0.02779823     2.95549226
   -0.02523256     0.02780060     2.95549226
20MABNDB000001_PR017
   -0.02396923    -0.00355379     1.64036512
   -0.02397229    -0.00355342     1.64036512
   -0.02397310    -0.00354741     1.64036512
   -0.02397358    -0.00355177     1.64036512
20MABNDB000260_PR019
   -0.02451750    -0.03823471     2.95627546
   -0.02451727    -0.03822644     2.95627546
   -0.02450711    -0.03824159     2.95627546
   -0.02449968    -0.03823888     2.95627546
20MABNDB000135_PR027
   -0.02111012    -0.01021556     2.74937153
   -0.02111124    -0.01021756     2.74937153
   -0.02111476    -0.01022064     2.74937153
   -0.02111018    -0.01022087     2.74937153
20MABNDB000126_PR028
   -0.02038999    -0.03885296     2.14679623
   -0.02038972    -0.03884968     2.14679623
   -0.02039099    -0.03885254     2.14679623
   -0.02038871    -0.03885309     2.14679623
20MABNDA000272_PR038
   -0.01338070     0.01129343     2.74965882
   -0.01339148     0.01131123     2.74965882
   -0.01338213     0.01130974     2.74965906
   -0.01338050     0.01130314     2.74965882
20MABNDA000003_PR039
   -0.00600933     0.04117724     2.14891624
   -0.00600991     0.04117610     2.14891624
   -0.00601130     0.04119010     2.14891624
   -0.00601134     0.04117710     2.14891624
20MABNDA000318_PR004
   -0.00852184     0.03865652     2.74965668
   -0.00852898     0.03864935     2.74965668
   -0.00853101     0.03865301     2.74965668
   -0.00852604     0.03864881     2.74965668
20MABNDA000334_PR005
   -0.00426490     0.03157983     2.14977264
   -0.00426647     0.03158183     2.14977264
   -0.00426161     0.03158040     2.14977264
   -0.00426889     0.03158312     2.14977264
20MABNDB000317_PR015
   -0.01754326    -0.03433590     2.75128746
   -0.01753917    -0.03434386     2.75128746
   -0.01753079    -0.03434394     2.75128746
   -0.01753518    -0.03434253     2.75128746
20MABNDB000146_PR016
   -0.01360385    -0.03186004     2.15201211
   -0.01360614    -0.03186479     2.15201211
   -0.01360700    -0.03186335     2.15201211
   -0.01360601    -0.03185976     2.15201211
20MABNDM000168_PR025
    0.02039144    -0.06973486    -3.78849745
    0.02039144    -0.06973486    -3.78849745
    0.02039144    -0.06973486    -3.78849745
    0.02039144    -0.06973486    -3.78849745
20MABNDM000168_PR026
   -0.06209483    -0.03491262    -3.98430109
   -0.06774618     0.00930901    -3.98396206
   -0.06774618     0.00930901    -3.98396206
   -0.06774618     0.00930901    -3.98396206
20MABNDM000168_20MABNDL000077
    0.01129222    -0.03903714     5.38884640
    0.01129543    -0.03903862     5.38884640
    0.01128345    -0.03904707     5.38884640
    0.01129603    -0.03904689     5.38884640
20MABNDM000168_PR001
   -0.05768806    -0.01356302     5.81470203
   -0.05768535    -0.01356306     5.81470203
   -0.05769793    -0.01357490     5.81470203
   -0.05770189    -0.01358104     5.81470203
20MABNDL000196_PR036
    0.05071018     0.00570495     3.68777657
    0.05071780     0.00570054     3.68777657
    0.05070994     0.00570053     3.68777657
    0.05072000     0.00570153     3.68777657
20MABNDL000196_PR037
   -0.02573126     0.02868939     3.88380766
   -0.02572272     0.02868372     3.88380766
   -0.02572657     0.02867389     3.88380766
   -0.02572400     0.02868268     3.88380766
20MABNDL000196_20MABNDM000020
   -0.01382122     0.03897013    -5.47473907
   -0.01381483     0.03895624    -5.47473907
   -0.01381686     0.03895009    -5.47473907
   -0.01381404     0.03895266    -5.47473907
20MABNDL000196_PR012
    0.07199477     0.04052011    -5.91515732
    0.08769856     0.06726621    -5.91482735
    0.08769429     0.06726613    -5.91482735
    0.07195960     0.04054933    -5.91515827


*****************************************************************coordonnees du prisme dans le repere ATLAS********************************************************************************** 
20MABNDB000069_PR031 0.00000000
    3.68075061     3.84880090    -7.90412331
    3.68090320     3.84879851    -7.90413427
    3.68085122     3.84879971    -7.90412378
    3.68079853     3.84879971    -7.90415812
    3.68072224     3.84880114    -7.90410709
20MABNDB000069_PR033 0.00000000
    3.53208733    -4.07045460    -7.88300419
    3.53209186    -4.07045460    -7.88300228
    3.53209186    -4.07045460    -7.88300085
    3.53209138    -4.07045460    -7.88300085
    3.53209138    -4.07045460    -7.88300085
20MABNDB000131_PR032 0.00000000
    3.86906934     3.64755630   -12.94548798
    3.86902046     3.64755726   -12.94546986
    3.86902928     3.64755726   -12.94545650
    3.86901236     3.64755726   -12.94549847
    3.86900783     3.64755726   -12.94550037
20MABNDB000131_PR034 0.00000000
    3.67381763    -3.92560029   -12.89595318
    3.67381978    -3.92560029   -12.89595699
    3.67381716    -3.92560029   -12.89595890
    3.67381883    -3.92560029   -12.89595795
    3.67381930    -3.92560029   -12.89595699
20MABNDA000208_PR042 0.00000000
   -3.67527604     3.84923267    -7.90265751
   -3.67526984     3.84923267    -7.90273046
   -3.67533183     3.84923196    -7.90263128
   -3.67553186     3.84923005    -7.90278482
   -3.67545033     3.84923005    -7.90278625
20MABNDA000208_PR046 0.00000000
   -3.53016973    -4.07029009    -7.87881708
   -3.53017068    -4.07029009    -7.87881660
   -3.53016782    -4.07029009    -7.87881422
   -3.53016210    -4.07029009    -7.87881184
   -3.53015947    -4.07029009    -7.87881088
20MABNDA000035_PR044 0.00000000
   -3.86860228     3.64757895   -12.93791676
   -3.86860251     3.64757895   -12.93791199
   -3.86860609     3.64757895   -12.93792343
   -3.86861753     3.64757895   -12.93793297
   -3.86861396     3.64757895   -12.93793583
20MABNDA000035_PR045 0.00000000
   -3.67593718    -3.92560840   -12.89238071
   -3.67593050    -3.92560840   -12.89238834
   -3.67594028    -3.92560840   -12.89238358
   -3.67593527    -3.92560840   -12.89239216
   -3.67593455    -3.92560840   -12.89238358
20MABNDL000077_PR002 0.00000000
    2.83560562    -3.69496679     6.48618937
    2.83562541    -3.69495869     6.48618937
    2.83561420    -3.69496560     6.48618937
    2.83560967    -3.69494820     6.48618937
    2.83560562    -3.69494820     6.48618937
20MABNDL000077_PR003 0.00000000
    2.82029223    -3.73070693     6.67530537
    2.82030034    -3.73070216     6.67530537
    2.82030296    -3.73069382     6.67530537
    2.82030559    -3.73069882     6.67530537
    2.82031178    -3.73069620     6.67530537
20MABNDL000077_20MABNDM000168 0.00000000
    2.85293818    -3.73719501    -2.68939376
    2.85294771    -3.73718977    -2.68939376
    2.85294962    -3.73719478    -2.68939376
    2.85295320    -3.73719049    -2.68939376
    2.85295320    -3.73718691    -2.68939376
20MABNDL000077_PR024 0.00000000
    2.85100055    -3.68024802    -3.11695218
    2.85103369    -3.68026996    -3.11695218
    2.85107279    -3.68024826    -3.11695218
    2.85103655    -3.68024969    -3.11695218
20MABNDM000020_PR013 0.00000000
   -2.86461067    -3.73428106     6.48601770
   -2.86461592    -3.73427200     6.48601770
   -2.86460447    -3.73427320     6.48601770
   -2.86461496    -3.73427153     6.48601770
20MABNDM000020_PR014 0.00000000
   -2.88390636    -3.67260218     7.43189812
   -2.88392234    -3.67261624     7.43189812
   -2.88393617    -3.67260098     7.43189812
   -2.88398695    -3.67261791     7.43189764
20MABNDM000020_20MABNDL000196 0.00000000
   -2.76536059    -3.70647717    -2.71058440
   -2.76536083    -3.70647287    -2.71058440
   -2.76535368    -3.70647430    -2.71058393
   -2.76536155    -3.70646739    -2.71058393
20MABNDM000020_PR035 0.00000000
   -2.79925418    -3.68967438    -3.11712813
   -2.79923630    -3.68966985    -3.11712813
   -2.79923964    -3.68966365    -3.11712813
   -2.79922271    -3.68966484    -3.11712813
20MABNDA000188_PR008 0.00000000
    3.57063794     3.84848738     8.11098671
    3.57026410     3.84848356     8.11122322
    3.53237033     3.84867668     8.10407925
    3.53463459     3.84870148     8.10308838
20MABNDA000188_PR018 0.00000000
    3.51831889    -4.07065344     7.90093517
    3.51831818    -4.07065344     7.90093088
    3.51831818    -4.07065344     7.90093279
    3.51831937    -4.07065344     7.90093374
20MABNDA000039_PR009 0.00000000
    3.87566614     3.64746213    12.94074154
    3.87564349     3.64746308    12.94077110
    3.87565875     3.64746213    12.94076061
    3.87565374     3.64746308    12.94074821
20MABNDA000039_PR011 0.00000000
    3.66451240    -3.92576599    12.88784313
    3.66451311    -3.92576599    12.88784409
    3.66451359    -3.92576599    12.88784313
    3.66451097    -3.92576599    12.88784313
20MABNDB000155_PR020 0.00000000
   -3.67460561     3.84890389     7.90269899
   -3.67458987     3.84890389     7.90272903
   -3.67460608     3.84890389     7.90269661
   -3.67456651     3.84890389     7.90267324
20MABNDB000155_PR022 0.00000000
   -3.53275418    -4.07044220     7.89490938
   -3.53275156    -4.07044220     7.89490986
   -3.53275371    -4.07044220     7.89491034
   -3.53275394    -4.07044220     7.89490986
20MABNDB000010_PR021 0.00000000
   -3.86116934     3.64768791    12.94054127
   -3.86117744     3.64768791    12.94053268
   -3.86113501     3.64768791    12.94052315
   -3.86112261     3.64768791    12.94051266
20MABNDB000010_PR023 0.00000000
   -3.68508005    -3.92556548    12.88935566
   -3.68509579    -3.92556548    12.88934898
   -3.68508196    -3.92556548    12.88935661
   -3.68507957    -3.92556548    12.88934994
20MABNDB000212_PR029 0.00000000
    2.59955072    -4.19501305    -6.54790115
    2.59955239    -4.19501305    -6.54789782
    2.59955668    -4.19501305    -6.54789639
    2.59955382    -4.19501305    -6.54789734
20MABNDB000128_PR030 0.00000000
    2.60999513    -4.14003038    -6.93089676
    2.60999441    -4.14003038    -6.93089294
    2.60999203    -4.14003038    -6.93088913
    2.60999131    -4.14003038    -6.93089151
20MABNDA000444_PR040 0.00000000
   -2.60460448    -4.19508934    -6.54049540
   -2.60461116    -4.19508934    -6.54049397
   -2.60461307    -4.19508934    -6.54049253
   -2.60461020    -4.19508934    -6.54049778
20MABNDA000053_PR041 0.00000000
   -2.59356618    -4.14013100    -6.92662382
   -2.59356642    -4.14013147    -6.92661810
   -2.59356952    -4.14013100    -6.92662764
   -2.59355688    -4.14013100    -6.92663288
20MABNDA000196_PR006 0.00000000
    2.58478594    -4.19496298     6.54848528
    2.58478689    -4.19496298     6.54848385
    2.58478999    -4.19496298     6.54848671
    2.58479095    -4.19496298     6.54849005
20MABNDA000324_PR007 0.00000000
    2.59408021    -4.13996601     6.94811249
    2.59408426    -4.13996601     6.94811535
    2.59408212    -4.13996601     6.94811678
    2.59408236    -4.13996601     6.94811440
20MABNDB000001_PR017 0.00000000
   -2.59767079    -4.19505072     6.53888178
   -2.59767389    -4.19505072     6.53888178
   -2.59767461    -4.19505072     6.53887558
   -2.59767509    -4.19505072     6.53887987
20MABNDB000260_PR019 0.00000000
   -2.60424447    -4.13995886     6.94240952
   -2.60424471    -4.13995886     6.94241762
   -2.60425496    -4.13995886     6.94240236
   -2.60426235    -4.13995886     6.94240522
20MABNDB000135_PR027 0.00000000
    2.60375309    -4.19700384    -3.82514524
    2.60375190    -4.19700384    -3.82514334
    2.60374856    -4.19700384    -3.82514024
    2.60375309    -4.19700384    -3.82514000
20MABNDB000126_PR028 0.00000000
    2.60552716    -4.19702053    -5.89336681
    2.60552740    -4.19702053    -5.89337015
    2.60552621    -4.19702053    -5.89336729
    2.60552859    -4.19702053    -5.89336681
20MABNDA000272_PR038 0.00000000
   -2.61115623    -4.19698238    -3.82719088
   -2.61114526    -4.19698238    -3.82717323
   -2.61115456    -4.19698238    -3.82717466
   -2.61115623    -4.19698238    -3.82718110
20MABNDA000003_PR039 0.00000000
   -2.61572170    -4.19702053    -5.89158964
   -2.61572123    -4.19702101    -5.89159060
   -2.61571980    -4.19702053    -5.89157677
   -2.61571980    -4.19702053    -5.89158964
20MABNDA000318_PR004 0.00000000
    2.61448121    -4.19698763     3.83334208
    2.61447430    -4.19698763     3.83334923
    2.61447215    -4.19698763     3.83334565
    2.61447716    -4.19698763     3.83334994
20MABNDA000334_PR005 0.00000000
    2.61673355    -4.19703054     5.89768124
    2.61673212    -4.19703054     5.89767885
    2.61673689    -4.19703054     5.89768028
    2.61672974    -4.19703054     5.89767790
20MABNDB000317_PR015 0.00000000
   -2.61106396    -4.19700384     3.83567953
   -2.61106801    -4.19700384     3.83567166
   -2.61107635    -4.19700384     3.83567142
   -2.61107206    -4.19700384     3.83567286
20MABNDB000146_PR016 0.00000000
   -2.61269140    -4.19702578     5.89849043
   -2.61268902    -4.19702578     5.89848566
   -2.61268830    -4.19702578     5.89848709
   -2.61268926    -4.19702578     5.89849043
20MABNDM000168_PR025 0.00000000
    2.78350139    -3.76570773    -6.47911263
    2.78350139    -3.76570773    -6.47911263
    2.78350139    -3.76570773    -6.47911263
    2.78350139    -3.76570773    -6.47911263
20MABNDM000168_PR026 0.00000000
    2.81833363    -3.68330336    -6.67494869
    2.86255670    -3.67766356    -6.67461491
    2.86255670    -3.67766356    -6.67461491
    2.86255670    -3.67766356    -6.67461491
20MABNDM000168_20MABNDL000077 0.00000000
    2.81475854    -3.75320435     2.69822550
    2.81475687    -3.75320745     2.69822550
    2.81474853    -3.75319552     2.69822550
    2.81474876    -3.75320816     2.69822550
20MABNDM000168_PR001 0.00000000
    2.84027672    -3.68407226     3.12405396
    2.84027672    -3.68407512     3.12405396
    2.84026480    -3.68406248     3.12405396
    2.84025860    -3.68405843     3.12405396
20MABNDL000196_PR036 0.00000000
   -2.84790230    -3.69356441    -6.47909927
   -2.84790659    -3.69355679    -6.47909927
   -2.84790659    -3.69356465    -6.47909927
   -2.84790564    -3.69355464    -6.47909927
20MABNDL000196_PR037 0.00000000
   -2.82488656    -3.77017760    -6.67505980
   -2.82489228    -3.77016902    -6.67505980
   -2.82490206    -3.77017283    -6.67505980
   -2.82489324    -3.77017021    -6.67505980
20MABNDL000196_20MABNDM000020 0.00000000
   -2.81440902    -3.74955726     2.68347168
   -2.81442308    -3.74955106     2.68347168
   -2.81442904    -3.74955297     2.68347168
   -2.81442666    -3.74955010     2.68347168
20MABNDL000196_PR012 0.00000000
   -2.81288958    -3.66333103     3.12380981
   -2.78615069    -3.64761519     3.12346458
   -2.78615069    -3.64761949     3.12346458
   -2.81286025    -3.66336608     3.12381077


*****************************************************************Rapport********************************************************************************** 
CAM-ECTC-US-IP_ECTC-US-IP-T    2016.04.07.13.17.41     3.68080516     3.84879999    -7.90412931     0.00006577     0.00000095     0.00001682 0.00000000 VRAI 
CAM-ECTC-US-IP_ECTC-US-IP      2016.04.07.13.17.41     3.53209076    -4.07045460    -7.88300180     0.00000173     0.00000000     0.00000131 0.00000000 VRAI 
CAM-ECTC-US-HO_ECTC-US-HO-T    2016.04.07.13.17.41     3.86902785     3.64755707   -12.94548264     0.00002200     0.00000038     0.00001697 0.00000000 VRAI 
CAM-ECTC-US-HO_ECTC-US-HO      2016.04.07.13.17.41     3.67381854    -3.92560029   -12.89595680     0.00000099     0.00000000     0.00000195 0.00000000 VRAI 
CAM-ECTC-USA-IP_ECTC-USA-IP-T  2016.04.07.13.17.41    -3.67537198     3.84923148    -7.90271807     0.00010291     0.00000120     0.00006397 0.00000000 VRAI 
CAM-ECTC-USA-IP_ECTC-USA-IP    2016.04.07.13.17.41    -3.53016596    -4.07029009    -7.87881413     0.00000440     0.00000000     0.00000248 0.00000000 VRAI 
CAM-ECTC-USA-HO_ECTC-USA-HO-T  2016.04.07.13.17.41    -3.86860847     3.64757895   -12.93792419     0.00000619     0.00000000     0.00000914 0.00000000 VRAI 
CAM-ECTC-USA-HO_ECTC-USA-HO    2016.04.07.13.17.41    -3.67593555    -3.92560840   -12.89238567     0.00000321     0.00000000     0.00000406 0.00000000 VRAI 
CAM-LBA-US_EBA-US-HO-H         2016.04.07.13.17.41     2.83561211    -3.69495749     6.48618937     0.00000737     0.00000808     0.00000000 0.00000000 VRAI 
CAM-LBA-US_JDA-US-H            2016.04.07.13.17.41     2.82030258    -3.73069959     6.67530537     0.00000642     0.00000460     0.00000000 0.00000000 VRAI 
CAM-LBA-US_CAM-LBC-US          2016.04.07.13.17.41     2.85294838    -3.73719139    -2.68939376     0.00000552     0.00000310     0.00000000 0.00000000 VRAI 
CAM-LBA-US_EBC-US-IP-H         2016.04.07.13.17.41     2.85103589    -3.68025398    -3.11695218     0.00002557     0.00000924     0.00000000 0.00000000 VRAI 
CAM-LBA-USA_EBA-USA-HO-H       2016.04.07.13.17.41    -2.86461151    -3.73427445     6.48601770     0.00000452     0.00000387     0.00000000 0.00000000 VRAI 
CAM-LBA-USA_JDA-USA-H          2016.04.07.13.17.41    -2.88393795    -3.67260933     7.43189800     0.00003019     0.00000778     0.00000021 0.00000000 VRAI 
CAM-LBA-USA_CAM-LBC-USA        2016.04.07.13.17.41    -2.76535916    -3.70647293    -2.71058416     0.00000319     0.00000355     0.00000024 0.00000000 VRAI 
CAM-LBA-USA_EBC-USA-IP-H       2016.04.07.13.17.41    -2.79923820    -3.68966818    -3.11712813     0.00001119     0.00000427     0.00000000 0.00000000 VRAI 
CAM-ECTA-US-IP_ECTA-US-IP-T    2016.04.07.13.17.41     3.55197674     3.84858727     8.10734439     0.01849209     0.00010219     0.00377778 0.00000000 VRAI 
CAM-ECTA-US-IP_ECTA-US-IP      2016.04.07.13.17.41     3.51831865    -4.07065344     7.90093315     0.00000051     0.00000000     0.00000156 0.00000000 VRAI 
CAM-ECTA-US-HO_ECTA-US-HO-T    2016.04.07.13.17.41     3.87565553     3.64746261    12.94075537     0.00000823     0.00000048     0.00001137 0.00000000 VRAI 
CAM-ECTA-US-HO_ECTA-US-HO      2016.04.07.13.17.41     3.66451252    -3.92576599    12.88784337     0.00000099     0.00000000     0.00000041 0.00000000 VRAI 
CAM-ECTA-USA-IP_ECTA-USA-IP-T  2016.04.07.13.17.41    -3.67459202     3.84890389     7.90269947     0.00001611     0.00000000     0.00001981 0.00000000 VRAI 
CAM-ECTA-USA-IP_ECTA-USA-IP    2016.04.07.13.17.41    -3.53275335    -4.07044220     7.89490986     0.00000105     0.00000000     0.00000034 0.00000000 VRAI 
CAM-ECTA-USA-HO_ECTA-USA-HO-T  2016.04.07.13.17.41    -3.86115110     3.64768791    12.94052744     0.00002290     0.00000000     0.00001067 0.00000000 VRAI 
CAM-ECTA-USA-HO_ECTA-USA-HO    2016.04.07.13.17.41    -3.68508434    -3.92556548    12.88935280     0.00000667     0.00000000     0.00000337 0.00000000 VRAI 
CAM-JDC-US-IP_JDC-US-IP        2016.04.07.13.17.41     2.59955341    -4.19501305    -6.54789817     0.00000219     0.00000000     0.00000180 0.00000000 VRAI 
CAM-JDC-US-HO_JDC-US-HO        2016.04.07.13.17.41     2.60999322    -4.14003038    -6.93089259     0.00000159     0.00000000     0.00000277 0.00000000 VRAI 
CAM-JDC-USA-IP_JDC-USA-IP      2016.04.07.13.17.41    -2.60460973    -4.19508934    -6.54049492     0.00000320     0.00000000     0.00000194 0.00000000 VRAI 
CAM-JDC-USA-HO_JDC-USA-HO      2016.04.07.13.17.41    -2.59356475    -4.14013112    -6.92662561     0.00000473     0.00000021     0.00000540 0.00000000 VRAI 
CAM-JDA-US-IP_JDA-US-IP        2016.04.07.13.17.41     2.58478844    -4.19496298     6.54848647     0.00000208     0.00000000     0.00000230 0.00000000 VRAI 
CAM-JDA-US-HO_JDA-US-HO        2016.04.07.13.17.41     2.59408224    -4.13996601     6.94811475     0.00000144     0.00000000     0.00000156 0.00000000 VRAI 
CAM-JDA-USA-IP_JDA-USA-IP      2016.04.07.13.17.41    -2.59767359    -4.19505072     6.53887975     0.00000167     0.00000000     0.00000253 0.00000000 VRAI 
CAM-JDA-USA-HO_JDA-USA-HO      2016.04.07.13.17.41    -2.60425162    -4.13995886     6.94240868     0.00000750     0.00000000     0.00000576 0.00000000 VRAI 
CAM-EBC-US-IP_EBC-US-IP        2016.04.07.13.17.41     2.60375166    -4.19700384    -3.82514220     0.00000185     0.00000000     0.00000219 0.00000000 VRAI 
CAM-EBC-US-HO_EBC-US-HO        2016.04.07.13.17.41     2.60552734    -4.19702053    -5.89336777     0.00000085     0.00000000     0.00000139 0.00000000 VRAI 
CAM-EBC-USA-IP_EBC-USA-IP      2016.04.07.13.17.41    -2.61115307    -4.19698238    -3.82717997     0.00000456     0.00000000     0.00000696 0.00000000 VRAI 
CAM-EBC-USA-HO_EBC-USA-HO      2016.04.07.13.17.41    -2.61572063    -4.19702065    -5.89158666     0.00000085     0.00000021     0.00000573 0.00000000 VRAI 
CAM-EBA-US-IP_EBA-US-IP        2016.04.07.13.17.41     2.61447620    -4.19698763     3.83334672     0.00000339     0.00000000     0.00000314 0.00000000 VRAI 
CAM-EBA-US-HO_EBA-US-HO        2016.04.07.13.17.41     2.61673307    -4.19703054     5.89767957     0.00000259     0.00000000     0.00000128 0.00000000 VRAI 
CAM-EBA-USA-IP_EBA-USA-IP      2016.04.07.13.17.41    -2.61107010    -4.19700384     3.83567387     0.00000461     0.00000000     0.00000331 0.00000000 VRAI 
CAM-EBA-USA-HO_EBA-USA-HO      2016.04.07.13.17.41    -2.61268950    -4.19702578     5.89848840     0.00000116     0.00000000     0.00000209 0.00000000 VRAI 
CAM-LBC-US_EBC-US-HO-H         2016.04.07.13.17.41     2.78350139    -3.76570773    -6.47911263     0.00000000     0.00000000     0.00000000 0.00000000 VRAI 
CAM-LBC-US_JDC-US-H            2016.04.07.13.17.41     2.85150093    -3.67907351    -6.67469835     0.01914915     0.00244210     0.00014453 0.00000000 VRAI 
CAM-LBC-US_CAM-LBA-US          2016.04.07.13.17.41     2.81475317    -3.75320387     2.69822550     0.00000457     0.00000503     0.00000000 0.00000000 VRAI 
CAM-LBC-US_EBA-US-IP-H         2016.04.07.13.17.41     2.84026921    -3.68406707     3.12405396     0.00000782     0.00000684     0.00000000 0.00000000 VRAI 
CAM-LBC-USA_EBC-USA-HO-H       2016.04.07.13.17.41    -2.84790528    -3.69356012    -6.47909927     0.00000176     0.00000448     0.00000000 0.00000000 VRAI 
CAM-LBC-USA_JDC-USA-H          2016.04.07.13.17.41    -2.82489353    -3.77017242    -6.67505980     0.00000554     0.00000330     0.00000000 0.00000000 VRAI 
CAM-LBC-USA_CAM-LBA-USA        2016.04.07.13.17.41    -2.81442195    -3.74955285     2.68347168     0.00000776     0.00000275     0.00000000 0.00000000 VRAI 
CAM-LBC-USA_EBA-USA-IP-H       2016.04.07.13.17.41    -2.79951280    -3.65548295     3.12363744     0.01336211     0.00786562     0.00017285 0.00000000 VRAI 
