********** Fichier qui contient une sauvegarde des coordonnees images + coordonnees images transformees dans le repere BCAM (MOUNT) + coordonnees des prismes dans le repere MOUNT********** 
********************************************************************** Unite en metres (m)************************************************************************************************** 

*******************************************************************coordonnees images dans le repere CCD *********************************************************************************** 
20MABNDB000069_PR031
Spot 1     0.00028524     0.00141241
Spot 2     0.00035670     0.00141217
Spot 1     0.00028474     0.00141251
Spot 2     0.00035666     0.00141251
Spot 1     0.00028441     0.00141232
Spot 2     0.00035614     0.00141171
Spot 1     0.00028433     0.00141237
Spot 2     0.00035632     0.00141200
Spot 1     0.00028475     0.00141196
Spot 2     0.00035664     0.00141246
20MABNDB000069_PR033
Spot 1     0.00183589     0.00201716
Spot 2     0.00230595     0.00203637
Spot 1     0.00183582     0.00201721
Spot 2     0.00230614     0.00203632
Spot 1     0.00183589     0.00201732
Spot 2     0.00230586     0.00203625
Spot 1     0.00183585     0.00201725
Spot 2     0.00230632     0.00203638
Spot 1     0.00183585     0.00201734
Spot 2     0.00230607     0.00203631
20MABNDB000131_PR032
Spot 1     0.00277933     0.00108447
Spot 2     0.00283853     0.00108797
Spot 1     0.00277917     0.00108472
Spot 2     0.00283854     0.00108778
Spot 1     0.00277927     0.00108446
Spot 2     0.00283877     0.00108797
Spot 1     0.00277939     0.00108437
Spot 2     0.00283876     0.00108787
Spot 1     0.00277926     0.00108459
Spot 2     0.00283867     0.00108788
20MABNDB000131_PR034
Spot 1     0.00092697     0.00035619
Spot 2     0.00110259     0.00035459
Spot 1     0.00092694     0.00035617
Spot 2     0.00110262     0.00035464
Spot 1     0.00092689     0.00035618
Spot 2     0.00110263     0.00035451
Spot 1     0.00092680     0.00035618
Spot 2     0.00110280     0.00035459
Spot 1     0.00092696     0.00035610
Spot 2     0.00110276     0.00035459
20MABNDA000208_PR042
Spot 1     0.00305694     0.00094828
Spot 2     0.00298832     0.00094947
Spot 1     0.00305614     0.00094822
Spot 2     0.00298797     0.00094984
Spot 1     0.00305635     0.00094824
Spot 2     0.00298928     0.00094948
Spot 1     0.00305613     0.00094841
Spot 2     0.00298838     0.00094981
Spot 1     0.00305673     0.00094813
Spot 2     0.00298853     0.00095037
20MABNDA000208_PR046
Spot 1     0.00145954     0.00211448
Spot 2     0.00098500     0.00211740
Spot 1     0.00145944     0.00211460
Spot 2     0.00098500     0.00211745
Spot 1     0.00145965     0.00211423
Spot 2     0.00098599     0.00211697
Spot 1     0.00145970     0.00211408
Spot 2     0.00098608     0.00211694
Spot 1     0.00145904     0.00211442
Spot 2     0.00098607     0.00211682
20MABNDA000035_PR044
Spot 1     0.00074086     0.00126543
Spot 2     0.00068448     0.00125905
Spot 1     0.00074079     0.00126538
Spot 2     0.00068413     0.00125895
Spot 1     0.00074114     0.00126511
Spot 2     0.00068430     0.00125910
Spot 1     0.00074130     0.00126515
Spot 2     0.00068399     0.00125897
Spot 1     0.00074124     0.00126538
Spot 2     0.00068416     0.00125913
20MABNDA000035_PR045
Spot 1     0.00254816     0.00051035
Spot 2     0.00237103     0.00050920
Spot 1     0.00254775     0.00051036
Spot 2     0.00237113     0.00050913
Spot 1     0.00254801     0.00051028
Spot 2     0.00237095     0.00050913
Spot 1     0.00254766     0.00051036
Spot 2     0.00237086     0.00050918
Spot 1     0.00254786     0.00051037
Spot 2     0.00237101     0.00050910
20MABNDL000077_PR002
Spot 1     0.00079519     0.00149592
Spot 2     0.00095703     0.00149608
Spot 1     0.00079525     0.00149460
Spot 2     0.00095712     0.00149600
Spot 1     0.00079530     0.00149575
Spot 2     0.00095711     0.00149600
Spot 1     0.00079534     0.00149440
Spot 2     0.00095715     0.00149583
Spot 1     0.00079533     0.00149469
Spot 2     0.00095723     0.00149556
20MABNDL000077_PR003
Spot 1     0.00152653     0.00119007
Spot 2     0.00167630     0.00119064
Spot 1     0.00152657     0.00119124
Spot 2     0.00167635     0.00119065
Spot 1     0.00152675     0.00119023
Spot 2     0.00167629     0.00119065
Spot 1     0.00152687     0.00118840
Spot 2     0.00167649     0.00119054
20MABNDL000077_20MABNDM000168
Spot 1     0.00188465     0.00148807
Spot 2     0.00304500     0.00031500
Spot 1     0.00188455     0.00148802
Spot 2     0.00304500     0.00031500
Spot 1     0.00188458     0.00148782
Spot 2     0.00304500     0.00031500
Spot 1     0.00188466     0.00148793
Spot 2     0.00304500     0.00031500
20MABNDL000077_PR024
Spot 1     0.00262742     0.00171656
Spot 2     0.00272897     0.00171979
Spot 1     0.00262766     0.00171652
Spot 2     0.00272887     0.00171958
Spot 1     0.00262774     0.00171642
Spot 2     0.00272906     0.00171953
Spot 1     0.00262763     0.00171616
Spot 2     0.00272959     0.00171946
20MABNDM000020_PR013
Spot 1     0.00164366     0.00213800
Spot 2     0.00148987     0.00214360
Spot 1     0.00164359     0.00213933
Spot 2     0.00149067     0.00214566
Spot 1     0.00164230     0.00213923
Spot 2     0.00148939     0.00214393
Spot 1     0.00164374     0.00213933
Spot 2     0.00148980     0.00214449
20MABNDM000020_PR014
Spot 1     0.00268016     0.00227716
Spot 2     0.00251734     0.00228497
Spot 1     0.00268028     0.00227802
Spot 2     0.00251772     0.00228576
Spot 1     0.00268000     0.00227712
Spot 2     0.00251737     0.00228520
Spot 1     0.00267930     0.00227785
Spot 2     0.00251690     0.00228597
20MABNDM000020_20MABNDL000196
Spot 1     0.00200172     0.00057982
Spot 2     0.00230500     0.00010500
Spot 1     0.00200184     0.00057974
Spot 2     0.00230500     0.00010500
Spot 1     0.00200167     0.00057965
Spot 2     0.00230500     0.00010500
Spot 1     0.00200164     0.00057960
Spot 2     0.00230500     0.00010500
20MABNDM000020_PR035
Spot 1     0.00126747     0.00087563
Spot 2     0.00119624     0.00090766
Spot 1     0.00126807     0.00087502
Spot 2     0.00119645     0.00090744
Spot 1     0.00126893     0.00087451
Spot 2     0.00119638     0.00090731
Spot 1     0.00126917     0.00087414
Spot 2     0.00119670     0.00090716
20MABNDA000188_PR008
Spot 1     0.00289500     0.00025500
Spot 2     0.00289500     0.00025500
Spot 1     0.00289500     0.00025500
Spot 2     0.00289500     0.00025500
Spot 1     0.00289500     0.00025500
Spot 2     0.00289500     0.00025500
Spot 1     0.00289500     0.00025500
Spot 2     0.00289500     0.00025500
20MABNDA000188_PR018
Spot 1     0.00164809     0.00175472
Spot 2     0.00118054     0.00175185
Spot 1     0.00164807     0.00175494
Spot 2     0.00118054     0.00175185
Spot 1     0.00164800     0.00175489
Spot 2     0.00118052     0.00175189
Spot 1     0.00164790     0.00175478
Spot 2     0.00118073     0.00175197
20MABNDA000039_PR009
Spot 1     0.00066136     0.00117186
Spot 2     0.00061415     0.00117650
Spot 1     0.00066145     0.00117195
Spot 2     0.00061435     0.00117626
Spot 1     0.00066115     0.00117181
Spot 2     0.00061435     0.00117620
Spot 1     0.00066066     0.00117225
Spot 2     0.00061422     0.00117646
20MABNDA000039_PR011
Spot 1     0.00276331     0.00027519
Spot 2     0.00258788     0.00026970
Spot 1     0.00276321     0.00027514
Spot 2     0.00258778     0.00026984
Spot 1     0.00276333     0.00027529
Spot 2     0.00258787     0.00026977
Spot 1     0.00276317     0.00027550
Spot 2     0.00258780     0.00026979
20MABNDB000155_PR020
Spot 1     0.00061618     0.00112368
Spot 2     0.00068207     0.00111978
Spot 1     0.00061671     0.00112386
Spot 2     0.00068191     0.00111935
Spot 1     0.00061717     0.00112367
Spot 2     0.00068184     0.00111958
Spot 1     0.00061726     0.00112341
Spot 2     0.00068211     0.00111957
20MABNDB000155_PR022
Spot 1     0.00208280     0.00135306
Spot 2     0.00255595     0.00134878
Spot 1     0.00208265     0.00135291
Spot 2     0.00255611     0.00134878
Spot 1     0.00208278     0.00135301
Spot 2     0.00255604     0.00134860
Spot 1     0.00208271     0.00135309
Spot 2     0.00255600     0.00134879
20MABNDB000010_PR021
Spot 1     0.00286677     0.00115538
Spot 2     0.00292105     0.00115835
Spot 1     0.00286677     0.00115564
Spot 2     0.00292102     0.00115872
Spot 1     0.00286695     0.00115581
Spot 2     0.00292121     0.00115840
Spot 1     0.00286667     0.00115600
Spot 2     0.00292138     0.00115862
20MABNDB000010_PR023
Spot 1     0.00130715     0.00032939
Spot 2     0.00148203     0.00032797
Spot 1     0.00130700     0.00032965
Spot 2     0.00148182     0.00032798
Spot 1     0.00130674     0.00032963
Spot 2     0.00148206     0.00032803
Spot 1     0.00130706     0.00032930
Spot 2     0.00148204     0.00032791
20MABNDB000212_PR029
Spot 1     0.00226301     0.00072383
Spot 2     0.00189621     0.00072348
Spot 1     0.00226325     0.00072396
Spot 2     0.00189667     0.00072333
Spot 1     0.00226311     0.00072408
Spot 2     0.00189658     0.00072395
Spot 1     0.00226325     0.00072396
Spot 2     0.00189675     0.00072342
20MABNDB000128_PR030
Spot 1     0.00188613     0.00199200
Spot 2     0.00209112     0.00198612
Spot 1     0.00188622     0.00199173
Spot 2     0.00209111     0.00198643
Spot 1     0.00188626     0.00199189
Spot 2     0.00209096     0.00198618
Spot 1     0.00188621     0.00199189
Spot 2     0.00209118     0.00198621
20MABNDA000444_PR040
Spot 1     0.00078138     0.00037200
Spot 2     0.00114788     0.00036839
Spot 1     0.00078131     0.00037230
Spot 2     0.00114833     0.00036891
Spot 1     0.00078133     0.00037219
Spot 2     0.00114862     0.00036877
Spot 1     0.00078135     0.00037214
Spot 2     0.00114851     0.00036851
20MABNDA000053_PR041
Spot 1     0.00164486     0.00197981
Spot 2     0.00144085     0.00197534
Spot 1     0.00164509     0.00197955
Spot 2     0.00144074     0.00197559
Spot 1     0.00164491     0.00197972
Spot 2     0.00144072     0.00197530
Spot 1     0.00164491     0.00197988
Spot 2     0.00144062     0.00197544
20MABNDA000196_PR006
Spot 1     0.00198237     0.00075833
Spot 2     0.00161654     0.00075596
Spot 1     0.00198228     0.00075814
Spot 2     0.00161672     0.00075598
Spot 1     0.00198258     0.00075824
Spot 2     0.00161684     0.00075588
Spot 1     0.00198254     0.00075833
Spot 2     0.00161659     0.00075629
20MABNDA000324_PR007
Spot 1     0.00195192     0.00119474
Spot 2     0.00174623     0.00120044
Spot 1     0.00195205     0.00119476
Spot 2     0.00174632     0.00120044
Spot 1     0.00195204     0.00119475
Spot 2     0.00174601     0.00120065
Spot 1     0.00195196     0.00119484
Spot 2     0.00174638     0.00120051
20MABNDB000001_PR017
Spot 1     0.00188754     0.00047155
Spot 2     0.00225618     0.00048135
Spot 1     0.00188759     0.00047147
Spot 2     0.00225638     0.00048132
Spot 1     0.00188753     0.00047152
Spot 2     0.00225619     0.00048107
Spot 1     0.00188760     0.00047143
Spot 2     0.00225633     0.00048114
20MABNDB000260_PR019
Spot 1     0.00192247     0.00148737
Spot 2     0.00212549     0.00148636
Spot 1     0.00192214     0.00148743
Spot 2     0.00212559     0.00148647
Spot 1     0.00192219     0.00148735
Spot 2     0.00212576     0.00148633
Spot 1     0.00192224     0.00148709
Spot 2     0.00212549     0.00148647
20MABNDB000135_PR027
Spot 1     0.00189058     0.00091584
Spot 2     0.00210900     0.00091750
Spot 1     0.00189040     0.00091585
Spot 2     0.00210887     0.00091741
Spot 1     0.00189049     0.00091593
Spot 2     0.00210896     0.00091766
Spot 1     0.00189060     0.00091588
Spot 2     0.00210879     0.00091721
20MABNDB000126_PR028
Spot 1     0.00164311     0.00200325
Spot 2     0.00192521     0.00200592
Spot 1     0.00164304     0.00200348
Spot 2     0.00192543     0.00200581
Spot 1     0.00164309     0.00200347
Spot 2     0.00192540     0.00200595
Spot 1     0.00164317     0.00200322
Spot 2     0.00192523     0.00200575
20MABNDA000272_PR038
Spot 1     0.00192432     0.00095280
Spot 2     0.00170236     0.00095236
Spot 1     0.00192431     0.00095299
Spot 2     0.00170233     0.00095262
Spot 1     0.00192428     0.00095301
Spot 2     0.00170218     0.00095238
Spot 1     0.00192455     0.00095267
Spot 2     0.00170248     0.00095229
20MABNDA000003_PR039
Spot 1     0.00200169     0.00192291
Spot 2     0.00228043     0.00192312
Spot 1     0.00200180     0.00192302
Spot 2     0.00228063     0.00192310
Spot 1     0.00200188     0.00192284
Spot 2     0.00228032     0.00192294
Spot 1     0.00200167     0.00192299
Spot 2     0.00228040     0.00192291
20MABNDA000318_PR004
Spot 1     0.00214762     0.00162038
Spot 2     0.00192974     0.00162062
Spot 1     0.00214740     0.00162027
Spot 2     0.00192964     0.00162065
Spot 1     0.00214748     0.00162036
Spot 2     0.00192936     0.00162124
Spot 1     0.00214743     0.00162029
Spot 2     0.00192963     0.00162079
20MABNDA000334_PR005
Spot 1     0.00247495     0.00158216
Spot 2     0.00219500     0.00158260
Spot 1     0.00247526     0.00158179
Spot 2     0.00219472     0.00158270
Spot 1     0.00247526     0.00158188
Spot 2     0.00219511     0.00158249
Spot 1     0.00247521     0.00158206
Spot 2     0.00219500     0.00158249
20MABNDB000317_PR015
Spot 1     0.00148841     0.00160196
Spot 2     0.00170795     0.00159532
Spot 1     0.00148852     0.00160198
Spot 2     0.00170803     0.00159468
Spot 1     0.00148813     0.00160209
Spot 2     0.00170824     0.00159529
Spot 1     0.00148880     0.00160237
Spot 2     0.00170780     0.00159558
20MABNDB000146_PR016
Spot 1     0.00172063     0.00133564
Spot 2     0.00144500     0.00133200
Spot 1     0.00172049     0.00133564
Spot 2     0.00144556     0.00133278
Spot 1     0.00172059     0.00133557
Spot 2     0.00144563     0.00133250
Spot 1     0.00172060     0.00133553
Spot 2     0.00144500     0.00133206
20MABNDM000168_PR025
Spot 1     0.00100500     0.00023500
Spot 2     0.00172500     0.00005500
Spot 1     0.00114500     0.00017500
Spot 2     0.00114500     0.00017500
Spot 1     0.00114500     0.00017500
Spot 2     0.00061500     0.00009500
Spot 1     0.00061500     0.00009500
Spot 2     0.00034833     0.00007167
20MABNDM000168_PR026
Spot 1     0.00246500     0.00029000
Spot 2     0.00184833     0.00011167
Spot 1     0.00184900     0.00011100
Spot 2     0.00184750     0.00011250
Spot 1     0.00278500     0.00008250
Spot 2     0.00241500     0.00005167
Spot 1     0.00332500     0.00002500
Spot 2     0.00184833     0.00011167
20MABNDM000168_20MABNDL000077
Spot 1     0.00153769     0.00129646
Spot 2     0.00175587     0.00130018
Spot 1     0.00153788     0.00129658
Spot 2     0.00175617     0.00130049
Spot 1     0.00153774     0.00129666
Spot 2     0.00175644     0.00130063
Spot 1     0.00153787     0.00129685
Spot 2     0.00175675     0.00130058
20MABNDM000168_PR001
Spot 1     0.00080715     0.00161609
Spot 2     0.00070505     0.00162067
Spot 1     0.00080663     0.00161587
Spot 2     0.00070515     0.00162104
Spot 1     0.00080651     0.00161609
Spot 2     0.00070480     0.00162078
Spot 1     0.00080673     0.00161613
Spot 2     0.00070505     0.00162082
20MABNDL000196_PR036
Spot 1     0.00095853     0.00164382
Spot 2     0.00112283     0.00164392
Spot 1     0.00095846     0.00164374
Spot 2     0.00112219     0.00164369
Spot 1     0.00095831     0.00164396
Spot 2     0.00112240     0.00164329
Spot 1     0.00095827     0.00164391
Spot 2     0.00112236     0.00164270
20MABNDL000196_PR037
Spot 1     0.00248203     0.00116443
Spot 2     0.00263752     0.00116269
Spot 1     0.00248203     0.00116430
Spot 2     0.00263736     0.00116292
Spot 1     0.00248180     0.00116455
Spot 2     0.00263739     0.00116301
Spot 1     0.00248190     0.00116418
Spot 2     0.00263735     0.00116290
20MABNDL000196_20MABNDM000020
Spot 1     0.00195175     0.00102959
Spot 2     0.00173010     0.00102928
Spot 1     0.00195187     0.00102952
Spot 2     0.00173014     0.00102941
Spot 1     0.00195205     0.00102938
Spot 2     0.00173006     0.00102936
Spot 1     0.00195201     0.00102941
Spot 2     0.00173009     0.00102949
20MABNDL000196_PR012
Spot 1     0.00213500     0.00017500
Spot 2     0.00213500     0.00017500
Spot 1     0.00213500     0.00017500
Spot 2     0.00213500     0.00017500
Spot 1     0.00046500     0.00017500
Spot 2     0.00046500     0.00017500
Spot 1     0.00213500     0.00017500
Spot 2     0.00213500     0.00017500


****************************************************************coordonnees images transformees dans le repere MOUNT************************************************************************* 
20MABNDB000069_PR031
Spot 1    -0.01359071    -0.01285531    -0.07388500
Spot 2    -0.01351932    -0.01285850    -0.07388500
Spot 1    -0.01359120    -0.01285519    -0.07388500
Spot 2    -0.01351935    -0.01285815    -0.07388500
Spot 1    -0.01359154    -0.01285536    -0.07388500
Spot 2    -0.01351990    -0.01285893    -0.07388500
Spot 1    -0.01359162    -0.01285531    -0.07388500
Spot 2    -0.01351971    -0.01285865    -0.07388500
Spot 1    -0.01359122    -0.01285574    -0.07388500
Spot 2    -0.01351937    -0.01285820    -0.07388500
20MABNDB000069_PR033
Spot 1    -0.01201642    -0.01231506    -0.07388500
Spot 2    -0.01154597    -0.01231527    -0.07388500
Spot 1    -0.01201649    -0.01231501    -0.07388500
Spot 2    -0.01154578    -0.01231533    -0.07388500
Spot 1    -0.01201642    -0.01231490    -0.07388500
Spot 2    -0.01154607    -0.01231538    -0.07388500
Spot 1    -0.01201646    -0.01231497    -0.07388500
Spot 2    -0.01154560    -0.01231527    -0.07388500
Spot 1    -0.01201646    -0.01231488    -0.07388500
Spot 2    -0.01154585    -0.01231533    -0.07388500
20MABNDB000131_PR032
Spot 1    -0.01144085    -0.01303027    -0.07533000
Spot 2    -0.01138167    -0.01302647    -0.07533000
Spot 1    -0.01144102    -0.01303002    -0.07533000
Spot 2    -0.01138166    -0.01302666    -0.07533000
Spot 1    -0.01144091    -0.01303028    -0.07533000
Spot 2    -0.01138143    -0.01302647    -0.07533000
Spot 1    -0.01144079    -0.01303037    -0.07533000
Spot 2    -0.01138144    -0.01302657    -0.07533000
Spot 1    -0.01144092    -0.01303015    -0.07533000
Spot 2    -0.01138153    -0.01302656    -0.07533000
20MABNDB000131_PR034
Spot 1    -0.01328952    -0.01376787    -0.07533000
Spot 2    -0.01311390    -0.01376858    -0.07533000
Spot 1    -0.01328955    -0.01376789    -0.07533000
Spot 2    -0.01311387    -0.01376853    -0.07533000
Spot 1    -0.01328960    -0.01376788    -0.07533000
Spot 2    -0.01311386    -0.01376866    -0.07533000
Spot 1    -0.01328969    -0.01376788    -0.07533000
Spot 2    -0.01311369    -0.01376858    -0.07533000
Spot 1    -0.01328953    -0.01376796    -0.07533000
Spot 2    -0.01311373    -0.01376858    -0.07533000
20MABNDA000208_PR042
Spot 1    -0.01392766     0.01304774    -0.07273700
Spot 2    -0.01385904     0.01304661    -0.07273700
Spot 1    -0.01392686     0.01304780    -0.07273700
Spot 2    -0.01385869     0.01304624    -0.07273700
Spot 1    -0.01392707     0.01304778    -0.07273700
Spot 2    -0.01386000     0.01304660    -0.07273700
Spot 1    -0.01392685     0.01304761    -0.07273700
Spot 2    -0.01385910     0.01304627    -0.07273700
Spot 1    -0.01392745     0.01304789    -0.07273700
Spot 2    -0.01385925     0.01304571    -0.07273700
20MABNDA000208_PR046
Spot 1    -0.01232924     0.01188294    -0.07273700
Spot 2    -0.01185470     0.01188044    -0.07273700
Spot 1    -0.01232914     0.01188282    -0.07273700
Spot 2    -0.01185470     0.01188039    -0.07273700
Spot 1    -0.01232935     0.01188319    -0.07273700
Spot 2    -0.01185569     0.01188087    -0.07273700
Spot 1    -0.01232940     0.01188334    -0.07273700
Spot 2    -0.01185578     0.01188090    -0.07273700
Spot 1    -0.01232874     0.01188300    -0.07273700
Spot 2    -0.01185577     0.01188102    -0.07273700
20MABNDA000035_PR044
Spot 1    -0.01157557     0.01299184    -0.07483200
Spot 2    -0.01151914     0.01299781    -0.07483200
Spot 1    -0.01157550     0.01299188    -0.07483200
Spot 2    -0.01151879     0.01299791    -0.07483200
Spot 1    -0.01157585     0.01299216    -0.07483200
Spot 2    -0.01151896     0.01299776    -0.07483200
Spot 1    -0.01157601     0.01299212    -0.07483200
Spot 2    -0.01151865     0.01299789    -0.07483200
Spot 1    -0.01157595     0.01299189    -0.07483200
Spot 2    -0.01151882     0.01299773    -0.07483200
20MABNDA000035_PR045
Spot 1    -0.01337745     0.01375975    -0.07483200
Spot 2    -0.01320032     0.01375964    -0.07483200
Spot 1    -0.01337704     0.01375974    -0.07483200
Spot 2    -0.01320042     0.01375971    -0.07483200
Spot 1    -0.01337730     0.01375982    -0.07483200
Spot 2    -0.01320024     0.01375971    -0.07483200
Spot 1    -0.01337695     0.01375974    -0.07483200
Spot 2    -0.01320015     0.01375966    -0.07483200
Spot 1    -0.01337715     0.01375973    -0.07483200
Spot 2    -0.01320030     0.01375974    -0.07483200
20MABNDL000077_PR002
Spot 1     0.01186547     0.03557139    -0.07463200
Spot 2     0.01202731     0.03556999    -0.07463200
Spot 1     0.01186552     0.03557007    -0.07463200
Spot 2     0.01202740     0.03556991    -0.07463200
Spot 1     0.01186558     0.03557121    -0.07463200
Spot 2     0.01202739     0.03556991    -0.07463200
Spot 1     0.01186561     0.03556986    -0.07463200
Spot 2     0.01202743     0.03556974    -0.07463200
Spot 1     0.01186560     0.03557015    -0.07463200
Spot 2     0.01202750     0.03556947    -0.07463200
20MABNDL000077_PR003
Spot 1     0.01259384     0.03525851    -0.07463200
Spot 2     0.01274361     0.03525764    -0.07463200
Spot 1     0.01259389     0.03525968    -0.07463200
Spot 2     0.01274366     0.03525765    -0.07463200
Spot 1     0.01259406     0.03525867    -0.07463200
Spot 2     0.01274360     0.03525765    -0.07463200
Spot 1     0.01259416     0.03525684    -0.07463200
Spot 2     0.01274380     0.03525754    -0.07463200
20MABNDL000077_20MABNDM000168
Spot 1    -0.01272290     0.03554973    -0.00695400
Spot 2    -0.01387118     0.03436485    -0.00695400
Spot 1    -0.01272280     0.03554968    -0.00695400
Spot 2    -0.01387118     0.03436485    -0.00695400
Spot 1    -0.01272282     0.03554948    -0.00695400
Spot 2    -0.01387118     0.03436485    -0.00695400
Spot 1    -0.01272291     0.03554959    -0.00695400
Spot 2    -0.01387118     0.03436485    -0.00695400
20MABNDL000077_PR024
Spot 1    -0.01346797     0.03577061    -0.00695400
Spot 2    -0.01356954     0.03577280    -0.00695400
Spot 1    -0.01346821     0.03577057    -0.00695400
Spot 2    -0.01356944     0.03577259    -0.00695400
Spot 1    -0.01346829     0.03577047    -0.00695400
Spot 2    -0.01356963     0.03577254    -0.00695400
Spot 1    -0.01346817     0.03577021    -0.00695400
Spot 2    -0.01357016     0.03577246    -0.00695400
20MABNDM000020_PR013
Spot 1    -0.01270177    -0.03609617    -0.00523500
Spot 2    -0.01285540    -0.03610517    -0.00523500
Spot 1    -0.01270181    -0.03609750    -0.00523500
Spot 2    -0.01285456    -0.03610721    -0.00523500
Spot 1    -0.01270311    -0.03609743    -0.00523500
Spot 2    -0.01285587    -0.03610551    -0.00523500
Spot 1    -0.01270166    -0.03609750    -0.00523500
Spot 2    -0.01285545    -0.03610606    -0.00523500
20MABNDM000020_PR014
Spot 1    -0.01166245    -0.03621237    -0.00523500
Spot 2    -0.01182506    -0.03622378    -0.00523500
Spot 1    -0.01166231    -0.03621323    -0.00523500
Spot 2    -0.01182466    -0.03622456    -0.00523500
Spot 1    -0.01166261    -0.03621234    -0.00523500
Spot 2    -0.01182502    -0.03622401    -0.00523500
Spot 1    -0.01166329    -0.03621308    -0.00523500
Spot 2    -0.01182547    -0.03622479    -0.00523500
20MABNDM000020_20MABNDL000196
Spot 1     0.01268448    -0.03454839    -0.07583800
Spot 2     0.01238113    -0.03407361    -0.07583800
Spot 1     0.01268436    -0.03454831    -0.07583800
Spot 2     0.01238113    -0.03407361    -0.07583800
Spot 1     0.01268453    -0.03454822    -0.07583800
Spot 2     0.01238113    -0.03407361    -0.07583800
Spot 1     0.01268456    -0.03454817    -0.07583800
Spot 2     0.01238113    -0.03407361    -0.07583800
20MABNDM000020_PR035
Spot 1     0.01341877    -0.03484410    -0.07583800
Spot 2     0.01349000    -0.03487612    -0.07583800
Spot 1     0.01341817    -0.03484349    -0.07583800
Spot 2     0.01348979    -0.03487590    -0.07583800
Spot 1     0.01341731    -0.03484298    -0.07583800
Spot 2     0.01348986    -0.03487577    -0.07583800
Spot 1     0.01341707    -0.03484261    -0.07583800
Spot 2     0.01348954    -0.03487562    -0.07583800
20MABNDA000188_PR008
Spot 1    -0.01391227     0.01380893    -0.07502000
Spot 2    -0.01391227     0.01380893    -0.07502000
Spot 1    -0.01391227     0.01380893    -0.07502000
Spot 2    -0.01391227     0.01380893    -0.07502000
Spot 1    -0.01391227     0.01380893    -0.07502000
Spot 2    -0.01391227     0.01380893    -0.07502000
Spot 1    -0.01391227     0.01380893    -0.07502000
Spot 2    -0.01391227     0.01380893    -0.07502000
20MABNDA000188_PR018
Spot 1    -0.01267825     0.01229859    -0.07502000
Spot 2    -0.01221069     0.01229746    -0.07502000
Spot 1    -0.01267823     0.01229837    -0.07502000
Spot 2    -0.01221069     0.01229746    -0.07502000
Spot 1    -0.01267816     0.01229842    -0.07502000
Spot 2    -0.01221067     0.01229742    -0.07502000
Spot 1    -0.01267806     0.01229853    -0.07502000
Spot 2    -0.01221088     0.01229734    -0.07502000
20MABNDA000039_PR009
Spot 1    -0.01162347     0.01307226    -0.07444800
Spot 2    -0.01157628     0.01306742    -0.07444800
Spot 1    -0.01162356     0.01307217    -0.07444800
Spot 2    -0.01157648     0.01306766    -0.07444800
Spot 1    -0.01162326     0.01307231    -0.07444800
Spot 2    -0.01157648     0.01306772    -0.07444800
Spot 1    -0.01162278     0.01307187    -0.07444800
Spot 2    -0.01157635     0.01306746    -0.07444800
20MABNDA000039_PR011
Spot 1    -0.01372153     0.01397802    -0.07444800
Spot 2    -0.01354607     0.01398275    -0.07444800
Spot 1    -0.01372142     0.01397807    -0.07444800
Spot 2    -0.01354597     0.01398261    -0.07444800
Spot 1    -0.01372155     0.01397792    -0.07444800
Spot 2    -0.01354606     0.01398268    -0.07444800
Spot 1    -0.01372139     0.01397771    -0.07444800
Spot 2    -0.01354599     0.01398266    -0.07444800
20MABNDB000155_PR020
Spot 1    -0.01364990    -0.01313374    -0.07501700
Spot 2    -0.01358396    -0.01313674    -0.07501700
Spot 1    -0.01364937    -0.01313355    -0.07501700
Spot 2    -0.01358411    -0.01313717    -0.07501700
Spot 1    -0.01364891    -0.01313374    -0.07501700
Spot 2    -0.01358419    -0.01313694    -0.07501700
Spot 1    -0.01364881    -0.01313399    -0.07501700
Spot 2    -0.01358392    -0.01313695    -0.07501700
20MABNDB000155_PR022
Spot 1    -0.01218655    -0.01288430    -0.07501700
Spot 2    -0.01171339    -0.01288211    -0.07501700
Spot 1    -0.01218670    -0.01288446    -0.07501700
Spot 2    -0.01171323    -0.01288210    -0.07501700
Spot 1    -0.01218657    -0.01288435    -0.07501700
Spot 2    -0.01171330    -0.01288228    -0.07501700
Spot 1    -0.01218664    -0.01288428    -0.07501700
Spot 2    -0.01171334    -0.01288210    -0.07501700
20MABNDB000010_PR021
Spot 1    -0.01158428    -0.01292316    -0.07358200
Spot 2    -0.01153005    -0.01291928    -0.07358200
Spot 1    -0.01158428    -0.01292290    -0.07358200
Spot 2    -0.01153009    -0.01291891    -0.07358200
Spot 1    -0.01158410    -0.01292273    -0.07358200
Spot 2    -0.01152989    -0.01291922    -0.07358200
Spot 1    -0.01158439    -0.01292255    -0.07358200
Spot 2    -0.01152973    -0.01291900    -0.07358200
20MABNDB000010_PR023
Spot 1    -0.01312968    -0.01377546    -0.07358200
Spot 2    -0.01295480    -0.01377391    -0.07358200
Spot 1    -0.01312983    -0.01377520    -0.07358200
Spot 2    -0.01295501    -0.01377391    -0.07358200
Spot 1    -0.01313009    -0.01377522    -0.07358200
Spot 2    -0.01295477    -0.01377385    -0.07358200
Spot 1    -0.01312977    -0.01377555    -0.07358200
Spot 2    -0.01295479    -0.01377397    -0.07358200
20MABNDB000212_PR029
Spot 1    -0.01182459    -0.01325775    -0.07390500
Spot 2    -0.01219138    -0.01325419    -0.07390500
Spot 1    -0.01182435    -0.01325763    -0.07390500
Spot 2    -0.01219092    -0.01325434    -0.07390500
Spot 1    -0.01182449    -0.01325750    -0.07390500
Spot 2    -0.01219100    -0.01325372    -0.07390500
Spot 1    -0.01182435    -0.01325763    -0.07390500
Spot 2    -0.01219084    -0.01325425    -0.07390500
20MABNDB000128_PR030
Spot 1    -0.01246896    -0.01222536    -0.07353400
Spot 2    -0.01226395    -0.01223054    -0.07353400
Spot 1    -0.01246887    -0.01222563    -0.07353400
Spot 2    -0.01226396    -0.01223023    -0.07353400
Spot 1    -0.01246883    -0.01222547    -0.07353400
Spot 2    -0.01226411    -0.01223048    -0.07353400
Spot 1    -0.01246888    -0.01222547    -0.07353400
Spot 2    -0.01226389    -0.01223045    -0.07353400
20MABNDA000444_PR040
Spot 1    -0.01172098     0.01365736    -0.07412000
Spot 2    -0.01208749     0.01365631    -0.07412000
Spot 1    -0.01172090     0.01365706    -0.07412000
Spot 2    -0.01208794     0.01365579    -0.07412000
Spot 1    -0.01172092     0.01365717    -0.07412000
Spot 2    -0.01208823     0.01365593    -0.07412000
Spot 1    -0.01172094     0.01365722    -0.07412000
Spot 2    -0.01208812     0.01365619    -0.07412000
20MABNDA000053_PR041
Spot 1    -0.01240131     0.01213049    -0.07430100
Spot 2    -0.01219725     0.01213097    -0.07430100
Spot 1    -0.01240154     0.01213075    -0.07430100
Spot 2    -0.01219715     0.01213072    -0.07430100
Spot 1    -0.01240136     0.01213058    -0.07430100
Spot 2    -0.01219712     0.01213101    -0.07430100
Spot 1    -0.01240136     0.01213042    -0.07430100
Spot 2    -0.01219703     0.01213087    -0.07430100
20MABNDA000196_PR006
Spot 1    -0.01293745     0.01321985    -0.07967100
Spot 2    -0.01257162     0.01321752    -0.07967100
Spot 1    -0.01293736     0.01322004    -0.07967100
Spot 2    -0.01257180     0.01321750    -0.07967100
Spot 1    -0.01293766     0.01321994    -0.07967100
Spot 2    -0.01257192     0.01321760    -0.07967100
Spot 1    -0.01293762     0.01321985    -0.07967100
Spot 2    -0.01257167     0.01321719    -0.07967100
20MABNDA000324_PR007
Spot 1    -0.01255777     0.01282680    -0.07446800
Spot 2    -0.01235204     0.01282271    -0.07446800
Spot 1    -0.01255790     0.01282678    -0.07446800
Spot 2    -0.01235213     0.01282271    -0.07446800
Spot 1    -0.01255789     0.01282679    -0.07446800
Spot 2    -0.01235182     0.01282250    -0.07446800
Spot 1    -0.01255781     0.01282670    -0.07446800
Spot 2    -0.01235219     0.01282264    -0.07446800
20MABNDB000001_PR017
Spot 1    -0.01230047    -0.01351798    -0.07418400
Spot 2    -0.01193175    -0.01351208    -0.07418400
Spot 1    -0.01230043    -0.01351806    -0.07418400
Spot 2    -0.01193155    -0.01351212    -0.07418400
Spot 1    -0.01230048    -0.01351801    -0.07418400
Spot 2    -0.01193174    -0.01351236    -0.07418400
Spot 1    -0.01230042    -0.01351810    -0.07418400
Spot 2    -0.01193160    -0.01351230    -0.07418400
20MABNDB000260_PR019
Spot 1    -0.01240856    -0.01241517    -0.07492700
Spot 2    -0.01220556    -0.01241202    -0.07492700
Spot 1    -0.01240889    -0.01241512    -0.07492700
Spot 2    -0.01220546    -0.01241191    -0.07492700
Spot 1    -0.01240883    -0.01241520    -0.07492700
Spot 2    -0.01220529    -0.01241204    -0.07492700
Spot 1    -0.01240878    -0.01241546    -0.07492700
Spot 2    -0.01220556    -0.01241191    -0.07492700
20MABNDB000135_PR027
Spot 1    -0.01251409    -0.01319718    -0.07464700
Spot 2    -0.01229567    -0.01319795    -0.07464700
Spot 1    -0.01251427    -0.01319716    -0.07464700
Spot 2    -0.01229580    -0.01319804    -0.07464700
Spot 1    -0.01251418    -0.01319708    -0.07464700
Spot 2    -0.01229571    -0.01319779    -0.07464700
Spot 1    -0.01251407    -0.01319714    -0.07464700
Spot 2    -0.01229588    -0.01319824    -0.07464700
20MABNDB000126_PR028
Spot 1    -0.01253639    -0.01217893    -0.07500400
Spot 2    -0.01225431    -0.01217475    -0.07500400
Spot 1    -0.01253646    -0.01217870    -0.07500400
Spot 2    -0.01225409    -0.01217486    -0.07500400
Spot 1    -0.01253641    -0.01217871    -0.07500400
Spot 2    -0.01225412    -0.01217472    -0.07500400
Spot 1    -0.01253633    -0.01217896    -0.07500400
Spot 2    -0.01225429    -0.01217492    -0.07500400
20MABNDA000272_PR038
Spot 1    -0.01275998     0.01315867    -0.07417900
Spot 2    -0.01253801     0.01315872    -0.07417900
Spot 1    -0.01275997     0.01315848    -0.07417900
Spot 2    -0.01253799     0.01315846    -0.07417900
Spot 1    -0.01275994     0.01315846    -0.07417900
Spot 2    -0.01253783     0.01315870    -0.07417900
Spot 1    -0.01276021     0.01315880    -0.07417900
Spot 2    -0.01253813     0.01315879    -0.07417900
20MABNDA000003_PR039
Spot 1    -0.01280277     0.01212936    -0.07373400
Spot 2    -0.01308151     0.01212986    -0.07373400
Spot 1    -0.01280288     0.01212925    -0.07373400
Spot 2    -0.01308171     0.01212988    -0.07373400
Spot 1    -0.01280296     0.01212943    -0.07373400
Spot 2    -0.01308140     0.01213004    -0.07373400
Spot 1    -0.01280275     0.01212928    -0.07373400
Spot 2    -0.01308148     0.01213007    -0.07373400
20MABNDA000318_PR004
Spot 1    -0.01286746     0.01247485    -0.07310600
Spot 2    -0.01264958     0.01247525    -0.07310600
Spot 1    -0.01286724     0.01247496    -0.07310600
Spot 2    -0.01264948     0.01247522    -0.07310600
Spot 1    -0.01286732     0.01247487    -0.07310600
Spot 2    -0.01264919     0.01247463    -0.07310600
Spot 1    -0.01286727     0.01247494    -0.07310600
Spot 2    -0.01264947     0.01247508    -0.07310600
20MABNDA000334_PR005
Spot 1    -0.01311806     0.01254624    -0.07324100
Spot 2    -0.01283811     0.01254553    -0.07324100
Spot 1    -0.01311837     0.01254661    -0.07324100
Spot 2    -0.01283783     0.01254543    -0.07324100
Spot 1    -0.01311837     0.01254652    -0.07324100
Spot 2    -0.01283822     0.01254564    -0.07324100
Spot 1    -0.01311832     0.01254634    -0.07324100
Spot 2    -0.01283811     0.01254564    -0.07324100
20MABNDB000317_PR015
Spot 1    -0.01266590    -0.01249608    -0.07326100
Spot 2    -0.01244630    -0.01250016    -0.07326100
Spot 1    -0.01266579    -0.01249606    -0.07326100
Spot 2    -0.01244621    -0.01250080    -0.07326100
Spot 1    -0.01266619    -0.01249595    -0.07326100
Spot 2    -0.01244601    -0.01250019    -0.07326100
Spot 1    -0.01266552    -0.01249566    -0.07326100
Spot 2    -0.01244645    -0.01249990    -0.07326100
20MABNDB000146_PR016
Spot 1    -0.01248774    -0.01245736    -0.07450500
Spot 2    -0.01276336    -0.01246161    -0.07450500
Spot 1    -0.01248788    -0.01245736    -0.07450500
Spot 2    -0.01276280    -0.01246083    -0.07450500
Spot 1    -0.01248778    -0.01245743    -0.07450500
Spot 2    -0.01276273    -0.01246111    -0.07450500
Spot 1    -0.01248777    -0.01245747    -0.07450500
Spot 2    -0.01276336    -0.01246155    -0.07450500
20MABNDM000168_PR025
Spot 1    -0.01340245    -0.03457293    -0.00532900
Spot 2    -0.01268323    -0.03438984    -0.00532900
Spot 1    -0.01326271    -0.03451233    -0.00532900
Spot 2    -0.01326271    -0.03451233    -0.00532900
Spot 1    -0.01326271    -0.03451233    -0.00532900
Spot 2    -0.01379305    -0.03443461    -0.00532900
Spot 1    -0.01379305    -0.03443461    -0.00532900
Spot 2    -0.01405981    -0.03441242    -0.00532900
20MABNDM000168_PR026
Spot 1    -0.01194223    -0.03462166    -0.00532900
Spot 2    -0.01255966    -0.03444598    -0.00532900
Spot 1    -0.01255899    -0.03444531    -0.00532900
Spot 2    -0.01256048    -0.03444681    -0.00532900
Spot 1    -0.01162312    -0.03441279    -0.00532900
Spot 2    -0.01199325    -0.03438355    -0.00532900
Spot 1    -0.01108337    -0.03435297    -0.00532900
Spot 2    -0.01255966    -0.03444598    -0.00532900
20MABNDM000168_20MABNDL000077
Spot 1     0.01288782    -0.03529715    -0.07445100
Spot 2     0.01266961    -0.03529768    -0.07445100
Spot 1     0.01288763    -0.03529727    -0.07445100
Spot 2     0.01266931    -0.03529798    -0.07445100
Spot 1     0.01288777    -0.03529735    -0.07445100
Spot 2     0.01266904    -0.03529812    -0.07445100
Spot 1     0.01288764    -0.03529754    -0.07445100
Spot 2     0.01266873    -0.03529806    -0.07445100
20MABNDM000168_PR001
Spot 1     0.01361361    -0.03562743    -0.07445100
Spot 2     0.01371563    -0.03563351    -0.07445100
Spot 1     0.01361413    -0.03562722    -0.07445100
Spot 2     0.01371553    -0.03563387    -0.07445100
Spot 1     0.01361425    -0.03562744    -0.07445100
Spot 2     0.01371588    -0.03563362    -0.07445100
Spot 1     0.01361403    -0.03562748    -0.07445100
Spot 2     0.01371563    -0.03563366    -0.07445100
20MABNDL000196_PR036
Spot 1     0.01193845     0.03583254    -0.07483600
Spot 2     0.01210275     0.03583299    -0.07483600
Spot 1     0.01193838     0.03583246    -0.07483600
Spot 2     0.01210211     0.03583275    -0.07483600
Spot 1     0.01193823     0.03583268    -0.07483600
Spot 2     0.01210232     0.03583236    -0.07483600
Spot 1     0.01193819     0.03583263    -0.07483600
Spot 2     0.01210228     0.03583176    -0.07483600
20MABNDL000196_PR037
Spot 1     0.01346294     0.03535633    -0.07483600
Spot 2     0.01361844     0.03535492    -0.07483600
Spot 1     0.01346294     0.03535620    -0.07483600
Spot 2     0.01361828     0.03535515    -0.07483600
Spot 1     0.01346271     0.03535645    -0.07483600
Spot 2     0.01361831     0.03535524    -0.07483600
Spot 1     0.01346281     0.03535608    -0.07483600
Spot 2     0.01361827     0.03535513    -0.07483600
20MABNDL000196_20MABNDM000020
Spot 1    -0.01277555     0.03530027    -0.00611000
Spot 2    -0.01255394     0.03530442    -0.00611000
Spot 1    -0.01277567     0.03530020    -0.00611000
Spot 2    -0.01255399     0.03530455    -0.00611000
Spot 1    -0.01277585     0.03530006    -0.00611000
Spot 2    -0.01255391     0.03530451    -0.00611000
Spot 1    -0.01277581     0.03530009    -0.00611000
Spot 2    -0.01255394     0.03530463    -0.00611000
20MABNDL000196_PR012
Spot 1    -0.01294157     0.03444217    -0.00611000
Spot 2    -0.01294157     0.03444217    -0.00611000
Spot 1    -0.01294157     0.03444217    -0.00611000
Spot 2    -0.01294157     0.03444217    -0.00611000
Spot 1    -0.01127191     0.03447577    -0.00611000
Spot 2    -0.01127191     0.03447577    -0.00611000
Spot 1    -0.01294157     0.03444217    -0.00611000
Spot 2    -0.01294157     0.03444217    -0.00611000


*****************************************************************coordonnees du prisme dans le repere MOUNT********************************************************************************** 
20MABNDB000069_PR031
    0.10204837    -0.03959061     9.20356369
    0.10208034    -0.03961893     9.20356178
    0.10213493    -0.03956042     9.20356178
    0.10212794    -0.03958100     9.20356178
    0.10208248    -0.03958219     9.20356178
20MABNDB000069_PR033
   -0.02698680    -0.02604534     1.28394806
   -0.02698783    -0.02604530     1.28394806
   -0.02698605    -0.02604571     1.28394806
   -0.02698966    -0.02604608     1.28394806
   -0.02698753    -0.02604634     1.28394806
20MABNDB000131_PR032
   -0.18823126    -0.03078826    11.00641537
   -0.18822028    -0.03079259    11.00641537
   -0.18824440    -0.03078760    11.00641537
   -0.18825252    -0.03077376    11.00641537
   -0.18823636    -0.03079048    11.00641537
20MABNDB000131_PR034
    0.01421682     0.01506583     3.43339157
    0.01421682     0.01506515     3.43339157
    0.01421772     0.01506789     3.43339157
    0.01421591     0.01506606     3.43339157
    0.01421316     0.01506787     3.43339157
20MABNDA000208_PR042
    0.13209164     0.01415599     9.20145512
    0.13202105     0.01417495     9.20145607
    0.13211435     0.01415417     9.20145512
    0.13204560     0.01418480     9.20145607
    0.13209161     0.01420202     9.20145512
20MABNDA000208_PR046
   -0.02330890     0.03314108     1.28210735
   -0.02330976     0.03314253     1.28210711
   -0.02329950     0.03313528     1.28210735
   -0.02329830     0.03313375     1.28210735
   -0.02330403     0.03313562     1.28210735
20MABNDA000035_PR044
   -0.17954272     0.02790540    11.00802708
   -0.17957352     0.02789465    11.00802708
   -0.17953555     0.02788560    11.00802708
   -0.17954656     0.02787910    11.00802708
   -0.17953831     0.02790757    11.00802708
20MABNDA000035_PR045
    0.01474177    -0.01718744     3.43485212
    0.01473469    -0.01718876     3.43485212
    0.01473650    -0.01719060     3.43485212
    0.01472648    -0.01718756     3.43485212
    0.01473446    -0.01718921     3.43485212
20MABNDL000077_PR002
    0.04953033     0.02147558     3.70690966
    0.04952695     0.02151019     3.70690966
    0.04952569     0.02148180     3.70690966
    0.04952408     0.02151936     3.70690966
    0.04952234     0.02151888     3.70690966
20MABNDL000077_PR003
    0.01390483     0.03696413     3.89605379
    0.01390220     0.03693351     3.89605379
    0.01389933     0.03695976     3.89605379
    0.01389151     0.03701020     3.89605379
20MABNDL000077_20MABNDM000168
    0.03151542     0.05813034    -5.46852970
    0.03151178     0.05813210    -5.46852970
    0.03151279     0.05813934    -5.46852970
    0.03151572     0.05813539    -5.46852970
20MABNDL000077_PR024
    0.05231076    -0.00361148    -5.89622355
    0.05231612    -0.00360168    -5.89622355
    0.05232659    -0.00359573    -5.89622355
    0.05234283    -0.00358269    -5.89622355
20MABNDM000020_PR013
   -0.00515308     0.01214626    -3.80216932
   -0.00517304     0.01222993    -3.80216837
   -0.00510829     0.01218596    -3.80216908
   -0.00515454     0.01220131    -3.80216908
20MABNDM000020_PR014
   -0.06764388     0.03166760    -4.74799871
   -0.06766056     0.03171857    -4.74799824
   -0.06763996     0.03167360    -4.74799871
   -0.06760459     0.03172106    -4.74799871
20MABNDM000020_20MABNDL000196
    0.02774012    -0.09267636     5.39451170
    0.02774442    -0.09267922     5.39451170
    0.02773833    -0.09268245     5.39451170
    0.02773725    -0.09268424     5.39451122
20MABNDM000020_PR035
   -0.04214009    -0.05464254     5.80100060
   -0.04210887    -0.05467451     5.80100060
   -0.04207844    -0.05469916     5.80100155
   -0.04205686    -0.05471919     5.80100155
20MABNDA000188_PR008
    0.13650158    -0.07885031     9.20339394
    0.13650158    -0.07885031     9.20339394
    0.13650158    -0.07885031     9.20339394
    0.13650158    -0.07885031     9.20339394
20MABNDA000188_PR018
   -0.01701706     0.02613930     1.28357697
   -0.01701721     0.02614118     1.28357697
   -0.01701798     0.02614110     1.28357697
   -0.01701704     0.02614084     1.28357697
20MABNDA000039_PR009
   -0.17153180     0.02443659    11.00701141
   -0.17151064     0.02442553    11.00701141
   -0.17153263     0.02441100    11.00701141
   -0.17157775     0.02446239    11.00701141
20MABNDA000039_PR011
    0.03056252    -0.02486655     3.43347001
    0.03055797    -0.02486448     3.43347001
    0.03056277    -0.02486267     3.43347001
    0.03055754    -0.02485740     3.43347001
20MABNDB000155_PR020
    0.10251419    -0.00818414     9.20027733
    0.10249127    -0.00816910     9.20027733
    0.10246736    -0.00817189     9.20027733
    0.10244504    -0.00815562     9.20027924
20MABNDB000155_PR022
   -0.02510699    -0.01674440     1.28071570
   -0.02510710    -0.01674312     1.28071570
   -0.02510762    -0.01674244     1.28071570
   -0.02510665    -0.01674474     1.28071570
20MABNDB000010_PR021
   -0.17582597    -0.03407701    11.00695038
   -0.17582299    -0.03412329    11.00695038
   -0.17585036    -0.03411272    11.00695038
   -0.17584176    -0.03414272    11.00695038
20MABNDB000010_PR023
    0.00456038     0.01950793     3.43377733
    0.00456874     0.01950188     3.43377733
    0.00456921     0.01950120     3.43377733
    0.00456216     0.01951140     3.43377733
20MABNDB000212_PR029
   -0.02598163    -0.00895585     1.64223456
   -0.02598930    -0.00895555     1.64223433
   -0.02598687    -0.00896369     1.64223456
   -0.02599019    -0.00895653     1.64223433
20MABNDB000128_PR030
   -0.01873426    -0.04643169     2.95496869
   -0.01873583    -0.04643249     2.95496869
   -0.01873367    -0.04643071     2.95496869
   -0.01873701    -0.04643131     2.95496869
20MABNDA000444_PR040
   -0.02945845     0.00130299     1.64491951
   -0.02945440     0.00131202     1.64491963
   -0.02945097     0.00130933     1.64491963
   -0.02945191     0.00130592     1.64491963
20MABNDA000053_PR041
   -0.02689601     0.05061286     2.95450878
   -0.02689366     0.05061262     2.95450878
   -0.02689764     0.05061034     2.95450878
   -0.02689948     0.05061626     2.95450854
20MABNDA000196_PR006
   -0.01047261     0.01056833     1.64206505
   -0.01047166     0.01056646     1.64206505
   -0.01046707     0.01056640     1.64206505
   -0.01047016     0.01057191     1.64206505
20MABNDA000324_PR007
   -0.02509166     0.02716861     2.95549583
   -0.02508733     0.02716904     2.95549583
   -0.02509366     0.02717292     2.95549583
   -0.02508794     0.02717198     2.95549583
20MABNDB000001_PR017
   -0.02416278    -0.00356377     1.64036393
   -0.02416550    -0.00356254     1.64036381
   -0.02416275    -0.00356038     1.64036381
   -0.02416504    -0.00356014     1.64036381
20MABNDB000260_PR019
   -0.02436398    -0.03773033     2.95628023
   -0.02435939    -0.03773358     2.95628023
   -0.02436380    -0.03772935     2.95628023
   -0.02435952    -0.03772689     2.95628023
20MABNDB000135_PR027
   -0.02099193    -0.00984481     2.74937153
   -0.02098623    -0.00984340     2.74937153
   -0.02098960    -0.00984942     2.74937153
   -0.02098840    -0.00984026     2.74937153
20MABNDB000126_PR028
   -0.02029046    -0.03880854     2.14679718
   -0.02029259    -0.03881026     2.14679718
   -0.02029286    -0.03881212     2.14679718
   -0.02029162    -0.03880569     2.14679718
20MABNDA000272_PR038
   -0.01319290     0.01086653     2.74965858
   -0.01319362     0.01087478     2.74965882
   -0.01319693     0.01087075     2.74965858
   -0.01318650     0.01086285     2.74965858
20MABNDA000003_PR039
   -0.00589982     0.04113737     2.14891672
   -0.00589539     0.04113866     2.14891672
   -0.00589869     0.04113380     2.14891672
   -0.00590054     0.04113552     2.14891672
20MABNDA000318_PR004
   -0.00839095     0.03818950     2.74966073
   -0.00839682     0.03818802     2.74966073
   -0.00840052     0.03820048     2.74966049
   -0.00839646     0.03819095     2.74966073
20MABNDA000334_PR005
   -0.00421389     0.03158093     2.14977264
   -0.00421346     0.03157707     2.14977264
   -0.00420789     0.03157535     2.14977264
   -0.00421017     0.03157792     2.14977264
20MABNDB000317_PR015
   -0.01739443    -0.03406162     2.75128984
   -0.01739802    -0.03405037     2.75128984
   -0.01739459    -0.03406344     2.75128984
   -0.01739866    -0.03407386     2.75128937
20MABNDB000146_PR016
   -0.01344911    -0.03179773     2.15201259
   -0.01345512    -0.03180896     2.15201259
   -0.01345758    -0.03180394     2.15201259
   -0.01344868    -0.03179701     2.15201259
20MABNDM000168_PR025
    0.00509917    -0.07820691    -3.78851509
    0.01597064    -0.07667626    -3.78846455
    0.02908076    -0.07859614    -3.78831816
    0.04878252    -0.08106247    -3.78801441
20MABNDM000168_PR026
   -0.03518692    -0.07770362    -3.98432708
   -0.01911153    -0.08227234    -3.98433471
   -0.05823331    -0.08476204    -3.98404455
   -0.05753911    -0.08469406    -3.98405337
20MABNDM000168_20MABNDL000077
    0.01134301    -0.03905297     5.38884640
    0.01136083    -0.03903779     5.38884640
    0.01136562    -0.03902995     5.38884640
    0.01138150    -0.03902515     5.38884640
20MABNDM000168_PR001
   -0.05744983    -0.01346842     5.81470490
   -0.05746603    -0.01346237     5.81470490
   -0.05748426    -0.01346365     5.81470394
   -0.05746601    -0.01346082     5.81470490
20MABNDL000196_PR036
    0.05075900     0.00571733     3.68777633
    0.05077641     0.00572498     3.68777585
    0.05077493     0.00572939     3.68777633
    0.05077686     0.00574511     3.68777633
20MABNDL000196_PR037
   -0.02582581     0.02878279     3.88380671
   -0.02582167     0.02878021     3.88380671
   -0.02581648     0.02877143     3.88380671
   -0.02581806     0.02878384     3.88380671
20MABNDL000196_20MABNDM000020
   -0.01387397     0.03898452    -5.47473907
   -0.01386818     0.03898248    -5.47473907
   -0.01386473     0.03898938    -5.47473907
   -0.01386497     0.03898362    -5.47473907
20MABNDL000196_PR012
    0.00754716     0.10608155    -5.91531944
    0.00754716     0.10608155    -5.91531944
   -0.12221131     0.10345885    -5.91435766
    0.00754716     0.10608155    -5.91531944


*****************************************************************coordonnees du prisme dans le repere ATLAS********************************************************************************** 
20MABNDB000069_PR031 0.00000000
    3.68376565     3.84876251    -7.90081215
    3.68379760     3.84876060    -7.90078354
    3.68385196     3.84876013    -7.90084219
    3.68384504     3.84876037    -7.90082169
    3.68379974     3.84876037    -7.90082026
20MABNDB000069_PR033 0.00000000
    3.53331232    -4.07045841    -7.87962580
    3.53331113    -4.07045841    -7.87962580
    3.53331304    -4.07045841    -7.87962580
    3.53330946    -4.07045841    -7.87962532
    3.53331161    -4.07045841    -7.87962484
20MABNDB000131_PR032 0.00000000
    3.86903334     3.64756536   -12.94143105
    3.86902237     3.64756536   -12.94143581
    3.86904645     3.64756536   -12.94143009
    3.86905456     3.64756536   -12.94141674
    3.86903858     3.64756536   -12.94143295
20MABNDB000131_PR034 0.00000000
    3.67357206    -3.92562532   -12.89288139
    3.67357206    -3.92562532   -12.89288235
    3.67357111    -3.92562532   -12.89287949
    3.67357302    -3.92562532   -12.89288139
    3.67357564    -3.92562532   -12.89287949
20MABNDA000208_PR042 0.00000000
   -3.68216944     3.84913468    -7.89733028
   -3.68209887     3.84913564    -7.89731121
   -3.68219233     3.84913468    -7.89733219
   -3.68212342     3.84913564    -7.89730120
   -3.68216944     3.84913468    -7.89728403
20MABNDA000208_PR046 0.00000000
   -3.53245568    -4.07031488    -7.87537718
   -3.53245497    -4.07031536    -7.87537575
   -3.53246522    -4.07031488    -7.87538290
   -3.53246641    -4.07031488    -7.87538481
   -3.53246069    -4.07031488    -7.87538290
20MABNDA000035_PR044 0.00000000
   -3.86878395     3.64758229   -12.93358421
   -3.86881471     3.64758229   -12.93357372
   -3.86877680     3.64758229   -12.93356514
   -3.86878777     3.64758229   -12.93355846
   -3.86877942     3.64758229   -12.93358707
20MABNDA000035_PR045 0.00000000
   -3.67598701    -3.92563510   -12.88919735
   -3.67599392    -3.92563510   -12.88919544
   -3.67599225    -3.92563510   -12.88919353
   -3.67600226    -3.92563510   -12.88919640
   -3.67599416    -3.92563510   -12.88919544
20MABNDL000077_PR002 0.00000000
    2.83556533    -3.69498658     6.48618984
    2.83553076    -3.69498992     6.48618984
    2.83555913    -3.69499135     6.48618984
    2.83552146    -3.69499278     6.48618984
    2.83552194    -3.69499469     6.48618984
20MABNDL000077_PR003 0.00000000
    2.82025099    -3.73084044     6.67530489
    2.82028151    -3.73084307     6.67530489
    2.82025528    -3.73084593     6.67530489
    2.82020473    -3.73085380     6.67530489
20MABNDL000077_20MABNDM000168 0.00000000
    2.78990483    -3.70166922    -2.68922424
    2.78990316    -3.70167303    -2.68922424
    2.78989577    -3.70167184    -2.68922424
    2.78989983    -3.70166898    -2.68922424
20MABNDL000077_PR024 0.00000000
    2.85123372    -3.68036580    -3.11695242
    2.85122395    -3.68036056    -3.11695242
    2.85121799    -3.68035007    -3.11695242
    2.85120487    -3.68033385    -3.11695242
20MABNDM000020_PR013 0.00000000
   -2.86445522    -3.73432136     6.48601913
   -2.86453891    -3.73430157     6.48601818
   -2.86449504    -3.73436618     6.48601866
   -2.86451030    -3.73431993     6.48601866
20MABNDM000020_PR014 0.00000000
   -2.88376808    -3.67254400     7.43189955
   -2.88381910    -3.67252731     7.43189907
   -2.88377404    -3.67254806     7.43189955
   -2.88382173    -3.67258334     7.43189955
20MABNDM000020_20MABNDL000196 0.00000000
   -2.76148319    -3.76025224    -2.71070528
   -2.76148033    -3.76025653    -2.71070528
   -2.76147699    -3.76025057    -2.71070528
   -2.76147532    -3.76024938    -2.71070480
20MABNDM000020_PR035 0.00000000
   -2.79957700    -3.69005132    -3.11713314
   -2.79954505    -3.69008255    -3.11713314
   -2.79952025    -3.69011307    -3.11713409
   -2.79950023    -3.69013453    -3.11713433
20MABNDA000188_PR008 0.00000000
    3.54951787     3.84898496     8.09023857
    3.54951787     3.84898496     8.09023857
    3.54951787     3.84898496     8.09023857
    3.54951787     3.84898496     8.09023857
20MABNDA000188_PR018 0.00000000
    3.52012491    -4.07061100     7.89729691
    3.52012467    -4.07061100     7.89729500
    3.52012396    -4.07061100     7.89729500
    3.52012491    -4.07061100     7.89729548
20MABNDA000039_PR009 0.00000000
    3.87570381     3.64746952    12.93573093
    3.87568283     3.64746952    12.93571949
    3.87570477     3.64746952    12.93570518
    3.87574983     3.64746928    12.93575668
20MABNDA000039_PR011 0.00000000
    3.66446161    -3.92580605    12.88397026
    3.66446614    -3.92580605    12.88397217
    3.66446137    -3.92580605    12.88397408
    3.66446662    -3.92580605    12.88397884
20MABNDB000155_PR020 0.00000000
   -3.68116689     3.84880948     7.89868307
   -3.68114376     3.84880972     7.89869785
   -3.68111992     3.84880972     7.89869499
   -3.68109775     3.84881163     7.89871120
20MABNDB000155_PR022 0.00000000
   -3.53487372    -4.07043028     7.89131451
   -3.53487372    -4.07043028     7.89131594
   -3.53487325    -4.07043028     7.89131641
   -3.53487420    -4.07043028     7.89131451
20MABNDB000010_PR021 0.00000000
   -3.86166286     3.64768791    12.93590641
   -3.86165977     3.64768791    12.93595219
   -3.86168718     3.64768791    12.93594170
   -3.86167860     3.64768791    12.93597221
20MABNDB000010_PR023 0.00000000
   -3.68510532    -3.92559910    12.88576794
   -3.68509698    -3.92559910    12.88577366
   -3.68509650    -3.92559910    12.88577461
   -3.68510365    -3.92559910    12.88576412
20MABNDB000212_PR029 0.00000000
    2.59965944    -4.19501352    -6.54794359
    2.59966707    -4.19501400    -6.54794359
    2.59966469    -4.19501352    -6.54795170
    2.59966803    -4.19501400    -6.54794455
20MABNDB000128_PR030 0.00000000
    2.61012459    -4.14002275    -6.93168926
    2.61012292    -4.14002275    -6.93168831
    2.61012506    -4.14002275    -6.93169022
    2.61012173    -4.14002275    -6.93168974
20MABNDA000444_PR040 0.00000000
   -2.60463095    -4.19508982    -6.54048347
   -2.60462689    -4.19508982    -6.54049253
   -2.60462356    -4.19508982    -6.54048967
   -2.60462451    -4.19508982    -6.54048634
20MABNDA000053_PR041 0.00000000
   -2.59364581    -4.14012337    -6.92730045
   -2.59364820    -4.14012337    -6.92730093
   -2.59364438    -4.14012337    -6.92730331
   -2.59364247    -4.14012384    -6.92729712
20MABNDA000196_PR006 0.00000000
    2.58493304    -4.19496298     6.54852486
    2.58493209    -4.19496298     6.54852295
    2.58492756    -4.19496298     6.54852295
    2.58493066    -4.19496298     6.54852867
20MABNDA000324_PR007 0.00000000
    2.59422302    -4.13996172     6.94874668
    2.59422731    -4.13996172     6.94874620
    2.59422112    -4.13996172     6.94874239
    2.59422684    -4.13996172     6.94874334
20MABNDB000001_PR017 0.00000000
   -2.59786439    -4.19505167     6.53889179
   -2.59786701    -4.19505167     6.53889084
   -2.59786439    -4.19505167     6.53888845
   -2.59786654    -4.19505167     6.53888845
20MABNDB000260_PR019 0.00000000
   -2.60439825    -4.13995457     6.94291353
   -2.60440278    -4.13995457     6.94291019
   -2.60439825    -4.13995457     6.94291449
   -2.60440254    -4.13995457     6.94291687
20MABNDB000135_PR027 0.00000000
    2.60387135    -4.19700384    -3.82551599
    2.60387707    -4.19700384    -3.82551742
    2.60387373    -4.19700384    -3.82551146
    2.60387492    -4.19700384    -3.82552052
20MABNDB000126_PR028 0.00000000
    2.60562682    -4.19701958    -5.89341116
    2.60562468    -4.19701958    -5.89340973
    2.60562444    -4.19701958    -5.89340782
    2.60562563    -4.19702005    -5.89341402
20MABNDA000272_PR038 0.00000000
   -2.61134410    -4.19698286    -3.82761788
   -2.61134315    -4.19698286    -3.82760954
   -2.61134005    -4.19698286    -3.82761359
   -2.61135030    -4.19698286    -3.82762146
20MABNDA000003_PR039 0.00000000
   -2.61583138    -4.19702053    -5.89162922
   -2.61583567    -4.19702053    -5.89162827
   -2.61583233    -4.19702053    -5.89163303
   -2.61583066    -4.19702053    -5.89163113
20MABNDA000318_PR004 0.00000000
    2.61461234    -4.19698954     3.83380914
    2.61460638    -4.19698954     3.83381057
    2.61460280    -4.19698954     3.83379817
    2.61460686    -4.19698954     3.83380771
20MABNDA000334_PR005 0.00000000
    2.61678457    -4.19703054     5.89767981
    2.61678505    -4.19703054     5.89768362
    2.61679077    -4.19703054     5.89768553
    2.61678839    -4.19703054     5.89768314
20MABNDB000317_PR015 0.00000000
   -2.61121273    -4.19700480     3.83595395
   -2.61120915    -4.19700527     3.83596516
   -2.61121249    -4.19700480     3.83595204
   -2.61120844    -4.19700527     3.83594155
20MABNDB000146_PR016 0.00000000
   -2.61284614    -4.19702530     5.89855242
   -2.61284018    -4.19702530     5.89854145
   -2.61283755    -4.19702530     5.89854622
   -2.61284661    -4.19702530     5.89855337
20MABNDM000168_PR025 0.00000000
    2.77503324    -3.75041318    -6.47913551
    2.77656102    -3.76128507    -6.47908068
    2.77463770    -3.77439451    -6.47892952
    2.77216625    -3.79409552    -6.47861814
20MABNDM000168_PR026 0.00000000
    2.77553535    -3.71020007    -6.67496252
    2.77096248    -3.72627425    -6.67496347
    2.76848316    -3.68715167    -6.67468786
    2.76855087    -3.68784595    -6.67469645
20MABNDM000168_20MABNDL000077 0.00000000
    2.81474257    -3.75325513     2.69822550
    2.81475782    -3.75327277     2.69822550
    2.81476569    -3.75327754     2.69822550
    2.81477046    -3.75329351     2.69822550
20MABNDM000168_PR001 0.00000000
    2.84037113    -3.68431067     3.12405682
    2.84037733    -3.68429446     3.12405682
    2.84037590    -3.68427610     3.12405586
    2.84037876    -3.68429446     3.12405682
20MABNDL000196_PR036 0.00000000
   -2.84788990    -3.69351554    -6.47909927
   -2.84788227    -3.69349813    -6.47909880
   -2.84787774    -3.69349957    -6.47909927
   -2.84786224    -3.69349766    -6.47909927
20MABNDL000196_PR037 0.00000000
   -2.82479310    -3.77027202    -6.67505884
   -2.82479572    -3.77026796    -6.67505884
   -2.82480454    -3.77026272    -6.67505884
   -2.82479191    -3.77026415    -6.67505884
20MABNDL000196_20MABNDM000020 0.00000000
   -2.81439471    -3.74961019     2.68347168
   -2.81439662    -3.74960423     2.68347168
   -2.81438971    -3.74960089     2.68347168
   -2.81439567    -3.74960113     2.68347168
20MABNDL000196_PR012 0.00000000
   -2.74729800    -3.72774792     3.12403035
   -2.74729800    -3.72774792     3.12403035
   -2.74986053    -3.85750842     3.12318945
   -2.74729800    -3.72774792     3.12403035


*****************************************************************Rapport********************************************************************************** 
CAM-ECTC-US-IP_ECTC-US-IP-T    2016.11.23.21.49.02     3.68381200     3.84876080    -7.90081596     0.00003223     0.00000087     0.00001900 0.00000000 VRAI 
CAM-ECTC-US-IP_ECTC-US-IP      2016.11.23.21.49.02     3.53331151    -4.07045841    -7.87962551     0.00000121     0.00000000     0.00000038 0.00000000 VRAI 
CAM-ECTC-US-HO_ECTC-US-HO-T    2016.11.23.21.49.02     3.86903906     3.64756536   -12.94142933     0.00001101     0.00000000     0.00000659 0.00000000 VRAI 
CAM-ECTC-US-HO_ECTC-US-HO      2016.11.23.21.49.02     3.67357278    -3.92562532   -12.89288082     0.00000155     0.00000000     0.00000114 0.00000000 VRAI 
CAM-ECTC-USA-IP_ECTC-USA-IP-T  2016.11.23.21.49.02    -3.68215070     3.84913507    -7.89731178     0.00003425     0.00000047     0.00001812 0.00000000 VRAI 
CAM-ECTC-USA-IP_ECTC-USA-IP    2016.11.23.21.49.02    -3.53246059    -4.07031498    -7.87538071     0.00000471     0.00000019     0.00000356 0.00000000 VRAI 
CAM-ECTC-USA-HO_ECTC-USA-HO-T  2016.11.23.21.49.02    -3.86878853     3.64758229   -12.93357372     0.00001362     0.00000000     0.00001091 0.00000000 VRAI 
CAM-ECTC-USA-HO_ECTC-USA-HO    2016.11.23.21.49.02    -3.67599392    -3.92563510   -12.88919563     0.00000490     0.00000000     0.00000127 0.00000000 VRAI 
CAM-LBA-US_EBA-US-HO-H         2016.11.23.21.49.02     2.83553972    -3.69499106     6.48618984     0.00001878     0.00000274     0.00000000 0.00000000 VRAI 
CAM-LBA-US_JDA-US-H            2016.11.23.21.49.02     2.82024813    -3.73084581     6.67530489     0.00002764     0.00000500     0.00000000 0.00000000 VRAI 
CAM-LBA-US_CAM-LBC-US          2016.11.23.21.49.02     2.78990090    -3.70167077    -2.68922424     0.00000347     0.00000172     0.00000000 0.00000000 VRAI 
CAM-LBA-US_EBC-US-IP-H         2016.11.23.21.49.02     2.85122013    -3.68035257    -3.11695242     0.00001045     0.00001220     0.00000000 0.00000000 VRAI 
CAM-LBA-USA_EBA-USA-HO-H       2016.11.23.21.49.02    -2.86449987    -3.73432726     6.48601866     0.00003021     0.00002379     0.00000034 0.00000000 VRAI 
CAM-LBA-USA_JDA-USA-H          2016.11.23.21.49.02    -2.88379574    -3.67255068     7.43189943     0.00002478     0.00002040     0.00000021 0.00000000 VRAI 
CAM-LBA-USA_CAM-LBC-USA        2016.11.23.21.49.02    -2.76147896    -3.76025218    -2.71070516     0.00000304     0.00000271     0.00000021 0.00000000 VRAI 
CAM-LBA-USA_EBC-USA-IP-H       2016.11.23.21.49.02    -2.79953563    -3.69009537    -3.11713368     0.00002868     0.00003143     0.00000054 0.00000000 VRAI 
CAM-ECTA-US-IP_ECTA-US-IP-T    2016.11.23.21.49.02     3.54951787     3.84898496     8.09023857     0.00000000     0.00000000     0.00000000 0.00000000 VRAI 
CAM-ECTA-US-IP_ECTA-US-IP      2016.11.23.21.49.02     3.52012461    -4.07061100     7.89729559     0.00000039     0.00000000     0.00000078 0.00000000 VRAI 
CAM-ECTA-US-HO_ECTA-US-HO-T    2016.11.23.21.49.02     3.87571031     3.64746946    12.93572807     0.00002444     0.00000010     0.00001887 0.00000000 VRAI 
CAM-ECTA-US-HO_ECTA-US-HO      2016.11.23.21.49.02     3.66446394    -3.92580605    12.88397384     0.00000245     0.00000000     0.00000319 0.00000000 VRAI 
CAM-ECTA-USA-IP_ECTA-USA-IP-T  2016.11.23.21.49.02    -3.68113208     3.84881014     7.89869678     0.00002586     0.00000087     0.00001000 0.00000000 VRAI 
CAM-ECTA-USA-IP_ECTA-USA-IP    2016.11.23.21.49.02    -3.53487372    -4.07043028     7.89131534     0.00000034     0.00000000     0.00000085 0.00000000 VRAI 
CAM-ECTA-USA-HO_ECTA-USA-HO-T  2016.11.23.21.49.02    -3.86167210     3.64768791    12.93594313     0.00001126     0.00000000     0.00002387 0.00000000 VRAI 
CAM-ECTA-USA-HO_ECTA-USA-HO    2016.11.23.21.49.02    -3.68510062    -3.92559910    12.88577008     0.00000392     0.00000000     0.00000428 0.00000000 VRAI 
CAM-JDC-US-IP_JDC-US-IP        2016.11.23.21.49.02     2.59966481    -4.19501376    -6.54794586     0.00000333     0.00000024     0.00000339 0.00000000 VRAI 
CAM-JDC-US-HO_JDC-US-HO        2016.11.23.21.49.02     2.61012357    -4.14002275    -6.93168938     0.00000133     0.00000000     0.00000071 0.00000000 VRAI 
CAM-JDC-USA-IP_JDC-USA-IP      2016.11.23.21.49.02    -2.60462648    -4.19508982    -6.54048800     0.00000285     0.00000000     0.00000341 0.00000000 VRAI 
CAM-JDC-USA-HO_JDC-USA-HO      2016.11.23.21.49.02    -2.59364522    -4.14012349    -6.92730045     0.00000209     0.00000021     0.00000221 0.00000000 VRAI 
CAM-JDA-US-IP_JDA-US-IP        2016.11.23.21.49.02     2.58493084    -4.19496298     6.54852486     0.00000207     0.00000000     0.00000234 0.00000000 VRAI 
CAM-JDA-US-HO_JDA-US-HO        2016.11.23.21.49.02     2.59422457    -4.13996172     6.94874465     0.00000260     0.00000000     0.00000183 0.00000000 VRAI 
CAM-JDA-USA-IP_JDA-USA-IP      2016.11.23.21.49.02    -2.59786558    -4.19505167     6.53888988     0.00000120     0.00000000     0.00000147 0.00000000 VRAI 
CAM-JDA-USA-HO_JDA-USA-HO      2016.11.23.21.49.02    -2.60440046    -4.13995457     6.94291377     0.00000221     0.00000000     0.00000240 0.00000000 VRAI 
CAM-EBC-US-IP_EBC-US-IP        2016.11.23.21.49.02     2.60387427    -4.19700384    -3.82551634     0.00000207     0.00000000     0.00000326 0.00000000 VRAI 
CAM-EBC-US-HO_EBC-US-HO        2016.11.23.21.49.02     2.60562539    -4.19701970    -5.89341068     0.00000094     0.00000021     0.00000226 0.00000000 VRAI 
CAM-EBC-USA-IP_EBC-USA-IP      2016.11.23.21.49.02    -2.61134440    -4.19698286    -3.82761562     0.00000372     0.00000000     0.00000448 0.00000000 VRAI 
CAM-EBC-USA-HO_EBC-USA-HO      2016.11.23.21.49.02    -2.61583251    -4.19702053    -5.89163041     0.00000192     0.00000000     0.00000183 0.00000000 VRAI 
CAM-EBA-US-IP_EBA-US-IP        2016.11.23.21.49.02     2.61460710    -4.19698954     3.83380640     0.00000341     0.00000000     0.00000486 0.00000000 VRAI 
CAM-EBA-US-HO_EBA-US-HO        2016.11.23.21.49.02     2.61678720    -4.19703054     5.89768302     0.00000253     0.00000000     0.00000206 0.00000000 VRAI 
CAM-EBA-USA-IP_EBA-USA-IP      2016.11.23.21.49.02    -2.61121070    -4.19700503     3.83595318     0.00000193     0.00000024     0.00000837 0.00000000 VRAI 
CAM-EBA-USA-HO_EBA-USA-HO      2016.11.23.21.49.02    -2.61284262    -4.19702530     5.89854836     0.00000387     0.00000000     0.00000485 0.00000000 VRAI 
CAM-LBC-US_EBC-US-HO-H         2016.11.23.21.49.02     2.77459955    -3.77004707    -6.47894096     0.00157780     0.01627491     0.00020107 0.00000000 VRAI 
CAM-LBC-US_JDC-US-H            2016.11.23.21.49.02     2.77088296    -3.70286798    -6.67482758     0.00286569     0.01638808     0.00013546 0.00000000 VRAI 
CAM-LBC-US_CAM-LBA-US          2016.11.23.21.49.02     2.81475914    -3.75327474     2.69822550     0.00001058     0.00001368     0.00000000 0.00000000 VRAI 
CAM-LBC-US_EBA-US-IP-H         2016.11.23.21.49.02     2.84037578    -3.68429393     3.12405658     0.00000287     0.00001223     0.00000041 0.00000000 VRAI 
CAM-LBC-USA_EBC-USA-HO-H       2016.11.23.21.49.02    -2.84787804    -3.69350272    -6.47909915     0.00001010     0.00000743     0.00000021 0.00000000 VRAI 
CAM-LBC-USA_JDC-USA-H          2016.11.23.21.49.02    -2.82479632    -3.77026671    -6.67505884     0.00000495     0.00000361     0.00000000 0.00000000 VRAI 
CAM-LBC-USA_CAM-LBA-USA        2016.11.23.21.49.02    -2.81439418    -3.74960411     2.68347168     0.00000267     0.00000375     0.00000000 0.00000000 VRAI 
CAM-LBC-USA_EBA-USA-IP-H       2016.11.23.21.49.02    -2.74793863    -3.76018804     3.12382013     0.00110960     0.05618795     0.00036412 0.00000000 VRAI 
