********** Fichier qui contient une sauvegarde des coordonnees images + coordonnees images transformees dans le repere BCAM (MOUNT) + coordonnees des prismes dans le repere MOUNT********** 
********************************************************************** Unite en metres (m)************************************************************************************************** 

*******************************************************************coordonnees images dans le repere CCD *********************************************************************************** 
20MABNDB000069_PR031
Spot 1     0.00027574     0.00140093
Spot 2     0.00035842     0.00140218
Spot 1     0.00027542     0.00140120
Spot 2     0.00035790     0.00140217
Spot 1     0.00027586     0.00140075
Spot 2     0.00035874     0.00140238
Spot 1     0.00027551     0.00140092
Spot 2     0.00035831     0.00140219
Spot 1     0.00027567     0.00140115
Spot 2     0.00035870     0.00140247
20MABNDB000069_PR033
Spot 1     0.00183204     0.00201380
Spot 2     0.00230330     0.00203330
Spot 1     0.00183211     0.00201372
Spot 2     0.00230329     0.00203348
Spot 1     0.00183210     0.00201388
Spot 2     0.00230327     0.00203338
Spot 1     0.00183203     0.00201393
Spot 2     0.00230318     0.00203355
Spot 1     0.00183205     0.00201395
Spot 2     0.00230330     0.00203330
20MABNDB000131_PR032
Spot 1     0.00277911     0.00108469
Spot 2     0.00283930     0.00108801
Spot 1     0.00277921     0.00108504
Spot 2     0.00283930     0.00108795
Spot 1     0.00277921     0.00108508
Spot 2     0.00283929     0.00108803
Spot 1     0.00277922     0.00108488
Spot 2     0.00283921     0.00108791
Spot 1     0.00277942     0.00108496
Spot 2     0.00283931     0.00108810
20MABNDB000131_PR034
Spot 1     0.00092751     0.00035669
Spot 2     0.00110337     0.00035544
Spot 1     0.00092740     0.00035688
Spot 2     0.00110355     0.00035557
Spot 1     0.00092767     0.00035694
Spot 2     0.00110359     0.00035570
Spot 1     0.00092744     0.00035676
Spot 2     0.00110364     0.00035550
Spot 1     0.00092742     0.00035686
Spot 2     0.00110358     0.00035558
20MABNDA000208_PR042
Spot 1     0.00305593     0.00094606
Spot 2     0.00298646     0.00094782
Spot 1     0.00305564     0.00094645
Spot 2     0.00298806     0.00094688
Spot 1     0.00305541     0.00094626
Spot 2     0.00298864     0.00094711
Spot 1     0.00305608     0.00094582
Spot 2     0.00298568     0.00094796
Spot 1     0.00305576     0.00094700
Spot 2     0.00298639     0.00094778
20MABNDA000208_PR046
Spot 1     0.00145853     0.00210853
Spot 2     0.00098341     0.00211293
Spot 1     0.00145864     0.00210868
Spot 2     0.00098363     0.00211310
Spot 1     0.00145853     0.00210917
Spot 2     0.00098381     0.00211274
Spot 1     0.00145846     0.00210890
Spot 2     0.00098335     0.00211317
Spot 1     0.00145881     0.00210861
Spot 2     0.00098370     0.00211296
20MABNDA000035_PR044
Spot 1     0.00074172     0.00126546
Spot 2     0.00068275     0.00125954
Spot 1     0.00074174     0.00126509
Spot 2     0.00068271     0.00125947
Spot 1     0.00074141     0.00126530
Spot 2     0.00068258     0.00125951
Spot 1     0.00074190     0.00126529
Spot 2     0.00068269     0.00125941
Spot 1     0.00074164     0.00126547
Spot 2     0.00068259     0.00125981
20MABNDA000035_PR045
Spot 1     0.00254788     0.00051120
Spot 2     0.00237050     0.00051004
Spot 1     0.00254809     0.00051119
Spot 2     0.00237067     0.00051010
Spot 1     0.00254830     0.00051114
Spot 2     0.00237044     0.00051005
Spot 1     0.00254807     0.00051130
Spot 2     0.00237063     0.00051011
Spot 1     0.00254779     0.00051113
Spot 2     0.00237056     0.00051006
20MABNDL000077_PR002
Spot 1     0.00079492     0.00149571
Spot 2     0.00095743     0.00149472
Spot 1     0.00079511     0.00149354
Spot 2     0.00095781     0.00149400
Spot 1     0.00079533     0.00149424
Spot 2     0.00095767     0.00149446
Spot 1     0.00079544     0.00149369
Spot 2     0.00095775     0.00149428
Spot 1     0.00079549     0.00149364
Spot 2     0.00095773     0.00149426
20MABNDL000077_PR003
Spot 1     0.00152663     0.00119079
Spot 2     0.00167705     0.00119023
Spot 1     0.00152649     0.00118795
Spot 2     0.00167732     0.00119006
Spot 1     0.00152655     0.00118790
Spot 2     0.00167719     0.00119010
Spot 1     0.00152635     0.00118788
Spot 2     0.00167733     0.00118994
20MABNDL000077_20MABNDM000168
Spot 1     0.00188434     0.00148781
Spot 2     0.00026500     0.00044500
Spot 1     0.00188412     0.00148780
Spot 2     0.00204500     0.00205500
Spot 1     0.00188448     0.00148772
Spot 2     0.00204500     0.00205500
Spot 1     0.00188426     0.00148734
Spot 2     0.00204500     0.00205500
20MABNDL000077_PR024
Spot 1     0.00262755     0.00171661
Spot 2     0.00273007     0.00172020
Spot 1     0.00262762     0.00171616
Spot 2     0.00272998     0.00171998
Spot 1     0.00262758     0.00171629
Spot 2     0.00273016     0.00171993
Spot 1     0.00262740     0.00171612
Spot 2     0.00272985     0.00171998
20MABNDM000020_PR013
Spot 1     0.00164408     0.00213910
Spot 2     0.00149018     0.00214529
Spot 1     0.00164368     0.00213890
Spot 2     0.00149027     0.00214471
Spot 1     0.00164341     0.00214084
Spot 2     0.00149004     0.00214473
Spot 1     0.00164353     0.00213875
Spot 2     0.00149012     0.00214445
20MABNDM000020_PR014
Spot 1     0.00268017     0.00227980
Spot 2     0.00251753     0.00228691
Spot 1     0.00268021     0.00227824
Spot 2     0.00251751     0.00228591
Spot 1     0.00268061     0.00227889
Spot 2     0.00251765     0.00228634
Spot 1     0.00268019     0.00227822
Spot 2     0.00251791     0.00228633
20MABNDM000020_20MABNDL000196
Spot 1     0.00200184     0.00057959
Spot 2     0.00230500     0.00010500
Spot 1     0.00200167     0.00057944
Spot 2     0.00230500     0.00010500
Spot 1     0.00200170     0.00057942
Spot 2     0.00230500     0.00010500
Spot 1     0.00200141     0.00057935
Spot 2     0.00230500     0.00010500
20MABNDM000020_PR035
Spot 1     0.00126886     0.00087442
Spot 2     0.00119806     0.00090615
Spot 1     0.00126888     0.00087435
Spot 2     0.00119808     0.00090603
Spot 1     0.00126892     0.00087437
Spot 2     0.00119813     0.00090600
Spot 1     0.00126893     0.00087444
Spot 2     0.00119805     0.00090592
20MABNDA000188_PR008
Spot 1     0.00306500     0.00077500
Spot 2     0.00330500     0.00017500
Spot 1     0.00306500     0.00077500
Spot 2     0.00306500     0.00077500
Spot 1     0.00306500     0.00077500
Spot 2     0.00331500     0.00005500
Spot 1     0.00306500     0.00077500
Spot 2     0.00306500     0.00077500
20MABNDA000188_PR018
Spot 1     0.00164872     0.00175078
Spot 2     0.00118119     0.00174861
Spot 1     0.00164880     0.00175073
Spot 2     0.00118122     0.00174863
Spot 1     0.00164882     0.00175075
Spot 2     0.00118123     0.00174867
Spot 1     0.00164887     0.00175090
Spot 2     0.00118131     0.00174855
20MABNDA000039_PR009
Spot 1     0.00066140     0.00117277
Spot 2     0.00061385     0.00117717
Spot 1     0.00066118     0.00117288
Spot 2     0.00061397     0.00117693
Spot 1     0.00066155     0.00117296
Spot 2     0.00061366     0.00117701
Spot 1     0.00066119     0.00117315
Spot 2     0.00061377     0.00117693
20MABNDA000039_PR011
Spot 1     0.00276353     0.00027654
Spot 2     0.00258804     0.00027116
Spot 1     0.00276365     0.00027642
Spot 2     0.00258794     0.00027119
Spot 1     0.00276361     0.00027632
Spot 2     0.00258796     0.00027117
Spot 1     0.00276352     0.00027637
Spot 2     0.00258796     0.00027120
20MABNDB000155_PR020
Spot 1     0.00061590     0.00112343
Spot 2     0.00068322     0.00111856
Spot 1     0.00061577     0.00112333
Spot 2     0.00068335     0.00111868
Spot 1     0.00061565     0.00112295
Spot 2     0.00068372     0.00111862
Spot 1     0.00061621     0.00112316
Spot 2     0.00068407     0.00111864
20MABNDB000155_PR022
Spot 1     0.00208249     0.00135044
Spot 2     0.00255626     0.00134542
Spot 1     0.00208245     0.00135026
Spot 2     0.00255631     0.00134542
Spot 1     0.00208249     0.00135038
Spot 2     0.00255626     0.00134547
Spot 1     0.00208251     0.00135034
Spot 2     0.00255616     0.00134553
20MABNDB000010_PR021
Spot 1     0.00286645     0.00115588
Spot 2     0.00292238     0.00115840
Spot 1     0.00286660     0.00115582
Spot 2     0.00292250     0.00115873
Spot 1     0.00286658     0.00115560
Spot 2     0.00292224     0.00115850
Spot 1     0.00286620     0.00115583
Spot 2     0.00292224     0.00115886
20MABNDB000010_PR023
Spot 1     0.00130764     0.00032981
Spot 2     0.00148263     0.00032882
Spot 1     0.00130749     0.00032993
Spot 2     0.00148252     0.00032871
Spot 1     0.00130759     0.00033027
Spot 2     0.00148266     0.00032879
Spot 1     0.00130785     0.00032989
Spot 2     0.00148268     0.00032903
20MABNDB000212_PR029
Spot 1     0.00226423     0.00072332
Spot 2     0.00189686     0.00072329
Spot 1     0.00226418     0.00072332
Spot 2     0.00189700     0.00072329
Spot 1     0.00226425     0.00072340
Spot 2     0.00189709     0.00072306
Spot 1     0.00226449     0.00072334
Spot 2     0.00189694     0.00072306
20MABNDB000128_PR030
Spot 1     0.00188604     0.00199226
Spot 2     0.00209127     0.00198686
Spot 1     0.00188590     0.00199230
Spot 2     0.00209131     0.00198676
Spot 1     0.00188570     0.00199234
Spot 2     0.00209130     0.00198668
Spot 1     0.00188610     0.00199233
Spot 2     0.00209137     0.00198659
20MABNDA000444_PR040
Spot 1     0.00077951     0.00037114
Spot 2     0.00114739     0.00036866
Spot 1     0.00077981     0.00037115
Spot 2     0.00114706     0.00036824
Spot 1     0.00077971     0.00037134
Spot 2     0.00114703     0.00036833
Spot 1     0.00077975     0.00037125
Spot 2     0.00114705     0.00036815
20MABNDA000053_PR041
Spot 1     0.00144084     0.00197582
Spot 2     0.00164581     0.00197977
Spot 1     0.00144102     0.00197587
Spot 2     0.00164581     0.00197996
Spot 1     0.00144106     0.00197579
Spot 2     0.00164600     0.00197981
Spot 1     0.00144099     0.00197587
Spot 2     0.00164575     0.00197977
20MABNDA000196_PR006
Spot 1     0.00198136     0.00075828
Spot 2     0.00161556     0.00075580
Spot 1     0.00198176     0.00075824
Spot 2     0.00161561     0.00075579
Spot 1     0.00198165     0.00075807
Spot 2     0.00161554     0.00075589
Spot 1     0.00198155     0.00075822
Spot 2     0.00161554     0.00075581
20MABNDA000324_PR007
Spot 1     0.00195241     0.00119532
Spot 2     0.00174652     0.00120089
Spot 1     0.00195248     0.00119552
Spot 2     0.00174674     0.00120106
Spot 1     0.00195253     0.00119556
Spot 2     0.00174665     0.00120094
Spot 1     0.00195245     0.00119558
Spot 2     0.00174655     0.00120103
20MABNDB000001_PR017
Spot 1     0.00188814     0.00047102
Spot 2     0.00225729     0.00048010
Spot 1     0.00188792     0.00047103
Spot 2     0.00225707     0.00048049
Spot 1     0.00188789     0.00047097
Spot 2     0.00225726     0.00048000
Spot 1     0.00188810     0.00047101
Spot 2     0.00225745     0.00048043
20MABNDB000260_PR019
Spot 1     0.00192188     0.00148716
Spot 2     0.00212556     0.00148630
Spot 1     0.00192235     0.00148712
Spot 2     0.00212636     0.00148585
Spot 1     0.00192177     0.00148699
Spot 2     0.00212588     0.00148640
Spot 1     0.00192216     0.00148705
Spot 2     0.00212573     0.00148627
20MABNDB000135_PR027
Spot 1     0.00189014     0.00091616
Spot 2     0.00210899     0.00091844
Spot 1     0.00189024     0.00091617
Spot 2     0.00210893     0.00091837
Spot 1     0.00189028     0.00091603
Spot 2     0.00210911     0.00091829
Spot 1     0.00189006     0.00091617
Spot 2     0.00210898     0.00091823
20MABNDB000126_PR028
Spot 1     0.00164286     0.00200500
Spot 2     0.00192601     0.00200698
Spot 1     0.00164294     0.00200493
Spot 2     0.00192615     0.00200688
Spot 1     0.00164276     0.00200491
Spot 2     0.00192570     0.00200703
Spot 1     0.00164288     0.00200493
Spot 2     0.00192616     0.00200702
20MABNDA000272_PR038
Spot 1     0.00192479     0.00095276
Spot 2     0.00170258     0.00095217
Spot 1     0.00192505     0.00095288
Spot 2     0.00170239     0.00095214
Spot 1     0.00192506     0.00095248
Spot 2     0.00170286     0.00095214
Spot 1     0.00192521     0.00095255
Spot 2     0.00170263     0.00095253
20MABNDA000003_PR039
Spot 1     0.00200212     0.00192288
Spot 2     0.00228046     0.00192390
Spot 1     0.00200226     0.00192286
Spot 2     0.00228077     0.00192383
Spot 1     0.00200187     0.00192291
Spot 2     0.00228078     0.00192350
Spot 1     0.00200215     0.00192274
Spot 2     0.00228071     0.00192364
20MABNDA000318_PR004
Spot 1     0.00214816     0.00162128
Spot 2     0.00192948     0.00162096
Spot 1     0.00214799     0.00162138
Spot 2     0.00192958     0.00162127
Spot 1     0.00214808     0.00162102
Spot 2     0.00192980     0.00162088
Spot 1     0.00214795     0.00162135
Spot 2     0.00192949     0.00162083
20MABNDA000334_PR005
Spot 1     0.00247580     0.00158200
Spot 2     0.00219559     0.00158261
Spot 1     0.00247581     0.00158188
Spot 2     0.00219565     0.00158245
Spot 1     0.00247608     0.00158233
Spot 2     0.00219569     0.00158277
Spot 1     0.00247598     0.00158217
Spot 2     0.00219562     0.00158264
20MABNDB000317_PR015
Spot 1     0.00148807     0.00160128
Spot 2     0.00170758     0.00159588
Spot 1     0.00148816     0.00160148
Spot 2     0.00170782     0.00159594
Spot 1     0.00148842     0.00160143
Spot 2     0.00170746     0.00159604
Spot 1     0.00148792     0.00160170
Spot 2     0.00170801     0.00159563
20MABNDB000146_PR016
Spot 1     0.00172042     0.00133653
Spot 2     0.00144333     0.00133333
Spot 1     0.00172055     0.00133642
Spot 2     0.00144500     0.00133500
Spot 1     0.00172034     0.00133653
Spot 2     0.00144500     0.00133250
Spot 1     0.00172054     0.00133646
Spot 2     0.00144500     0.00133250
20MABNDM000168_PR025
Spot 1     0.00020500     0.00045500
Spot 2     0.00020500     0.00045500
Spot 1     0.00020500     0.00045500
Spot 2     0.00020500     0.00045500
Spot 1     0.00020500     0.00045500
Spot 2     0.00020500     0.00045500
Spot 1     0.00020500     0.00045500
Spot 2     0.00020500     0.00045500
20MABNDM000168_PR026
Spot 1     0.00270500     0.00003833
Spot 2     0.00300500     0.00051500
Spot 1     0.00184500     0.00011500
Spot 2     0.00300214     0.00051500
Spot 1     0.00300500     0.00051500
Spot 2     0.00256500     0.00017500
Spot 1     0.00184500     0.00011500
Spot 2     0.00184500     0.00011500
20MABNDM000168_20MABNDL000077
Spot 1     0.00153794     0.00129659
Spot 2     0.00175726     0.00130029
Spot 1     0.00153804     0.00129641
Spot 2     0.00175716     0.00130038
Spot 1     0.00153809     0.00129649
Spot 2     0.00175706     0.00130038
Spot 1     0.00153791     0.00129634
Spot 2     0.00175723     0.00130081
20MABNDM000168_PR001
Spot 1     0.00080655     0.00161524
Spot 2     0.00070434     0.00162015
Spot 1     0.00080671     0.00161552
Spot 2     0.00070434     0.00162030
Spot 1     0.00080692     0.00161531
Spot 2     0.00070458     0.00162021
Spot 1     0.00080673     0.00161577
Spot 2     0.00070438     0.00162015
20MABNDL000196_PR036
Spot 1     0.00095790     0.00164369
Spot 2     0.00112292     0.00164318
Spot 1     0.00095770     0.00164375
Spot 2     0.00112313     0.00164288
Spot 1     0.00095768     0.00164384
Spot 2     0.00112300     0.00164300
Spot 1     0.00095761     0.00164368
Spot 2     0.00112293     0.00164311
20MABNDL000196_PR037
Spot 1     0.00248236     0.00116452
Spot 2     0.00263756     0.00116237
Spot 1     0.00248182     0.00116441
Spot 2     0.00263742     0.00116249
Spot 1     0.00248208     0.00116442
Spot 2     0.00263744     0.00116244
Spot 1     0.00248193     0.00116449
Spot 2     0.00263728     0.00116245
20MABNDL000196_20MABNDM000020
Spot 1     0.00195167     0.00102989
Spot 2     0.00173034     0.00102961
Spot 1     0.00195191     0.00102993
Spot 2     0.00173030     0.00102967
Spot 1     0.00195177     0.00103004
Spot 2     0.00173032     0.00102965
Spot 1     0.00195196     0.00102993
Spot 2     0.00173019     0.00102964
20MABNDL000196_PR012
Spot 1     0.00273500     0.00005500
Spot 2     0.00324500     0.00011500
Spot 1     0.00324500     0.00011500
Spot 2     0.00324500     0.00011500
Spot 1     0.00324500     0.00011500
Spot 2     0.00324500     0.00011500
Spot 1     0.00324500     0.00011500
Spot 2     0.00324500     0.00011500


****************************************************************coordonnees images transformees dans le repere MOUNT************************************************************************* 
20MABNDB000069_PR031
Spot 1    -0.01360067    -0.01286639    -0.07388500
Spot 2    -0.01351801    -0.01286855    -0.07388500
Spot 1    -0.01360098    -0.01286610    -0.07388500
Spot 2    -0.01351853    -0.01286854    -0.07388500
Spot 1    -0.01360056    -0.01286657    -0.07388500
Spot 2    -0.01351769    -0.01286836    -0.07388500
Spot 1    -0.01360090    -0.01286639    -0.07388500
Spot 2    -0.01351812    -0.01286853    -0.07388500
Spot 1    -0.01360074    -0.01286616    -0.07388500
Spot 2    -0.01351772    -0.01286827    -0.07388500
20MABNDB000069_PR033
Spot 1    -0.01202041    -0.01231826    -0.07388500
Spot 2    -0.01154875    -0.01231823    -0.07388500
Spot 1    -0.01202034    -0.01231834    -0.07388500
Spot 2    -0.01154875    -0.01231805    -0.07388500
Spot 1    -0.01202035    -0.01231818    -0.07388500
Spot 2    -0.01154877    -0.01231814    -0.07388500
Spot 1    -0.01202041    -0.01231813    -0.07388500
Spot 2    -0.01154886    -0.01231797    -0.07388500
Spot 1    -0.01202039    -0.01231811    -0.07388500
Spot 2    -0.01154875    -0.01231823    -0.07388500
20MABNDB000131_PR032
Spot 1    -0.01144108    -0.01303005    -0.07533000
Spot 2    -0.01138090    -0.01302643    -0.07533000
Spot 1    -0.01144098    -0.01302970    -0.07533000
Spot 2    -0.01138090    -0.01302649    -0.07533000
Spot 1    -0.01144098    -0.01302966    -0.07533000
Spot 2    -0.01138091    -0.01302641    -0.07533000
Spot 1    -0.01144097    -0.01302986    -0.07533000
Spot 2    -0.01138099    -0.01302653    -0.07533000
Spot 1    -0.01144077    -0.01302978    -0.07533000
Spot 2    -0.01138089    -0.01302634    -0.07533000
20MABNDB000131_PR034
Spot 1    -0.01328899    -0.01376737    -0.07533000
Spot 2    -0.01311312    -0.01376773    -0.07533000
Spot 1    -0.01328910    -0.01376718    -0.07533000
Spot 2    -0.01311294    -0.01376760    -0.07533000
Spot 1    -0.01328883    -0.01376712    -0.07533000
Spot 2    -0.01311290    -0.01376747    -0.07533000
Spot 1    -0.01328906    -0.01376730    -0.07533000
Spot 2    -0.01311285    -0.01376767    -0.07533000
Spot 1    -0.01328908    -0.01376720    -0.07533000
Spot 2    -0.01311291    -0.01376759    -0.07533000
20MABNDA000208_PR042
Spot 1    -0.01392666     0.01304996    -0.07273700
Spot 2    -0.01385718     0.01304826    -0.07273700
Spot 1    -0.01392637     0.01304957    -0.07273700
Spot 2    -0.01385878     0.01304920    -0.07273700
Spot 1    -0.01392614     0.01304976    -0.07273700
Spot 2    -0.01385936     0.01304897    -0.07273700
Spot 1    -0.01392681     0.01305020    -0.07273700
Spot 2    -0.01385640     0.01304812    -0.07273700
Spot 1    -0.01392648     0.01304902    -0.07273700
Spot 2    -0.01385711     0.01304830    -0.07273700
20MABNDA000208_PR046
Spot 1    -0.01232824     0.01188889    -0.07273700
Spot 2    -0.01185311     0.01188491    -0.07273700
Spot 1    -0.01232835     0.01188874    -0.07273700
Spot 2    -0.01185333     0.01188474    -0.07273700
Spot 1    -0.01232824     0.01188825    -0.07273700
Spot 2    -0.01185351     0.01188510    -0.07273700
Spot 1    -0.01232817     0.01188852    -0.07273700
Spot 2    -0.01185305     0.01188467    -0.07273700
Spot 1    -0.01232852     0.01188881    -0.07273700
Spot 2    -0.01185340     0.01188488    -0.07273700
20MABNDA000035_PR044
Spot 1    -0.01157643     0.01299181    -0.07483200
Spot 2    -0.01151742     0.01299731    -0.07483200
Spot 1    -0.01157645     0.01299218    -0.07483200
Spot 2    -0.01151738     0.01299738    -0.07483200
Spot 1    -0.01157612     0.01299197    -0.07483200
Spot 2    -0.01151725     0.01299734    -0.07483200
Spot 1    -0.01157661     0.01299198    -0.07483200
Spot 2    -0.01151736     0.01299744    -0.07483200
Spot 1    -0.01157635     0.01299180    -0.07483200
Spot 2    -0.01151726     0.01299704    -0.07483200
20MABNDA000035_PR045
Spot 1    -0.01337718     0.01375890    -0.07483200
Spot 2    -0.01319979     0.01375880    -0.07483200
Spot 1    -0.01337739     0.01375891    -0.07483200
Spot 2    -0.01319996     0.01375874    -0.07483200
Spot 1    -0.01337760     0.01375896    -0.07483200
Spot 2    -0.01319973     0.01375879    -0.07483200
Spot 1    -0.01337737     0.01375880    -0.07483200
Spot 2    -0.01319992     0.01375873    -0.07483200
Spot 1    -0.01337709     0.01375897    -0.07483200
Spot 2    -0.01319985     0.01375878    -0.07483200
20MABNDL000077_PR002
Spot 1     0.01186520     0.03557118    -0.07463200
Spot 2     0.01202770     0.03556862    -0.07463200
Spot 1     0.01186537     0.03556901    -0.07463200
Spot 2     0.01202807     0.03556790    -0.07463200
Spot 1     0.01186560     0.03556970    -0.07463200
Spot 2     0.01202793     0.03556836    -0.07463200
Spot 1     0.01186570     0.03556915    -0.07463200
Spot 2     0.01202801     0.03556818    -0.07463200
Spot 1     0.01186575     0.03556910    -0.07463200
Spot 2     0.01202799     0.03556816    -0.07463200
20MABNDL000077_PR003
Spot 1     0.01259394     0.03525923    -0.07463200
Spot 2     0.01274435     0.03525722    -0.07463200
Spot 1     0.01259378     0.03525639    -0.07463200
Spot 2     0.01274462     0.03525705    -0.07463200
Spot 1     0.01259384     0.03525634    -0.07463200
Spot 2     0.01274449     0.03525709    -0.07463200
Spot 1     0.01259364     0.03525632    -0.07463200
Spot 2     0.01274463     0.03525693    -0.07463200
20MABNDL000077_20MABNDM000168
Spot 1    -0.01272258     0.03554948    -0.00695400
Spot 2    -0.01109266     0.03452330    -0.00695400
Spot 1    -0.01272236     0.03554947    -0.00695400
Spot 2    -0.01288904     0.03611499    -0.00695400
Spot 1    -0.01272272     0.03554939    -0.00695400
Spot 2    -0.01288904     0.03611499    -0.00695400
Spot 1    -0.01272250     0.03554901    -0.00695400
Spot 2    -0.01288904     0.03611499    -0.00695400
20MABNDL000077_PR024
Spot 1    -0.01346810     0.03577066    -0.00695400
Spot 2    -0.01357065     0.03577320    -0.00695400
Spot 1    -0.01346816     0.03577021    -0.00695400
Spot 2    -0.01357056     0.03577298    -0.00695400
Spot 1    -0.01346812     0.03577034    -0.00695400
Spot 2    -0.01357074     0.03577293    -0.00695400
Spot 1    -0.01346794     0.03577017    -0.00695400
Spot 2    -0.01357043     0.03577298    -0.00695400
20MABNDM000020_PR013
Spot 1    -0.01270133    -0.03609726    -0.00523500
Spot 2    -0.01285505    -0.03610685    -0.00523500
Spot 1    -0.01270173    -0.03609707    -0.00523500
Spot 2    -0.01285498    -0.03610627    -0.00523500
Spot 1    -0.01270196    -0.03609901    -0.00523500
Spot 2    -0.01285521    -0.03610629    -0.00523500
Spot 1    -0.01270189    -0.03609692    -0.00523500
Spot 2    -0.01285513    -0.03610601    -0.00523500
20MABNDM000020_PR014
Spot 1    -0.01166238    -0.03621501    -0.00523500
Spot 2    -0.01182482    -0.03622572    -0.00523500
Spot 1    -0.01166237    -0.03621345    -0.00523500
Spot 2    -0.01182487    -0.03622472    -0.00523500
Spot 1    -0.01166196    -0.03621409    -0.00523500
Spot 2    -0.01182472    -0.03622514    -0.00523500
Spot 1    -0.01166240    -0.03621343    -0.00523500
Spot 2    -0.01182446    -0.03622513    -0.00523500
20MABNDM000020_20MABNDL000196
Spot 1     0.01268436    -0.03454816    -0.07583800
Spot 2     0.01238113    -0.03407361    -0.07583800
Spot 1     0.01268452    -0.03454801    -0.07583800
Spot 2     0.01238113    -0.03407361    -0.07583800
Spot 1     0.01268449    -0.03454799    -0.07583800
Spot 2     0.01238113    -0.03407361    -0.07583800
Spot 1     0.01268478    -0.03454792    -0.07583800
Spot 2     0.01238113    -0.03407361    -0.07583800
20MABNDM000020_PR035
Spot 1     0.01341738    -0.03484289    -0.07583800
Spot 2     0.01348818    -0.03487461    -0.07583800
Spot 1     0.01341736    -0.03484282    -0.07583800
Spot 2     0.01348816    -0.03487449    -0.07583800
Spot 1     0.01341732    -0.03484284    -0.07583800
Spot 2     0.01348811    -0.03487446    -0.07583800
Spot 1     0.01341731    -0.03484291    -0.07583800
Spot 2     0.01348819    -0.03487438    -0.07583800
20MABNDA000188_PR008
Spot 1    -0.01408672     0.01329041    -0.07502000
Spot 2    -0.01432157     0.01389244    -0.07502000
Spot 1    -0.01408672     0.01329041    -0.07502000
Spot 2    -0.01408672     0.01329041    -0.07502000
Spot 1    -0.01408672     0.01329041    -0.07502000
Spot 2    -0.01433054     0.01401252    -0.07502000
Spot 1    -0.01408672     0.01329041    -0.07502000
Spot 2    -0.01408672     0.01329041    -0.07502000
20MABNDA000188_PR018
Spot 1    -0.01267885     0.01230253    -0.07502000
Spot 2    -0.01221131     0.01230070    -0.07502000
Spot 1    -0.01267892     0.01230259    -0.07502000
Spot 2    -0.01221134     0.01230068    -0.07502000
Spot 1    -0.01267895     0.01230257    -0.07502000
Spot 2    -0.01221135     0.01230064    -0.07502000
Spot 1    -0.01267900     0.01230242    -0.07502000
Spot 2    -0.01221143     0.01230076    -0.07502000
20MABNDA000039_PR009
Spot 1    -0.01162352     0.01307135    -0.07444800
Spot 2    -0.01157599     0.01306675    -0.07444800
Spot 1    -0.01162330     0.01307124    -0.07444800
Spot 2    -0.01157611     0.01306699    -0.07444800
Spot 1    -0.01162367     0.01307116    -0.07444800
Spot 2    -0.01157580     0.01306691    -0.07444800
Spot 1    -0.01162331     0.01307097    -0.07444800
Spot 2    -0.01157591     0.01306699    -0.07444800
20MABNDA000039_PR011
Spot 1    -0.01372175     0.01397667    -0.07444800
Spot 2    -0.01354624     0.01398129    -0.07444800
Spot 1    -0.01372187     0.01397679    -0.07444800
Spot 2    -0.01354614     0.01398126    -0.07444800
Spot 1    -0.01372183     0.01397689    -0.07444800
Spot 2    -0.01354616     0.01398128    -0.07444800
Spot 1    -0.01372174     0.01397684    -0.07444800
Spot 2    -0.01354616     0.01398125    -0.07444800
20MABNDB000155_PR020
Spot 1    -0.01365017    -0.01313399    -0.07501700
Spot 2    -0.01358279    -0.01313794    -0.07501700
Spot 1    -0.01365030    -0.01313410    -0.07501700
Spot 2    -0.01358266    -0.01313782    -0.07501700
Spot 1    -0.01365042    -0.01313448    -0.07501700
Spot 2    -0.01358229    -0.01313787    -0.07501700
Spot 1    -0.01364986    -0.01313426    -0.07501700
Spot 2    -0.01358194    -0.01313785    -0.07501700
20MABNDB000155_PR022
Spot 1    -0.01218683    -0.01288693    -0.07501700
Spot 2    -0.01171303    -0.01288546    -0.07501700
Spot 1    -0.01218687    -0.01288711    -0.07501700
Spot 2    -0.01171298    -0.01288546    -0.07501700
Spot 1    -0.01218683    -0.01288699    -0.07501700
Spot 2    -0.01171303    -0.01288541    -0.07501700
Spot 1    -0.01218681    -0.01288703    -0.07501700
Spot 2    -0.01171313    -0.01288535    -0.07501700
20MABNDB000010_PR021
Spot 1    -0.01158460    -0.01292267    -0.07358200
Spot 2    -0.01152872    -0.01291920    -0.07358200
Spot 1    -0.01158445    -0.01292273    -0.07358200
Spot 2    -0.01152861    -0.01291887    -0.07358200
Spot 1    -0.01158447    -0.01292295    -0.07358200
Spot 2    -0.01152887    -0.01291911    -0.07358200
Spot 1    -0.01158485    -0.01292272    -0.07358200
Spot 2    -0.01152887    -0.01291875    -0.07358200
20MABNDB000010_PR023
Spot 1    -0.01312920    -0.01377503    -0.07358200
Spot 2    -0.01295422    -0.01377305    -0.07358200
Spot 1    -0.01312935    -0.01377491    -0.07358200
Spot 2    -0.01295432    -0.01377317    -0.07358200
Spot 1    -0.01312925    -0.01377457    -0.07358200
Spot 2    -0.01295418    -0.01377308    -0.07358200
Spot 1    -0.01312899    -0.01377494    -0.07358200
Spot 2    -0.01295417    -0.01377284    -0.07358200
20MABNDB000212_PR029
Spot 1    -0.01182338    -0.01325828    -0.07390500
Spot 2    -0.01219073    -0.01325438    -0.07390500
Spot 1    -0.01182343    -0.01325828    -0.07390500
Spot 2    -0.01219059    -0.01325439    -0.07390500
Spot 1    -0.01182336    -0.01325820    -0.07390500
Spot 2    -0.01219050    -0.01325462    -0.07390500
Spot 1    -0.01182312    -0.01325826    -0.07390500
Spot 2    -0.01219065    -0.01325462    -0.07390500
20MABNDB000128_PR030
Spot 1    -0.01246905    -0.01222511    -0.07353400
Spot 2    -0.01226380    -0.01222980    -0.07353400
Spot 1    -0.01246919    -0.01222507    -0.07353400
Spot 2    -0.01226376    -0.01222990    -0.07353400
Spot 1    -0.01246939    -0.01222503    -0.07353400
Spot 2    -0.01226377    -0.01222998    -0.07353400
Spot 1    -0.01246899    -0.01222503    -0.07353400
Spot 2    -0.01226370    -0.01223007    -0.07353400
20MABNDA000444_PR040
Spot 1    -0.01171912     0.01365824    -0.07412000
Spot 2    -0.01208700     0.01365605    -0.07412000
Spot 1    -0.01171942     0.01365823    -0.07412000
Spot 2    -0.01208667     0.01365648    -0.07412000
Spot 1    -0.01171931     0.01365804    -0.07412000
Spot 2    -0.01208664     0.01365639    -0.07412000
Spot 1    -0.01171936     0.01365813    -0.07412000
Spot 2    -0.01208667     0.01365657    -0.07412000
20MABNDA000053_PR041
Spot 1    -0.01219725     0.01213049    -0.07430100
Spot 2    -0.01240226     0.01213055    -0.07430100
Spot 1    -0.01219744     0.01213045    -0.07430100
Spot 2    -0.01240227     0.01213036    -0.07430100
Spot 1    -0.01219747     0.01213053    -0.07430100
Spot 2    -0.01240245     0.01213051    -0.07430100
Spot 1    -0.01219741     0.01213045    -0.07430100
Spot 2    -0.01240220     0.01213055    -0.07430100
20MABNDA000196_PR006
Spot 1    -0.01293644     0.01321989    -0.07967100
Spot 2    -0.01257064     0.01321766    -0.07967100
Spot 1    -0.01293684     0.01321993    -0.07967100
Spot 2    -0.01257069     0.01321768    -0.07967100
Spot 1    -0.01293673     0.01322010    -0.07967100
Spot 2    -0.01257062     0.01321757    -0.07967100
Spot 1    -0.01293663     0.01321995    -0.07967100
Spot 2    -0.01257062     0.01321765    -0.07967100
20MABNDA000324_PR007
Spot 1    -0.01255825     0.01282622    -0.07446800
Spot 2    -0.01235233     0.01282226    -0.07446800
Spot 1    -0.01255832     0.01282602    -0.07446800
Spot 2    -0.01235255     0.01282208    -0.07446800
Spot 1    -0.01255837     0.01282598    -0.07446800
Spot 2    -0.01235246     0.01282220    -0.07446800
Spot 1    -0.01255829     0.01282596    -0.07446800
Spot 2    -0.01235236     0.01282211    -0.07446800
20MABNDB000001_PR017
Spot 1    -0.01229988    -0.01351852    -0.07418400
Spot 2    -0.01193065    -0.01351335    -0.07418400
Spot 1    -0.01230010    -0.01351851    -0.07418400
Spot 2    -0.01193087    -0.01351295    -0.07418400
Spot 1    -0.01230013    -0.01351857    -0.07418400
Spot 2    -0.01193069    -0.01351345    -0.07418400
Spot 1    -0.01229992    -0.01351853    -0.07418400
Spot 2    -0.01193049    -0.01351302    -0.07418400
20MABNDB000260_PR019
Spot 1    -0.01240914    -0.01241539    -0.07492700
Spot 2    -0.01220549    -0.01241208    -0.07492700
Spot 1    -0.01240867    -0.01241542    -0.07492700
Spot 2    -0.01220468    -0.01241251    -0.07492700
Spot 1    -0.01240925    -0.01241557    -0.07492700
Spot 2    -0.01220517    -0.01241197    -0.07492700
Spot 1    -0.01240886    -0.01241550    -0.07492700
Spot 2    -0.01220532    -0.01241210    -0.07492700
20MABNDB000135_PR027
Spot 1    -0.01251453    -0.01319685    -0.07464700
Spot 2    -0.01229567    -0.01319701    -0.07464700
Spot 1    -0.01251443    -0.01319684    -0.07464700
Spot 2    -0.01229573    -0.01319708    -0.07464700
Spot 1    -0.01251439    -0.01319698    -0.07464700
Spot 2    -0.01229555    -0.01319716    -0.07464700
Spot 1    -0.01251461    -0.01319684    -0.07464700
Spot 2    -0.01229568    -0.01319722    -0.07464700
20MABNDB000126_PR028
Spot 1    -0.01253665    -0.01217718    -0.07500400
Spot 2    -0.01225352    -0.01217369    -0.07500400
Spot 1    -0.01253657    -0.01217725    -0.07500400
Spot 2    -0.01225338    -0.01217379    -0.07500400
Spot 1    -0.01253675    -0.01217727    -0.07500400
Spot 2    -0.01225383    -0.01217364    -0.07500400
Spot 1    -0.01253663    -0.01217725    -0.07500400
Spot 2    -0.01225337    -0.01217365    -0.07500400
20MABNDA000272_PR038
Spot 1    -0.01276045     0.01315871    -0.07417900
Spot 2    -0.01253823     0.01315891    -0.07417900
Spot 1    -0.01276071     0.01315859    -0.07417900
Spot 2    -0.01253804     0.01315894    -0.07417900
Spot 1    -0.01276071     0.01315899    -0.07417900
Spot 2    -0.01253851     0.01315894    -0.07417900
Spot 1    -0.01276086     0.01315892    -0.07417900
Spot 2    -0.01253829     0.01315855    -0.07417900
20MABNDA000003_PR039
Spot 1    -0.01280320     0.01212939    -0.07373400
Spot 2    -0.01308154     0.01212908    -0.07373400
Spot 1    -0.01280334     0.01212941    -0.07373400
Spot 2    -0.01308185     0.01212915    -0.07373400
Spot 1    -0.01280295     0.01212936    -0.07373400
Spot 2    -0.01308186     0.01212948    -0.07373400
Spot 1    -0.01280323     0.01212953    -0.07373400
Spot 2    -0.01308179     0.01212934    -0.07373400
20MABNDA000318_PR004
Spot 1    -0.01286799     0.01247395    -0.07310600
Spot 2    -0.01264932     0.01247491    -0.07310600
Spot 1    -0.01286782     0.01247385    -0.07310600
Spot 2    -0.01264941     0.01247460    -0.07310600
Spot 1    -0.01286791     0.01247421    -0.07310600
Spot 2    -0.01264964     0.01247499    -0.07310600
Spot 1    -0.01286778     0.01247388    -0.07310600
Spot 2    -0.01264933     0.01247504    -0.07310600
20MABNDA000334_PR005
Spot 1    -0.01311891     0.01254640    -0.07324100
Spot 2    -0.01283870     0.01254552    -0.07324100
Spot 1    -0.01311892     0.01254652    -0.07324100
Spot 2    -0.01283876     0.01254568    -0.07324100
Spot 1    -0.01311919     0.01254607    -0.07324100
Spot 2    -0.01283880     0.01254536    -0.07324100
Spot 1    -0.01311909     0.01254623    -0.07324100
Spot 2    -0.01283873     0.01254549    -0.07324100
20MABNDB000317_PR015
Spot 1    -0.01266624    -0.01249676    -0.07326100
Spot 2    -0.01244668    -0.01249960    -0.07326100
Spot 1    -0.01266615    -0.01249656    -0.07326100
Spot 2    -0.01244644    -0.01249954    -0.07326100
Spot 1    -0.01266589    -0.01249661    -0.07326100
Spot 2    -0.01244680    -0.01249945    -0.07326100
Spot 1    -0.01266639    -0.01249634    -0.07326100
Spot 2    -0.01244624    -0.01249985    -0.07326100
20MABNDB000146_PR016
Spot 1    -0.01248795    -0.01245647    -0.07450500
Spot 2    -0.01276503    -0.01246028    -0.07450500
Spot 1    -0.01248782    -0.01245658    -0.07450500
Spot 2    -0.01276337    -0.01245861    -0.07450500
Spot 1    -0.01248803    -0.01245647    -0.07450500
Spot 2    -0.01276336    -0.01246111    -0.07450500
Spot 1    -0.01248783    -0.01245654    -0.07450500
Spot 2    -0.01276336    -0.01246111    -0.07450500
20MABNDM000168_PR025
Spot 1    -0.01420150    -0.03479637    -0.00532900
Spot 2    -0.01420150    -0.03479637    -0.00532900
Spot 1    -0.01420150    -0.03479637    -0.00532900
Spot 2    -0.01420150    -0.03479637    -0.00532900
Spot 1    -0.01420150    -0.03479637    -0.00532900
Spot 2    -0.01420150    -0.03479637    -0.00532900
Spot 1    -0.01420150    -0.03479637    -0.00532900
Spot 2    -0.01420150    -0.03479637    -0.00532900
20MABNDM000168_PR026
Spot 1    -0.01170331    -0.03436896    -0.00532900
Spot 2    -0.01140126    -0.03484434    -0.00532900
Spot 1    -0.01256297    -0.03444932    -0.00532900
Spot 2    -0.01140412    -0.03484435    -0.00532900
Spot 1    -0.01140126    -0.03484434    -0.00532900
Spot 2    -0.01184272    -0.03450623    -0.00532900
Spot 1    -0.01256297    -0.03444932    -0.00532900
Spot 2    -0.01256297    -0.03444932    -0.00532900
20MABNDM000168_20MABNDL000077
Spot 1     0.01288757    -0.03529728    -0.07445100
Spot 2     0.01266822    -0.03529777    -0.07445100
Spot 1     0.01288747    -0.03529709    -0.07445100
Spot 2     0.01266832    -0.03529786    -0.07445100
Spot 1     0.01288742    -0.03529717    -0.07445100
Spot 2     0.01266842    -0.03529786    -0.07445100
Spot 1     0.01288761    -0.03529703    -0.07445100
Spot 2     0.01266824    -0.03529829    -0.07445100
20MABNDM000168_PR001
Spot 1     0.01361422    -0.03562659    -0.07445100
Spot 2     0.01371635    -0.03563300    -0.07445100
Spot 1     0.01361406    -0.03562687    -0.07445100
Spot 2     0.01371635    -0.03563315    -0.07445100
Spot 1     0.01361385    -0.03562666    -0.07445100
Spot 2     0.01371611    -0.03563305    -0.07445100
Spot 1     0.01361403    -0.03562712    -0.07445100
Spot 2     0.01371631    -0.03563300    -0.07445100
20MABNDL000196_PR036
Spot 1     0.01193782     0.03583241    -0.07483600
Spot 2     0.01210284     0.03583225    -0.07483600
Spot 1     0.01193762     0.03583247    -0.07483600
Spot 2     0.01210305     0.03583195    -0.07483600
Spot 1     0.01193760     0.03583256    -0.07483600
Spot 2     0.01210292     0.03583207    -0.07483600
Spot 1     0.01193753     0.03583240    -0.07483600
Spot 2     0.01210285     0.03583218    -0.07483600
20MABNDL000196_PR037
Spot 1     0.01346327     0.03535642    -0.07483600
Spot 2     0.01361848     0.03535460    -0.07483600
Spot 1     0.01346273     0.03535631    -0.07483600
Spot 2     0.01361834     0.03535472    -0.07483600
Spot 1     0.01346299     0.03535632    -0.07483600
Spot 2     0.01361836     0.03535467    -0.07483600
Spot 1     0.01346284     0.03535639    -0.07483600
Spot 2     0.01361820     0.03535468    -0.07483600
20MABNDL000196_20MABNDM000020
Spot 1    -0.01277548     0.03530058    -0.00611000
Spot 2    -0.01255419     0.03530475    -0.00611000
Spot 1    -0.01277572     0.03530061    -0.00611000
Spot 2    -0.01255415     0.03530481    -0.00611000
Spot 1    -0.01277558     0.03530072    -0.00611000
Spot 2    -0.01255417     0.03530479    -0.00611000
Spot 1    -0.01277577     0.03530061    -0.00611000
Spot 2    -0.01255404     0.03530478    -0.00611000
20MABNDL000196_PR012
Spot 1    -0.01353904     0.03431012    -0.00611000
Spot 2    -0.01405014     0.03435985    -0.00611000
Spot 1    -0.01405014     0.03435985    -0.00611000
Spot 2    -0.01405014     0.03435985    -0.00611000
Spot 1    -0.01405014     0.03435985    -0.00611000
Spot 2    -0.01405014     0.03435985    -0.00611000
Spot 1    -0.01405014     0.03435985    -0.00611000
Spot 2    -0.01405014     0.03435985    -0.00611000


*****************************************************************coordonnees du prisme dans le repere MOUNT********************************************************************************** 
20MABNDB000069_PR031
    0.10257941    -0.03829465     9.20355988
    0.10263023    -0.03831271     9.20355988
    0.10255241    -0.03829477     9.20355988
    0.10260024    -0.03829551     9.20355988
    0.10256525    -0.03832538     9.20355988
20MABNDB000069_PR033
   -0.02692901    -0.02599271     1.28394926
   -0.02692956    -0.02599354     1.28394914
   -0.02692932    -0.02599406     1.28394914
   -0.02692803    -0.02599600     1.28394914
   -0.02692915    -0.02599398     1.28394914
20MABNDB000131_PR032
   -0.18827134    -0.03080746    11.00641537
   -0.18827853    -0.03082869    11.00641441
   -0.18827775    -0.03083745    11.00641441
   -0.18827277    -0.03081404    11.00641537
   -0.18829457    -0.03083388    11.00641441
20MABNDB000131_PR034
    0.01418689     0.01503492     3.43339205
    0.01418534     0.01502762     3.43339205
    0.01417829     0.01502325     3.43339205
    0.01418235     0.01503193     3.43339205
    0.01418419     0.01502784     3.43339205
20MABNDA000208_PR042
    0.13191575     0.01391831     9.20145798
    0.13199615     0.01388462     9.20145702
    0.13201763     0.01388709     9.20145702
    0.13187709     0.01391213     9.20145893
    0.13190098     0.01397353     9.20145893
20MABNDA000208_PR046
   -0.02333105     0.03305204     1.28210831
   -0.02332823     0.03305478     1.28210831
   -0.02332764     0.03305589     1.28210831
   -0.02333217     0.03305725     1.28210831
   -0.02332618     0.03305298     1.28210831
20MABNDA000035_PR044
   -0.17960607     0.02794389    11.00802612
   -0.17960775     0.02791172    11.00802612
   -0.17964128     0.02793024    11.00802612
   -0.17959744     0.02792188    11.00802612
   -0.17962348     0.02796449    11.00802612
20MABNDA000035_PR045
    0.01472357    -0.01714874     3.43485260
    0.01473225    -0.01714767     3.43485260
    0.01473177    -0.01714994     3.43485260
    0.01473090    -0.01714492     3.43485260
    0.01472287    -0.01714988     3.43485260
20MABNDL000077_PR002
    0.04952749     0.02151439     3.70690966
    0.04951410     0.02158590     3.70691013
    0.04951185     0.02155727     3.70691013
    0.04950733     0.02157535     3.70691013
    0.04950660     0.02157708     3.70691013
20MABNDL000077_PR003
    0.01388268     0.03695629     3.89605379
    0.01388006     0.03703446     3.89605379
    0.01388188     0.03703470     3.89605379
    0.01388348     0.03703936     3.89605379
20MABNDL000077_20MABNDM000168
   -0.06884111     0.05241697    -5.46843910
   -0.00397354    -0.00506694    -5.46859264
   -0.00396057    -0.00506392    -5.46859264
   -0.00396865    -0.00505027    -5.46859264
20MABNDL000077_PR024
    0.05235889    -0.00362892    -5.89622307
    0.05235785    -0.00360281    -5.89622307
    0.05236334    -0.00360587    -5.89622307
    0.05234419    -0.00360139    -5.89622307
20MABNDM000020_PR013
   -0.00517272     0.01221505    -3.80216837
   -0.00516460     0.01219588    -3.80216908
   -0.00515327     0.01224476    -3.80216813
   -0.00515693     0.01218588    -3.80216908
20MABNDM000020_PR014
   -0.06765322     0.03180992    -4.74799728
   -0.06765210     0.03173028    -4.74799824
   -0.06766964     0.03176350    -4.74799728
   -0.06766418     0.03174244    -4.74799728
20MABNDM000020_20MABNDL000196
    0.02774442    -0.09268460     5.39451122
    0.02773833    -0.09268998     5.39451122
    0.02773940    -0.09269069     5.39451122
    0.02772901    -0.09269319     5.39451122
20MABNDM000020_PR035
   -0.04201641    -0.05474731     5.80100155
   -0.04201486    -0.05475464     5.80100155
   -0.04201140    -0.05475502     5.80100155
   -0.04201409    -0.05475540     5.80100155
20MABNDA000188_PR008
    0.17232540    -0.05214402     9.20297146
    0.15791872    -0.01519257     9.20343781
    0.17287478    -0.05951410     9.20290565
    0.15791872    -0.01519257     9.20343781
20MABNDA000188_PR018
   -0.01700663     0.02607775     1.28357756
   -0.01700569     0.02607748     1.28357756
   -0.01700543     0.02607800     1.28357756
   -0.01700431     0.02607824     1.28357756
20MABNDA000039_PR009
   -0.17155030     0.02455222    11.00701141
   -0.17155766     0.02454275    11.00701141
   -0.17155322     0.02455443    11.00701141
   -0.17157146     0.02456255    11.00701141
20MABNDA000039_PR011
    0.03057147    -0.02480250     3.43347049
    0.03057192    -0.02480455     3.43347049
    0.03057145    -0.02480729     3.43347049
    0.03056941    -0.02480545     3.43347049
20MABNDB000155_PR020
    0.10245955    -0.00809463     9.20027733
    0.10245956    -0.00809586     9.20027733
    0.10244386    -0.00806906     9.20027924
    0.10238819    -0.00808395     9.20027924
20MABNDB000155_PR022
   -0.02510769    -0.01669331     1.28071570
   -0.02510780    -0.01669177     1.28071570
   -0.02510769    -0.01669322     1.28071570
   -0.02510701    -0.01669338     1.28071570
20MABNDB000010_PR021
   -0.17589951    -0.03411870    11.00694942
   -0.17591903    -0.03413888    11.00694942
   -0.17589900    -0.03410545    11.00694942
   -0.17587033    -0.03414835    11.00694942
20MABNDB000010_PR023
    0.00453589     0.01947840     3.43377781
    0.00454185     0.01947827     3.43377781
    0.00453651     0.01946854     3.43377781
    0.00453004     0.01947165     3.43377781
20MABNDB000212_PR029
   -0.02600205    -0.00894796     1.64223433
   -0.02600304    -0.00894795     1.64223433
   -0.02600478    -0.00894628     1.64223421
   -0.02600576    -0.00894562     1.64223421
20MABNDB000128_PR030
   -0.01873537    -0.04645136     2.95496845
   -0.01873341    -0.04645017     2.95496845
   -0.01872928    -0.04644937     2.95496845
   -0.01873853    -0.04644743     2.95496845
20MABNDA000444_PR040
   -0.02948421     0.00129620     1.64491916
   -0.02948448     0.00129171     1.64491916
   -0.02948594     0.00129476     1.64491916
   -0.02948525     0.00129181     1.64491916
20MABNDA000053_PR041
   -0.02687735     0.05062114     2.95450878
   -0.02687372     0.05062578     2.95450854
   -0.02686929     0.05062117     2.95450878
   -0.02687556     0.05062208     2.95450878
20MABNDA000196_PR006
   -0.01049438     0.01056632     1.64206505
   -0.01048947     0.01056571     1.64206505
   -0.01049145     0.01056497     1.64206505
   -0.01049253     0.01056575     1.64206505
20MABNDA000324_PR007
   -0.02507646     0.02718900     2.95549583
   -0.02507081     0.02719632     2.95549583
   -0.02507159     0.02719474     2.95549583
   -0.02507515     0.02719688     2.95549583
20MABNDB000001_PR017
   -0.02418126    -0.00354412     1.64036357
   -0.02417650    -0.00354854     1.64036357
   -0.02417818    -0.00354251     1.64036357
   -0.02418261    -0.00354760     1.64036357
20MABNDB000260_PR019
   -0.02435385    -0.03772481     2.95628047
   -0.02437906    -0.03771567     2.95628023
   -0.02435802    -0.03772351     2.95628047
   -0.02436277    -0.03772223     2.95628023
20MABNDB000135_PR027
   -0.02098394    -0.00986800     2.74937153
   -0.02098466    -0.00986689     2.74937153
   -0.02098865    -0.00986281     2.74937153
   -0.02098225    -0.00986435     2.74937153
20MABNDB000126_PR028
   -0.02029808    -0.03884862     2.14679670
   -0.02030123    -0.03884622     2.14679670
   -0.02029224    -0.03884802     2.14679670
   -0.02030051    -0.03884821     2.14679670
20MABNDA000272_PR038
   -0.01318027     0.01086229     2.74965858
   -0.01317898     0.01086394     2.74965858
   -0.01317020     0.01085659     2.74965858
   -0.01317165     0.01086503     2.74965858
20MABNDA000003_PR039
   -0.00589322     0.04114808     2.14891624
   -0.00588680     0.04114677     2.14891624
   -0.00589224     0.04114279     2.14891672
   -0.00588924     0.04114235     2.14891672
20MABNDA000318_PR004
   -0.00838588     0.03821227     2.74966049
   -0.00838719     0.03821978     2.74966049
   -0.00838146     0.03820604     2.74966049
   -0.00838955     0.03821115     2.74966049
20MABNDA000334_PR005
   -0.00419331     0.03157876     2.14977264
   -0.00419231     0.03157476     2.14977264
   -0.00418787     0.03158576     2.14977264
   -0.00419031     0.03158162     2.14977264
20MABNDB000317_PR015
   -0.01738153    -0.03405928     2.75128984
   -0.01738749    -0.03406408     2.75128984
   -0.01738565    -0.03406497     2.75128984
   -0.01738659    -0.03406244     2.75128984
20MABNDB000146_PR016
   -0.01342200    -0.03182959     2.15201235
   -0.01344784    -0.03185207     2.15201211
   -0.01344489    -0.03181771     2.15201259
   -0.01344777    -0.03181671     2.15201259
20MABNDM000168_PR025
    0.06238085    -0.06262769    -3.78794241
    0.06238085    -0.06262769    -3.78794241
    0.06238085    -0.06262769    -3.78794241
    0.06238085    -0.06262769    -3.78794241
20MABNDM000168_PR026
   -0.07155360    -0.07390860    -3.98398662
   -0.04910747    -0.07181936    -3.98428011
   -0.06792602    -0.07033689    -3.98407269
   -0.01894307    -0.08210246    -3.98433709
20MABNDM000168_20MABNDL000077
    0.01140204    -0.03904521     5.38884640
    0.01140200    -0.03904845     5.38884640
    0.01140024    -0.03904555     5.38884640
    0.01140003    -0.03903548     5.38884640
20MABNDM000168_PR001
   -0.05750138    -0.01352078     5.81470490
   -0.05749494    -0.01350420     5.81470490
   -0.05747768    -0.01351608     5.81470490
   -0.05749255    -0.01350036     5.81470490
20MABNDL000196_PR036
    0.05077221     0.00573871     3.68777633
    0.05077196     0.00574460     3.68777633
    0.05077565     0.00573946     3.68777633
    0.05077908     0.00574069     3.68777633
20MABNDL000196_PR037
   -0.02583539     0.02878871     3.88380671
   -0.02581781     0.02878849     3.88380671
   -0.02582505     0.02878951     3.88380671
   -0.02581704     0.02878746     3.88380671
20MABNDL000196_20MABNDM000020
   -0.01386777     0.03896201    -5.47473907
   -0.01386051     0.03895856    -5.47473907
   -0.01386476     0.03895524    -5.47473907
   -0.01386269     0.03895959    -5.47473907
20MABNDL000196_PR012
    0.07383847     0.11440298    -5.91460705
    0.09369345     0.11246672    -5.91430378
    0.09369345     0.11246672    -5.91430378
    0.09369345     0.11246672    -5.91430378


*****************************************************************coordonnees du prisme dans le repere ATLAS********************************************************************************** 
20MABNDB000069_PR031 0.00000000
    3.68429589     3.84875154    -7.90210819
    3.68434668     3.84875154    -7.90209007
    3.68426895     3.84875154    -7.90210819
    3.68431664     3.84875154    -7.90210724
    3.68428183     3.84875178    -7.90207720
20MABNDB000069_PR033 0.00000000
    3.53337002    -4.07045794    -7.87967873
    3.53336954    -4.07045794    -7.87967777
    3.53336978    -4.07045794    -7.87967730
    3.53337097    -4.07045794    -7.87967539
    3.53336978    -4.07045794    -7.87967730
20MABNDB000131_PR032 0.00000000
    3.86907339     3.64756536   -12.94145012
    3.86908054     3.64756441   -12.94147110
    3.86907983     3.64756441   -12.94148064
    3.86907482     3.64756536   -12.94145679
    3.86909676     3.64756441   -12.94147682
20MABNDB000131_PR034 0.00000000
    3.67360210    -3.92562485   -12.89291286
    3.67360353    -3.92562485   -12.89291954
    3.67361069    -3.92562485   -12.89292431
    3.67360663    -3.92562485   -12.89291573
    3.67360473    -3.92562485   -12.89291954
20MABNDA000208_PR042 0.00000000
   -3.68199348     3.84913731    -7.89756775
   -3.68207383     3.84913635    -7.89760160
   -3.68209529     3.84913659    -7.89759922
   -3.68195486     3.84913826    -7.89757395
   -3.68197870     3.84913826    -7.89751244
20MABNDA000208_PR046 0.00000000
   -3.53243351    -4.07031441    -7.87546635
   -3.53243637    -4.07031441    -7.87546349
   -3.53243709    -4.07031441    -7.87546253
   -3.53243256    -4.07031441    -7.87546110
   -3.53243852    -4.07031441    -7.87546539
20MABNDA000035_PR044 0.00000000
   -3.86884713     3.64758134   -12.93362331
   -3.86884904     3.64758134   -12.93359089
   -3.86888242     3.64758134   -12.93360901
   -3.86883855     3.64758134   -12.93360138
   -3.86886477     3.64758134   -12.93364334
20MABNDA000035_PR045 0.00000000
   -3.67600513    -3.92563462   -12.88923550
   -3.67599654    -3.92563462   -12.88923645
   -3.67599702    -3.92563462   -12.88923454
   -3.67599773    -3.92563462   -12.88923931
   -3.67600584    -3.92563462   -12.88923454
20MABNDL000077_PR002 0.00000000
    2.83552647    -3.69498944     6.48618984
    2.83545494    -3.69500279     6.48619032
    2.83548355    -3.69500518     6.48619032
    2.83546543    -3.69500947     6.48619032
    2.83546376    -3.69501042     6.48619032
20MABNDL000077_PR003 0.00000000
    2.82025862    -3.73086262     6.67530489
    2.82018065    -3.73086524     6.67530489
    2.82018042    -3.73086357     6.67530489
    2.82017565    -3.73086190     6.67530489
20MABNDL000077_20MABNDM000168 0.00000000
    2.79558635    -3.80202770    -2.68926311
    2.85309076    -3.73717833    -2.68939304
    2.85308766    -3.73716521    -2.68939304
    2.85307407    -3.73717332    -2.68939304
20MABNDL000077_PR024 0.00000000
    2.85125113    -3.68031788    -3.11695194
    2.85122514    -3.68031883    -3.11695194
    2.85122824    -3.68031335    -3.11695194
    2.85122371    -3.68033242    -3.11695194
20MABNDM000020_PR013 0.00000000
   -2.86452413    -3.73430181     6.48601818
   -2.86450481    -3.73430991     6.48601866
   -2.86455369    -3.73432136     6.48601770
   -2.86449480    -3.73431754     6.48601866
20MABNDM000020_PR014 0.00000000
   -2.88391042    -3.67253470     7.43189812
   -2.88383079    -3.67253590     7.43189907
   -2.88386416    -3.67251825     7.43189812
   -2.88384295    -3.67252374     7.43189812
20MABNDM000020_20MABNDL000196 0.00000000
   -2.76147485    -3.76025653    -2.71070480
   -2.76146960    -3.76025057    -2.71070480
   -2.76146889    -3.76025152    -2.71070480
   -2.76146626    -3.76024127    -2.71070480
20MABNDM000020_PR035 0.00000000
   -2.79947209    -3.69017506    -3.11713433
   -2.79946494    -3.69017649    -3.11713433
   -2.79946446    -3.69018006    -3.11713433
   -2.79946399    -3.69017744    -3.11713433
20MABNDA000188_PR008 0.00000000
    3.58573937     3.84940577     8.06407452
    3.57188129     3.85005975     8.02691650
    3.58617949     3.84926701     8.07145119
    3.57188129     3.85005975     8.02691650
20MABNDA000188_PR018 0.00000000
    3.52013445    -4.07061100     7.89735842
    3.52013540    -4.07061100     7.89735889
    3.52013564    -4.07061100     7.89735842
    3.52013659    -4.07061100     7.89735794
20MABNDA000039_PR009 0.00000000
    3.87572241     3.64746928    12.93584633
    3.87572980     3.64746928    12.93583679
    3.87572527     3.64746928    12.93584824
    3.87574363     3.64746928    12.93585682
20MABNDA000039_PR011 0.00000000
    3.66445279    -3.92580557    12.88403416
    3.66445231    -3.92580557    12.88403225
    3.66445279    -3.92580557    12.88402939
    3.66445470    -3.92580557    12.88403130
20MABNDB000155_PR020 0.00000000
   -3.68111205     3.84880972     7.89877224
   -3.68111229     3.84880972     7.89877129
   -3.68109655     3.84881163     7.89879799
   -3.68104076     3.84881186     7.89878321
20MABNDB000155_PR022 0.00000000
   -3.53487325    -4.07043028     7.89136553
   -3.53487301    -4.07043028     7.89136744
   -3.53487325    -4.07043028     7.89136600
   -3.53487372    -4.07043028     7.89136553
20MABNDB000010_PR021 0.00000000
   -3.86173630     3.64768696    12.93594837
   -3.86175585     3.64768696    12.93596840
   -3.86173582     3.64768696    12.93593502
   -3.86170721     3.64768696    12.93597794
20MABNDB000010_PR023 0.00000000
   -3.68512988    -3.92559862    12.88579750
   -3.68512392    -3.92559862    12.88579750
   -3.68512917    -3.92559862    12.88580704
   -3.68513560    -3.92559862    12.88580418
20MABNDB000212_PR029 0.00000000
    2.59967971    -4.19501400    -6.54793596
    2.59968066    -4.19501400    -6.54793596
    2.59968257    -4.19501400    -6.54793406
    2.59968352    -4.19501400    -6.54793358
20MABNDB000128_PR030 0.00000000
    2.61012340    -4.14002323    -6.93166971
    2.61012530    -4.14002323    -6.93167067
    2.61012959    -4.14002323    -6.93167162
    2.61012030    -4.14002323    -6.93167353
20MABNDA000444_PR040 0.00000000
   -2.60465670    -4.19509029    -6.54047632
   -2.60465693    -4.19509029    -6.54047203
   -2.60465860    -4.19509029    -6.54047489
   -2.60465789    -4.19509029    -6.54047203
20MABNDA000053_PR041 0.00000000
   -2.59366465    -4.14012337    -6.92729235
   -2.59366822    -4.14012337    -6.92728758
   -2.59367251    -4.14012337    -6.92729235
   -2.59366632    -4.14012337    -6.92729139
20MABNDA000196_PR006 0.00000000
    2.58495474    -4.19496298     6.54852295
    2.58494997    -4.19496298     6.54852247
    2.58495188    -4.19496298     6.54852152
    2.58495307    -4.19496298     6.54852247
20MABNDA000324_PR007 0.00000000
    2.59423828    -4.13996172     6.94872618
    2.59424400    -4.13996172     6.94871902
    2.59424305    -4.13996172     6.94872046
    2.59423947    -4.13996172     6.94871807
20MABNDB000001_PR017 0.00000000
   -2.59788275    -4.19505215     6.53887224
   -2.59787798    -4.19505215     6.53887653
   -2.59787965    -4.19505215     6.53887081
   -2.59788418    -4.19505215     6.53887558
20MABNDB000260_PR019 0.00000000
   -2.60440826    -4.13995457     6.94291925
   -2.60438299    -4.13995457     6.94292831
   -2.60440421    -4.13995457     6.94292068
   -2.60439944    -4.13995457     6.94292164
20MABNDB000135_PR027 0.00000000
    2.60387945    -4.19700384    -3.82549286
    2.60387874    -4.19700384    -3.82549405
    2.60387468    -4.19700384    -3.82549810
    2.60388112    -4.19700384    -3.82549644
20MABNDB000126_PR028 0.00000000
    2.60561919    -4.19702005    -5.89337111
    2.60561609    -4.19702005    -5.89337349
    2.60562491    -4.19702005    -5.89337206
    2.60561681    -4.19702005    -5.89337158
20MABNDA000272_PR038 0.00000000
   -2.61135674    -4.19698286    -3.82762194
   -2.61135793    -4.19698286    -3.82762027
   -2.61136675    -4.19698286    -3.82762766
   -2.61136532    -4.19698286    -3.82761931
20MABNDA000003_PR039 0.00000000
   -2.61583781    -4.19702101    -5.89161873
   -2.61584425    -4.19702101    -5.89161968
   -2.61583900    -4.19702053    -5.89162397
   -2.61584187    -4.19702053    -5.89162445
20MABNDA000318_PR004 0.00000000
    2.61461735    -4.19698954     3.83378649
    2.61461616    -4.19698906     3.83377886
    2.61462188    -4.19698954     3.83379269
    2.61461377    -4.19698954     3.83378744
20MABNDA000334_PR005 0.00000000
    2.61680532    -4.19703054     5.89768219
    2.61680627    -4.19703054     5.89768600
    2.61681080    -4.19703054     5.89767504
    2.61680818    -4.19703054     5.89767933
20MABNDB000317_PR015 0.00000000
   -2.61122561    -4.19700480     3.83595610
   -2.61121964    -4.19700480     3.83595133
   -2.61122155    -4.19700480     3.83595037
   -2.61122060    -4.19700480     3.83595300
20MABNDB000146_PR016 0.00000000
   -2.61287332    -4.19702578     5.89852047
   -2.61284733    -4.19702578     5.89849806
   -2.61285043    -4.19702530     5.89853239
   -2.61284733    -4.19702530     5.89853334
20MABNDM000168_PR025 0.00000000
    2.79059744    -3.80769873    -6.47854233
    2.79059744    -3.80769873    -6.47854233
    2.79059744    -3.80769873    -6.47854233
    2.79059744    -3.80769873    -6.47854233
20MABNDM000168_PR026 0.00000000
    2.77934003    -3.67383432    -6.67463541
    2.78142333    -3.69628096    -6.67492104
    2.78291082    -3.67746282    -6.67472076
    2.77113223    -3.72644281    -6.67496586
20MABNDM000168_20MABNDL000077 0.00000000
    2.81475043    -3.75331402     2.69822550
    2.81474710    -3.75331402     2.69822550
    2.81474996    -3.75331235     2.69822550
    2.81475997    -3.75331211     2.69822550
20MABNDM000168_PR001 0.00000000
    2.84031892    -3.68425894     3.12405682
    2.84033537    -3.68426538     3.12405682
    2.84032345    -3.68428278     3.12405682
    2.84033918    -3.68426800     3.12405682
20MABNDL000196_PR036 0.00000000
   -2.84786844    -3.69350243    -6.47909927
   -2.84786272    -3.69350266    -6.47909927
   -2.84786773    -3.69349885    -6.47909927
   -2.84786654    -3.69349551    -6.47909927
20MABNDL000196_PR037 0.00000000
   -2.82478714    -3.77028155    -6.67505884
   -2.82478738    -3.77026391    -6.67505884
   -2.82478642    -3.77027130    -6.67505884
   -2.82478833    -3.77026320    -6.67505884
20MABNDL000196_20MABNDM000020 0.00000000
   -2.81441712    -3.74960399     2.68347168
   -2.81442070    -3.74959660     2.68347168
   -2.81442404    -3.74960089     2.68347168
   -2.81441951    -3.74959874     2.68347168
20MABNDL000196_PR012 0.00000000
   -2.73900747    -3.66145349     3.12325621
   -2.74095297    -3.64159966     3.12293458
   -2.74095297    -3.64159966     3.12293458
   -2.74095297    -3.64159966     3.12293458


*****************************************************************Rapport********************************************************************************** 
CAM-ECTC-US-IP_ECTC-US-IP-T    2016.09.19.02.57.17     3.68430200     3.84875159    -7.90209818     0.00002737     0.00000010     0.00001256 0.00000000 VRAI 
CAM-ECTC-US-IP_ECTC-US-IP      2016.09.19.02.57.17     3.53337002    -4.07045794    -7.87967730     0.00000050     0.00000000     0.00000109 0.00000000 VRAI 
CAM-ECTC-US-HO_ECTC-US-HO-T    2016.09.19.02.57.17     3.86908107     3.64756479   -12.94146709     0.00000832     0.00000047     0.00001173 0.00000000 VRAI 
CAM-ECTC-US-HO_ECTC-US-HO      2016.09.19.02.57.17     3.67360554    -3.92562485   -12.89291840     0.00000297     0.00000000     0.00000388 0.00000000 VRAI 
CAM-ECTC-USA-IP_ECTC-USA-IP-T  2016.09.19.02.57.17    -3.68201923     3.84913735    -7.89757099     0.00005516     0.00000080     0.00003219 0.00000000 VRAI 
CAM-ECTC-USA-IP_ECTC-USA-IP    2016.09.19.02.57.17    -3.53243561    -4.07031441    -7.87546377     0.00000223     0.00000000     0.00000190 0.00000000 VRAI 
CAM-ECTC-USA-HO_ECTC-USA-HO-T  2016.09.19.02.57.17    -3.86885638     3.64758134   -12.93361359     0.00001553     0.00000000     0.00001825 0.00000000 VRAI 
CAM-ECTC-USA-HO_ECTC-USA-HO    2016.09.19.02.57.17    -3.67600045    -3.92563462   -12.88923607     0.00000413     0.00000000     0.00000177 0.00000000 VRAI 
CAM-LBA-US_EBA-US-HO-H         2016.09.19.02.57.17     2.83547883    -3.69500346     6.48619022     0.00002557     0.00000754     0.00000019 0.00000000 VRAI 
CAM-LBA-US_JDA-US-H            2016.09.19.02.57.17     2.82019883    -3.73086333     6.67530489     0.00003457     0.00000125     0.00000000 0.00000000 VRAI 
CAM-LBA-US_CAM-LBC-US          2016.09.19.02.57.17     2.83870971    -3.75338614    -2.68936056     0.02489729     0.02808322     0.00005626 0.00000000 VRAI 
CAM-LBA-US_EBC-US-IP-H         2016.09.19.02.57.17     2.85123205    -3.68032062    -3.11695194     0.00001113     0.00000712     0.00000000 0.00000000 VRAI 
CAM-LBA-USA_EBA-USA-HO-H       2016.09.19.02.57.17    -2.86451936    -3.73431265     6.48601830     0.00002245     0.00000750     0.00000040 0.00000000 VRAI 
CAM-LBA-USA_JDA-USA-H          2016.09.19.02.57.17    -2.88386208    -3.67252815     7.43189836     0.00003036     0.00000742     0.00000041 0.00000000 VRAI 
CAM-LBA-USA_CAM-LBC-USA        2016.09.19.02.57.17    -2.76146990    -3.76024997    -2.71070480     0.00000311     0.00000551     0.00000000 0.00000000 VRAI 
CAM-LBA-USA_EBC-USA-IP-H       2016.09.19.02.57.17    -2.79946637    -3.69017726    -3.11713433     0.00000332     0.00000183     0.00000000 0.00000000 VRAI 
CAM-ECTA-US-IP_ECTA-US-IP-T    2016.09.19.02.57.17     3.57892036     3.84969807     8.04733968     0.00704079     0.00036499     0.02058902 0.00000000 VRAI 
CAM-ECTA-US-IP_ECTA-US-IP      2016.09.19.02.57.17     3.52013552    -4.07061100     7.89735842     0.00000076     0.00000000     0.00000034 0.00000000 VRAI 
CAM-ECTA-US-HO_ECTA-US-HO-T    2016.09.19.02.57.17     3.87573028     3.64746928    12.93584704     0.00000815     0.00000000     0.00000712 0.00000000 VRAI 
CAM-ECTA-US-HO_ECTA-US-HO      2016.09.19.02.57.17     3.66445315    -3.92580557    12.88403177     0.00000092     0.00000000     0.00000172 0.00000000 VRAI 
CAM-ECTA-USA-IP_ECTA-USA-IP-T  2016.09.19.02.57.17    -3.68109041     3.84881073     7.89878118     0.00002937     0.00000102     0.00001078 0.00000000 VRAI 
CAM-ECTA-USA-IP_ECTA-USA-IP    2016.09.19.02.57.17    -3.53487331    -4.07043028     7.89136612     0.00000026     0.00000000     0.00000078 0.00000000 VRAI 
CAM-ECTA-USA-HO_ECTA-USA-HO-T  2016.09.19.02.57.17    -3.86173379     3.64768696    12.93595743     0.00001735     0.00000000     0.00001677 0.00000000 VRAI 
CAM-ECTA-USA-HO_ECTA-USA-HO    2016.09.19.02.57.17    -3.68512964    -3.92559862    12.88580155     0.00000414     0.00000000     0.00000418 0.00000000 VRAI 
CAM-JDC-US-IP_JDC-US-IP        2016.09.19.02.57.17     2.59968162    -4.19501400    -6.54793489     0.00000151     0.00000000     0.00000109 0.00000000 VRAI 
CAM-JDC-US-HO_JDC-US-HO        2016.09.19.02.57.17     2.61012465    -4.14002323    -6.93167138     0.00000337     0.00000000     0.00000141 0.00000000 VRAI 
CAM-JDC-USA-IP_JDC-USA-IP      2016.09.19.02.57.17    -2.60465753    -4.19509029    -6.54047382     0.00000076     0.00000000     0.00000186 0.00000000 VRAI 
CAM-JDC-USA-HO_JDC-USA-HO      2016.09.19.02.57.17    -2.59366792    -4.14012337    -6.92729092     0.00000294     0.00000000     0.00000197 0.00000000 VRAI 
CAM-JDA-US-IP_JDA-US-IP        2016.09.19.02.57.17     2.58495241    -4.19496298     6.54852235     0.00000174     0.00000000     0.00000052 0.00000000 VRAI 
CAM-JDA-US-HO_JDA-US-HO        2016.09.19.02.57.17     2.59424120    -4.13996172     6.94872093     0.00000239     0.00000000     0.00000314 0.00000000 VRAI 
CAM-JDA-USA-IP_JDA-USA-IP      2016.09.19.02.57.17    -2.59788114    -4.19505215     6.53887379     0.00000245     0.00000000     0.00000235 0.00000000 VRAI 
CAM-JDA-USA-HO_JDA-USA-HO      2016.09.19.02.57.17    -2.60439873    -4.13995457     6.94292247     0.00000961     0.00000000     0.00000348 0.00000000 VRAI 
CAM-EBC-US-IP_EBC-US-IP        2016.09.19.02.57.17     2.60387850    -4.19700384    -3.82549536     0.00000237     0.00000000     0.00000204 0.00000000 VRAI 
CAM-EBC-US-HO_EBC-US-HO        2016.09.19.02.57.17     2.60561925    -4.19702005    -5.89337206     0.00000346     0.00000000     0.00000089 0.00000000 VRAI 
CAM-EBC-USA-IP_EBC-USA-IP      2016.09.19.02.57.17    -2.61136168    -4.19698286    -3.82762229     0.00000440     0.00000000     0.00000324 0.00000000 VRAI 
CAM-EBC-USA-HO_EBC-USA-HO      2016.09.19.02.57.17    -2.61584073    -4.19702077    -5.89162171     0.00000251     0.00000024     0.00000253 0.00000000 VRAI 
CAM-EBA-US-IP_EBA-US-IP        2016.09.19.02.57.17     2.61461729    -4.19698942     3.83378637     0.00000295     0.00000021     0.00000494 0.00000000 VRAI 
CAM-EBA-US-HO_EBA-US-HO        2016.09.19.02.57.17     2.61680764    -4.19703054     5.89768064     0.00000209     0.00000000     0.00000401 0.00000000 VRAI 
CAM-EBA-USA-IP_EBA-USA-IP      2016.09.19.02.57.17    -2.61122185    -4.19700480     3.83595270     0.00000227     0.00000000     0.00000217 0.00000000 VRAI 
CAM-EBA-USA-HO_EBA-USA-HO      2016.09.19.02.57.17    -2.61285460    -4.19702554     5.89852107     0.00001088     0.00000024     0.00001422 0.00000000 VRAI 
CAM-LBC-US_EBC-US-HO-H         2016.09.19.02.57.17     2.79059744    -3.80769873    -6.47854233     0.00000000     0.00000000     0.00000000 0.00000000 VRAI 
CAM-LBC-US_JDC-US-H            2016.09.19.02.57.17     2.77870160    -3.69350523    -6.67481077     0.00455050     0.02083802     0.00013699 0.00000000 VRAI 
CAM-LBC-US_CAM-LBA-US          2016.09.19.02.57.17     2.81475186    -3.75331312     2.69822550     0.00000485     0.00000090     0.00000000 0.00000000 VRAI 
CAM-LBC-US_EBA-US-IP-H         2016.09.19.02.57.17     2.84032923    -3.68426877     3.12405682     0.00000831     0.00000873     0.00000000 0.00000000 VRAI 
CAM-LBC-USA_EBC-USA-HO-H       2016.09.19.02.57.17    -2.84786636    -3.69349986    -6.47909927     0.00000221     0.00000293     0.00000000 0.00000000 VRAI 
CAM-LBC-USA_JDC-USA-H          2016.09.19.02.57.17    -2.82478732    -3.77026999    -6.67505884     0.00000068     0.00000739     0.00000000 0.00000000 VRAI 
CAM-LBC-USA_CAM-LBA-USA        2016.09.19.02.57.17    -2.81442034    -3.74960005     2.68347168     0.00000249     0.00000273     0.00000000 0.00000000 VRAI 
CAM-LBC-USA_EBA-USA-IP-H       2016.09.19.02.57.17    -2.74046659    -3.64656311     3.12301499     0.00084242     0.00859696     0.00013927 0.00000000 VRAI 
