********** Fichier qui contient une sauvegarde des coordonnees images + coordonnees images transformees dans le repere BCAM (MOUNT) + coordonnees des prismes dans le repere MOUNT********** 
********************************************************************** Unite en metres (m)************************************************************************************************** 

*******************************************************************coordonnees images dans le repere CCD *********************************************************************************** 
20MABNDB000069_PR031
Spot 1     0.00028344     0.00141188
Spot 2     0.00035475     0.00141146
Spot 1     0.00028364     0.00141199
Spot 2     0.00035485     0.00141131
Spot 1     0.00028357     0.00141175
Spot 2     0.00035464     0.00141157
Spot 1     0.00028311     0.00141211
Spot 2     0.00035477     0.00141122
Spot 1     0.00028436     0.00141211
Spot 2     0.00035444     0.00141151
20MABNDB000069_PR033
Spot 1     0.00183387     0.00201294
Spot 2     0.00230411     0.00203223
Spot 1     0.00183373     0.00201299
Spot 2     0.00230401     0.00203233
Spot 1     0.00183387     0.00201261
Spot 2     0.00230402     0.00203218
Spot 1     0.00183385     0.00201300
Spot 2     0.00230408     0.00203223
Spot 1     0.00183377     0.00201291
Spot 2     0.00230395     0.00203225
20MABNDB000131_PR032
Spot 1     0.00277882     0.00108539
Spot 2     0.00283833     0.00108854
Spot 1     0.00277891     0.00108516
Spot 2     0.00283822     0.00108876
Spot 1     0.00277903     0.00108528
Spot 2     0.00283839     0.00108877
Spot 1     0.00277913     0.00108532
Spot 2     0.00283845     0.00108875
Spot 1     0.00277901     0.00108504
Spot 2     0.00283842     0.00108892
20MABNDB000131_PR034
Spot 1     0.00092734     0.00035757
Spot 2     0.00110359     0.00035659
Spot 1     0.00092737     0.00035751
Spot 2     0.00110332     0.00035682
Spot 1     0.00092732     0.00035768
Spot 2     0.00110333     0.00035681
Spot 1     0.00092740     0.00035776
Spot 2     0.00110355     0.00035668
Spot 1     0.00092711     0.00035761
Spot 2     0.00110335     0.00035670
20MABNDA000208_PR042
Spot 1     0.00305497     0.00094315
Spot 2     0.00298862     0.00094373
Spot 1     0.00305480     0.00094307
Spot 2     0.00298895     0.00094393
Spot 1     0.00305506     0.00094295
Spot 2     0.00298841     0.00094343
Spot 1     0.00305510     0.00094249
Spot 2     0.00298800     0.00094376
Spot 1     0.00305599     0.00094360
Spot 2     0.00298885     0.00094274
20MABNDA000208_PR046
Spot 1     0.00145759     0.00210528
Spot 2     0.00098418     0.00210811
Spot 1     0.00145744     0.00210545
Spot 2     0.00098383     0.00210785
Spot 1     0.00145756     0.00210513
Spot 2     0.00098354     0.00210846
Spot 1     0.00145772     0.00210518
Spot 2     0.00098316     0.00210802
Spot 1     0.00145772     0.00210552
Spot 2     0.00098354     0.00210814
20MABNDA000035_PR044
Spot 1     0.00074094     0.00126627
Spot 2     0.00068509     0.00126041
Spot 1     0.00074070     0.00126584
Spot 2     0.00068494     0.00126017
Spot 1     0.00074084     0.00126607
Spot 2     0.00068526     0.00126019
Spot 1     0.00074057     0.00126615
Spot 2     0.00068482     0.00126006
Spot 1     0.00074081     0.00126604
Spot 2     0.00068471     0.00126043
20MABNDA000035_PR045
Spot 1     0.00254830     0.00051283
Spot 2     0.00237120     0.00051138
Spot 1     0.00254851     0.00051279
Spot 2     0.00237124     0.00051135
Spot 1     0.00254815     0.00051283
Spot 2     0.00237138     0.00051120
Spot 1     0.00254804     0.00051293
Spot 2     0.00237118     0.00051118
20MABNDL000077_PR002
Spot 1     0.00079524     0.00149584
Spot 2     0.00095765     0.00149404
Spot 1     0.00079489     0.00149621
Spot 2     0.00095729     0.00149451
Spot 1     0.00079478     0.00149624
Spot 2     0.00095734     0.00149475
Spot 1     0.00079470     0.00149636
Spot 2     0.00095718     0.00149432
20MABNDL000077_PR003
Spot 1     0.00152708     0.00118828
Spot 2     0.00167702     0.00119106
Spot 1     0.00152658     0.00118830
Spot 2     0.00167621     0.00119094
Spot 1     0.00152641     0.00118851
Spot 2     0.00167644     0.00119111
Spot 1     0.00152663     0.00118835
Spot 2     0.00167620     0.00119127
20MABNDL000077_20MABNDM000168
Spot 1     0.00188430     0.00148532
Spot 2     0.00167690     0.00160167
Spot 1     0.00188408     0.00148553
Spot 2     0.00167650     0.00160050
Spot 1     0.00188411     0.00148557
Spot 2     0.00167650     0.00160050
Spot 1     0.00188421     0.00148553
Spot 2     0.00167650     0.00160050
20MABNDL000077_PR024
Spot 1     0.00262797     0.00171426
Spot 2     0.00273064     0.00171930
Spot 1     0.00262809     0.00171471
Spot 2     0.00273030     0.00171935
Spot 1     0.00262806     0.00171462
Spot 2     0.00273038     0.00171936
Spot 1     0.00262839     0.00171490
Spot 2     0.00273037     0.00171950
20MABNDM000020_PR013
Spot 1     0.00164162     0.00213930
Spot 2     0.00148942     0.00214352
Spot 1     0.00164178     0.00214028
Spot 2     0.00148907     0.00214436
Spot 1     0.00164117     0.00213960
Spot 2     0.00148886     0.00214371
Spot 1     0.00164119     0.00213843
Spot 2     0.00148836     0.00214367
20MABNDM000020_PR014
Spot 1     0.00267869     0.00227817
Spot 2     0.00251594     0.00228564
Spot 1     0.00267892     0.00227998
Spot 2     0.00251694     0.00228699
Spot 1     0.00267904     0.00227930
Spot 2     0.00251712     0.00228715
Spot 1     0.00267915     0.00227961
Spot 2     0.00251674     0.00228693
20MABNDM000020_20MABNDL000196
Spot 1     0.00200086     0.00057820
Spot 2     0.00230500     0.00010500
Spot 1     0.00200097     0.00057800
Spot 2     0.00230500     0.00010500
Spot 1     0.00200083     0.00057796
Spot 2     0.00230500     0.00010500
Spot 1     0.00200088     0.00057804
Spot 2     0.00230500     0.00010500
20MABNDM000020_PR035
Spot 1     0.00126698     0.00087511
Spot 2     0.00119603     0.00090504
Spot 1     0.00126720     0.00087541
Spot 2     0.00119563     0.00090535
Spot 1     0.00126710     0.00087530
Spot 2     0.00119600     0.00090539
Spot 1     0.00126726     0.00087536
Spot 2     0.00119581     0.00090539
20MABNDA000188_PR008
Spot 1     0.00283500     0.00012500
Spot 2     0.00300500     0.00044500
Spot 1     0.00283500     0.00012500
Spot 2     0.00268000     0.00037000
Spot 1     0.00320500     0.00064500
Spot 2     0.00300500     0.00044500
Spot 1     0.00283500     0.00012500
Spot 2     0.00300500     0.00044500
20MABNDA000188_PR018
Spot 1     0.00164801     0.00174986
Spot 2     0.00118082     0.00174755
Spot 1     0.00164802     0.00174991
Spot 2     0.00118076     0.00174724
Spot 1     0.00164810     0.00174984
Spot 2     0.00118080     0.00174731
Spot 1     0.00164796     0.00174989
Spot 2     0.00118053     0.00174740
20MABNDA000039_PR009
Spot 1     0.00066200     0.00117291
Spot 2     0.00061503     0.00117748
Spot 1     0.00066209     0.00117309
Spot 2     0.00061506     0.00117741
Spot 1     0.00066218     0.00117317
Spot 2     0.00061515     0.00117740
Spot 1     0.00066210     0.00117337
Spot 2     0.00061497     0.00117743
20MABNDA000039_PR011
Spot 1     0.00276295     0.00027754
Spot 2     0.00258798     0.00027267
Spot 1     0.00276287     0.00027749
Spot 2     0.00258809     0.00027256
Spot 1     0.00276287     0.00027754
Spot 2     0.00258810     0.00027265
Spot 1     0.00276297     0.00027752
Spot 2     0.00258814     0.00027264
20MABNDB000155_PR020
Spot 1     0.00061761     0.00112356
Spot 2     0.00068194     0.00111965
Spot 1     0.00061718     0.00112377
Spot 2     0.00068144     0.00111949
Spot 1     0.00061797     0.00112333
Spot 2     0.00068172     0.00111933
Spot 1     0.00061741     0.00112350
Spot 2     0.00068207     0.00111938
20MABNDB000155_PR022
Spot 1     0.00208366     0.00134906
Spot 2     0.00255693     0.00134426
Spot 1     0.00208366     0.00134924
Spot 2     0.00255704     0.00134451
Spot 1     0.00208347     0.00134906
Spot 2     0.00255697     0.00134442
Spot 1     0.00208359     0.00134918
Spot 2     0.00255695     0.00134445
20MABNDB000010_PR021
Spot 1     0.00286637     0.00115633
Spot 2     0.00292053     0.00115911
Spot 1     0.00286627     0.00115623
Spot 2     0.00292036     0.00115910
Spot 1     0.00286625     0.00115658
Spot 2     0.00292051     0.00115918
Spot 1     0.00286646     0.00115646
Spot 2     0.00292031     0.00115908
20MABNDB000010_PR023
Spot 1     0.00130712     0.00033132
Spot 2     0.00148204     0.00032974
Spot 1     0.00130726     0.00033133
Spot 2     0.00148178     0.00032991
Spot 1     0.00130722     0.00033141
Spot 2     0.00148164     0.00032988
Spot 1     0.00130709     0.00033154
Spot 2     0.00148168     0.00032984
20MABNDB000212_PR029
Spot 1     0.00226241     0.00072541
Spot 2     0.00189566     0.00072467
Spot 1     0.00226240     0.00072536
Spot 2     0.00189595     0.00072532
Spot 1     0.00226247     0.00072510
Spot 2     0.00189595     0.00072500
Spot 1     0.00226249     0.00072545
Spot 2     0.00189597     0.00072581
20MABNDB000128_PR030
Spot 1     0.00188626     0.00200659
Spot 2     0.00209056     0.00200151
Spot 1     0.00188635     0.00200672
Spot 2     0.00209034     0.00200191
Spot 1     0.00188624     0.00200671
Spot 2     0.00209047     0.00200158
Spot 1     0.00188625     0.00200688
Spot 2     0.00209059     0.00200181
20MABNDA000444_PR040
Spot 1     0.00078230     0.00037336
Spot 2     0.00114855     0.00037065
Spot 1     0.00078248     0.00037321
Spot 2     0.00114867     0.00037133
Spot 1     0.00078230     0.00037328
Spot 2     0.00114877     0.00037074
Spot 1     0.00078215     0.00037337
Spot 2     0.00114867     0.00037067
20MABNDA000053_PR041
Spot 1     0.00164535     0.00199028
Spot 2     0.00144206     0.00198709
Spot 1     0.00164526     0.00199007
Spot 2     0.00144192     0.00198689
Spot 1     0.00164522     0.00199015
Spot 2     0.00144183     0.00198651
Spot 1     0.00164500     0.00199020
Spot 2     0.00144178     0.00198681
20MABNDA000196_PR006
Spot 1     0.00198587     0.00075860
Spot 2     0.00161948     0.00075672
Spot 1     0.00198575     0.00075893
Spot 2     0.00161948     0.00075694
Spot 1     0.00198583     0.00075841
Spot 2     0.00161963     0.00075562
Spot 1     0.00198573     0.00075889
Spot 2     0.00161947     0.00075676
20MABNDA000324_PR007
Spot 1     0.00195106     0.00120428
Spot 2     0.00174567     0.00121017
Spot 1     0.00195096     0.00120436
Spot 2     0.00174582     0.00121038
Spot 1     0.00195102     0.00120443
Spot 2     0.00174587     0.00121033
Spot 1     0.00195107     0.00120455
Spot 2     0.00174595     0.00121020
20MABNDB000001_PR017
Spot 1     0.00188563     0.00047161
Spot 2     0.00225438     0.00048162
Spot 1     0.00188570     0.00047150
Spot 2     0.00225452     0.00048183
Spot 1     0.00188556     0.00047150
Spot 2     0.00225446     0.00048216
Spot 1     0.00188558     0.00047155
Spot 2     0.00225453     0.00048172
20MABNDB000260_PR019
Spot 1     0.00192049     0.00149462
Spot 2     0.00212342     0.00149447
Spot 1     0.00192050     0.00149479
Spot 2     0.00212372     0.00149449
Spot 1     0.00192031     0.00149464
Spot 2     0.00212368     0.00149421
Spot 1     0.00192060     0.00149474
Spot 2     0.00212350     0.00149425
20MABNDB000135_PR027
Spot 1     0.00189134     0.00092386
Spot 2     0.00211005     0.00092668
Spot 1     0.00189117     0.00092379
Spot 2     0.00210987     0.00092688
Spot 1     0.00189133     0.00092371
Spot 2     0.00211000     0.00092632
Spot 1     0.00189126     0.00092360
Spot 2     0.00211003     0.00092655
20MABNDB000126_PR028
Spot 1     0.00164420     0.00200141
Spot 2     0.00192626     0.00200348
Spot 1     0.00164435     0.00200150
Spot 2     0.00192611     0.00200362
Spot 1     0.00164415     0.00200163
Spot 2     0.00192631     0.00200374
Spot 1     0.00164441     0.00200162
Spot 2     0.00192630     0.00200357
20MABNDA000272_PR038
Spot 1     0.00192369     0.00096231
Spot 2     0.00170141     0.00096121
Spot 1     0.00192369     0.00096244
Spot 2     0.00170141     0.00096102
Spot 1     0.00192342     0.00096239
Spot 2     0.00170144     0.00096115
Spot 1     0.00192388     0.00096256
Spot 2     0.00170120     0.00096160
20MABNDA000003_PR039
Spot 1     0.00200158     0.00192054
Spot 2     0.00227936     0.00192050
Spot 1     0.00200158     0.00192059
Spot 2     0.00227930     0.00192063
Spot 1     0.00200157     0.00192047
Spot 2     0.00227927     0.00192063
Spot 1     0.00200163     0.00192057
Spot 2     0.00227911     0.00192067
20MABNDA000318_PR004
Spot 1     0.00214732     0.00163152
Spot 2     0.00192924     0.00163262
Spot 1     0.00214735     0.00163155
Spot 2     0.00192939     0.00163255
Spot 1     0.00214775     0.00163171
Spot 2     0.00192925     0.00163252
Spot 1     0.00214726     0.00163158
Spot 2     0.00192953     0.00163267
20MABNDA000334_PR005
Spot 1     0.00247466     0.00158061
Spot 2     0.00219413     0.00158090
Spot 1     0.00247458     0.00158061
Spot 2     0.00219404     0.00158090
Spot 1     0.00247447     0.00158080
Spot 2     0.00219433     0.00158109
Spot 1     0.00247466     0.00158059
Spot 2     0.00219429     0.00158071
20MABNDB000317_PR015
Spot 1     0.00148869     0.00160972
Spot 2     0.00170779     0.00160374
Spot 1     0.00148787     0.00160975
Spot 2     0.00170829     0.00160338
Spot 1     0.00148834     0.00160970
Spot 2     0.00170807     0.00160347
Spot 1     0.00148839     0.00161017
Spot 2     0.00170805     0.00160344
20MABNDB000146_PR016
Spot 1     0.00144621     0.00133207
Spot 2     0.00172176     0.00133473
Spot 1     0.00144635     0.00133202
Spot 2     0.00172145     0.00133463
Spot 1     0.00144635     0.00133208
Spot 2     0.00172158     0.00133464
Spot 1     0.00144629     0.00133218
Spot 2     0.00172161     0.00133491
20MABNDM000168_PR025
Spot 1     0.00105500     0.00031500
Spot 2     0.00105500     0.00031500
Spot 1     0.00061125     0.00009625
Spot 2     0.00061333     0.00009500
Spot 1     0.00105500     0.00031500
Spot 2     0.00105500     0.00031500
Spot 1     0.00105500     0.00031500
Spot 2     0.00105500     0.00031500
20MABNDM000168_PR026
Spot 1     0.00242500     0.00006500
Spot 2     0.00242500     0.00006500
Spot 1     0.00242500     0.00006500
Spot 2     0.00242500     0.00006500
Spot 1     0.00309500     0.00031633
Spot 2     0.00309500     0.00031500
Spot 1     0.00242500     0.00006500
Spot 2     0.00242500     0.00006500
20MABNDM000168_20MABNDL000077
Spot 1     0.00153739     0.00129636
Spot 2     0.00175515     0.00129936
Spot 1     0.00153783     0.00129598
Spot 2     0.00175544     0.00129946
Spot 1     0.00153777     0.00129663
Spot 2     0.00175539     0.00129914
Spot 1     0.00153790     0.00129640
Spot 2     0.00175540     0.00129912
20MABNDM000168_PR001
Spot 1     0.00080615     0.00161600
Spot 2     0.00070407     0.00162085
Spot 1     0.00080671     0.00161636
Spot 2     0.00070413     0.00162092
Spot 1     0.00080687     0.00161698
Spot 2     0.00070412     0.00162088
Spot 1     0.00080628     0.00161612
Spot 2     0.00070415     0.00162077
20MABNDL000196_PR036
Spot 1     0.00095867     0.00164374
Spot 2     0.00112319     0.00164174
Spot 1     0.00095862     0.00164378
Spot 2     0.00112340     0.00164184
Spot 1     0.00095880     0.00164390
Spot 2     0.00112312     0.00164210
Spot 1     0.00095882     0.00164375
Spot 2     0.00112325     0.00164188
20MABNDL000196_PR037
Spot 1     0.00248270     0.00116407
Spot 2     0.00263787     0.00116267
Spot 1     0.00248264     0.00116412
Spot 2     0.00263796     0.00116253
Spot 1     0.00248286     0.00116420
Spot 2     0.00263811     0.00116255
Spot 1     0.00248328     0.00116376
Spot 2     0.00263817     0.00116251
20MABNDL000196_20MABNDM000020
Spot 1     0.00195287     0.00103110
Spot 2     0.00173086     0.00102980
Spot 1     0.00195297     0.00103108
Spot 2     0.00173082     0.00102986
Spot 1     0.00195266     0.00103108
Spot 2     0.00173058     0.00102978
Spot 1     0.00195280     0.00103101
Spot 2     0.00173063     0.00102975
20MABNDL000196_PR012
Spot 1     0.00113500     0.00025500
Spot 2     0.00113500     0.00025500
Spot 1     0.00315500     0.00069500
Spot 2     0.00315500     0.00069500
Spot 1     0.00315583     0.00069500
Spot 2     0.00315500     0.00069500
Spot 1     0.00315500     0.00069500
Spot 2     0.00315500     0.00069500


****************************************************************coordonnees images transformees dans le repere MOUNT************************************************************************* 
20MABNDB000069_PR031
Spot 1    -0.01359253    -0.01285576    -0.07388500
Spot 2    -0.01352130    -0.01285913    -0.07388500
Spot 1    -0.01359232    -0.01285566    -0.07388500
Spot 2    -0.01352120    -0.01285928    -0.07388500
Spot 1    -0.01359240    -0.01285590    -0.07388500
Spot 2    -0.01352140    -0.01285901    -0.07388500
Spot 1    -0.01359285    -0.01285552    -0.07388500
Spot 2    -0.01352129    -0.01285937    -0.07388500
Spot 1    -0.01359160    -0.01285557    -0.07388500
Spot 2    -0.01352160    -0.01285906    -0.07388500
20MABNDB000069_PR033
Spot 1    -0.01201862    -0.01231920    -0.07388500
Spot 2    -0.01154798    -0.01231933    -0.07388500
Spot 1    -0.01201875    -0.01231914    -0.07388500
Spot 2    -0.01154808    -0.01231922    -0.07388500
Spot 1    -0.01201863    -0.01231953    -0.07388500
Spot 2    -0.01154807    -0.01231937    -0.07388500
Spot 1    -0.01201863    -0.01231914    -0.07388500
Spot 2    -0.01154801    -0.01231933    -0.07388500
Spot 1    -0.01201872    -0.01231922    -0.07388500
Spot 2    -0.01154814    -0.01231930    -0.07388500
20MABNDB000131_PR032
Spot 1    -0.01144137    -0.01302935    -0.07533000
Spot 2    -0.01138188    -0.01302590    -0.07533000
Spot 1    -0.01144128    -0.01302958    -0.07533000
Spot 2    -0.01138199    -0.01302569    -0.07533000
Spot 1    -0.01144116    -0.01302946    -0.07533000
Spot 2    -0.01138182    -0.01302567    -0.07533000
Spot 1    -0.01144106    -0.01302942    -0.07533000
Spot 2    -0.01138176    -0.01302569    -0.07533000
Spot 1    -0.01144118    -0.01302970    -0.07533000
Spot 2    -0.01138179    -0.01302552    -0.07533000
20MABNDB000131_PR034
Spot 1    -0.01328916    -0.01376649    -0.07533000
Spot 2    -0.01311291    -0.01376658    -0.07533000
Spot 1    -0.01328913    -0.01376655    -0.07533000
Spot 2    -0.01311318    -0.01376635    -0.07533000
Spot 1    -0.01328918    -0.01376638    -0.07533000
Spot 2    -0.01311317    -0.01376636    -0.07533000
Spot 1    -0.01328910    -0.01376630    -0.07533000
Spot 2    -0.01311295    -0.01376649    -0.07533000
Spot 1    -0.01328939    -0.01376645    -0.07533000
Spot 2    -0.01311315    -0.01376647    -0.07533000
20MABNDA000208_PR042
Spot 1    -0.01392570     0.01305287    -0.07273700
Spot 2    -0.01385935     0.01305235    -0.07273700
Spot 1    -0.01392553     0.01305295    -0.07273700
Spot 2    -0.01385968     0.01305215    -0.07273700
Spot 1    -0.01392579     0.01305307    -0.07273700
Spot 2    -0.01385914     0.01305265    -0.07273700
Spot 1    -0.01392583     0.01305353    -0.07273700
Spot 2    -0.01385873     0.01305232    -0.07273700
Spot 1    -0.01392672     0.01305242    -0.07273700
Spot 2    -0.01385958     0.01305334    -0.07273700
20MABNDA000208_PR046
Spot 1    -0.01232730     0.01189214    -0.07273700
Spot 2    -0.01185389     0.01188973    -0.07273700
Spot 1    -0.01232715     0.01189197    -0.07273700
Spot 2    -0.01185354     0.01188999    -0.07273700
Spot 1    -0.01232727     0.01189229    -0.07273700
Spot 2    -0.01185325     0.01188938    -0.07273700
Spot 1    -0.01232743     0.01189224    -0.07273700
Spot 2    -0.01185287     0.01188982    -0.07273700
Spot 1    -0.01232743     0.01189190    -0.07273700
Spot 2    -0.01185325     0.01188970    -0.07273700
20MABNDA000035_PR044
Spot 1    -0.01157565     0.01299100    -0.07483200
Spot 2    -0.01151976     0.01299646    -0.07483200
Spot 1    -0.01157541     0.01299142    -0.07483200
Spot 2    -0.01151961     0.01299670    -0.07483200
Spot 1    -0.01157555     0.01299120    -0.07483200
Spot 2    -0.01151993     0.01299668    -0.07483200
Spot 1    -0.01157528     0.01299111    -0.07483200
Spot 2    -0.01151949     0.01299681    -0.07483200
Spot 1    -0.01157552     0.01299122    -0.07483200
Spot 2    -0.01151938     0.01299644    -0.07483200
20MABNDA000035_PR045
Spot 1    -0.01337761     0.01375727    -0.07483200
Spot 2    -0.01320050     0.01375746    -0.07483200
Spot 1    -0.01337782     0.01375732    -0.07483200
Spot 2    -0.01320054     0.01375749    -0.07483200
Spot 1    -0.01337746     0.01375727    -0.07483200
Spot 2    -0.01320068     0.01375765    -0.07483200
Spot 1    -0.01337735     0.01375717    -0.07483200
Spot 2    -0.01320048     0.01375766    -0.07483200
20MABNDL000077_PR002
Spot 1     0.01186552     0.03557131    -0.07463200
Spot 2     0.01202791     0.03556794    -0.07463200
Spot 1     0.01186518     0.03557168    -0.07463200
Spot 2     0.01202755     0.03556842    -0.07463200
Spot 1     0.01186507     0.03557171    -0.07463200
Spot 2     0.01202761     0.03556866    -0.07463200
Spot 1     0.01186499     0.03557183    -0.07463200
Spot 2     0.01202744     0.03556823    -0.07463200
20MABNDL000077_PR003
Spot 1     0.01259437     0.03525672    -0.07463200
Spot 2     0.01274433     0.03525805    -0.07463200
Spot 1     0.01259387     0.03525674    -0.07463200
Spot 2     0.01274352     0.03525794    -0.07463200
Spot 1     0.01259370     0.03525695    -0.07463200
Spot 2     0.01274375     0.03525811    -0.07463200
Spot 1     0.01259392     0.03525679    -0.07463200
Spot 2     0.01274351     0.03525827    -0.07463200
20MABNDL000077_20MABNDM000168
Spot 1    -0.01272252     0.03554699    -0.00695400
Spot 2    -0.01251632     0.03566545    -0.00695400
Spot 1    -0.01272230     0.03554720    -0.00695400
Spot 2    -0.01251591     0.03566429    -0.00695400
Spot 1    -0.01272233     0.03554724    -0.00695400
Spot 2    -0.01251591     0.03566429    -0.00695400
Spot 1    -0.01272243     0.03554720    -0.00695400
Spot 2    -0.01251591     0.03566429    -0.00695400
20MABNDL000077_PR024
Spot 1    -0.01346849     0.03576830    -0.00695400
Spot 2    -0.01357121     0.03577229    -0.00695400
Spot 1    -0.01346862     0.03576875    -0.00695400
Spot 2    -0.01357087     0.03577235    -0.00695400
Spot 1    -0.01346859     0.03576866    -0.00695400
Spot 2    -0.01357095     0.03577235    -0.00695400
Spot 1    -0.01346892     0.03576894    -0.00695400
Spot 2    -0.01357094     0.03577249    -0.00695400
20MABNDM000020_PR013
Spot 1    -0.01270378    -0.03609751    -0.00523500
Spot 2    -0.01285585    -0.03610510    -0.00523500
Spot 1    -0.01270360    -0.03609849    -0.00523500
Spot 2    -0.01285618    -0.03610594    -0.00523500
Spot 1    -0.01270423    -0.03609782    -0.00523500
Spot 2    -0.01285641    -0.03610530    -0.00523500
Spot 1    -0.01270423    -0.03609665    -0.00523500
Spot 2    -0.01285691    -0.03610527    -0.00523500
20MABNDM000020_PR014
Spot 1    -0.01166390    -0.03621341    -0.00523500
Spot 2    -0.01182644    -0.03622448    -0.00523500
Spot 1    -0.01166363    -0.03621522    -0.00523500
Spot 2    -0.01182541    -0.03622581    -0.00523500
Spot 1    -0.01166352    -0.03621454    -0.00523500
Spot 2    -0.01182523    -0.03622597    -0.00523500
Spot 1    -0.01166340    -0.03621484    -0.00523500
Spot 2    -0.01182561    -0.03622575    -0.00523500
20MABNDM000020_20MABNDL000196
Spot 1     0.01268533    -0.03454677    -0.07583800
Spot 2     0.01238113    -0.03407361    -0.07583800
Spot 1     0.01268522    -0.03454657    -0.07583800
Spot 2     0.01238113    -0.03407361    -0.07583800
Spot 1     0.01268536    -0.03454653    -0.07583800
Spot 2     0.01238113    -0.03407361    -0.07583800
Spot 1     0.01268531    -0.03454661    -0.07583800
Spot 2     0.01238113    -0.03407361    -0.07583800
20MABNDM000020_PR035
Spot 1     0.01341926    -0.03484357    -0.07583800
Spot 2     0.01349021    -0.03487350    -0.07583800
Spot 1     0.01341904    -0.03484387    -0.07583800
Spot 2     0.01349061    -0.03487381    -0.07583800
Spot 1     0.01341914    -0.03484376    -0.07583800
Spot 2     0.01349024    -0.03487385    -0.07583800
Spot 1     0.01341898    -0.03484383    -0.07583800
Spot 2     0.01349043    -0.03487385    -0.07583800
20MABNDA000188_PR008
Spot 1    -0.01385116     0.01393841    -0.07502000
Spot 2    -0.01402389     0.01361988    -0.07502000
Spot 1    -0.01385116     0.01393841    -0.07502000
Spot 2    -0.01369826     0.01369210    -0.07502000
Spot 1    -0.01422560     0.01342160    -0.07502000
Spot 2    -0.01402389     0.01361988    -0.07502000
Spot 1    -0.01385116     0.01393841    -0.07502000
Spot 2    -0.01402389     0.01361988    -0.07502000
20MABNDA000188_PR018
Spot 1    -0.01267813     0.01230345    -0.07502000
Spot 2    -0.01221093     0.01230176    -0.07502000
Spot 1    -0.01267814     0.01230340    -0.07502000
Spot 2    -0.01221087     0.01230207    -0.07502000
Spot 1    -0.01267822     0.01230347    -0.07502000
Spot 2    -0.01221091     0.01230200    -0.07502000
Spot 1    -0.01267808     0.01230342    -0.07502000
Spot 2    -0.01221064     0.01230191    -0.07502000
20MABNDA000039_PR009
Spot 1    -0.01162412     0.01307122    -0.07444800
Spot 2    -0.01157717     0.01306644    -0.07444800
Spot 1    -0.01162421     0.01307104    -0.07444800
Spot 2    -0.01157720     0.01306651    -0.07444800
Spot 1    -0.01162430     0.01307096    -0.07444800
Spot 2    -0.01157729     0.01306652    -0.07444800
Spot 1    -0.01162422     0.01307076    -0.07444800
Spot 2    -0.01157711     0.01306649    -0.07444800
20MABNDA000039_PR011
Spot 1    -0.01372118     0.01397567    -0.07444800
Spot 2    -0.01354619     0.01397978    -0.07444800
Spot 1    -0.01372110     0.01397572    -0.07444800
Spot 2    -0.01354630     0.01397989    -0.07444800
Spot 1    -0.01372110     0.01397567    -0.07444800
Spot 2    -0.01354631     0.01397980    -0.07444800
Spot 1    -0.01372120     0.01397569    -0.07444800
Spot 2    -0.01354635     0.01397981    -0.07444800
20MABNDB000155_PR020
Spot 1    -0.01364846    -0.01313384    -0.07501700
Spot 2    -0.01358409    -0.01313687    -0.07501700
Spot 1    -0.01364890    -0.01313364    -0.07501700
Spot 2    -0.01358458    -0.01313704    -0.07501700
Spot 1    -0.01364810    -0.01313407    -0.07501700
Spot 2    -0.01358430    -0.01313719    -0.07501700
Spot 1    -0.01364866    -0.01313390    -0.07501700
Spot 2    -0.01358395    -0.01313714    -0.07501700
20MABNDB000155_PR022
Spot 1    -0.01218564    -0.01288829    -0.07501700
Spot 2    -0.01171235    -0.01288661    -0.07501700
Spot 1    -0.01218564    -0.01288811    -0.07501700
Spot 2    -0.01171224    -0.01288636    -0.07501700
Spot 1    -0.01218583    -0.01288829    -0.07501700
Spot 2    -0.01171231    -0.01288645    -0.07501700
Spot 1    -0.01218571    -0.01288817    -0.07501700
Spot 2    -0.01171233    -0.01288642    -0.07501700
20MABNDB000010_PR021
Spot 1    -0.01158469    -0.01292222    -0.07358200
Spot 2    -0.01153059    -0.01291852    -0.07358200
Spot 1    -0.01158479    -0.01292232    -0.07358200
Spot 2    -0.01153076    -0.01291854    -0.07358200
Spot 1    -0.01158482    -0.01292197    -0.07358200
Spot 2    -0.01153061    -0.01291845    -0.07358200
Spot 1    -0.01158460    -0.01292209    -0.07358200
Spot 2    -0.01153081    -0.01291856    -0.07358200
20MABNDB000010_PR023
Spot 1    -0.01312974    -0.01377353    -0.07358200
Spot 2    -0.01295482    -0.01377214    -0.07358200
Spot 1    -0.01312960    -0.01377351    -0.07358200
Spot 2    -0.01295508    -0.01377198    -0.07358200
Spot 1    -0.01312964    -0.01377344    -0.07358200
Spot 2    -0.01295522    -0.01377201    -0.07358200
Spot 1    -0.01312978    -0.01377331    -0.07358200
Spot 2    -0.01295518    -0.01377205    -0.07358200
20MABNDB000212_PR029
Spot 1    -0.01182518    -0.01325617    -0.07390500
Spot 2    -0.01219191    -0.01325299    -0.07390500
Spot 1    -0.01182519    -0.01325622    -0.07390500
Spot 2    -0.01219162    -0.01325235    -0.07390500
Spot 1    -0.01182512    -0.01325648    -0.07390500
Spot 2    -0.01219162    -0.01325267    -0.07390500
Spot 1    -0.01182510    -0.01325613    -0.07390500
Spot 2    -0.01219159    -0.01325186    -0.07390500
20MABNDB000128_PR030
Spot 1    -0.01246888    -0.01221077    -0.07353400
Spot 2    -0.01226456    -0.01221515    -0.07353400
Spot 1    -0.01246879    -0.01221064    -0.07353400
Spot 2    -0.01226479    -0.01221475    -0.07353400
Spot 1    -0.01246890    -0.01221065    -0.07353400
Spot 2    -0.01226465    -0.01221508    -0.07353400
Spot 1    -0.01246889    -0.01221048    -0.07353400
Spot 2    -0.01226454    -0.01221485    -0.07353400
20MABNDA000444_PR040
Spot 1    -0.01172188     0.01365598    -0.07412000
Spot 2    -0.01208813     0.01365405    -0.07412000
Spot 1    -0.01172206     0.01365613    -0.07412000
Spot 2    -0.01208824     0.01365336    -0.07412000
Spot 1    -0.01172188     0.01365606    -0.07412000
Spot 2    -0.01208835     0.01365395    -0.07412000
Spot 1    -0.01172173     0.01365598    -0.07412000
Spot 2    -0.01208825     0.01365402    -0.07412000
20MABNDA000053_PR041
Spot 1    -0.01240201     0.01212003    -0.07430100
Spot 2    -0.01219869     0.01211925    -0.07430100
Spot 1    -0.01240191     0.01212024    -0.07430100
Spot 2    -0.01219855     0.01211945    -0.07430100
Spot 1    -0.01240188     0.01212016    -0.07430100
Spot 2    -0.01219845     0.01211983    -0.07430100
Spot 1    -0.01240166     0.01212010    -0.07430100
Spot 2    -0.01219841     0.01211952    -0.07430100
20MABNDA000196_PR006
Spot 1    -0.01294095     0.01321963    -0.07967100
Spot 2    -0.01257457     0.01321679    -0.07967100
Spot 1    -0.01294084     0.01321929    -0.07967100
Spot 2    -0.01257457     0.01321657    -0.07967100
Spot 1    -0.01294091     0.01321981    -0.07967100
Spot 2    -0.01257471     0.01321790    -0.07967100
Spot 1    -0.01294082     0.01321933    -0.07967100
Spot 2    -0.01257456     0.01321675    -0.07967100
20MABNDA000324_PR007
Spot 1    -0.01255683     0.01281727    -0.07446800
Spot 2    -0.01235140     0.01281298    -0.07446800
Spot 1    -0.01255673     0.01281719    -0.07446800
Spot 2    -0.01235155     0.01281277    -0.07446800
Spot 1    -0.01255679     0.01281712    -0.07446800
Spot 2    -0.01235160     0.01281282    -0.07446800
Spot 1    -0.01255684     0.01281700    -0.07446800
Spot 2    -0.01235168     0.01281295    -0.07446800
20MABNDB000001_PR017
Spot 1    -0.01230238    -0.01351790    -0.07418400
Spot 2    -0.01193355    -0.01351180    -0.07418400
Spot 1    -0.01230231    -0.01351801    -0.07418400
Spot 2    -0.01193341    -0.01351159    -0.07418400
Spot 1    -0.01230245    -0.01351801    -0.07418400
Spot 2    -0.01193346    -0.01351126    -0.07418400
Spot 1    -0.01230243    -0.01351796    -0.07418400
Spot 2    -0.01193340    -0.01351170    -0.07418400
20MABNDB000260_PR019
Spot 1    -0.01241068    -0.01240796    -0.07492700
Spot 2    -0.01220779    -0.01240395    -0.07492700
Spot 1    -0.01241068    -0.01240779    -0.07492700
Spot 2    -0.01220749    -0.01240393    -0.07492700
Spot 1    -0.01241086    -0.01240795    -0.07492700
Spot 2    -0.01220753    -0.01240421    -0.07492700
Spot 1    -0.01241058    -0.01240784    -0.07492700
Spot 2    -0.01220771    -0.01240417    -0.07492700
20MABNDB000135_PR027
Spot 1    -0.01251324    -0.01318916    -0.07464700
Spot 2    -0.01229452    -0.01318878    -0.07464700
Spot 1    -0.01251341    -0.01318923    -0.07464700
Spot 2    -0.01229469    -0.01318858    -0.07464700
Spot 1    -0.01251326    -0.01318931    -0.07464700
Spot 2    -0.01229457    -0.01318914    -0.07464700
Spot 1    -0.01251333    -0.01318942    -0.07464700
Spot 2    -0.01229454    -0.01318891    -0.07464700
20MABNDB000126_PR028
Spot 1    -0.01253529    -0.01218076    -0.07500400
Spot 2    -0.01225325    -0.01217719    -0.07500400
Spot 1    -0.01253514    -0.01218067    -0.07500400
Spot 2    -0.01225340    -0.01217705    -0.07500400
Spot 1    -0.01253534    -0.01218054    -0.07500400
Spot 2    -0.01225320    -0.01217693    -0.07500400
Spot 1    -0.01253508    -0.01218055    -0.07500400
Spot 2    -0.01225321    -0.01217710    -0.07500400
20MABNDA000272_PR038
Spot 1    -0.01275936     0.01314916    -0.07417900
Spot 2    -0.01253708     0.01314987    -0.07417900
Spot 1    -0.01275936     0.01314903    -0.07417900
Spot 2    -0.01253708     0.01315006    -0.07417900
Spot 1    -0.01275909     0.01314908    -0.07417900
Spot 2    -0.01253711     0.01314993    -0.07417900
Spot 1    -0.01275955     0.01314891    -0.07417900
Spot 2    -0.01253687     0.01314947    -0.07417900
20MABNDA000003_PR039
Spot 1    -0.01280265     0.01213173    -0.07373400
Spot 2    -0.01308043     0.01213247    -0.07373400
Spot 1    -0.01280265     0.01213168    -0.07373400
Spot 2    -0.01308037     0.01213234    -0.07373400
Spot 1    -0.01280264     0.01213180    -0.07373400
Spot 2    -0.01308034     0.01213234    -0.07373400
Spot 1    -0.01280270     0.01213170    -0.07373400
Spot 2    -0.01308018     0.01213230    -0.07373400
20MABNDA000318_PR004
Spot 1    -0.01286712     0.01246371    -0.07310600
Spot 2    -0.01264904     0.01246325    -0.07310600
Spot 1    -0.01286715     0.01246368    -0.07310600
Spot 2    -0.01264919     0.01246332    -0.07310600
Spot 1    -0.01286755     0.01246352    -0.07310600
Spot 2    -0.01264905     0.01246335    -0.07310600
Spot 1    -0.01286706     0.01246365    -0.07310600
Spot 2    -0.01264933     0.01246320    -0.07310600
20MABNDA000334_PR005
Spot 1    -0.01311777     0.01254779    -0.07324100
Spot 2    -0.01283724     0.01254723    -0.07324100
Spot 1    -0.01311769     0.01254779    -0.07324100
Spot 2    -0.01283715     0.01254723    -0.07324100
Spot 1    -0.01311758     0.01254760    -0.07324100
Spot 2    -0.01283744     0.01254704    -0.07324100
Spot 1    -0.01311777     0.01254781    -0.07324100
Spot 2    -0.01283740     0.01254742    -0.07324100
20MABNDB000317_PR015
Spot 1    -0.01266571    -0.01248832    -0.07326100
Spot 2    -0.01244656    -0.01249174    -0.07326100
Spot 1    -0.01266653    -0.01248830    -0.07326100
Spot 2    -0.01244606    -0.01249210    -0.07326100
Spot 1    -0.01266606    -0.01248834    -0.07326100
Spot 2    -0.01244628    -0.01249201    -0.07326100
Spot 1    -0.01266602    -0.01248787    -0.07326100
Spot 2    -0.01244630    -0.01249204    -0.07326100
20MABNDB000146_PR016
Spot 1    -0.01276215    -0.01246154    -0.07450500
Spot 2    -0.01248661    -0.01245827    -0.07450500
Spot 1    -0.01276201    -0.01246159    -0.07450500
Spot 2    -0.01248692    -0.01245837    -0.07450500
Spot 1    -0.01276201    -0.01246153    -0.07450500
Spot 2    -0.01248679    -0.01245836    -0.07450500
Spot 1    -0.01276207    -0.01246143    -0.07450500
Spot 2    -0.01248676    -0.01245809    -0.07450500
20MABNDM000168_PR025
Spot 1    -0.01335211    -0.03465272    -0.00532900
Spot 2    -0.01335211    -0.03465272    -0.00532900
Spot 1    -0.01379679    -0.03443587    -0.00532900
Spot 2    -0.01379472    -0.03443462    -0.00532900
Spot 1    -0.01335211    -0.03465272    -0.00532900
Spot 2    -0.01335211    -0.03465272    -0.00532900
Spot 1    -0.01335211    -0.03465272    -0.00532900
Spot 2    -0.01335211    -0.03465272    -0.00532900
20MABNDM000168_PR026
Spot 1    -0.01198319    -0.03439683    -0.00532900
Spot 2    -0.01198319    -0.03439683    -0.00532900
Spot 1    -0.01198319    -0.03439683    -0.00532900
Spot 2    -0.01198319    -0.03439683    -0.00532900
Spot 1    -0.01131212    -0.03464528    -0.00532900
Spot 2    -0.01131212    -0.03464395    -0.00532900
Spot 1    -0.01198319    -0.03439683    -0.00532900
Spot 2    -0.01198319    -0.03439683    -0.00532900
20MABNDM000168_20MABNDL000077
Spot 1     0.01288813    -0.03529705    -0.07445100
Spot 2     0.01267034    -0.03529687    -0.07445100
Spot 1     0.01288769    -0.03529667    -0.07445100
Spot 2     0.01267005    -0.03529696    -0.07445100
Spot 1     0.01288774    -0.03529732    -0.07445100
Spot 2     0.01267011    -0.03529664    -0.07445100
Spot 1     0.01288761    -0.03529709    -0.07445100
Spot 2     0.01267010    -0.03529662    -0.07445100
20MABNDM000168_PR001
Spot 1     0.01361461    -0.03562736    -0.07445100
Spot 2     0.01371661    -0.03563370    -0.07445100
Spot 1     0.01361405    -0.03562771    -0.07445100
Spot 2     0.01371655    -0.03563377    -0.07445100
Spot 1     0.01361388    -0.03562833    -0.07445100
Spot 2     0.01371656    -0.03563373    -0.07445100
Spot 1     0.01361448    -0.03562748    -0.07445100
Spot 2     0.01371653    -0.03563362    -0.07445100
20MABNDL000196_PR036
Spot 1     0.01193859     0.03583246    -0.07483600
Spot 2     0.01210311     0.03583081    -0.07483600
Spot 1     0.01193854     0.03583250    -0.07483600
Spot 2     0.01210332     0.03583091    -0.07483600
Spot 1     0.01193872     0.03583262    -0.07483600
Spot 2     0.01210304     0.03583117    -0.07483600
Spot 1     0.01193874     0.03583247    -0.07483600
Spot 2     0.01210317     0.03583095    -0.07483600
20MABNDL000196_PR037
Spot 1     0.01346361     0.03535597    -0.07483600
Spot 2     0.01361879     0.03535490    -0.07483600
Spot 1     0.01346355     0.03535602    -0.07483600
Spot 2     0.01361888     0.03535476    -0.07483600
Spot 1     0.01346377     0.03535610    -0.07483600
Spot 2     0.01361903     0.03535478    -0.07483600
Spot 1     0.01346419     0.03535566    -0.07483600
Spot 2     0.01361909     0.03535474    -0.07483600
20MABNDL000196_20MABNDM000020
Spot 1    -0.01277671     0.03530176    -0.00611000
Spot 2    -0.01255471     0.03530493    -0.00611000
Spot 1    -0.01277680     0.03530174    -0.00611000
Spot 2    -0.01255468     0.03530499    -0.00611000
Spot 1    -0.01277649     0.03530175    -0.00611000
Spot 2    -0.01255443     0.03530491    -0.00611000
Spot 1    -0.01277663     0.03530167    -0.00611000
Spot 2    -0.01255448     0.03530488    -0.00611000
20MABNDL000196_PR012
Spot 1    -0.01194339     0.03454227    -0.00611000
Spot 2    -0.01194339     0.03454227    -0.00611000
Spot 1    -0.01397183     0.03494154    -0.00611000
Spot 2    -0.01397183     0.03494154    -0.00611000
Spot 1    -0.01397266     0.03494153    -0.00611000
Spot 2    -0.01397183     0.03494154    -0.00611000
Spot 1    -0.01397183     0.03494154    -0.00611000
Spot 2    -0.01397183     0.03494154    -0.00611000


*****************************************************************coordonnees du prisme dans le repere MOUNT********************************************************************************** 
20MABNDB000069_PR031
    0.10228126    -0.03952411     9.20355988
    0.10226299    -0.03952089     9.20355988
    0.10228010    -0.03952283     9.20355988
    0.10230028    -0.03952428     9.20355988
    0.10224318    -0.03953972     9.20355988
20MABNDB000069_PR033
   -0.02695088    -0.02597528     1.28394914
   -0.02694889    -0.02597665     1.28394914
   -0.02694998    -0.02597207     1.28394914
   -0.02695048    -0.02597581     1.28394914
   -0.02694866    -0.02597529     1.28394914
20MABNDB000131_PR032
   -0.18817885    -0.03089687    11.00641632
   -0.18817741    -0.03089613    11.00641632
   -0.18819851    -0.03090574    11.00641537
   -0.18821022    -0.03090726    11.00641537
   -0.18819928    -0.03089916    11.00641537
20MABNDB000131_PR034
    0.01418599     0.01498865     3.43339252
    0.01419148     0.01498480     3.43339252
    0.01419241     0.01498116     3.43339252
    0.01418557     0.01498227     3.43339252
    0.01419672     0.01498528     3.43339252
20MABNDA000208_PR042
    0.13198975     0.01348873     9.20145702
    0.13199955     0.01349611     9.20145702
    0.13198242     0.01345804     9.20145702
    0.13195974     0.01345004     9.20145798
    0.13206649     0.01345566     9.20145607
20MABNDA000208_PR046
   -0.02333245     0.03298310     1.28210950
   -0.02333672     0.03298233     1.28210950
   -0.02333818     0.03298480     1.28210950
   -0.02334006     0.03298147     1.28210950
   -0.02333681     0.03298540     1.28210950
20MABNDA000035_PR044
   -0.17949113     0.02806596    11.00802803
   -0.17951998     0.02801715    11.00802708
   -0.17948622     0.02803520    11.00802803
   -0.17953816     0.02803191    11.00802708
   -0.17952853     0.02805086    11.00802708
20MABNDA000035_PR045
    0.01474961    -0.01708115     3.43485284
    0.01475530    -0.01708279     3.43485284
    0.01475027    -0.01708527     3.43485284
    0.01474320    -0.01708339     3.43485284
20MABNDL000077_PR002
    0.04951429     0.02152810     3.70691013
    0.04953162     0.02150718     3.70690966
    0.04953304     0.02150050     3.70690966
    0.04953904     0.02150810     3.70690966
20MABNDL000077_PR003
    0.01387220     0.03700001     3.89605379
    0.01390623     0.03700227     3.89605379
    0.01390458     0.03699242     3.89605379
    0.01390510     0.03699242     3.89605379
20MABNDL000077_20MABNDM000168
   -0.01742899     0.01125745    -5.46869755
   -0.01745174     0.01129188    -5.46869802
   -0.01745064     0.01129045    -5.46869802
   -0.01744705     0.01129193    -5.46869802
20MABNDL000077_PR024
    0.05239619    -0.00350184    -5.89622355
    0.05238781    -0.00352142    -5.89622355
    0.05238973    -0.00351828    -5.89622355
    0.05240236    -0.00353452    -5.89622307
20MABNDM000020_PR013
   -0.00509198     0.01217788    -3.80216908
   -0.00508827     0.01222312    -3.80216813
   -0.00506720     0.01219058    -3.80216837
   -0.00505463     0.01216084    -3.80216908
20MABNDM000020_PR014
   -0.06755576     0.03172185    -4.74799967
   -0.06759616     0.03181928    -4.74799728
   -0.06760514     0.03180289    -4.74799728
   -0.06759681     0.03180588    -4.74799728
20MABNDM000020_20MABNDL000196
    0.02770931    -0.09273440     5.39451122
    0.02771325    -0.09274156     5.39451075
    0.02770824    -0.09274299     5.39451075
    0.02771003    -0.09274013     5.39451122
20MABNDM000020_PR035
   -0.04216703    -0.05476351     5.80100012
   -0.04217397    -0.05474001     5.80100012
   -0.04216357    -0.05474271     5.80100012
   -0.04216472    -0.05474040     5.80100012
20MABNDA000188_PR008
    0.13960183    -0.07519378     9.20337868
    0.11961753    -0.07962916     9.20364380
    0.16258341    -0.04346871     9.20321846
    0.13960183    -0.07519378     9.20337868
20MABNDA000188_PR018
   -0.01701602     0.02606088     1.28357768
   -0.01701647     0.02605866     1.28357768
   -0.01701544     0.02605865     1.28357768
   -0.01701894     0.02605988     1.28357768
20MABNDA000039_PR009
   -0.17142001     0.02458457    11.00701332
   -0.17141120     0.02459257    11.00701332
   -0.17139803     0.02459763    11.00701332
   -0.17141697     0.02461454    11.00701332
20MABNDA000039_PR011
    0.03055714    -0.02474519     3.43347120
    0.03055780    -0.02474884     3.43347120
    0.03055805    -0.02474565     3.43347120
    0.03056123    -0.02474635     3.43347120
20MABNDB000155_PR020
    0.10243419    -0.00816988     9.20027924
    0.10249130    -0.00817217     9.20027733
    0.10242513    -0.00813624     9.20027924
    0.10243821    -0.00814957     9.20027924
20MABNDB000155_PR022
   -0.02512371    -0.01667182     1.28071570
   -0.02512460    -0.01667550     1.28071570
   -0.02512241    -0.01667317     1.28071570
   -0.02512325    -0.01667446     1.28071570
20MABNDB000010_PR021
   -0.17575625    -0.03420156    11.00695229
   -0.17573653    -0.03419314    11.00695229
   -0.17574555    -0.03422491    11.00695229
   -0.17574656    -0.03420875    11.00695229
20MABNDB000010_PR023
    0.00456228     0.01942312     3.43377829
    0.00456510     0.01941903     3.43377829
    0.00456925     0.01941796     3.43377829
    0.00457135     0.01941593     3.43377829
20MABNDB000212_PR029
   -0.02596935    -0.00898636     1.64223480
   -0.02597249    -0.00899290     1.64223480
   -0.02597319    -0.00898654     1.64223480
   -0.02597377    -0.00899925     1.64223480
20MABNDB000128_PR030
   -0.01872375    -0.04702093     2.95496202
   -0.01872116    -0.04703134     2.95496202
   -0.01872158    -0.04702465     2.95496202
   -0.01872410    -0.04703253     2.95496202
20MABNDA000444_PR040
   -0.02944154     0.00134285     1.64491999
   -0.02943833     0.00134870     1.64491999
   -0.02943913     0.00134299     1.64491999
   -0.02944188     0.00134318     1.64491999
20MABNDA000053_PR041
   -0.02685410     0.05104832     2.95450306
   -0.02685877     0.05104036     2.95450330
   -0.02686144     0.05103452     2.95450330
   -0.02686660     0.05104149     2.95450306
20MABNDA000196_PR006
   -0.01040212     0.01057868     1.64206505
   -0.01040336     0.01058470     1.64206505
   -0.01040110     0.01056457     1.64206505
   -0.01040372     0.01058230     1.64206505
20MABNDA000324_PR007
   -0.02512255     0.02754759     2.95549393
   -0.02512161     0.02755331     2.95549393
   -0.02511945     0.02755372     2.95549393
   -0.02511689     0.02755354     2.95549393
20MABNDB000001_PR017
   -0.02412228    -0.00356780     1.64036417
   -0.02412459    -0.00356887     1.64036417
   -0.02412244    -0.00357250     1.64036429
   -0.02412338    -0.00356823     1.64036417
20MABNDB000260_PR019
   -0.02427804    -0.03803109     2.95627809
   -0.02428406    -0.03803495     2.95627809
   -0.02427971    -0.03802640     2.95627809
   -0.02428182    -0.03802919     2.95627809
20MABNDB000135_PR027
   -0.02102863    -0.01015980     2.74937153
   -0.02102224    -0.01016225     2.74937153
   -0.02102743    -0.01015046     2.74937153
   -0.02102672    -0.01015267     2.74937153
20MABNDB000126_PR028
   -0.02032129    -0.03874771     2.14679766
   -0.02032127    -0.03875098     2.14679766
   -0.02032125    -0.03875455     2.14679766
   -0.02032483    -0.03875200     2.14679766
20MABNDA000272_PR038
   -0.01322126     0.01120300     2.74965882
   -0.01322126     0.01120190     2.74965882
   -0.01322566     0.01120337     2.74965882
   -0.01322160     0.01121473     2.74965882
20MABNDA000003_PR039
   -0.00591687     0.04106613     2.14891768
   -0.00591772     0.04106870     2.14891768
   -0.00591829     0.04106699     2.14891768
   -0.00591972     0.04106899     2.14891768
20MABNDA000318_PR004
   -0.00840688     0.03861393     2.74965692
   -0.00840357     0.03861321     2.74965692
   -0.00839881     0.03861561     2.74965692
   -0.00840266     0.03861596     2.74965692
20MABNDA000334_PR005
   -0.00423050     0.03153451     2.14977312
   -0.00423293     0.03153451     2.14977312
   -0.00423035     0.03153994     2.14977312
   -0.00422822     0.03153151     2.14977312
20MABNDB000317_PR015
   -0.01739318    -0.03435618     2.75128746
   -0.01738743    -0.03435010     2.75128746
   -0.01739197    -0.03435088     2.75128746
   -0.01739242    -0.03435890     2.75128746
20MABNDB000146_PR016
   -0.01348281    -0.03178573     2.15201283
   -0.01348037    -0.03178357     2.15201283
   -0.01348223    -0.03178458     2.15201283
   -0.01348179    -0.03178990     2.15201283
20MABNDM000168_PR025
    0.02039144    -0.06973486    -3.78849745
    0.04232339    -0.08048389    -3.78812313
    0.02039144    -0.06973486    -3.78849745
    0.02039144    -0.06973486    -3.78849745
20MABNDM000168_PR026
   -0.04912424    -0.08483262    -3.98413920
   -0.04912424    -0.08483262    -3.98413920
   -0.08405177    -0.07193059    -3.98379707
   -0.04912424    -0.08483262    -3.98413920
20MABNDM000168_20MABNDL000077
    0.01130589    -0.03908549     5.38884640
    0.01133196    -0.03909592     5.38884640
    0.01132818    -0.03908401     5.38884640
    0.01133308    -0.03909307     5.38884640
20MABNDM000168_PR001
   -0.05752652    -0.01346381     5.81470394
   -0.05750224    -0.01344750     5.81470394
   -0.05749610    -0.01342510     5.81470394
   -0.05751836    -0.01346238     5.81470394
20MABNDL000196_PR036
    0.05074661     0.00577278     3.68777657
    0.05074269     0.00576933     3.68777657
    0.05074517     0.00576001     3.68777657
    0.05074147     0.00576909     3.68777657
20MABNDL000196_PR037
   -0.02585220     0.02879256     3.88380623
   -0.02585299     0.02879488     3.88380623
   -0.02586254     0.02879228     3.88380623
   -0.02587498     0.02880466     3.88380623
20MABNDL000196_20MABNDM000020
   -0.01380497     0.03891296    -5.47473907
   -0.01380279     0.03891157    -5.47473907
   -0.01382260     0.03891404    -5.47473907
   -0.01381585     0.03891777    -5.47473907
20MABNDL000196_PR012
   -0.07003666     0.09829920    -5.91516113
    0.08761661     0.06726457    -5.91482830
    0.08764884     0.06726521    -5.91482782
    0.08761661     0.06726457    -5.91482830


*****************************************************************coordonnees du prisme dans le repere ATLAS********************************************************************************** 
20MABNDB000069_PR031 0.00000000
    3.68399835     3.84875774    -7.90087843
    3.68397999     3.84875774    -7.90088177
    3.68399715     3.84875774    -7.90087986
    3.68401742     3.84875774    -7.90087843
    3.68396020     3.84875798    -7.90086269
20MABNDB000069_PR033 0.00000000
    3.53334808    -4.07045794    -7.87969589
    3.53334999    -4.07045794    -7.87969446
    3.53334904    -4.07045794    -7.87969923
    3.53334856    -4.07045794    -7.87969542
    3.53335023    -4.07045794    -7.87969589
20MABNDB000131_PR032 0.00000000
    3.86898088     3.64756632   -12.94153976
    3.86897945     3.64756632   -12.94153881
    3.86900067     3.64756536   -12.94154835
    3.86901236     3.64756536   -12.94155025
    3.86900139     3.64756536   -12.94154167
20MABNDB000131_PR034 0.00000000
    3.67360282    -3.92562437   -12.89295864
    3.67359734    -3.92562437   -12.89296246
    3.67359638    -3.92562437   -12.89296627
    3.67360330    -3.92562437   -12.89296532
    3.67359209    -3.92562437   -12.89296246
20MABNDA000208_PR042 0.00000000
   -3.68206739     3.84913635    -7.89799738
   -3.68207717     3.84913635    -7.89798975
   -3.68206000     3.84913635    -7.89802790
   -3.68203735     3.84913731    -7.89803600
   -3.68214393     3.84913540    -7.89803028
20MABNDA000208_PR046 0.00000000
   -3.53243208    -4.07031298    -7.87553549
   -3.53242779    -4.07031298    -7.87553596
   -3.53242636    -4.07031298    -7.87553358
   -3.53242445    -4.07031298    -7.87553692
   -3.53242779    -4.07031298    -7.87553310
20MABNDA000035_PR044 0.00000000
   -3.86873245     3.64758325   -12.93374538
   -3.86876106     3.64758229   -12.93369675
   -3.86872745     3.64758325   -12.93371391
   -3.86877942     3.64758229   -12.93371105
   -3.86876965     3.64758229   -12.93373013
20MABNDA000035_PR045 0.00000000
   -3.67597914    -3.92563438   -12.88930321
   -3.67597342    -3.92563438   -12.88930130
   -3.67597842    -3.92563438   -12.88929939
   -3.67598557    -3.92563438   -12.88930130
20MABNDL000077_PR002 0.00000000
    2.83551264    -3.69500256     6.48619032
    2.83553362    -3.69498539     6.48618984
    2.83554029    -3.69498396     6.48618984
    2.83553267    -3.69497800     6.48618984
20MABNDL000077_PR003 0.00000000
    2.82021499    -3.73087311     6.67530489
    2.82021284    -3.73083901     6.67530489
    2.82022262    -3.73084068     6.67530489
    2.82022262    -3.73084021     6.67530489
20MABNDL000077_20MABNDM000168 0.00000000
    2.83676195    -3.75062847    -2.68949842
    2.83672738    -3.75065112    -2.68949890
    2.83672881    -3.75064993    -2.68949890
    2.83672738    -3.75064635    -2.68949890
20MABNDL000077_PR024 0.00000000
    2.85112405    -3.68028045    -3.11695218
    2.85114360    -3.68028879    -3.11695242
    2.85114050    -3.68028688    -3.11695218
    2.85115671    -3.68027425    -3.11695170
20MABNDM000020_PR013 0.00000000
   -2.86448693    -3.73438263     6.48601866
   -2.86453223    -3.73438621     6.48601770
   -2.86449957    -3.73440742     6.48601818
   -2.86446977    -3.73441982     6.48601866
20MABNDM000020_PR014 0.00000000
   -2.88382244    -3.67263222     7.43190050
   -2.88391995    -3.67259169     7.43189812
   -2.88390350    -3.67258286     7.43189812
   -2.88390636    -3.67259097     7.43189812
20MABNDM000020_20MABNDL000196 0.00000000
   -2.76142502    -3.76022148    -2.71070480
   -2.76141787    -3.76022553    -2.71070433
   -2.76141644    -3.76022053    -2.71070433
   -2.76141930    -3.76022220    -2.71070480
20MABNDM000020_PR035 0.00000000
   -2.79945588    -3.69002438    -3.11713266
   -2.79947948    -3.69001746    -3.11713266
   -2.79947662    -3.69002795    -3.11713266
   -2.79947901    -3.69002676    -3.11713266
20MABNDA000188_PR008 0.00000000
    3.55267239     3.84905744     8.08662987
    3.53262234     3.84896755     8.09076500
    3.57612562     3.84959936     8.05525589
    3.55267239     3.84905744     8.08662987
20MABNDA000188_PR018 0.00000000
    3.52012467    -4.07061148     7.89737511
    3.52012420    -4.07061148     7.89737749
    3.52012539    -4.07061148     7.89737749
    3.52012181    -4.07061148     7.89737606
20MABNDA000039_PR009 0.00000000
    3.87559199     3.64747143    12.93587875
    3.87558317     3.64747143    12.93588638
    3.87557006     3.64747143    12.93589211
    3.87558913     3.64747143    12.93590832
20MABNDA000039_PR011 0.00000000
    3.66446710    -3.92580485    12.88409138
    3.66446638    -3.92580485    12.88408756
    3.66446614    -3.92580485    12.88409138
    3.66446280    -3.92580485    12.88409042
20MABNDB000155_PR020 0.00000000
   -3.68108678     3.84881163     7.89869738
   -3.68114400     3.84880972     7.89869499
   -3.68107772     3.84881163     7.89873075
   -3.68109083     3.84881163     7.89871740
20MABNDB000155_PR022 0.00000000
   -3.53485703    -4.07043028     7.89138746
   -3.53485632    -4.07043028     7.89138365
   -3.53485847    -4.07043028     7.89138603
   -3.53485751    -4.07043028     7.89138460
20MABNDB000010_PR021 0.00000000
   -3.86159301     3.64768982    12.93603039
   -3.86157322     3.64768982    12.93602276
   -3.86158228     3.64768982    12.93605423
   -3.86158323     3.64768982    12.93603802
20MABNDB000010_PR023 0.00000000
   -3.68510342    -3.92559814    12.88585281
   -3.68510056    -3.92559814    12.88585663
   -3.68509650    -3.92559814    12.88585758
   -3.68509436    -3.92559814    12.88585949
20MABNDB000212_PR029 0.00000000
    2.59964705    -4.19501352    -6.54797411
    2.59965014    -4.19501352    -6.54798079
    2.59965086    -4.19501352    -6.54797459
    2.59965158    -4.19501352    -6.54798698
20MABNDB000128_PR030 0.00000000
    2.61013484    -4.14002848    -6.93109989
    2.61013746    -4.14002848    -6.93108940
    2.61013722    -4.14002848    -6.93109608
    2.61013460    -4.14002800    -6.93108845
20MABNDA000444_PR040 0.00000000
   -2.60461402    -4.19508934    -6.54052305
   -2.60461092    -4.19508934    -6.54052925
   -2.60461164    -4.19508934    -6.54052353
   -2.60461450    -4.19508934    -6.54052353
20MABNDA000053_PR041 0.00000000
   -2.59368777    -4.14012814    -6.92686510
   -2.59368324    -4.14012766    -6.92687321
   -2.59368062    -4.14012766    -6.92687893
   -2.59367537    -4.14012814    -6.92687178
20MABNDA000196_PR006 0.00000000
    2.58486271    -4.19496298     6.54853535
    2.58486390    -4.19496298     6.54854107
    2.58486152    -4.19496298     6.54852104
    2.58486414    -4.19496298     6.54853868
20MABNDA000324_PR007 0.00000000
    2.59419227    -4.13996410     6.94836760
    2.59419322    -4.13996410     6.94836187
    2.59419537    -4.13996410     6.94836140
    2.59419799    -4.13996410     6.94836140
20MABNDB000001_PR017 0.00000000
   -2.59782386    -4.19505167     6.53889608
   -2.59782624    -4.19505167     6.53889704
   -2.59782410    -4.19505119     6.53890038
   -2.59782505    -4.19505167     6.53889656
20MABNDB000260_PR019 0.00000000
   -2.60448408    -4.13995647     6.94261265
   -2.60447788    -4.13995647     6.94260883
   -2.60448241    -4.13995647     6.94261742
   -2.60448027    -4.13995647     6.94261456
20MABNDB000135_PR027 0.00000000
    2.60383463    -4.19700384    -3.82520103
    2.60384107    -4.19700384    -3.82519865
    2.60383582    -4.19700384    -3.82521033
    2.60383654    -4.19700384    -3.82520819
20MABNDB000126_PR028 0.00000000
    2.60559583    -4.19701958    -5.89347219
    2.60559583    -4.19701958    -5.89346886
    2.60559583    -4.19701958    -5.89346552
    2.60559225    -4.19701958    -5.89346790
20MABNDA000272_PR038 0.00000000
   -2.61131549    -4.19698286    -3.82728124
   -2.61131549    -4.19698286    -3.82728243
   -2.61131120    -4.19698286    -3.82728100
   -2.61131525    -4.19698286    -3.82726955
20MABNDA000003_PR039 0.00000000
   -2.61581421    -4.19701958    -5.89170074
   -2.61581349    -4.19701958    -5.89169788
   -2.61581278    -4.19701958    -5.89169979
   -2.61581135    -4.19701958    -5.89169788
20MABNDA000318_PR004 0.00000000
    2.61459637    -4.19698811     3.83338475
    2.61459970    -4.19698811     3.83338547
    2.61460447    -4.19698811     3.83338308
    2.61460042    -4.19698811     3.83338261
20MABNDA000334_PR005 0.00000000
    2.61676812    -4.19703007     5.89772654
    2.61676574    -4.19703007     5.89772654
    2.61676812    -4.19703007     5.89772081
    2.61677027    -4.19703007     5.89772940
20MABNDB000317_PR015 0.00000000
   -2.61121392    -4.19700384     3.83565927
   -2.61121964    -4.19700384     3.83566546
   -2.61121511    -4.19700384     3.83566451
   -2.61121464    -4.19700384     3.83565664
20MABNDB000146_PR016 0.00000000
   -2.61281252    -4.19702482     5.89856434
   -2.61281490    -4.19702482     5.89856672
   -2.61281300    -4.19702482     5.89856577
   -2.61281347    -4.19702482     5.89856052
20MABNDM000168_PR025 0.00000000
    2.78350139    -3.76570773    -6.47911263
    2.77274656    -3.78763676    -6.47872925
    2.78350139    -3.76570773    -6.47911263
    2.78350139    -3.76570773    -6.47911263
20MABNDM000168_PR026 0.00000000
    2.76841021    -3.69626069    -6.67477942
    2.76841021    -3.69626069    -6.67477942
    2.78132129    -3.66133642    -6.67445087
    2.76841021    -3.69626069    -6.67477942
20MABNDM000168_20MABNDL000077 0.00000000
    2.81471014    -3.75321794     2.69822550
    2.81469965    -3.75324392     2.69822550
    2.81471157    -3.75324011     2.69822550
    2.81470251    -3.75324512     2.69822550
20MABNDM000168_PR001 0.00000000
    2.84037590    -3.68423390     3.12405586
    2.84039211    -3.68425822     3.12405586
    2.84041452    -3.68426442     3.12405586
    2.84037733    -3.68424201     3.12405586
20MABNDL000196_PR036 0.00000000
   -2.84783435    -3.69352794    -6.47909975
   -2.84783792    -3.69353199    -6.47909975
   -2.84784722    -3.69352937    -6.47909975
   -2.84783816    -3.69353318    -6.47909975
20MABNDL000196_PR037 0.00000000
   -2.82478333    -3.77029848    -6.67505836
   -2.82478094    -3.77029920    -6.67505836
   -2.82478356    -3.77030873    -6.67505836
   -2.82477117    -3.77032113    -6.67505836
20MABNDL000196_20MABNDM000020 0.00000000
   -2.81446624    -3.74954104     2.68347168
   -2.81446767    -3.74953890     2.68347168
   -2.81446528    -3.74955869     2.68347168
   -2.81446147    -3.74955201     2.68347168
20MABNDL000196_PR012 0.00000000
   -2.75504446    -3.80533552     3.12394452
   -2.78615236    -3.64769697     3.12346578
   -2.78615165    -3.64766479     3.12346506
   -2.78615236    -3.64769697     3.12346578


*****************************************************************Rapport********************************************************************************** 
CAM-ECTC-US-IP_ECTC-US-IP-T    2016.06.19.21.07.19     3.68399062     3.84875779    -7.90087624     0.00001928     0.00000010     0.00000688 0.00000000 VRAI 
CAM-ECTC-US-IP_ECTC-US-IP      2016.06.19.21.07.19     3.53334918    -4.07045794    -7.87969618     0.00000082     0.00000000     0.00000161 0.00000000 VRAI 
CAM-ECTC-US-HO_ECTC-US-HO-T    2016.06.19.21.07.19     3.86899495     3.64756575   -12.94154377     0.00001277     0.00000047     0.00000465 0.00000000 VRAI 
CAM-ECTC-US-HO_ECTC-US-HO      2016.06.19.21.07.19     3.67359838    -3.92562437   -12.89296303     0.00000421     0.00000000     0.00000267 0.00000000 VRAI 
CAM-ECTC-USA-IP_ECTC-USA-IP-T  2016.06.19.21.07.19    -3.68207717     3.84913635    -7.89801626     0.00003587     0.00000060     0.00001887 0.00000000 VRAI 
CAM-ECTC-USA-IP_ECTC-USA-IP    2016.06.19.21.07.19    -3.53242769    -4.07031298    -7.87553501     0.00000251     0.00000000     0.00000145 0.00000000 VRAI 
CAM-ECTC-USA-HO_ECTC-USA-HO-T  2016.06.19.21.07.19    -3.86875401     3.64758267   -12.93371944     0.00002054     0.00000047     0.00001675 0.00000000 VRAI 
CAM-ECTC-USA-HO_ECTC-USA-HO    2016.06.19.21.07.19    -3.67597914    -3.92563438   -12.88930130     0.00000432     0.00000000     0.00000135 0.00000000 VRAI 
CAM-LBA-US_EBA-US-HO-H         2016.06.19.21.07.19     2.83552980    -3.69498748     6.48618996     0.00001034     0.00000914     0.00000021 0.00000000 VRAI 
CAM-LBA-US_JDA-US-H            2016.06.19.21.07.19     2.82021827    -3.73084825     6.67530489     0.00000442     0.00001436     0.00000000 0.00000000 VRAI 
CAM-LBA-US_CAM-LBC-US          2016.06.19.21.07.19     2.83673638    -3.75064397    -2.68949878     0.00001477     0.00000912     0.00000021 0.00000000 VRAI 
CAM-LBA-US_EBC-US-IP-H         2016.06.19.21.07.19     2.85114121    -3.68028259    -3.11695212     0.00001163     0.00000572     0.00000026 0.00000000 VRAI 
CAM-LBA-USA_EBA-USA-HO-H       2016.06.19.21.07.19    -2.86449713    -3.73439902     6.48601830     0.00002286     0.00001530     0.00000040 0.00000000 VRAI 
CAM-LBA-USA_JDA-USA-H          2016.06.19.21.07.19    -2.88388807    -3.67259943     7.43189871     0.00003839     0.00001924     0.00000103 0.00000000 VRAI 
CAM-LBA-USA_CAM-LBC-USA        2016.06.19.21.07.19    -2.76141965    -3.76022243    -2.71070457     0.00000326     0.00000188     0.00000024 0.00000000 VRAI 
CAM-LBA-USA_EBC-USA-IP-H       2016.06.19.21.07.19    -2.79947275    -3.69002414    -3.11713266     0.00000980     0.00000406     0.00000000 0.00000000 VRAI 
CAM-ECTA-US-IP_ECTA-US-IP-T    2016.06.19.21.07.19     3.55352318     3.84917045     8.07982016     0.01540425     0.00025034     0.01428231 0.00000000 VRAI 
CAM-ECTA-US-IP_ECTA-US-IP      2016.06.19.21.07.19     3.52012402    -4.07061148     7.89737654     0.00000134     0.00000000     0.00000101 0.00000000 VRAI 
CAM-ECTA-US-HO_ECTA-US-HO-T    2016.06.19.21.07.19     3.87558359     3.64747143    12.93589139     0.00000844     0.00000000     0.00001086 0.00000000 VRAI 
CAM-ECTA-US-HO_ECTA-US-HO      2016.06.19.21.07.19     3.66446561    -3.92580485    12.88409019     0.00000166     0.00000000     0.00000156 0.00000000 VRAI 
CAM-ECTA-USA-IP_ECTA-USA-IP-T  2016.06.19.21.07.19    -3.68109983     3.84881115     7.89871013     0.00002594     0.00000083     0.00001475 0.00000000 VRAI 
CAM-ECTA-USA-IP_ECTA-USA-IP    2016.06.19.21.07.19    -3.53485733    -4.07043028     7.89138544     0.00000078     0.00000000     0.00000145 0.00000000 VRAI 
CAM-ECTA-USA-HO_ECTA-USA-HO-T  2016.06.19.21.07.19    -3.86158293     3.64768982    12.93603635     0.00000701     0.00000000     0.00001165 0.00000000 VRAI 
CAM-ECTA-USA-HO_ECTA-USA-HO    2016.06.19.21.07.19    -3.68509871    -3.92559814    12.88585663     0.00000351     0.00000000     0.00000243 0.00000000 VRAI 
CAM-JDC-US-IP_JDC-US-IP        2016.06.19.21.07.19     2.59964991    -4.19501352    -6.54797912     0.00000173     0.00000000     0.00000525 0.00000000 VRAI 
CAM-JDC-US-HO_JDC-US-HO        2016.06.19.21.07.19     2.61013603    -4.14002836    -6.93109345     0.00000132     0.00000021     0.00000474 0.00000000 VRAI 
CAM-JDC-USA-IP_JDC-USA-IP      2016.06.19.21.07.19    -2.60461277    -4.19508934    -6.54052484     0.00000152     0.00000000     0.00000255 0.00000000 VRAI 
CAM-JDC-USA-HO_JDC-USA-HO      2016.06.19.21.07.19    -2.59368175    -4.14012790    -6.92687225     0.00000448     0.00000024     0.00000492 0.00000000 VRAI 
CAM-JDA-US-IP_JDA-US-IP        2016.06.19.21.07.19     2.58486307    -4.19496298     6.54853404     0.00000105     0.00000000     0.00000777 0.00000000 VRAI 
CAM-JDA-US-HO_JDA-US-HO        2016.06.19.21.07.19     2.59419471    -4.13996410     6.94836307     0.00000220     0.00000000     0.00000262 0.00000000 VRAI 
CAM-JDA-USA-IP_JDA-USA-IP      2016.06.19.21.07.19    -2.59782481    -4.19505155     6.53889751     0.00000094     0.00000021     0.00000169 0.00000000 VRAI 
CAM-JDA-USA-HO_JDA-USA-HO      2016.06.19.21.07.19    -2.60448116    -4.13995647     6.94261336     0.00000233     0.00000000     0.00000312 0.00000000 VRAI 
CAM-EBC-US-IP_EBC-US-IP        2016.06.19.21.07.19     2.60383701    -4.19700384    -3.82520455     0.00000244     0.00000000     0.00000484 0.00000000 VRAI 
CAM-EBC-US-HO_EBC-US-HO        2016.06.19.21.07.19     2.60559493    -4.19701958    -5.89346862     0.00000155     0.00000000     0.00000240 0.00000000 VRAI 
CAM-EBC-USA-IP_EBC-USA-IP      2016.06.19.21.07.19    -2.61131436    -4.19698286    -3.82727855     0.00000183     0.00000000     0.00000522 0.00000000 VRAI 
CAM-EBC-USA-HO_EBC-USA-HO      2016.06.19.21.07.19    -2.61581296    -4.19701958    -5.89169908     0.00000106     0.00000000     0.00000124 0.00000000 VRAI 
CAM-EBA-US-IP_EBA-US-IP        2016.06.19.21.07.19     2.61460024    -4.19698811     3.83338398     0.00000288     0.00000000     0.00000117 0.00000000 VRAI 
CAM-EBA-US-HO_EBA-US-HO        2016.06.19.21.07.19     2.61676806    -4.19703007     5.89772582     0.00000160     0.00000000     0.00000312 0.00000000 VRAI 
CAM-EBA-USA-IP_EBA-USA-IP      2016.06.19.21.07.19    -2.61121583    -4.19700384     3.83566147     0.00000224     0.00000000     0.00000365 0.00000000 VRAI 
CAM-EBA-USA-HO_EBA-USA-HO      2016.06.19.21.07.19    -2.61281347    -4.19702482     5.89856434     0.00000089     0.00000000     0.00000236 0.00000000 VRAI 
CAM-LBC-US_EBC-US-HO-H         2016.06.19.21.07.19     2.78081268    -3.77118999    -6.47901678     0.00465698     0.00949555     0.00016601 0.00000000 VRAI 
CAM-LBC-US_JDC-US-H            2016.06.19.21.07.19     2.77163798    -3.68752962    -6.67469728     0.00559066     0.01512265     0.00014226 0.00000000 VRAI 
CAM-LBC-US_CAM-LBA-US          2016.06.19.21.07.19     2.81470597    -3.75323677     2.69822550     0.00000502     0.00001103     0.00000000 0.00000000 VRAI 
CAM-LBC-US_EBA-US-IP-H         2016.06.19.21.07.19     2.84038997    -3.68424964     3.12405586     0.00001553     0.00001223     0.00000000 0.00000000 VRAI 
CAM-LBC-USA_EBC-USA-HO-H       2016.06.19.21.07.19    -2.84783942    -3.69353062    -6.47909975     0.00000475     0.00000207     0.00000000 0.00000000 VRAI 
CAM-LBC-USA_JDC-USA-H          2016.06.19.21.07.19    -2.82477975    -3.77030689    -6.67505836     0.00000506     0.00000917     0.00000000 0.00000000 VRAI 
CAM-LBC-USA_CAM-LBA-USA        2016.06.19.21.07.19    -2.81446517    -3.74954766     2.68347168     0.00000230     0.00000808     0.00000000 0.00000000 VRAI 
CAM-LBC-USA_EBA-USA-IP-H       2016.06.19.21.07.19    -2.77837521    -3.68709856     3.12358528     0.01347001     0.06826414     0.00020741 0.00000000 VRAI 
