********** Fichier qui contient une sauvegarde des coordonnees images + coordonnees images transformees dans le repere BCAM (MOUNT) + coordonnees des prismes dans le repere MOUNT********** 
********************************************************************** Unite en metres (m)************************************************************************************************** 

*******************************************************************coordonnees images dans le repere CCD *********************************************************************************** 
20MABNDB000069_PR031
Spot 1     0.00028393     0.00141279
Spot 2     0.00033187     0.00141514
Spot 1     0.00028428     0.00141292
Spot 2     0.00033068     0.00141470
Spot 1     0.00028456     0.00141303
Spot 2     0.00033168     0.00141560
Spot 1     0.00028416     0.00141293
Spot 2     0.00033102     0.00141470
Spot 1     0.00028363     0.00141263
Spot 2     0.00033107     0.00141517
20MABNDB000069_PR033
Spot 1     0.00183793     0.00200793
Spot 2     0.00230711     0.00202756
Spot 1     0.00183779     0.00200797
Spot 2     0.00230708     0.00202752
Spot 1     0.00183791     0.00200775
Spot 2     0.00230717     0.00202747
Spot 1     0.00183801     0.00200773
Spot 2     0.00230721     0.00202750
Spot 1     0.00183793     0.00200782
Spot 2     0.00230717     0.00202756
20MABNDB000131_PR032
Spot 1     0.00277890     0.00108608
Spot 2     0.00283772     0.00108969
Spot 1     0.00277863     0.00108601
Spot 2     0.00283746     0.00108966
Spot 1     0.00277871     0.00108617
Spot 2     0.00283737     0.00108978
Spot 1     0.00277860     0.00108613
Spot 2     0.00283743     0.00108936
Spot 1     0.00277861     0.00108588
Spot 2     0.00283766     0.00108936
20MABNDB000131_PR034
Spot 1     0.00092757     0.00035990
Spot 2     0.00110312     0.00035873
Spot 1     0.00092747     0.00035990
Spot 2     0.00110314     0.00035883
Spot 1     0.00092761     0.00035979
Spot 2     0.00110322     0.00035875
Spot 1     0.00092764     0.00035984
Spot 2     0.00110317     0.00035882
Spot 1     0.00092774     0.00035980
Spot 2     0.00110331     0.00035876
20MABNDA000208_PR042
Spot 1     0.00304800     0.00094370
Spot 2     0.00297905     0.00094667
Spot 1     0.00304917     0.00094377
Spot 2     0.00297796     0.00094699
Spot 1     0.00304779     0.00094276
Spot 2     0.00297736     0.00094777
Spot 1     0.00304921     0.00094313
Spot 2     0.00297906     0.00094677
Spot 1     0.00304923     0.00094337
Spot 2     0.00297851     0.00094682
20MABNDA000208_PR046
Spot 1     0.00145308     0.00210270
Spot 2     0.00097863     0.00210484
Spot 1     0.00145313     0.00210275
Spot 2     0.00097871     0.00210505
Spot 1     0.00145313     0.00210278
Spot 2     0.00097791     0.00210537
Spot 1     0.00145317     0.00210276
Spot 2     0.00097854     0.00210490
Spot 1     0.00145302     0.00210295
Spot 2     0.00097859     0.00210490
20MABNDA000035_PR044
Spot 1     0.00074068     0.00126854
Spot 2     0.00068664     0.00126270
Spot 1     0.00074031     0.00126889
Spot 2     0.00068710     0.00126267
Spot 1     0.00074056     0.00126852
Spot 2     0.00068646     0.00126238
Spot 1     0.00074014     0.00126856
Spot 2     0.00068654     0.00126246
Spot 1     0.00074032     0.00126836
Spot 2     0.00068673     0.00126278
20MABNDA000035_PR045
Spot 1     0.00254841     0.00051692
Spot 2     0.00237216     0.00051540
Spot 1     0.00254843     0.00051693
Spot 2     0.00237210     0.00051540
Spot 1     0.00254839     0.00051720
Spot 2     0.00237218     0.00051545
Spot 1     0.00254840     0.00051724
Spot 2     0.00237212     0.00051547
Spot 1     0.00254857     0.00051714
Spot 2     0.00237210     0.00051535
20MABNDL000077_PR002
Spot 1     0.00079455     0.00149653
Spot 2     0.00095675     0.00149770
Spot 1     0.00079478     0.00149656
Spot 2     0.00095637     0.00149839
Spot 1     0.00079471     0.00149666
Spot 2     0.00095643     0.00149817
Spot 1     0.00079430     0.00149657
Spot 2     0.00095627     0.00149835
Spot 1     0.00079440     0.00149703
Spot 2     0.00095642     0.00149748
20MABNDL000077_PR003
Spot 1     0.00152543     0.00119005
Spot 2     0.00167612     0.00119209
Spot 1     0.00152536     0.00119016
Spot 2     0.00167586     0.00119233
Spot 1     0.00152526     0.00119023
Spot 2     0.00167563     0.00119220
Spot 1     0.00152510     0.00119028
Spot 2     0.00167563     0.00119261
Spot 1     0.00152557     0.00119033
Spot 2     0.00167614     0.00119265
20MABNDL000077_20MABNDM000168
Spot 1     0.00188355     0.00148418
Spot 2     0.00204500     0.00205500
Spot 1     0.00188344     0.00148456
Spot 2     0.00204500     0.00205500
Spot 1     0.00188342     0.00148476
Spot 2     0.00204500     0.00205500
Spot 1     0.00188347     0.00148475
Spot 2     0.00204500     0.00205500
Spot 1     0.00188376     0.00148488
Spot 2     0.00204500     0.00205500
20MABNDL000077_PR024
Spot 1     0.00262728     0.00171239
Spot 2     0.00272849     0.00171725
Spot 1     0.00262711     0.00171274
Spot 2     0.00272866     0.00171731
Spot 1     0.00262704     0.00171301
Spot 2     0.00272879     0.00171752
Spot 1     0.00262734     0.00171309
Spot 2     0.00272873     0.00171747
Spot 1     0.00262760     0.00171302
Spot 2     0.00272859     0.00171771
20MABNDM000020_PR013
Spot 1     0.00164066     0.00213871
Spot 2     0.00148799     0.00214444
Spot 1     0.00164057     0.00213884
Spot 2     0.00148810     0.00214372
Spot 1     0.00164074     0.00213916
Spot 2     0.00148797     0.00214339
Spot 1     0.00164044     0.00213916
Spot 2     0.00148802     0.00214390
Spot 1     0.00164089     0.00213911
Spot 2     0.00148846     0.00214418
20MABNDM000020_PR014
Spot 1     0.00267760     0.00227927
Spot 2     0.00251618     0.00228594
Spot 1     0.00267784     0.00227938
Spot 2     0.00251593     0.00228598
Spot 1     0.00267781     0.00227923
Spot 2     0.00251608     0.00228682
Spot 1     0.00267762     0.00227963
Spot 2     0.00251630     0.00228652
Spot 1     0.00267765     0.00227961
Spot 2     0.00251625     0.00228666
20MABNDM000020_20MABNDL000196
Spot 1     0.00200093     0.00057788
Spot 2     0.00096500     0.00046500
Spot 1     0.00200083     0.00057803
Spot 2     0.00096500     0.00046500
Spot 1     0.00200078     0.00057813
Spot 2     0.00080500     0.00021500
Spot 1     0.00200090     0.00057791
Spot 2     0.00080500     0.00021500
Spot 1     0.00200073     0.00057803
Spot 2     0.00080500     0.00021500
20MABNDM000020_PR035
Spot 1     0.00126691     0.00087418
Spot 2     0.00119513     0.00090526
Spot 1     0.00126659     0.00087454
Spot 2     0.00119497     0.00090526
Spot 1     0.00126715     0.00087479
Spot 2     0.00119506     0.00090523
Spot 1     0.00126690     0.00087476
Spot 2     0.00119522     0.00090511
20MABNDA000188_PR008
Spot 1     0.00283500     0.00012500
Spot 2     0.00336750     0.00014625
Spot 1     0.00279500     0.00010500
Spot 2     0.00336500     0.00014500
Spot 1     0.00283300     0.00012500
Spot 2     0.00331000     0.00005250
Spot 1     0.00283333     0.00012500
Spot 2     0.00336500     0.00014700
20MABNDA000188_PR018
Spot 1     0.00164630     0.00174901
Spot 2     0.00117929     0.00174631
Spot 1     0.00164638     0.00174921
Spot 2     0.00117934     0.00174645
Spot 1     0.00164616     0.00174900
Spot 2     0.00117949     0.00174636
Spot 1     0.00164654     0.00174899
Spot 2     0.00117947     0.00174617
20MABNDA000039_PR009
Spot 1     0.00066290     0.00117463
Spot 2     0.00061576     0.00117914
Spot 1     0.00066312     0.00117486
Spot 2     0.00061574     0.00117913
Spot 1     0.00066331     0.00117468
Spot 2     0.00061602     0.00117926
Spot 1     0.00066267     0.00117460
Spot 2     0.00061611     0.00117906
20MABNDA000039_PR011
Spot 1     0.00276280     0.00027987
Spot 2     0.00258779     0.00027575
Spot 1     0.00276253     0.00027980
Spot 2     0.00258771     0.00027570
Spot 1     0.00276267     0.00028002
Spot 2     0.00258777     0.00027580
Spot 1     0.00276276     0.00028004
Spot 2     0.00258769     0.00027580
20MABNDB000155_PR020
Spot 1     0.00061883     0.00112215
Spot 2     0.00068167     0.00111806
Spot 1     0.00061869     0.00112242
Spot 2     0.00068163     0.00111818
Spot 1     0.00061928     0.00112216
Spot 2     0.00068132     0.00111822
Spot 1     0.00061852     0.00112204
Spot 2     0.00068086     0.00111862
20MABNDB000155_PR022
Spot 1     0.00208531     0.00134365
Spot 2     0.00255800     0.00133922
Spot 1     0.00208500     0.00134359
Spot 2     0.00255791     0.00133930
Spot 1     0.00208527     0.00134356
Spot 2     0.00255792     0.00133936
Spot 1     0.00208532     0.00134350
Spot 2     0.00255788     0.00133929
20MABNDB000010_PR021
Spot 1     0.00286626     0.00115711
Spot 2     0.00291878     0.00116015
Spot 1     0.00286647     0.00115701
Spot 2     0.00291900     0.00115989
Spot 1     0.00286638     0.00115714
Spot 2     0.00291876     0.00115954
Spot 1     0.00286628     0.00115731
Spot 2     0.00291868     0.00116009
20MABNDB000010_PR023
Spot 1     0.00130658     0.00033372
Spot 2     0.00148090     0.00033214
Spot 1     0.00130631     0.00033395
Spot 2     0.00148087     0.00033190
Spot 1     0.00130622     0.00033384
Spot 2     0.00148090     0.00033224
Spot 1     0.00130663     0.00033386
Spot 2     0.00148094     0.00033234
20MABNDB000212_PR029
Spot 1     0.00226017     0.00072622
Spot 2     0.00189474     0.00072630
Spot 1     0.00226011     0.00072632
Spot 2     0.00189432     0.00072555
Spot 1     0.00226029     0.00072621
Spot 2     0.00189470     0.00072591
Spot 1     0.00226015     0.00072632
Spot 2     0.00189473     0.00072633
20MABNDB000128_PR030
Spot 1     0.00188681     0.00200560
Spot 2     0.00209041     0.00200089
Spot 1     0.00188687     0.00200600
Spot 2     0.00209052     0.00200094
Spot 1     0.00188663     0.00200582
Spot 2     0.00209033     0.00200069
Spot 1     0.00188660     0.00200631
Spot 2     0.00209078     0.00200115
20MABNDA000444_PR040
Spot 1     0.00078439     0.00037377
Spot 2     0.00114974     0.00037272
Spot 1     0.00078442     0.00037342
Spot 2     0.00114956     0.00037307
Spot 1     0.00078467     0.00037368
Spot 2     0.00114956     0.00037307
Spot 1     0.00078474     0.00037388
Spot 2     0.00114991     0.00037289
20MABNDA000053_PR041
Spot 1     0.00164407     0.00199007
Spot 2     0.00144128     0.00198672
Spot 1     0.00164402     0.00199000
Spot 2     0.00144161     0.00198676
Spot 1     0.00164409     0.00198967
Spot 2     0.00144171     0.00198645
Spot 1     0.00164419     0.00198965
Spot 2     0.00144139     0.00198642
20MABNDA000196_PR006
Spot 1     0.00198342     0.00075805
Spot 2     0.00161824     0.00075321
Spot 1     0.00198356     0.00075846
Spot 2     0.00161823     0.00075297
Spot 1     0.00198348     0.00075828
Spot 2     0.00161858     0.00075328
Spot 1     0.00198369     0.00075807
Spot 2     0.00161857     0.00075342
20MABNDA000324_PR007
Spot 1     0.00195077     0.00120381
Spot 2     0.00174555     0.00120957
Spot 1     0.00195081     0.00120374
Spot 2     0.00174553     0.00120953
Spot 1     0.00195079     0.00120382
Spot 2     0.00174565     0.00120929
Spot 1     0.00195081     0.00120384
Spot 2     0.00174576     0.00120962
20MABNDB000001_PR017
Spot 1     0.00188418     0.00047202
Spot 2     0.00225250     0.00048286
Spot 1     0.00188415     0.00047209
Spot 2     0.00225241     0.00048328
Spot 1     0.00188414     0.00047194
Spot 2     0.00225250     0.00048286
Spot 1     0.00188410     0.00047194
Spot 2     0.00225237     0.00048307
20MABNDB000260_PR019
Spot 1     0.00192099     0.00149313
Spot 2     0.00212468     0.00149339
Spot 1     0.00192116     0.00149337
Spot 2     0.00212468     0.00149339
Spot 1     0.00192071     0.00149301
Spot 2     0.00212438     0.00149344
Spot 1     0.00192108     0.00149376
Spot 2     0.00212433     0.00149433
20MABNDB000135_PR027
Spot 1     0.00189182     0.00092352
Spot 2     0.00211023     0.00092632
Spot 1     0.00189172     0.00092347
Spot 2     0.00211014     0.00092585
Spot 1     0.00189178     0.00092358
Spot 2     0.00211017     0.00092610
Spot 1     0.00189192     0.00092338
Spot 2     0.00211023     0.00092626
20MABNDB000126_PR028
Spot 1     0.00192572     0.00200269
Spot 2     0.00164472     0.00200037
Spot 1     0.00192597     0.00200251
Spot 2     0.00164472     0.00200028
Spot 1     0.00192583     0.00200261
Spot 2     0.00164472     0.00200019
Spot 1     0.00192601     0.00200261
Spot 2     0.00164482     0.00200021
20MABNDA000272_PR038
Spot 1     0.00192310     0.00096272
Spot 2     0.00170094     0.00096109
Spot 1     0.00192315     0.00096278
Spot 2     0.00170119     0.00096119
Spot 1     0.00192331     0.00096265
Spot 2     0.00170088     0.00096088
Spot 1     0.00192312     0.00096274
Spot 2     0.00170101     0.00096080
20MABNDA000003_PR039
Spot 1     0.00200098     0.00192033
Spot 2     0.00227842     0.00192078
Spot 1     0.00200094     0.00192033
Spot 2     0.00227854     0.00192081
Spot 1     0.00200096     0.00192037
Spot 2     0.00227858     0.00192082
Spot 1     0.00200095     0.00192043
Spot 2     0.00227843     0.00192084
20MABNDA000318_PR004
Spot 1     0.00214650     0.00163192
Spot 2     0.00192936     0.00163300
Spot 1     0.00214703     0.00163188
Spot 2     0.00192906     0.00163261
Spot 1     0.00214694     0.00163183
Spot 2     0.00192933     0.00163291
Spot 1     0.00214662     0.00163177
Spot 2     0.00192938     0.00163274
20MABNDA000334_PR005
Spot 1     0.00247385     0.00158043
Spot 2     0.00219342     0.00158102
Spot 1     0.00247388     0.00158024
Spot 2     0.00219347     0.00158071
Spot 1     0.00247370     0.00158031
Spot 2     0.00219363     0.00158089
Spot 1     0.00247404     0.00158024
Spot 2     0.00219365     0.00158085
20MABNDB000317_PR015
Spot 1     0.00148892     0.00160959
Spot 2     0.00170853     0.00160265
Spot 1     0.00148914     0.00160978
Spot 2     0.00170819     0.00160274
Spot 1     0.00148876     0.00160955
Spot 2     0.00170846     0.00160295
Spot 1     0.00148888     0.00160982
Spot 2     0.00170844     0.00160287
20MABNDB000146_PR016
Spot 1     0.00144730     0.00133156
Spot 2     0.00172235     0.00133381
Spot 1     0.00144695     0.00133155
Spot 2     0.00172241     0.00133405
Spot 1     0.00144713     0.00133147
Spot 2     0.00172232     0.00133408
Spot 1     0.00144702     0.00133139
Spot 2     0.00172237     0.00133408
20MABNDM000168_PR025
Spot 1     0.00105500     0.00031500
Spot 2     0.00105500     0.00031500
Spot 1     0.00105500     0.00031500
Spot 2     0.00105500     0.00031500
Spot 1     0.00105500     0.00031500
Spot 2     0.00105500     0.00031500
Spot 1     0.00105500     0.00031500
Spot 2     0.00105500     0.00031500
20MABNDM000168_PR026
Spot 1     0.00256500     0.00017500
Spot 2     0.00256500     0.00017500
Spot 1     0.00277500     0.00187500
Spot 2     0.00277500     0.00187500
Spot 1     0.00277500     0.00187500
Spot 2     0.00277500     0.00187500
Spot 1     0.00277500     0.00187500
Spot 2     0.00277500     0.00187500
20MABNDM000168_20MABNDL000077
Spot 1     0.00153749     0.00129776
Spot 2     0.00175617     0.00130063
Spot 1     0.00153738     0.00129780
Spot 2     0.00175620     0.00130040
Spot 1     0.00153724     0.00129768
Spot 2     0.00175624     0.00130037
Spot 1     0.00153756     0.00129789
Spot 2     0.00175623     0.00130062
20MABNDM000168_PR001
Spot 1     0.00080609     0.00161641
Spot 2     0.00070412     0.00162157
Spot 1     0.00080600     0.00161641
Spot 2     0.00070418     0.00162128
Spot 1     0.00080575     0.00161571
Spot 2     0.00070433     0.00162129
Spot 1     0.00080599     0.00161627
Spot 2     0.00070416     0.00162126
20MABNDL000196_PR036
Spot 1     0.00095930     0.00164467
Spot 2     0.00112244     0.00164398
Spot 1     0.00095920     0.00164480
Spot 2     0.00112197     0.00164426
Spot 1     0.00095906     0.00164500
Spot 2     0.00112233     0.00164422
Spot 1     0.00095877     0.00164502
Spot 2     0.00112209     0.00164442
20MABNDL000196_PR037
Spot 1     0.00248330     0.00116549
Spot 2     0.00263681     0.00116379
Spot 1     0.00248321     0.00116545
Spot 2     0.00263676     0.00116399
Spot 1     0.00248326     0.00116549
Spot 2     0.00263659     0.00116397
Spot 1     0.00248321     0.00116571
Spot 2     0.00263662     0.00116389
20MABNDL000196_20MABNDM000020
Spot 1     0.00195215     0.00102979
Spot 2     0.00173022     0.00102920
Spot 1     0.00195215     0.00103007
Spot 2     0.00173034     0.00102937
Spot 1     0.00195212     0.00103022
Spot 2     0.00173026     0.00102931
Spot 1     0.00195211     0.00103031
Spot 2     0.00173028     0.00102935
20MABNDL000196_PR012
Spot 1     0.00163500     0.00041500
Spot 2     0.00033500     0.00002500
Spot 1     0.00195500     0.00005500
Spot 2     0.00096500     0.00012500
Spot 1     0.00304500     0.00006250
Spot 2     0.00315500     0.00069500
Spot 1     0.00249500     0.00013500
Spot 2     0.00273577     0.00137346


****************************************************************coordonnees images transformees dans le repere MOUNT************************************************************************* 
20MABNDB000069_PR031
Spot 1    -0.01359200    -0.01285487    -0.07388500
Spot 2    -0.01354401    -0.01285450    -0.07388500
Spot 1    -0.01359165    -0.01285476    -0.07388500
Spot 2    -0.01354521    -0.01285489    -0.07388500
Spot 1    -0.01359136    -0.01285466    -0.07388500
Spot 2    -0.01354418    -0.01285404    -0.07388500
Spot 1    -0.01359177    -0.01285474    -0.07388500
Spot 2    -0.01354487    -0.01285491    -0.07388500
Spot 1    -0.01359231    -0.01285502    -0.07388500
Spot 2    -0.01354480    -0.01285444    -0.07388500
20MABNDB000069_PR033
Spot 1    -0.01201477    -0.01232437    -0.07388500
Spot 2    -0.01154518    -0.01232412    -0.07388500
Spot 1    -0.01201490    -0.01232432    -0.07388500
Spot 2    -0.01154521    -0.01232416    -0.07388500
Spot 1    -0.01201479    -0.01232455    -0.07388500
Spot 2    -0.01154512    -0.01232421    -0.07388500
Spot 1    -0.01201469    -0.01232457    -0.07388500
Spot 2    -0.01154508    -0.01232418    -0.07388500
Spot 1    -0.01201477    -0.01232448    -0.07388500
Spot 2    -0.01154512    -0.01232412    -0.07388500
20MABNDB000131_PR032
Spot 1    -0.01144129    -0.01302866    -0.07533000
Spot 2    -0.01138249    -0.01302476    -0.07533000
Spot 1    -0.01144156    -0.01302874    -0.07533000
Spot 2    -0.01138275    -0.01302479    -0.07533000
Spot 1    -0.01144148    -0.01302858    -0.07533000
Spot 2    -0.01138284    -0.01302467    -0.07533000
Spot 1    -0.01144159    -0.01302862    -0.07533000
Spot 2    -0.01138278    -0.01302509    -0.07533000
Spot 1    -0.01144158    -0.01302887    -0.07533000
Spot 2    -0.01138255    -0.01302509    -0.07533000
20MABNDB000131_PR034
Spot 1    -0.01328894    -0.01376416    -0.07533000
Spot 2    -0.01311339    -0.01376444    -0.07533000
Spot 1    -0.01328904    -0.01376416    -0.07533000
Spot 2    -0.01311337    -0.01376434    -0.07533000
Spot 1    -0.01328890    -0.01376427    -0.07533000
Spot 2    -0.01311329    -0.01376442    -0.07533000
Spot 1    -0.01328887    -0.01376422    -0.07533000
Spot 2    -0.01311334    -0.01376435    -0.07533000
Spot 1    -0.01328877    -0.01376426    -0.07533000
Spot 2    -0.01311320    -0.01376441    -0.07533000
20MABNDA000208_PR042
Spot 1    -0.01391873     0.01305233    -0.07273700
Spot 2    -0.01384978     0.01304942    -0.07273700
Spot 1    -0.01391990     0.01305226    -0.07273700
Spot 2    -0.01384868     0.01304910    -0.07273700
Spot 1    -0.01391852     0.01305327    -0.07273700
Spot 2    -0.01384808     0.01304832    -0.07273700
Spot 1    -0.01391994     0.01305290    -0.07273700
Spot 2    -0.01384978     0.01304932    -0.07273700
Spot 1    -0.01391996     0.01305266    -0.07273700
Spot 2    -0.01384923     0.01304927    -0.07273700
20MABNDA000208_PR046
Spot 1    -0.01232279     0.01189473    -0.07273700
Spot 2    -0.01184834     0.01189300    -0.07273700
Spot 1    -0.01232284     0.01189468    -0.07273700
Spot 2    -0.01184842     0.01189279    -0.07273700
Spot 1    -0.01232284     0.01189465    -0.07273700
Spot 2    -0.01184762     0.01189247    -0.07273700
Spot 1    -0.01232288     0.01189467    -0.07273700
Spot 2    -0.01184825     0.01189294    -0.07273700
Spot 1    -0.01232273     0.01189448    -0.07273700
Spot 2    -0.01184830     0.01189294    -0.07273700
20MABNDA000035_PR044
Spot 1    -0.01157541     0.01298872    -0.07483200
Spot 2    -0.01152133     0.01299418    -0.07483200
Spot 1    -0.01157504     0.01298837    -0.07483200
Spot 2    -0.01152179     0.01299421    -0.07483200
Spot 1    -0.01157529     0.01298874    -0.07483200
Spot 2    -0.01152115     0.01299450    -0.07483200
Spot 1    -0.01157487     0.01298870    -0.07483200
Spot 2    -0.01152123     0.01299442    -0.07483200
Spot 1    -0.01157505     0.01298890    -0.07483200
Spot 2    -0.01152142     0.01299410    -0.07483200
20MABNDA000035_PR045
Spot 1    -0.01337775     0.01375318    -0.07483200
Spot 2    -0.01320149     0.01375345    -0.07483200
Spot 1    -0.01337777     0.01375317    -0.07483200
Spot 2    -0.01320143     0.01375345    -0.07483200
Spot 1    -0.01337773     0.01375290    -0.07483200
Spot 2    -0.01320151     0.01375340    -0.07483200
Spot 1    -0.01337774     0.01375286    -0.07483200
Spot 2    -0.01320145     0.01375338    -0.07483200
Spot 1    -0.01337791     0.01375297    -0.07483200
Spot 2    -0.01320143     0.01375350    -0.07483200
20MABNDL000077_PR002
Spot 1     0.01186484     0.03557200    -0.07463200
Spot 2     0.01202704     0.03557161    -0.07463200
Spot 1     0.01186507     0.03557203    -0.07463200
Spot 2     0.01202667     0.03557230    -0.07463200
Spot 1     0.01186500     0.03557213    -0.07463200
Spot 2     0.01202673     0.03557208    -0.07463200
Spot 1     0.01186459     0.03557204    -0.07463200
Spot 2     0.01202657     0.03557227    -0.07463200
Spot 1     0.01186470     0.03557250    -0.07463200
Spot 2     0.01202671     0.03557139    -0.07463200
20MABNDL000077_PR003
Spot 1     0.01259274     0.03525850    -0.07463200
Spot 2     0.01274344     0.03525909    -0.07463200
Spot 1     0.01259267     0.03525861    -0.07463200
Spot 2     0.01274318     0.03525934    -0.07463200
Spot 1     0.01259257     0.03525868    -0.07463200
Spot 2     0.01274295     0.03525921    -0.07463200
Spot 1     0.01259241     0.03525874    -0.07463200
Spot 2     0.01274296     0.03525962    -0.07463200
Spot 1     0.01259288     0.03525878    -0.07463200
Spot 2     0.01274347     0.03525965    -0.07463200
20MABNDL000077_20MABNDM000168
Spot 1    -0.01272176     0.03554586    -0.00695400
Spot 2    -0.01288904     0.03611499    -0.00695400
Spot 1    -0.01272165     0.03554624    -0.00695400
Spot 2    -0.01288904     0.03611499    -0.00695400
Spot 1    -0.01272163     0.03554644    -0.00695400
Spot 2    -0.01288904     0.03611499    -0.00695400
Spot 1    -0.01272168     0.03554643    -0.00695400
Spot 2    -0.01288904     0.03611499    -0.00695400
Spot 1    -0.01272197     0.03554655    -0.00695400
Spot 2    -0.01288904     0.03611499    -0.00695400
20MABNDL000077_PR024
Spot 1    -0.01346778     0.03576644    -0.00695400
Spot 2    -0.01356904     0.03577026    -0.00695400
Spot 1    -0.01346762     0.03576679    -0.00695400
Spot 2    -0.01356921     0.03577032    -0.00695400
Spot 1    -0.01346755     0.03576706    -0.00695400
Spot 2    -0.01356934     0.03577053    -0.00695400
Spot 1    -0.01346785     0.03576714    -0.00695400
Spot 2    -0.01356928     0.03577048    -0.00695400
Spot 1    -0.01346811     0.03576707    -0.00695400
Spot 2    -0.01356914     0.03577072    -0.00695400
20MABNDM000020_PR013
Spot 1    -0.01270476    -0.03609694    -0.00523500
Spot 2    -0.01285726    -0.03610605    -0.00523500
Spot 1    -0.01270484    -0.03609708    -0.00523500
Spot 2    -0.01285717    -0.03610533    -0.00523500
Spot 1    -0.01270467    -0.03609739    -0.00523500
Spot 2    -0.01285731    -0.03610500    -0.00523500
Spot 1    -0.01270497    -0.03609740    -0.00523500
Spot 2    -0.01285724    -0.03610551    -0.00523500
Spot 1    -0.01270452    -0.03609734    -0.00523500
Spot 2    -0.01285680    -0.03610578    -0.00523500
20MABNDM000020_PR014
Spot 1    -0.01166496    -0.03621454    -0.00523500
Spot 2    -0.01182619    -0.03622478    -0.00523500
Spot 1    -0.01166472    -0.03621464    -0.00523500
Spot 2    -0.01182644    -0.03622482    -0.00523500
Spot 1    -0.01166475    -0.03621449    -0.00523500
Spot 2    -0.01182627    -0.03622566    -0.00523500
Spot 1    -0.01166493    -0.03621490    -0.00523500
Spot 2    -0.01182606    -0.03622535    -0.00523500
Spot 1    -0.01166490    -0.03621488    -0.00523500
Spot 2    -0.01182611    -0.03622549    -0.00523500
20MABNDM000020_20MABNDL000196
Spot 1     0.01268526    -0.03454645    -0.07583800
Spot 2     0.01372118    -0.03443342    -0.07583800
Spot 1     0.01268536    -0.03454660    -0.07583800
Spot 2     0.01372118    -0.03443342    -0.07583800
Spot 1     0.01268541    -0.03454670    -0.07583800
Spot 2     0.01388114    -0.03418340    -0.07583800
Spot 1     0.01268529    -0.03454648    -0.07583800
Spot 2     0.01388114    -0.03418340    -0.07583800
Spot 1     0.01268546    -0.03454660    -0.07583800
Spot 2     0.01388114    -0.03418340    -0.07583800
20MABNDM000020_PR035
Spot 1     0.01341933    -0.03484264    -0.07583800
Spot 2     0.01349111    -0.03487372    -0.07583800
Spot 1     0.01341965    -0.03484300    -0.07583800
Spot 2     0.01349127    -0.03487372    -0.07583800
Spot 1     0.01341909    -0.03484325    -0.07583800
Spot 2     0.01349118    -0.03487369    -0.07583800
Spot 1     0.01341934    -0.03484322    -0.07583800
Spot 2     0.01349102    -0.03487357    -0.07583800
20MABNDA000188_PR008
Spot 1    -0.01385116     0.01393841    -0.07502000
Spot 2    -0.01438382     0.01392172    -0.07502000
Spot 1    -0.01381099     0.01395807    -0.07502000
Spot 2    -0.01438131     0.01392295    -0.07502000
Spot 1    -0.01384916     0.01393840    -0.07502000
Spot 2    -0.01432552     0.01401498    -0.07502000
Spot 1    -0.01384949     0.01393840    -0.07502000
Spot 2    -0.01438133     0.01392095    -0.07502000
20MABNDA000188_PR018
Spot 1    -0.01267641     0.01230428    -0.07502000
Spot 2    -0.01220939     0.01230298    -0.07502000
Spot 1    -0.01267649     0.01230408    -0.07502000
Spot 2    -0.01220945     0.01230284    -0.07502000
Spot 1    -0.01267627     0.01230429    -0.07502000
Spot 2    -0.01220959     0.01230294    -0.07502000
Spot 1    -0.01267665     0.01230431    -0.07502000
Spot 2    -0.01220957     0.01230313    -0.07502000
20MABNDA000039_PR009
Spot 1    -0.01162503     0.01306950    -0.07444800
Spot 2    -0.01157791     0.01306479    -0.07444800
Spot 1    -0.01162525     0.01306927    -0.07444800
Spot 2    -0.01157789     0.01306480    -0.07444800
Spot 1    -0.01162544     0.01306945    -0.07444800
Spot 2    -0.01157817     0.01306467    -0.07444800
Spot 1    -0.01162480     0.01306953    -0.07444800
Spot 2    -0.01157826     0.01306487    -0.07444800
20MABNDA000039_PR011
Spot 1    -0.01372104     0.01397334    -0.07444800
Spot 2    -0.01354601     0.01397670    -0.07444800
Spot 1    -0.01372077     0.01397341    -0.07444800
Spot 2    -0.01354593     0.01397675    -0.07444800
Spot 1    -0.01372091     0.01397319    -0.07444800
Spot 2    -0.01354599     0.01397665    -0.07444800
Spot 1    -0.01372100     0.01397317    -0.07444800
Spot 2    -0.01354591     0.01397665    -0.07444800
20MABNDB000155_PR020
Spot 1    -0.01364723    -0.01313523    -0.07501700
Spot 2    -0.01358434    -0.01313846    -0.07501700
Spot 1    -0.01364737    -0.01313497    -0.07501700
Spot 2    -0.01358438    -0.01313834    -0.07501700
Spot 1    -0.01364678    -0.01313522    -0.07501700
Spot 2    -0.01358469    -0.01313831    -0.07501700
Spot 1    -0.01364753    -0.01313535    -0.07501700
Spot 2    -0.01358515    -0.01313791    -0.07501700
20MABNDB000155_PR022
Spot 1    -0.01218391    -0.01289368    -0.07501700
Spot 2    -0.01171121    -0.01289164    -0.07501700
Spot 1    -0.01218422    -0.01289374    -0.07501700
Spot 2    -0.01171130    -0.01289156    -0.07501700
Spot 1    -0.01218395    -0.01289377    -0.07501700
Spot 2    -0.01171129    -0.01289150    -0.07501700
Spot 1    -0.01218390    -0.01289383    -0.07501700
Spot 2    -0.01171133    -0.01289157    -0.07501700
20MABNDB000010_PR021
Spot 1    -0.01158481    -0.01292144    -0.07358200
Spot 2    -0.01153235    -0.01291751    -0.07358200
Spot 1    -0.01158460    -0.01292154    -0.07358200
Spot 2    -0.01153213    -0.01291777    -0.07358200
Spot 1    -0.01158470    -0.01292141    -0.07358200
Spot 2    -0.01153236    -0.01291812    -0.07358200
Spot 1    -0.01158480    -0.01292124    -0.07358200
Spot 2    -0.01153245    -0.01291758    -0.07358200
20MABNDB000010_PR023
Spot 1    -0.01313032    -0.01377114    -0.07358200
Spot 2    -0.01295600    -0.01376976    -0.07358200
Spot 1    -0.01313060    -0.01377091    -0.07358200
Spot 2    -0.01295603    -0.01377000    -0.07358200
Spot 1    -0.01313068    -0.01377102    -0.07358200
Spot 2    -0.01295600    -0.01376966    -0.07358200
Spot 1    -0.01313028    -0.01377100    -0.07358200
Spot 2    -0.01295596    -0.01376956    -0.07358200
20MABNDB000212_PR029
Spot 1    -0.01182741    -0.01325533    -0.07390500
Spot 2    -0.01219282    -0.01325135    -0.07390500
Spot 1    -0.01182747    -0.01325523    -0.07390500
Spot 2    -0.01219324    -0.01325210    -0.07390500
Spot 1    -0.01182729    -0.01325534    -0.07390500
Spot 2    -0.01219286    -0.01325174    -0.07390500
Spot 1    -0.01182743    -0.01325523    -0.07390500
Spot 2    -0.01219283    -0.01325132    -0.07390500
20MABNDB000128_PR030
Spot 1    -0.01246833    -0.01221176    -0.07353400
Spot 2    -0.01226471    -0.01221577    -0.07353400
Spot 1    -0.01246827    -0.01221136    -0.07353400
Spot 2    -0.01226460    -0.01221572    -0.07353400
Spot 1    -0.01246851    -0.01221154    -0.07353400
Spot 2    -0.01226479    -0.01221597    -0.07353400
Spot 1    -0.01246854    -0.01221105    -0.07353400
Spot 2    -0.01226434    -0.01221551    -0.07353400
20MABNDA000444_PR040
Spot 1    -0.01172396     0.01365555    -0.07412000
Spot 2    -0.01208930     0.01365196    -0.07412000
Spot 1    -0.01172400     0.01365590    -0.07412000
Spot 2    -0.01208911     0.01365161    -0.07412000
Spot 1    -0.01172424     0.01365563    -0.07412000
Spot 2    -0.01208911     0.01365161    -0.07412000
Spot 1    -0.01172431     0.01365543    -0.07412000
Spot 2    -0.01208946     0.01365179    -0.07412000
20MABNDA000053_PR041
Spot 1    -0.01240072     0.01212022    -0.07430100
Spot 2    -0.01219791     0.01211961    -0.07430100
Spot 1    -0.01240067     0.01212028    -0.07430100
Spot 2    -0.01219824     0.01211957    -0.07430100
Spot 1    -0.01240074     0.01212062    -0.07430100
Spot 2    -0.01219833     0.01211988    -0.07430100
Spot 1    -0.01240084     0.01212064    -0.07430100
Spot 2    -0.01219801     0.01211991    -0.07430100
20MABNDA000196_PR006
Spot 1    -0.01293850     0.01322014    -0.07967100
Spot 2    -0.01257328     0.01322029    -0.07967100
Spot 1    -0.01293864     0.01321974    -0.07967100
Spot 2    -0.01257327     0.01322053    -0.07967100
Spot 1    -0.01293856     0.01321991    -0.07967100
Spot 2    -0.01257363     0.01322022    -0.07967100
Spot 1    -0.01293877     0.01322013    -0.07967100
Spot 2    -0.01257362     0.01322008    -0.07967100
20MABNDA000324_PR007
Spot 1    -0.01255655     0.01281774    -0.07446800
Spot 2    -0.01235129     0.01281358    -0.07446800
Spot 1    -0.01255659     0.01281781    -0.07446800
Spot 2    -0.01235127     0.01281362    -0.07446800
Spot 1    -0.01255657     0.01281773    -0.07446800
Spot 2    -0.01235139     0.01281386    -0.07446800
Spot 1    -0.01255659     0.01281771    -0.07446800
Spot 2    -0.01235150     0.01281353    -0.07446800
20MABNDB000001_PR017
Spot 1    -0.01230383    -0.01351748    -0.07418400
Spot 2    -0.01193542    -0.01351054    -0.07418400
Spot 1    -0.01230386    -0.01351741    -0.07418400
Spot 2    -0.01193550    -0.01351012    -0.07418400
Spot 1    -0.01230387    -0.01351756    -0.07418400
Spot 2    -0.01193542    -0.01351054    -0.07418400
Spot 1    -0.01230391    -0.01351756    -0.07418400
Spot 2    -0.01193554    -0.01351032    -0.07418400
20MABNDB000260_PR019
Spot 1    -0.01241015    -0.01240944    -0.07492700
Spot 2    -0.01220651    -0.01240501    -0.07492700
Spot 1    -0.01240999    -0.01240920    -0.07492700
Spot 2    -0.01220651    -0.01240501    -0.07492700
Spot 1    -0.01241043    -0.01240957    -0.07492700
Spot 2    -0.01220681    -0.01240496    -0.07492700
Spot 1    -0.01241008    -0.01240881    -0.07492700
Spot 2    -0.01220688    -0.01240407    -0.07492700
20MABNDB000135_PR027
Spot 1    -0.01251277    -0.01318951    -0.07464700
Spot 2    -0.01229434    -0.01318914    -0.07464700
Spot 1    -0.01251287    -0.01318956    -0.07464700
Spot 2    -0.01229444    -0.01318961    -0.07464700
Spot 1    -0.01251281    -0.01318945    -0.07464700
Spot 2    -0.01229440    -0.01318936    -0.07464700
Spot 1    -0.01251267    -0.01318965    -0.07464700
Spot 2    -0.01229434    -0.01318920    -0.07464700
20MABNDB000126_PR028
Spot 1    -0.01225378    -0.01217798    -0.07500400
Spot 2    -0.01253477    -0.01218180    -0.07500400
Spot 1    -0.01225353    -0.01217816    -0.07500400
Spot 2    -0.01253477    -0.01218189    -0.07500400
Spot 1    -0.01225367    -0.01217806    -0.07500400
Spot 2    -0.01253477    -0.01218198    -0.07500400
Spot 1    -0.01225349    -0.01217806    -0.07500400
Spot 2    -0.01253467    -0.01218196    -0.07500400
20MABNDA000272_PR038
Spot 1    -0.01275877     0.01314875    -0.07417900
Spot 2    -0.01253661     0.01314998    -0.07417900
Spot 1    -0.01275882     0.01314869    -0.07417900
Spot 2    -0.01253686     0.01314988    -0.07417900
Spot 1    -0.01275898     0.01314882    -0.07417900
Spot 2    -0.01253655     0.01315019    -0.07417900
Spot 1    -0.01275879     0.01314873    -0.07417900
Spot 2    -0.01253668     0.01315027    -0.07417900
20MABNDA000003_PR039
Spot 1    -0.01280205     0.01213194    -0.07373400
Spot 2    -0.01307949     0.01213219    -0.07373400
Spot 1    -0.01280201     0.01213194    -0.07373400
Spot 2    -0.01307961     0.01213216    -0.07373400
Spot 1    -0.01280203     0.01213190    -0.07373400
Spot 2    -0.01307965     0.01213215    -0.07373400
Spot 1    -0.01280202     0.01213184    -0.07373400
Spot 2    -0.01307950     0.01213213    -0.07373400
20MABNDA000318_PR004
Spot 1    -0.01286630     0.01246331    -0.07310600
Spot 2    -0.01264916     0.01246287    -0.07310600
Spot 1    -0.01286683     0.01246335    -0.07310600
Spot 2    -0.01264886     0.01246326    -0.07310600
Spot 1    -0.01286674     0.01246340    -0.07310600
Spot 2    -0.01264913     0.01246296    -0.07310600
Spot 1    -0.01286642     0.01246346    -0.07310600
Spot 2    -0.01264918     0.01246313    -0.07310600
20MABNDA000334_PR005
Spot 1    -0.01311696     0.01254796    -0.07324100
Spot 2    -0.01283653     0.01254711    -0.07324100
Spot 1    -0.01311699     0.01254815    -0.07324100
Spot 2    -0.01283658     0.01254742    -0.07324100
Spot 1    -0.01311681     0.01254808    -0.07324100
Spot 2    -0.01283674     0.01254724    -0.07324100
Spot 1    -0.01311715     0.01254816    -0.07324100
Spot 2    -0.01283676     0.01254728    -0.07324100
20MABNDB000317_PR015
Spot 1    -0.01266548    -0.01248844    -0.07326100
Spot 2    -0.01244581    -0.01249282    -0.07326100
Spot 1    -0.01266526    -0.01248825    -0.07326100
Spot 2    -0.01244615    -0.01249274    -0.07326100
Spot 1    -0.01266564    -0.01248848    -0.07326100
Spot 2    -0.01244588    -0.01249252    -0.07326100
Spot 1    -0.01266553    -0.01248821    -0.07326100
Spot 2    -0.01244590    -0.01249261    -0.07326100
20MABNDB000146_PR016
Spot 1    -0.01276106    -0.01246205    -0.07450500
Spot 2    -0.01248601    -0.01245919    -0.07450500
Spot 1    -0.01276141    -0.01246206    -0.07450500
Spot 2    -0.01248596    -0.01245895    -0.07450500
Spot 1    -0.01276123    -0.01246214    -0.07450500
Spot 2    -0.01248605    -0.01245892    -0.07450500
Spot 1    -0.01276134    -0.01246222    -0.07450500
Spot 2    -0.01248600    -0.01245892    -0.07450500
20MABNDM000168_PR025
Spot 1    -0.01335211    -0.03465272    -0.00532900
Spot 2    -0.01335211    -0.03465272    -0.00532900
Spot 1    -0.01335211    -0.03465272    -0.00532900
Spot 2    -0.01335211    -0.03465272    -0.00532900
Spot 1    -0.01335211    -0.03465272    -0.00532900
Spot 2    -0.01335211    -0.03465272    -0.00532900
Spot 1    -0.01335211    -0.03465272    -0.00532900
Spot 2    -0.01335211    -0.03465272    -0.00532900
20MABNDM000168_PR026
Spot 1    -0.01184272    -0.03450623    -0.00532900
Spot 2    -0.01184272    -0.03450623    -0.00532900
Spot 1    -0.01162542    -0.03620531    -0.00532900
Spot 2    -0.01162542    -0.03620531    -0.00532900
Spot 1    -0.01162542    -0.03620531    -0.00532900
Spot 2    -0.01162542    -0.03620531    -0.00532900
Spot 1    -0.01162542    -0.03620531    -0.00532900
Spot 2    -0.01162542    -0.03620531    -0.00532900
20MABNDM000168_20MABNDL000077
Spot 1     0.01288800    -0.03529845    -0.07445100
Spot 2     0.01266931    -0.03529812    -0.07445100
Spot 1     0.01288811    -0.03529849    -0.07445100
Spot 2     0.01266928    -0.03529789    -0.07445100
Spot 1     0.01288826    -0.03529838    -0.07445100
Spot 2     0.01266924    -0.03529786    -0.07445100
Spot 1     0.01288793    -0.03529858    -0.07445100
Spot 2     0.01266925    -0.03529811    -0.07445100
20MABNDM000168_PR001
Spot 1     0.01361466    -0.03562777    -0.07445100
Spot 2     0.01371655    -0.03563442    -0.07445100
Spot 1     0.01361475    -0.03562777    -0.07445100
Spot 2     0.01371649    -0.03563413    -0.07445100
Spot 1     0.01361501    -0.03562707    -0.07445100
Spot 2     0.01371634    -0.03563414    -0.07445100
Spot 1     0.01361477    -0.03562763    -0.07445100
Spot 2     0.01371651    -0.03563411    -0.07445100
20MABNDL000196_PR036
Spot 1     0.01193921     0.03583339    -0.07483600
Spot 2     0.01210236     0.03583305    -0.07483600
Spot 1     0.01193911     0.03583352    -0.07483600
Spot 2     0.01210188     0.03583332    -0.07483600
Spot 1     0.01193897     0.03583372    -0.07483600
Spot 2     0.01210224     0.03583328    -0.07483600
Spot 1     0.01193868     0.03583374    -0.07483600
Spot 2     0.01210200     0.03583348    -0.07483600
20MABNDL000196_PR037
Spot 1     0.01346421     0.03535739    -0.07483600
Spot 2     0.01361772     0.03535602    -0.07483600
Spot 1     0.01346412     0.03535735    -0.07483600
Spot 2     0.01361767     0.03535622    -0.07483600
Spot 1     0.01346417     0.03535739    -0.07483600
Spot 2     0.01361750     0.03535619    -0.07483600
Spot 1     0.01346412     0.03535761    -0.07483600
Spot 2     0.01361753     0.03535611    -0.07483600
20MABNDL000196_20MABNDM000020
Spot 1    -0.01277596     0.03530047    -0.00611000
Spot 2    -0.01255406     0.03530434    -0.00611000
Spot 1    -0.01277596     0.03530075    -0.00611000
Spot 2    -0.01255419     0.03530451    -0.00611000
Spot 1    -0.01277594     0.03530090    -0.00611000
Spot 2    -0.01255410     0.03530445    -0.00611000
Spot 1    -0.01277593     0.03530099    -0.00611000
Spot 2    -0.01255412     0.03530449    -0.00611000
20MABNDL000196_PR012
Spot 1    -0.01244650     0.03469218    -0.00611000
Spot 2    -0.01113892     0.03432842    -0.00611000
Spot 1    -0.01275920     0.03432582    -0.00611000
Spot 2    -0.01177080     0.03441572    -0.00611000
Spot 1    -0.01384913     0.03431138    -0.00611000
Spot 2    -0.01397183     0.03494154    -0.00611000
Spot 1    -0.01330070     0.03439494    -0.00611000
Spot 2    -0.01356633     0.03562830    -0.00611000


*****************************************************************coordonnees du prisme dans le repere MOUNT********************************************************************************** 
20MABNDB000069_PR031
    0.10364142    -0.03986198     9.20354176
    0.10369366    -0.03984511     9.20354080
    0.10361269    -0.03990377     9.20354176
    0.10368016    -0.03984517     9.20354080
    0.10370915    -0.03985680     9.20354080
20MABNDB000069_PR033
   -0.02700779    -0.02589008     1.28394938
   -0.02700634    -0.02589015     1.28394938
   -0.02700804    -0.02588776     1.28394938
   -0.02700924    -0.02588780     1.28394938
   -0.02700827    -0.02588912     1.28394938
20MABNDB000131_PR032
   -0.18813944    -0.03103111    11.00641632
   -0.18810079    -0.03102361    11.00641823
   -0.18809995    -0.03104407    11.00641823
   -0.18809646    -0.03101044    11.00641823
   -0.18811409    -0.03099226    11.00641823
20MABNDB000131_PR034
    0.01419198     0.01488680     3.43339324
    0.01419381     0.01488453     3.43339324
    0.01418878     0.01488884     3.43339324
    0.01418925     0.01488611     3.43339324
    0.01418377     0.01488836     3.43339324
20MABNDA000208_PR042
    0.13097462     0.01370205     9.20147324
    0.13097954     0.01372599     9.20147324
    0.13085803     0.01371176     9.20147419
    0.13104951     0.01367326     9.20147133
    0.13101700     0.01369104     9.20147324
20MABNDA000208_PR046
   -0.02341837     0.03293304     1.28210950
   -0.02341726     0.03293526     1.28210950
   -0.02342410     0.03293824     1.28210950
   -0.02341837     0.03293407     1.28210950
   -0.02341923     0.03293569     1.28210950
20MABNDA000035_PR044
   -0.17939441     0.02839881    11.00802803
   -0.17938766     0.02842217    11.00802994
   -0.17941652     0.02837409    11.00802803
   -0.17944133     0.02838305    11.00802803
   -0.17941421     0.02839163    11.00802803
20MABNDA000035_PR045
    0.01477536    -0.01689627     3.43485427
    0.01477444    -0.01689603     3.43485427
    0.01477541    -0.01688874     3.43485451
    0.01477428    -0.01688736     3.43485451
    0.01477766    -0.01689240     3.43485427
20MABNDL000077_PR002
    0.04955252     0.02142028     3.70690894
    0.04955605     0.02140246     3.70690894
    0.04955632     0.02140542     3.70690894
    0.04957038     0.02140307     3.70690894
    0.04956430     0.02141325     3.70690894
20MABNDL000077_PR003
    0.01393770     0.03692668     3.89605379
    0.01394618     0.03691752     3.89605379
    0.01395476     0.03691899     3.89605379
    0.01395880     0.03690701     3.89605379
    0.01393334     0.03690492     3.89605379
20MABNDL000077_20MABNDM000168
   -0.00399546    -0.00493642    -5.46859360
   -0.00399929    -0.00495019    -5.46859360
   -0.00399994    -0.00495742    -5.46859360
   -0.00399814    -0.00495704    -5.46859360
   -0.00398762    -0.00496162    -5.46859360
20MABNDL000077_PR024
    0.05228395    -0.00335019    -5.89622593
    0.05228411    -0.00336617    -5.89622498
    0.05228663    -0.00338485    -5.89622498
    0.05229601    -0.00338593    -5.89622498
    0.05230075    -0.00339251    -5.89622498
20MABNDM000020_PR013
   -0.00503288     0.01218737    -3.80216837
   -0.00503305     0.01217273    -3.80216908
   -0.00503404     0.01217246    -3.80216908
   -0.00502812     0.01218524    -3.80216837
   -0.00505032     0.01219046    -3.80216837
20MABNDM000020_PR014
   -0.06753024     0.03176599    -4.74799871
   -0.06753005     0.03177066    -4.74799871
   -0.06753425     0.03179202    -4.74799824
   -0.06753525     0.03179513    -4.74799824
   -0.06753471     0.03179887    -4.74799824
20MABNDM000020_20MABNDL000196
   -0.02029764    -0.07985525     5.39455080
   -0.02030123    -0.07984988     5.39455080
   -0.02603321    -0.08880259     5.39443207
   -0.02602891    -0.08881047     5.39443207
   -0.02603500    -0.08880618     5.39443207
20MABNDM000020_PR035
   -0.04220439    -0.05479087     5.80099964
   -0.04222288    -0.05477700     5.80099964
   -0.04219785    -0.05476853     5.80099964
   -0.04220131    -0.05477430     5.80099964
20MABNDA000188_PR008
    0.16168410    -0.09371495     9.20279026
    0.15906501    -0.09499729     9.20282459
    0.15798295    -0.09943775     9.20279121
    0.16142866    -0.09366678     9.20279503
20MABNDA000188_PR018
   -0.01704391     0.02604323     1.28357768
   -0.01704277     0.02604613     1.28357768
   -0.01704339     0.02604357     1.28357768
   -0.01704032     0.02604183     1.28357768
20MABNDA000039_PR009
   -0.17129976     0.02483123    11.00701427
   -0.17128509     0.02484726    11.00701523
   -0.17125073     0.02484345    11.00701523
   -0.17129105     0.02482315    11.00701523
20MABNDA000039_PR011
    0.03054993    -0.02462178     3.43347263
    0.03054194    -0.02462448     3.43347263
    0.03054653    -0.02461720     3.43347263
    0.03054676    -0.02461675     3.43347263
20MABNDB000155_PR020
    0.10237335    -0.00798653     9.20027924
    0.10238473    -0.00801031     9.20027924
    0.10236736    -0.00799705     9.20027924
    0.10244248    -0.00801321     9.20027924
20MABNDB000155_PR022
   -0.02514817    -0.01658285     1.28071570
   -0.02514475    -0.01658297     1.28071570
   -0.02514714    -0.01658326     1.28071570
   -0.02514724    -0.01658215     1.28071570
20MABNDB000010_PR021
   -0.17561726    -0.03433302    11.00695229
   -0.17564932    -0.03430710    11.00695229
   -0.17562534    -0.03429051    11.00695229
   -0.17561120    -0.03434321    11.00695229
20MABNDB000010_PR023
    0.00460267     0.01931373     3.43377924
    0.00460954     0.01931407     3.43377924
    0.00461101     0.01930882     3.43377924
    0.00460074     0.01930590     3.43377924
20MABNDB000212_PR029
   -0.02593499    -0.00901348     1.64223504
   -0.02592965    -0.00900641     1.64223504
   -0.02593582    -0.00900908     1.64223504
   -0.02593467    -0.00901491     1.64223504
20MABNDB000128_PR030
   -0.01873172    -0.04698931     2.95496225
   -0.01873504    -0.04699817     2.95496225
   -0.01872661    -0.04698968     2.95496225
   -0.01873480    -0.04700838     2.95496202
20MABNDA000444_PR040
   -0.02940597     0.00137047     1.64492047
   -0.02940761     0.00137045     1.64492047
   -0.02940491     0.00137333     1.64492059
   -0.02940032     0.00137361     1.64492059
20MABNDA000053_PR041
   -0.02689476     0.05103772     2.95450306
   -0.02688927     0.05103702     2.95450306
   -0.02688618     0.05102440     2.95450330
   -0.02689052     0.05102350     2.95450330
20MABNDA000196_PR006
   -0.01044300     0.01053485     1.64206505
   -0.01044156     0.01053669     1.64206505
   -0.01043859     0.01053807     1.64206505
   -0.01043641     0.01053728     1.64206505
20MABNDA000324_PR007
   -0.02513045     0.02752647     2.95549393
   -0.02513005     0.02752431     2.95549393
   -0.02512805     0.02752118     2.95549393
   -0.02512555     0.02752808     2.95549393
20MABNDB000001_PR017
   -0.02408608    -0.00358621     1.64036465
   -0.02408483    -0.00359158     1.64036465
   -0.02408563    -0.00358535     1.64036465
   -0.02408380    -0.00358766     1.64036465
20MABNDB000260_PR019
   -0.02431373    -0.03798120     2.95627832
   -0.02431698    -0.03798600     2.95627832
   -0.02430234    -0.03797959     2.95627832
   -0.02430797    -0.03801201     2.95627809
20MABNDB000135_PR027
   -0.02104059    -0.01014683     2.74937153
   -0.02103700    -0.01013734     2.74937153
   -0.02103872    -0.01014392     2.74937153
   -0.02104238    -0.01014314     2.74937153
20MABNDB000126_PR028
   -0.02032112    -0.03872163     2.14679813
   -0.02032470    -0.03871780     2.14679813
   -0.02032270    -0.03871793     2.14679813
   -0.02032669    -0.03871823     2.14679813
20MABNDA000272_PR038
   -0.01324067     0.01120835     2.74965882
   -0.01323517     0.01121127     2.74965882
   -0.01323793     0.01120321     2.74965882
   -0.01323903     0.01120340     2.74965882
20MABNDA000003_PR039
   -0.00593887     0.04106718     2.14891768
   -0.00593773     0.04106761     2.14891768
   -0.00593687     0.04106832     2.14891768
   -0.00593915     0.04106947     2.14891768
20MABNDA000318_PR004
   -0.00841976     0.03862821     2.74965668
   -0.00841552     0.03862033     2.74965668
   -0.00841223     0.03862492     2.74965668
   -0.00841717     0.03862069     2.74965668
20MABNDA000334_PR005
   -0.00425222     0.03153367     2.14977312
   -0.00425109     0.03152653     2.14977312
   -0.00425137     0.03153010     2.14977312
   -0.00424623     0.03152853     2.14977312
20MABNDB000317_PR015
   -0.01741110    -0.03433418     2.75128746
   -0.01740886    -0.03433925     2.75128746
   -0.01740686    -0.03433886     2.75128746
   -0.01740864    -0.03434234     2.75128746
20MABNDB000146_PR016
   -0.01350701    -0.03176523     2.15201306
   -0.01350283    -0.03176852     2.15201283
   -0.01350413    -0.03176781     2.15201306
   -0.01350326    -0.03176665     2.15201306
20MABNDM000168_PR025
    0.02039144    -0.06973486    -3.78849745
    0.02039144    -0.06973486    -3.78849745
    0.02039144    -0.06973486    -3.78849745
    0.02039144    -0.06973486    -3.78849745
20MABNDM000168_PR026
   -0.05643664    -0.07913764    -3.98413134
   -0.06774618     0.00930901    -3.98396206
   -0.06774618     0.00930901    -3.98396206
   -0.06774618     0.00930901    -3.98396206
20MABNDM000168_20MABNDL000077
    0.01134752    -0.03899016     5.38884640
    0.01134455    -0.03899695     5.38884640
    0.01134088    -0.03900228     5.38884640
    0.01135225    -0.03898592     5.38884640
20MABNDM000168_PR001
   -0.05752626    -0.01342001     5.81470346
   -0.05752759    -0.01343123     5.81470346
   -0.05753185    -0.01345792     5.81470346
   -0.05752884    -0.01343742     5.81470346
20MABNDL000196_PR036
    0.05074972     0.00569497     3.68777633
    0.05076373     0.00568493     3.68777585
    0.05075834     0.00568099     3.68777585
    0.05077136     0.00567562     3.68777585
20MABNDL000196_PR037
   -0.02584017     0.02872691     3.88380623
   -0.02583655     0.02872278     3.88380623
   -0.02583344     0.02872227     3.88380623
   -0.02583291     0.02871865     3.88380623
20MABNDL000196_20MABNDM000020
   -0.01385521     0.03898058    -5.47473907
   -0.01385057     0.03896451    -5.47473907
   -0.01385446     0.03896119    -5.47473907
   -0.01385401     0.03895653    -5.47473907
20MABNDL000196_PR012
   -0.08174624     0.10078283    -5.91500759
   -0.04503996     0.11162973    -5.91519547
    0.08284675     0.09175128    -5.91472626
    0.04578507     0.06182062    -5.91542435


*****************************************************************coordonnees du prisme dans le repere ATLAS********************************************************************************** 
20MABNDB000069_PR031 0.00000000
    3.68535876     3.84873748    -7.90054131
    3.68541098     3.84873629    -7.90055799
    3.68532991     3.84873772    -7.90049934
    3.68539739     3.84873629    -7.90055799
    3.68542647     3.84873629    -7.90054655
20MABNDB000069_PR033 0.00000000
    3.53329110    -4.07045794    -7.87978125
    3.53329253    -4.07045794    -7.87978125
    3.53329086    -4.07045794    -7.87978363
    3.53328967    -4.07045794    -7.87978363
    3.53329062    -4.07045794    -7.87978220
20MABNDB000131_PR032 0.00000000
    3.86894155     3.64756608   -12.94167423
    3.86890292     3.64756799   -12.94166660
    3.86890197     3.64756799   -12.94168663
    3.86889863     3.64756799   -12.94165325
    3.86891603     3.64756799   -12.94163513
20MABNDB000131_PR034 0.00000000
    3.67359686    -3.92562366   -12.89306068
    3.67359495    -3.92562366   -12.89306259
    3.67359996    -3.92562366   -12.89305878
    3.67359948    -3.92562366   -12.89306164
    3.67360497    -3.92562366   -12.89305878
20MABNDA000208_PR042 0.00000000
   -3.68105221     3.84915185    -7.89778328
   -3.68105721     3.84915185    -7.89775944
   -3.68093562     3.84915280    -7.89777374
   -3.68112707     3.84914994    -7.89781237
   -3.68109465     3.84915185    -7.89779472
20MABNDA000208_PR046 0.00000000
   -3.53234625    -4.07031298    -7.87558508
   -3.53234720    -4.07031298    -7.87558317
   -3.53234053    -4.07031298    -7.87558031
   -3.53234625    -4.07031298    -7.87558413
   -3.53234529    -4.07031298    -7.87558270
20MABNDA000035_PR044 0.00000000
   -3.86863565     3.64758325   -12.93407822
   -3.86862898     3.64758515   -12.93410110
   -3.86865783     3.64758325   -12.93405342
   -3.86868262     3.64758325   -12.93406200
   -3.86865544     3.64758325   -12.93407059
20MABNDA000035_PR045 0.00000000
   -3.67595339    -3.92563295   -12.88948822
   -3.67595434    -3.92563295   -12.88948822
   -3.67595339    -3.92563272   -12.88949585
   -3.67595434    -3.92563272   -12.88949680
   -3.67595100    -3.92563295   -12.88949203
20MABNDL000077_PR002 0.00000000
    2.83562064    -3.69496441     6.48618937
    2.83563828    -3.69496083     6.48618937
    2.83563542    -3.69496059     6.48618937
    2.83563781    -3.69494653     6.48618937
    2.83562756    -3.69495273     6.48618937
20MABNDL000077_PR003 0.00000000
    2.82028842    -3.73080778     6.67530489
    2.82029748    -3.73079920     6.67530489
    2.82029605    -3.73079062     6.67530489
    2.82030797    -3.73078656     6.67530489
    2.82031012    -3.73081207     6.67530489
20MABNDL000077_20MABNDM000168 0.00000000
    2.85296011    -3.73720002    -2.68939376
    2.85297394    -3.73720384    -2.68939376
    2.85298109    -3.73720455    -2.68939376
    2.85298085    -3.73720288    -2.68939376
    2.85298538    -3.73719239    -2.68939376
20MABNDL000077_PR024 0.00000000
    2.85097241    -3.68039274    -3.11695457
    2.85098839    -3.68039250    -3.11695361
    2.85100722    -3.68038988    -3.11695361
    2.85100818    -3.68038058    -3.11695361
    2.85101485    -3.68037581    -3.11695361
20MABNDM000020_PR013 0.00000000
   -2.86449647    -3.73444176     6.48601818
   -2.86448169    -3.73444152     6.48601866
   -2.86448145    -3.73444057     6.48601866
   -2.86449432    -3.73444653     6.48601818
   -2.86449957    -3.73442411     6.48601818
20MABNDM000020_PR014 0.00000000
   -2.88386655    -3.67265773     7.43189955
   -2.88387132    -3.67265797     7.43189955
   -2.88389254    -3.67265368     7.43189907
   -2.88389564    -3.67265272     7.43189907
   -2.88389945    -3.67265320     7.43189907
20MABNDM000020_20MABNDL000196 0.00000000
   -2.77428961    -3.71221066    -2.71070528
   -2.77429485    -3.71220708    -2.71070528
   -2.76534033    -3.70647788    -2.71058393
   -2.76533246    -3.70648217    -2.71058393
   -2.76533675    -3.70647597    -2.71058393
20MABNDM000020_PR035 0.00000000
   -2.79942846    -3.68998718    -3.11713219
   -2.79944253    -3.68996859    -3.11713219
   -2.79945087    -3.68999362    -3.11713219
   -2.79944515    -3.68999004    -3.11713219
20MABNDA000188_PR008 0.00000000
    3.57448173     3.84860253     8.10547543
    3.57184339     3.84858251     8.10671806
    3.57069588     3.84848356     8.11114120
    3.57422686     3.84860396     8.10542297
20MABNDA000188_PR018 0.00000000
    3.52009654    -4.07061195     7.89739275
    3.52009773    -4.07061195     7.89738989
    3.52009702    -4.07061195     7.89739227
    3.52010012    -4.07061195     7.89739418
20MABNDA000039_PR009 0.00000000
    3.87547183     3.64747238    12.93612480
    3.87545705     3.64747334    12.93614101
    3.87542272     3.64747357    12.93613720
    3.87546301     3.64747334    12.93611717
20MABNDA000039_PR011 0.00000000
    3.66447425    -3.92580342    12.88421535
    3.66448212    -3.92580342    12.88421249
    3.66447759    -3.92580342    12.88421917
    3.66447735    -3.92580342    12.88422012
20MABNDB000155_PR020 0.00000000
   -3.68102598     3.84881186     7.89888048
   -3.68103743     3.84881186     7.89885664
   -3.68102002     3.84881186     7.89886999
   -3.68109512     3.84881163     7.89885378
20MABNDB000155_PR022 0.00000000
   -3.53483272    -4.07043028     7.89147615
   -3.53483605    -4.07043028     7.89147615
   -3.53483367    -4.07043028     7.89147568
   -3.53483367    -4.07043028     7.89147711
20MABNDB000010_PR021 0.00000000
   -3.86145401     3.64768982    12.93616199
   -3.86148596     3.64768982    12.93613625
   -3.86146212     3.64768982    12.93612003
   -3.86144781     3.64768982    12.93617249
20MABNDB000010_PR023 0.00000000
   -3.68506289    -3.92559719    12.88596153
   -3.68505597    -3.92559719    12.88596153
   -3.68505454    -3.92559719    12.88596630
   -3.68506479    -3.92559719    12.88596916
20MABNDB000212_PR029 0.00000000
    2.59961271    -4.19501305    -6.54800129
    2.59960747    -4.19501305    -6.54799414
    2.59961367    -4.19501305    -6.54799700
    2.59961247    -4.19501305    -6.54800272
20MABNDB000128_PR030 0.00000000
    2.61012697    -4.14002800    -6.93113184
    2.61012363    -4.14002800    -6.93112278
    2.61013198    -4.14002800    -6.93113136
    2.61012387    -4.14002848    -6.93111277
20MABNDA000444_PR040 0.00000000
   -2.60457850    -4.19508886    -6.54055071
   -2.60458016    -4.19508886    -6.54055071
   -2.60457754    -4.19508886    -6.54055357
   -2.60457301    -4.19508886    -6.54055405
20MABNDA000053_PR041 0.00000000
   -2.59364724    -4.14012814    -6.92687559
   -2.59365273    -4.14012814    -6.92687654
   -2.59365582    -4.14012814    -6.92688894
   -2.59365153    -4.14012814    -6.92688990
20MABNDA000196_PR006 0.00000000
    2.58490348    -4.19496298     6.54849148
    2.58490205    -4.19496298     6.54849339
    2.58489919    -4.19496298     6.54849482
    2.58489680    -4.19496298     6.54849386
20MABNDA000324_PR007 0.00000000
    2.59418440    -4.13996410     6.94838858
    2.59418464    -4.13996410     6.94839096
    2.59418678    -4.13996410     6.94839382
    2.59418917    -4.13996410     6.94838715
20MABNDB000001_PR017 0.00000000
   -2.59778762    -4.19505119     6.53891420
   -2.59778643    -4.19505072     6.53891993
   -2.59778714    -4.19505119     6.53891325
   -2.59778547    -4.19505119     6.53891563
20MABNDB000260_PR019 0.00000000
   -2.60444832    -4.13995647     6.94266272
   -2.60444498    -4.13995647     6.94265795
   -2.60445976    -4.13995647     6.94266415
   -2.60445404    -4.13995647     6.94263220
20MABNDB000135_PR027 0.00000000
    2.60382271    -4.19700384    -3.82521415
    2.60382628    -4.19700384    -3.82522345
    2.60382462    -4.19700384    -3.82521701
    2.60382080    -4.19700384    -3.82521772
20MABNDB000126_PR028 0.00000000
    2.60559607    -4.19701910    -5.89349842
    2.60559249    -4.19701910    -5.89350224
    2.60559440    -4.19701910    -5.89350176
    2.60559034    -4.19701910    -5.89350176
20MABNDA000272_PR038 0.00000000
   -2.61129618    -4.19698286    -3.82727599
   -2.61130166    -4.19698286    -3.82727313
   -2.61129880    -4.19698286    -3.82728124
   -2.61129785    -4.19698286    -3.82728100
20MABNDA000003_PR039 0.00000000
   -2.61579227    -4.19701958    -5.89169931
   -2.61579347    -4.19701958    -5.89169931
   -2.61579418    -4.19701958    -5.89169836
   -2.61579204    -4.19701958    -5.89169741
20MABNDA000318_PR004 0.00000000
    2.61458349    -4.19698811     3.83337045
    2.61458755    -4.19698811     3.83337831
    2.61459088    -4.19698811     3.83337379
    2.61458611    -4.19698811     3.83337784
20MABNDA000334_PR005 0.00000000
    2.61674643    -4.19703007     5.89772701
    2.61674738    -4.19703007     5.89773417
    2.61674714    -4.19703007     5.89773083
    2.61675239    -4.19703007     5.89773226
20MABNDB000317_PR015 0.00000000
   -2.61119604    -4.19700384     3.83568120
   -2.61119843    -4.19700384     3.83567619
   -2.61120033    -4.19700384     3.83567667
   -2.61119843    -4.19700384     3.83567309
20MABNDB000146_PR016 0.00000000
   -2.61278820    -4.19702482     5.89858484
   -2.61279249    -4.19702482     5.89858150
   -2.61279106    -4.19702482     5.89858246
   -2.61279202    -4.19702482     5.89858341
20MABNDM000168_PR025 0.00000000
    2.78350139    -3.76570773    -6.47911263
    2.78350139    -3.76570773    -6.47911263
    2.78350139    -3.76570773    -6.47911263
    2.78350139    -3.76570773    -6.47911263
20MABNDM000168_PR026 0.00000000
    2.77410698    -3.68894982    -6.67477417
    2.86255670    -3.67766356    -6.67461491
    2.86255670    -3.67766356    -6.67461491
    2.86255670    -3.67766356    -6.67461491
20MABNDM000168_20MABNDL000077 0.00000000
    2.81480551    -3.75325966     2.69822550
    2.81479859    -3.75325656     2.69822550
    2.81479335    -3.75325298     2.69822550
    2.81480956    -3.75326419     2.69822550
20MABNDM000168_PR001 0.00000000
    2.84041953    -3.68423414     3.12405539
    2.84040833    -3.68423295     3.12405539
    2.84038162    -3.68422866     3.12405539
    2.84040213    -3.68423152     3.12405539
20MABNDL000196_PR036 0.00000000
   -2.84791231    -3.69352484    -6.47909927
   -2.84792233    -3.69351077    -6.47909880
   -2.84792614    -3.69351625    -6.47909880
   -2.84793162    -3.69350338    -6.47909880
20MABNDL000196_PR037 0.00000000
   -2.82484889    -3.77028632    -6.67505836
   -2.82485318    -3.77028275    -6.67505836
   -2.82485366    -3.77027965    -6.67505836
   -2.82485723    -3.77027917    -6.67505836
20MABNDL000196_20MABNDM000020 0.00000000
   -2.81439853    -3.74959135     2.68347168
   -2.81441474    -3.74958682     2.68347168
   -2.81441808    -3.74959064     2.68347168
   -2.81442261    -3.74959016     2.68347168
20MABNDL000196_PR012 0.00000000
   -2.75255537    -3.81704402     3.12380171
   -2.74172544    -3.78033257     3.12395525
   -2.76166344    -3.65245557     3.12336755
   -2.79157686    -3.68953061     3.12410069


*****************************************************************Rapport********************************************************************************** 
CAM-ECTC-US-IP_ECTC-US-IP-T    2016.04.01.23.10.24     3.68538470     3.84873681    -7.90054064     0.00003541     0.00000065     0.00002165 0.00000000 VRAI 
CAM-ECTC-US-IP_ECTC-US-IP      2016.04.01.23.10.24     3.53329096    -4.07045794    -7.87978239     0.00000092     0.00000000     0.00000107 0.00000000 VRAI 
CAM-ECTC-US-HO_ECTC-US-HO-T    2016.04.01.23.10.24     3.86891222     3.64756761   -12.94166317     0.00001582     0.00000076     0.00001771 0.00000000 VRAI 
CAM-ECTC-US-HO_ECTC-US-HO      2016.04.01.23.10.24     3.67359924    -3.92562366   -12.89306049     0.00000339     0.00000000     0.00000153 0.00000000 VRAI 
CAM-ECTC-USA-IP_ECTC-USA-IP-T  2016.04.01.23.10.24    -3.68105335     3.84915166    -7.89778471     0.00006483     0.00000093     0.00001803 0.00000000 VRAI 
CAM-ECTC-USA-IP_ECTC-USA-IP    2016.04.01.23.10.24    -3.53234510    -4.07031298    -7.87558308     0.00000237     0.00000000     0.00000161 0.00000000 VRAI 
CAM-ECTC-USA-HO_ECTC-USA-HO-T  2016.04.01.23.10.24    -3.86865211     3.64758363   -12.93407307     0.00001887     0.00000076     0.00001629 0.00000000 VRAI 
CAM-ECTC-USA-HO_ECTC-USA-HO    2016.04.01.23.10.24    -3.67595329    -3.92563286   -12.88949223     0.00000122     0.00000012     0.00000364 0.00000000 VRAI 
CAM-LBA-US_EBA-US-HO-H         2016.04.01.23.10.24     2.83563194    -3.69495702     6.48618937     0.00000684     0.00000649     0.00000000 0.00000000 VRAI 
CAM-LBA-US_JDA-US-H            2016.04.01.23.10.24     2.82030001    -3.73079925     6.67530489     0.00000802     0.00000972     0.00000000 0.00000000 VRAI 
CAM-LBA-US_CAM-LBC-US          2016.04.01.23.10.24     2.85297627    -3.73720074    -2.68939376     0.00000888     0.00000445     0.00000000 0.00000000 VRAI 
CAM-LBA-US_EBC-US-IP-H         2016.04.01.23.10.24     2.85099821    -3.68038630    -3.11695380     0.00001562     0.00000686     0.00000038 0.00000000 VRAI 
CAM-LBA-USA_EBA-USA-HO-H       2016.04.01.23.10.24    -2.86449070    -3.73443890     6.48601837     0.00000764     0.00000768     0.00000023 0.00000000 VRAI 
CAM-LBA-USA_JDA-USA-H          2016.04.01.23.10.24    -2.88388510    -3.67265506     7.43189926     0.00001346     0.00000230     0.00000023 0.00000000 VRAI 
CAM-LBA-USA_CAM-LBC-USA        2016.04.01.23.10.24    -2.76891880    -3.70877075    -2.71063247     0.00438739     0.00280721     0.00005945 0.00000000 VRAI 
CAM-LBA-USA_EBC-USA-IP-H       2016.04.01.23.10.24    -2.79944175    -3.68998486    -3.11713219     0.00000825     0.00000967     0.00000000 0.00000000 VRAI 
CAM-ECTA-US-IP_ECTA-US-IP-T    2016.04.01.23.10.24     3.57281196     3.84856814     8.10718942     0.00159734     0.00004956     0.00233971 0.00000000 VRAI 
CAM-ECTA-US-IP_ECTA-US-IP      2016.04.01.23.10.24     3.52009785    -4.07061195     7.89739227     0.00000137     0.00000000     0.00000155 0.00000000 VRAI 
CAM-ECTA-US-HO_ECTA-US-HO-T    2016.04.01.23.10.24     3.87545365     3.64747316    12.93613005     0.00001862     0.00000046     0.00000955 0.00000000 VRAI 
CAM-ECTA-US-HO_ECTA-US-HO      2016.04.01.23.10.24     3.66447783    -3.92580342    12.88421679     0.00000281     0.00000000     0.00000305 0.00000000 VRAI 
CAM-ECTA-USA-IP_ECTA-USA-IP-T  2016.04.01.23.10.24    -3.68104464     3.84881181     7.89886522     0.00002981     0.00000010     0.00001073 0.00000000 VRAI 
CAM-ECTA-USA-IP_ECTA-USA-IP    2016.04.01.23.10.24    -3.53483403    -4.07043028     7.89147627     0.00000123     0.00000000     0.00000052 0.00000000 VRAI 
CAM-ECTA-USA-HO_ECTA-USA-HO-T  2016.04.01.23.10.24    -3.86146247     3.64768982    12.93614769     0.00001448     0.00000000     0.00002071 0.00000000 VRAI 
CAM-ECTA-USA-HO_ECTA-USA-HO    2016.04.01.23.10.24    -3.68505955    -3.92559719    12.88596463     0.00000437     0.00000000     0.00000326 0.00000000 VRAI 
CAM-JDC-US-IP_JDC-US-IP        2016.04.01.23.10.24     2.59961158    -4.19501305    -6.54799879     0.00000242     0.00000000     0.00000341 0.00000000 VRAI 
CAM-JDC-US-HO_JDC-US-HO        2016.04.01.23.10.24     2.61012661    -4.14002812    -6.93112469     0.00000337     0.00000021     0.00000777 0.00000000 VRAI 
CAM-JDC-USA-IP_JDC-USA-IP      2016.04.01.23.10.24    -2.60457730    -4.19508886    -6.54055226     0.00000265     0.00000000     0.00000156 0.00000000 VRAI 
CAM-JDC-USA-HO_JDC-USA-HO      2016.04.01.23.10.24    -2.59365183    -4.14012814    -6.92688274     0.00000308     0.00000000     0.00000669 0.00000000 VRAI 
CAM-JDA-US-IP_JDA-US-IP        2016.04.01.23.10.24     2.58490038    -4.19496298     6.54849339     0.00000258     0.00000000     0.00000122 0.00000000 VRAI 
CAM-JDA-US-HO_JDA-US-HO        2016.04.01.23.10.24     2.59418625    -4.13996410     6.94839013     0.00000192     0.00000000     0.00000253 0.00000000 VRAI 
CAM-JDA-USA-IP_JDA-USA-IP      2016.04.01.23.10.24    -2.59778666    -4.19505107     6.53891575     0.00000081     0.00000021     0.00000255 0.00000000 VRAI 
CAM-JDA-USA-HO_JDA-USA-HO      2016.04.01.23.10.24    -2.60445178    -4.13995647     6.94265425     0.00000564     0.00000000     0.00001294 0.00000000 VRAI 
CAM-EBC-US-IP_EBC-US-IP        2016.04.01.23.10.24     2.60382360    -4.19700384    -3.82521808     0.00000205     0.00000000     0.00000337 0.00000000 VRAI 
CAM-EBC-US-HO_EBC-US-HO        2016.04.01.23.10.24     2.60559332    -4.19701910    -5.89350104     0.00000214     0.00000000     0.00000153 0.00000000 VRAI 
CAM-EBC-USA-IP_EBC-USA-IP      2016.04.01.23.10.24    -2.61129862    -4.19698286    -3.82727784     0.00000199     0.00000000     0.00000343 0.00000000 VRAI 
CAM-EBC-USA-HO_EBC-USA-HO      2016.04.01.23.10.24    -2.61579299    -4.19701958    -5.89169860     0.00000088     0.00000000     0.00000079 0.00000000 VRAI 
CAM-EBA-US-IP_EBA-US-IP        2016.04.01.23.10.24     2.61458701    -4.19698811     3.83337510     0.00000267     0.00000000     0.00000321 0.00000000 VRAI 
CAM-EBA-US-HO_EBA-US-HO        2016.04.01.23.10.24     2.61674833    -4.19703007     5.89773107     0.00000237     0.00000000     0.00000262 0.00000000 VRAI 
CAM-EBA-USA-IP_EBA-USA-IP      2016.04.01.23.10.24    -2.61119831    -4.19700384     3.83567679     0.00000152     0.00000000     0.00000289 0.00000000 VRAI 
CAM-EBA-USA-HO_EBA-USA-HO      2016.04.01.23.10.24    -2.61279094    -4.19702482     5.89858305     0.00000166     0.00000000     0.00000123 0.00000000 VRAI 
CAM-LBC-US_EBC-US-HO-H         2016.04.01.23.10.24     2.78350139    -3.76570773    -6.47911263     0.00000000     0.00000000     0.00000000 0.00000000 VRAI 
CAM-LBC-US_JDC-US-H            2016.04.01.23.10.24     2.84044427    -3.68048513    -6.67465472     0.03829985     0.00488709     0.00006896 0.00000000 VRAI 
CAM-LBC-US_CAM-LBA-US          2016.04.01.23.10.24     2.81480175    -3.75325835     2.69822550     0.00000624     0.00000412     0.00000000 0.00000000 VRAI 
CAM-LBC-US_EBA-US-IP-H         2016.04.01.23.10.24     2.84040290    -3.68423182     3.12405539     0.00001378     0.00000205     0.00000000 0.00000000 VRAI 
CAM-LBC-USA_EBC-USA-HO-H       2016.04.01.23.10.24    -2.84792310    -3.69351381    -6.47909892     0.00000705     0.00000784     0.00000021 0.00000000 VRAI 
CAM-LBC-USA_JDC-USA-H          2016.04.01.23.10.24    -2.82485324    -3.77028197    -6.67505836     0.00000296     0.00000286     0.00000000 0.00000000 VRAI 
CAM-LBC-USA_CAM-LBA-USA        2016.04.01.23.10.24    -2.81441349    -3.74958974     2.68347168     0.00000908     0.00000174     0.00000000 0.00000000 VRAI 
CAM-LBC-USA_EBA-USA-IP-H       2016.04.01.23.10.24    -2.76188028    -3.73484069     3.12380630     0.01854121     0.06645903     0.00027449 0.00000000 VRAI 
