********** Fichier qui contient une sauvegarde des coordonnees images + coordonnees images transformees dans le repere BCAM (MOUNT) + coordonnees des prismes dans le repere MOUNT********** 
********************************************************************** Unite en metres (m)************************************************************************************************** 

*******************************************************************coordonnees images dans le repere CCD *********************************************************************************** 
20MABNDB000069_PR031
Spot 1     0.00021500     0.00240500
Spot 2     0.00042859     0.00136064
Spot 1     0.00021500     0.00240500
Spot 2     0.00042969     0.00136172
Spot 1     0.00021500     0.00240500
Spot 2     0.00042933     0.00136000
Spot 1     0.00021500     0.00240500
Spot 2     0.00042790     0.00136145
Spot 1     0.00021500     0.00240500
Spot 2     0.00042955     0.00136110
20MABNDB000069_PR033
Spot 1     0.00183396     0.00201037
Spot 2     0.00230311     0.00203011
Spot 1     0.00183394     0.00201047
Spot 2     0.00230318     0.00203010
Spot 1     0.00183412     0.00201039
Spot 2     0.00230316     0.00203026
Spot 1     0.00183401     0.00201049
Spot 2     0.00230316     0.00203021
Spot 1     0.00183402     0.00201049
Spot 2     0.00230312     0.00203029
20MABNDB000131_PR032
Spot 1     0.00277912     0.00108563
Spot 2     0.00283813     0.00108879
Spot 1     0.00277897     0.00108579
Spot 2     0.00283822     0.00108891
Spot 1     0.00277894     0.00108572
Spot 2     0.00283822     0.00108899
Spot 1     0.00277879     0.00108571
Spot 2     0.00283810     0.00108910
Spot 1     0.00277888     0.00108580
Spot 2     0.00283801     0.00108903
20MABNDB000131_PR034
Spot 1     0.00092766     0.00035892
Spot 2     0.00110387     0.00035780
Spot 1     0.00092787     0.00035878
Spot 2     0.00110371     0.00035753
Spot 1     0.00092784     0.00035884
Spot 2     0.00110363     0.00035786
Spot 1     0.00092797     0.00035902
Spot 2     0.00110402     0.00035761
20MABNDA000208_PR042
Spot 1     0.00305275     0.00094145
Spot 2     0.00298669     0.00094280
Spot 1     0.00305280     0.00094217
Spot 2     0.00298615     0.00094287
Spot 1     0.00305168     0.00094271
Spot 2     0.00298686     0.00094304
Spot 1     0.00305295     0.00094173
Spot 2     0.00298388     0.00094259
20MABNDA000208_PR046
Spot 1     0.00145553     0.00210388
Spot 2     0.00098050     0.00210762
Spot 1     0.00145541     0.00210415
Spot 2     0.00098084     0.00210732
Spot 1     0.00145553     0.00210405
Spot 2     0.00098071     0.00210755
Spot 1     0.00145537     0.00210421
Spot 2     0.00098097     0.00210747
20MABNDA000035_PR044
Spot 1     0.00074008     0.00126699
Spot 2     0.00068615     0.00126132
Spot 1     0.00073990     0.00126706
Spot 2     0.00068584     0.00126138
Spot 1     0.00074028     0.00126713
Spot 2     0.00068623     0.00126135
Spot 1     0.00074008     0.00126721
Spot 2     0.00068597     0.00126122
20MABNDA000035_PR045
Spot 1     0.00254798     0.00051469
Spot 2     0.00237169     0.00051284
Spot 1     0.00254817     0.00051446
Spot 2     0.00237159     0.00051301
Spot 1     0.00254789     0.00051456
Spot 2     0.00237157     0.00051291
Spot 1     0.00254814     0.00051465
Spot 2     0.00237159     0.00051283
20MABNDL000077_PR002
Spot 1     0.00079540     0.00149617
Spot 2     0.00095707     0.00149567
Spot 1     0.00079488     0.00149622
Spot 2     0.00095711     0.00149599
Spot 1     0.00079464     0.00149664
Spot 2     0.00095680     0.00149592
Spot 1     0.00079470     0.00149670
Spot 2     0.00095704     0.00149588
20MABNDL000077_PR003
Spot 1     0.00152637     0.00118921
Spot 2     0.00167677     0.00119177
Spot 1     0.00152614     0.00118946
Spot 2     0.00167654     0.00119183
Spot 1     0.00152585     0.00118963
Spot 2     0.00167648     0.00119190
Spot 1     0.00152619     0.00118932
Spot 2     0.00167631     0.00119159
20MABNDL000077_20MABNDM000168
Spot 1     0.00188385     0.00148494
Spot 2     0.00204500     0.00205500
Spot 1     0.00188351     0.00148519
Spot 2     0.00204500     0.00205500
Spot 1     0.00188380     0.00148534
Spot 2     0.00204500     0.00205500
Spot 1     0.00188375     0.00148554
Spot 2     0.00204500     0.00205500
20MABNDL000077_PR024
Spot 1     0.00262804     0.00171345
Spot 2     0.00272921     0.00171803
Spot 1     0.00262815     0.00171360
Spot 2     0.00272877     0.00171802
Spot 1     0.00262817     0.00171367
Spot 2     0.00272899     0.00171799
Spot 1     0.00262820     0.00171390
Spot 2     0.00272887     0.00171818
20MABNDM000020_PR013
Spot 1     0.00164185     0.00213792
Spot 2     0.00148909     0.00214423
Spot 1     0.00164188     0.00213870
Spot 2     0.00148912     0.00214576
Spot 1     0.00164123     0.00213781
Spot 2     0.00148943     0.00214413
Spot 1     0.00164208     0.00213895
Spot 2     0.00148952     0.00214455
20MABNDM000020_PR014
Spot 1     0.00267904     0.00227860
Spot 2     0.00251713     0.00228583
Spot 1     0.00267917     0.00227843
Spot 2     0.00251725     0.00228564
Spot 1     0.00267929     0.00227797
Spot 2     0.00251686     0.00228542
Spot 1     0.00267912     0.00227832
Spot 2     0.00251737     0.00228591
20MABNDM000020_20MABNDL000196
Spot 1     0.00200123     0.00057944
Spot 2     0.00080500     0.00021500
Spot 1     0.00200132     0.00057908
Spot 2     0.00080500     0.00021500
Spot 1     0.00200159     0.00057939
Spot 2     0.00080500     0.00021500
Spot 1     0.00200156     0.00057949
Spot 2     0.00080500     0.00021500
20MABNDM000020_PR035
Spot 1     0.00126894     0.00087631
Spot 2     0.00119582     0.00090790
Spot 1     0.00126899     0.00087590
Spot 2     0.00119556     0.00090784
Spot 1     0.00126937     0.00087513
Spot 2     0.00119579     0.00090777
Spot 1     0.00127006     0.00087477
Spot 2     0.00119596     0.00090754
20MABNDA000188_PR008
Spot 1     0.00283500     0.00012500
Spot 2     0.00283500     0.00012500
Spot 1     0.00283500     0.00012500
Spot 2     0.00336750     0.00014250
Spot 1     0.00283500     0.00012500
Spot 2     0.00268700     0.00043300
Spot 1     0.00283500     0.00012500
Spot 2     0.00336750     0.00014250
20MABNDA000188_PR018
Spot 1     0.00164755     0.00174973
Spot 2     0.00118044     0.00174725
Spot 1     0.00164761     0.00174962
Spot 2     0.00118045     0.00174703
Spot 1     0.00164742     0.00174989
Spot 2     0.00118040     0.00174713
Spot 1     0.00164765     0.00174964
Spot 2     0.00118048     0.00174711
20MABNDA000039_PR009
Spot 1     0.00066252     0.00117353
Spot 2     0.00061496     0.00117798
Spot 1     0.00066218     0.00117350
Spot 2     0.00061511     0.00117787
Spot 1     0.00066229     0.00117351
Spot 2     0.00061526     0.00117808
Spot 1     0.00066225     0.00117340
Spot 2     0.00061556     0.00117771
20MABNDA000039_PR011
Spot 1     0.00276243     0.00027812
Spot 2     0.00258760     0.00027355
Spot 1     0.00276255     0.00027799
Spot 2     0.00258756     0.00027345
Spot 1     0.00276246     0.00027811
Spot 2     0.00258749     0.00027359
Spot 1     0.00276234     0.00027805
Spot 2     0.00258764     0.00027378
20MABNDB000155_PR020
Spot 1     0.00061825     0.00112317
Spot 2     0.00068053     0.00111991
Spot 1     0.00061783     0.00112308
Spot 2     0.00068042     0.00111954
Spot 1     0.00061813     0.00112318
Spot 2     0.00068044     0.00111982
Spot 1     0.00061722     0.00112292
Spot 2     0.00068080     0.00111939
20MABNDB000155_PR022
Spot 1     0.00208266     0.00134657
Spot 2     0.00255571     0.00134160
Spot 1     0.00208261     0.00134654
Spot 2     0.00255571     0.00134164
Spot 1     0.00208273     0.00134652
Spot 2     0.00255577     0.00134167
Spot 1     0.00208271     0.00134649
Spot 2     0.00255576     0.00134165
20MABNDB000010_PR021
Spot 1     0.00286665     0.00115676
Spot 2     0.00291921     0.00115925
Spot 1     0.00286659     0.00115673
Spot 2     0.00291929     0.00115971
Spot 1     0.00286684     0.00115665
Spot 2     0.00291942     0.00115908
Spot 1     0.00286624     0.00115656
Spot 2     0.00291930     0.00115934
20MABNDB000010_PR023
Spot 1     0.00130694     0.00033259
Spot 2     0.00148139     0.00033099
Spot 1     0.00130690     0.00033331
Spot 2     0.00148157     0.00033111
Spot 1     0.00130708     0.00033287
Spot 2     0.00148142     0.00033113
Spot 1     0.00130671     0.00033298
Spot 2     0.00148158     0.00033124
20MABNDB000212_PR029
Spot 1     0.00226160     0.00072578
Spot 2     0.00189531     0.00072594
Spot 1     0.00226168     0.00072588
Spot 2     0.00189531     0.00072562
Spot 1     0.00226142     0.00072598
Spot 2     0.00189546     0.00072608
Spot 1     0.00226171     0.00072592
Spot 2     0.00189563     0.00072627
20MABNDB000128_PR030
Spot 1     0.00188606     0.00200644
Spot 2     0.00209003     0.00200132
Spot 1     0.00188619     0.00200681
Spot 2     0.00209020     0.00200126
Spot 1     0.00188615     0.00200663
Spot 2     0.00209018     0.00200153
Spot 1     0.00188617     0.00200636
Spot 2     0.00208989     0.00200133
20MABNDA000444_PR040
Spot 1     0.00078280     0.00037305
Spot 2     0.00114865     0.00037135
Spot 1     0.00078270     0.00037328
Spot 2     0.00114883     0.00037183
Spot 1     0.00078282     0.00037306
Spot 2     0.00114897     0.00037167
Spot 1     0.00078272     0.00037305
Spot 2     0.00114856     0.00037178
20MABNDA000053_PR041
Spot 1     0.00164503     0.00199014
Spot 2     0.00144234     0.00198668
Spot 1     0.00164507     0.00199030
Spot 2     0.00144212     0.00198698
Spot 1     0.00164486     0.00199051
Spot 2     0.00144221     0.00198717
Spot 1     0.00164514     0.00199064
Spot 2     0.00144256     0.00198735
20MABNDA000196_PR006
Spot 1     0.00198572     0.00075795
Spot 2     0.00162084     0.00075337
Spot 1     0.00198569     0.00075778
Spot 2     0.00162077     0.00075338
Spot 1     0.00198583     0.00075807
Spot 2     0.00162088     0.00075335
Spot 1     0.00198574     0.00075800
Spot 2     0.00162062     0.00075331
20MABNDA000324_PR007
Spot 1     0.00195132     0.00120405
Spot 2     0.00174624     0.00120982
Spot 1     0.00195120     0.00120398
Spot 2     0.00174621     0.00120997
Spot 1     0.00195121     0.00120421
Spot 2     0.00174645     0.00120994
Spot 1     0.00195133     0.00120410
Spot 2     0.00174596     0.00120991
20MABNDB000001_PR017
Spot 1     0.00188522     0.00047188
Spot 2     0.00225403     0.00048226
Spot 1     0.00188522     0.00047179
Spot 2     0.00225385     0.00048205
Spot 1     0.00188511     0.00047183
Spot 2     0.00225421     0.00048198
Spot 1     0.00188514     0.00047184
Spot 2     0.00225350     0.00048200
20MABNDB000260_PR019
Spot 1     0.00192010     0.00149387
Spot 2     0.00212400     0.00149475
Spot 1     0.00192036     0.00149412
Spot 2     0.00212430     0.00149477
Spot 1     0.00192008     0.00149423
Spot 2     0.00212402     0.00149476
Spot 1     0.00191997     0.00149387
Spot 2     0.00212375     0.00149450
20MABNDB000135_PR027
Spot 1     0.00189114     0.00092380
Spot 2     0.00210967     0.00092644
Spot 1     0.00189102     0.00092367
Spot 2     0.00210945     0.00092647
Spot 1     0.00189121     0.00092377
Spot 2     0.00210971     0.00092616
Spot 1     0.00189115     0.00092376
Spot 2     0.00210975     0.00092633
20MABNDB000126_PR028
Spot 1     0.00164418     0.00200109
Spot 2     0.00192583     0.00200358
Spot 1     0.00164438     0.00200126
Spot 2     0.00192585     0.00200360
Spot 1     0.00164434     0.00200112
Spot 2     0.00192594     0.00200368
Spot 1     0.00164452     0.00200128
Spot 2     0.00192584     0.00200358
20MABNDA000272_PR038
Spot 1     0.00192386     0.00096262
Spot 2     0.00170202     0.00096117
Spot 1     0.00192376     0.00096289
Spot 2     0.00170186     0.00096135
Spot 1     0.00192386     0.00096265
Spot 2     0.00170176     0.00096119
Spot 1     0.00192394     0.00096272
Spot 2     0.00170164     0.00096112
20MABNDA000003_PR039
Spot 1     0.00200133     0.00192085
Spot 2     0.00227919     0.00192053
Spot 1     0.00200156     0.00192069
Spot 2     0.00227901     0.00192070
Spot 1     0.00200153     0.00192054
Spot 2     0.00227907     0.00192065
Spot 1     0.00200147     0.00192091
Spot 2     0.00227904     0.00192056
20MABNDA000318_PR004
Spot 1     0.00214733     0.00163172
Spot 2     0.00192946     0.00163318
Spot 1     0.00214716     0.00163187
Spot 2     0.00192967     0.00163317
Spot 1     0.00214729     0.00163204
Spot 2     0.00192948     0.00163306
Spot 1     0.00214714     0.00163186
Spot 2     0.00192975     0.00163317
20MABNDA000334_PR005
Spot 1     0.00247454     0.00158095
Spot 2     0.00219395     0.00158134
Spot 1     0.00247427     0.00158086
Spot 2     0.00219386     0.00158131
Spot 1     0.00247436     0.00158074
Spot 2     0.00219433     0.00158124
Spot 1     0.00247432     0.00158083
Spot 2     0.00219433     0.00158124
20MABNDB000317_PR015
Spot 1     0.00148824     0.00160995
Spot 2     0.00170793     0.00160340
Spot 1     0.00148833     0.00160999
Spot 2     0.00170781     0.00160318
Spot 1     0.00148847     0.00160991
Spot 2     0.00170796     0.00160352
Spot 1     0.00148830     0.00161000
Spot 2     0.00170781     0.00160324
20MABNDB000146_PR016
Spot 1     0.00144662     0.00133195
Spot 2     0.00172135     0.00133442
Spot 1     0.00144664     0.00133200
Spot 2     0.00172160     0.00133462
Spot 1     0.00144641     0.00133194
Spot 2     0.00172167     0.00133456
Spot 1     0.00144651     0.00133198
Spot 2     0.00172175     0.00133429
20MABNDM000168_PR025
Spot 1     0.00105500     0.00031500
Spot 2     0.00105500     0.00031500
Spot 1     0.00105500     0.00031500
Spot 2     0.00105500     0.00031500
Spot 1     0.00105500     0.00031500
Spot 2     0.00105500     0.00031500
Spot 1     0.00105500     0.00031500
Spot 2     0.00105500     0.00031500
20MABNDM000168_PR026
Spot 1     0.00277500     0.00187500
Spot 2     0.00277500     0.00187500
Spot 1     0.00277500     0.00187500
Spot 2     0.00277500     0.00187500
Spot 1     0.00277500     0.00187500
Spot 2     0.00277500     0.00187500
Spot 1     0.00277500     0.00187500
Spot 2     0.00277500     0.00187500
20MABNDM000168_20MABNDL000077
Spot 1     0.00153786     0.00129687
Spot 2     0.00175631     0.00129995
Spot 1     0.00153774     0.00129689
Spot 2     0.00175645     0.00130035
Spot 1     0.00153803     0.00129666
Spot 2     0.00175638     0.00130022
Spot 1     0.00153781     0.00129674
Spot 2     0.00175635     0.00130012
20MABNDM000168_PR001
Spot 1     0.00080642     0.00161585
Spot 2     0.00070523     0.00162064
Spot 1     0.00080631     0.00161598
Spot 2     0.00070509     0.00162080
Spot 1     0.00080625     0.00161597
Spot 2     0.00070491     0.00162073
Spot 1     0.00080581     0.00161585
Spot 2     0.00070491     0.00162067
20MABNDL000196_PR036
Spot 1     0.00095898     0.00164484
Spot 2     0.00112267     0.00164426
Spot 1     0.00095881     0.00164502
Spot 2     0.00112271     0.00164416
Spot 1     0.00095886     0.00164504
Spot 2     0.00112258     0.00164433
Spot 1     0.00095879     0.00164516
Spot 2     0.00112253     0.00164456
20MABNDL000196_PR037
Spot 1     0.00248353     0.00116558
Spot 2     0.00263755     0.00116376
Spot 1     0.00248356     0.00116570
Spot 2     0.00263739     0.00116385
Spot 1     0.00248338     0.00116568
Spot 2     0.00263735     0.00116389
Spot 1     0.00248331     0.00116548
Spot 2     0.00263747     0.00116387
20MABNDL000196_20MABNDM000020
Spot 1     0.00195179     0.00102972
Spot 2     0.00173019     0.00102928
Spot 1     0.00195182     0.00102962
Spot 2     0.00173014     0.00102943
Spot 1     0.00195208     0.00102949
Spot 2     0.00173020     0.00102935
Spot 1     0.00195212     0.00102954
Spot 2     0.00173020     0.00102939
20MABNDL000196_PR012
Spot 1     0.00033500     0.00002500
Spot 2     0.00342750     0.00005750
Spot 1     0.00304500     0.00006500
Spot 2     0.00316000     0.00006250
Spot 1     0.00315500     0.00069500
Spot 2     0.00273567     0.00137300
Spot 1     0.00315600     0.00069500
Spot 2     0.00192500     0.00001500


****************************************************************coordonnees images transformees dans le repere MOUNT************************************************************************* 
20MABNDB000069_PR031
Spot 1    -0.01361993    -0.01186066    -0.07388500
Spot 2    -0.01344962    -0.01291295    -0.07388500
Spot 1    -0.01361993    -0.01186066    -0.07388500
Spot 2    -0.01344847    -0.01291192    -0.07388500
Spot 1    -0.01361993    -0.01186066    -0.07388500
Spot 2    -0.01344890    -0.01291362    -0.07388500
Spot 1    -0.01361993    -0.01186066    -0.07388500
Spot 2    -0.01345027    -0.01291211    -0.07388500
Spot 1    -0.01361993    -0.01186066    -0.07388500
Spot 2    -0.01344864    -0.01291253    -0.07388500
20MABNDB000069_PR033
Spot 1    -0.01201863    -0.01232177    -0.07388500
Spot 2    -0.01154907    -0.01232141    -0.07388500
Spot 1    -0.01201865    -0.01232167    -0.07388500
Spot 2    -0.01154900    -0.01232142    -0.07388500
Spot 1    -0.01201847    -0.01232175    -0.07388500
Spot 2    -0.01154901    -0.01232126    -0.07388500
Spot 1    -0.01201858    -0.01232165    -0.07388500
Spot 2    -0.01154901    -0.01232131    -0.07388500
Spot 1    -0.01201857    -0.01232165    -0.07388500
Spot 2    -0.01154905    -0.01232123    -0.07388500
20MABNDB000131_PR032
Spot 1    -0.01144107    -0.01302911    -0.07533000
Spot 2    -0.01138208    -0.01302566    -0.07533000
Spot 1    -0.01144122    -0.01302895    -0.07533000
Spot 2    -0.01138199    -0.01302554    -0.07533000
Spot 1    -0.01144125    -0.01302902    -0.07533000
Spot 2    -0.01138199    -0.01302546    -0.07533000
Spot 1    -0.01144140    -0.01302903    -0.07533000
Spot 2    -0.01138211    -0.01302535    -0.07533000
Spot 1    -0.01144131    -0.01302894    -0.07533000
Spot 2    -0.01138220    -0.01302542    -0.07533000
20MABNDB000131_PR034
Spot 1    -0.01328885    -0.01376514    -0.07533000
Spot 2    -0.01311263    -0.01376537    -0.07533000
Spot 1    -0.01328864    -0.01376527    -0.07533000
Spot 2    -0.01311279    -0.01376564    -0.07533000
Spot 1    -0.01328867    -0.01376521    -0.07533000
Spot 2    -0.01311287    -0.01376531    -0.07533000
Spot 1    -0.01328854    -0.01376503    -0.07533000
Spot 2    -0.01311248    -0.01376556    -0.07533000
20MABNDA000208_PR042
Spot 1    -0.01392348     0.01305457    -0.07273700
Spot 2    -0.01385742     0.01305328    -0.07273700
Spot 1    -0.01392353     0.01305385    -0.07273700
Spot 2    -0.01385688     0.01305321    -0.07273700
Spot 1    -0.01392241     0.01305332    -0.07273700
Spot 2    -0.01385759     0.01305304    -0.07273700
Spot 1    -0.01392368     0.01305429    -0.07273700
Spot 2    -0.01385461     0.01305349    -0.07273700
20MABNDA000208_PR046
Spot 1    -0.01232524     0.01189355    -0.07273700
Spot 2    -0.01185021     0.01189022    -0.07273700
Spot 1    -0.01232512     0.01189328    -0.07273700
Spot 2    -0.01185055     0.01189052    -0.07273700
Spot 1    -0.01232524     0.01189338    -0.07273700
Spot 2    -0.01185042     0.01189029    -0.07273700
Spot 1    -0.01232508     0.01189322    -0.07273700
Spot 2    -0.01185068     0.01189037    -0.07273700
20MABNDA000035_PR044
Spot 1    -0.01157480     0.01299027    -0.07483200
Spot 2    -0.01152083     0.01299556    -0.07483200
Spot 1    -0.01157462     0.01299020    -0.07483200
Spot 2    -0.01152052     0.01299549    -0.07483200
Spot 1    -0.01157500     0.01299013    -0.07483200
Spot 2    -0.01152091     0.01299553    -0.07483200
Spot 1    -0.01157480     0.01299005    -0.07483200
Spot 2    -0.01152065     0.01299565    -0.07483200
20MABNDA000035_PR045
Spot 1    -0.01337730     0.01375541    -0.07483200
Spot 2    -0.01320100     0.01375601    -0.07483200
Spot 1    -0.01337749     0.01375564    -0.07483200
Spot 2    -0.01320090     0.01375584    -0.07483200
Spot 1    -0.01337721     0.01375554    -0.07483200
Spot 2    -0.01320088     0.01375594    -0.07483200
Spot 1    -0.01337746     0.01375545    -0.07483200
Spot 2    -0.01320090     0.01375602    -0.07483200
20MABNDL000077_PR002
Spot 1     0.01186569     0.03557163    -0.07463200
Spot 2     0.01202735     0.03556958    -0.07463200
Spot 1     0.01186517     0.03557169    -0.07463200
Spot 2     0.01202739     0.03556990    -0.07463200
Spot 1     0.01186493     0.03557211    -0.07463200
Spot 2     0.01202708     0.03556983    -0.07463200
Spot 1     0.01186499     0.03557217    -0.07463200
Spot 2     0.01202732     0.03556979    -0.07463200
20MABNDL000077_PR003
Spot 1     0.01259367     0.03525765    -0.07463200
Spot 2     0.01274409     0.03525877    -0.07463200
Spot 1     0.01259344     0.03525791    -0.07463200
Spot 2     0.01274386     0.03525883    -0.07463200
Spot 1     0.01259315     0.03525808    -0.07463200
Spot 2     0.01274380     0.03525890    -0.07463200
Spot 1     0.01259349     0.03525777    -0.07463200
Spot 2     0.01274363     0.03525859    -0.07463200
20MABNDL000077_20MABNDM000168
Spot 1    -0.01272207     0.03554661    -0.00695400
Spot 2    -0.01288904     0.03611499    -0.00695400
Spot 1    -0.01272173     0.03554687    -0.00695400
Spot 2    -0.01288904     0.03611499    -0.00695400
Spot 1    -0.01272202     0.03554701    -0.00695400
Spot 2    -0.01288904     0.03611499    -0.00695400
Spot 1    -0.01272197     0.03554721    -0.00695400
Spot 2    -0.01288904     0.03611499    -0.00695400
20MABNDL000077_PR024
Spot 1    -0.01346856     0.03576749    -0.00695400
Spot 2    -0.01356977     0.03577104    -0.00695400
Spot 1    -0.01346867     0.03576764    -0.00695400
Spot 2    -0.01356933     0.03577103    -0.00695400
Spot 1    -0.01346869     0.03576771    -0.00695400
Spot 2    -0.01356955     0.03577100    -0.00695400
Spot 1    -0.01346872     0.03576794    -0.00695400
Spot 2    -0.01356943     0.03577119    -0.00695400
20MABNDM000020_PR013
Spot 1    -0.01270358    -0.03609613    -0.00523500
Spot 2    -0.01285617    -0.03610581    -0.00523500
Spot 1    -0.01270354    -0.03609691    -0.00523500
Spot 2    -0.01285610    -0.03610734    -0.00523500
Spot 1    -0.01270421    -0.03609603    -0.00523500
Spot 2    -0.01285583    -0.03610571    -0.00523500
Spot 1    -0.01270333    -0.03609715    -0.00523500
Spot 2    -0.01285573    -0.03610612    -0.00523500
20MABNDM000020_PR014
Spot 1    -0.01166354    -0.03621384    -0.00523500
Spot 2    -0.01182525    -0.03622465    -0.00523500
Spot 1    -0.01166341    -0.03621366    -0.00523500
Spot 2    -0.01182513    -0.03622445    -0.00523500
Spot 1    -0.01166330    -0.03621320    -0.00523500
Spot 2    -0.01182553    -0.03622424    -0.00523500
Spot 1    -0.01166346    -0.03621356    -0.00523500
Spot 2    -0.01182501    -0.03622472    -0.00523500
20MABNDM000020_20MABNDL000196
Spot 1     0.01268496    -0.03454801    -0.07583800
Spot 2     0.01388114    -0.03418340    -0.07583800
Spot 1     0.01268487    -0.03454765    -0.07583800
Spot 2     0.01388114    -0.03418340    -0.07583800
Spot 1     0.01268460    -0.03454796    -0.07583800
Spot 2     0.01388114    -0.03418340    -0.07583800
Spot 1     0.01268464    -0.03454806    -0.07583800
Spot 2     0.01388114    -0.03418340    -0.07583800
20MABNDM000020_PR035
Spot 1     0.01341730    -0.03484478    -0.07583800
Spot 2     0.01349042    -0.03487636    -0.07583800
Spot 1     0.01341725    -0.03484437    -0.07583800
Spot 2     0.01349068    -0.03487630    -0.07583800
Spot 1     0.01341687    -0.03484360    -0.07583800
Spot 2     0.01349045    -0.03487623    -0.07583800
Spot 1     0.01341618    -0.03484324    -0.07583800
Spot 2     0.01349028    -0.03487600    -0.07583800
20MABNDA000188_PR008
Spot 1    -0.01385116     0.01393841    -0.07502000
Spot 2    -0.01385116     0.01393841    -0.07502000
Spot 1    -0.01385116     0.01393841    -0.07502000
Spot 2    -0.01438379     0.01392547    -0.07502000
Spot 1    -0.01385116     0.01393841    -0.07502000
Spot 2    -0.01370580     0.01362916    -0.07502000
Spot 1    -0.01385116     0.01393841    -0.07502000
Spot 2    -0.01438379     0.01392547    -0.07502000
20MABNDA000188_PR018
Spot 1    -0.01267767     0.01230357    -0.07502000
Spot 2    -0.01221055     0.01230205    -0.07502000
Spot 1    -0.01267773     0.01230369    -0.07502000
Spot 2    -0.01221056     0.01230227    -0.07502000
Spot 1    -0.01267754     0.01230341    -0.07502000
Spot 2    -0.01221051     0.01230217    -0.07502000
Spot 1    -0.01267777     0.01230367    -0.07502000
Spot 2    -0.01221059     0.01230219    -0.07502000
20MABNDA000039_PR009
Spot 1    -0.01162464     0.01307060    -0.07444800
Spot 2    -0.01157710     0.01306594    -0.07444800
Spot 1    -0.01162430     0.01307063    -0.07444800
Spot 2    -0.01157725     0.01306605    -0.07444800
Spot 1    -0.01162441     0.01307062    -0.07444800
Spot 2    -0.01157740     0.01306584    -0.07444800
Spot 1    -0.01162437     0.01307073    -0.07444800
Spot 2    -0.01157770     0.01306622    -0.07444800
20MABNDA000039_PR011
Spot 1    -0.01372066     0.01397509    -0.07444800
Spot 2    -0.01354581     0.01397890    -0.07444800
Spot 1    -0.01372078     0.01397522    -0.07444800
Spot 2    -0.01354577     0.01397900    -0.07444800
Spot 1    -0.01372069     0.01397510    -0.07444800
Spot 2    -0.01354570     0.01397886    -0.07444800
Spot 1    -0.01372057     0.01397515    -0.07444800
Spot 2    -0.01354585     0.01397867    -0.07444800
20MABNDB000155_PR020
Spot 1    -0.01364782    -0.01313422    -0.07501700
Spot 2    -0.01358550    -0.01313663    -0.07501700
Spot 1    -0.01364824    -0.01313432    -0.07501700
Spot 2    -0.01358561    -0.01313700    -0.07501700
Spot 1    -0.01364794    -0.01313421    -0.07501700
Spot 2    -0.01358559    -0.01313672    -0.07501700
Spot 1    -0.01364885    -0.01313449    -0.07501700
Spot 2    -0.01358522    -0.01313714    -0.07501700
20MABNDB000155_PR022
Spot 1    -0.01218660    -0.01289080    -0.07501700
Spot 2    -0.01171353    -0.01288929    -0.07501700
Spot 1    -0.01218665    -0.01289083    -0.07501700
Spot 2    -0.01171353    -0.01288925    -0.07501700
Spot 1    -0.01218653    -0.01289084    -0.07501700
Spot 2    -0.01171347    -0.01288922    -0.07501700
Spot 1    -0.01218655    -0.01289087    -0.07501700
Spot 2    -0.01171348    -0.01288924    -0.07501700
20MABNDB000010_PR021
Spot 1    -0.01158442    -0.01292179    -0.07358200
Spot 2    -0.01153191    -0.01291841    -0.07358200
Spot 1    -0.01158448    -0.01292182    -0.07358200
Spot 2    -0.01153184    -0.01291795    -0.07358200
Spot 1    -0.01158423    -0.01292189    -0.07358200
Spot 2    -0.01153170    -0.01291857    -0.07358200
Spot 1    -0.01158483    -0.01292199    -0.07358200
Spot 2    -0.01153182    -0.01291832    -0.07358200
20MABNDB000010_PR023
Spot 1    -0.01312994    -0.01377226    -0.07358200
Spot 2    -0.01295549    -0.01377090    -0.07358200
Spot 1    -0.01313000    -0.01377154    -0.07358200
Spot 2    -0.01295531    -0.01377078    -0.07358200
Spot 1    -0.01312981    -0.01377198    -0.07358200
Spot 2    -0.01295546    -0.01377076    -0.07358200
Spot 1    -0.01313018    -0.01377187    -0.07358200
Spot 2    -0.01295531    -0.01377065    -0.07358200
20MABNDB000212_PR029
Spot 1    -0.01182598    -0.01325579    -0.07390500
Spot 2    -0.01219225    -0.01325172    -0.07390500
Spot 1    -0.01182590    -0.01325569    -0.07390500
Spot 2    -0.01219225    -0.01325204    -0.07390500
Spot 1    -0.01182616    -0.01325559    -0.07390500
Spot 2    -0.01219210    -0.01325158    -0.07390500
Spot 1    -0.01182587    -0.01325565    -0.07390500
Spot 2    -0.01219193    -0.01325139    -0.07390500
20MABNDB000128_PR030
Spot 1    -0.01246908    -0.01221093    -0.07353400
Spot 2    -0.01226509    -0.01221534    -0.07353400
Spot 1    -0.01246895    -0.01221055    -0.07353400
Spot 2    -0.01226492    -0.01221540    -0.07353400
Spot 1    -0.01246899    -0.01221073    -0.07353400
Spot 2    -0.01226494    -0.01221513    -0.07353400
Spot 1    -0.01246897    -0.01221100    -0.07353400
Spot 2    -0.01226523    -0.01221533    -0.07353400
20MABNDA000444_PR040
Spot 1    -0.01172238     0.01365629    -0.07412000
Spot 2    -0.01208822     0.01365335    -0.07412000
Spot 1    -0.01172228     0.01365606    -0.07412000
Spot 2    -0.01208840     0.01365286    -0.07412000
Spot 1    -0.01172240     0.01365628    -0.07412000
Spot 2    -0.01208854     0.01365302    -0.07412000
Spot 1    -0.01172230     0.01365629    -0.07412000
Spot 2    -0.01208813     0.01365292    -0.07412000
20MABNDA000053_PR041
Spot 1    -0.01240168     0.01212016    -0.07430100
Spot 2    -0.01219897     0.01211967    -0.07430100
Spot 1    -0.01240173     0.01212000    -0.07430100
Spot 2    -0.01219875     0.01211936    -0.07430100
Spot 1    -0.01240152     0.01211979    -0.07430100
Spot 2    -0.01219885     0.01211917    -0.07430100
Spot 1    -0.01240180     0.01211967    -0.07430100
Spot 2    -0.01219920     0.01211900    -0.07430100
20MABNDA000196_PR006
Spot 1    -0.01294080     0.01322027    -0.07967100
Spot 2    -0.01257589     0.01322016    -0.07967100
Spot 1    -0.01294076     0.01322044    -0.07967100
Spot 2    -0.01257582     0.01322015    -0.07967100
Spot 1    -0.01294091     0.01322015    -0.07967100
Spot 2    -0.01257593     0.01322018    -0.07967100
Spot 1    -0.01294082     0.01322022    -0.07967100
Spot 2    -0.01257567     0.01322022    -0.07967100
20MABNDA000324_PR007
Spot 1    -0.01255710     0.01281750    -0.07446800
Spot 2    -0.01235198     0.01281333    -0.07446800
Spot 1    -0.01255698     0.01281757    -0.07446800
Spot 2    -0.01235195     0.01281318    -0.07446800
Spot 1    -0.01255698     0.01281734    -0.07446800
Spot 2    -0.01235219     0.01281321    -0.07446800
Spot 1    -0.01255711     0.01281745    -0.07446800
Spot 2    -0.01235170     0.01281324    -0.07446800
20MABNDB000001_PR017
Spot 1    -0.01230279    -0.01351763    -0.07418400
Spot 2    -0.01193389    -0.01351115    -0.07418400
Spot 1    -0.01230279    -0.01351772    -0.07418400
Spot 2    -0.01193407    -0.01351136    -0.07418400
Spot 1    -0.01230290    -0.01351768    -0.07418400
Spot 2    -0.01193371    -0.01351143    -0.07418400
Spot 1    -0.01230287    -0.01351767    -0.07418400
Spot 2    -0.01193442    -0.01351141    -0.07418400
20MABNDB000260_PR019
Spot 1    -0.01241106    -0.01240872    -0.07492700
Spot 2    -0.01220722    -0.01240366    -0.07492700
Spot 1    -0.01241080    -0.01240847    -0.07492700
Spot 2    -0.01220692    -0.01240363    -0.07492700
Spot 1    -0.01241109    -0.01240836    -0.07492700
Spot 2    -0.01220720    -0.01240365    -0.07492700
Spot 1    -0.01241119    -0.01240872    -0.07492700
Spot 2    -0.01220746    -0.01240392    -0.07492700
20MABNDB000135_PR027
Spot 1    -0.01251344    -0.01318922    -0.07464700
Spot 2    -0.01229490    -0.01318902    -0.07464700
Spot 1    -0.01251357    -0.01318935    -0.07464700
Spot 2    -0.01229512    -0.01318898    -0.07464700
Spot 1    -0.01251337    -0.01318925    -0.07464700
Spot 2    -0.01229486    -0.01318930    -0.07464700
Spot 1    -0.01251343    -0.01318926    -0.07464700
Spot 2    -0.01229482    -0.01318913    -0.07464700
20MABNDB000126_PR028
Spot 1    -0.01253531    -0.01218108    -0.07500400
Spot 2    -0.01225368    -0.01217709    -0.07500400
Spot 1    -0.01253511    -0.01218091    -0.07500400
Spot 2    -0.01225366    -0.01217707    -0.07500400
Spot 1    -0.01253515    -0.01218105    -0.07500400
Spot 2    -0.01225357    -0.01217699    -0.07500400
Spot 1    -0.01253497    -0.01218089    -0.07500400
Spot 2    -0.01225367    -0.01217709    -0.07500400
20MABNDA000272_PR038
Spot 1    -0.01275953     0.01314885    -0.07417900
Spot 2    -0.01253769     0.01314991    -0.07417900
Spot 1    -0.01275943     0.01314858    -0.07417900
Spot 2    -0.01253753     0.01314973    -0.07417900
Spot 1    -0.01275953     0.01314882    -0.07417900
Spot 2    -0.01253743     0.01314989    -0.07417900
Spot 1    -0.01275961     0.01314875    -0.07417900
Spot 2    -0.01253731     0.01314996    -0.07417900
20MABNDA000003_PR039
Spot 1    -0.01280240     0.01213142    -0.07373400
Spot 2    -0.01308026     0.01213244    -0.07373400
Spot 1    -0.01280263     0.01213158    -0.07373400
Spot 2    -0.01308008     0.01213227    -0.07373400
Spot 1    -0.01280260     0.01213173    -0.07373400
Spot 2    -0.01308014     0.01213232    -0.07373400
Spot 1    -0.01280254     0.01213136    -0.07373400
Spot 2    -0.01308011     0.01213241    -0.07373400
20MABNDA000318_PR004
Spot 1    -0.01286713     0.01246351    -0.07310600
Spot 2    -0.01264926     0.01246269    -0.07310600
Spot 1    -0.01286696     0.01246336    -0.07310600
Spot 2    -0.01264947     0.01246270    -0.07310600
Spot 1    -0.01286709     0.01246319    -0.07310600
Spot 2    -0.01264928     0.01246281    -0.07310600
Spot 1    -0.01286694     0.01246337    -0.07310600
Spot 2    -0.01264955     0.01246270    -0.07310600
20MABNDA000334_PR005
Spot 1    -0.01311765     0.01254745    -0.07324100
Spot 2    -0.01283706     0.01254679    -0.07324100
Spot 1    -0.01311738     0.01254754    -0.07324100
Spot 2    -0.01283697     0.01254682    -0.07324100
Spot 1    -0.01311747     0.01254766    -0.07324100
Spot 2    -0.01283744     0.01254689    -0.07324100
Spot 1    -0.01311743     0.01254757    -0.07324100
Spot 2    -0.01283744     0.01254689    -0.07324100
20MABNDB000317_PR015
Spot 1    -0.01266617    -0.01248809    -0.07326100
Spot 2    -0.01244642    -0.01249208    -0.07326100
Spot 1    -0.01266608    -0.01248805    -0.07326100
Spot 2    -0.01244653    -0.01249230    -0.07326100
Spot 1    -0.01266594    -0.01248813    -0.07326100
Spot 2    -0.01244639    -0.01249196    -0.07326100
Spot 1    -0.01266611    -0.01248804    -0.07326100
Spot 2    -0.01244653    -0.01249224    -0.07326100
20MABNDB000146_PR016
Spot 1    -0.01276174    -0.01246166    -0.07450500
Spot 2    -0.01248702    -0.01245858    -0.07450500
Spot 1    -0.01276172    -0.01246161    -0.07450500
Spot 2    -0.01248677    -0.01245838    -0.07450500
Spot 1    -0.01276195    -0.01246167    -0.07450500
Spot 2    -0.01248670    -0.01245844    -0.07450500
Spot 1    -0.01276185    -0.01246163    -0.07450500
Spot 2    -0.01248662    -0.01245871    -0.07450500
20MABNDM000168_PR025
Spot 1    -0.01335211    -0.03465272    -0.00532900
Spot 2    -0.01335211    -0.03465272    -0.00532900
Spot 1    -0.01335211    -0.03465272    -0.00532900
Spot 2    -0.01335211    -0.03465272    -0.00532900
Spot 1    -0.01335211    -0.03465272    -0.00532900
Spot 2    -0.01335211    -0.03465272    -0.00532900
Spot 1    -0.01335211    -0.03465272    -0.00532900
Spot 2    -0.01335211    -0.03465272    -0.00532900
20MABNDM000168_PR026
Spot 1    -0.01162542    -0.03620531    -0.00532900
Spot 2    -0.01162542    -0.03620531    -0.00532900
Spot 1    -0.01162542    -0.03620531    -0.00532900
Spot 2    -0.01162542    -0.03620531    -0.00532900
Spot 1    -0.01162542    -0.03620531    -0.00532900
Spot 2    -0.01162542    -0.03620531    -0.00532900
Spot 1    -0.01162542    -0.03620531    -0.00532900
Spot 2    -0.01162542    -0.03620531    -0.00532900
20MABNDM000168_20MABNDL000077
Spot 1     0.01288765    -0.03529756    -0.07445100
Spot 2     0.01266918    -0.03529744    -0.07445100
Spot 1     0.01288777    -0.03529758    -0.07445100
Spot 2     0.01266903    -0.03529784    -0.07445100
Spot 1     0.01288748    -0.03529734    -0.07445100
Spot 2     0.01266910    -0.03529771    -0.07445100
Spot 1     0.01288770    -0.03529743    -0.07445100
Spot 2     0.01266913    -0.03529761    -0.07445100
20MABNDM000168_PR001
Spot 1     0.01361434    -0.03562720    -0.07445100
Spot 2     0.01371545    -0.03563347    -0.07445100
Spot 1     0.01361445    -0.03562733    -0.07445100
Spot 2     0.01371559    -0.03563364    -0.07445100
Spot 1     0.01361451    -0.03562733    -0.07445100
Spot 2     0.01371577    -0.03563357    -0.07445100
Spot 1     0.01361495    -0.03562721    -0.07445100
Spot 2     0.01371577    -0.03563351    -0.07445100
20MABNDL000196_PR036
Spot 1     0.01193889     0.03583356    -0.07483600
Spot 2     0.01210258     0.03583333    -0.07483600
Spot 1     0.01193872     0.03583374    -0.07483600
Spot 2     0.01210262     0.03583323    -0.07483600
Spot 1     0.01193877     0.03583376    -0.07483600
Spot 2     0.01210249     0.03583340    -0.07483600
Spot 1     0.01193870     0.03583388    -0.07483600
Spot 2     0.01210244     0.03583363    -0.07483600
20MABNDL000196_PR037
Spot 1     0.01346444     0.03535749    -0.07483600
Spot 2     0.01361846     0.03535599    -0.07483600
Spot 1     0.01346447     0.03535761    -0.07483600
Spot 2     0.01361830     0.03535608    -0.07483600
Spot 1     0.01346429     0.03535759    -0.07483600
Spot 2     0.01361826     0.03535612    -0.07483600
Spot 1     0.01346422     0.03535738    -0.07483600
Spot 2     0.01361838     0.03535610    -0.07483600
20MABNDL000196_20MABNDM000020
Spot 1    -0.01277560     0.03530040    -0.00611000
Spot 2    -0.01255403     0.03530442    -0.00611000
Spot 1    -0.01277563     0.03530030    -0.00611000
Spot 2    -0.01255399     0.03530457    -0.00611000
Spot 1    -0.01277588     0.03530017    -0.00611000
Spot 2    -0.01255404     0.03530449    -0.00611000
Spot 1    -0.01277592     0.03530022    -0.00611000
Spot 2    -0.01255405     0.03530453    -0.00611000
20MABNDL000196_PR012
Spot 1    -0.01113892     0.03432842    -0.00611000
Spot 2    -0.01423145     0.03429869    -0.00611000
Spot 1    -0.01384918     0.03431388    -0.00611000
Spot 2    -0.01396410     0.03430907    -0.00611000
Spot 1    -0.01397183     0.03494154    -0.00611000
Spot 2    -0.01356623     0.03562784    -0.00611000
Spot 1    -0.01397283     0.03494152    -0.00611000
Spot 2    -0.01272840     0.03428643    -0.00611000


*****************************************************************coordonnees du prisme dans le repere MOUNT********************************************************************************** 
20MABNDB000069_PR031
    0.09956169    -0.09724990     9.20324707
    0.09949155    -0.09731329     9.20324707
    0.09951797    -0.09720881     9.20324707
    0.09960191    -0.09730127     9.20324612
    0.09950170    -0.09727566     9.20324707
20MABNDB000069_PR033
   -0.02694146    -0.02593553     1.28394961
   -0.02694192    -0.02593629     1.28394961
   -0.02694331    -0.02593691     1.28394961
   -0.02694239    -0.02593738     1.28394961
   -0.02694216    -0.02593808     1.28394961
20MABNDB000131_PR032
   -0.18818597    -0.03093271    11.00641632
   -0.18818149    -0.03095314    11.00641632
   -0.18817928    -0.03095387    11.00641632
   -0.18815953    -0.03096107    11.00641632
   -0.18815953    -0.03096253    11.00641632
20MABNDB000131_PR034
    0.01417261     0.01493024     3.43339324
    0.01417142     0.01493958     3.43339300
    0.01417398     0.01493070     3.43339324
    0.01416212     0.01493224     3.43339324
20MABNDA000208_PR042
    0.13173524     0.01332709     9.20146084
    0.13170514     0.01337555     9.20146179
    0.13167992     0.01341910     9.20146179
    0.13157508     0.01333124     9.20146370
20MABNDA000208_PR046
   -0.02338148     0.03296690     1.28210926
   -0.02337961     0.03296665     1.28210926
   -0.02337969     0.03296776     1.28210926
   -0.02337884     0.03296845     1.28210926
20MABNDA000035_PR044
   -0.17947564     0.02818507    11.00802803
   -0.17951140     0.02819483    11.00802708
   -0.17945509     0.02819736    11.00802803
   -0.17948873     0.02819394    11.00802708
20MABNDA000035_PR045
    0.01475403    -0.01700542     3.43485355
    0.01475608    -0.01700681     3.43485355
    0.01474923    -0.01700676     3.43485355
    0.01475539    -0.01700657     3.43485355
20MABNDL000077_PR002
    0.04952419     0.02147959     3.70690966
    0.04953595     0.02147034     3.70690918
    0.04954946     0.02146156     3.70690918
    0.04954204     0.02146114     3.70690918
20MABNDL000077_PR003
    0.01389671     0.03695719     3.89605379
    0.01390858     0.03694903     3.89605379
    0.01391760     0.03694271     3.89605379
    0.01391334     0.03695885     3.89605379
20MABNDL000077_20MABNDM000168
   -0.00398435    -0.00496376    -5.46859360
   -0.00399653    -0.00497291    -5.46859360
   -0.00398600    -0.00497822    -5.46859360
   -0.00398774    -0.00498546    -5.46859360
20MABNDL000077_PR024
    0.05234236    -0.00342131    -5.89622498
    0.05232956    -0.00342690    -5.89622498
    0.05233892    -0.00342837    -5.89622498
    0.05233558    -0.00344477    -5.89622402
20MABNDM000020_PR013
   -0.00508913     0.01216132    -3.80216932
   -0.00509189     0.01221858    -3.80216837
   -0.00508207     0.01215626    -3.80216932
   -0.00510624     0.01219444    -3.80216908
20MABNDM000020_PR014
   -0.06760406     0.03174007    -4.74799824
   -0.06761160     0.03172869    -4.74799824
   -0.06760275     0.03170773    -4.74799871
   -0.06761388     0.03173362    -4.74799824
20MABNDM000020_20MABNDL000196
   -0.02601710    -0.08875567     5.39443254
   -0.02601388    -0.08876856     5.39443254
   -0.02600420    -0.08875746     5.39443254
   -0.02600528    -0.08875388     5.39443254
20MABNDM000020_PR035
   -0.04209964    -0.05460709     5.80100155
   -0.04210773    -0.05462520     5.80100060
   -0.04208422    -0.05465756     5.80100155
   -0.04205109    -0.05468028     5.80100155
20MABNDA000188_PR008
    0.12899831    -0.09474574     9.20333958
    0.16168207    -0.09394507     9.20278740
    0.12008077    -0.07576604     9.20367527
    0.16168207    -0.09394507     9.20278740
20MABNDA000188_PR018
   -0.01702324     0.02605726     1.28357768
   -0.01702267     0.02605443     1.28357768
   -0.01702469     0.02605762     1.28357768
   -0.01702206     0.02605529     1.28357768
20MABNDA000039_PR009
   -0.17138675     0.02466633    11.00701332
   -0.17140070     0.02465615    11.00701332
   -0.17138162     0.02467216    11.00701332
   -0.17136276     0.02463697    11.00701427
20MABNDA000039_PR011
    0.03053676    -0.02471181     3.43347216
    0.03053856    -0.02471706     3.43347168
    0.03053494    -0.02471112     3.43347216
    0.03053563    -0.02470816     3.43347216
20MABNDB000155_PR020
    0.10248134    -0.00816126     9.20027733
    0.10251348    -0.00813258     9.20027733
    0.10249416    -0.00815617     9.20027733
    0.10252732    -0.00811335     9.20027733
20MABNDB000155_PR022
   -0.02510535    -0.01662755     1.28071594
   -0.02510492    -0.01662763     1.28071594
   -0.02510646    -0.01662774     1.28071594
   -0.02510620    -0.01662731     1.28071594
20MABNDB000010_PR021
   -0.17567909    -0.03424217    11.00695229
   -0.17568004    -0.03427380    11.00695229
   -0.17570883    -0.03422208    11.00695229
   -0.17565571    -0.03423368    11.00695229
20MABNDB000010_PR023
    0.00458229     0.01936567     3.43377852
    0.00457941     0.01934636     3.43377924
    0.00457856     0.01935597     3.43377852
    0.00458346     0.01935101     3.43377852
20MABNDB000212_PR029
   -0.02595682    -0.00900447     1.64223480
   -0.02595768    -0.00900205     1.64223480
   -0.02595654    -0.00900821     1.64223480
   -0.02596159    -0.00900958     1.64223480
20MABNDB000128_PR030
   -0.01870942    -0.04701419     2.95496202
   -0.01871530    -0.04702031     2.95496202
   -0.01871412    -0.04702207     2.95496202
   -0.01870884    -0.04701282     2.95496225
20MABNDA000444_PR040
   -0.02943503     0.00134721     1.64492011
   -0.02943425     0.00135499     1.64492011
   -0.02943135     0.00135087     1.64492011
   -0.02943695     0.00135189     1.64492011
20MABNDA000053_PR041
   -0.02685509     0.05103754     2.95450330
   -0.02685845     0.05104663     2.95450306
   -0.02686065     0.05105453     2.95450306
   -0.02684817     0.05106037     2.95450306
20MABNDA000196_PR006
   -0.01038947     0.01053482     1.64206481
   -0.01039058     0.01053308     1.64206481
   -0.01038782     0.01053589     1.64206481
   -0.01039165     0.01053474     1.64206481
20MABNDA000324_PR007
   -0.02510613     0.02753630     2.95549393
   -0.02510909     0.02753786     2.95549393
   -0.02510421     0.02754183     2.95549393
   -0.02511146     0.02753902     2.95549393
20MABNDB000001_PR017
   -0.02411408    -0.00357783     1.64036429
   -0.02411208    -0.00357457     1.64036429
   -0.02411481    -0.00357422     1.64036429
   -0.02410738    -0.00357462     1.64036429
20MABNDB000260_PR019
   -0.02428197    -0.03802191     2.95627809
   -0.02429288    -0.03802745     2.95627809
   -0.02428182    -0.03802919     2.95627809
   -0.02427459    -0.03801684     2.95627809
20MABNDB000135_PR027
   -0.02101794    -0.01015442     2.74937153
   -0.02101168    -0.01015265     2.74937153
   -0.02101989    -0.01014871     2.74937153
   -0.02101956    -0.01015165     2.74937153
20MABNDB000126_PR028
   -0.02031489    -0.03874454     2.14679813
   -0.02031801    -0.03874726     2.14679766
   -0.02031873    -0.03874641     2.14679766
   -0.02031986    -0.03874727     2.14679766
20MABNDA000272_PR038
   -0.01320696     0.01120792     2.74965882
   -0.01321171     0.01121617     2.74965882
   -0.01321172     0.01120885     2.74965882
   -0.01321245     0.01120885     2.74965882
20MABNDA000003_PR039
   -0.00592286     0.04107100     2.14891768
   -0.00592214     0.04107114     2.14891768
   -0.00592172     0.04106828     2.14891768
   -0.00592300     0.04107228     2.14891768
20MABNDA000318_PR004
   -0.00840270     0.03862789     2.74965668
   -0.00840197     0.03863046     2.74965668
   -0.00840308     0.03863155     2.74965668
   -0.00840087     0.03863028     2.74965668
20MABNDA000334_PR005
   -0.00423478     0.03154565     2.14977312
   -0.00423992     0.03154395     2.14977312
   -0.00423193     0.03154122     2.14977312
   -0.00423250     0.03154251     2.14977312
20MABNDB000317_PR015
   -0.01738756    -0.03435411     2.75128746
   -0.01738705    -0.03435083     2.75128746
   -0.01739228    -0.03435562     2.75128746
   -0.01738649    -0.03435209     2.75128746
20MABNDB000146_PR016
   -0.01348282    -0.03177955     2.15201283
   -0.01348669    -0.03178315     2.15201283
   -0.01348440    -0.03178142     2.15201283
   -0.01348699    -0.03177812     2.15201283
20MABNDM000168_PR025
    0.02039144    -0.06973486    -3.78849745
    0.02039144    -0.06973486    -3.78849745
    0.02039144    -0.06973486    -3.78849745
    0.02039144    -0.06973486    -3.78849745
20MABNDM000168_PR026
   -0.06774618     0.00930901    -3.98396206
   -0.06774618     0.00930901    -3.98396206
   -0.06774618     0.00930901    -3.98396206
   -0.06774618     0.00930901    -3.98396206
20MABNDM000168_20MABNDL000077
    0.01136501    -0.03904682     5.38884640
    0.01136595    -0.03903175     5.38884640
    0.01137367    -0.03904480     5.38884640
    0.01136467    -0.03904539     5.38884640
20MABNDM000168_PR001
   -0.05747131    -0.01347857     5.81470490
   -0.05748083    -0.01346719     5.81470490
   -0.05749017    -0.01347016     5.81470394
   -0.05750733    -0.01347688     5.81470394
20MABNDL000196_PR036
    0.05075195     0.00568393     3.68777585
    0.05075514     0.00568197     3.68777585
    0.05075712     0.00567731     3.68777585
    0.05076008     0.00566872     3.68777585
20MABNDL000196_PR037
   -0.02586525     0.02872531     3.88380599
   -0.02586187     0.02871989     3.88380599
   -0.02585619     0.02871938     3.88380623
   -0.02585749     0.02872507     3.88380623
20MABNDL000196_20MABNDM000020
   -0.01386921     0.03897994    -5.47473907
   -0.01386989     0.03897814    -5.47473907
   -0.01385855     0.03898591    -5.47473907
   -0.01385705     0.03898270    -5.47473907
20MABNDL000196_PR012
   -0.01238008     0.11607723    -5.91522551
    0.08254386     0.11622785    -5.91444635
    0.07185957     0.04059513    -5.91515923
    0.03933940     0.09272749    -5.91526747


*****************************************************************coordonnees du prisme dans le repere ATLAS********************************************************************************** 
20MABNDB000069_PR031 0.00000000
    3.68130779     3.84870481    -7.84315062
    3.68123770     3.84870529    -7.84308720
    3.68126392     3.84870481    -7.84319162
    3.68134785     3.84870410    -7.84309912
    3.68124771     3.84870505    -7.84312487
20MABNDB000069_PR033 0.00000000
    3.53335762    -4.07045746    -7.87973595
    3.53335714    -4.07045746    -7.87973499
    3.53335571    -4.07045746    -7.87973452
    3.53335667    -4.07045746    -7.87973404
    3.53335690    -4.07045746    -7.87973309
20MABNDB000131_PR032 0.00000000
    3.86898804     3.64756608   -12.94157600
    3.86898351     3.64756608   -12.94159603
    3.86898136     3.64756608   -12.94159698
    3.86896157     3.64756608   -12.94160366
    3.86896157     3.64756608   -12.94160557
20MABNDB000131_PR034 0.00000000
    3.67361617    -3.92562366   -12.89301777
    3.67361736    -3.92562389   -12.89300823
    3.67361498    -3.92562366   -12.89301682
    3.67362666    -3.92562366   -12.89301491
20MABNDA000208_PR042 0.00000000
   -3.68181276     3.84913993    -7.89815903
   -3.68178272     3.84914088    -7.89811039
   -3.68175745     3.84914088    -7.89806700
   -3.68165255     3.84914255    -7.89815474
20MABNDA000208_PR046 0.00000000
   -3.53238320    -4.07031345    -7.87555122
   -3.53238487    -4.07031345    -7.87555170
   -3.53238487    -4.07031345    -7.87555075
   -3.53238583    -4.07031345    -7.87554979
20MABNDA000035_PR044 0.00000000
   -3.86871696     3.64758325   -12.93386459
   -3.86875272     3.64758229   -12.93387413
   -3.86869621     3.64758325   -12.93387604
   -3.86873007     3.64758229   -12.93387318
20MABNDA000035_PR045 0.00000000
   -3.67597461    -3.92563367   -12.88937855
   -3.67597270    -3.92563367   -12.88937759
   -3.67597938    -3.92563367   -12.88937759
   -3.67597342    -3.92563367   -12.88937759
20MABNDL000077_PR002 0.00000000
    2.83556128    -3.69499278     6.48618984
    2.83557057    -3.69498110     6.48618937
    2.83557940    -3.69496751     6.48618937
    2.83557963    -3.69497490     6.48618937
20MABNDL000077_PR003 0.00000000
    2.82025790    -3.73084855     6.67530489
    2.82026601    -3.73083687     6.67530489
    2.82027221    -3.73082781     6.67530489
    2.82025623    -3.73083210     6.67530489
20MABNDL000077_20MABNDM000168 0.00000000
    2.85298753    -3.73718905    -2.68939376
    2.85299659    -3.73720121    -2.68939376
    2.85300207    -3.73719072    -2.68939376
    2.85300922    -3.73719239    -2.68939376
20MABNDL000077_PR024 0.00000000
    2.85104370    -3.68033433    -3.11695361
    2.85104918    -3.68034697    -3.11695361
    2.85105062    -3.68033767    -3.11695361
    2.85106707    -3.68034101    -3.11695266
20MABNDM000020_PR013 0.00000000
   -2.86447024    -3.73438549     6.48601913
   -2.86452746    -3.73438263     6.48601818
   -2.86446524    -3.73439240     6.48601913
   -2.86450338    -3.73436832     6.48601866
20MABNDM000020_PR014 0.00000000
   -2.88384056    -3.67258382     7.43189907
   -2.88382936    -3.67257643     7.43189907
   -2.88380837    -3.67258525     7.43189955
   -2.88383412    -3.67257404     7.43189907
20MABNDM000020_20MABNDL000196 0.00000000
   -2.76538730    -3.70649409    -2.71058440
   -2.76537442    -3.70649719    -2.71058440
   -2.76538563    -3.70650697    -2.71058440
   -2.76538920    -3.70650578    -2.71058440
20MABNDM000020_PR035 0.00000000
   -2.79961228    -3.69009185    -3.11713409
   -2.79959416    -3.69008374    -3.11713314
   -2.79956198    -3.69010711    -3.11713409
   -2.79953909    -3.69014025    -3.11713433
20MABNDA000188_PR008 0.00000000
    3.54177952     3.84863997     8.10601807
    3.57447624     3.84859705     8.10570526
    3.53314281     3.84904885     8.08691025
    3.57447624     3.84859705     8.10570526
20MABNDA000188_PR018 0.00000000
    3.52011752    -4.07061148     7.89737892
    3.52011800    -4.07061148     7.89738178
    3.52011609    -4.07061148     7.89737844
    3.52011871    -4.07061148     7.89738083
20MABNDA000039_PR009 0.00000000
    3.87555885     3.64747143    12.93596077
    3.87557268     3.64747143    12.93595028
    3.87555361     3.64747143    12.93596649
    3.87553477     3.64747238    12.93593121
20MABNDA000039_PR011 0.00000000
    3.66448736    -3.92580390    12.88412476
    3.66448569    -3.92580438    12.88411999
    3.66448927    -3.92580390    12.88412571
    3.66448855    -3.92580390    12.88412857
20MABNDB000155_PR020 0.00000000
   -3.68113399     3.84880972     7.89870596
   -3.68116617     3.84880948     7.89873457
   -3.68114686     3.84880972     7.89871073
   -3.68118000     3.84880948     7.89875364
20MABNDB000155_PR022 0.00000000
   -3.53487563    -4.07042980     7.89143133
   -3.53487587    -4.07042980     7.89143133
   -3.53487444    -4.07042980     7.89143133
   -3.53487468    -4.07042980     7.89143181
20MABNDB000010_PR021 0.00000000
   -3.86151576     3.64768982    12.93607140
   -3.86151671     3.64768982    12.93610287
   -3.86154556     3.64768982    12.93605137
   -3.86149240     3.64768958    12.93606281
20MABNDB000010_PR023 0.00000000
   -3.68508339    -3.92559791    12.88591003
   -3.68508625    -3.92559719    12.88592911
   -3.68508697    -3.92559791    12.88591957
   -3.68508220    -3.92559791    12.88592434
20MABNDB000212_PR029 0.00000000
    2.59963465    -4.19501352    -6.54799223
    2.59963536    -4.19501352    -6.54798985
    2.59963417    -4.19501352    -6.54799604
    2.59963942    -4.19501352    -6.54799747
20MABNDB000128_PR030 0.00000000
    2.61014938    -4.14002848    -6.93110657
    2.61014342    -4.14002848    -6.93110085
    2.61014462    -4.14002848    -6.93109894
    2.61014986    -4.14002800    -6.93110800
20MABNDA000444_PR040 0.00000000
   -2.60460758    -4.19508934    -6.54052734
   -2.60460687    -4.19508934    -6.54053545
   -2.60460401    -4.19508934    -6.54053116
   -2.60460949    -4.19508934    -6.54053211
20MABNDA000053_PR041 0.00000000
   -2.59368682    -4.14012766    -6.92687607
   -2.59368348    -4.14012814    -6.92686701
   -2.59368134    -4.14012814    -6.92685890
   -2.59369373    -4.14012814    -6.92685318
20MABNDA000196_PR006 0.00000000
    2.58484983    -4.19496298     6.54849148
    2.58485103    -4.19496298     6.54848957
    2.58484840    -4.19496298     6.54849243
    2.58485222    -4.19496298     6.54849148
20MABNDA000324_PR007 0.00000000
    2.59420872    -4.13996410     6.94837904
    2.59420562    -4.13996410     6.94837713
    2.59421062    -4.13996410     6.94837332
    2.59420323    -4.13996410     6.94837618
20MABNDB000001_PR017 0.00000000
   -2.59781575    -4.19505119     6.53890610
   -2.59781361    -4.19505119     6.53890276
   -2.59781647    -4.19505119     6.53890228
   -2.59780884    -4.19505119     6.53890276
20MABNDB000260_PR019 0.00000000
   -2.60448003    -4.13995647     6.94262218
   -2.60446906    -4.13995647     6.94261646
   -2.60448027    -4.13995647     6.94261456
   -2.60448742    -4.13995647     6.94262695
20MABNDB000135_PR027 0.00000000
    2.60384536    -4.19700384    -3.82520652
    2.60385156    -4.19700384    -3.82520819
    2.60384345    -4.19700384    -3.82521224
    2.60384369    -4.19700384    -3.82520914
20MABNDB000126_PR028 0.00000000
    2.60560226    -4.19701910    -5.89347553
    2.60559916    -4.19701958    -5.89347267
    2.60559845    -4.19701958    -5.89347363
    2.60559726    -4.19701958    -5.89347267
20MABNDA000272_PR038 0.00000000
   -2.61132979    -4.19698286    -3.82727647
   -2.61132503    -4.19698286    -3.82726812
   -2.61132503    -4.19698286    -3.82727551
   -2.61132431    -4.19698286    -3.82727551
20MABNDA000003_PR039 0.00000000
   -2.61580825    -4.19701958    -5.89169550
   -2.61580896    -4.19701958    -5.89169550
   -2.61580944    -4.19701958    -5.89169836
   -2.61580825    -4.19701958    -5.89169455
20MABNDA000318_PR004 0.00000000
    2.61460042    -4.19698811     3.83337069
    2.61460114    -4.19698811     3.83336806
    2.61460018    -4.19698811     3.83336711
    2.61460233    -4.19698811     3.83336830
20MABNDA000334_PR005 0.00000000
    2.61676383    -4.19703007     5.89771509
    2.61675858    -4.19703007     5.89771700
    2.61676669    -4.19703007     5.89771986
    2.61676598    -4.19703007     5.89771843
20MABNDB000317_PR015 0.00000000
   -2.61121964    -4.19700384     3.83566141
   -2.61122012    -4.19700384     3.83566451
   -2.61121488    -4.19700384     3.83565974
   -2.61122060    -4.19700384     3.83566332
20MABNDB000146_PR016 0.00000000
   -2.61281228    -4.19702482     5.89857054
   -2.61280847    -4.19702482     5.89856720
   -2.61281085    -4.19702482     5.89856863
   -2.61280823    -4.19702482     5.89857197
20MABNDM000168_PR025 0.00000000
    2.78350139    -3.76570773    -6.47911263
    2.78350139    -3.76570773    -6.47911263
    2.78350139    -3.76570773    -6.47911263
    2.78350139    -3.76570773    -6.47911263
20MABNDM000168_PR026 0.00000000
    2.86255670    -3.67766356    -6.67461491
    2.86255670    -3.67766356    -6.67461491
    2.86255670    -3.67766356    -6.67461491
    2.86255670    -3.67766356    -6.67461491
20MABNDM000168_20MABNDL000077 0.00000000
    2.81474876    -3.75327706     2.69822550
    2.81476378    -3.75327802     2.69822550
    2.81475067    -3.75328565     2.69822550
    2.81475019    -3.75327659     2.69822550
20MABNDM000168_PR001 0.00000000
    2.84036112    -3.68428922     3.12405682
    2.84037232    -3.68427968     3.12405682
    2.84036946    -3.68427038     3.12405586
    2.84036279    -3.68425322     3.12405586
20MABNDL000196_PR036 0.00000000
   -2.84792328    -3.69352269    -6.47909880
   -2.84792519    -3.69351959    -6.47909880
   -2.84792995    -3.69351745    -6.47909880
   -2.84793854    -3.69351459    -6.47909880
20MABNDL000196_PR037 0.00000000
   -2.82485056    -3.77031136    -6.67505789
   -2.82485604    -3.77030802    -6.67505789
   -2.82485652    -3.77030230    -6.67505836
   -2.82485080    -3.77030373    -6.67505836
20MABNDL000196_20MABNDM000020 0.00000000
   -2.81439924    -3.74960542     2.68347168
   -2.81440115    -3.74960613     2.68347168
   -2.81439328    -3.74959469     2.68347168
   -2.81439638    -3.74959326     2.68347168
20MABNDL000196_PR012 0.00000000
   -2.73729324    -3.74767065     3.12395477
   -2.73718667    -3.65274739     3.12308741
   -2.81281447    -3.66346622     3.12381196
   -2.76066685    -3.69596195     3.12394929


*****************************************************************Rapport********************************************************************************** 
CAM-ECTC-US-IP_ECTC-US-IP-T    2016.04.24.02.24.26     3.68128099     3.84870481    -7.84313068     0.00004114     0.00000040     0.00003750 0.00000000 VRAI 
CAM-ECTC-US-IP_ECTC-US-IP      2016.04.24.02.24.26     3.53335681    -4.07045746    -7.87973452     0.00000063     0.00000000     0.00000095 0.00000000 VRAI 
CAM-ECTC-US-HO_ECTC-US-HO-T    2016.04.24.02.24.26     3.86897521     3.64756608   -12.94159565     0.00001134     0.00000000     0.00001049 0.00000000 VRAI 
CAM-ECTC-US-HO_ECTC-US-HO      2016.04.24.02.24.26     3.67361879    -3.92562371   -12.89301443     0.00000462     0.00000010     0.00000372 0.00000000 VRAI 
CAM-ECTC-USA-IP_ECTC-USA-IP-T  2016.04.24.02.24.26    -3.68175137     3.84914106    -7.89812279     0.00006032     0.00000094     0.00003742 0.00000000 VRAI 
CAM-ECTC-USA-IP_ECTC-USA-IP    2016.04.24.02.24.26    -3.53238469    -4.07031345    -7.87555087     0.00000094     0.00000000     0.00000071 0.00000000 VRAI 
CAM-ECTC-USA-HO_ECTC-USA-HO-T  2016.04.24.02.24.26    -3.86872399     3.64758277   -12.93387198     0.00002051     0.00000048     0.00000439 0.00000000 VRAI 
CAM-ECTC-USA-HO_ECTC-USA-HO    2016.04.24.02.24.26    -3.67597502    -3.92563367   -12.88937783     0.00000260     0.00000000     0.00000041 0.00000000 VRAI 
CAM-LBA-US_EBA-US-HO-H         2016.04.24.02.24.26     2.83557272    -3.69497907     6.48618948     0.00000755     0.00000926     0.00000021 0.00000000 VRAI 
CAM-LBA-US_JDA-US-H            2016.04.24.02.24.26     2.82026309    -3.73083633     6.67530489     0.00000643     0.00000775     0.00000000 0.00000000 VRAI 
CAM-LBA-US_CAM-LBC-US          2016.04.24.02.24.26     2.85299885    -3.73719335    -2.68939376     0.00000793     0.00000469     0.00000000 0.00000000 VRAI 
CAM-LBA-US_EBC-US-IP-H         2016.04.24.02.24.26     2.85105264    -3.68033999    -3.11695337     0.00000872     0.00000467     0.00000041 0.00000000 VRAI 
CAM-LBA-USA_EBA-USA-HO-H       2016.04.24.02.24.26    -2.86449158    -3.73438221     6.48601878     0.00002538     0.00000877     0.00000040 0.00000000 VRAI 
CAM-LBA-USA_JDA-USA-H          2016.04.24.02.24.26    -2.88382810    -3.67257988     7.43189919     0.00001206     0.00000475     0.00000021 0.00000000 VRAI 
CAM-LBA-USA_CAM-LBC-USA        2016.04.24.02.24.26    -2.76538414    -3.70650101    -2.71058440     0.00000575     0.00000549     0.00000000 0.00000000 VRAI 
CAM-LBA-USA_EBC-USA-IP-H       2016.04.24.02.24.26    -2.79957688    -3.69010574    -3.11713392     0.00002829     0.00002162     0.00000046 0.00000000 VRAI 
CAM-ECTA-US-IP_ECTA-US-IP-T    2016.04.24.02.24.26     3.55596870     3.84872073     8.10108471     0.01875775     0.00019025     0.00818463 0.00000000 VRAI 
CAM-ECTA-US-IP_ECTA-US-IP      2016.04.24.02.24.26     3.52011758    -4.07061148     7.89737999     0.00000096     0.00000000     0.00000136 0.00000000 VRAI 
CAM-ECTA-US-HO_ECTA-US-HO-T    2016.04.24.02.24.26     3.87555498     3.64747167    12.93595219     0.00001359     0.00000041     0.00001344 0.00000000 VRAI 
CAM-ECTA-US-HO_ECTA-US-HO      2016.04.24.02.24.26     3.66448772    -3.92580402    12.88412476     0.00000135     0.00000021     0.00000309 0.00000000 VRAI 
CAM-ECTA-USA-IP_ECTA-USA-IP-T  2016.04.24.02.24.26    -3.68115675     3.84880960     7.89872622     0.00001764     0.00000012     0.00001918 0.00000000 VRAI 
CAM-ECTA-USA-IP_ECTA-USA-IP    2016.04.24.02.24.26    -3.53487515    -4.07042980     7.89143145     0.00000061     0.00000000     0.00000021 0.00000000 VRAI 
CAM-ECTA-USA-HO_ECTA-USA-HO-T  2016.04.24.02.24.26    -3.86151761     3.64768976    12.93607211     0.00001885     0.00000010     0.00001913 0.00000000 VRAI 
CAM-ECTA-USA-HO_ECTA-USA-HO    2016.04.24.02.24.26    -3.68508470    -3.92559773    12.88592076     0.00000197     0.00000031     0.00000705 0.00000000 VRAI 
CAM-JDC-US-IP_JDC-US-IP        2016.04.24.02.24.26     2.59963590    -4.19501352    -6.54799390     0.00000207     0.00000000     0.00000303 0.00000000 VRAI 
CAM-JDC-US-HO_JDC-US-HO        2016.04.24.02.24.26     2.61014682    -4.14002836    -6.93110359     0.00000284     0.00000021     0.00000379 0.00000000 VRAI 
CAM-JDC-USA-IP_JDC-USA-IP      2016.04.24.02.24.26    -2.60460699    -4.19508934    -6.54053152     0.00000197     0.00000000     0.00000289 0.00000000 VRAI 
CAM-JDC-USA-HO_JDC-USA-HO      2016.04.24.02.24.26    -2.59368634    -4.14012802    -6.92686379     0.00000469     0.00000021     0.00000863 0.00000000 VRAI 
CAM-JDA-US-IP_JDA-US-IP        2016.04.24.02.24.26     2.58485037    -4.19496298     6.54849124     0.00000141     0.00000000     0.00000104 0.00000000 VRAI 
CAM-JDA-US-HO_JDA-US-HO        2016.04.24.02.24.26     2.59420705    -4.13996410     6.94837642     0.00000284     0.00000000     0.00000206 0.00000000 VRAI 
CAM-JDA-USA-IP_JDA-USA-IP      2016.04.24.02.24.26    -2.59781367    -4.19505119     6.53890347     0.00000298     0.00000000     0.00000153 0.00000000 VRAI 
CAM-JDA-USA-HO_JDA-USA-HO      2016.04.24.02.24.26    -2.60447919    -4.13995647     6.94262004     0.00000656     0.00000000     0.00000488 0.00000000 VRAI 
CAM-EBC-US-IP_EBC-US-IP        2016.04.24.02.24.26     2.60384601    -4.19700384    -3.82520902     0.00000328     0.00000000     0.00000208 0.00000000 VRAI 
CAM-EBC-US-HO_EBC-US-HO        2016.04.24.02.24.26     2.60559928    -4.19701946    -5.89347363     0.00000185     0.00000021     0.00000117 0.00000000 VRAI 
CAM-EBC-USA-IP_EBC-USA-IP      2016.04.24.02.24.26    -2.61132604    -4.19698286    -3.82727391     0.00000219     0.00000000     0.00000336 0.00000000 VRAI 
CAM-EBC-USA-HO_EBC-USA-HO      2016.04.24.02.24.26    -2.61580873    -4.19701958    -5.89169598     0.00000051     0.00000000     0.00000143 0.00000000 VRAI 
CAM-EBA-US-IP_EBA-US-IP        2016.04.24.02.24.26     2.61460102    -4.19698811     3.83336854     0.00000083     0.00000000     0.00000132 0.00000000 VRAI 
CAM-EBA-US-HO_EBA-US-HO        2016.04.24.02.24.26     2.61676377    -4.19703007     5.89771760     0.00000317     0.00000000     0.00000176 0.00000000 VRAI 
CAM-EBA-USA-IP_EBA-USA-IP      2016.04.24.02.24.26    -2.61121881    -4.19700384     3.83566225     0.00000230     0.00000000     0.00000182 0.00000000 VRAI 
CAM-EBA-USA-HO_EBA-USA-HO      2016.04.24.02.24.26    -2.61280996    -4.19702482     5.89856958     0.00000169     0.00000000     0.00000182 0.00000000 VRAI 
CAM-LBC-US_EBC-US-HO-H         2016.04.24.02.24.26     2.78350139    -3.76570773    -6.47911263     0.00000000     0.00000000     0.00000000 0.00000000 VRAI 
CAM-LBC-US_JDC-US-H            2016.04.24.02.24.26     2.86255670    -3.67766356    -6.67461491     0.00000000     0.00000000     0.00000000 0.00000000 VRAI 
CAM-LBC-US_CAM-LBA-US          2016.04.24.02.24.26     2.81475335    -3.75327933     2.69822550     0.00000606     0.00000368     0.00000000 0.00000000 VRAI 
CAM-LBC-US_EBA-US-IP-H         2016.04.24.02.24.26     2.84036642    -3.68427312     3.12405634     0.00000462     0.00001328     0.00000048 0.00000000 VRAI 
CAM-LBC-USA_EBC-USA-HO-H       2016.04.24.02.24.26    -2.84792924    -3.69351858    -6.47909880     0.00000589     0.00000297     0.00000000 0.00000000 VRAI 
CAM-LBC-USA_JDC-USA-H          2016.04.24.02.24.26    -2.82485348    -3.77030635    -6.67505813     0.00000281     0.00000358     0.00000024 0.00000000 VRAI 
CAM-LBC-USA_CAM-LBA-USA        2016.04.24.02.24.26    -2.81439751    -3.74959987     2.68347168     0.00000297     0.00000593     0.00000000 0.00000000 VRAI 
CAM-LBC-USA_EBA-USA-IP-H       2016.04.24.02.24.26    -2.76199031    -3.68996155     3.12370086     0.03086265     0.03692303     0.00035877 0.00000000 VRAI 
