********** Fichier qui contient une sauvegarde des coordonnees images + coordonnees images transformees dans le repere BCAM (MOUNT) + coordonnees des prismes dans le repere MOUNT********** 
********************************************************************** Unite en metres (m)************************************************************************************************** 

*******************************************************************coordonnees images dans le repere CCD *********************************************************************************** 
20MABNDB000069_PR031
Spot 1     0.00021500     0.00240500
Spot 2     0.00043432     0.00135682
Spot 1     0.00021500     0.00240500
Spot 2     0.00043398     0.00135806
Spot 1     0.00021500     0.00240500
Spot 2     0.00043423     0.00135731
Spot 1     0.00021500     0.00240500
Spot 2     0.00043339     0.00135786
Spot 1     0.00021500     0.00240500
Spot 2     0.00043363     0.00135676
20MABNDB000069_PR033
Spot 1     0.00183403     0.00201044
Spot 2     0.00230303     0.00203013
Spot 1     0.00183374     0.00201057
Spot 2     0.00230312     0.00203003
Spot 1     0.00183398     0.00201048
Spot 2     0.00230312     0.00203013
Spot 1     0.00183392     0.00201050
Spot 2     0.00230332     0.00203024
Spot 1     0.00183398     0.00201063
Spot 2     0.00230319     0.00203013
20MABNDB000131_PR032
Spot 1     0.00277884     0.00108561
Spot 2     0.00283829     0.00108862
Spot 1     0.00277883     0.00108563
Spot 2     0.00283839     0.00108877
Spot 1     0.00277888     0.00108567
Spot 2     0.00283830     0.00108908
Spot 1     0.00277903     0.00108555
Spot 2     0.00283818     0.00108895
Spot 1     0.00277888     0.00108570
Spot 2     0.00283824     0.00108908
20MABNDB000131_PR034
Spot 1     0.00092800     0.00035892
Spot 2     0.00110347     0.00035753
Spot 1     0.00092798     0.00035899
Spot 2     0.00110367     0.00035736
Spot 1     0.00092802     0.00035856
Spot 2     0.00110344     0.00035777
Spot 1     0.00092803     0.00035885
Spot 2     0.00110365     0.00035756
Spot 1     0.00092795     0.00035906
Spot 2     0.00110372     0.00035770
20MABNDA000208_PR042
Spot 1     0.00305163     0.00094205
Spot 2     0.00298519     0.00094261
Spot 1     0.00305284     0.00094202
Spot 2     0.00298560     0.00094335
Spot 1     0.00305221     0.00094226
Spot 2     0.00298526     0.00094278
Spot 1     0.00305255     0.00094240
Spot 2     0.00298580     0.00094297
Spot 1     0.00305214     0.00094217
Spot 2     0.00298620     0.00094347
20MABNDA000208_PR046
Spot 1     0.00145528     0.00210400
Spot 2     0.00098091     0.00210715
Spot 1     0.00145528     0.00210420
Spot 2     0.00098057     0.00210714
Spot 1     0.00145539     0.00210407
Spot 2     0.00098082     0.00210739
Spot 1     0.00145529     0.00210392
Spot 2     0.00098073     0.00210759
Spot 1     0.00145531     0.00210392
Spot 2     0.00098103     0.00210724
20MABNDA000035_PR044
Spot 1     0.00074022     0.00126696
Spot 2     0.00068616     0.00126101
Spot 1     0.00074010     0.00126694
Spot 2     0.00068612     0.00126110
Spot 1     0.00074044     0.00126698
Spot 2     0.00068620     0.00126123
Spot 1     0.00073996     0.00126684
Spot 2     0.00068597     0.00126114
Spot 1     0.00074018     0.00126701
Spot 2     0.00068620     0.00126117
20MABNDA000035_PR045
Spot 1     0.00254823     0.00051460
Spot 2     0.00237145     0.00051285
Spot 1     0.00254810     0.00051478
Spot 2     0.00237145     0.00051275
Spot 1     0.00254803     0.00051468
Spot 2     0.00237145     0.00051279
Spot 1     0.00254802     0.00051482
Spot 2     0.00237155     0.00051288
Spot 1     0.00254817     0.00051464
Spot 2     0.00237159     0.00051282
20MABNDL000077_PR002
Spot 1     0.00079506     0.00149641
Spot 2     0.00095759     0.00149434
Spot 1     0.00079462     0.00149693
Spot 2     0.00095724     0.00149473
Spot 1     0.00079480     0.00149702
Spot 2     0.00095706     0.00149464
Spot 1     0.00079480     0.00149697
Spot 2     0.00095686     0.00149473
Spot 1     0.00079482     0.00149704
Spot 2     0.00095713     0.00149486
20MABNDL000077_PR003
Spot 1     0.00152690     0.00118886
Spot 2     0.00167618     0.00119146
Spot 1     0.00152655     0.00118896
Spot 2     0.00167602     0.00119151
Spot 1     0.00152658     0.00118889
Spot 2     0.00167587     0.00119141
Spot 1     0.00152653     0.00118913
Spot 2     0.00167577     0.00119162
Spot 1     0.00152673     0.00118891
Spot 2     0.00167608     0.00119157
20MABNDL000077_20MABNDM000168
Spot 1     0.00188377     0.00148500
Spot 2     0.00167700     0.00159950
Spot 1     0.00188403     0.00148513
Spot 2     0.00167735     0.00160088
Spot 1     0.00188376     0.00148540
Spot 2     0.00167735     0.00160088
Spot 1     0.00188389     0.00148559
Spot 2     0.00167711     0.00160026
Spot 1     0.00188406     0.00148547
Spot 2     0.00167735     0.00160088
20MABNDL000077_PR024
Spot 1     0.00262803     0.00171382
Spot 2     0.00272982     0.00171829
Spot 1     0.00262835     0.00171398
Spot 2     0.00272962     0.00171819
Spot 1     0.00262839     0.00171417
Spot 2     0.00272958     0.00171836
Spot 1     0.00262811     0.00171442
Spot 2     0.00272947     0.00171827
Spot 1     0.00262832     0.00171441
Spot 2     0.00272978     0.00171834
20MABNDM000020_PR013
Spot 1     0.00164154     0.00213804
Spot 2     0.00148912     0.00214448
Spot 1     0.00164099     0.00213875
Spot 2     0.00148961     0.00214456
Spot 1     0.00164140     0.00213849
Spot 2     0.00148905     0.00214498
Spot 1     0.00164138     0.00213909
Spot 2     0.00148886     0.00214490
20MABNDM000020_PR014
Spot 1     0.00267931     0.00227851
Spot 2     0.00251720     0.00228563
Spot 1     0.00267912     0.00227826
Spot 2     0.00251681     0.00228609
Spot 1     0.00267911     0.00227875
Spot 2     0.00251683     0.00228664
Spot 1     0.00267894     0.00227868
Spot 2     0.00251697     0.00228596
20MABNDM000020_20MABNDL000196
Spot 1     0.00200161     0.00057935
Spot 2     0.00080500     0.00021500
Spot 1     0.00200167     0.00057933
Spot 2     0.00080500     0.00021500
Spot 1     0.00200149     0.00057935
Spot 2     0.00080500     0.00021500
Spot 1     0.00200137     0.00057944
Spot 2     0.00080500     0.00021500
20MABNDM000020_PR035
Spot 1     0.00126900     0.00087651
Spot 2     0.00119575     0.00090788
Spot 1     0.00126888     0.00087622
Spot 2     0.00119567     0.00090787
Spot 1     0.00126973     0.00087519
Spot 2     0.00119569     0.00090770
Spot 1     0.00127011     0.00087470
Spot 2     0.00119607     0.00090744
20MABNDA000188_PR008
Spot 1     0.00283500     0.00012500
Spot 2     0.00283500     0.00012500
Spot 1     0.00283500     0.00012500
Spot 2     0.00283500     0.00012500
Spot 1     0.00283500     0.00012500
Spot 2     0.00336700     0.00014500
Spot 1     0.00283500     0.00012500
Spot 2     0.00283500     0.00012500
20MABNDA000188_PR018
Spot 1     0.00164743     0.00174986
Spot 2     0.00118045     0.00174690
Spot 1     0.00164759     0.00174959
Spot 2     0.00118056     0.00174724
Spot 1     0.00164742     0.00174984
Spot 2     0.00118038     0.00174716
Spot 1     0.00164751     0.00174970
Spot 2     0.00118041     0.00174735
20MABNDA000039_PR009
Spot 1     0.00066246     0.00117362
Spot 2     0.00061481     0.00117788
Spot 1     0.00066258     0.00117350
Spot 2     0.00061488     0.00117801
Spot 1     0.00066234     0.00117333
Spot 2     0.00061504     0.00117794
Spot 1     0.00066244     0.00117344
Spot 2     0.00061572     0.00117789
20MABNDA000039_PR011
Spot 1     0.00276252     0.00027802
Spot 2     0.00258755     0.00027374
Spot 1     0.00276248     0.00027811
Spot 2     0.00258749     0.00027367
Spot 1     0.00276259     0.00027799
Spot 2     0.00258766     0.00027368
Spot 1     0.00276247     0.00027804
Spot 2     0.00258770     0.00027373
20MABNDB000155_PR020
Spot 1     0.00061885     0.00112300
Spot 2     0.00068068     0.00111979
Spot 1     0.00061821     0.00112303
Spot 2     0.00068095     0.00111895
Spot 1     0.00061751     0.00112278
Spot 2     0.00068152     0.00111946
Spot 1     0.00061821     0.00112313
Spot 2     0.00068007     0.00111949
20MABNDB000155_PR022
Spot 1     0.00208266     0.00134659
Spot 2     0.00255556     0.00134155
Spot 1     0.00208283     0.00134657
Spot 2     0.00255555     0.00134164
Spot 1     0.00208292     0.00134655
Spot 2     0.00255568     0.00134173
Spot 1     0.00208298     0.00134667
Spot 2     0.00255573     0.00134165
20MABNDB000010_PR021
Spot 1     0.00286691     0.00115695
Spot 2     0.00291920     0.00116004
Spot 1     0.00286633     0.00115640
Spot 2     0.00291966     0.00115940
Spot 1     0.00286643     0.00115643
Spot 2     0.00291956     0.00115945
Spot 1     0.00286643     0.00115654
Spot 2     0.00291956     0.00115959
20MABNDB000010_PR023
Spot 1     0.00130726     0.00033259
Spot 2     0.00148139     0.00033113
Spot 1     0.00130679     0.00033261
Spot 2     0.00148134     0.00033139
Spot 1     0.00130705     0.00033279
Spot 2     0.00148154     0.00033117
Spot 1     0.00130730     0.00033316
Spot 2     0.00148165     0.00033135
20MABNDB000212_PR029
Spot 1     0.00226168     0.00072588
Spot 2     0.00189531     0.00072594
Spot 1     0.00226163     0.00072598
Spot 2     0.00189516     0.00072595
Spot 1     0.00226170     0.00072569
Spot 2     0.00189547     0.00072625
Spot 1     0.00226159     0.00072583
Spot 2     0.00189579     0.00072611
20MABNDB000128_PR030
Spot 1     0.00188647     0.00200673
Spot 2     0.00209011     0.00200119
Spot 1     0.00188617     0.00200664
Spot 2     0.00209005     0.00200129
Spot 1     0.00188624     0.00200652
Spot 2     0.00208990     0.00200139
Spot 1     0.00188597     0.00200675
Spot 2     0.00209000     0.00200125
20MABNDA000444_PR040
Spot 1     0.00078292     0.00037324
Spot 2     0.00114871     0.00037161
Spot 1     0.00078306     0.00037315
Spot 2     0.00114903     0.00037210
Spot 1     0.00078276     0.00037292
Spot 2     0.00114844     0.00037139
Spot 1     0.00078297     0.00037297
Spot 2     0.00114873     0.00037178
20MABNDA000053_PR041
Spot 1     0.00164514     0.00199041
Spot 2     0.00144228     0.00198696
Spot 1     0.00164473     0.00199050
Spot 2     0.00144220     0.00198714
Spot 1     0.00164469     0.00199031
Spot 2     0.00144231     0.00198698
Spot 1     0.00164521     0.00199043
Spot 2     0.00144241     0.00198739
20MABNDA000196_PR006
Spot 1     0.00198576     0.00075825
Spot 2     0.00162040     0.00075364
Spot 1     0.00198567     0.00075779
Spot 2     0.00162087     0.00075355
Spot 1     0.00198585     0.00075817
Spot 2     0.00162056     0.00075355
Spot 1     0.00198571     0.00075810
Spot 2     0.00162083     0.00075349
20MABNDA000324_PR007
Spot 1     0.00195126     0.00120421
Spot 2     0.00174607     0.00120994
Spot 1     0.00195153     0.00120426
Spot 2     0.00174644     0.00121003
Spot 1     0.00195137     0.00120411
Spot 2     0.00174607     0.00121000
Spot 1     0.00195135     0.00120405
Spot 2     0.00174643     0.00121012
20MABNDB000001_PR017
Spot 1     0.00188514     0.00047195
Spot 2     0.00225403     0.00048226
Spot 1     0.00188519     0.00047179
Spot 2     0.00225389     0.00048198
Spot 1     0.00188519     0.00047182
Spot 2     0.00225391     0.00048203
Spot 1     0.00188505     0.00047182
Spot 2     0.00225387     0.00048194
20MABNDB000260_PR019
Spot 1     0.00192025     0.00149407
Spot 2     0.00212368     0.00149474
Spot 1     0.00192013     0.00149414
Spot 2     0.00212386     0.00149409
Spot 1     0.00192033     0.00149389
Spot 2     0.00212381     0.00149452
Spot 1     0.00192000     0.00149403
Spot 2     0.00212386     0.00149455
20MABNDB000135_PR027
Spot 1     0.00189107     0.00092368
Spot 2     0.00210969     0.00092667
Spot 1     0.00189113     0.00092399
Spot 2     0.00210965     0.00092641
Spot 1     0.00189115     0.00092372
Spot 2     0.00210978     0.00092643
Spot 1     0.00189128     0.00092370
Spot 2     0.00210971     0.00092644
20MABNDB000126_PR028
Spot 1     0.00164429     0.00200108
Spot 2     0.00192587     0.00200352
Spot 1     0.00164445     0.00200120
Spot 2     0.00192580     0.00200358
Spot 1     0.00164426     0.00200110
Spot 2     0.00192569     0.00200376
Spot 1     0.00164429     0.00200125
Spot 2     0.00192562     0.00200363
20MABNDA000272_PR038
Spot 1     0.00192399     0.00096272
Spot 2     0.00170161     0.00096124
Spot 1     0.00192376     0.00096252
Spot 2     0.00170182     0.00096126
Spot 1     0.00192421     0.00096221
Spot 2     0.00170193     0.00096114
Spot 1     0.00192386     0.00096265
Spot 2     0.00170192     0.00096107
20MABNDA000003_PR039
Spot 1     0.00200142     0.00192075
Spot 2     0.00227901     0.00192081
Spot 1     0.00200143     0.00192063
Spot 2     0.00227901     0.00192081
Spot 1     0.00200160     0.00192074
Spot 2     0.00227884     0.00192072
Spot 1     0.00200163     0.00192067
Spot 2     0.00227893     0.00192104
20MABNDA000318_PR004
Spot 1     0.00214706     0.00163200
Spot 2     0.00192948     0.00163307
Spot 1     0.00214719     0.00163193
Spot 2     0.00192959     0.00163308
Spot 1     0.00214706     0.00163178
Spot 2     0.00192943     0.00163299
Spot 1     0.00214711     0.00163171
Spot 2     0.00192950     0.00163265
20MABNDA000334_PR005
Spot 1     0.00247429     0.00158089
Spot 2     0.00219430     0.00158146
Spot 1     0.00247438     0.00158093
Spot 2     0.00219410     0.00158141
Spot 1     0.00247433     0.00158101
Spot 2     0.00219415     0.00158147
Spot 1     0.00247419     0.00158096
Spot 2     0.00219388     0.00158144
20MABNDB000317_PR015
Spot 1     0.00148834     0.00160977
Spot 2     0.00170765     0.00160331
Spot 1     0.00148794     0.00161007
Spot 2     0.00170800     0.00160300
Spot 1     0.00148832     0.00160982
Spot 2     0.00170791     0.00160352
Spot 1     0.00148871     0.00160992
Spot 2     0.00170806     0.00160353
20MABNDB000146_PR016
Spot 1     0.00144660     0.00133204
Spot 2     0.00172158     0.00133429
Spot 1     0.00144627     0.00133227
Spot 2     0.00172171     0.00133443
Spot 1     0.00144650     0.00133189
Spot 2     0.00172162     0.00133429
Spot 1     0.00144655     0.00133220
Spot 2     0.00172172     0.00133460
20MABNDM000168_PR025
Spot 1     0.00105500     0.00031500
Spot 2     0.00105500     0.00031500
Spot 1     0.00105500     0.00031500
Spot 2     0.00105500     0.00031500
Spot 1     0.00105500     0.00031500
Spot 2     0.00105500     0.00031500
Spot 1     0.00105500     0.00031500
Spot 2     0.00105500     0.00031500
20MABNDM000168_PR026
Spot 1     0.00277500     0.00187500
Spot 2     0.00277500     0.00187500
Spot 1     0.00317000     0.00007750
Spot 2     0.00335833     0.00004333
Spot 1     0.00340300     0.00006500
Spot 2     0.00195500     0.00003250
Spot 1     0.00335500     0.00004500
Spot 2     0.00260100     0.00003100
20MABNDM000168_20MABNDL000077
Spot 1     0.00153750     0.00129674
Spot 2     0.00175571     0.00130013
Spot 1     0.00153782     0.00129647
Spot 2     0.00175577     0.00130020
Spot 1     0.00153763     0.00129652
Spot 2     0.00175575     0.00130010
Spot 1     0.00153783     0.00129625
Spot 2     0.00175580     0.00130003
20MABNDM000168_PR001
Spot 1     0.00080588     0.00161600
Spot 2     0.00070452     0.00162156
Spot 1     0.00080635     0.00161689
Spot 2     0.00070469     0.00162132
Spot 1     0.00080594     0.00161627
Spot 2     0.00070481     0.00162129
Spot 1     0.00080566     0.00161578
Spot 2     0.00070477     0.00162148
20MABNDL000196_PR036
Spot 1     0.00095913     0.00164487
Spot 2     0.00112291     0.00164413
Spot 1     0.00095896     0.00164500
Spot 2     0.00112275     0.00164469
Spot 1     0.00095887     0.00164496
Spot 2     0.00112249     0.00164426
Spot 1     0.00095877     0.00164504
Spot 2     0.00112257     0.00164448
20MABNDL000196_PR037
Spot 1     0.00248349     0.00116565
Spot 2     0.00263766     0.00116385
Spot 1     0.00248376     0.00116568
Spot 2     0.00263757     0.00116395
Spot 1     0.00248367     0.00116559
Spot 2     0.00263757     0.00116369
Spot 1     0.00248342     0.00116582
Spot 2     0.00263760     0.00116387
20MABNDL000196_20MABNDM000020
Spot 1     0.00195176     0.00102972
Spot 2     0.00173014     0.00102930
Spot 1     0.00195183     0.00102967
Spot 2     0.00173011     0.00102945
Spot 1     0.00195209     0.00102955
Spot 2     0.00173000     0.00102948
Spot 1     0.00195205     0.00102949
Spot 2     0.00172994     0.00102927
20MABNDL000196_PR012
Spot 1     0.00304500     0.00006500
Spot 2     0.00304500     0.00006500
Spot 1     0.00304500     0.00006500
Spot 2     0.00064833     0.00003833
Spot 1     0.00313750     0.00007500
Spot 2     0.00248500     0.00007500
Spot 1     0.00304500     0.00006250
Spot 2     0.00273900     0.00137367


****************************************************************coordonnees images transformees dans le repere MOUNT************************************************************************* 
20MABNDB000069_PR031
Spot 1    -0.01361993    -0.01186066    -0.07388500
Spot 2    -0.01344405    -0.01291700    -0.07388500
Spot 1    -0.01361993    -0.01186066    -0.07388500
Spot 2    -0.01344434    -0.01291575    -0.07388500
Spot 1    -0.01361993    -0.01186066    -0.07388500
Spot 2    -0.01344412    -0.01291651    -0.07388500
Spot 1    -0.01361993    -0.01186066    -0.07388500
Spot 2    -0.01344494    -0.01291592    -0.07388500
Spot 1    -0.01361993    -0.01186066    -0.07388500
Spot 2    -0.01344474    -0.01291703    -0.07388500
20MABNDB000069_PR033
Spot 1    -0.01201856    -0.01232170    -0.07388500
Spot 2    -0.01154915    -0.01232138    -0.07388500
Spot 1    -0.01201884    -0.01232156    -0.07388500
Spot 2    -0.01154906    -0.01232149    -0.07388500
Spot 1    -0.01201861    -0.01232166    -0.07388500
Spot 2    -0.01154906    -0.01232139    -0.07388500
Spot 1    -0.01201867    -0.01232164    -0.07388500
Spot 2    -0.01154885    -0.01232128    -0.07388500
Spot 1    -0.01201860    -0.01232151    -0.07388500
Spot 2    -0.01154899    -0.01232139    -0.07388500
20MABNDB000131_PR032
Spot 1    -0.01144135    -0.01302913    -0.07533000
Spot 2    -0.01138192    -0.01302583    -0.07533000
Spot 1    -0.01144136    -0.01302911    -0.07533000
Spot 2    -0.01138182    -0.01302567    -0.07533000
Spot 1    -0.01144131    -0.01302907    -0.07533000
Spot 2    -0.01138191    -0.01302537    -0.07533000
Spot 1    -0.01144116    -0.01302919    -0.07533000
Spot 2    -0.01138203    -0.01302550    -0.07533000
Spot 1    -0.01144131    -0.01302904    -0.07533000
Spot 2    -0.01138197    -0.01302537    -0.07533000
20MABNDB000131_PR034
Spot 1    -0.01328851    -0.01376513    -0.07533000
Spot 2    -0.01311303    -0.01376564    -0.07533000
Spot 1    -0.01328853    -0.01376506    -0.07533000
Spot 2    -0.01311283    -0.01376581    -0.07533000
Spot 1    -0.01328849    -0.01376549    -0.07533000
Spot 2    -0.01311306    -0.01376540    -0.07533000
Spot 1    -0.01328848    -0.01376520    -0.07533000
Spot 2    -0.01311285    -0.01376561    -0.07533000
Spot 1    -0.01328856    -0.01376499    -0.07533000
Spot 2    -0.01311278    -0.01376547    -0.07533000
20MABNDA000208_PR042
Spot 1    -0.01392236     0.01305398    -0.07273700
Spot 2    -0.01385592     0.01305347    -0.07273700
Spot 1    -0.01392357     0.01305400    -0.07273700
Spot 2    -0.01385633     0.01305273    -0.07273700
Spot 1    -0.01392294     0.01305376    -0.07273700
Spot 2    -0.01385599     0.01305330    -0.07273700
Spot 1    -0.01392328     0.01305362    -0.07273700
Spot 2    -0.01385653     0.01305311    -0.07273700
Spot 1    -0.01392287     0.01305385    -0.07273700
Spot 2    -0.01385693     0.01305261    -0.07273700
20MABNDA000208_PR046
Spot 1    -0.01232499     0.01189343    -0.07273700
Spot 2    -0.01185062     0.01189069    -0.07273700
Spot 1    -0.01232499     0.01189323    -0.07273700
Spot 2    -0.01185028     0.01189070    -0.07273700
Spot 1    -0.01232510     0.01189336    -0.07273700
Spot 2    -0.01185053     0.01189045    -0.07273700
Spot 1    -0.01232500     0.01189351    -0.07273700
Spot 2    -0.01185044     0.01189025    -0.07273700
Spot 1    -0.01232502     0.01189351    -0.07273700
Spot 2    -0.01185074     0.01189060    -0.07273700
20MABNDA000035_PR044
Spot 1    -0.01157494     0.01299030    -0.07483200
Spot 2    -0.01152084     0.01299587    -0.07483200
Spot 1    -0.01157482     0.01299032    -0.07483200
Spot 2    -0.01152080     0.01299578    -0.07483200
Spot 1    -0.01157516     0.01299028    -0.07483200
Spot 2    -0.01152088     0.01299565    -0.07483200
Spot 1    -0.01157468     0.01299042    -0.07483200
Spot 2    -0.01152065     0.01299573    -0.07483200
Spot 1    -0.01157490     0.01299025    -0.07483200
Spot 2    -0.01152088     0.01299571    -0.07483200
20MABNDA000035_PR045
Spot 1    -0.01337755     0.01375550    -0.07483200
Spot 2    -0.01320076     0.01375600    -0.07483200
Spot 1    -0.01337742     0.01375532    -0.07483200
Spot 2    -0.01320076     0.01375610    -0.07483200
Spot 1    -0.01337735     0.01375542    -0.07483200
Spot 2    -0.01320076     0.01375606    -0.07483200
Spot 1    -0.01337734     0.01375528    -0.07483200
Spot 2    -0.01320086     0.01375597    -0.07483200
Spot 1    -0.01337749     0.01375546    -0.07483200
Spot 2    -0.01320090     0.01375603    -0.07483200
20MABNDL000077_PR002
Spot 1     0.01186535     0.03557188    -0.07463200
Spot 2     0.01202785     0.03556824    -0.07463200
Spot 1     0.01186491     0.03557240    -0.07463200
Spot 2     0.01202751     0.03556864    -0.07463200
Spot 1     0.01186510     0.03557249    -0.07463200
Spot 2     0.01202733     0.03556855    -0.07463200
Spot 1     0.01186510     0.03557244    -0.07463200
Spot 2     0.01202713     0.03556864    -0.07463200
Spot 1     0.01186512     0.03557251    -0.07463200
Spot 2     0.01202740     0.03556877    -0.07463200
20MABNDL000077_PR003
Spot 1     0.01259420     0.03525730    -0.07463200
Spot 2     0.01274349     0.03525846    -0.07463200
Spot 1     0.01259385     0.03525740    -0.07463200
Spot 2     0.01274333     0.03525851    -0.07463200
Spot 1     0.01259388     0.03525733    -0.07463200
Spot 2     0.01274318     0.03525842    -0.07463200
Spot 1     0.01259383     0.03525757    -0.07463200
Spot 2     0.01274309     0.03525863    -0.07463200
Spot 1     0.01259403     0.03525735    -0.07463200
Spot 2     0.01274340     0.03525857    -0.07463200
20MABNDL000077_20MABNDM000168
Spot 1    -0.01272199     0.03554667    -0.00695400
Spot 2    -0.01251640     0.03566328    -0.00695400
Spot 1    -0.01272225     0.03554680    -0.00695400
Spot 2    -0.01251676     0.03566466    -0.00695400
Spot 1    -0.01272198     0.03554707    -0.00695400
Spot 2    -0.01251676     0.03566466    -0.00695400
Spot 1    -0.01272211     0.03554726    -0.00695400
Spot 2    -0.01251652     0.03566404    -0.00695400
Spot 1    -0.01272228     0.03554714    -0.00695400
Spot 2    -0.01251676     0.03566466    -0.00695400
20MABNDL000077_PR024
Spot 1    -0.01346855     0.03576786    -0.00695400
Spot 2    -0.01357038     0.03577129    -0.00695400
Spot 1    -0.01346887     0.03576802    -0.00695400
Spot 2    -0.01357018     0.03577119    -0.00695400
Spot 1    -0.01346891     0.03576821    -0.00695400
Spot 2    -0.01357014     0.03577136    -0.00695400
Spot 1    -0.01346863     0.03576846    -0.00695400
Spot 2    -0.01357003     0.03577127    -0.00695400
Spot 1    -0.01346884     0.03576845    -0.00695400
Spot 2    -0.01357034     0.03577134    -0.00695400
20MABNDM000020_PR013
Spot 1    -0.01270389    -0.03609625    -0.00523500
Spot 2    -0.01285613    -0.03610606    -0.00523500
Spot 1    -0.01270443    -0.03609698    -0.00523500
Spot 2    -0.01285564    -0.03610613    -0.00523500
Spot 1    -0.01270402    -0.03609671    -0.00523500
Spot 2    -0.01285619    -0.03610656    -0.00523500
Spot 1    -0.01270403    -0.03609731    -0.00523500
Spot 2    -0.01285638    -0.03610649    -0.00523500
20MABNDM000020_PR014
Spot 1    -0.01166327    -0.03621374    -0.00523500
Spot 2    -0.01182518    -0.03622444    -0.00523500
Spot 1    -0.01166346    -0.03621350    -0.00523500
Spot 2    -0.01182556    -0.03622491    -0.00523500
Spot 1    -0.01166346    -0.03621399    -0.00523500
Spot 2    -0.01182553    -0.03622546    -0.00523500
Spot 1    -0.01166363    -0.03621392    -0.00523500
Spot 2    -0.01182540    -0.03622478    -0.00523500
20MABNDM000020_20MABNDL000196
Spot 1     0.01268458    -0.03454792    -0.07583800
Spot 2     0.01388114    -0.03418340    -0.07583800
Spot 1     0.01268452    -0.03454790    -0.07583800
Spot 2     0.01388114    -0.03418340    -0.07583800
Spot 1     0.01268470    -0.03454792    -0.07583800
Spot 2     0.01388114    -0.03418340    -0.07583800
Spot 1     0.01268482    -0.03454801    -0.07583800
Spot 2     0.01388114    -0.03418340    -0.07583800
20MABNDM000020_PR035
Spot 1     0.01341724    -0.03484498    -0.07583800
Spot 2     0.01349049    -0.03487634    -0.07583800
Spot 1     0.01341736    -0.03484469    -0.07583800
Spot 2     0.01349057    -0.03487633    -0.07583800
Spot 1     0.01341651    -0.03484366    -0.07583800
Spot 2     0.01349055    -0.03487616    -0.07583800
Spot 1     0.01341613    -0.03484317    -0.07583800
Spot 2     0.01349017    -0.03487590    -0.07583800
20MABNDA000188_PR008
Spot 1    -0.01385116     0.01393841    -0.07502000
Spot 2    -0.01385116     0.01393841    -0.07502000
Spot 1    -0.01385116     0.01393841    -0.07502000
Spot 2    -0.01385116     0.01393841    -0.07502000
Spot 1    -0.01385116     0.01393841    -0.07502000
Spot 2    -0.01438331     0.01392297    -0.07502000
Spot 1    -0.01385116     0.01393841    -0.07502000
Spot 2    -0.01385116     0.01393841    -0.07502000
20MABNDA000188_PR018
Spot 1    -0.01267755     0.01230344    -0.07502000
Spot 2    -0.01221056     0.01230240    -0.07502000
Spot 1    -0.01267771     0.01230371    -0.07502000
Spot 2    -0.01221067     0.01230207    -0.07502000
Spot 1    -0.01267754     0.01230346    -0.07502000
Spot 2    -0.01221049     0.01230214    -0.07502000
Spot 1    -0.01267763     0.01230360    -0.07502000
Spot 2    -0.01221052     0.01230195    -0.07502000
20MABNDA000039_PR009
Spot 1    -0.01162458     0.01307051    -0.07444800
Spot 2    -0.01157695     0.01306604    -0.07444800
Spot 1    -0.01162470     0.01307063    -0.07444800
Spot 2    -0.01157702     0.01306591    -0.07444800
Spot 1    -0.01162446     0.01307080    -0.07444800
Spot 2    -0.01157718     0.01306598    -0.07444800
Spot 1    -0.01162456     0.01307069    -0.07444800
Spot 2    -0.01157786     0.01306604    -0.07444800
20MABNDA000039_PR011
Spot 1    -0.01372075     0.01397519    -0.07444800
Spot 2    -0.01354576     0.01397871    -0.07444800
Spot 1    -0.01372071     0.01397510    -0.07444800
Spot 2    -0.01354570     0.01397878    -0.07444800
Spot 1    -0.01372082     0.01397522    -0.07444800
Spot 2    -0.01354587     0.01397877    -0.07444800
Spot 1    -0.01372070     0.01397517    -0.07444800
Spot 2    -0.01354591     0.01397872    -0.07444800
20MABNDB000155_PR020
Spot 1    -0.01364722    -0.01313438    -0.07501700
Spot 2    -0.01358535    -0.01313675    -0.07501700
Spot 1    -0.01364786    -0.01313436    -0.07501700
Spot 2    -0.01358507    -0.01313758    -0.07501700
Spot 1    -0.01364855    -0.01313462    -0.07501700
Spot 2    -0.01358450    -0.01313706    -0.07501700
Spot 1    -0.01364786    -0.01313426    -0.07501700
Spot 2    -0.01358595    -0.01313705    -0.07501700
20MABNDB000155_PR022
Spot 1    -0.01218660    -0.01289078    -0.07501700
Spot 2    -0.01171368    -0.01288934    -0.07501700
Spot 1    -0.01218643    -0.01289079    -0.07501700
Spot 2    -0.01171369    -0.01288925    -0.07501700
Spot 1    -0.01218634    -0.01289081    -0.07501700
Spot 2    -0.01171356    -0.01288916    -0.07501700
Spot 1    -0.01218629    -0.01289069    -0.07501700
Spot 2    -0.01171351    -0.01288924    -0.07501700
20MABNDB000010_PR021
Spot 1    -0.01158416    -0.01292159    -0.07358200
Spot 2    -0.01153193    -0.01291762    -0.07358200
Spot 1    -0.01158473    -0.01292215    -0.07358200
Spot 2    -0.01153146    -0.01291825    -0.07358200
Spot 1    -0.01158463    -0.01292212    -0.07358200
Spot 2    -0.01153156    -0.01291820    -0.07358200
Spot 1    -0.01158464    -0.01292201    -0.07358200
Spot 2    -0.01153156    -0.01291806    -0.07358200
20MABNDB000010_PR023
Spot 1    -0.01312962    -0.01377225    -0.07358200
Spot 2    -0.01295549    -0.01377076    -0.07358200
Spot 1    -0.01313009    -0.01377224    -0.07358200
Spot 2    -0.01295555    -0.01377051    -0.07358200
Spot 1    -0.01312984    -0.01377206    -0.07358200
Spot 2    -0.01295534    -0.01377072    -0.07358200
Spot 1    -0.01312959    -0.01377168    -0.07358200
Spot 2    -0.01295524    -0.01377054    -0.07358200
20MABNDB000212_PR029
Spot 1    -0.01182590    -0.01325569    -0.07390500
Spot 2    -0.01219225    -0.01325172    -0.07390500
Spot 1    -0.01182595    -0.01325559    -0.07390500
Spot 2    -0.01219240    -0.01325171    -0.07390500
Spot 1    -0.01182588    -0.01325588    -0.07390500
Spot 2    -0.01219209    -0.01325141    -0.07390500
Spot 1    -0.01182599    -0.01325574    -0.07390500
Spot 2    -0.01219177    -0.01325155    -0.07390500
20MABNDB000128_PR030
Spot 1    -0.01246867    -0.01221063    -0.07353400
Spot 2    -0.01226501    -0.01221547    -0.07353400
Spot 1    -0.01246897    -0.01221072    -0.07353400
Spot 2    -0.01226507    -0.01221537    -0.07353400
Spot 1    -0.01246890    -0.01221084    -0.07353400
Spot 2    -0.01226522    -0.01221527    -0.07353400
Spot 1    -0.01246917    -0.01221062    -0.07353400
Spot 2    -0.01226512    -0.01221541    -0.07353400
20MABNDA000444_PR040
Spot 1    -0.01172250     0.01365610    -0.07412000
Spot 2    -0.01208828     0.01365308    -0.07412000
Spot 1    -0.01172264     0.01365619    -0.07412000
Spot 2    -0.01208859     0.01365259    -0.07412000
Spot 1    -0.01172234     0.01365642    -0.07412000
Spot 2    -0.01208801     0.01365331    -0.07412000
Spot 1    -0.01172255     0.01365637    -0.07412000
Spot 2    -0.01208830     0.01365291    -0.07412000
20MABNDA000053_PR041
Spot 1    -0.01240180     0.01211990    -0.07430100
Spot 2    -0.01219891     0.01211938    -0.07430100
Spot 1    -0.01240139     0.01211980    -0.07430100
Spot 2    -0.01219884     0.01211920    -0.07430100
Spot 1    -0.01240135     0.01211999    -0.07430100
Spot 2    -0.01219894     0.01211937    -0.07430100
Spot 1    -0.01240187     0.01211988    -0.07430100
Spot 2    -0.01219905     0.01211896    -0.07430100
20MABNDA000196_PR006
Spot 1    -0.01294084     0.01321997    -0.07967100
Spot 2    -0.01257545     0.01321989    -0.07967100
Spot 1    -0.01294074     0.01322043    -0.07967100
Spot 2    -0.01257592     0.01321998    -0.07967100
Spot 1    -0.01294093     0.01322005    -0.07967100
Spot 2    -0.01257561     0.01321998    -0.07967100
Spot 1    -0.01294079     0.01322012    -0.07967100
Spot 2    -0.01257588     0.01322004    -0.07967100
20MABNDA000324_PR007
Spot 1    -0.01255703     0.01281734    -0.07446800
Spot 2    -0.01235181     0.01281321    -0.07446800
Spot 1    -0.01255730     0.01281728    -0.07446800
Spot 2    -0.01235218     0.01281312    -0.07446800
Spot 1    -0.01255715     0.01281744    -0.07446800
Spot 2    -0.01235181     0.01281315    -0.07446800
Spot 1    -0.01255713     0.01281750    -0.07446800
Spot 2    -0.01235216     0.01281303    -0.07446800
20MABNDB000001_PR017
Spot 1    -0.01230287    -0.01351756    -0.07418400
Spot 2    -0.01193389    -0.01351115    -0.07418400
Spot 1    -0.01230282    -0.01351772    -0.07418400
Spot 2    -0.01193403    -0.01351143    -0.07418400
Spot 1    -0.01230282    -0.01351769    -0.07418400
Spot 2    -0.01193401    -0.01351138    -0.07418400
Spot 1    -0.01230296    -0.01351769    -0.07418400
Spot 2    -0.01193405    -0.01351147    -0.07418400
20MABNDB000260_PR019
Spot 1    -0.01241091    -0.01240852    -0.07492700
Spot 2    -0.01220754    -0.01240368    -0.07492700
Spot 1    -0.01241103    -0.01240845    -0.07492700
Spot 2    -0.01220735    -0.01240432    -0.07492700
Spot 1    -0.01241083    -0.01240870    -0.07492700
Spot 2    -0.01220740    -0.01240389    -0.07492700
Spot 1    -0.01241116    -0.01240856    -0.07492700
Spot 2    -0.01220735    -0.01240386    -0.07492700
20MABNDB000135_PR027
Spot 1    -0.01251352    -0.01318934    -0.07464700
Spot 2    -0.01229488    -0.01318879    -0.07464700
Spot 1    -0.01251345    -0.01318903    -0.07464700
Spot 2    -0.01229492    -0.01318905    -0.07464700
Spot 1    -0.01251344    -0.01318930    -0.07464700
Spot 2    -0.01229479    -0.01318903    -0.07464700
Spot 1    -0.01251331    -0.01318932    -0.07464700
Spot 2    -0.01229486    -0.01318902    -0.07464700
20MABNDB000126_PR028
Spot 1    -0.01253520    -0.01218109    -0.07500400
Spot 2    -0.01225364    -0.01217715    -0.07500400
Spot 1    -0.01253504    -0.01218097    -0.07500400
Spot 2    -0.01225371    -0.01217709    -0.07500400
Spot 1    -0.01253523    -0.01218107    -0.07500400
Spot 2    -0.01225382    -0.01217691    -0.07500400
Spot 1    -0.01253520    -0.01218092    -0.07500400
Spot 2    -0.01225389    -0.01217704    -0.07500400
20MABNDA000272_PR038
Spot 1    -0.01275966     0.01314875    -0.07417900
Spot 2    -0.01253728     0.01314984    -0.07417900
Spot 1    -0.01275943     0.01314895    -0.07417900
Spot 2    -0.01253749     0.01314982    -0.07417900
Spot 1    -0.01275988     0.01314926    -0.07417900
Spot 2    -0.01253760     0.01314994    -0.07417900
Spot 1    -0.01275953     0.01314882    -0.07417900
Spot 2    -0.01253759     0.01315001    -0.07417900
20MABNDA000003_PR039
Spot 1    -0.01280249     0.01213152    -0.07373400
Spot 2    -0.01308008     0.01213216    -0.07373400
Spot 1    -0.01280250     0.01213164    -0.07373400
Spot 2    -0.01308008     0.01213216    -0.07373400
Spot 1    -0.01280267     0.01213153    -0.07373400
Spot 2    -0.01307991     0.01213225    -0.07373400
Spot 1    -0.01280270     0.01213160    -0.07373400
Spot 2    -0.01308000     0.01213193    -0.07373400
20MABNDA000318_PR004
Spot 1    -0.01286686     0.01246323    -0.07310600
Spot 2    -0.01264928     0.01246280    -0.07310600
Spot 1    -0.01286699     0.01246330    -0.07310600
Spot 2    -0.01264939     0.01246279    -0.07310600
Spot 1    -0.01286686     0.01246345    -0.07310600
Spot 2    -0.01264923     0.01246288    -0.07310600
Spot 1    -0.01286691     0.01246352    -0.07310600
Spot 2    -0.01264930     0.01246322    -0.07310600
20MABNDA000334_PR005
Spot 1    -0.01311740     0.01254751    -0.07324100
Spot 2    -0.01283741     0.01254667    -0.07324100
Spot 1    -0.01311749     0.01254747    -0.07324100
Spot 2    -0.01283721     0.01254672    -0.07324100
Spot 1    -0.01311744     0.01254739    -0.07324100
Spot 2    -0.01283726     0.01254666    -0.07324100
Spot 1    -0.01311730     0.01254744    -0.07324100
Spot 2    -0.01283699     0.01254669    -0.07324100
20MABNDB000317_PR015
Spot 1    -0.01266606    -0.01248827    -0.07326100
Spot 2    -0.01244669    -0.01249217    -0.07326100
Spot 1    -0.01266647    -0.01248797    -0.07326100
Spot 2    -0.01244634    -0.01249248    -0.07326100
Spot 1    -0.01266609    -0.01248822    -0.07326100
Spot 2    -0.01244644    -0.01249196    -0.07326100
Spot 1    -0.01266570    -0.01248812    -0.07326100
Spot 2    -0.01244629    -0.01249195    -0.07326100
20MABNDB000146_PR016
Spot 1    -0.01276176    -0.01246157    -0.07450500
Spot 2    -0.01248679    -0.01245871    -0.07450500
Spot 1    -0.01276209    -0.01246134    -0.07450500
Spot 2    -0.01248666    -0.01245857    -0.07450500
Spot 1    -0.01276186    -0.01246172    -0.07450500
Spot 2    -0.01248675    -0.01245871    -0.07450500
Spot 1    -0.01276181    -0.01246141    -0.07450500
Spot 2    -0.01248665    -0.01245840    -0.07450500
20MABNDM000168_PR025
Spot 1    -0.01335211    -0.03465272    -0.00532900
Spot 2    -0.01335211    -0.03465272    -0.00532900
Spot 1    -0.01335211    -0.03465272    -0.00532900
Spot 2    -0.01335211    -0.03465272    -0.00532900
Spot 1    -0.01335211    -0.03465272    -0.00532900
Spot 2    -0.01335211    -0.03465272    -0.00532900
Spot 1    -0.01335211    -0.03465272    -0.00532900
Spot 2    -0.01335211    -0.03465272    -0.00532900
20MABNDM000168_PR026
Spot 1    -0.01162542    -0.03620531    -0.00532900
Spot 2    -0.01162542    -0.03620531    -0.00532900
Spot 1    -0.01123815    -0.03440613    -0.00532900
Spot 2    -0.01104996    -0.03437116    -0.00532900
Spot 1    -0.01100520    -0.03439263    -0.00532900
Spot 2    -0.01245333    -0.03436635    -0.00532900
Spot 1    -0.01105329    -0.03437284    -0.00532900
Spot 2    -0.01180734    -0.03436208    -0.00532900
20MABNDM000168_20MABNDL000077
Spot 1     0.01288801    -0.03529743    -0.07445100
Spot 2     0.01266977    -0.03529763    -0.07445100
Spot 1     0.01288769    -0.03529716    -0.07445100
Spot 2     0.01266971    -0.03529770    -0.07445100
Spot 1     0.01288788    -0.03529721    -0.07445100
Spot 2     0.01266973    -0.03529760    -0.07445100
Spot 1     0.01288769    -0.03529694    -0.07445100
Spot 2     0.01266969    -0.03529753    -0.07445100
20MABNDM000168_PR001
Spot 1     0.01361488    -0.03562736    -0.07445100
Spot 2     0.01371615    -0.03563440    -0.07445100
Spot 1     0.01361440    -0.03562824    -0.07445100
Spot 2     0.01371598    -0.03563416    -0.07445100
Spot 1     0.01361482    -0.03562763    -0.07445100
Spot 2     0.01371586    -0.03563413    -0.07445100
Spot 1     0.01361510    -0.03562714    -0.07445100
Spot 2     0.01371590    -0.03563432    -0.07445100
20MABNDL000196_PR036
Spot 1     0.01193904     0.03583359    -0.07483600
Spot 2     0.01210282     0.03583320    -0.07483600
Spot 1     0.01193887     0.03583372    -0.07483600
Spot 2     0.01210266     0.03583376    -0.07483600
Spot 1     0.01193878     0.03583368    -0.07483600
Spot 2     0.01210240     0.03583333    -0.07483600
Spot 1     0.01193868     0.03583376    -0.07483600
Spot 2     0.01210248     0.03583355    -0.07483600
20MABNDL000196_PR037
Spot 1     0.01346440     0.03535756    -0.07483600
Spot 2     0.01361857     0.03535608    -0.07483600
Spot 1     0.01346467     0.03535759    -0.07483600
Spot 2     0.01361848     0.03535618    -0.07483600
Spot 1     0.01346458     0.03535750    -0.07483600
Spot 2     0.01361848     0.03535592    -0.07483600
Spot 1     0.01346433     0.03535773    -0.07483600
Spot 2     0.01361851     0.03535610    -0.07483600
20MABNDL000196_20MABNDM000020
Spot 1    -0.01277557     0.03530040    -0.00611000
Spot 2    -0.01255398     0.03530444    -0.00611000
Spot 1    -0.01277564     0.03530035    -0.00611000
Spot 2    -0.01255396     0.03530459    -0.00611000
Spot 1    -0.01277589     0.03530023    -0.00611000
Spot 2    -0.01255385     0.03530463    -0.00611000
Spot 1    -0.01277585     0.03530017    -0.00611000
Spot 2    -0.01255378     0.03530442    -0.00611000
20MABNDL000196_PR012
Spot 1    -0.01384918     0.03431388    -0.00611000
Spot 2    -0.01384918     0.03431388    -0.00611000
Spot 1    -0.01384918     0.03431388    -0.00611000
Spot 2    -0.01145245     0.03433544    -0.00611000
Spot 1    -0.01394186     0.03432202    -0.00611000
Spot 2    -0.01328949     0.03433515    -0.00611000
Spot 1    -0.01384913     0.03431138    -0.00611000
Spot 2    -0.01356957     0.03562845    -0.00611000


*****************************************************************coordonnees du prisme dans le repere MOUNT********************************************************************************** 
20MABNDB000069_PR031
    0.09922032    -0.09700138     9.20325279
    0.09923801    -0.09707821     9.20325279
    0.09922459    -0.09703162     9.20325279
    0.09927467    -0.09706745     9.20325089
    0.09926274    -0.09699944     9.20325279
20MABNDB000069_PR033
   -0.02694140    -0.02593631     1.28394961
   -0.02693971    -0.02593664     1.28394961
   -0.02694176    -0.02593664     1.28394961
   -0.02694300    -0.02593770     1.28394961
   -0.02694241    -0.02593789     1.28394961
20MABNDB000131_PR032
   -0.18817729    -0.03091878    11.00641632
   -0.18818378    -0.03093124    11.00641632
   -0.18818074    -0.03095680    11.00641632
   -0.18818304    -0.03093854    11.00641632
   -0.18817635    -0.03095897    11.00641632
20MABNDB000131_PR034
    0.01417395     0.01493640     3.43339300
    0.01416984     0.01493866     3.43339324
    0.01417416     0.01493913     3.43339300
    0.01416916     0.01493729     3.43339324
    0.01416943     0.01492931     3.43339324
20MABNDA000208_PR042
    0.13157445     0.01335211     9.20146370
    0.13167381     0.01339578     9.20146179
    0.13161433     0.01337547     9.20146275
    0.13166830     0.01339577     9.20146275
    0.13166767     0.01341234     9.20146275
20MABNDA000208_PR046
   -0.02338012     0.03296392     1.28210950
   -0.02338302     0.03296554     1.28210926
   -0.02337995     0.03296657     1.28210926
   -0.02338157     0.03296699     1.28210926
   -0.02337883     0.03296401     1.28210950
20MABNDA000035_PR044
   -0.17946485     0.02816013    11.00802803
   -0.17947651     0.02816533    11.00802803
   -0.17944571     0.02817754    11.00802803
   -0.17949775     0.02816109    11.00802708
   -0.17946474     0.02817549    11.00802803
20MABNDA000035_PR045
    0.01475425    -0.01700725     3.43485355
    0.01475130    -0.01700540     3.43485355
    0.01474969    -0.01700676     3.43485355
    0.01475178    -0.01700153     3.43485355
    0.01475608    -0.01700703     3.43485355
20MABNDL000077_PR002
    0.04952000     0.02150656     3.70690966
    0.04953930     0.02148389     3.70690966
    0.04953930     0.02148389     3.70690966
    0.04954422     0.02148286     3.70690918
    0.04953702     0.02147798     3.70690966
20MABNDL000077_PR003
    0.01389844     0.03697431     3.89605379
    0.01391164     0.03697029     3.89605379
    0.01391480     0.03697467     3.89605379
    0.01391858     0.03696295     3.89605379
    0.01390541     0.03697009     3.89605379
20MABNDL000077_20MABNDM000168
   -0.01744544     0.01134721    -5.46869802
   -0.01742286     0.01129290    -5.46869802
   -0.01743251     0.01128305    -5.46869802
   -0.01743664     0.01129854    -5.46869802
   -0.01742165     0.01128063    -5.46869802
20MABNDL000077_PR024
    0.05236600    -0.00344563    -5.89622402
    0.05237070    -0.00344792    -5.89622402
    0.05237084    -0.00346195    -5.89622402
    0.05235570    -0.00346834    -5.89622402
    0.05237599    -0.00347047    -5.89622355
20MABNDM000020_PR013
   -0.00508239     0.01217064    -3.80216908
   -0.00508134     0.01219028    -3.80216908
   -0.00507770     0.01219432    -3.80216837
   -0.00507278     0.01220733    -3.80216837
20MABNDM000020_PR014
   -0.06761445     0.03173081    -4.74799824
   -0.06759655     0.03173773    -4.74799824
   -0.06759757     0.03177007    -4.74799824
   -0.06759612     0.03174677    -4.74799824
20MABNDM000020_20MABNDL000196
   -0.02600349    -0.08875889     5.39443254
   -0.02600134    -0.08875961     5.39443254
   -0.02600779    -0.08875889     5.39443254
   -0.02601209    -0.08875567     5.39443254
20MABNDM000020_PR035
   -0.04210003    -0.05460016     5.80100155
   -0.04210773    -0.05461172     5.80100155
   -0.04207421    -0.05465794     5.80100155
   -0.04204493    -0.05468683     5.80100155
20MABNDA000188_PR008
    0.12899831    -0.09474574     9.20333958
    0.12899831    -0.09474574     9.20333958
    0.16165276    -0.09379140     9.20279026
    0.12899831    -0.09474574     9.20333958
20MABNDA000188_PR018
   -0.01702420     0.02605539     1.28357768
   -0.01702188     0.02605597     1.28357768
   -0.01702487     0.02605745     1.28357768
   -0.01702384     0.02605787     1.28357768
20MABNDA000039_PR009
   -0.17140211     0.02466566    11.00701332
   -0.17138821     0.02466634    11.00701332
   -0.17139415     0.02464881    11.00701332
   -0.17133710     0.02465295    11.00701427
20MABNDA000039_PR011
    0.03053768    -0.02470976     3.43347216
    0.03053540    -0.02470930     3.43347216
    0.03054177    -0.02471183     3.43347168
    0.03053996    -0.02470954     3.43347216
20MABNDB000155_PR020
    0.10243507    -0.00814409     9.20027924
    0.10245708    -0.00809405     9.20027733
    0.10246528    -0.00810990     9.20027733
    0.10251164    -0.00813260     9.20027733
20MABNDB000155_PR022
   -0.02510407    -0.01662728     1.28071606
   -0.02510543    -0.01662790     1.28071594
   -0.02510730    -0.01662852     1.28071594
   -0.02510823    -0.01662888     1.28071594
20MABNDB000010_PR021
   -0.17569622    -0.03431451    11.00695229
   -0.17568892    -0.03422689    11.00695229
   -0.17568880    -0.03423277    11.00695229
   -0.17568848    -0.03425115    11.00695229
20MABNDB000010_PR023
    0.00457501     0.01936233     3.43377852
    0.00458704     0.01935612     3.43377852
    0.00457648     0.01935685     3.43377852
    0.00456844     0.01934411     3.43377924
20MABNDB000212_PR029
   -0.02595771    -0.00900556     1.64223480
   -0.02595553    -0.00900679     1.64223480
   -0.02595970    -0.00900686     1.64223480
   -0.02596200    -0.00900683     1.64223480
20MABNDB000128_PR030
   -0.01871905    -0.04701737     2.95496202
   -0.01871197    -0.04701754     2.95496202
   -0.01871040    -0.04701715     2.95496202
   -0.01870705    -0.04701890     2.95496202
20MABNDA000444_PR040
   -0.02943312     0.00135216     1.64492011
   -0.02942814     0.00135661     1.64492011
   -0.02943775     0.00134619     1.64491999
   -0.02943234     0.00135108     1.64492011
20MABNDA000053_PR041
   -0.02685390     0.05104831     2.95450306
   -0.02686342     0.05105380     2.95450306
   -0.02686218     0.05104690     2.95450306
   -0.02684980     0.05105707     2.95450306
20MABNDA000196_PR006
   -0.01039376     0.01054110     1.64206481
   -0.01038968     0.01053504     1.64206481
   -0.01039105     0.01053921     1.64206481
   -0.01038965     0.01053777     1.64206481
20MABNDA000324_PR007
   -0.02511070     0.02754178     2.95549393
   -0.02509812     0.02754463     2.95549393
   -0.02510853     0.02754101     2.95549393
   -0.02510185     0.02754224     2.95549393
20MABNDB000001_PR017
   -0.02411321    -0.00357861     1.64036429
   -0.02411218    -0.00357381     1.64036429
   -0.02411241    -0.00357468     1.64036429
   -0.02411043    -0.00357372     1.64036429
20MABNDB000260_PR019
   -0.02427854    -0.03802558     2.95627809
   -0.02427996    -0.03801419     2.95627809
   -0.02428284    -0.03801779     2.95627809
   -0.02427726    -0.03802103     2.95627809
20MABNDB000135_PR027
   -0.02101704    -0.01015645     2.74937153
   -0.02101742    -0.01015736     2.74937153
   -0.02102012    -0.01015274     2.74937153
   -0.02102121    -0.01015255     2.74937153
20MABNDB000126_PR028
   -0.02031704    -0.03874356     2.14679813
   -0.02031830    -0.03874613     2.14679766
   -0.02031402    -0.03874724     2.14679766
   -0.02031345    -0.03874752     2.14679766
20MABNDA000272_PR038
   -0.01321208     0.01121105     2.74965882
   -0.01321246     0.01120775     2.74965882
   -0.01320221     0.01119985     2.74965882
   -0.01320879     0.01120664     2.74965882
20MABNDA000003_PR039
   -0.00592414     0.04107358     2.14891768
   -0.00592400     0.04107186     2.14891768
   -0.00592400     0.04107215     2.14891768
   -0.00592227     0.04107571     2.14891768
20MABNDA000318_PR004
   -0.00840729     0.03863099     2.74965668
   -0.00840289     0.03862990     2.74965668
   -0.00840820     0.03862549     2.74965668
   -0.00840597     0.03861797     2.74965668
20MABNDA000334_PR005
   -0.00423335     0.03154651     2.14977312
   -0.00423492     0.03154637     2.14977312
   -0.00423492     0.03154837     2.14977312
   -0.00424078     0.03154723     2.14977312
20MABNDB000317_PR015
   -0.01738434    -0.03434916     2.75128746
   -0.01738343    -0.03434896     2.75128746
   -0.01738866    -0.03435394     2.75128746
   -0.01739846    -0.03435606     2.75128746
20MABNDB000146_PR016
   -0.01348584    -0.03177898     2.15201283
   -0.01348295    -0.03178430     2.15201283
   -0.01348498    -0.03177682     2.15201283
   -0.01348712    -0.03178574     2.15201283
20MABNDM000168_PR025
    0.02039144    -0.06973486    -3.78849745
    0.02039144    -0.06973486    -3.78849745
    0.02039144    -0.06973486    -3.78849745
    0.02039144    -0.06973486    -3.78849745
20MABNDM000168_PR026
   -0.06774618     0.00930901    -3.98396206
   -0.09279366    -0.08525068    -3.98348236
   -0.06234035    -0.08573334    -3.98398209
   -0.07789849    -0.08635672    -3.98374557
20MABNDM000168_20MABNDL000077
    0.01133056    -0.03904453     5.38884640
    0.01134410    -0.03905191     5.38884640
    0.01133653    -0.03905360     5.38884640
    0.01134533    -0.03906594     5.38884640
20MABNDM000168_PR001
   -0.05751914    -0.01343639     5.81470394
   -0.05749396    -0.01341156     5.81470394
   -0.05750558    -0.01343659     5.81470394
   -0.05751815    -0.01344804     5.81470394
20MABNDL000196_PR036
    0.05074237     0.00568636     3.68777633
    0.05075050     0.00566944     3.68777585
    0.05075907     0.00568100     3.68777585
    0.05075958     0.00567363     3.68777585
20MABNDL000196_PR037
   -0.02586705     0.02872117     3.88380599
   -0.02587169     0.02871780     3.88380599
   -0.02586938     0.02872685     3.88380599
   -0.02586367     0.02871626     3.88380599
20MABNDL000196_20MABNDM000020
   -0.01387207     0.03897917    -5.47473907
   -0.01387056     0.03897560    -5.47473907
   -0.01386524     0.03897895    -5.47473907
   -0.01386902     0.03898858    -5.47473907
20MABNDL000196_PR012
    0.07807925     0.11604182    -5.91451979
   -0.01505307     0.11521395    -5.91523743
    0.05993570     0.11490297    -5.91478920
    0.06722096     0.06506074    -5.91515446


*****************************************************************coordonnees du prisme dans le repere ATLAS********************************************************************************** 
20MABNDB000069_PR031 0.00000000
    3.68096614     3.84871030    -7.84339905
    3.68098402     3.84871078    -7.84332228
    3.68097043     3.84871054    -7.84336853
    3.68102050     3.84870863    -7.84333277
    3.68100858     3.84871030    -7.84340096
20MABNDB000069_PR033 0.00000000
    3.53335762    -4.07045746    -7.87973499
    3.53335929    -4.07045746    -7.87973452
    3.53335714    -4.07045746    -7.87973452
    3.53335595    -4.07045746    -7.87973356
    3.53335667    -4.07045746    -7.87973356
20MABNDB000131_PR032 0.00000000
    3.86897945     3.64756608   -12.94156170
    3.86898589     3.64756608   -12.94157410
    3.86898279     3.64756608   -12.94159985
    3.86898518     3.64756608   -12.94158173
    3.86897850     3.64756608   -12.94160175
20MABNDB000131_PR034 0.00000000
    3.67361498    -3.92562389   -12.89301109
    3.67361903    -3.92562366   -12.89300919
    3.67361474    -3.92562389   -12.89300823
    3.67361975    -3.92562366   -12.89301014
    3.67361951    -3.92562366   -12.89301872
20MABNDA000208_PR042 0.00000000
   -3.68165183     3.84914255    -7.89813375
   -3.68175125     3.84914088    -7.89809036
   -3.68169188     3.84914184    -7.89811039
   -3.68174577     3.84914184    -7.89809036
   -3.68174529     3.84914184    -7.89807367
20MABNDA000208_PR046 0.00000000
   -3.53238440    -4.07031298    -7.87555456
   -3.53238153    -4.07031345    -7.87555265
   -3.53238463    -4.07031345    -7.87555170
   -3.53238297    -4.07031345    -7.87555122
   -3.53238583    -4.07031298    -7.87555456
20MABNDA000035_PR044 0.00000000
   -3.86870599     3.64758325   -12.93383884
   -3.86871767     3.64758325   -12.93384457
   -3.86868691     3.64758325   -12.93385696
   -3.86873889     3.64758229   -12.93383980
   -3.86870599     3.64758325   -12.93385506
20MABNDA000035_PR045 0.00000000
   -3.67597437    -3.92563367   -12.88937759
   -3.67597747    -3.92563367   -12.88937855
   -3.67597890    -3.92563367   -12.88937759
   -3.67597699    -3.92563367   -12.88938332
   -3.67597270    -3.92563367   -12.88937759
20MABNDL000077_PR002 0.00000000
    2.83553433    -3.69499683     6.48618984
    2.83555698    -3.69497776     6.48618984
    2.83555698    -3.69497776     6.48618984
    2.83555794    -3.69497275     6.48618937
    2.83556294    -3.69497991     6.48618984
20MABNDL000077_PR003 0.00000000
    2.82024074    -3.73084688     6.67530489
    2.82024479    -3.73083377     6.67530489
    2.82024026    -3.73083067     6.67530489
    2.82025194    -3.73082685     6.67530489
    2.82024503    -3.73083997     6.67530489
20MABNDL000077_20MABNDM000168 0.00000000
    2.83667207    -3.75064468    -2.68949890
    2.83672643    -3.75062227    -2.68949890
    2.83673644    -3.75063181    -2.68949890
    2.83672094    -3.75063610    -2.68949890
    2.83673882    -3.75062108    -2.68949890
20MABNDL000077_PR024 0.00000000
    2.85106802    -3.68031073    -3.11695266
    2.85107017    -3.68030596    -3.11695266
    2.85108423    -3.68030572    -3.11695266
    2.85109067    -3.68032098    -3.11695266
    2.85109282    -3.68030071    -3.11695218
20MABNDM000020_PR013 0.00000000
   -2.86447954    -3.73439217     6.48601866
   -2.86449933    -3.73439312     6.48601866
   -2.86450338    -3.73439693     6.48601818
   -2.86451626    -3.73440170     6.48601818
20MABNDM000020_PR014 0.00000000
   -2.88383126    -3.67257357     7.43189907
   -2.88383842    -3.67259145     7.43189907
   -2.88387060    -3.67259026     7.43189907
   -2.88384724    -3.67259169     7.43189907
20MABNDM000020_20MABNDL000196 0.00000000
   -2.76538420    -3.70650768    -2.71058440
   -2.76538348    -3.70650983    -2.71058440
   -2.76538420    -3.70650339    -2.71058440
   -2.76538730    -3.70649910    -2.71058440
20MABNDM000020_PR035 0.00000000
   -2.79961920    -3.69009137    -3.11713409
   -2.79960775    -3.69008374    -3.11713409
   -2.79956150    -3.69011712    -3.11713409
   -2.79953265    -3.69014645    -3.11713433
20MABNDA000188_PR008 0.00000000
    3.54177952     3.84863997     8.10601807
    3.54177952     3.84863997     8.10601807
    3.57444930     3.84860110     8.10555172
    3.54177952     3.84863997     8.10601807
20MABNDA000188_PR018 0.00000000
    3.52011657    -4.07061148     7.89738083
    3.52011871    -4.07061148     7.89738035
    3.52011585    -4.07061148     7.89737844
    3.52011681    -4.07061148     7.89737797
20MABNDA000039_PR009 0.00000000
    3.87557411     3.64747143    12.93595982
    3.87556028     3.64747143    12.93596077
    3.87556624     3.64747143    12.93594265
    3.87550926     3.64747238    12.93594742
20MABNDA000039_PR011 0.00000000
    3.66448641    -3.92580390    12.88412666
    3.66448879    -3.92580390    12.88412762
    3.66448236    -3.92580438    12.88412476
    3.66448426    -3.92580390    12.88412666
20MABNDB000155_PR020 0.00000000
   -3.68108773     3.84881163     7.89872313
   -3.68110967     3.84880972     7.89877319
   -3.68111777     3.84880972     7.89875698
   -3.68116426     3.84880948     7.89873457
20MABNDB000155_PR022 0.00000000
   -3.53487682    -4.07042980     7.89143181
   -3.53487539    -4.07042980     7.89143133
   -3.53487349    -4.07042980     7.89143038
   -3.53487253    -4.07042980     7.89143038
20MABNDB000010_PR021 0.00000000
   -3.86153293     3.64768982    12.93614388
   -3.86152577     3.64768982    12.93605614
   -3.86152554     3.64768982    12.93606186
   -3.86152530     3.64768982    12.93607998
20MABNDB000010_PR023 0.00000000
   -3.68509054    -3.92559791    12.88591290
   -3.68507862    -3.92559791    12.88591957
   -3.68508911    -3.92559791    12.88591862
   -3.68509722    -3.92559719    12.88593102
20MABNDB000212_PR029 0.00000000
    2.59963536    -4.19501352    -6.54799318
    2.59963322    -4.19501352    -6.54799461
    2.59963751    -4.19501352    -6.54799461
    2.59963965    -4.19501352    -6.54799461
20MABNDB000128_PR030 0.00000000
    2.61013961    -4.14002848    -6.93110371
    2.61014676    -4.14002848    -6.93110323
    2.61014819    -4.14002848    -6.93110371
    2.61015153    -4.14002848    -6.93110228
20MABNDA000444_PR040 0.00000000
   -2.60460567    -4.19508934    -6.54053259
   -2.60460067    -4.19508934    -6.54053688
   -2.60461044    -4.19508934    -6.54052639
   -2.60460496    -4.19508934    -6.54053116
20MABNDA000053_PR041 0.00000000
   -2.59368801    -4.14012814    -6.92686510
   -2.59367847    -4.14012814    -6.92685986
   -2.59367967    -4.14012814    -6.92686653
   -2.59369206    -4.14012814    -6.92685652
20MABNDA000196_PR006 0.00000000
    2.58485413    -4.19496298     6.54849768
    2.58485007    -4.19496298     6.54849148
    2.58485150    -4.19496298     6.54849577
    2.58485007    -4.19496298     6.54849434
20MABNDA000324_PR007 0.00000000
    2.59420419    -4.13996410     6.94837332
    2.59421659    -4.13996410     6.94837046
    2.59420633    -4.13996410     6.94837427
    2.59421301    -4.13996410     6.94837284
20MABNDB000001_PR017 0.00000000
   -2.59781480    -4.19505119     6.53890657
   -2.59781384    -4.19505119     6.53890181
   -2.59781408    -4.19505119     6.53890276
   -2.59781194    -4.19505119     6.53890181
20MABNDB000260_PR019 0.00000000
   -2.60448337    -4.13995647     6.94261837
   -2.60448217    -4.13995647     6.94262981
   -2.60447907    -4.13995647     6.94262600
   -2.60448480    -4.13995647     6.94262314
20MABNDB000135_PR027 0.00000000
    2.60384607    -4.19700384    -3.82520437
    2.60384583    -4.19700384    -3.82520342
    2.60384321    -4.19700384    -3.82520819
    2.60384202    -4.19700384    -3.82520843
20MABNDB000126_PR028 0.00000000
    2.60560012    -4.19701910    -5.89347649
    2.60559893    -4.19701958    -5.89347363
    2.60560322    -4.19701958    -5.89347267
    2.60560369    -4.19701958    -5.89347219
20MABNDA000272_PR038 0.00000000
   -2.61132479    -4.19698286    -3.82727337
   -2.61132431    -4.19698286    -3.82727647
   -2.61133456    -4.19698286    -3.82728457
   -2.61132812    -4.19698286    -3.82727766
20MABNDA000003_PR039 0.00000000
   -2.61580706    -4.19701958    -5.89169312
   -2.61580706    -4.19701958    -5.89169502
   -2.61580706    -4.19701958    -5.89169455
   -2.61580896    -4.19701958    -5.89169121
20MABNDA000318_PR004 0.00000000
    2.61459589    -4.19698811     3.83336759
    2.61460018    -4.19698811     3.83336878
    2.61459494    -4.19698811     3.83337307
    2.61459732    -4.19698811     3.83338070
20MABNDA000334_PR005 0.00000000
    2.61676526    -4.19703007     5.89771461
    2.61676359    -4.19703007     5.89771461
    2.61676359    -4.19703007     5.89771271
    2.61675787    -4.19703007     5.89771366
20MABNDB000317_PR015 0.00000000
   -2.61122274    -4.19700384     3.83566618
   -2.61122370    -4.19700384     3.83566642
   -2.61121845    -4.19700384     3.83566141
   -2.61120868    -4.19700384     3.83565950
20MABNDB000146_PR016 0.00000000
   -2.61280942    -4.19702482     5.89857149
   -2.61281228    -4.19702482     5.89856577
   -2.61281013    -4.19702482     5.89857340
   -2.61280799    -4.19702482     5.89856434
20MABNDM000168_PR025 0.00000000
    2.78350139    -3.76570773    -6.47911263
    2.78350139    -3.76570773    -6.47911263
    2.78350139    -3.76570773    -6.47911263
    2.78350139    -3.76570773    -6.47911263
20MABNDM000168_PR026 0.00000000
    2.86255670    -3.67766356    -6.67461491
    2.76800370    -3.65259099    -6.67413855
    2.76751280    -3.68304443    -6.67462683
    2.76689363    -3.66748595    -6.67439604
20MABNDM000168_20MABNDL000077 0.00000000
    2.81475115    -3.75324249     2.69822550
    2.81474376    -3.75325608     2.69822550
    2.81474209    -3.75324845     2.69822550
    2.81472969    -3.75325727     2.69822550
20MABNDM000168_PR001 0.00000000
    2.84040332    -3.68424129     3.12405586
    2.84042811    -3.68426657     3.12405586
    2.84040308    -3.68425488     3.12405586
    2.84039164    -3.68424225     3.12405586
20MABNDL000196_PR036 0.00000000
   -2.84792089    -3.69353223    -6.47909927
   -2.84793782    -3.69352412    -6.47909880
   -2.84792614    -3.69351554    -6.47909880
   -2.84793353    -3.69351506    -6.47909880
20MABNDL000196_PR037 0.00000000
   -2.82485461    -3.77031326    -6.67505789
   -2.82485795    -3.77031779    -6.67505789
   -2.82484889    -3.77031565    -6.67505789
   -2.82485962    -3.77030993    -6.67505789
20MABNDL000196_20MABNDM000020 0.00000000
   -2.81439996    -3.74960828     2.68347168
   -2.81440353    -3.74960661     2.68347168
   -2.81440020    -3.74960136     2.68347168
   -2.81439066    -3.74960518     2.68347168
20MABNDL000196_PR012 0.00000000
   -2.73737073    -3.65721202     3.12316489
   -2.73815513    -3.75034404     3.12396932
   -2.73850107    -3.67535591     3.12345123
   -2.78834653    -3.66809344     3.12381077


*****************************************************************Rapport********************************************************************************** 
CAM-ECTC-US-IP_ECTC-US-IP-T    2016.04.23.22.52.59     3.68098993     3.84871011    -7.84336472     0.00002128     0.00000076     0.00003264 0.00000000 VRAI 
CAM-ECTC-US-IP_ECTC-US-IP      2016.04.23.22.52.59     3.53335733    -4.07045746    -7.87973423     0.00000112     0.00000000     0.00000057 0.00000000 VRAI 
CAM-ECTC-US-HO_ECTC-US-HO-T    2016.04.23.22.52.59     3.86898236     3.64756608   -12.94158382     0.00000296     0.00000000     0.00001528 0.00000000 VRAI 
CAM-ECTC-US-HO_ECTC-US-HO      2016.04.23.22.52.59     3.67361760    -3.92562375   -12.89301147     0.00000225     0.00000012     0.00000375 0.00000000 VRAI 
CAM-ECTC-USA-IP_ECTC-USA-IP-T  2016.04.23.22.52.59    -3.68171721     3.84914179    -7.89809971     0.00003919     0.00000053     0.00002062 0.00000000 VRAI 
CAM-ECTC-USA-IP_ECTC-USA-IP    2016.04.23.22.52.59    -3.53238387    -4.07031326    -7.87555294     0.00000148     0.00000023     0.00000140 0.00000000 VRAI 
CAM-ECTC-USA-HO_ECTC-USA-HO-T  2016.04.23.22.52.59    -3.86871109     3.64758306   -12.93384705     0.00001704     0.00000038     0.00000760 0.00000000 VRAI 
CAM-ECTC-USA-HO_ECTC-USA-HO    2016.04.23.22.52.59    -3.67597609    -3.92563367   -12.88937893     0.00000224     0.00000000     0.00000222 0.00000000 VRAI 
CAM-LBA-US_EBA-US-HO-H         2016.04.23.22.52.59     2.83555384    -3.69498100     6.48618975     0.00001000     0.00000826     0.00000019 0.00000000 VRAI 
CAM-LBA-US_JDA-US-H            2016.04.23.22.52.59     2.82024455    -3.73083563     6.67530489     0.00000419     0.00000708     0.00000000 0.00000000 VRAI 
CAM-LBA-US_CAM-LBC-US          2016.04.23.22.52.59     2.83671894    -3.75063119    -2.68949890     0.00002433     0.00000881     0.00000000 0.00000000 VRAI 
CAM-LBA-US_EBC-US-IP-H         2016.04.23.22.52.59     2.85108118    -3.68030882    -3.11695256     0.00001029     0.00000686     0.00000019 0.00000000 VRAI 
CAM-LBA-USA_EBA-USA-HO-H       2016.04.23.22.52.59    -2.86449963    -3.73439598     6.48601842     0.00001317     0.00000375     0.00000024 0.00000000 VRAI 
CAM-LBA-USA_JDA-USA-H          2016.04.23.22.52.59    -2.88384688    -3.67258674     7.43189907     0.00001482     0.00000762     0.00000000 0.00000000 VRAI 
CAM-LBA-USA_CAM-LBC-USA        2016.04.23.22.52.59    -2.76538479    -3.70650500    -2.71058440     0.00000147     0.00000412     0.00000000 0.00000000 VRAI 
CAM-LBA-USA_EBC-USA-IP-H       2016.04.23.22.52.59    -2.79958028    -3.69010967    -3.11713415     0.00003497     0.00002457     0.00000010 0.00000000 VRAI 
CAM-ECTA-US-IP_ECTA-US-IP-T    2016.04.23.22.52.59     3.54994696     3.84863025     8.10590148     0.01414643     0.00001683     0.00020193 0.00000000 VRAI 
CAM-ECTA-US-IP_ECTA-US-IP      2016.04.23.22.52.59     3.52011698    -4.07061148     7.89737940     0.00000106     0.00000000     0.00000122 0.00000000 VRAI 
CAM-ECTA-US-HO_ECTA-US-HO-T    2016.04.23.22.52.59     3.87555248     3.64747167    12.93595266     0.00002543     0.00000041     0.00000782 0.00000000 VRAI 
CAM-ECTA-US-HO_ECTA-US-HO      2016.04.23.22.52.59     3.66448545    -3.92580402    12.88412642     0.00000240     0.00000021     0.00000104 0.00000000 VRAI 
CAM-ECTA-USA-IP_ECTA-USA-IP-T  2016.04.23.22.52.59    -3.68111986     3.84881014     7.89874697     0.00002789     0.00000087     0.00001943 0.00000000 VRAI 
CAM-ECTA-USA-IP_ECTA-USA-IP    2016.04.23.22.52.59    -3.53487456    -4.07042980     7.89143097     0.00000166     0.00000000     0.00000062 0.00000000 VRAI 
CAM-ECTA-USA-HO_ECTA-USA-HO-T  2016.04.23.22.52.59    -3.86152738     3.64768982    12.93608546     0.00000320     0.00000000     0.00003485 0.00000000 VRAI 
CAM-ECTA-USA-HO_ECTA-USA-HO    2016.04.23.22.52.59    -3.68508887    -3.92559773    12.88592052     0.00000666     0.00000031     0.00000657 0.00000000 VRAI 
CAM-JDC-US-IP_JDC-US-IP        2016.04.23.22.52.59     2.59963644    -4.19501352    -6.54799426     0.00000240     0.00000000     0.00000062 0.00000000 VRAI 
CAM-JDC-US-HO_JDC-US-HO        2016.04.23.22.52.59     2.61014652    -4.14002848    -6.93110323     0.00000435     0.00000000     0.00000058 0.00000000 VRAI 
CAM-JDC-USA-IP_JDC-USA-IP      2016.04.23.22.52.59    -2.60460544    -4.19508934    -6.54053175     0.00000347     0.00000000     0.00000375 0.00000000 VRAI 
CAM-JDC-USA-HO_JDC-USA-HO      2016.04.23.22.52.59    -2.59368455    -4.14012814    -6.92686200     0.00000568     0.00000000     0.00000402 0.00000000 VRAI 
CAM-JDA-US-IP_JDA-US-IP        2016.04.23.22.52.59     2.58485144    -4.19496298     6.54849482     0.00000166     0.00000000     0.00000226 0.00000000 VRAI 
CAM-JDA-US-HO_JDA-US-HO        2016.04.23.22.52.59     2.59421003    -4.13996410     6.94837272     0.00000499     0.00000000     0.00000141 0.00000000 VRAI 
CAM-JDA-USA-IP_JDA-USA-IP      2016.04.23.22.52.59    -2.59781367    -4.19505119     6.53890324     0.00000106     0.00000000     0.00000197 0.00000000 VRAI 
CAM-JDA-USA-HO_JDA-USA-HO      2016.04.23.22.52.59    -2.60448235    -4.13995647     6.94262433     0.00000211     0.00000000     0.00000418 0.00000000 VRAI 
CAM-EBC-US-IP_EBC-US-IP        2016.04.23.22.52.59     2.60384429    -4.19700384    -3.82520610     0.00000172     0.00000000     0.00000223 0.00000000 VRAI 
CAM-EBC-US-HO_EBC-US-HO        2016.04.23.22.52.59     2.60560149    -4.19701946    -5.89347374     0.00000202     0.00000021     0.00000166 0.00000000 VRAI 
CAM-EBC-USA-IP_EBC-USA-IP      2016.04.23.22.52.59    -2.61132795    -4.19698286    -3.82727802     0.00000409     0.00000000     0.00000410 0.00000000 VRAI 
CAM-EBC-USA-HO_EBC-USA-HO      2016.04.23.22.52.59    -2.61580753    -4.19701958    -5.89169347     0.00000083     0.00000000     0.00000148 0.00000000 VRAI 
CAM-EBA-US-IP_EBA-US-IP        2016.04.23.22.52.59     2.61459708    -4.19698811     3.83337253     0.00000198     0.00000000     0.00000514 0.00000000 VRAI 
CAM-EBA-US-HO_EBA-US-HO        2016.04.23.22.52.59     2.61676258    -4.19703007     5.89771390     0.00000280     0.00000000     0.00000079 0.00000000 VRAI 
CAM-EBA-USA-IP_EBA-USA-IP      2016.04.23.22.52.59    -2.61121839    -4.19700384     3.83566338     0.00000595     0.00000000     0.00000300 0.00000000 VRAI 
CAM-EBA-USA-HO_EBA-USA-HO      2016.04.23.22.52.59    -2.61280996    -4.19702482     5.89856875     0.00000155     0.00000000     0.00000379 0.00000000 VRAI 
CAM-LBC-US_EBC-US-HO-H         2016.04.23.22.52.59     2.78350139    -3.76570773    -6.47911263     0.00000000     0.00000000     0.00000000 0.00000000 VRAI 
CAM-LBC-US_JDC-US-H            2016.04.23.22.52.59     2.79124171    -3.67019624    -6.67444408     0.04117561     0.01159879     0.00019890 0.00000000 VRAI 
CAM-LBC-US_CAM-LBA-US          2016.04.23.22.52.59     2.81474167    -3.75325108     2.69822550     0.00000771     0.00000600     0.00000000 0.00000000 VRAI 
CAM-LBC-US_EBA-US-IP-H         2016.04.23.22.52.59     2.84040654    -3.68425125     3.12405586     0.00001332     0.00001034     0.00000000 0.00000000 VRAI 
CAM-LBC-USA_EBC-USA-HO-H       2016.04.23.22.52.59    -2.84792960    -3.69352174    -6.47909892     0.00000653     0.00000705     0.00000021 0.00000000 VRAI 
CAM-LBC-USA_JDC-USA-H          2016.04.23.22.52.59    -2.82485527    -3.77031416    -6.67505789     0.00000410     0.00000292     0.00000000 0.00000000 VRAI 
CAM-LBC-USA_CAM-LBA-USA        2016.04.23.22.52.59    -2.81439859    -3.74960536     2.68347168     0.00000479     0.00000255     0.00000000 0.00000000 VRAI 
CAM-LBC-USA_EBA-USA-IP-H       2016.04.23.22.52.59    -2.75059336    -3.68775135     3.12359905     0.02180065     0.03671027     0.00031316 0.00000000 VRAI 
