********** Fichier qui contient une sauvegarde des coordonnees images + coordonnees images transformees dans le repere BCAM (MOUNT) + coordonnees des prismes dans le repere MOUNT********** 
********************************************************************** Unite en metres (m)************************************************************************************************** 

*******************************************************************coordonnees images dans le repere CCD *********************************************************************************** 
20MABNDB000069_PR031
Spot 1     0.00028328     0.00141141
Spot 2     0.00034101     0.00141306
Spot 1     0.00028321     0.00141163
Spot 2     0.00034143     0.00141330
Spot 1     0.00028329     0.00141150
Spot 2     0.00034102     0.00141303
Spot 1     0.00028357     0.00141163
Spot 2     0.00034151     0.00141339
Spot 1     0.00028360     0.00141186
Spot 2     0.00034067     0.00141303
20MABNDB000069_PR033
Spot 1     0.00183356     0.00201300
Spot 2     0.00230404     0.00203246
Spot 1     0.00183352     0.00201313
Spot 2     0.00230415     0.00203229
Spot 1     0.00183351     0.00201338
Spot 2     0.00230414     0.00203241
Spot 1     0.00183352     0.00201313
Spot 2     0.00230398     0.00203250
Spot 1     0.00183348     0.00201312
Spot 2     0.00230401     0.00203258
20MABNDB000131_PR032
Spot 1     0.00277909     0.00108540
Spot 2     0.00283867     0.00108867
Spot 1     0.00277897     0.00108508
Spot 2     0.00283865     0.00108825
Spot 1     0.00277870     0.00108538
Spot 2     0.00283850     0.00108842
Spot 1     0.00277910     0.00108524
Spot 2     0.00283864     0.00108856
Spot 1     0.00277895     0.00108547
Spot 2     0.00283846     0.00108858
20MABNDB000131_PR034
Spot 1     0.00092726     0.00035776
Spot 2     0.00110346     0.00035658
Spot 1     0.00092730     0.00035749
Spot 2     0.00110354     0.00035659
Spot 1     0.00092734     0.00035766
Spot 2     0.00110350     0.00035672
Spot 1     0.00092740     0.00035753
Spot 2     0.00110361     0.00035656
Spot 1     0.00092740     0.00035758
Spot 2     0.00110338     0.00035658
20MABNDA000208_PR042
Spot 1     0.00305613     0.00094313
Spot 2     0.00298883     0.00094428
Spot 1     0.00305637     0.00094327
Spot 2     0.00298789     0.00094453
Spot 1     0.00305597     0.00094314
Spot 2     0.00298883     0.00094476
Spot 1     0.00305610     0.00094340
Spot 2     0.00298885     0.00094445
Spot 1     0.00305628     0.00094318
Spot 2     0.00298848     0.00094434
20MABNDA000208_PR046
Spot 1     0.00145808     0.00210508
Spot 2     0.00098297     0.00210977
Spot 1     0.00145823     0.00210530
Spot 2     0.00098345     0.00211010
Spot 1     0.00145814     0.00210518
Spot 2     0.00098285     0.00210974
Spot 1     0.00145824     0.00210517
Spot 2     0.00098348     0.00211010
Spot 1     0.00145815     0.00210550
Spot 2     0.00098309     0.00210943
20MABNDA000035_PR044
Spot 1     0.00074039     0.00126578
Spot 2     0.00068418     0.00125982
Spot 1     0.00074076     0.00126595
Spot 2     0.00068428     0.00126002
Spot 1     0.00074125     0.00126588
Spot 2     0.00068449     0.00125993
Spot 1     0.00074079     0.00126596
Spot 2     0.00068430     0.00126000
20MABNDA000035_PR045
Spot 1     0.00254821     0.00051228
Spot 2     0.00237127     0.00051089
Spot 1     0.00254815     0.00051234
Spot 2     0.00237117     0.00051084
Spot 1     0.00254815     0.00051252
Spot 2     0.00237119     0.00051096
Spot 1     0.00254822     0.00051223
Spot 2     0.00237117     0.00051087
20MABNDL000077_PR002
Spot 1     0.00079432     0.00149418
Spot 2     0.00095635     0.00149541
Spot 1     0.00079421     0.00149471
Spot 2     0.00095699     0.00149511
Spot 1     0.00079457     0.00149394
Spot 2     0.00095638     0.00149527
Spot 1     0.00079472     0.00149441
Spot 2     0.00095648     0.00149520
20MABNDL000077_PR003
Spot 1     0.00152572     0.00119010
Spot 2     0.00167610     0.00118994
Spot 1     0.00152581     0.00118759
Spot 2     0.00167635     0.00119013
Spot 1     0.00152594     0.00119012
Spot 2     0.00167583     0.00118985
Spot 1     0.00152593     0.00118875
Spot 2     0.00167602     0.00118979
20MABNDL000077_20MABNDM000168
Spot 1     0.00188416     0.00148867
Spot 2     0.00204500     0.00205500
Spot 1     0.00188432     0.00148847
Spot 2     0.00202500     0.00034500
Spot 1     0.00188443     0.00148824
Spot 2     0.00202500     0.00034500
Spot 1     0.00188434     0.00148819
Spot 2     0.00202500     0.00034500
20MABNDL000077_PR024
Spot 1     0.00262792     0.00171708
Spot 2     0.00272938     0.00172055
Spot 1     0.00262792     0.00171684
Spot 2     0.00272940     0.00172060
Spot 1     0.00262792     0.00171700
Spot 2     0.00272948     0.00172036
Spot 1     0.00262781     0.00171673
Spot 2     0.00272954     0.00172050
20MABNDM000020_PR013
Spot 1     0.00164315     0.00213877
Spot 2     0.00148967     0.00214471
Spot 1     0.00164208     0.00213893
Spot 2     0.00149012     0.00214414
Spot 1     0.00164301     0.00213800
Spot 2     0.00148996     0.00214381
Spot 1     0.00164315     0.00213914
Spot 2     0.00148951     0.00214470
20MABNDM000020_PR014
Spot 1     0.00267967     0.00227830
Spot 2     0.00251688     0.00228628
Spot 1     0.00267958     0.00227865
Spot 2     0.00251776     0.00228725
Spot 1     0.00268022     0.00227842
Spot 2     0.00251579     0.00228595
Spot 1     0.00267964     0.00227847
Spot 2     0.00251689     0.00228630
20MABNDM000020_20MABNDL000196
Spot 1     0.00200155     0.00057960
Spot 2     0.00230500     0.00010500
Spot 1     0.00200136     0.00057947
Spot 2     0.00230500     0.00010500
Spot 1     0.00200144     0.00057951
Spot 2     0.00230500     0.00010500
Spot 1     0.00200140     0.00057943
Spot 2     0.00230500     0.00010500
20MABNDM000020_PR035
Spot 1     0.00126788     0.00087588
Spot 2     0.00119636     0.00090731
Spot 1     0.00126800     0.00087572
Spot 2     0.00119649     0.00090707
Spot 1     0.00126803     0.00087540
Spot 2     0.00119656     0.00090690
Spot 1     0.00126908     0.00087498
Spot 2     0.00119669     0.00090678
20MABNDA000188_PR008
Spot 1     0.00283500     0.00012500
Spot 2     0.00331500     0.00005000
Spot 1     0.00279500     0.00055500
Spot 2     0.00331900     0.00005100
Spot 1     0.00279500     0.00055500
Spot 2     0.00283500     0.00012500
Spot 1     0.00287500     0.00008500
Spot 2     0.00300500     0.00044500
20MABNDA000188_PR018
Spot 1     0.00164794     0.00175003
Spot 2     0.00118064     0.00174763
Spot 1     0.00164809     0.00175011
Spot 2     0.00118067     0.00174764
Spot 1     0.00164792     0.00175008
Spot 2     0.00118059     0.00174774
Spot 1     0.00164790     0.00175000
Spot 2     0.00118075     0.00174774
20MABNDA000039_PR009
Spot 1     0.00066178     0.00117333
Spot 2     0.00061462     0.00117746
Spot 1     0.00066149     0.00117340
Spot 2     0.00061488     0.00117715
Spot 1     0.00066164     0.00117340
Spot 2     0.00061435     0.00117743
Spot 1     0.00066198     0.00117327
Spot 2     0.00061443     0.00117744
20MABNDA000039_PR011
Spot 1     0.00276328     0.00027730
Spot 2     0.00258830     0.00027226
Spot 1     0.00276313     0.00027733
Spot 2     0.00258823     0.00027219
Spot 1     0.00276325     0.00027731
Spot 2     0.00258819     0.00027218
Spot 1     0.00276325     0.00027738
Spot 2     0.00258826     0.00027220
20MABNDB000155_PR020
Spot 1     0.00061788     0.00112358
Spot 2     0.00068214     0.00111994
Spot 1     0.00061762     0.00112337
Spot 2     0.00068224     0.00111915
Spot 1     0.00061757     0.00112427
Spot 2     0.00068274     0.00111952
Spot 1     0.00061743     0.00112356
Spot 2     0.00068235     0.00111958
20MABNDB000155_PR022
Spot 1     0.00208363     0.00134966
Spot 2     0.00255711     0.00134490
Spot 1     0.00208375     0.00134955
Spot 2     0.00255705     0.00134495
Spot 1     0.00208343     0.00134951
Spot 2     0.00255701     0.00134495
Spot 1     0.00208347     0.00134968
Spot 2     0.00255720     0.00134490
20MABNDB000010_PR021
Spot 1     0.00286655     0.00115626
Spot 2     0.00292054     0.00115919
Spot 1     0.00286682     0.00115642
Spot 2     0.00292042     0.00115914
Spot 1     0.00286698     0.00115676
Spot 2     0.00292043     0.00115946
Spot 1     0.00286703     0.00115617
Spot 2     0.00292077     0.00115905
20MABNDB000010_PR023
Spot 1     0.00130726     0.00033098
Spot 2     0.00148183     0.00032956
Spot 1     0.00130713     0.00033099
Spot 2     0.00148167     0.00032976
Spot 1     0.00130740     0.00033082
Spot 2     0.00148186     0.00032949
Spot 1     0.00130722     0.00033094
Spot 2     0.00148170     0.00032941
20MABNDB000212_PR029
Spot 1     0.00226271     0.00072515
Spot 2     0.00189616     0.00072558
Spot 1     0.00226266     0.00072520
Spot 2     0.00189659     0.00072486
Spot 1     0.00226283     0.00072505
Spot 2     0.00189630     0.00072500
Spot 1     0.00226270     0.00072535
Spot 2     0.00189616     0.00072529
20MABNDB000128_PR030
Spot 1     0.00188622     0.00200663
Spot 2     0.00209080     0.00200157
Spot 1     0.00188590     0.00200667
Spot 2     0.00209071     0.00200176
Spot 1     0.00188577     0.00200659
Spot 2     0.00209060     0.00200176
Spot 1     0.00188590     0.00200675
Spot 2     0.00209044     0.00200189
20MABNDA000444_PR040
Spot 1     0.00078156     0.00037309
Spot 2     0.00114864     0.00037061
Spot 1     0.00078196     0.00037324
Spot 2     0.00114855     0.00037065
Spot 1     0.00078198     0.00037376
Spot 2     0.00114875     0.00037063
Spot 1     0.00078171     0.00037307
Spot 2     0.00114877     0.00037051
20MABNDA000053_PR041
Spot 1     0.00164554     0.00199007
Spot 2     0.00144187     0.00198652
Spot 1     0.00164576     0.00198995
Spot 2     0.00144198     0.00198632
Spot 1     0.00164538     0.00198998
Spot 2     0.00144170     0.00198646
Spot 1     0.00164587     0.00198984
Spot 2     0.00144184     0.00198662
20MABNDA000196_PR006
Spot 1     0.00198511     0.00075881
Spot 2     0.00161918     0.00075635
Spot 1     0.00198506     0.00075903
Spot 2     0.00161885     0.00075661
Spot 1     0.00198516     0.00075891
Spot 2     0.00161911     0.00075670
Spot 1     0.00198478     0.00075888
Spot 2     0.00161893     0.00075643
20MABNDA000324_PR007
Spot 1     0.00195129     0.00120462
Spot 2     0.00174614     0.00121049
Spot 1     0.00195137     0.00120453
Spot 2     0.00174581     0.00121048
Spot 1     0.00195112     0.00120466
Spot 2     0.00174588     0.00121036
Spot 1     0.00195110     0.00120471
Spot 2     0.00174594     0.00121058
20MABNDB000001_PR017
Spot 1     0.00188610     0.00047161
Spot 2     0.00225487     0.00048184
Spot 1     0.00188611     0.00047154
Spot 2     0.00225487     0.00048175
Spot 1     0.00188607     0.00047154
Spot 2     0.00225473     0.00048153
Spot 1     0.00188613     0.00047163
Spot 2     0.00225469     0.00048208
20MABNDB000260_PR019
Spot 1     0.00192050     0.00149537
Spot 2     0.00212423     0.00149500
Spot 1     0.00192054     0.00149479
Spot 2     0.00212404     0.00149442
Spot 1     0.00192024     0.00149521
Spot 2     0.00212404     0.00149462
Spot 1     0.00192053     0.00149500
Spot 2     0.00212385     0.00149500
20MABNDB000135_PR027
Spot 1     0.00189073     0.00092367
Spot 2     0.00210973     0.00092667
Spot 1     0.00189083     0.00092382
Spot 2     0.00210967     0.00092678
Spot 1     0.00189090     0.00092390
Spot 2     0.00210993     0.00092684
Spot 1     0.00189103     0.00092379
Spot 2     0.00210971     0.00092669
20MABNDB000126_PR028
Spot 1     0.00164374     0.00200131
Spot 2     0.00192645     0.00200345
Spot 1     0.00164379     0.00200131
Spot 2     0.00192611     0.00200336
Spot 1     0.00164373     0.00200124
Spot 2     0.00192614     0.00200343
Spot 1     0.00164386     0.00200117
Spot 2     0.00192604     0.00200360
20MABNDA000272_PR038
Spot 1     0.00192400     0.00096224
Spot 2     0.00170148     0.00096119
Spot 1     0.00192393     0.00096286
Spot 2     0.00170150     0.00096150
Spot 1     0.00192368     0.00096249
Spot 2     0.00170170     0.00096130
Spot 1     0.00192399     0.00096251
Spot 2     0.00170163     0.00096134
20MABNDA000003_PR039
Spot 1     0.00200167     0.00192031
Spot 2     0.00227975     0.00192095
Spot 1     0.00200164     0.00192062
Spot 2     0.00227995     0.00192102
Spot 1     0.00200162     0.00192031
Spot 2     0.00227985     0.00192079
Spot 1     0.00200155     0.00192040
Spot 2     0.00227978     0.00192084
20MABNDA000318_PR004
Spot 1     0.00214735     0.00163167
Spot 2     0.00192918     0.00163239
Spot 1     0.00214741     0.00163160
Spot 2     0.00192964     0.00163271
Spot 1     0.00214741     0.00163139
Spot 2     0.00192904     0.00163242
Spot 1     0.00214759     0.00163173
Spot 2     0.00192929     0.00163256
20MABNDA000334_PR005
Spot 1     0.00247485     0.00158017
Spot 2     0.00219465     0.00158073
Spot 1     0.00247470     0.00158047
Spot 2     0.00219433     0.00158085
Spot 1     0.00247470     0.00158040
Spot 2     0.00219409     0.00158099
Spot 1     0.00247468     0.00158051
Spot 2     0.00219440     0.00158082
20MABNDB000317_PR015
Spot 1     0.00148814     0.00160950
Spot 2     0.00170741     0.00160381
Spot 1     0.00148815     0.00160951
Spot 2     0.00170724     0.00160364
Spot 1     0.00148836     0.00160945
Spot 2     0.00170759     0.00160385
Spot 1     0.00148828     0.00160956
Spot 2     0.00170755     0.00160359
20MABNDB000146_PR016
Spot 1     0.00144608     0.00133182
Spot 2     0.00172132     0.00133472
Spot 1     0.00144603     0.00133184
Spot 2     0.00172167     0.00133480
Spot 1     0.00144613     0.00133178
Spot 2     0.00172137     0.00133480
Spot 1     0.00144590     0.00133169
Spot 2     0.00172157     0.00133461
20MABNDM000168_PR025
Spot 1     0.00114500     0.00017500
Spot 2     0.00114500     0.00017500
Spot 1     0.00105500     0.00031500
Spot 2     0.00105500     0.00031500
Spot 1     0.00105500     0.00031500
Spot 2     0.00054500     0.00102500
Spot 1     0.00114500     0.00017500
Spot 2     0.00114500     0.00017500
20MABNDM000168_PR026
Spot 1     0.00237500     0.00023500
Spot 2     0.00276500     0.00031500
Spot 1     0.00197750     0.00026500
Spot 2     0.00182500     0.00239500
Spot 1     0.00182500     0.00239500
Spot 2     0.00242000     0.00005750
Spot 1     0.00182500     0.00239500
Spot 2     0.00182500     0.00239500
20MABNDM000168_20MABNDL000077
Spot 1     0.00153790     0.00129609
Spot 2     0.00175639     0.00129988
Spot 1     0.00153758     0.00129635
Spot 2     0.00175649     0.00129995
Spot 1     0.00153767     0.00129634
Spot 2     0.00175674     0.00130032
Spot 1     0.00153759     0.00129635
Spot 2     0.00175661     0.00130023
20MABNDM000168_PR001
Spot 1     0.00080670     0.00161599
Spot 2     0.00070453     0.00162039
Spot 1     0.00080639     0.00161544
Spot 2     0.00070437     0.00162032
Spot 1     0.00080629     0.00161576
Spot 2     0.00070437     0.00162079
Spot 1     0.00080629     0.00161591
Spot 2     0.00070441     0.00162057
20MABNDL000196_PR036
Spot 1     0.00095828     0.00164474
Spot 2     0.00112288     0.00164412
Spot 1     0.00095799     0.00164465
Spot 2     0.00112283     0.00164417
Spot 1     0.00095806     0.00164464
Spot 2     0.00112247     0.00164429
Spot 1     0.00095790     0.00164460
Spot 2     0.00112250     0.00164384
20MABNDL000196_PR037
Spot 1     0.00248310     0.00116490
Spot 2     0.00263793     0.00116318
Spot 1     0.00248286     0.00116488
Spot 2     0.00263781     0.00116331
Spot 1     0.00248267     0.00116512
Spot 2     0.00263783     0.00116338
Spot 1     0.00248291     0.00116506
Spot 2     0.00263788     0.00116326
20MABNDL000196_20MABNDM000020
Spot 1     0.00195190     0.00102974
Spot 2     0.00173030     0.00102948
Spot 1     0.00195216     0.00102960
Spot 2     0.00173028     0.00102964
Spot 1     0.00195229     0.00102949
Spot 2     0.00173039     0.00102953
Spot 1     0.00195230     0.00102958
Spot 2     0.00173026     0.00102939
20MABNDL000196_PR012
Spot 1     0.00293500     0.00023500
Spot 2     0.00293500     0.00023500
Spot 1     0.00293500     0.00023500
Spot 2     0.00293500     0.00023500
Spot 1     0.00293500     0.00023500
Spot 2     0.00293500     0.00023500
Spot 1     0.00293500     0.00023500
Spot 2     0.00159500     0.00010250


****************************************************************coordonnees images transformees dans le repere MOUNT************************************************************************* 
20MABNDB000069_PR031
Spot 1    -0.01359271    -0.01285623    -0.07388500
Spot 2    -0.01353496    -0.01285696    -0.07388500
Spot 1    -0.01359277    -0.01285600    -0.07388500
Spot 2    -0.01353453    -0.01285674    -0.07388500
Spot 1    -0.01359269    -0.01285614    -0.07388500
Spot 2    -0.01353495    -0.01285699    -0.07388500
Spot 1    -0.01359241    -0.01285602    -0.07388500
Spot 2    -0.01353445    -0.01285665    -0.07388500
Spot 1    -0.01359237    -0.01285579    -0.07388500
Spot 2    -0.01353530    -0.01285698    -0.07388500
20MABNDB000069_PR033
Spot 1    -0.01201892    -0.01231912    -0.07388500
Spot 2    -0.01154804    -0.01231910    -0.07388500
Spot 1    -0.01201896    -0.01231899    -0.07388500
Spot 2    -0.01154794    -0.01231927    -0.07388500
Spot 1    -0.01201896    -0.01231874    -0.07388500
Spot 2    -0.01154794    -0.01231915    -0.07388500
Spot 1    -0.01201896    -0.01231899    -0.07388500
Spot 2    -0.01154810    -0.01231905    -0.07388500
Spot 1    -0.01201900    -0.01231900    -0.07388500
Spot 2    -0.01154807    -0.01231897    -0.07388500
20MABNDB000131_PR032
Spot 1    -0.01144110    -0.01302934    -0.07533000
Spot 2    -0.01138154    -0.01302577    -0.07533000
Spot 1    -0.01144122    -0.01302966    -0.07533000
Spot 2    -0.01138155    -0.01302619    -0.07533000
Spot 1    -0.01144149    -0.01302937    -0.07533000
Spot 2    -0.01138170    -0.01302602    -0.07533000
Spot 1    -0.01144109    -0.01302950    -0.07533000
Spot 2    -0.01138157    -0.01302588    -0.07533000
Spot 1    -0.01144124    -0.01302927    -0.07533000
Spot 2    -0.01138175    -0.01302586    -0.07533000
20MABNDB000131_PR034
Spot 1    -0.01328924    -0.01376630    -0.07533000
Spot 2    -0.01311304    -0.01376659    -0.07533000
Spot 1    -0.01328920    -0.01376657    -0.07533000
Spot 2    -0.01311296    -0.01376658    -0.07533000
Spot 1    -0.01328916    -0.01376640    -0.07533000
Spot 2    -0.01311300    -0.01376645    -0.07533000
Spot 1    -0.01328910    -0.01376653    -0.07533000
Spot 2    -0.01311289    -0.01376661    -0.07533000
Spot 1    -0.01328910    -0.01376648    -0.07533000
Spot 2    -0.01311312    -0.01376659    -0.07533000
20MABNDA000208_PR042
Spot 1    -0.01392686     0.01305289    -0.07273700
Spot 2    -0.01385956     0.01305180    -0.07273700
Spot 1    -0.01392710     0.01305275    -0.07273700
Spot 2    -0.01385862     0.01305155    -0.07273700
Spot 1    -0.01392670     0.01305288    -0.07273700
Spot 2    -0.01385956     0.01305132    -0.07273700
Spot 1    -0.01392683     0.01305262    -0.07273700
Spot 2    -0.01385958     0.01305163    -0.07273700
Spot 1    -0.01392701     0.01305284    -0.07273700
Spot 2    -0.01385921     0.01305174    -0.07273700
20MABNDA000208_PR046
Spot 1    -0.01232779     0.01189234    -0.07273700
Spot 2    -0.01185268     0.01188807    -0.07273700
Spot 1    -0.01232794     0.01189212    -0.07273700
Spot 2    -0.01185316     0.01188774    -0.07273700
Spot 1    -0.01232785     0.01189224    -0.07273700
Spot 2    -0.01185256     0.01188810    -0.07273700
Spot 1    -0.01232795     0.01189225    -0.07273700
Spot 2    -0.01185319     0.01188774    -0.07273700
Spot 1    -0.01232786     0.01189192    -0.07273700
Spot 2    -0.01185280     0.01188841    -0.07273700
20MABNDA000035_PR044
Spot 1    -0.01157510     0.01299148    -0.07483200
Spot 2    -0.01151885     0.01299704    -0.07483200
Spot 1    -0.01157547     0.01299131    -0.07483200
Spot 2    -0.01151895     0.01299684    -0.07483200
Spot 1    -0.01157596     0.01299139    -0.07483200
Spot 2    -0.01151916     0.01299693    -0.07483200
Spot 1    -0.01157550     0.01299130    -0.07483200
Spot 2    -0.01151897     0.01299686    -0.07483200
20MABNDA000035_PR045
Spot 1    -0.01337751     0.01375782    -0.07483200
Spot 2    -0.01320057     0.01375795    -0.07483200
Spot 1    -0.01337745     0.01375776    -0.07483200
Spot 2    -0.01320047     0.01375800    -0.07483200
Spot 1    -0.01337746     0.01375758    -0.07483200
Spot 2    -0.01320049     0.01375788    -0.07483200
Spot 1    -0.01337752     0.01375787    -0.07483200
Spot 2    -0.01320047     0.01375797    -0.07483200
20MABNDL000077_PR002
Spot 1     0.01186459     0.03556965    -0.07463200
Spot 2     0.01202662     0.03556932    -0.07463200
Spot 1     0.01186448     0.03557019    -0.07463200
Spot 2     0.01202726     0.03556902    -0.07463200
Spot 1     0.01186484     0.03556941    -0.07463200
Spot 2     0.01202665     0.03556918    -0.07463200
Spot 1     0.01186499     0.03556988    -0.07463200
Spot 2     0.01202675     0.03556911    -0.07463200
20MABNDL000077_PR003
Spot 1     0.01259303     0.03525855    -0.07463200
Spot 2     0.01274340     0.03525694    -0.07463200
Spot 1     0.01259309     0.03525604    -0.07463200
Spot 2     0.01274365     0.03525713    -0.07463200
Spot 1     0.01259325     0.03525857    -0.07463200
Spot 2     0.01274313     0.03525686    -0.07463200
Spot 1     0.01259323     0.03525720    -0.07463200
Spot 2     0.01274332     0.03525679    -0.07463200
20MABNDL000077_20MABNDM000168
Spot 1    -0.01272241     0.03555034    -0.00695400
Spot 2    -0.01288904     0.03611499    -0.00695400
Spot 1    -0.01272257     0.03555014    -0.00695400
Spot 2    -0.01285154     0.03440529    -0.00695400
Spot 1    -0.01272268     0.03554991    -0.00695400
Spot 2    -0.01285154     0.03440529    -0.00695400
Spot 1    -0.01272259     0.03554986    -0.00695400
Spot 2    -0.01285154     0.03440529    -0.00695400
20MABNDL000077_PR024
Spot 1    -0.01346847     0.03577112    -0.00695400
Spot 2    -0.01356996     0.03577356    -0.00695400
Spot 1    -0.01346847     0.03577088    -0.00695400
Spot 2    -0.01356998     0.03577360    -0.00695400
Spot 1    -0.01346847     0.03577104    -0.00695400
Spot 2    -0.01357006     0.03577336    -0.00695400
Spot 1    -0.01346836     0.03577077    -0.00695400
Spot 2    -0.01357012     0.03577350    -0.00695400
20MABNDM000020_PR013
Spot 1    -0.01270227    -0.03609695    -0.00523500
Spot 2    -0.01285558    -0.03610628    -0.00523500
Spot 1    -0.01270333    -0.03609713    -0.00523500
Spot 2    -0.01285514    -0.03610570    -0.00523500
Spot 1    -0.01270242    -0.03609618    -0.00523500
Spot 2    -0.01285531    -0.03610537    -0.00523500
Spot 1    -0.01270226    -0.03609732    -0.00523500
Spot 2    -0.01285574    -0.03610627    -0.00523500
20MABNDM000020_PR014
Spot 1    -0.01166291    -0.03621352    -0.00523500
Spot 2    -0.01182549    -0.03622510    -0.00523500
Spot 1    -0.01166300    -0.03621387    -0.00523500
Spot 2    -0.01182459    -0.03622605    -0.00523500
Spot 1    -0.01166236    -0.03621363    -0.00523500
Spot 2    -0.01182658    -0.03622480    -0.00523500
Spot 1    -0.01166294    -0.03621369    -0.00523500
Spot 2    -0.01182548    -0.03622512    -0.00523500
20MABNDM000020_20MABNDL000196
Spot 1     0.01268465    -0.03454817    -0.07583800
Spot 2     0.01238113    -0.03407361    -0.07583800
Spot 1     0.01268483    -0.03454804    -0.07583800
Spot 2     0.01238113    -0.03407361    -0.07583800
Spot 1     0.01268476    -0.03454808    -0.07583800
Spot 2     0.01238113    -0.03407361    -0.07583800
Spot 1     0.01268479    -0.03454800    -0.07583800
Spot 2     0.01238113    -0.03407361    -0.07583800
20MABNDM000020_PR035
Spot 1     0.01341836    -0.03484435    -0.07583800
Spot 2     0.01348988    -0.03487577    -0.07583800
Spot 1     0.01341824    -0.03484419    -0.07583800
Spot 2     0.01348975    -0.03487553    -0.07583800
Spot 1     0.01341821    -0.03484387    -0.07583800
Spot 2     0.01348968    -0.03487536    -0.07583800
Spot 1     0.01341716    -0.03484345    -0.07583800
Spot 2     0.01348955    -0.03487524    -0.07583800
20MABNDA000188_PR008
Spot 1    -0.01385116     0.01393841    -0.07502000
Spot 2    -0.01433050     0.01401752    -0.07502000
Spot 1    -0.01381484     0.01350809    -0.07502000
Spot 2    -0.01433451     0.01401656    -0.07502000
Spot 1    -0.01381484     0.01350809    -0.07502000
Spot 2    -0.01385116     0.01393841    -0.07502000
Spot 1    -0.01389082     0.01397875    -0.07502000
Spot 2    -0.01402389     0.01361988    -0.07502000
20MABNDA000188_PR018
Spot 1    -0.01267806     0.01230328    -0.07502000
Spot 2    -0.01221076     0.01230168    -0.07502000
Spot 1    -0.01267821     0.01230320    -0.07502000
Spot 2    -0.01221079     0.01230167    -0.07502000
Spot 1    -0.01267804     0.01230323    -0.07502000
Spot 2    -0.01221071     0.01230157    -0.07502000
Spot 1    -0.01267802     0.01230331    -0.07502000
Spot 2    -0.01221087     0.01230157    -0.07502000
20MABNDA000039_PR009
Spot 1    -0.01162390     0.01307080    -0.07444800
Spot 2    -0.01157676     0.01306646    -0.07444800
Spot 1    -0.01162361     0.01307072    -0.07444800
Spot 2    -0.01157702     0.01306677    -0.07444800
Spot 1    -0.01162376     0.01307072    -0.07444800
Spot 2    -0.01157649     0.01306649    -0.07444800
Spot 1    -0.01162410     0.01307086    -0.07444800
Spot 2    -0.01157657     0.01306648    -0.07444800
20MABNDA000039_PR011
Spot 1    -0.01372150     0.01397591    -0.07444800
Spot 2    -0.01354650     0.01398019    -0.07444800
Spot 1    -0.01372135     0.01397588    -0.07444800
Spot 2    -0.01354643     0.01398026    -0.07444800
Spot 1    -0.01372147     0.01397590    -0.07444800
Spot 2    -0.01354639     0.01398027    -0.07444800
Spot 1    -0.01372147     0.01397583    -0.07444800
Spot 2    -0.01354646     0.01398025    -0.07444800
20MABNDB000155_PR020
Spot 1    -0.01364819    -0.01313382    -0.07501700
Spot 2    -0.01358389    -0.01313658    -0.07501700
Spot 1    -0.01364845    -0.01313403    -0.07501700
Spot 2    -0.01358378    -0.01313736    -0.07501700
Spot 1    -0.01364851    -0.01313313    -0.07501700
Spot 2    -0.01358329    -0.01313699    -0.07501700
Spot 1    -0.01364864    -0.01313384    -0.07501700
Spot 2    -0.01358368    -0.01313693    -0.07501700
20MABNDB000155_PR022
Spot 1    -0.01218568    -0.01288769    -0.07501700
Spot 2    -0.01171218    -0.01288597    -0.07501700
Spot 1    -0.01218556    -0.01288780    -0.07501700
Spot 2    -0.01171224    -0.01288592    -0.07501700
Spot 1    -0.01218587    -0.01288784    -0.07501700
Spot 2    -0.01171228    -0.01288592    -0.07501700
Spot 1    -0.01218584    -0.01288767    -0.07501700
Spot 2    -0.01171209    -0.01288597    -0.07501700
20MABNDB000010_PR021
Spot 1    -0.01158451    -0.01292229    -0.07358200
Spot 2    -0.01153058    -0.01291844    -0.07358200
Spot 1    -0.01158424    -0.01292212    -0.07358200
Spot 2    -0.01153070    -0.01291850    -0.07358200
Spot 1    -0.01158409    -0.01292178    -0.07358200
Spot 2    -0.01153069    -0.01291818    -0.07358200
Spot 1    -0.01158403    -0.01292237    -0.07358200
Spot 2    -0.01153035    -0.01291858    -0.07358200
20MABNDB000010_PR023
Spot 1    -0.01312960    -0.01377386    -0.07358200
Spot 2    -0.01295503    -0.01377233    -0.07358200
Spot 1    -0.01312973    -0.01377386    -0.07358200
Spot 2    -0.01295519    -0.01377213    -0.07358200
Spot 1    -0.01312945    -0.01377402    -0.07358200
Spot 2    -0.01295500    -0.01377240    -0.07358200
Spot 1    -0.01312964    -0.01377391    -0.07358200
Spot 2    -0.01295515    -0.01377248    -0.07358200
20MABNDB000212_PR029
Spot 1    -0.01182488    -0.01325643    -0.07390500
Spot 2    -0.01219140    -0.01325209    -0.07390500
Spot 1    -0.01182493    -0.01325638    -0.07390500
Spot 2    -0.01219098    -0.01325281    -0.07390500
Spot 1    -0.01182476    -0.01325653    -0.07390500
Spot 2    -0.01219127    -0.01325267    -0.07390500
Spot 1    -0.01182489    -0.01325623    -0.07390500
Spot 2    -0.01219141    -0.01325238    -0.07390500
20MABNDB000128_PR030
Spot 1    -0.01246892    -0.01221073    -0.07353400
Spot 2    -0.01226432    -0.01221509    -0.07353400
Spot 1    -0.01246924    -0.01221070    -0.07353400
Spot 2    -0.01226442    -0.01221490    -0.07353400
Spot 1    -0.01246937    -0.01221078    -0.07353400
Spot 2    -0.01226453    -0.01221490    -0.07353400
Spot 1    -0.01246924    -0.01221062    -0.07353400
Spot 2    -0.01226469    -0.01221477    -0.07353400
20MABNDA000444_PR040
Spot 1    -0.01172114     0.01365626    -0.07412000
Spot 2    -0.01208822     0.01365409    -0.07412000
Spot 1    -0.01172154     0.01365611    -0.07412000
Spot 2    -0.01208813     0.01365405    -0.07412000
Spot 1    -0.01172155     0.01365559    -0.07412000
Spot 2    -0.01208833     0.01365406    -0.07412000
Spot 1    -0.01172129     0.01365628    -0.07412000
Spot 2    -0.01208836     0.01365418    -0.07412000
20MABNDA000053_PR041
Spot 1    -0.01240219     0.01212024    -0.07430100
Spot 2    -0.01219849     0.01211982    -0.07430100
Spot 1    -0.01240241     0.01212037    -0.07430100
Spot 2    -0.01219860     0.01212002    -0.07430100
Spot 1    -0.01240203     0.01212033    -0.07430100
Spot 2    -0.01219832     0.01211987    -0.07430100
Spot 1    -0.01240252     0.01212048    -0.07430100
Spot 2    -0.01219846     0.01211972    -0.07430100
20MABNDA000196_PR006
Spot 1    -0.01294020     0.01321941    -0.07967100
Spot 2    -0.01257426     0.01321716    -0.07967100
Spot 1    -0.01294015     0.01321918    -0.07967100
Spot 2    -0.01257394     0.01321690    -0.07967100
Spot 1    -0.01294025     0.01321931    -0.07967100
Spot 2    -0.01257420     0.01321681    -0.07967100
Spot 1    -0.01293987     0.01321933    -0.07967100
Spot 2    -0.01257402     0.01321708    -0.07967100
20MABNDA000324_PR007
Spot 1    -0.01255706     0.01281693    -0.07446800
Spot 2    -0.01235187     0.01281266    -0.07446800
Spot 1    -0.01255714     0.01281702    -0.07446800
Spot 2    -0.01235154     0.01281267    -0.07446800
Spot 1    -0.01255689     0.01281689    -0.07446800
Spot 2    -0.01235161     0.01281279    -0.07446800
Spot 1    -0.01255687     0.01281684    -0.07446800
Spot 2    -0.01235167     0.01281257    -0.07446800
20MABNDB000001_PR017
Spot 1    -0.01230191    -0.01351791    -0.07418400
Spot 2    -0.01193306    -0.01351158    -0.07418400
Spot 1    -0.01230190    -0.01351798    -0.07418400
Spot 2    -0.01193306    -0.01351167    -0.07418400
Spot 1    -0.01230194    -0.01351798    -0.07418400
Spot 2    -0.01193320    -0.01351189    -0.07418400
Spot 1    -0.01230188    -0.01351789    -0.07418400
Spot 2    -0.01193323    -0.01351134    -0.07418400
20MABNDB000260_PR019
Spot 1    -0.01241069    -0.01240721    -0.07492700
Spot 2    -0.01220699    -0.01240341    -0.07492700
Spot 1    -0.01241064    -0.01240779    -0.07492700
Spot 2    -0.01220717    -0.01240399    -0.07492700
Spot 1    -0.01241095    -0.01240738    -0.07492700
Spot 2    -0.01220718    -0.01240379    -0.07492700
Spot 1    -0.01241065    -0.01240758    -0.07492700
Spot 2    -0.01220737    -0.01240341    -0.07492700
20MABNDB000135_PR027
Spot 1    -0.01251386    -0.01318935    -0.07464700
Spot 2    -0.01229484    -0.01318879    -0.07464700
Spot 1    -0.01251375    -0.01318920    -0.07464700
Spot 2    -0.01229489    -0.01318868    -0.07464700
Spot 1    -0.01251368    -0.01318912    -0.07464700
Spot 2    -0.01229463    -0.01318862    -0.07464700
Spot 1    -0.01251355    -0.01318923    -0.07464700
Spot 2    -0.01229486    -0.01318877    -0.07464700
20MABNDB000126_PR028
Spot 1    -0.01253575    -0.01218087    -0.07500400
Spot 2    -0.01225306    -0.01217722    -0.07500400
Spot 1    -0.01253570    -0.01218087    -0.07500400
Spot 2    -0.01225340    -0.01217731    -0.07500400
Spot 1    -0.01253576    -0.01218094    -0.07500400
Spot 2    -0.01225337    -0.01217724    -0.07500400
Spot 1    -0.01253563    -0.01218101    -0.07500400
Spot 2    -0.01225347    -0.01217707    -0.07500400
20MABNDA000272_PR038
Spot 1    -0.01275967     0.01314923    -0.07417900
Spot 2    -0.01253715     0.01314989    -0.07417900
Spot 1    -0.01275960     0.01314861    -0.07417900
Spot 2    -0.01253717     0.01314958    -0.07417900
Spot 1    -0.01275935     0.01314898    -0.07417900
Spot 2    -0.01253737     0.01314978    -0.07417900
Spot 1    -0.01275966     0.01314896    -0.07417900
Spot 2    -0.01253730     0.01314974    -0.07417900
20MABNDA000003_PR039
Spot 1    -0.01280274     0.01213196    -0.07373400
Spot 2    -0.01308082     0.01213202    -0.07373400
Spot 1    -0.01280271     0.01213165    -0.07373400
Spot 2    -0.01308102     0.01213196    -0.07373400
Spot 1    -0.01280269     0.01213196    -0.07373400
Spot 2    -0.01308092     0.01213218    -0.07373400
Spot 1    -0.01280262     0.01213187    -0.07373400
Spot 2    -0.01308085     0.01213213    -0.07373400
20MABNDA000318_PR004
Spot 1    -0.01286715     0.01246356    -0.07310600
Spot 2    -0.01264898     0.01246348    -0.07310600
Spot 1    -0.01286721     0.01246363    -0.07310600
Spot 2    -0.01264944     0.01246316    -0.07310600
Spot 1    -0.01286721     0.01246384    -0.07310600
Spot 2    -0.01264884     0.01246345    -0.07310600
Spot 1    -0.01286739     0.01246350    -0.07310600
Spot 2    -0.01264909     0.01246331    -0.07310600
20MABNDA000334_PR005
Spot 1    -0.01311796     0.01254823    -0.07324100
Spot 2    -0.01283776     0.01254740    -0.07324100
Spot 1    -0.01311781     0.01254793    -0.07324100
Spot 2    -0.01283744     0.01254728    -0.07324100
Spot 1    -0.01311781     0.01254800    -0.07324100
Spot 2    -0.01283720     0.01254714    -0.07324100
Spot 1    -0.01311779     0.01254789    -0.07324100
Spot 2    -0.01283751     0.01254731    -0.07324100
20MABNDB000317_PR015
Spot 1    -0.01266626    -0.01248854    -0.07326100
Spot 2    -0.01244694    -0.01249168    -0.07326100
Spot 1    -0.01266625    -0.01248853    -0.07326100
Spot 2    -0.01244711    -0.01249185    -0.07326100
Spot 1    -0.01266604    -0.01248859    -0.07326100
Spot 2    -0.01244676    -0.01249164    -0.07326100
Spot 1    -0.01266612    -0.01248848    -0.07326100
Spot 2    -0.01244680    -0.01249190    -0.07326100
20MABNDB000146_PR016
Spot 1    -0.01276228    -0.01246179    -0.07450500
Spot 2    -0.01248705    -0.01245828    -0.07450500
Spot 1    -0.01276233    -0.01246177    -0.07450500
Spot 2    -0.01248670    -0.01245820    -0.07450500
Spot 1    -0.01276223    -0.01246183    -0.07450500
Spot 2    -0.01248700    -0.01245820    -0.07450500
Spot 1    -0.01276246    -0.01246192    -0.07450500
Spot 2    -0.01248680    -0.01245839    -0.07450500
20MABNDM000168_PR025
Spot 1    -0.01326271    -0.03451233    -0.00532900
Spot 2    -0.01326271    -0.03451233    -0.00532900
Spot 1    -0.01335211    -0.03465272    -0.00532900
Spot 2    -0.01335211    -0.03465272    -0.00532900
Spot 1    -0.01335211    -0.03465272    -0.00532900
Spot 2    -0.01385905    -0.03536490    -0.00532900
Spot 1    -0.01326271    -0.03451233    -0.00532900
Spot 2    -0.01326271    -0.03451233    -0.00532900
20MABNDM000168_PR026
Spot 1    -0.01203246    -0.03456705    -0.00532900
Spot 2    -0.01164212    -0.03464537    -0.00532900
Spot 1    -0.01242983    -0.03459875    -0.00532900
Spot 2    -0.01257318    -0.03672939    -0.00532900
Spot 1    -0.01257318    -0.03672939    -0.00532900
Spot 2    -0.01198822    -0.03438936    -0.00532900
Spot 1    -0.01257318    -0.03672939    -0.00532900
Spot 2    -0.01257318    -0.03672939    -0.00532900
20MABNDM000168_20MABNDL000077
Spot 1     0.01288762    -0.03529678    -0.07445100
Spot 2     0.01266910    -0.03529737    -0.07445100
Spot 1     0.01288794    -0.03529704    -0.07445100
Spot 2     0.01266900    -0.03529744    -0.07445100
Spot 1     0.01288785    -0.03529703    -0.07445100
Spot 2     0.01266874    -0.03529780    -0.07445100
Spot 1     0.01288793    -0.03529704    -0.07445100
Spot 2     0.01266887    -0.03529772    -0.07445100
20MABNDM000168_PR001
Spot 1     0.01361406    -0.03562734    -0.07445100
Spot 2     0.01371616    -0.03563323    -0.07445100
Spot 1     0.01361438    -0.03562679    -0.07445100
Spot 2     0.01371632    -0.03563317    -0.07445100
Spot 1     0.01361447    -0.03562712    -0.07445100
Spot 2     0.01371631    -0.03563364    -0.07445100
Spot 1     0.01361447    -0.03562727    -0.07445100
Spot 2     0.01371627    -0.03563342    -0.07445100
20MABNDL000196_PR036
Spot 1     0.01193819     0.03583346    -0.07483600
Spot 2     0.01210280     0.03583319    -0.07483600
Spot 1     0.01193790     0.03583337    -0.07483600
Spot 2     0.01210274     0.03583324    -0.07483600
Spot 1     0.01193797     0.03583336    -0.07483600
Spot 2     0.01210238     0.03583336    -0.07483600
Spot 1     0.01193781     0.03583332    -0.07483600
Spot 2     0.01210242     0.03583291    -0.07483600
20MABNDL000196_PR037
Spot 1     0.01346401     0.03535680    -0.07483600
Spot 2     0.01361884     0.03535541    -0.07483600
Spot 1     0.01346377     0.03535678    -0.07483600
Spot 2     0.01361872     0.03535554    -0.07483600
Spot 1     0.01346358     0.03535702    -0.07483600
Spot 2     0.01361874     0.03535561    -0.07483600
Spot 1     0.01346382     0.03535696    -0.07483600
Spot 2     0.01361879     0.03535549    -0.07483600
20MABNDL000196_20MABNDM000020
Spot 1    -0.01277571     0.03530042    -0.00611000
Spot 2    -0.01255415     0.03530462    -0.00611000
Spot 1    -0.01277597     0.03530028    -0.00611000
Spot 2    -0.01255413     0.03530478    -0.00611000
Spot 1    -0.01277609     0.03530016    -0.00611000
Spot 2    -0.01255424     0.03530467    -0.00611000
Spot 1    -0.01277610     0.03530025    -0.00611000
Spot 2    -0.01255411     0.03530453    -0.00611000
20MABNDL000196_PR012
Spot 1    -0.01374262     0.03448606    -0.00611000
Spot 2    -0.01374262     0.03448606    -0.00611000
Spot 1    -0.01374262     0.03448606    -0.00611000
Spot 2    -0.01374262     0.03448606    -0.00611000
Spot 1    -0.01374262     0.03448606    -0.00611000
Spot 2    -0.01374262     0.03448606    -0.00611000
Spot 1    -0.01374262     0.03448606    -0.00611000
Spot 2    -0.01240022     0.03438055    -0.00611000


*****************************************************************coordonnees du prisme dans le repere MOUNT********************************************************************************** 
20MABNDB000069_PR031
    0.10313003    -0.03962850     9.20354939
    0.10310742    -0.03965580     9.20354939
    0.10312865    -0.03963213     9.20354939
    0.10308023    -0.03966020     9.20354939
    0.10313019    -0.03965428     9.20354939
20MABNDB000069_PR033
   -0.02694774    -0.02597789     1.28394914
   -0.02694832    -0.02597753     1.28394914
   -0.02694828    -0.02598070     1.28394914
   -0.02694695    -0.02597938     1.28394914
   -0.02694688    -0.02597998     1.28394914
20MABNDB000131_PR032
   -0.18822336    -0.03090732    11.00641537
   -0.18821339    -0.03085320    11.00641537
   -0.18818255    -0.03088739    11.00641632
   -0.18822199    -0.03088759    11.00641537
   -0.18819779    -0.03090573    11.00641537
20MABNDB000131_PR034
    0.01419080     0.01498457     3.43339252
    0.01418803     0.01499048     3.43339252
    0.01418807     0.01498365     3.43339252
    0.01418416     0.01499023     3.43339252
    0.01418941     0.01498867     3.43339252
20MABNDA000208_PR042
    0.13207379     0.01352134     9.20145607
    0.13203081     0.01354523     9.20145607
    0.13206396     0.01355140     9.20145607
    0.13207316     0.01354834     9.20145607
    0.13206153     0.01352808     9.20145607
20MABNDA000208_PR046
   -0.02333861     0.03299557     1.28210902
   -0.02333323     0.03300027     1.28210902
   -0.02333913     0.03299616     1.28210902
   -0.02333289     0.03299916     1.28210902
   -0.02333699     0.03299625     1.28210902
20MABNDA000035_PR044
   -0.17959842     0.02798772    11.00802612
   -0.17956388     0.02801454    11.00802708
   -0.17951277     0.02800247    11.00802708
   -0.17956024     0.02801378    11.00802708
20MABNDA000035_PR045
    0.01474898    -0.01710488     3.43485284
    0.01474534    -0.01710463     3.43485284
    0.01474584    -0.01709778     3.43485284
    0.01474692    -0.01710647     3.43485284
20MABNDL000077_PR002
    0.04956918     0.02153474     3.70690918
    0.04955604     0.02152918     3.70690966
    0.04956236     0.02154419     3.70690966
    0.04955609     0.02153437     3.70690966
20MABNDL000077_PR003
    0.01393121     0.03698126     3.89605379
    0.01392297     0.03704157     3.89605379
    0.01393253     0.03698307     3.89605379
    0.01392822     0.03702024     3.89605379
20MABNDL000077_20MABNDM000168
   -0.00397177    -0.00509834    -5.46859217
   -0.00532031     0.05665601    -5.46871185
   -0.00531643     0.05666436    -5.46871185
   -0.00531969     0.05666613    -5.46871185
20MABNDL000077_PR024
    0.05234674    -0.00366101    -5.89622307
    0.05234744    -0.00365360    -5.89622307
    0.05235054    -0.00365045    -5.89622307
    0.05234853    -0.00364540    -5.89622307
20MABNDM000020_PR013
   -0.00513650     0.01219328    -3.80216908
   -0.00512089     0.01218345    -3.80216908
   -0.00513930     0.01215177    -3.80216932
   -0.00513273     0.01220229    -3.80216837
20MABNDM000020_PR014
   -0.06761601     0.03174446    -4.74799824
   -0.06764146     0.03178495    -4.74799728
   -0.06759909     0.03173830    -4.74799824
   -0.06761551     0.03175037    -4.74799824
20MABNDM000020_20MABNDL000196
    0.02773403    -0.09268424     5.39451170
    0.02772722    -0.09268890     5.39451122
    0.02773009    -0.09268747     5.39451122
    0.02772865    -0.09269033     5.39451122
20MABNDM000020_PR035
   -0.04211967    -0.05464639     5.80100060
   -0.04211003    -0.05466180     5.80100060
   -0.04210618    -0.05468068     5.80100060
   -0.04206072    -0.05470147     5.80100155
20MABNDA000188_PR008
    0.15841109    -0.09959475     9.20278168
    0.15643394    -0.07312497     9.20310402
    0.12677372    -0.06833332     9.20364475
    0.14203498    -0.07766944     9.20331383
20MABNDA000188_PR018
   -0.01701814     0.02606304     1.28357768
   -0.01701659     0.02606380     1.28357768
   -0.01701873     0.02606441     1.28357768
   -0.01701754     0.02606372     1.28357768
20MABNDA000039_PR009
   -0.17146595     0.02461402    11.00701141
   -0.17146823     0.02459647    11.00701141
   -0.17149591     0.02461707    11.00701141
   -0.17146525     0.02460816    11.00701141
20MABNDA000039_PR011
    0.03057189    -0.02476008     3.43347120
    0.03056687    -0.02476097     3.43347120
    0.03056869    -0.02476166     3.43347120
    0.03057030    -0.02475962     3.43347120
20MABNDB000155_PR020
    0.10240559    -0.00818931     9.20027924
    0.10241458    -0.00812779     9.20027924
    0.10238802    -0.00820613     9.20027924
    0.10242001    -0.00816578     9.20027924
20MABNDB000155_PR022
   -0.02512485    -0.01668243     1.28071570
   -0.02512537    -0.01668192     1.28071570
   -0.02512230    -0.01668154     1.28071570
   -0.02512425    -0.01668259     1.28071570
20MABNDB000010_PR021
   -0.17577019    -0.03420253    11.00695038
   -0.17578107    -0.03421080    11.00695038
   -0.17579272    -0.03425953    11.00695038
   -0.17582265    -0.03418651    11.00695038
20MABNDB000010_PR023
    0.00456368     0.01943506     3.43377781
    0.00457041     0.01943036     3.43377781
    0.00455970     0.01944027     3.43377781
    0.00456751     0.01943948     3.43377781
20MABNDB000212_PR029
   -0.02597820    -0.00899339     1.64223456
   -0.02598228    -0.00898600     1.64223456
   -0.02598097    -0.00898590     1.64223456
   -0.02597808    -0.00899241     1.64223456
20MABNDB000128_PR030
   -0.01872768    -0.04702291     2.95496202
   -0.01871960    -0.04702740     2.95496202
   -0.01871489    -0.04702581     2.95496202
   -0.01871428    -0.04703151     2.95496202
20MABNDA000444_PR040
   -0.02944862     0.00133937     1.64491987
   -0.02944525     0.00134149     1.64491999
   -0.02944291     0.00134700     1.64491999
   -0.02944554     0.00133809     1.64491999
20MABNDA000053_PR041
   -0.02685440     0.05103301     2.95450330
   -0.02684804     0.05102660     2.95450330
   -0.02686094     0.05103019     2.95450330
   -0.02684856     0.05103034     2.95450330
20MABNDA000196_PR006
   -0.01041372     0.01057708     1.64206505
   -0.01041781     0.01058238     1.64206505
   -0.01041388     0.01058200     1.64206505
   -0.01042004     0.01057880     1.64206505
20MABNDA000324_PR007
   -0.02510888     0.02756069     2.95549393
   -0.02511378     0.02755868     2.95549393
   -0.02511733     0.02755885     2.95549393
   -0.02511658     0.02756417     2.95549393
20MABNDB000001_PR017
   -0.02413280    -0.00357009     1.64036417
   -0.02413289    -0.00356834     1.64036417
   -0.02413089    -0.00356596     1.64036417
   -0.02413119    -0.00357295     1.64036417
20MABNDB000260_PR019
   -0.02429366    -0.03805662     2.95627785
   -0.02429118    -0.03803372     2.95627809
   -0.02428502    -0.03804580     2.95627785
   -0.02428692    -0.03804919     2.95627785
20MABNDB000135_PR027
   -0.02101154    -0.01015632     2.74937153
   -0.02101232    -0.01016108     2.74937153
   -0.02101840    -0.01016358     2.74937153
   -0.02101670    -0.01015883     2.74937153
20MABNDB000126_PR028
   -0.02031745    -0.03874583     2.14679766
   -0.02031333    -0.03874453     2.14679813
   -0.02031290    -0.03874453     2.14679813
   -0.02031332    -0.03874595     2.14679813
20MABNDA000272_PR038
   -0.01321430     0.01120134     2.74965882
   -0.01321519     0.01121838     2.74965882
   -0.01321612     0.01120794     2.74965882
   -0.01321172     0.01120903     2.74965882
20MABNDA000003_PR039
   -0.00591000     0.04106925     2.14891768
   -0.00590756     0.04107467     2.14891768
   -0.00590929     0.04106696     2.14891768
   -0.00591128     0.04106897     2.14891768
20MABNDA000318_PR004
   -0.00840742     0.03861246     2.74965692
   -0.00839790     0.03861707     2.74965668
   -0.00840888     0.03860787     2.74965692
   -0.00840102     0.03861670     2.74965668
20MABNDA000334_PR005
   -0.00422036     0.03152578     2.14977312
   -0.00422708     0.03153179     2.14977312
   -0.00423050     0.03153279     2.14977312
   -0.00422636     0.03153193     2.14977312
20MABNDB000317_PR015
   -0.01737628    -0.03435325     2.75128746
   -0.01737341    -0.03435031     2.75128746
   -0.01738357    -0.03435315     2.75128746
   -0.01738141    -0.03435040     2.75128746
20MABNDB000146_PR016
   -0.01347462    -0.03178198     2.15201283
   -0.01347893    -0.03178342     2.15201283
   -0.01347606    -0.03178255     2.15201283
   -0.01347563    -0.03177853     2.15201283
20MABNDM000168_PR025
    0.01597064    -0.07667626    -3.78846455
    0.02039144    -0.06973486    -3.78849745
    0.03292477    -0.05212703    -3.78848219
    0.01597064    -0.07667626    -3.78846455
20MABNDM000168_PR026
   -0.05672000    -0.07393360    -3.98418212
   -0.02214357    -0.01886156    -3.98456478
   -0.03363923    -0.02431429    -3.98453999
   -0.01841113     0.03658896    -3.98393393
20MABNDM000168_20MABNDL000077
    0.01136888    -0.03907742     5.38884640
    0.01136115    -0.03906545     5.38884640
    0.01137355    -0.03905270     5.38884640
    0.01136596    -0.03905546     5.38884640
20MABNDM000168_PR001
   -0.05748764    -0.01348260     5.81470490
   -0.05750621    -0.01350636     5.81470394
   -0.05750964    -0.01347569     5.81470394
   -0.05750813    -0.01347842     5.81470394
20MABNDL000196_PR036
    0.05076396     0.00568984     3.68777585
    0.05077231     0.00569084     3.68777585
    0.05077943     0.00568816     3.68777585
    0.05078260     0.00570019     3.68777585
20MABNDL000196_PR037
   -0.02586402     0.02875789     3.88380623
   -0.02585471     0.02875506     3.88380623
   -0.02585030     0.02874706     3.88380623
   -0.02585781     0.02875169     3.88380623
20MABNDL000196_20MABNDM000020
   -0.01386115     0.03897220    -5.47473907
   -0.01385251     0.03897166    -5.47473907
   -0.01384405     0.03897973    -5.47473907
   -0.01384840     0.03898144    -5.47473907
20MABNDL000196_PR012
    0.06980219     0.10266418    -5.91481113
    0.06980219     0.10266418    -5.91481113
    0.06980219     0.10266418    -5.91481113
    0.01763907     0.10676994    -5.91526747


*****************************************************************coordonnees du prisme dans le repere ATLAS********************************************************************************** 
20MABNDB000069_PR031 0.00000000
    3.68484712     3.84874535    -7.90077448
    3.68482447     3.84874558    -7.90074730
    3.68484569     3.84874535    -7.90077114
    3.68479729     3.84874558    -7.90074301
    3.68484735     3.84874558    -7.90074873
20MABNDB000069_PR033 0.00000000
    3.53335118    -4.07045794    -7.87969351
    3.53335071    -4.07045794    -7.87969398
    3.53335071    -4.07045794    -7.87969065
    3.53335214    -4.07045794    -7.87969208
    3.53335214    -4.07045794    -7.87969112
20MABNDB000131_PR032 0.00000000
    3.86902547     3.64756536   -12.94155025
    3.86901546     3.64756536   -12.94149590
    3.86898470     3.64756632   -12.94153023
    3.86902404     3.64756536   -12.94153023
    3.86899996     3.64756536   -12.94154835
20MABNDB000131_PR034 0.00000000
    3.67359805    -3.92562437   -12.89296341
    3.67360091    -3.92562437   -12.89295673
    3.67360091    -3.92562437   -12.89296436
    3.67360473    -3.92562437   -12.89295769
    3.67359948    -3.92562437   -12.89295864
20MABNDA000208_PR042 0.00000000
   -3.68215132     3.84913540    -7.89796495
   -3.68210840     3.84913540    -7.89794064
   -3.68214154     3.84913540    -7.89793491
   -3.68215084     3.84913540    -7.89793777
   -3.68213916     3.84913540    -7.89795828
20MABNDA000208_PR046 0.00000000
   -3.53242588    -4.07031345    -7.87552261
   -3.53243136    -4.07031345    -7.87551832
   -3.53242540    -4.07031345    -7.87552214
   -3.53243160    -4.07031345    -7.87551928
   -3.53242755    -4.07031345    -7.87552214
20MABNDA000035_PR044 0.00000000
   -3.86883950     3.64758134   -12.93366718
   -3.86880517     3.64758229   -12.93369389
   -3.86875391     3.64758229   -12.93368149
   -3.86880136     3.64758229   -12.93369293
20MABNDA000035_PR045 0.00000000
   -3.67597961    -3.92563438   -12.88927937
   -3.67598343    -3.92563438   -12.88927937
   -3.67598295    -3.92563438   -12.88928699
   -3.67598176    -3.92563438   -12.88927746
20MABNDL000077_PR002 0.00000000
    2.83550620    -3.69494772     6.48618937
    2.83551168    -3.69496083     6.48618984
    2.83549666    -3.69495463     6.48618984
    2.83550644    -3.69496083     6.48618984
20MABNDL000077_PR003 0.00000000
    2.82023382    -3.73081422     6.67530489
    2.82017350    -3.73082232     6.67530537
    2.82023191    -3.73081279     6.67530489
    2.82019472    -3.73081708     6.67530489
20MABNDL000077_20MABNDM000168 0.00000000
    2.85312200    -3.73717642    -2.68939257
    2.79136729    -3.73850513    -2.68945336
    2.79135895    -3.73850131    -2.68945336
    2.79135704    -3.73850465    -2.68945336
20MABNDL000077_PR024 0.00000000
    2.85128331    -3.68033004    -3.11695194
    2.85127592    -3.68032932    -3.11695194
    2.85127282    -3.68032622    -3.11695194
    2.85126758    -3.68032813    -3.11695194
20MABNDM000020_PR013 0.00000000
   -2.86450219    -3.73433805     6.48601866
   -2.86449242    -3.73435354     6.48601866
   -2.86446071    -3.73433518     6.48601913
   -2.86451125    -3.73434186     6.48601818
20MABNDM000020_PR014 0.00000000
   -2.88384509    -3.67257190     7.43189907
   -2.88388562    -3.67254639     7.43189812
   -2.88383889    -3.67258883     7.43189907
   -2.88385105    -3.67257237     7.43189907
20MABNDM000020_20MABNDL000196 0.00000000
   -2.76147532    -3.76024628    -2.71070528
   -2.76147056    -3.76023936    -2.71070480
   -2.76147199    -3.76024222    -2.71070480
   -2.76146913    -3.76024079    -2.71070480
20MABNDM000020_PR035 0.00000000
   -2.79957318    -3.69007182    -3.11713314
   -2.79955769    -3.69008136    -3.11713314
   -2.79953885    -3.69008517    -3.11713314
   -2.79951811    -3.69013071    -3.11713433
20MABNDA000188_PR008 0.00000000
    3.57112169     3.84847879     8.11130428
    3.56953573     3.84906340     8.08481312
    3.53994560     3.84920287     8.07957935
    3.55506897     3.84900260     8.08914089
20MABNDA000188_PR018 0.00000000
    3.52012253    -4.07061148     7.89737320
    3.52012420    -4.07061148     7.89737225
    3.52012205    -4.07061148     7.89737177
    3.52012324    -4.07061148     7.89737225
20MABNDA000039_PR009 0.00000000
    3.87563801     3.64746952    12.93590832
    3.87564039     3.64746952    12.93589020
    3.87566805     3.64746952    12.93591118
    3.87563729     3.64746952    12.93590260
20MABNDA000039_PR011 0.00000000
    3.66445231    -3.92580485    12.88407612
    3.66445732    -3.92580485    12.88407612
    3.66445541    -3.92580485    12.88407516
    3.66445374    -3.92580485    12.88407707
20MABNDB000155_PR020 0.00000000
   -3.68105817     3.84881163     7.89867783
   -3.68106723     3.84881163     7.89873934
   -3.68104053     3.84881186     7.89866114
   -3.68107271     3.84881163     7.89870119
20MABNDB000155_PR022 0.00000000
   -3.53485608    -4.07043028     7.89137650
   -3.53485537    -4.07043028     7.89137697
   -3.53485847    -4.07043028     7.89137745
   -3.53485656    -4.07043028     7.89137650
20MABNDB000010_PR021 0.00000000
   -3.86160707     3.64768791    12.93603134
   -3.86161780     3.64768791    12.93603992
   -3.86162949     3.64768791    12.93608856
   -3.86165953     3.64768791    12.93601608
20MABNDB000010_PR023 0.00000000
   -3.68510199    -3.92559862    12.88584042
   -3.68509531    -3.92559862    12.88584518
   -3.68510604    -3.92559862    12.88583565
   -3.68509817    -3.92559862    12.88583565
20MABNDB000212_PR029 0.00000000
    2.59965587    -4.19501352    -6.54798126
    2.59965992    -4.19501352    -6.54797363
    2.59965873    -4.19501352    -6.54797363
    2.59965587    -4.19501352    -6.54798031
20MABNDB000128_PR030 0.00000000
    2.61013103    -4.14002848    -6.93109798
    2.61013913    -4.14002848    -6.93109369
    2.61014390    -4.14002848    -6.93109512
    2.61014438    -4.14002848    -6.93108940
20MABNDA000444_PR040 0.00000000
   -2.60462117    -4.19508934    -6.54051971
   -2.60461783    -4.19508934    -6.54052162
   -2.60461545    -4.19508934    -6.54052734
   -2.60461807    -4.19508934    -6.54051828
20MABNDA000053_PR041 0.00000000
   -2.59368753    -4.14012766    -6.92688036
   -2.59369397    -4.14012766    -6.92688704
   -2.59368110    -4.14012766    -6.92688322
   -2.59369349    -4.14012766    -6.92688322
20MABNDA000196_PR006 0.00000000
    2.58487415    -4.19496298     6.54853344
    2.58487821    -4.19496298     6.54853868
    2.58487439    -4.19496298     6.54853868
    2.58488059    -4.19496298     6.54853535
20MABNDA000324_PR007 0.00000000
    2.59420586    -4.13996410     6.94835424
    2.59420109    -4.13996410     6.94835663
    2.59419751    -4.13996410     6.94835615
    2.59419823    -4.13996410     6.94835091
20MABNDB000001_PR017 0.00000000
   -2.59783435    -4.19505167     6.53889799
   -2.59783435    -4.19505167     6.53889656
   -2.59783244    -4.19505167     6.53889418
   -2.59783268    -4.19505167     6.53890085
20MABNDB000260_PR019 0.00000000
   -2.60446835    -4.13995695     6.94258738
   -2.60447073    -4.13995647     6.94261026
   -2.60447693    -4.13995695     6.94259834
   -2.60447502    -4.13995695     6.94259501
20MABNDB000135_PR027 0.00000000
    2.60385180    -4.19700384    -3.82520461
    2.60385084    -4.19700384    -3.82519984
    2.60384488    -4.19700384    -3.82519722
    2.60384655    -4.19700384    -3.82520199
20MABNDB000126_PR028 0.00000000
    2.60559964    -4.19701958    -5.89347410
    2.60560393    -4.19701910    -5.89347553
    2.60560417    -4.19701910    -5.89347553
    2.60560393    -4.19701910    -5.89347410
20MABNDA000272_PR038 0.00000000
   -2.61132264    -4.19698286    -3.82728291
   -2.61132169    -4.19698286    -3.82726598
   -2.61132073    -4.19698286    -3.82727647
   -2.61132503    -4.19698286    -3.82727528
20MABNDA000003_PR039 0.00000000
   -2.61582112    -4.19701958    -5.89169741
   -2.61582351    -4.19701958    -5.89169216
   -2.61582184    -4.19701958    -5.89169979
   -2.61581993    -4.19701958    -5.89169788
20MABNDA000318_PR004 0.00000000
    2.61459565    -4.19698811     3.83338618
    2.61460519    -4.19698811     3.83338165
    2.61459422    -4.19698811     3.83339071
    2.61460209    -4.19698811     3.83338189
20MABNDA000334_PR005 0.00000000
    2.61677814    -4.19703007     5.89773512
    2.61677146    -4.19703007     5.89772892
    2.61676812    -4.19703007     5.89772797
    2.61677217    -4.19703007     5.89772892
20MABNDB000317_PR015 0.00000000
   -2.61123085    -4.19700384     3.83566213
   -2.61123371    -4.19700384     3.83566523
   -2.61122370    -4.19700384     3.83566236
   -2.61122584    -4.19700384     3.83566499
20MABNDB000146_PR016 0.00000000
   -2.61282063    -4.19702482     5.89856815
   -2.61281633    -4.19702482     5.89856672
   -2.61281919    -4.19702482     5.89856768
   -2.61281967    -4.19702482     5.89857149
20MABNDM000168_PR025 0.00000000
    2.77656102    -3.76128507    -6.47908068
    2.78350139    -3.76570773    -6.47911263
    2.80110598    -3.77824569    -6.47909355
    2.77656102    -3.76128507    -6.47908068
20MABNDM000168_PR026 0.00000000
    2.77931118    -3.68866801    -6.67482567
    2.83437395    -3.72325897    -6.67519855
    2.82892442    -3.71176195    -6.67517805
    2.88982368    -3.72700596    -6.67457008
20MABNDM000168_20MABNDL000077 0.00000000
    2.81471825    -3.75328088     2.69822550
    2.81473017    -3.75327325     2.69822550
    2.81474280    -3.75328565     2.69822550
    2.81474018    -3.75327802     2.69822550
20MABNDM000168_PR001 0.00000000
    2.84035707    -3.68427277     3.12405682
    2.84033322    -3.68425417     3.12405586
    2.84036398    -3.68425083     3.12405586
    2.84036112    -3.68425226     3.12405586
20MABNDL000196_PR036 0.00000000
   -2.84791732    -3.69351053    -6.47909880
   -2.84791636    -3.69350219    -6.47909880
   -2.84791899    -3.69349527    -6.47909880
   -2.84790707    -3.69349194    -6.47909880
20MABNDL000196_PR037 0.00000000
   -2.82481790    -3.77031016    -6.67505836
   -2.82482076    -3.77030087    -6.67505836
   -2.82482886    -3.77029657    -6.67505836
   -2.82482409    -3.77030396    -6.67505836
20MABNDL000196_20MABNDM000020 0.00000000
   -2.81440711    -3.74959731     2.68347168
   -2.81440759    -3.74958873     2.68347168
   -2.81439948    -3.74958014     2.68347168
   -2.81439781    -3.74958444     2.68347168
20MABNDL000196_PR012 0.00000000
   -2.75074434    -3.66549492     3.12346435
   -2.75074434    -3.66549492     3.12346435
   -2.75074434    -3.66549492     3.12346435
   -2.74661446    -3.71765590     3.12396908


*****************************************************************Rapport********************************************************************************** 
CAM-ECTC-US-IP_ECTC-US-IP-T    2016.07.04.03.39.57     3.68483238     3.84874549    -7.90075693     0.00001956     0.00000012     0.00001314 0.00000000 VRAI 
CAM-ECTC-US-IP_ECTC-US-IP      2016.07.04.03.39.57     3.53335137    -4.07045794    -7.87969227     0.00000065     0.00000000     0.00000130 0.00000000 VRAI 
CAM-ECTC-US-HO_ECTC-US-HO-T    2016.07.04.03.39.57     3.86900992     3.64756556   -12.94153099     0.00001554     0.00000038     0.00001952 0.00000000 VRAI 
CAM-ECTC-US-HO_ECTC-US-HO      2016.07.04.03.39.57     3.67360082    -3.92562437   -12.89296017     0.00000222     0.00000000     0.00000311 0.00000000 VRAI 
CAM-ECTC-USA-IP_ECTC-USA-IP-T  2016.07.04.03.39.57    -3.68213825     3.84913540    -7.89794731     0.00001570     0.00000000     0.00001201 0.00000000 VRAI 
CAM-ECTC-USA-IP_ECTC-USA-IP    2016.07.04.03.39.57    -3.53242836    -4.07031345    -7.87552090     0.00000265     0.00000000     0.00000175 0.00000000 VRAI 
CAM-ECTC-USA-HO_ECTC-USA-HO-T  2016.07.04.03.39.57    -3.86879998     3.64758205   -12.93368387     0.00003047     0.00000041     0.00001080 0.00000000 VRAI 
CAM-ECTC-USA-HO_ECTC-USA-HO    2016.07.04.03.39.57    -3.67598194    -3.92563438   -12.88928080     0.00000147     0.00000000     0.00000366 0.00000000 VRAI 
CAM-LBA-US_EBA-US-HO-H         2016.07.04.03.39.57     2.83550525    -3.69495600     6.48618972     0.00000542     0.00000541     0.00000021 0.00000000 VRAI 
CAM-LBA-US_JDA-US-H            2016.07.04.03.39.57     2.82020849    -3.73081660     6.67530501     0.00002552     0.00000365     0.00000021 0.00000000 VRAI 
CAM-LBA-US_CAM-LBC-US          2016.07.04.03.39.57     2.80680132    -3.73817188    -2.68943816     0.02674326     0.00057473     0.00002633 0.00000000 VRAI 
CAM-LBA-US_EBC-US-IP-H         2016.07.04.03.39.57     2.85127491    -3.68032843    -3.11695194     0.00000570     0.00000144     0.00000000 0.00000000 VRAI 
CAM-LBA-USA_EBA-USA-HO-H       2016.07.04.03.39.57    -2.86449164    -3.73434216     6.48601866     0.00001906     0.00000699     0.00000034 0.00000000 VRAI 
CAM-LBA-USA_JDA-USA-H          2016.07.04.03.39.57    -2.88385516    -3.67256987     7.43189883     0.00001810     0.00001518     0.00000041 0.00000000 VRAI 
CAM-LBA-USA_CAM-LBC-USA        2016.07.04.03.39.57    -2.76147175    -3.76024216    -2.71070492     0.00000230     0.00000258     0.00000021 0.00000000 VRAI 
CAM-LBA-USA_EBC-USA-IP-H       2016.07.04.03.39.57    -2.79954696    -3.69009227    -3.11713344     0.00002062     0.00002272     0.00000052 0.00000000 VRAI 
CAM-ECTA-US-IP_ECTA-US-IP-T    2016.07.04.03.39.57     3.55891800     3.84893692     8.09120941     0.01261381     0.00027428     0.01208567 0.00000000 VRAI 
CAM-ECTA-US-IP_ECTA-US-IP      2016.07.04.03.39.57     3.52012300    -4.07061148     7.89737236     0.00000081     0.00000000     0.00000052 0.00000000 VRAI 
CAM-ECTA-US-HO_ECTA-US-HO-T    2016.07.04.03.39.57     3.87564594     3.64746952    12.93590307     0.00001282     0.00000000     0.00000805 0.00000000 VRAI 
CAM-ECTA-US-HO_ECTA-US-HO      2016.07.04.03.39.57     3.66445470    -3.92580485    12.88407612     0.00000187     0.00000000     0.00000067 0.00000000 VRAI 
CAM-ECTA-USA-IP_ECTA-USA-IP-T  2016.07.04.03.39.57    -3.68105966     3.84881169     7.89869487     0.00001221     0.00000010     0.00002935 0.00000000 VRAI 
CAM-ECTA-USA-IP_ECTA-USA-IP    2016.07.04.03.39.57    -3.53485662    -4.07043028     7.89137685     0.00000115     0.00000000     0.00000040 0.00000000 VRAI 
CAM-ECTA-USA-HO_ECTA-USA-HO-T  2016.07.04.03.39.57    -3.86162847     3.64768791    12.93604398     0.00001960     0.00000000     0.00002712 0.00000000 VRAI 
CAM-ECTA-USA-HO_ECTA-USA-HO    2016.07.04.03.39.57    -3.68510038    -3.92559862    12.88583922     0.00000404     0.00000000     0.00000395 0.00000000 VRAI 
CAM-JDC-US-IP_JDC-US-IP        2016.07.04.03.39.57     2.59965760    -4.19501352    -6.54797721     0.00000178     0.00000000     0.00000359 0.00000000 VRAI 
CAM-JDC-US-HO_JDC-US-HO        2016.07.04.03.39.57     2.61013961    -4.14002848    -6.93109405     0.00000536     0.00000000     0.00000310 0.00000000 VRAI 
CAM-JDC-USA-IP_JDC-USA-IP      2016.07.04.03.39.57    -2.60461813    -4.19508934    -6.54052174     0.00000203     0.00000000     0.00000344 0.00000000 VRAI 
CAM-JDC-USA-HO_JDC-USA-HO      2016.07.04.03.39.57    -2.59368902    -4.14012766    -6.92688346     0.00000523     0.00000000     0.00000237 0.00000000 VRAI 
CAM-JDA-US-IP_JDA-US-IP        2016.07.04.03.39.57     2.58487684    -4.19496298     6.54853654     0.00000270     0.00000000     0.00000225 0.00000000 VRAI 
CAM-JDA-US-HO_JDA-US-HO        2016.07.04.03.39.57     2.59420067    -4.13996410     6.94835448     0.00000328     0.00000000     0.00000225 0.00000000 VRAI 
CAM-JDA-USA-IP_JDA-USA-IP      2016.07.04.03.39.57    -2.59783345    -4.19505167     6.53889740     0.00000090     0.00000000     0.00000242 0.00000000 VRAI 
CAM-JDA-USA-HO_JDA-USA-HO      2016.07.04.03.39.57    -2.60447276    -4.13995683     6.94259775     0.00000339     0.00000021     0.00000825 0.00000000 VRAI 
CAM-EBC-US-IP_EBC-US-IP        2016.07.04.03.39.57     2.60384852    -4.19700384    -3.82520092     0.00000288     0.00000000     0.00000272 0.00000000 VRAI 
CAM-EBC-US-HO_EBC-US-HO        2016.07.04.03.39.57     2.60560292    -4.19701922    -5.89347482     0.00000190     0.00000021     0.00000072 0.00000000 VRAI 
CAM-EBC-USA-IP_EBC-USA-IP      2016.07.04.03.39.57    -2.61132252    -4.19698286    -3.82727516     0.00000159     0.00000000     0.00000604 0.00000000 VRAI 
CAM-EBC-USA-HO_EBC-USA-HO      2016.07.04.03.39.57    -2.61582160    -4.19701958    -5.89169681     0.00000129     0.00000000     0.00000283 0.00000000 VRAI 
CAM-EBA-US-IP_EBA-US-IP        2016.07.04.03.39.57     2.61459929    -4.19698811     3.83338511     0.00000452     0.00000000     0.00000370 0.00000000 VRAI 
CAM-EBA-US-HO_EBA-US-HO        2016.07.04.03.39.57     2.61677247    -4.19703007     5.89773023     0.00000361     0.00000000     0.00000285 0.00000000 VRAI 
CAM-EBA-USA-IP_EBA-USA-IP      2016.07.04.03.39.57    -2.61122853    -4.19700384     3.83566368     0.00000396     0.00000000     0.00000144 0.00000000 VRAI 
CAM-EBA-USA-HO_EBA-USA-HO      2016.07.04.03.39.57    -2.61281896    -4.19702482     5.89856851     0.00000160     0.00000000     0.00000180 0.00000000 VRAI 
CAM-LBC-US_EBC-US-HO-H         2016.07.04.03.39.57     2.78443235    -3.76663089    -6.47909188     0.01003484     0.00694463     0.00001308 0.00000000 VRAI 
CAM-LBC-US_JDC-US-H            2016.07.04.03.39.57     2.83310831    -3.71267372    -6.67494309     0.03914675     0.01495465     0.00026143 0.00000000 VRAI 
CAM-LBC-US_CAM-LBA-US          2016.07.04.03.39.57     2.81473285    -3.75327945     2.69822550     0.00000966     0.00000450     0.00000000 0.00000000 VRAI 
CAM-LBC-US_EBA-US-IP-H         2016.07.04.03.39.57     2.84035385    -3.68425751     3.12405610     0.00001216     0.00000889     0.00000041 0.00000000 VRAI 
CAM-LBC-USA_EBC-USA-HO-H       2016.07.04.03.39.57    -2.84791493    -3.69349998    -6.47909880     0.00000464     0.00000713     0.00000000 0.00000000 VRAI 
CAM-LBC-USA_JDC-USA-H          2016.07.04.03.39.57    -2.82482290    -3.77030289    -6.67505836     0.00000408     0.00000495     0.00000000 0.00000000 VRAI 
CAM-LBC-USA_CAM-LBA-USA        2016.07.04.03.39.57    -2.81440300    -3.74958766     2.68347168     0.00000439     0.00000635     0.00000000 0.00000000 VRAI 
CAM-LBC-USA_EBA-USA-IP-H       2016.07.04.03.39.57    -2.74971187    -3.67853516     3.12359053     0.00178829     0.02258637     0.00021856 0.00000000 VRAI 
