********** Fichier qui contient une sauvegarde des coordonnees images + coordonnees images transformees dans le repere BCAM (MOUNT) + coordonnees des prismes dans le repere MOUNT********** 
********************************************************************** Unite en metres (m)************************************************************************************************** 

*******************************************************************coordonnees images dans le repere CCD *********************************************************************************** 
20MABNDB000069_PR031
Spot 1     0.00032457     0.00137623
Spot 2     0.00039038     0.00137807
Spot 1     0.00032583     0.00137730
Spot 2     0.00039045     0.00137947
Spot 1     0.00032632     0.00137738
Spot 2     0.00039159     0.00137953
Spot 1     0.00032631     0.00137725
Spot 2     0.00039106     0.00137925
Spot 1     0.00032561     0.00137634
Spot 2     0.00039092     0.00137956
20MABNDB000069_PR033
Spot 1     0.00191664     0.00178297
Spot 2     0.00238591     0.00180203
Spot 1     0.00191662     0.00178306
Spot 2     0.00238615     0.00180195
Spot 1     0.00191674     0.00178306
Spot 2     0.00238604     0.00180201
Spot 1     0.00191682     0.00178313
Spot 2     0.00238608     0.00180195
Spot 1     0.00191665     0.00178315
Spot 2     0.00238602     0.00180199
20MABNDB000131_PR032
Spot 1     0.00277955     0.00111581
Spot 2     0.00283866     0.00112085
Spot 1     0.00277923     0.00111638
Spot 2     0.00283847     0.00112088
Spot 1     0.00277939     0.00111642
Spot 2     0.00283865     0.00112102
Spot 1     0.00277936     0.00111632
Spot 2     0.00283867     0.00112078
Spot 1     0.00277919     0.00111641
Spot 2     0.00283837     0.00112106
20MABNDB000131_PR034
Spot 1     0.00093285     0.00043937
Spot 2     0.00110879     0.00043821
Spot 1     0.00093282     0.00043958
Spot 2     0.00110851     0.00043832
Spot 1     0.00093264     0.00043950
Spot 2     0.00110861     0.00043840
Spot 1     0.00093281     0.00043957
Spot 2     0.00110868     0.00043826
Spot 1     0.00093273     0.00043953
Spot 2     0.00110865     0.00043826
20MABNDA000208_PR042
Spot 1     0.00299741     0.00090097
Spot 2     0.00292592     0.00090540
Spot 1     0.00299684     0.00090042
Spot 2     0.00292941     0.00090402
Spot 1     0.00299745     0.00090102
Spot 2     0.00292956     0.00090407
Spot 1     0.00299703     0.00090067
Spot 2     0.00292734     0.00090520
Spot 1     0.00299664     0.00090077
Spot 2     0.00292780     0.00090513
20MABNDA000208_PR046
Spot 1     0.00131660     0.00188577
Spot 2     0.00084192     0.00188914
Spot 1     0.00131674     0.00188520
Spot 2     0.00084212     0.00188902
Spot 1     0.00131676     0.00188489
Spot 2     0.00084188     0.00188915
Spot 1     0.00131684     0.00188542
Spot 2     0.00084177     0.00188940
Spot 1     0.00131660     0.00188527
Spot 2     0.00084147     0.00188926
20MABNDA000035_PR044
Spot 1     0.00074083     0.00130017
Spot 2     0.00068536     0.00129264
Spot 1     0.00074070     0.00130000
Spot 2     0.00068533     0.00129238
Spot 1     0.00074034     0.00130009
Spot 2     0.00068546     0.00129260
Spot 1     0.00074062     0.00129981
Spot 2     0.00068546     0.00129254
Spot 1     0.00074064     0.00130008
Spot 2     0.00068562     0.00129257
20MABNDA000035_PR045
Spot 1     0.00254756     0.00059344
Spot 2     0.00237146     0.00059259
Spot 1     0.00254788     0.00059354
Spot 2     0.00237159     0.00059256
Spot 1     0.00254760     0.00059360
Spot 2     0.00237159     0.00059245
Spot 1     0.00254774     0.00059352
Spot 2     0.00237163     0.00059238
Spot 1     0.00254781     0.00059380
Spot 2     0.00237165     0.00059257
20MABNDL000077_PR002
Spot 1     0.00079494     0.00149733
Spot 2     0.00095735     0.00149527
Spot 1     0.00079476     0.00149729
Spot 2     0.00095735     0.00149574
Spot 1     0.00079462     0.00149737
Spot 2     0.00095703     0.00149565
Spot 1     0.00079444     0.00149750
Spot 2     0.00095694     0.00149560
Spot 1     0.00079448     0.00149761
Spot 2     0.00095700     0.00149579
20MABNDL000077_PR003
Spot 1     0.00152457     0.00118910
Spot 2     0.00167412     0.00119150
Spot 1     0.00152447     0.00118910
Spot 2     0.00167408     0.00119170
Spot 1     0.00152420     0.00118912
Spot 2     0.00167371     0.00119177
Spot 1     0.00152408     0.00118913
Spot 2     0.00167363     0.00119175
Spot 1     0.00152445     0.00118937
Spot 2     0.00167385     0.00119188
20MABNDL000077_20MABNDM000168
Spot 1     0.00188371     0.00148402
Spot 2     0.00170401     0.00151289
Spot 1     0.00188402     0.00148365
Spot 2     0.00170369     0.00151275
Spot 1     0.00188406     0.00148406
Spot 2     0.00170422     0.00151291
Spot 1     0.00188404     0.00148424
Spot 2     0.00170394     0.00151314
Spot 1     0.00188407     0.00148401
Spot 2     0.00170382     0.00151326
20MABNDL000077_PR024
Spot 1     0.00263087     0.00171231
Spot 2     0.00273099     0.00171781
Spot 1     0.00263042     0.00171333
Spot 2     0.00273083     0.00171792
Spot 1     0.00263012     0.00171360
Spot 2     0.00273089     0.00171812
Spot 1     0.00263036     0.00171350
Spot 2     0.00273087     0.00171812
Spot 1     0.00263045     0.00171295
Spot 2     0.00273093     0.00171830
20MABNDM000020_PR013
Spot 1     0.00164266     0.00214071
Spot 2     0.00148952     0.00214490
Spot 1     0.00164250     0.00214071
Spot 2     0.00148970     0.00214494
Spot 1     0.00164247     0.00214056
Spot 2     0.00148968     0.00214513
Spot 1     0.00164249     0.00214076
Spot 2     0.00148965     0.00214515
Spot 1     0.00164240     0.00214093
Spot 2     0.00148965     0.00214511
20MABNDM000020_PR014
Spot 1     0.00267662     0.00227970
Spot 2     0.00251513     0.00228684
Spot 1     0.00267675     0.00227975
Spot 2     0.00251527     0.00228695
Spot 1     0.00267646     0.00227997
Spot 2     0.00251511     0.00228695
Spot 1     0.00267673     0.00227995
Spot 2     0.00251538     0.00228705
Spot 1     0.00267655     0.00228005
Spot 2     0.00251533     0.00228730
20MABNDM000020_20MABNDL000196
Spot 1     0.00200102     0.00057758
Spot 2     0.00080500     0.00021500
Spot 1     0.00200079     0.00057743
Spot 2     0.00080500     0.00021500
Spot 1     0.00200092     0.00057743
Spot 2     0.00080500     0.00021500
Spot 1     0.00200095     0.00057770
Spot 2     0.00080500     0.00021500
Spot 1     0.00200096     0.00057771
Spot 2     0.00080500     0.00021500
20MABNDM000020_PR035
Spot 1     0.00126014     0.00086979
Spot 2     0.00119225     0.00090370
Spot 1     0.00126022     0.00086983
Spot 2     0.00119219     0.00090363
Spot 1     0.00126076     0.00086964
Spot 2     0.00119205     0.00090341
Spot 1     0.00126074     0.00086984
Spot 2     0.00119232     0.00090364
Spot 1     0.00126034     0.00086964
Spot 2     0.00119225     0.00090379
20MABNDA000188_PR008
Spot 1     0.00271389     0.00015722
Spot 2     0.00300500     0.00008167
Spot 1     0.00271214     0.00015643
Spot 2     0.00310250     0.00016250
Spot 1     0.00271500     0.00016125
Spot 2     0.00331000     0.00005250
Spot 1     0.00271333     0.00016167
Spot 2     0.00283500     0.00012500
Spot 1     0.00271375     0.00016000
Spot 2     0.00283750     0.00012750
20MABNDA000188_PR018
Spot 1     0.00154390     0.00152823
Spot 2     0.00107751     0.00152511
Spot 1     0.00154404     0.00152845
Spot 2     0.00107725     0.00152531
Spot 1     0.00154376     0.00152840
Spot 2     0.00107730     0.00152521
Spot 1     0.00154384     0.00152841
Spot 2     0.00107737     0.00152536
Spot 1     0.00154392     0.00152845
Spot 2     0.00107735     0.00152520
20MABNDA000039_PR009
Spot 1     0.00066088     0.00120912
Spot 2     0.00061412     0.00121292
Spot 1     0.00066088     0.00120880
Spot 2     0.00061374     0.00121317
Spot 1     0.00066066     0.00120902
Spot 2     0.00061362     0.00121300
Spot 1     0.00066105     0.00120921
Spot 2     0.00061411     0.00121323
Spot 1     0.00066099     0.00120901
Spot 2     0.00061465     0.00121298
20MABNDA000039_PR011
Spot 1     0.00276143     0.00036645
Spot 2     0.00258636     0.00036197
Spot 1     0.00276155     0.00036637
Spot 2     0.00258650     0.00036201
Spot 1     0.00276146     0.00036664
Spot 2     0.00258638     0.00036194
Spot 1     0.00276141     0.00036640
Spot 2     0.00258638     0.00036194
20MABNDB000155_PR020
Spot 1     0.00067249     0.00108807
Spot 2     0.00073551     0.00108468
Spot 1     0.00067244     0.00108841
Spot 2     0.00073564     0.00108482
Spot 1     0.00067245     0.00108882
Spot 2     0.00073625     0.00108522
Spot 1     0.00067219     0.00108795
Spot 2     0.00073554     0.00108482
20MABNDB000155_PR022
Spot 1     0.00220249     0.00112305
Spot 2     0.00267545     0.00111905
Spot 1     0.00220235     0.00112301
Spot 2     0.00267536     0.00111909
Spot 1     0.00220239     0.00112318
Spot 2     0.00267538     0.00111905
Spot 1     0.00220271     0.00112295
Spot 2     0.00267543     0.00111898
20MABNDB000010_PR021
Spot 1     0.00286404     0.00118763
Spot 2     0.00291785     0.00119085
Spot 1     0.00286361     0.00118748
Spot 2     0.00291793     0.00119060
Spot 1     0.00286408     0.00118768
Spot 2     0.00291746     0.00119096
Spot 1     0.00286405     0.00118749
Spot 2     0.00291789     0.00119086
20MABNDB000010_PR023
Spot 1     0.00130900     0.00041347
Spot 2     0.00148365     0.00041135
Spot 1     0.00130900     0.00041337
Spot 2     0.00148346     0.00041120
Spot 1     0.00130898     0.00041347
Spot 2     0.00148403     0.00041140
Spot 1     0.00130892     0.00041328
Spot 2     0.00148373     0.00041114
20MABNDB000212_PR029
Spot 1     0.00225633     0.00072160
Spot 2     0.00189103     0.00072118
Spot 1     0.00225624     0.00072182
Spot 2     0.00189080     0.00072123
Spot 1     0.00225614     0.00072158
Spot 2     0.00189114     0.00072129
Spot 1     0.00225641     0.00072157
Spot 2     0.00189086     0.00072143
20MABNDB000128_PR030
Spot 1     0.00189025     0.00200979
Spot 2     0.00209439     0.00200510
Spot 1     0.00188998     0.00200974
Spot 2     0.00209404     0.00200505
Spot 1     0.00188993     0.00200962
Spot 2     0.00209415     0.00200495
Spot 1     0.00189002     0.00200984
Spot 2     0.00209430     0.00200470
20MABNDA000444_PR040
Spot 1     0.00078387     0.00037194
Spot 2     0.00114900     0.00037118
Spot 1     0.00078392     0.00037183
Spot 2     0.00114936     0.00037173
Spot 1     0.00078385     0.00037189
Spot 2     0.00114918     0.00037191
Spot 1     0.00078358     0.00037208
Spot 2     0.00114889     0.00037185
20MABNDA000053_PR041
Spot 1     0.00164188     0.00199514
Spot 2     0.00143895     0.00199239
Spot 1     0.00164171     0.00199493
Spot 2     0.00143895     0.00199218
Spot 1     0.00164198     0.00199521
Spot 2     0.00143907     0.00199251
Spot 1     0.00164174     0.00199525
Spot 2     0.00143895     0.00199231
20MABNDA000196_PR006
Spot 1     0.00198720     0.00075886
Spot 2     0.00162168     0.00075595
Spot 1     0.00198716     0.00075854
Spot 2     0.00162214     0.00075541
Spot 1     0.00198741     0.00075839
Spot 2     0.00162208     0.00075527
Spot 1     0.00198724     0.00075847
Spot 2     0.00162185     0.00075518
20MABNDA000324_PR007
Spot 1     0.00194789     0.00120830
Spot 2     0.00174191     0.00121397
Spot 1     0.00194805     0.00120875
Spot 2     0.00174176     0.00121396
Spot 1     0.00194781     0.00120855
Spot 2     0.00174176     0.00121390
Spot 1     0.00194770     0.00120853
Spot 2     0.00174174     0.00121369
20MABNDB000001_PR017
Spot 1     0.00224697     0.00048132
Spot 2    -0.00000100    -0.00000100
Spot 1     0.00224691     0.00048184
Spot 2    -0.00000100    -0.00000100
Spot 1     0.00224714     0.00048134
Spot 2    -0.00000100    -0.00000100
Spot 1     0.00224695     0.00048153
Spot 2    -0.00000100    -0.00000100
20MABNDB000260_PR019
Spot 1     0.00192643     0.00149835
Spot 2     0.00213000     0.00149804
Spot 1     0.00192636     0.00149862
Spot 2     0.00212955     0.00149818
Spot 1     0.00192635     0.00149860
Spot 2     0.00213012     0.00149849
Spot 1     0.00192635     0.00149865
Spot 2     0.00213012     0.00149793
20MABNDB000135_PR027
Spot 1     0.00189324     0.00092615
Spot 2     0.00211149     0.00092874
Spot 1     0.00189346     0.00092593
Spot 2     0.00211165     0.00092847
Spot 1     0.00189335     0.00092603
Spot 2     0.00211153     0.00092895
Spot 1     0.00189330     0.00092582
Spot 2     0.00211142     0.00092865
20MABNDB000126_PR028
Spot 1     0.00164693     0.00200416
Spot 2     0.00192765     0.00200675
Spot 1     0.00164688     0.00200412
Spot 2     0.00192772     0.00200694
Spot 1     0.00164703     0.00200421
Spot 2     0.00192788     0.00200667
Spot 1     0.00164694     0.00200423
Spot 2     0.00192779     0.00200664
20MABNDA000272_PR038
Spot 1     0.00191932     0.00096495
Spot 2     0.00169779     0.00096328
Spot 1     0.00191908     0.00096458
Spot 2     0.00169723     0.00096318
Spot 1     0.00191901     0.00096468
Spot 2     0.00169756     0.00096303
Spot 1     0.00191900     0.00096480
Spot 2     0.00169789     0.00096336
20MABNDA000003_PR039
Spot 1     0.00199833     0.00192283
Spot 2     0.00227674     0.00192257
Spot 1     0.00199841     0.00192295
Spot 2     0.00227661     0.00192262
Spot 1     0.00199823     0.00192280
Spot 2     0.00227656     0.00192245
Spot 1     0.00199826     0.00192284
Spot 2     0.00227648     0.00192252
20MABNDA000318_PR004
Spot 1     0.00214387     0.00163183
Spot 2     0.00192665     0.00163376
Spot 1     0.00214376     0.00163202
Spot 2     0.00192648     0.00163336
Spot 1     0.00214400     0.00163229
Spot 2     0.00192685     0.00163355
Spot 1     0.00214374     0.00163262
Spot 2     0.00192629     0.00163363
20MABNDA000334_PR005
Spot 1     0.00247251     0.00158002
Spot 2     0.00219260     0.00158068
Spot 1     0.00247275     0.00158005
Spot 2     0.00219270     0.00158068
Spot 1     0.00247289     0.00158008
Spot 2     0.00219269     0.00158058
Spot 1     0.00247287     0.00158015
Spot 2     0.00219274     0.00158068
20MABNDB000317_PR015
Spot 1     0.00149181     0.00160909
Spot 2     0.00171098     0.00160339
Spot 1     0.00149184     0.00160920
Spot 2     0.00171078     0.00160320
Spot 1     0.00149183     0.00160889
Spot 2     0.00171086     0.00160304
Spot 1     0.00149174     0.00160901
Spot 2     0.00171071     0.00160339
20MABNDB000146_PR016
Spot 1     0.00145103     0.00133353
Spot 2     0.00172706     0.00133635
Spot 1     0.00145099     0.00133358
Spot 2     0.00172690     0.00133653
Spot 1     0.00145104     0.00133348
Spot 2     0.00172664     0.00133634
Spot 1     0.00145105     0.00133385
Spot 2     0.00172684     0.00133654
20MABNDM000168_PR025
Spot 1     0.00117698     0.00131522
Spot 2     0.00102396     0.00131529
Spot 1     0.00117705     0.00131534
Spot 2     0.00102384     0.00131488
Spot 1     0.00117691     0.00131494
Spot 2     0.00102403     0.00131477
Spot 1     0.00117700     0.00131517
Spot 2     0.00102395     0.00131465
20MABNDM000168_PR026
Spot 1     0.00266722     0.00143075
Spot 2     0.00250767     0.00142779
Spot 1     0.00266727     0.00143068
Spot 2     0.00250754     0.00142774
Spot 1     0.00266697     0.00143046
Spot 2     0.00250757     0.00142749
Spot 1     0.00266753     0.00143068
Spot 2     0.00250748     0.00142748
20MABNDM000168_20MABNDL000077
Spot 1     0.00153714     0.00129601
Spot 2     0.00175524     0.00129964
Spot 1     0.00153721     0.00129576
Spot 2     0.00175552     0.00129943
Spot 1     0.00153736     0.00129575
Spot 2     0.00175514     0.00129967
Spot 1     0.00153746     0.00129567
Spot 2     0.00175557     0.00129955
20MABNDM000168_PR001
Spot 1     0.00080347     0.00161400
Spot 2     0.00070354     0.00161925
Spot 1     0.00080343     0.00161395
Spot 2     0.00070343     0.00161912
Spot 1     0.00080320     0.00161382
Spot 2     0.00070360     0.00161928
Spot 1     0.00080352     0.00161369
Spot 2     0.00070363     0.00161939
20MABNDL000196_PR036
Spot 1     0.00096038     0.00164232
Spot 2     0.00112355     0.00164220
Spot 1     0.00096041     0.00164231
Spot 2     0.00112331     0.00164209
Spot 1     0.00096044     0.00164227
Spot 2     0.00112338     0.00164186
Spot 1     0.00096041     0.00164198
Spot 2     0.00112355     0.00164183
20MABNDL000196_PR037
Spot 1     0.00248080     0.00116456
Spot 2     0.00263477     0.00116287
Spot 1     0.00248119     0.00116459
Spot 2     0.00263494     0.00116251
Spot 1     0.00248096     0.00116448
Spot 2     0.00263506     0.00116275
Spot 1     0.00248100     0.00116442
Spot 2     0.00263500     0.00116264
20MABNDL000196_20MABNDM000020
Spot 1     0.00195111     0.00103215
Spot 2     0.00172988     0.00103073
Spot 1     0.00195123     0.00103190
Spot 2     0.00172987     0.00103064
Spot 1     0.00195134     0.00103181
Spot 2     0.00172981     0.00103071
Spot 1     0.00195123     0.00103167
Spot 2     0.00172983     0.00103075
20MABNDL000196_PR012
Spot 1     0.00315571     0.00069500
Spot 2     0.00315633     0.00069500
Spot 1     0.00304500     0.00006500
Spot 2     0.00304500     0.00006500
Spot 1     0.00064500     0.00003500
Spot 2     0.00064500     0.00003500
Spot 1     0.00197000     0.00030500
Spot 2     0.00304500     0.00006500


****************************************************************coordonnees images transformees dans le repere MOUNT************************************************************************* 
20MABNDB000069_PR031
Spot 1    -0.01355291    -0.01289308    -0.07388500
Spot 2    -0.01348708    -0.01289396    -0.07388500
Spot 1    -0.01355160    -0.01289206    -0.07388500
Spot 2    -0.01348695    -0.01289256    -0.07388500
Spot 1    -0.01355111    -0.01289200    -0.07388500
Spot 2    -0.01348581    -0.01289255    -0.07388500
Spot 1    -0.01355112    -0.01289213    -0.07388500
Spot 2    -0.01348635    -0.01289281    -0.07388500
Spot 1    -0.01355186    -0.01289301    -0.07388500
Spot 2    -0.01348647    -0.01289249    -0.07388500
20MABNDB000069_PR033
Spot 1    -0.01194541    -0.01255239    -0.07388500
Spot 2    -0.01147575    -0.01255271    -0.07388500
Spot 1    -0.01194542    -0.01255230    -0.07388500
Spot 2    -0.01147551    -0.01255280    -0.07388500
Spot 1    -0.01194530    -0.01255230    -0.07388500
Spot 2    -0.01147562    -0.01255273    -0.07388500
Spot 1    -0.01194522    -0.01255223    -0.07388500
Spot 2    -0.01147558    -0.01255280    -0.07388500
Spot 1    -0.01194539    -0.01255221    -0.07388500
Spot 2    -0.01147564    -0.01255275    -0.07388500
20MABNDB000131_PR032
Spot 1    -0.01144079    -0.01299893    -0.07533000
Spot 2    -0.01138171    -0.01299359    -0.07533000
Spot 1    -0.01144111    -0.01299836    -0.07533000
Spot 2    -0.01138190    -0.01299356    -0.07533000
Spot 1    -0.01144095    -0.01299832    -0.07533000
Spot 2    -0.01138172    -0.01299342    -0.07533000
Spot 1    -0.01144098    -0.01299842    -0.07533000
Spot 2    -0.01138170    -0.01299366    -0.07533000
Spot 1    -0.01144115    -0.01299833    -0.07533000
Spot 2    -0.01138200    -0.01299339    -0.07533000
20MABNDB000131_PR034
Spot 1    -0.01328406    -0.01368466    -0.07533000
Spot 2    -0.01310812    -0.01368493    -0.07533000
Spot 1    -0.01328409    -0.01368445    -0.07533000
Spot 2    -0.01310840    -0.01368483    -0.07533000
Spot 1    -0.01328427    -0.01368453    -0.07533000
Spot 2    -0.01310830    -0.01368475    -0.07533000
Spot 1    -0.01328410    -0.01368446    -0.07533000
Spot 2    -0.01310823    -0.01368489    -0.07533000
Spot 1    -0.01328418    -0.01368450    -0.07533000
Spot 2    -0.01310826    -0.01368489    -0.07533000
20MABNDA000208_PR042
Spot 1    -0.01386818     0.01309510    -0.07273700
Spot 2    -0.01379668     0.01309074    -0.07273700
Spot 1    -0.01386761     0.01309565    -0.07273700
Spot 2    -0.01380017     0.01309211    -0.07273700
Spot 1    -0.01386822     0.01309505    -0.07273700
Spot 2    -0.01380032     0.01309206    -0.07273700
Spot 1    -0.01386780     0.01309540    -0.07273700
Spot 2    -0.01379810     0.01309093    -0.07273700
Spot 1    -0.01386741     0.01309530    -0.07273700
Spot 2    -0.01379856     0.01309100    -0.07273700
20MABNDA000208_PR046
Spot 1    -0.01218650     0.01211178    -0.07273700
Spot 2    -0.01171182     0.01210882    -0.07273700
Spot 1    -0.01218664     0.01211235    -0.07273700
Spot 2    -0.01171202     0.01210894    -0.07273700
Spot 1    -0.01218666     0.01211266    -0.07273700
Spot 2    -0.01171178     0.01210881    -0.07273700
Spot 1    -0.01218674     0.01211213    -0.07273700
Spot 2    -0.01171167     0.01210856    -0.07273700
Spot 1    -0.01218650     0.01211228    -0.07273700
Spot 2    -0.01171137     0.01210870    -0.07273700
20MABNDA000035_PR044
Spot 1    -0.01157578     0.01295710    -0.07483200
Spot 2    -0.01152026     0.01296423    -0.07483200
Spot 1    -0.01157565     0.01295727    -0.07483200
Spot 2    -0.01152023     0.01296449    -0.07483200
Spot 1    -0.01157529     0.01295717    -0.07483200
Spot 2    -0.01152036     0.01296427    -0.07483200
Spot 1    -0.01157557     0.01295745    -0.07483200
Spot 2    -0.01152036     0.01296433    -0.07483200
Spot 1    -0.01157559     0.01295718    -0.07483200
Spot 2    -0.01152052     0.01296430    -0.07483200
20MABNDA000035_PR045
Spot 1    -0.01337744     0.01367666    -0.07483200
Spot 2    -0.01320134     0.01367626    -0.07483200
Spot 1    -0.01337776     0.01367656    -0.07483200
Spot 2    -0.01320147     0.01367629    -0.07483200
Spot 1    -0.01337748     0.01367650    -0.07483200
Spot 2    -0.01320147     0.01367640    -0.07483200
Spot 1    -0.01337762     0.01367658    -0.07483200
Spot 2    -0.01320151     0.01367647    -0.07483200
Spot 1    -0.01337769     0.01367630    -0.07483200
Spot 2    -0.01320153     0.01367628    -0.07483200
20MABNDL000077_PR002
Spot 1     0.01186524     0.03557280    -0.07463200
Spot 2     0.01202762     0.03556918    -0.07463200
Spot 1     0.01186506     0.03557276    -0.07463200
Spot 2     0.01202763     0.03556965    -0.07463200
Spot 1     0.01186492     0.03557284    -0.07463200
Spot 2     0.01202730     0.03556956    -0.07463200
Spot 1     0.01186474     0.03557297    -0.07463200
Spot 2     0.01202721     0.03556951    -0.07463200
Spot 1     0.01186478     0.03557308    -0.07463200
Spot 2     0.01202728     0.03556970    -0.07463200
20MABNDL000077_PR003
Spot 1     0.01259187     0.03525756    -0.07463200
Spot 2     0.01274143     0.03525852    -0.07463200
Spot 1     0.01259177     0.03525756    -0.07463200
Spot 2     0.01274140     0.03525872    -0.07463200
Spot 1     0.01259150     0.03525758    -0.07463200
Spot 2     0.01274103     0.03525880    -0.07463200
Spot 1     0.01259138     0.03525760    -0.07463200
Spot 2     0.01274095     0.03525878    -0.07463200
Spot 1     0.01259175     0.03525783    -0.07463200
Spot 2     0.01274117     0.03525890    -0.07463200
20MABNDL000077_20MABNDM000168
Spot 1    -0.01272192     0.03554569    -0.00695400
Spot 2    -0.01254252     0.03557640    -0.00695400
Spot 1    -0.01272222     0.03554532    -0.00695400
Spot 2    -0.01254220     0.03557626    -0.00695400
Spot 1    -0.01272227     0.03554573    -0.00695400
Spot 2    -0.01254273     0.03557642    -0.00695400
Spot 1    -0.01272225     0.03554591    -0.00695400
Spot 2    -0.01254245     0.03557665    -0.00695400
Spot 1    -0.01272228     0.03554568    -0.00695400
Spot 2    -0.01254233     0.03557677    -0.00695400
20MABNDL000077_PR024
Spot 1    -0.01347137     0.03576632    -0.00695400
Spot 2    -0.01357154     0.03577080    -0.00695400
Spot 1    -0.01347093     0.03576735    -0.00695400
Spot 2    -0.01357139     0.03577091    -0.00695400
Spot 1    -0.01347064     0.03576762    -0.00695400
Spot 2    -0.01357145     0.03577111    -0.00695400
Spot 1    -0.01347088     0.03576752    -0.00695400
Spot 2    -0.01357143     0.03577111    -0.00695400
Spot 1    -0.01347096     0.03576697    -0.00695400
Spot 2    -0.01357149     0.03577129    -0.00695400
20MABNDM000020_PR013
Spot 1    -0.01270271    -0.03609890    -0.00523500
Spot 2    -0.01285572    -0.03610647    -0.00523500
Spot 1    -0.01270287    -0.03609890    -0.00523500
Spot 2    -0.01285554    -0.03610651    -0.00523500
Spot 1    -0.01270291    -0.03609875    -0.00523500
Spot 2    -0.01285556    -0.03610670    -0.00523500
Spot 1    -0.01270288    -0.03609895    -0.00523500
Spot 2    -0.01285559    -0.03610672    -0.00523500
Spot 1    -0.01270297    -0.03609912    -0.00523500
Spot 2    -0.01285559    -0.03610668    -0.00523500
20MABNDM000020_PR014
Spot 1    -0.01166593    -0.03621499    -0.00523500
Spot 2    -0.01182722    -0.03622570    -0.00523500
Spot 1    -0.01166580    -0.03621504    -0.00523500
Spot 2    -0.01182708    -0.03622581    -0.00523500
Spot 1    -0.01166609    -0.03621526    -0.00523500
Spot 2    -0.01182724    -0.03622581    -0.00523500
Spot 1    -0.01166582    -0.03621524    -0.00523500
Spot 2    -0.01182697    -0.03622590    -0.00523500
Spot 1    -0.01166599    -0.03621534    -0.00523500
Spot 2    -0.01182701    -0.03622616    -0.00523500
20MABNDM000020_20MABNDL000196
Spot 1     0.01268517    -0.03454615    -0.07583800
Spot 2     0.01388114    -0.03418340    -0.07583800
Spot 1     0.01268540    -0.03454600    -0.07583800
Spot 2     0.01388114    -0.03418340    -0.07583800
Spot 1     0.01268527    -0.03454600    -0.07583800
Spot 2     0.01388114    -0.03418340    -0.07583800
Spot 1     0.01268524    -0.03454627    -0.07583800
Spot 2     0.01388114    -0.03418340    -0.07583800
Spot 1     0.01268523    -0.03454628    -0.07583800
Spot 2     0.01388114    -0.03418340    -0.07583800
20MABNDM000020_PR035
Spot 1     0.01342609    -0.03483825    -0.07583800
Spot 2     0.01349399    -0.03487215    -0.07583800
Spot 1     0.01342601    -0.03483829    -0.07583800
Spot 2     0.01349405    -0.03487208    -0.07583800
Spot 1     0.01342547    -0.03483810    -0.07583800
Spot 2     0.01349419    -0.03487186    -0.07583800
Spot 1     0.01342549    -0.03483830    -0.07583800
Spot 2     0.01349392    -0.03487209    -0.07583800
Spot 1     0.01342589    -0.03483810    -0.07583800
Spot 2     0.01349399    -0.03487224    -0.07583800
20MABNDA000188_PR008
Spot 1    -0.01373033     0.01390516    -0.07502000
Spot 2    -0.01402078     0.01398320    -0.07502000
Spot 1    -0.01372857     0.01390593    -0.07502000
Spot 2    -0.01411897     0.01390321    -0.07502000
Spot 1    -0.01373147     0.01390114    -0.07502000
Spot 2    -0.01432552     0.01401498    -0.07502000
Spot 1    -0.01372981     0.01390070    -0.07502000
Spot 2    -0.01385116     0.01393841    -0.07502000
Spot 1    -0.01373021     0.01390238    -0.07502000
Spot 2    -0.01385368     0.01393594    -0.07502000
20MABNDA000188_PR018
Spot 1    -0.01257212     0.01252418    -0.07502000
Spot 2    -0.01210572     0.01252330    -0.07502000
Spot 1    -0.01257227     0.01252396    -0.07502000
Spot 2    -0.01210547     0.01252310    -0.07502000
Spot 1    -0.01257198     0.01252401    -0.07502000
Spot 2    -0.01210551     0.01252320    -0.07502000
Spot 1    -0.01257206     0.01252400    -0.07502000
Spot 2    -0.01210559     0.01252305    -0.07502000
Spot 1    -0.01257215     0.01252396    -0.07502000
Spot 2    -0.01210556     0.01252321    -0.07502000
20MABNDA000039_PR009
Spot 1    -0.01162316     0.01303500    -0.07444800
Spot 2    -0.01157641     0.01303100    -0.07444800
Spot 1    -0.01162315     0.01303532    -0.07444800
Spot 2    -0.01157603     0.01303075    -0.07444800
Spot 1    -0.01162294     0.01303510    -0.07444800
Spot 2    -0.01157591     0.01303092    -0.07444800
Spot 1    -0.01162333     0.01303491    -0.07444800
Spot 2    -0.01157640     0.01303069    -0.07444800
Spot 1    -0.01162327     0.01303511    -0.07444800
Spot 2    -0.01157694     0.01303094    -0.07444800
20MABNDA000039_PR011
Spot 1    -0.01372004     0.01388675    -0.07444800
Spot 2    -0.01354495     0.01389047    -0.07444800
Spot 1    -0.01372016     0.01388683    -0.07444800
Spot 2    -0.01354509     0.01389043    -0.07444800
Spot 1    -0.01372007     0.01388656    -0.07444800
Spot 2    -0.01354497     0.01389050    -0.07444800
Spot 1    -0.01372002     0.01388680    -0.07444800
Spot 2    -0.01354497     0.01389050    -0.07444800
20MABNDB000155_PR020
Spot 1    -0.01359310    -0.01316858    -0.07501700
Spot 2    -0.01353004    -0.01317110    -0.07501700
Spot 1    -0.01359316    -0.01316824    -0.07501700
Spot 2    -0.01352992    -0.01317096    -0.07501700
Spot 1    -0.01359315    -0.01316783    -0.07501700
Spot 2    -0.01352931    -0.01317055    -0.07501700
Spot 1    -0.01359340    -0.01316870    -0.07501700
Spot 2    -0.01353002    -0.01317096    -0.07501700
20MABNDB000155_PR022
Spot 1    -0.01206373    -0.01311265    -0.07501700
Spot 2    -0.01159076    -0.01311018    -0.07501700
Spot 1    -0.01206387    -0.01311270    -0.07501700
Spot 2    -0.01159085    -0.01311014    -0.07501700
Spot 1    -0.01206383    -0.01311253    -0.07501700
Spot 2    -0.01159083    -0.01311018    -0.07501700
Spot 1    -0.01206350    -0.01311275    -0.07501700
Spot 2    -0.01159077    -0.01311025    -0.07501700
20MABNDB000010_PR021
Spot 1    -0.01158755    -0.01289097    -0.07358200
Spot 2    -0.01153380    -0.01288683    -0.07358200
Spot 1    -0.01158798    -0.01289112    -0.07358200
Spot 2    -0.01153372    -0.01288708    -0.07358200
Spot 1    -0.01158751    -0.01289091    -0.07358200
Spot 2    -0.01153420    -0.01288673    -0.07358200
Spot 1    -0.01158754    -0.01289111    -0.07358200
Spot 2    -0.01153376    -0.01288682    -0.07358200
20MABNDB000010_PR023
Spot 1    -0.01312925    -0.01369136    -0.07358200
Spot 2    -0.01295459    -0.01369052    -0.07358200
Spot 1    -0.01312925    -0.01369146    -0.07358200
Spot 2    -0.01295478    -0.01369067    -0.07358200
Spot 1    -0.01312927    -0.01369136    -0.07358200
Spot 2    -0.01295421    -0.01369046    -0.07358200
Spot 1    -0.01312933    -0.01369155    -0.07358200
Spot 2    -0.01295451    -0.01369073    -0.07358200
20MABNDB000212_PR029
Spot 1    -0.01183130    -0.01325991    -0.07390500
Spot 2    -0.01219658    -0.01325643    -0.07390500
Spot 1    -0.01183138    -0.01325969    -0.07390500
Spot 2    -0.01219681    -0.01325638    -0.07390500
Spot 1    -0.01183149    -0.01325993    -0.07390500
Spot 2    -0.01219647    -0.01325632    -0.07390500
Spot 1    -0.01183122    -0.01325994    -0.07390500
Spot 2    -0.01219675    -0.01325618    -0.07390500
20MABNDB000128_PR030
Spot 1    -0.01246490    -0.01220756    -0.07353400
Spot 2    -0.01226075    -0.01221154    -0.07353400
Spot 1    -0.01246517    -0.01220761    -0.07353400
Spot 2    -0.01226110    -0.01221160    -0.07353400
Spot 1    -0.01246522    -0.01220773    -0.07353400
Spot 2    -0.01226099    -0.01221170    -0.07353400
Spot 1    -0.01246513    -0.01220751    -0.07353400
Spot 2    -0.01226084    -0.01221195    -0.07353400
20MABNDA000444_PR040
Spot 1    -0.01172347     0.01365738    -0.07412000
Spot 2    -0.01208858     0.01365351    -0.07412000
Spot 1    -0.01172352     0.01365749    -0.07412000
Spot 2    -0.01208893     0.01365296    -0.07412000
Spot 1    -0.01172345     0.01365744    -0.07412000
Spot 2    -0.01208875     0.01365278    -0.07412000
Spot 1    -0.01172317     0.01365725    -0.07412000
Spot 2    -0.01208846     0.01365284    -0.07412000
20MABNDA000053_PR041
Spot 1    -0.01239863     0.01211510    -0.07430100
Spot 2    -0.01219569     0.01211389    -0.07430100
Spot 1    -0.01239846     0.01211531    -0.07430100
Spot 2    -0.01219568     0.01211410    -0.07430100
Spot 1    -0.01239873     0.01211504    -0.07430100
Spot 2    -0.01219581     0.01211377    -0.07430100
Spot 1    -0.01239850     0.01211499    -0.07430100
Spot 2    -0.01219569     0.01211397    -0.07430100
20MABNDA000196_PR006
Spot 1    -0.01294229     0.01321938    -0.07967100
Spot 2    -0.01257676     0.01321759    -0.07967100
Spot 1    -0.01294224     0.01321970    -0.07967100
Spot 2    -0.01257721     0.01321814    -0.07967100
Spot 1    -0.01294249     0.01321985    -0.07967100
Spot 2    -0.01257715     0.01321828    -0.07967100
Spot 1    -0.01294232     0.01321977    -0.07967100
Spot 2    -0.01257692     0.01321837    -0.07967100
20MABNDA000324_PR007
Spot 1    -0.01255363     0.01281327    -0.07446800
Spot 2    -0.01234761     0.01280921    -0.07446800
Spot 1    -0.01255379     0.01281282    -0.07446800
Spot 2    -0.01234746     0.01280922    -0.07446800
Spot 1    -0.01255355     0.01281302    -0.07446800
Spot 2    -0.01234747     0.01280928    -0.07446800
Spot 1    -0.01255344     0.01281304    -0.07446800
Spot 2    -0.01234745     0.01280949    -0.07446800
20MABNDB000001_PR017
Spot 1    -0.01194096    -0.01351202    -0.07418400
Spot 2    -0.01419391    -0.01397051    -0.07418400
Spot 1    -0.01194102    -0.01351150    -0.07418400
Spot 2    -0.01419391    -0.01397051    -0.07418400
Spot 1    -0.01194079    -0.01351200    -0.07418400
Spot 2    -0.01419391    -0.01397051    -0.07418400
Spot 1    -0.01194098    -0.01351181    -0.07418400
Spot 2    -0.01419391    -0.01397051    -0.07418400
20MABNDB000260_PR019
Spot 1    -0.01240482    -0.01240411    -0.07492700
Spot 2    -0.01220129    -0.01240025    -0.07492700
Spot 1    -0.01240490    -0.01240384    -0.07492700
Spot 2    -0.01220174    -0.01240012    -0.07492700
Spot 1    -0.01240491    -0.01240386    -0.07492700
Spot 2    -0.01220118    -0.01239980    -0.07492700
Spot 1    -0.01240491    -0.01240381    -0.07492700
Spot 2    -0.01220117    -0.01240036    -0.07492700
20MABNDB000135_PR027
Spot 1    -0.01251132    -0.01318690    -0.07464700
Spot 2    -0.01229305    -0.01318674    -0.07464700
Spot 1    -0.01251110    -0.01318712    -0.07464700
Spot 2    -0.01229290    -0.01318701    -0.07464700
Spot 1    -0.01251121    -0.01318702    -0.07464700
Spot 2    -0.01229301    -0.01318653    -0.07464700
Spot 1    -0.01251126    -0.01318723    -0.07464700
Spot 2    -0.01229312    -0.01318683    -0.07464700
20MABNDB000126_PR028
Spot 1    -0.01253258    -0.01217800    -0.07500400
Spot 2    -0.01225188    -0.01217391    -0.07500400
Spot 1    -0.01253263    -0.01217804    -0.07500400
Spot 2    -0.01225181    -0.01217372    -0.07500400
Spot 1    -0.01253248    -0.01217795    -0.07500400
Spot 2    -0.01225165    -0.01217399    -0.07500400
Spot 1    -0.01253257    -0.01217793    -0.07500400
Spot 2    -0.01225174    -0.01217402    -0.07500400
20MABNDA000272_PR038
Spot 1    -0.01275500     0.01314651    -0.07417900
Spot 2    -0.01253346     0.01314779    -0.07417900
Spot 1    -0.01275476     0.01314688    -0.07417900
Spot 2    -0.01253290     0.01314789    -0.07417900
Spot 1    -0.01275469     0.01314678    -0.07417900
Spot 2    -0.01253323     0.01314804    -0.07417900
Spot 1    -0.01275468     0.01314666    -0.07417900
Spot 2    -0.01253356     0.01314771    -0.07417900
20MABNDA000003_PR039
Spot 1    -0.01279941     0.01212943    -0.07373400
Spot 2    -0.01307781     0.01213040    -0.07373400
Spot 1    -0.01279949     0.01212931    -0.07373400
Spot 2    -0.01307768     0.01213035    -0.07373400
Spot 1    -0.01279931     0.01212946    -0.07373400
Spot 2    -0.01307763     0.01213052    -0.07373400
Spot 1    -0.01279934     0.01212942    -0.07373400
Spot 2    -0.01307755     0.01213045    -0.07373400
20MABNDA000318_PR004
Spot 1    -0.01286367     0.01246341    -0.07310600
Spot 2    -0.01264645     0.01246212    -0.07310600
Spot 1    -0.01286356     0.01246322    -0.07310600
Spot 2    -0.01264628     0.01246252    -0.07310600
Spot 1    -0.01286380     0.01246295    -0.07310600
Spot 2    -0.01264665     0.01246233    -0.07310600
Spot 1    -0.01286354     0.01246262    -0.07310600
Spot 2    -0.01264609     0.01246225    -0.07310600
20MABNDA000334_PR005
Spot 1    -0.01311562     0.01254837    -0.07324100
Spot 2    -0.01283571     0.01254745    -0.07324100
Spot 1    -0.01311586     0.01254834    -0.07324100
Spot 2    -0.01283581     0.01254745    -0.07324100
Spot 1    -0.01311600     0.01254831    -0.07324100
Spot 2    -0.01283580     0.01254755    -0.07324100
Spot 1    -0.01311598     0.01254824    -0.07324100
Spot 2    -0.01283585     0.01254745    -0.07324100
20MABNDB000317_PR015
Spot 1    -0.01266259    -0.01248891    -0.07326100
Spot 2    -0.01244337    -0.01249206    -0.07326100
Spot 1    -0.01266256    -0.01248880    -0.07326100
Spot 2    -0.01244356    -0.01249225    -0.07326100
Spot 1    -0.01266256    -0.01248911    -0.07326100
Spot 2    -0.01244348    -0.01249241    -0.07326100
Spot 1    -0.01266266    -0.01248899    -0.07326100
Spot 2    -0.01244364    -0.01249206    -0.07326100
20MABNDB000146_PR016
Spot 1    -0.01275733    -0.01246007    -0.07450500
Spot 2    -0.01248131    -0.01245664    -0.07450500
Spot 1    -0.01275737    -0.01246002    -0.07450500
Spot 2    -0.01248147    -0.01245646    -0.07450500
Spot 1    -0.01275732    -0.01246012    -0.07450500
Spot 2    -0.01248173    -0.01245665    -0.07450500
Spot 1    -0.01275731    -0.01245975    -0.07450500
Spot 2    -0.01248153    -0.01245645    -0.07450500
20MABNDM000168_PR025
Spot 1    -0.01322583    -0.03565240    -0.00532900
Spot 2    -0.01337885    -0.03565313    -0.00532900
Spot 1    -0.01322576    -0.03565252    -0.00532900
Spot 2    -0.01337897    -0.03565272    -0.00532900
Spot 1    -0.01322590    -0.03565212    -0.00532900
Spot 2    -0.01337878    -0.03565261    -0.00532900
Spot 1    -0.01322581    -0.03565235    -0.00532900
Spot 2    -0.01337886    -0.03565249    -0.00532900
20MABNDM000168_PR026
Spot 1    -0.01173511    -0.03576153    -0.00532900
Spot 2    -0.01189467    -0.03575926    -0.00532900
Spot 1    -0.01173506    -0.03576146    -0.00532900
Spot 2    -0.01189480    -0.03575921    -0.00532900
Spot 1    -0.01173536    -0.03576124    -0.00532900
Spot 2    -0.01189477    -0.03575896    -0.00532900
Spot 1    -0.01173480    -0.03576146    -0.00532900
Spot 2    -0.01189486    -0.03575895    -0.00532900
20MABNDM000168_20MABNDL000077
Spot 1     0.01288838    -0.03529671    -0.07445100
Spot 2     0.01267025    -0.03529715    -0.07445100
Spot 1     0.01288831    -0.03529646    -0.07445100
Spot 2     0.01266997    -0.03529693    -0.07445100
Spot 1     0.01288816    -0.03529644    -0.07445100
Spot 2     0.01267035    -0.03529718    -0.07445100
Spot 1     0.01288807    -0.03529636    -0.07445100
Spot 2     0.01266992    -0.03529705    -0.07445100
20MABNDM000168_PR001
Spot 1     0.01361732    -0.03562540    -0.07445100
Spot 2     0.01371716    -0.03563211    -0.07445100
Spot 1     0.01361736    -0.03562535    -0.07445100
Spot 2     0.01371727    -0.03563198    -0.07445100
Spot 1     0.01361759    -0.03562522    -0.07445100
Spot 2     0.01371710    -0.03563214    -0.07445100
Spot 1     0.01361727    -0.03562509    -0.07445100
Spot 2     0.01371707    -0.03563225    -0.07445100
20MABNDL000196_PR036
Spot 1     0.01194030     0.03583105    -0.07483600
Spot 2     0.01210347     0.03583127    -0.07483600
Spot 1     0.01194033     0.03583104    -0.07483600
Spot 2     0.01210323     0.03583116    -0.07483600
Spot 1     0.01194036     0.03583100    -0.07483600
Spot 2     0.01210330     0.03583093    -0.07483600
Spot 1     0.01194033     0.03583071    -0.07483600
Spot 2     0.01210347     0.03583090    -0.07483600
20MABNDL000196_PR037
Spot 1     0.01346171     0.03535646    -0.07483600
Spot 2     0.01361569     0.03535509    -0.07483600
Spot 1     0.01346210     0.03535649    -0.07483600
Spot 2     0.01361586     0.03535473    -0.07483600
Spot 1     0.01346187     0.03535638    -0.07483600
Spot 2     0.01361598     0.03535497    -0.07483600
Spot 1     0.01346191     0.03535632    -0.07483600
Spot 2     0.01361592     0.03535486    -0.07483600
20MABNDL000196_20MABNDM000020
Spot 1    -0.01277497     0.03530285    -0.00611000
Spot 2    -0.01255375     0.03530588    -0.00611000
Spot 1    -0.01277508     0.03530259    -0.00611000
Spot 2    -0.01255374     0.03530579    -0.00611000
Spot 1    -0.01277519     0.03530250    -0.00611000
Spot 2    -0.01255368     0.03530586    -0.00611000
Spot 1    -0.01277508     0.03530236    -0.00611000
Spot 2    -0.01255370     0.03530590    -0.00611000
20MABNDL000196_PR012
Spot 1    -0.01397254     0.03494153    -0.00611000
Spot 2    -0.01397316     0.03494152    -0.00611000
Spot 1    -0.01384918     0.03431388    -0.00611000
Spot 2    -0.01384918     0.03431388    -0.00611000
Spot 1    -0.01144906     0.03433218    -0.00611000
Spot 2    -0.01144906     0.03433218    -0.00611000
Spot 1    -0.01277922     0.03457546    -0.00611000
Spot 2    -0.01384918     0.03431388    -0.00611000


*****************************************************************coordonnees du prisme dans le repere MOUNT********************************************************************************** 
20MABNDB000069_PR031
    0.09775312    -0.03509938     9.20362663
    0.09766538    -0.03524737     9.20362854
    0.09756515    -0.03525182     9.20362854
    0.09759928    -0.03522807     9.20362854
    0.09765227    -0.03519342     9.20362854
20MABNDB000069_PR033
   -0.02819486    -0.02198551     1.28396845
   -0.02819674    -0.02198552     1.28396845
   -0.02819685    -0.02198603     1.28396845
   -0.02819788    -0.02198607     1.28396845
   -0.02819593    -0.02198667     1.28396845
20MABNDB000131_PR032
   -0.18823306    -0.03548062    11.00640678
   -0.18819560    -0.03552428    11.00640774
   -0.18822035    -0.03553755    11.00640678
   -0.18821976    -0.03551270    11.00640678
   -0.18818530    -0.03553957    11.00640774
20MABNDB000131_PR034
    0.01396088     0.01126305     3.43342280
    0.01396798     0.01125579     3.43342280
    0.01396981     0.01125580     3.43342280
    0.01396433     0.01125737     3.43342280
    0.01396683     0.01125829     3.43342280
20MABNDA000208_PR042
    0.12461457     0.00854074     9.20156860
    0.12479384     0.00842244     9.20156574
    0.12484045     0.00846237     9.20156574
    0.12467841     0.00851010     9.20156765
    0.12468270     0.00851195     9.20156765
20MABNDA000208_PR046
   -0.02574978     0.02923466     1.28213978
   -0.02574687     0.02922877     1.28214002
   -0.02574875     0.02922723     1.28214002
   -0.02574901     0.02923389     1.28213978
   -0.02575362     0.02923141     1.28213978
20MABNDA000035_PR044
   -0.17944489     0.03290264    11.00802040
   -0.17945683     0.03287128    11.00802040
   -0.17947349     0.03289407    11.00802040
   -0.17945318     0.03286906    11.00802040
   -0.17943987     0.03289090    11.00802040
20MABNDA000035_PR045
    0.01476517    -0.01338851     3.43488312
    0.01477545    -0.01338699     3.43488312
    0.01476905    -0.01338809     3.43488312
    0.01477313    -0.01339154     3.43488312
    0.01477526    -0.01338083     3.43488312
20MABNDL000077_PR002
    0.04952845     0.02146077     3.70690966
    0.04953279     0.02145011     3.70690918
    0.04954416     0.02145025     3.70690918
    0.04955081     0.02144821     3.70690918
    0.04954827     0.02144082     3.70690918
20MABNDL000077_PR003
    0.01401233     0.03696594     3.89605379
    0.01401591     0.03696072     3.89605379
    0.01403251     0.03695822     3.89605379
    0.01403770     0.03695843     3.89605379
    0.01402229     0.03694897     3.89605379
20MABNDL000077_20MABNDM000168
   -0.01650456     0.01452035    -5.46871185
   -0.01650511     0.01453877    -5.46871185
   -0.01648431     0.01451839    -5.46871185
   -0.01649499     0.01450348    -5.46871185
   -0.01649828     0.01450742    -5.46871185
20MABNDL000077_PR024
    0.05252150    -0.00336645    -5.89622307
    0.05249817    -0.00341074    -5.89622307
    0.05248901    -0.00342916    -5.89622307
    0.05249754    -0.00342517    -5.89622307
    0.05250324    -0.00341069    -5.89622307
20MABNDM000020_PR013
   -0.00512179     0.01224645    -3.80216813
   -0.00512231     0.01224743    -3.80216813
   -0.00512109     0.01224845    -3.80216813
   -0.00512096     0.01225391    -3.80216813
   -0.00511880     0.01225718    -3.80216789
20MABNDM000020_PR014
   -0.06746802     0.03180876    -4.74799871
   -0.06747653     0.03181355    -4.74799871
   -0.06746268     0.03182070    -4.74799871
   -0.06747954     0.03182282    -4.74799871
   -0.06747261     0.03183386    -4.74799824
20MABNDM000020_20MABNDL000196
   -0.02602461    -0.08882231     5.39443207
   -0.02603285    -0.08882767     5.39443207
   -0.02602819    -0.08882767     5.39443207
   -0.02602712    -0.08881800     5.39443207
   -0.02602676    -0.08881764     5.39443207
20MABNDM000020_PR035
   -0.04257609    -0.05502013     5.80099487
   -0.04257532    -0.05502129     5.80099487
   -0.04255991    -0.05503708     5.80099583
   -0.04255029    -0.05502052     5.80099583
   -0.04256839    -0.05502245     5.80099583
20MABNDA000188_PR008
    0.13199234    -0.09545269     9.20328426
    0.13791090    -0.09058972     9.20324516
    0.15076220    -0.09715267     9.20294952
    0.12155130    -0.09243251     9.20347786
    0.12173095    -0.09238307     9.20347595
20MABNDA000188_PR018
   -0.01882418     0.02227510     1.28360295
   -0.01882517     0.02227870     1.28360295
   -0.01882716     0.02227743     1.28360295
   -0.01882586     0.02227879     1.28360295
   -0.01882535     0.02227776     1.28360295
20MABNDA000039_PR009
   -0.17154568     0.02982494    11.00700378
   -0.17157349     0.02981995    11.00700378
   -0.17159833     0.02982371    11.00700378
   -0.17153385     0.02985415    11.00700378
   -0.17149889     0.02982109    11.00700569
20MABNDA000039_PR011
    0.03050365    -0.02068050     3.43351460
    0.03050957    -0.02068144     3.43351412
    0.03050480    -0.02067686     3.43351460
    0.03050364    -0.02068233     3.43351460
20MABNDB000155_PR020
    0.09571859    -0.00393571     9.20035648
    0.09571408    -0.00396524     9.20035648
    0.09567672    -0.00401548     9.20035744
    0.09573518    -0.00393671     9.20035648
20MABNDB000155_PR022
   -0.02720431    -0.01284420     1.28069854
   -0.02720234    -0.01284417     1.28069854
   -0.02720284    -0.01284529     1.28069854
   -0.02720603    -0.01284277     1.28069854
20MABNDB000010_PR021
   -0.17530943    -0.03882900    11.00694847
   -0.17528421    -0.03879916    11.00694847
   -0.17528351    -0.03884032    11.00694847
   -0.17531328    -0.03881951    11.00694847
20MABNDB000010_PR023
    0.00454605     0.01566754     3.43381166
    0.00455030     0.01567335     3.43381166
    0.00453781     0.01566626     3.43381166
    0.00454589     0.01567671     3.43381166
20MABNDB000212_PR029
   -0.02585107    -0.00890757     1.64223540
   -0.02584759    -0.00891056     1.64223552
   -0.02585020    -0.00890856     1.64223552
   -0.02585011    -0.00890999     1.64223552
20MABNDB000128_PR030
   -0.01887701    -0.04715491     2.95496011
   -0.01886483    -0.04715291     2.95496011
   -0.01886602    -0.04714859     2.95496011
   -0.01887074    -0.04714801     2.95496011
20MABNDA000444_PR040
   -0.02941930     0.00133339     1.64492011
   -0.02941487     0.00133826     1.64492011
   -0.02941764     0.00134086     1.64492011
   -0.02942379     0.00134220     1.64492011
20MABNDA000053_PR041
   -0.02697935     0.05125023     2.95449996
   -0.02698285     0.05124206     2.95450020
   -0.02697496     0.05125388     2.95449996
   -0.02698209     0.05125088     2.95449996
20MABNDA000196_PR006
   -0.01036364     0.01057261     1.64206481
   -0.01035917     0.01056316     1.64206481
   -0.01035714     0.01055996     1.64206481
   -0.01036151     0.01055991     1.64206481
20MABNDA000324_PR007
   -0.02526012     0.02770041     2.95549250
   -0.02525999     0.02770907     2.95549250
   -0.02526467     0.02770391     2.95549250
   -0.02526720     0.02769937     2.95549250
20MABNDB000001_PR017
   -0.00336839     0.00138111     1.64034176
   -0.00336779     0.00137542     1.64034176
   -0.00337025     0.00138091     1.64034176
   -0.00336819     0.00137881     1.64034176
20MABNDB000260_PR019
   -0.02452157    -0.03817985     2.95627594
   -0.02451117    -0.03818771     2.95627594
   -0.02452208    -0.03819364     2.95627594
   -0.02452229    -0.03818360     2.95627594
20MABNDB000135_PR027
   -0.02109076    -0.01023888     2.74937153
   -0.02109762    -0.01022981     2.74937153
   -0.02109352    -0.01024050     2.74937153
   -0.02109049    -0.01023118     2.74937153
20MABNDB000126_PR028
   -0.02037955    -0.03883380     2.14679670
   -0.02037982    -0.03883594     2.14679670
   -0.02038425    -0.03883340     2.14679670
   -0.02038169    -0.03883325     2.14679670
20MABNDA000272_PR038
   -0.01336751     0.01128956     2.74965882
   -0.01338218     0.01128097     2.74965882
   -0.01337742     0.01128005     2.74965882
   -0.01337154     0.01128829     2.74965882
20MABNDA000003_PR039
   -0.00600059     0.04112864     2.14891720
   -0.00600130     0.04113107     2.14891720
   -0.00600460     0.04112650     2.14891720
   -0.00600531     0.04112808     2.14891720
20MABNDA000318_PR004
   -0.00851776     0.03864020     2.74965668
   -0.00852289     0.03863634     2.74965668
   -0.00851172     0.03864481     2.74965668
   -0.00852679     0.03865229     2.74965668
20MABNDA000334_PR005
   -0.00428310     0.03152299     2.14977336
   -0.00427824     0.03152341     2.14977336
   -0.00427638     0.03152241     2.14977336
   -0.00427595     0.03152484     2.14977336
20MABNDB000317_PR015
   -0.01750826    -0.03433967     2.75128746
   -0.01750518    -0.03433818     2.75128746
   -0.01750656    -0.03432964     2.75128746
   -0.01750209    -0.03433815     2.75128746
20MABNDB000146_PR016
   -0.01362821    -0.03183033     2.15201235
   -0.01362533    -0.03183363     2.15201235
   -0.01362232    -0.03182946     2.15201235
   -0.01362532    -0.03183766     2.15201211
20MABNDM000168_PR025
    0.01793171    -0.02028380    -3.78863740
    0.01793298    -0.02029096    -3.78863740
    0.01793180    -0.02030357    -3.78863788
    0.01793154    -0.02030085    -3.78863788
20MABNDM000168_PR026
   -0.05788725    -0.01384921    -3.98428893
   -0.05788516    -0.01385232    -3.98428965
   -0.05787808    -0.01386453    -3.98428965
   -0.05789034    -0.01385911    -3.98428965
20MABNDM000168_20MABNDL000077
    0.01130010    -0.03908791     5.38884640
    0.01131243    -0.03910462     5.38884640
    0.01130429    -0.03909624     5.38884640
    0.01132322    -0.03910370     5.38884640
20MABNDM000168_PR001
   -0.05765297    -0.01360153     5.81470299
   -0.05765888    -0.01360842     5.81470299
   -0.05766119    -0.01360722     5.81470299
   -0.05764764    -0.01360820     5.81470299
20MABNDL000196_PR036
    0.05069575     0.00579624     3.68777728
    0.05070090     0.00579919     3.68777728
    0.05069844     0.00580581     3.68777776
    0.05069498     0.00581366     3.68777776
20MABNDL000196_PR037
   -0.02572291     0.02877498     3.88380766
   -0.02573740     0.02878349     3.88380766
   -0.02573455     0.02878013     3.88380766
   -0.02573404     0.02878453     3.88380766
20MABNDL000196_20MABNDM000020
   -0.01390197     0.03883985    -5.47473907
   -0.01389826     0.03885215    -5.47473907
   -0.01389648     0.03885290    -5.47473907
   -0.01389979     0.03885643    -5.47473907
20MABNDL000196_PR012
    0.08769584     0.06726616    -5.91482735
    0.07807925     0.11604182    -5.91451979
   -0.10844630     0.11461935    -5.91446018
    0.03650885     0.10588501    -5.91514874


*****************************************************************coordonnees du prisme dans le repere ATLAS********************************************************************************** 
20MABNDB000069_PR031 0.00000000
    3.67946815     3.84881735    -7.90530109
    3.67938042     3.84882021    -7.90515327
    3.67928028     3.84882045    -7.90514851
    3.67931437     3.84882021    -7.90517235
    3.67936730     3.84881997    -7.90520716
20MABNDB000069_PR033 0.00000000
    3.53210211    -4.07045269    -7.88368511
    3.53210020    -4.07045269    -7.88368511
    3.53210020    -4.07045269    -7.88368464
    3.53209901    -4.07045269    -7.88368464
    3.53210115    -4.07045269    -7.88368416
20MABNDB000131_PR032 0.00000000
    3.86903381     3.64755511   -12.94612312
    3.86899638     3.64755607   -12.94616699
    3.86902094     3.64755511   -12.94618034
    3.86902046     3.64755511   -12.94615555
    3.86898589     3.64755607   -12.94618225
20MABNDB000131_PR034 0.00000000
    3.67382669    -3.92559505   -12.89668465
    3.67381978    -3.92559505   -12.89669228
    3.67381787    -3.92559505   -12.89669228
    3.67382336    -3.92559505   -12.89669037
    3.67382097    -3.92559505   -12.89668941
20MABNDA000208_PR042 0.00000000
   -3.67468929     3.84924078    -7.90294123
   -3.67486858     3.84923792    -7.90305996
   -3.67491531     3.84923816    -7.90301991
   -3.67475319     3.84923983    -7.90297222
   -3.67475748     3.84923983    -7.90297031
20MABNDA000208_PR046 0.00000000
   -3.53001285    -4.07028580    -7.87928247
   -3.53001571    -4.07028580    -7.87928820
   -3.53001380    -4.07028580    -7.87928963
   -3.53001356    -4.07028580    -7.87928343
   -3.53000903    -4.07028580    -7.87928581
20MABNDA000035_PR044 0.00000000
   -3.86868691     3.64757609   -12.93858147
   -3.86869884     3.64757609   -12.93855000
   -3.86871552     3.64757609   -12.93857288
   -3.86869526     3.64757609   -12.93854809
   -3.86868191     3.64757609   -12.93857002
20MABNDA000035_PR045 0.00000000
   -3.67596412    -3.92560363   -12.89299583
   -3.67595387    -3.92560363   -12.89299774
   -3.67596030    -3.92560363   -12.89299583
   -3.67595625    -3.92560363   -12.89299297
   -3.67595410    -3.92560363   -12.89300346
20MABNDL000077_PR002 0.00000000
    2.83558011    -3.69498849     6.48618984
    2.83559084    -3.69498420     6.48618937
    2.83559060    -3.69497275     6.48618937
    2.83559275    -3.69496608     6.48618937
    2.83559990    -3.69496870     6.48618937
20MABNDL000077_PR003 0.00000000
    2.82024908    -3.73073292     6.67530537
    2.82025433    -3.73072934     6.67530537
    2.82025671    -3.73071289     6.67530537
    2.82025671    -3.73070765     6.67530537
    2.82026601    -3.73072314     6.67530537
20MABNDL000077_20MABNDM000168 0.00000000
    2.83349943    -3.74970293    -2.68950844
    2.83348083    -3.74970341    -2.68950844
    2.83350134    -3.74968266    -2.68950844
    2.83351612    -3.74969339    -2.68950844
    2.83351231    -3.74969649    -2.68950844
20MABNDL000077_PR024 0.00000000
    2.85098886    -3.68015504    -3.11695147
    2.85103297    -3.68017840    -3.11695147
    2.85105157    -3.68018770    -3.11695170
    2.85104752    -3.68017912    -3.11695170
    2.85103297    -3.68017340    -3.11695147
20MABNDM000020_PR013 0.00000000
   -2.86455536    -3.73435283     6.48601770
   -2.86455631    -3.73435211     6.48601770
   -2.86455750    -3.73435354     6.48601770
   -2.86456299    -3.73435354     6.48601770
   -2.86456609    -3.73435569     6.48601770
20MABNDM000020_PR014 0.00000000
   -2.88390946    -3.67271996     7.43189955
   -2.88391423    -3.67271137     7.43189955
   -2.88392138    -3.67272520     7.43189955
   -2.88392353    -3.67270827     7.43189955
   -2.88393450    -3.67271519     7.43189907
20MABNDM000020_20MABNDL000196 0.00000000
   -2.76532078    -3.70648646    -2.71058393
   -2.76531529    -3.70647836    -2.71058393
   -2.76531529    -3.70648289    -2.71058393
   -2.76532507    -3.70648408    -2.71058393
   -2.76532531    -3.70648432    -2.71058393
20MABNDM000020_PR035 0.00000000
   -2.79919910    -3.68961549    -3.11712718
   -2.79919791    -3.68961620    -3.11712718
   -2.79918218    -3.68963170    -3.11712813
   -2.79919887    -3.68964124    -3.11712813
   -2.79919696    -3.68962312    -3.11712813
20MABNDA000188_PR008 0.00000000
    3.54476309     3.84862280     8.10676956
    3.55075359     3.84872794     8.10199642
    3.56350851     3.84855652     8.10874939
    3.53436661     3.84868979     8.10359383
    3.53454709     3.84869123     8.10354710
20MABNDA000188_PR018 0.00000000
    3.51826000    -4.07065535     7.90113354
    3.51825905    -4.07065535     7.90112972
    3.51825714    -4.07065535     7.90113115
    3.51825833    -4.07065535     7.90112972
    3.51825881    -4.07065535     7.90113068
20MABNDA000039_PR009 0.00000000
    3.87571716     3.64745998    12.94111919
    3.87574506     3.64745998    12.94111443
    3.87576985     3.64745998    12.94111824
    3.87570524     3.64745998    12.94114780
    3.87567043     3.64746213    12.94111538
20MABNDA000039_PR011 0.00000000
    3.66452003    -3.92576289    12.88815594
    3.66451406    -3.92576337    12.88815498
    3.66451883    -3.92576289    12.88815975
    3.66452003    -3.92576289    12.88815403
20MABNDB000155_PR020 0.00000000
   -3.67437291     3.84890532     7.90293360
   -3.67436838     3.84890532     7.90290403
   -3.67433095     3.84890628     7.90285397
   -3.67438936     3.84890532     7.90293264
20MABNDB000155_PR022 0.00000000
   -3.53277779    -4.07044172     7.89521551
   -3.53277969    -4.07044172     7.89521551
   -3.53277922    -4.07044172     7.89521456
   -3.53277612    -4.07044172     7.89521694
20MABNDB000010_PR021 0.00000000
   -3.86114216     3.64768791    12.94065762
   -3.86111689     3.64768791    12.94062805
   -3.86111617     3.64768791    12.94066906
   -3.86114597     3.64768791    12.94064808
20MABNDB000010_PR023 0.00000000
   -3.68511629    -3.92556286    12.88960838
   -3.68511200    -3.92556286    12.88960171
   -3.68512464    -3.92556286    12.88960934
   -3.68511653    -3.92556286    12.88959885
20MABNDB000212_PR029 0.00000000
    2.59952879    -4.19501305    -6.54789543
    2.59952521    -4.19501305    -6.54789829
    2.59952784    -4.19501305    -6.54789639
    2.59952784    -4.19501305    -6.54789782
20MABNDB000128_PR030 0.00000000
    2.60998154    -4.14002943    -6.93096590
    2.60999393    -4.14002991    -6.93096828
    2.60999274    -4.14002991    -6.93097258
    2.60998797    -4.14002991    -6.93097305
20MABNDA000444_PR040 0.00000000
   -2.60459185    -4.19508934    -6.54051352
   -2.60458755    -4.19508934    -6.54051876
   -2.60459018    -4.19508934    -6.54052114
   -2.60459638    -4.19508934    -6.54052258
20MABNDA000053_PR041 0.00000000
   -2.59356260    -4.14013100    -6.92666340
   -2.59355903    -4.14013052    -6.92667150
   -2.59356689    -4.14013100    -6.92665958
   -2.59355998    -4.14013100    -6.92666245
20MABNDA000196_PR006 0.00000000
    2.58482409    -4.19496298     6.54852915
    2.58481956    -4.19496298     6.54851961
    2.58481765    -4.19496298     6.54851627
    2.58482194    -4.19496298     6.54851627
20MABNDA000324_PR007 0.00000000
    2.59405470    -4.13996553     6.94821453
    2.59405470    -4.13996553     6.94820595
    2.59405017    -4.13996553     6.94821119
    2.59404755    -4.13996553     6.94821596
20MABNDB000001_PR017 0.00000000
   -2.57706833    -4.19510555     6.53395414
   -2.57706761    -4.19510555     6.53395987
   -2.57707000    -4.19510555     6.53395462
   -2.57706809    -4.19510555     6.53395653
20MABNDB000260_PR019 0.00000000
   -2.60424042    -4.13995838     6.94246435
   -2.60425091    -4.13995838     6.94245625
   -2.60423994    -4.13995838     6.94245052
   -2.60423970    -4.13995838     6.94246054
20MABNDB000135_PR027 0.00000000
    2.60377240    -4.19700384    -3.82512212
    2.60376549    -4.19700384    -3.82513118
    2.60376978    -4.19700384    -3.82512045
    2.60377264    -4.19700384    -3.82512975
20MABNDB000126_PR028 0.00000000
    2.60553765    -4.19702005    -5.89338589
    2.60553741    -4.19702005    -5.89338398
    2.60553288    -4.19702005    -5.89338636
    2.60553551    -4.19702005    -5.89338684
20MABNDA000272_PR038 0.00000000
   -2.61116934    -4.19698238    -3.82719469
   -2.61115456    -4.19698238    -3.82720327
   -2.61115932    -4.19698238    -3.82720423
   -2.61116529    -4.19698238    -3.82719612
20MABNDA000003_PR039 0.00000000
   -2.61573052    -4.19702005    -5.89163828
   -2.61572981    -4.19702005    -5.89163542
   -2.61572647    -4.19702005    -5.89164019
   -2.61572576    -4.19702005    -5.89163876
20MABNDA000318_PR004 0.00000000
    2.61448550    -4.19698811     3.83335853
    2.61448026    -4.19698811     3.83336234
    2.61449146    -4.19698763     3.83335376
    2.61447644    -4.19698763     3.83334637
20MABNDA000334_PR005 0.00000000
    2.61671543    -4.19702959     5.89773798
    2.61672044    -4.19702959     5.89773750
    2.61672211    -4.19702959     5.89773846
    2.61672258    -4.19702959     5.89773607
20MABNDB000317_PR015 0.00000000
   -2.61109900    -4.19700384     3.83567572
   -2.61110210    -4.19700384     3.83567739
   -2.61110067    -4.19700384     3.83568573
   -2.61110520    -4.19700384     3.83567739
20MABNDB000146_PR016 0.00000000
   -2.61266708    -4.19702530     5.89851999
   -2.61266994    -4.19702530     5.89851665
   -2.61267281    -4.19702530     5.89852095
   -2.61266994    -4.19702578     5.89851284
20MABNDM000168_PR025 0.00000000
    2.83295298    -3.76326108    -6.47925615
    2.83294582    -3.76326227    -6.47925615
    2.83293319    -3.76326108    -6.47925663
    2.83293605    -3.76326084    -6.47925663
20MABNDM000168_PR026 0.00000000
    2.83939576    -3.68751669    -6.67493629
    2.83939266    -3.68751860    -6.67493725
    2.83938050    -3.68752575    -6.67493725
    2.83938599    -3.68751359    -6.67493725
20MABNDM000168_20MABNDL000077 0.00000000
    2.81470776    -3.75321221     2.69822550
    2.81469107    -3.75322437     2.69822550
    2.81469941    -3.75321627     2.69822550
    2.81469178    -3.75323534     2.69822550
20MABNDM000168_PR001 0.00000000
    2.84023809    -3.68410754     3.12405491
    2.84023118    -3.68410158     3.12405491
    2.84023237    -3.68409920     3.12405491
    2.84023142    -3.68411279     3.12405491
20MABNDL000196_PR036 0.00000000
   -2.84781098    -3.69357872    -6.47910023
   -2.84780812    -3.69357371    -6.47910023
   -2.84780145    -3.69357610    -6.47910070
   -2.84779358    -3.69357967    -6.47910070
20MABNDL000196_PR037 0.00000000
   -2.82480097    -3.77016902    -6.67505980
   -2.82479239    -3.77018356    -6.67505980
   -2.82479572    -3.77018070    -6.67505980
   -2.82479143    -3.77018023    -6.67505980
20MABNDL000196_20MABNDM000020 0.00000000
   -2.81453943    -3.74963808     2.68347168
   -2.81452703    -3.74963450     2.68347168
   -2.81452632    -3.74963260     2.68347168
   -2.81452274    -3.74963593     2.68347168
20MABNDL000196_PR012 0.00000000
   -2.78615069    -3.64761782     3.12346458
   -2.73737073    -3.65721202     3.12316489
   -2.73870635    -3.84373832     3.12327886
   -2.74750805    -3.69878650     3.12383270


*****************************************************************Rapport********************************************************************************** 
CAM-ECTC-US-IP_ECTC-US-IP-T    2016.03.21.12.51.52     3.67936211     3.84881964    -7.90519648     0.00006416     0.00000115     0.00005623 0.00000000 VRAI 
CAM-ECTC-US-IP_ECTC-US-IP      2016.03.21.12.51.52     3.53210053    -4.07045269    -7.88368473     0.00000104     0.00000000     0.00000036 0.00000000 VRAI 
CAM-ECTC-US-HO_ECTC-US-HO-T    2016.03.21.12.51.52     3.86901150     3.64755549   -12.94616165     0.00001762     0.00000047     0.00002156 0.00000000 VRAI 
CAM-ECTC-US-HO_ECTC-US-HO      2016.03.21.12.51.52     3.67382174    -3.92559505   -12.89668980     0.00000305     0.00000000     0.00000280 0.00000000 VRAI 
CAM-ECTC-USA-IP_ECTC-USA-IP-T  2016.03.21.12.51.52    -3.67479677     3.84923930    -7.90299273     0.00008271     0.00000109     0.00004203 0.00000000 VRAI 
CAM-ECTC-USA-IP_ECTC-USA-IP    2016.03.21.12.51.52    -3.53001299    -4.07028580    -7.87928591     0.00000219     0.00000000     0.00000272 0.00000000 VRAI 
CAM-ECTC-USA-HO_ECTC-USA-HO-T  2016.03.21.12.51.52    -3.86869569     3.64757609   -12.93856449     0.00001158     0.00000000     0.00001318 0.00000000 VRAI 
CAM-ECTC-USA-HO_ECTC-USA-HO    2016.03.21.12.51.52    -3.67595773    -3.92560363   -12.89299717     0.00000394     0.00000000     0.00000350 0.00000000 VRAI 
CAM-LBA-US_EBA-US-HO-H         2016.03.21.12.51.52     2.83559084    -3.69497604     6.48618946     0.00000634     0.00000878     0.00000019 0.00000000 VRAI 
CAM-LBA-US_JDA-US-H            2016.03.21.12.51.52     2.82025657    -3.73072119     6.67530537     0.00000548     0.00000959     0.00000000 0.00000000 VRAI 
CAM-LBA-US_CAM-LBC-US          2016.03.21.12.51.52     2.83350201    -3.74969578    -2.68950844     0.00001233     0.00000758     0.00000000 0.00000000 VRAI 
CAM-LBA-US_EBC-US-IP-H         2016.03.21.12.51.52     2.85103078    -3.68017473    -3.11695156     0.00002227     0.00001087     0.00000012 0.00000000 VRAI 
CAM-LBA-USA_EBA-USA-HO-H       2016.03.21.12.51.52    -2.86455965    -3.73435354     6.48601770     0.00000417     0.00000120     0.00000000 0.00000000 VRAI 
CAM-LBA-USA_JDA-USA-H          2016.03.21.12.51.52    -2.88392062    -3.67271600     7.43189945     0.00000857     0.00000603     0.00000019 0.00000000 VRAI 
CAM-LBA-USA_CAM-LBC-USA        2016.03.21.12.51.52    -2.76532035    -3.70648322    -2.71058393     0.00000443     0.00000269     0.00000000 0.00000000 VRAI 
CAM-LBA-USA_EBC-USA-IP-H       2016.03.21.12.51.52    -2.79919500    -3.68962555    -3.11712775     0.00000646     0.00000978     0.00000047 0.00000000 VRAI 
CAM-ECTA-US-IP_ECTA-US-IP-T    2016.03.21.12.51.52     3.54558778     3.84865766     8.10493126     0.01092090     0.00006090     0.00246071 0.00000000 VRAI 
CAM-ECTA-US-IP_ECTA-US-IP      2016.03.21.12.51.52     3.51825867    -4.07065535     7.90113096     0.00000094     0.00000000     0.00000140 0.00000000 VRAI 
CAM-ECTA-US-HO_ECTA-US-HO-T    2016.03.21.12.51.52     3.87572155     3.64746041    12.94112301     0.00003401     0.00000086     0.00001252 0.00000000 VRAI 
CAM-ECTA-US-HO_ECTA-US-HO      2016.03.21.12.51.52     3.66451824    -3.92576301    12.88815618     0.00000246     0.00000021     0.00000217 0.00000000 VRAI 
CAM-ECTA-USA-IP_ECTA-USA-IP-T  2016.03.21.12.51.52    -3.67436540     3.84890556     7.90290606     0.00002137     0.00000041     0.00003234 0.00000000 VRAI 
CAM-ECTA-USA-IP_ECTA-USA-IP    2016.03.21.12.51.52    -3.53277820    -4.07044172     7.89521563     0.00000139     0.00000000     0.00000085 0.00000000 VRAI 
CAM-ECTA-USA-HO_ECTA-USA-HO-T  2016.03.21.12.51.52    -3.86113030     3.64768791    12.94065070     0.00001384     0.00000000     0.00001504 0.00000000 VRAI 
CAM-ECTA-USA-HO_ECTA-USA-HO    2016.03.21.12.51.52    -3.68511736    -3.92556286    12.88960457     0.00000457     0.00000000     0.00000442 0.00000000 VRAI 
CAM-JDC-US-IP_JDC-US-IP        2016.03.21.12.51.52     2.59952742    -4.19501305    -6.54789698     0.00000133     0.00000000     0.00000114 0.00000000 VRAI 
CAM-JDC-US-HO_JDC-US-HO        2016.03.21.12.51.52     2.60998905    -4.14002979    -6.93096995     0.00000488     0.00000021     0.00000299 0.00000000 VRAI 
CAM-JDC-USA-IP_JDC-USA-IP      2016.03.21.12.51.52    -2.60459149    -4.19508934    -6.54051900     0.00000321     0.00000000     0.00000345 0.00000000 VRAI 
CAM-JDC-USA-HO_JDC-USA-HO      2016.03.21.12.51.52    -2.59356213    -4.14013088    -6.92666423     0.00000305     0.00000021     0.00000443 0.00000000 VRAI 
CAM-JDA-US-IP_JDA-US-IP        2016.03.21.12.51.52     2.58482081    -4.19496298     6.54852033     0.00000243     0.00000000     0.00000527 0.00000000 VRAI 
CAM-JDA-US-HO_JDA-US-HO        2016.03.21.12.51.52     2.59405178    -4.13996553     6.94821191     0.00000306     0.00000000     0.00000385 0.00000000 VRAI 
CAM-JDA-USA-IP_JDA-USA-IP      2016.03.21.12.51.52    -2.57706851    -4.19510555     6.53395629     0.00000090     0.00000000     0.00000225 0.00000000 VRAI 
CAM-JDA-USA-HO_JDA-USA-HO      2016.03.21.12.51.52    -2.60424274    -4.13995838     6.94245791     0.00000472     0.00000000     0.00000514 0.00000000 VRAI 
CAM-EBC-US-IP_EBC-US-IP        2016.03.21.12.51.52     2.60377008    -4.19700384    -3.82512587     0.00000288     0.00000000     0.00000465 0.00000000 VRAI 
CAM-EBC-US-HO_EBC-US-HO        2016.03.21.12.51.52     2.60553586    -4.19702005    -5.89338577     0.00000191     0.00000000     0.00000109 0.00000000 VRAI 
CAM-EBC-USA-IP_EBC-USA-IP      2016.03.21.12.51.52    -2.61116213    -4.19698238    -3.82719958     0.00000564     0.00000000     0.00000422 0.00000000 VRAI 
CAM-EBC-USA-HO_EBC-USA-HO      2016.03.21.12.51.52    -2.61572814    -4.19702005    -5.89163816     0.00000206     0.00000000     0.00000173 0.00000000 VRAI 
CAM-EBA-US-IP_EBA-US-IP        2016.03.21.12.51.52     2.61448342    -4.19698787     3.83335525     0.00000565     0.00000024     0.00000596 0.00000000 VRAI 
CAM-EBA-US-HO_EBA-US-HO        2016.03.21.12.51.52     2.61672014    -4.19702959     5.89773750     0.00000283     0.00000000     0.00000089 0.00000000 VRAI 
CAM-EBA-USA-IP_EBA-USA-IP      2016.03.21.12.51.52    -2.61110175    -4.19700384     3.83567905     0.00000228     0.00000000     0.00000391 0.00000000 VRAI 
CAM-EBA-USA-HO_EBA-USA-HO      2016.03.21.12.51.52    -2.61266994    -4.19702542     5.89851761     0.00000202     0.00000021     0.00000318 0.00000000 VRAI 
CAM-LBC-US_EBC-US-HO-H         2016.03.21.12.51.52     2.83294201    -3.76326132    -6.47925639     0.00000788     0.00000056     0.00000024 0.00000000 VRAI 
CAM-LBC-US_JDC-US-H            2016.03.21.12.51.52     2.83938873    -3.68751866    -6.67493701     0.00000592     0.00000447     0.00000041 0.00000000 VRAI 
CAM-LBC-US_CAM-LBA-US          2016.03.21.12.51.52     2.81469750    -3.75322205     2.69822550     0.00000676     0.00000883     0.00000000 0.00000000 VRAI 
CAM-LBC-US_EBA-US-IP-H         2016.03.21.12.51.52     2.84023327    -3.68410528     3.12405491     0.00000282     0.00000530     0.00000000 0.00000000 VRAI 
CAM-LBC-USA_EBC-USA-HO-H       2016.03.21.12.51.52    -2.84780353    -3.69357705    -6.47910047     0.00000671     0.00000233     0.00000024 0.00000000 VRAI 
CAM-LBC-USA_JDC-USA-H          2016.03.21.12.51.52    -2.82479513    -3.77017838    -6.67505980     0.00000373     0.00000555     0.00000000 0.00000000 VRAI 
CAM-LBC-USA_CAM-LBA-USA        2016.03.21.12.51.52    -2.81452888    -3.74963528     2.68347168     0.00000630     0.00000200     0.00000000 0.00000000 VRAI 
CAM-LBC-USA_EBA-USA-IP-H       2016.03.21.12.51.52    -2.75243396    -3.71183866     3.12343526     0.01985215     0.07854340     0.00025317 0.00000000 VRAI 
