********** Fichier qui contient une sauvegarde des coordonnees images + coordonnees images transformees dans le repere BCAM (MOUNT) + coordonnees des prismes dans le repere MOUNT********** 
********************************************************************** Unite en metres (m)************************************************************************************************** 

*******************************************************************coordonnees images dans le repere CCD *********************************************************************************** 
20MABNDB000069_PR031
Spot 1     0.00032533     0.00137719
Spot 2     0.00039120     0.00137858
Spot 1     0.00032658     0.00137817
Spot 2     0.00039025     0.00137835
Spot 1     0.00032618     0.00137662
Spot 2     0.00039150     0.00137801
Spot 1     0.00032608     0.00137725
Spot 2     0.00039277     0.00137947
Spot 1     0.00032476     0.00137656
Spot 2     0.00039116     0.00137852
20MABNDB000069_PR033
Spot 1     0.00191712     0.00178265
Spot 2     0.00238658     0.00180172
Spot 1     0.00191690     0.00178264
Spot 2     0.00238669     0.00180180
Spot 1     0.00191686     0.00178273
Spot 2     0.00238642     0.00180178
Spot 1     0.00191670     0.00178264
Spot 2     0.00238642     0.00180176
Spot 1     0.00191682     0.00178273
Spot 2     0.00238653     0.00180181
20MABNDB000131_PR032
Spot 1     0.00277889     0.00111654
Spot 2     0.00283869     0.00112104
Spot 1     0.00277917     0.00111634
Spot 2     0.00283851     0.00112099
Spot 1     0.00277897     0.00111642
Spot 2     0.00283857     0.00112097
Spot 1     0.00277939     0.00111646
Spot 2     0.00283880     0.00112104
Spot 1     0.00277905     0.00111620
Spot 2     0.00283831     0.00112093
20MABNDB000131_PR034
Spot 1     0.00093253     0.00043994
Spot 2     0.00110854     0.00043875
Spot 1     0.00093229     0.00044009
Spot 2     0.00110841     0.00043872
Spot 1     0.00093250     0.00044003
Spot 2     0.00110857     0.00043878
Spot 1     0.00093248     0.00043997
Spot 2     0.00110856     0.00043866
Spot 1     0.00093250     0.00044003
Spot 2     0.00110858     0.00043865
20MABNDA000208_PR042
Spot 1     0.00299752     0.00090094
Spot 2     0.00292543     0.00090540
Spot 1     0.00299768     0.00090098
Spot 2     0.00292690     0.00090496
Spot 1     0.00299760     0.00090074
Spot 2     0.00292762     0.00090480
Spot 1     0.00299880     0.00090043
Spot 2     0.00292538     0.00090591
Spot 1     0.00299867     0.00090108
Spot 2     0.00292715     0.00090459
20MABNDA000208_PR046
Spot 1     0.00131587     0.00188453
Spot 2     0.00084037     0.00188831
Spot 1     0.00131601     0.00188433
Spot 2     0.00084052     0.00188826
Spot 1     0.00131588     0.00188461
Spot 2     0.00084064     0.00188820
Spot 1     0.00131589     0.00188473
Spot 2     0.00084086     0.00188830
Spot 1     0.00131592     0.00188441
Spot 2     0.00084052     0.00188826
20MABNDA000035_PR044
Spot 1     0.00074101     0.00130015
Spot 2     0.00068463     0.00129271
Spot 1     0.00074077     0.00130022
Spot 2     0.00068492     0.00129276
Spot 1     0.00074106     0.00130042
Spot 2     0.00068465     0.00129293
Spot 1     0.00074068     0.00130030
Spot 2     0.00068472     0.00129291
Spot 1     0.00074111     0.00130023
Spot 2     0.00068460     0.00129266
20MABNDA000035_PR045
Spot 1     0.00254796     0.00059369
Spot 2     0.00237164     0.00059242
Spot 1     0.00254800     0.00059371
Spot 2     0.00237173     0.00059243
Spot 1     0.00254805     0.00059359
Spot 2     0.00237170     0.00059243
Spot 1     0.00254795     0.00059377
Spot 2     0.00237170     0.00059256
Spot 1     0.00254800     0.00059394
Spot 2     0.00237181     0.00059243
20MABNDL000077_PR002
Spot 1     0.00079466     0.00149686
Spot 2     0.00095703     0.00149601
Spot 1     0.00079465     0.00149708
Spot 2     0.00095711     0.00149617
Spot 1     0.00079452     0.00149705
Spot 2     0.00095695     0.00149593
Spot 1     0.00079452     0.00149726
Spot 2     0.00095711     0.00149571
Spot 1     0.00079450     0.00149736
Spot 2     0.00095680     0.00149595
20MABNDL000077_PR003
Spot 1     0.00152437     0.00118900
Spot 2     0.00167429     0.00119146
Spot 1     0.00152435     0.00118905
Spot 2     0.00167408     0.00119155
Spot 1     0.00152420     0.00118888
Spot 2     0.00167397     0.00119140
Spot 1     0.00152431     0.00118892
Spot 2     0.00167468     0.00119194
Spot 1     0.00152418     0.00118883
Spot 2     0.00167387     0.00119129
20MABNDL000077_20MABNDM000168
Spot 1     0.00188377     0.00148590
Spot 2     0.00170395     0.00151711
Spot 1     0.00188409     0.00148584
Spot 2     0.00170400     0.00151723
Spot 1     0.00188409     0.00148610
Spot 2     0.00170410     0.00151721
Spot 1     0.00188376     0.00148585
Spot 2     0.00170411     0.00151747
Spot 1     0.00188406     0.00148607
Spot 2     0.00170424     0.00151762
20MABNDL000077_PR024
Spot 1     0.00263016     0.00171360
Spot 2     0.00273023     0.00171868
Spot 1     0.00262974     0.00171484
Spot 2     0.00273057     0.00171896
Spot 1     0.00262989     0.00171495
Spot 2     0.00273052     0.00171894
Spot 1     0.00263000     0.00171582
Spot 2     0.00273073     0.00171909
Spot 1     0.00262987     0.00171490
Spot 2     0.00273102     0.00171939
20MABNDM000020_PR013
Spot 1     0.00164384     0.00214136
Spot 2     0.00149075     0.00214629
Spot 1     0.00164383     0.00214149
Spot 2     0.00149057     0.00214639
Spot 1     0.00164361     0.00214149
Spot 2     0.00149070     0.00214627
Spot 1     0.00164361     0.00214149
Spot 2     0.00149061     0.00214627
Spot 1     0.00164362     0.00214136
Spot 2     0.00149043     0.00214618
20MABNDM000020_PR014
Spot 1     0.00267763     0.00228003
Spot 2     0.00251627     0.00228723
Spot 1     0.00267749     0.00227990
Spot 2     0.00251619     0.00228715
Spot 1     0.00267750     0.00228003
Spot 2     0.00251603     0.00228722
Spot 1     0.00267748     0.00228010
Spot 2     0.00251615     0.00228708
Spot 1     0.00267773     0.00228014
Spot 2     0.00251620     0.00228716
20MABNDM000020_20MABNDL000196
Spot 1     0.00200145     0.00057973
Spot 2     0.00080500     0.00021500
Spot 1     0.00200157     0.00057950
Spot 2     0.00080500     0.00021500
Spot 1     0.00200156     0.00058002
Spot 2     0.00080500     0.00021500
Spot 1     0.00200151     0.00057972
Spot 2     0.00080500     0.00021500
Spot 1     0.00200142     0.00057982
Spot 2     0.00080500     0.00021500
20MABNDM000020_PR035
Spot 1     0.00126320     0.00087015
Spot 2     0.00119373     0.00090546
Spot 1     0.00126283     0.00087026
Spot 2     0.00119351     0.00090535
Spot 1     0.00126294     0.00087007
Spot 2     0.00119340     0.00090524
Spot 1     0.00126322     0.00087026
Spot 2     0.00119334     0.00090548
Spot 1     0.00126343     0.00087022
Spot 2     0.00119354     0.00090545
20MABNDA000188_PR008
Spot 1     0.00282500     0.00054409
Spot 2     0.00331000     0.00017750
Spot 1     0.00282682     0.00054682
Spot 2     0.00283500     0.00012500
Spot 1     0.00271643     0.00016500
Spot 2     0.00283500     0.00012500
Spot 1     0.00282786     0.00055071
Spot 2     0.00331250     0.00006000
Spot 1     0.00283000     0.00054875
Spot 2     0.00279500     0.00010500
20MABNDA000188_PR018
Spot 1     0.00154270     0.00152780
Spot 2     0.00107610     0.00152460
Spot 1     0.00154273     0.00152794
Spot 2     0.00107591     0.00152473
Spot 1     0.00154268     0.00152794
Spot 2     0.00107595     0.00152474
Spot 1     0.00154283     0.00152804
Spot 2     0.00107622     0.00152436
Spot 1     0.00154295     0.00152825
Spot 2     0.00107605     0.00152465
20MABNDA000039_PR009
Spot 1     0.00066104     0.00120889
Spot 2     0.00061348     0.00121341
Spot 1     0.00066086     0.00120877
Spot 2     0.00061395     0.00121341
Spot 1     0.00066024     0.00120884
Spot 2     0.00061380     0.00121313
Spot 1     0.00066082     0.00120892
Spot 2     0.00061346     0.00121354
Spot 1     0.00066084     0.00120891
Spot 2     0.00061335     0.00121335
20MABNDA000039_PR011
Spot 1     0.00276158     0.00036719
Spot 2     0.00258666     0.00036212
Spot 1     0.00276179     0.00036715
Spot 2     0.00258665     0.00036212
Spot 1     0.00276163     0.00036701
Spot 2     0.00258661     0.00036217
Spot 1     0.00276157     0.00036711
Spot 2     0.00258655     0.00036231
20MABNDB000155_PR020
Spot 1     0.00067163     0.00108827
Spot 2     0.00073534     0.00108490
Spot 1     0.00067157     0.00108828
Spot 2     0.00073544     0.00108461
Spot 1     0.00067144     0.00108827
Spot 2     0.00073525     0.00108467
Spot 1     0.00067195     0.00108791
Spot 2     0.00073573     0.00108441
20MABNDB000155_PR022
Spot 1     0.00220253     0.00112207
Spot 2     0.00267533     0.00111822
Spot 1     0.00220257     0.00112240
Spot 2     0.00267534     0.00111831
Spot 1     0.00220239     0.00112224
Spot 2     0.00267524     0.00111840
Spot 1     0.00220247     0.00112242
Spot 2     0.00267538     0.00111846
20MABNDB000010_PR021
Spot 1     0.00286401     0.00118741
Spot 2     0.00291789     0.00119064
Spot 1     0.00286376     0.00118727
Spot 2     0.00291779     0.00119084
Spot 1     0.00286391     0.00118744
Spot 2     0.00291820     0.00119125
Spot 1     0.00286398     0.00118730
Spot 2     0.00291775     0.00119091
20MABNDB000010_PR023
Spot 1     0.00130905     0.00041295
Spot 2     0.00148388     0.00041099
Spot 1     0.00130918     0.00041313
Spot 2     0.00148388     0.00041125
Spot 1     0.00130903     0.00041329
Spot 2     0.00148394     0.00041123
Spot 1     0.00130907     0.00041308
Spot 2     0.00148374     0.00041109
20MABNDB000212_PR029
Spot 1     0.00225628     0.00072362
Spot 2     0.00189103     0.00072293
Spot 1     0.00225645     0.00072360
Spot 2     0.00189107     0.00072304
Spot 1     0.00225660     0.00072330
Spot 2     0.00189096     0.00072307
Spot 1     0.00225653     0.00072352
Spot 2     0.00189111     0.00072333
20MABNDB000128_PR030
Spot 1     0.00188979     0.00200966
Spot 2     0.00209389     0.00200449
Spot 1     0.00188978     0.00200965
Spot 2     0.00209394     0.00200434
Spot 1     0.00188991     0.00200960
Spot 2     0.00209405     0.00200410
Spot 1     0.00188970     0.00200970
Spot 2     0.00209405     0.00200435
20MABNDA000444_PR040
Spot 1     0.00078374     0.00037155
Spot 2     0.00114900     0.00037220
Spot 1     0.00078368     0.00037161
Spot 2     0.00114885     0.00037173
Spot 1     0.00078369     0.00037156
Spot 2     0.00114915     0.00037179
Spot 1     0.00078344     0.00037172
Spot 2     0.00114896     0.00037217
20MABNDA000053_PR041
Spot 1     0.00164210     0.00199457
Spot 2     0.00143868     0.00199168
Spot 1     0.00164230     0.00199443
Spot 2     0.00143899     0.00199148
Spot 1     0.00164228     0.00199440
Spot 2     0.00143917     0.00199154
Spot 1     0.00164246     0.00199478
Spot 2     0.00143902     0.00199163
20MABNDA000196_PR006
Spot 1     0.00198827     0.00076074
Spot 2     0.00162220     0.00075733
Spot 1     0.00198818     0.00076040
Spot 2     0.00162230     0.00075709
Spot 1     0.00198818     0.00076036
Spot 2     0.00162225     0.00075728
Spot 1     0.00198827     0.00076079
Spot 2     0.00162216     0.00075732
20MABNDA000324_PR007
Spot 1     0.00194807     0.00120807
Spot 2     0.00174201     0.00121374
Spot 1     0.00194791     0.00120827
Spot 2     0.00174206     0.00121376
Spot 1     0.00194813     0.00120828
Spot 2     0.00174188     0.00121373
Spot 1     0.00194799     0.00120825
Spot 2     0.00174190     0.00121365
20MABNDB000001_PR017
Spot 1     0.00187894     0.00047334
Spot 2     0.00224690     0.00048348
Spot 1     0.00187900     0.00047356
Spot 2     0.00224690     0.00048361
Spot 1     0.00187879     0.00047356
Spot 2     0.00224679     0.00048359
Spot 1     0.00187898     0.00047343
Spot 2     0.00224675     0.00048338
20MABNDB000260_PR019
Spot 1     0.00192573     0.00149908
Spot 2     0.00212941     0.00149765
Spot 1     0.00192600     0.00149889
Spot 2     0.00212912     0.00149882
Spot 1     0.00192592     0.00149854
Spot 2     0.00212909     0.00149909
Spot 1     0.00192551     0.00149898
Spot 2     0.00212957     0.00149935
20MABNDB000135_PR027
Spot 1     0.00189304     0.00092594
Spot 2     0.00211137     0.00092815
Spot 1     0.00189300     0.00092574
Spot 2     0.00211141     0.00092824
Spot 1     0.00189319     0.00092588
Spot 2     0.00211125     0.00092863
Spot 1     0.00189307     0.00092581
Spot 2     0.00211147     0.00092847
20MABNDB000126_PR028
Spot 1     0.00164697     0.00200398
Spot 2     0.00192766     0.00200667
Spot 1     0.00164668     0.00200413
Spot 2     0.00192761     0.00200650
Spot 1     0.00164676     0.00200418
Spot 2     0.00192754     0.00200654
Spot 1     0.00164687     0.00200397
Spot 2     0.00192773     0.00200641
20MABNDA000272_PR038
Spot 1     0.00191957     0.00096457
Spot 2     0.00169685     0.00096307
Spot 1     0.00191941     0.00096421
Spot 2     0.00169722     0.00096278
Spot 1     0.00191933     0.00096463
Spot 2     0.00169700     0.00096300
Spot 1     0.00191928     0.00096430
Spot 2     0.00169680     0.00096311
20MABNDA000003_PR039
Spot 1     0.00199842     0.00192245
Spot 2     0.00227645     0.00192224
Spot 1     0.00199843     0.00192257
Spot 2     0.00227664     0.00192260
Spot 1     0.00199824     0.00192246
Spot 2     0.00227678     0.00192253
Spot 1     0.00199857     0.00192246
Spot 2     0.00227644     0.00192267
20MABNDA000318_PR004
Spot 1     0.00214400     0.00163172
Spot 2     0.00192633     0.00163341
Spot 1     0.00214430     0.00163204
Spot 2     0.00192669     0.00163362
Spot 1     0.00214433     0.00163206
Spot 2     0.00192669     0.00163354
Spot 1     0.00214407     0.00163178
Spot 2     0.00192643     0.00163375
20MABNDA000334_PR005
Spot 1     0.00247330     0.00157995
Spot 2     0.00219307     0.00158056
Spot 1     0.00247333     0.00157990
Spot 2     0.00219302     0.00158050
Spot 1     0.00247328     0.00157988
Spot 2     0.00219313     0.00158047
Spot 1     0.00247318     0.00158002
Spot 2     0.00219332     0.00158062
20MABNDB000317_PR015
Spot 1     0.00149137     0.00160853
Spot 2     0.00171108     0.00160339
Spot 1     0.00149150     0.00160868
Spot 2     0.00171092     0.00160350
Spot 1     0.00149156     0.00160866
Spot 2     0.00171104     0.00160353
Spot 1     0.00149132     0.00160851
Spot 2     0.00171105     0.00160357
20MABNDB000146_PR016
Spot 1     0.00145067     0.00133366
Spot 2     0.00172614     0.00133621
Spot 1     0.00145061     0.00133375
Spot 2     0.00172636     0.00133621
Spot 1     0.00145067     0.00133362
Spot 2     0.00172634     0.00133599
Spot 1     0.00145058     0.00133366
Spot 2     0.00172654     0.00133612
20MABNDM000168_PR025
Spot 1     0.00117732     0.00131506
Spot 2     0.00102408     0.00131517
Spot 1     0.00117715     0.00131495
Spot 2     0.00102404     0.00131511
Spot 1     0.00117723     0.00131467
Spot 2     0.00102385     0.00131477
Spot 1     0.00117688     0.00131511
Spot 2     0.00102350     0.00131495
20MABNDM000168_PR026
Spot 1     0.00266739     0.00143074
Spot 2     0.00250782     0.00142780
Spot 1     0.00266749     0.00143053
Spot 2     0.00250783     0.00142778
Spot 1     0.00266738     0.00143050
Spot 2     0.00250760     0.00142756
Spot 1     0.00266753     0.00143059
Spot 2     0.00250770     0.00142763
20MABNDM000168_20MABNDL000077
Spot 1     0.00153715     0.00129776
Spot 2     0.00175484     0.00130108
Spot 1     0.00153718     0.00129788
Spot 2     0.00175476     0.00130073
Spot 1     0.00153691     0.00129743
Spot 2     0.00175484     0.00130075
Spot 1     0.00153722     0.00129754
Spot 2     0.00175473     0.00130075
20MABNDM000168_PR001
Spot 1     0.00080378     0.00161496
Spot 2     0.00070351     0.00162038
Spot 1     0.00080406     0.00161463
Spot 2     0.00070330     0.00162018
Spot 1     0.00080400     0.00161467
Spot 2     0.00070373     0.00162029
Spot 1     0.00080367     0.00161431
Spot 2     0.00070362     0.00162021
20MABNDL000196_PR036
Spot 1     0.00095984     0.00164325
Spot 2     0.00112262     0.00164311
Spot 1     0.00095959     0.00164332
Spot 2     0.00112285     0.00164285
Spot 1     0.00095963     0.00164339
Spot 2     0.00112290     0.00164312
Spot 1     0.00095977     0.00164322
Spot 2     0.00112280     0.00164330
20MABNDL000196_PR037
Spot 1     0.00248015     0.00116495
Spot 2     0.00263458     0.00116326
Spot 1     0.00248000     0.00116465
Spot 2     0.00263458     0.00116322
Spot 1     0.00248013     0.00116484
Spot 2     0.00263427     0.00116343
Spot 1     0.00248028     0.00116505
Spot 2     0.00263459     0.00116348
20MABNDL000196_20MABNDM000020
Spot 1     0.00195079     0.00103103
Spot 2     0.00172955     0.00103132
Spot 1     0.00195088     0.00103110
Spot 2     0.00172945     0.00103123
Spot 1     0.00195092     0.00103127
Spot 2     0.00172952     0.00103144
Spot 1     0.00195106     0.00103126
Spot 2     0.00172962     0.00103165
20MABNDL000196_PR012
Spot 1     0.00272500     0.00027500
Spot 2     0.00073500     0.00047500
Spot 1     0.00071500     0.00037500
Spot 2     0.00248000     0.00012000
Spot 1     0.00304500     0.00006500
Spot 2     0.00304500     0.00006500
Spot 1     0.00304500     0.00006500
Spot 2     0.00188500     0.00006500


****************************************************************coordonnees images transformees dans le repere MOUNT************************************************************************* 
20MABNDB000069_PR031
Spot 1    -0.01355211    -0.01289215    -0.07388500
Spot 2    -0.01348624    -0.01289348    -0.07388500
Spot 1    -0.01355082    -0.01289122    -0.07388500
Spot 2    -0.01348719    -0.01289367    -0.07388500
Spot 1    -0.01355128    -0.01289276    -0.07388500
Spot 2    -0.01348596    -0.01289406    -0.07388500
Spot 1    -0.01355135    -0.01289212    -0.07388500
Spot 2    -0.01348463    -0.01289266    -0.07388500
Spot 1    -0.01355270    -0.01289276    -0.07388500
Spot 2    -0.01348628    -0.01289354    -0.07388500
20MABNDB000069_PR033
Spot 1    -0.01194494    -0.01255273    -0.07388500
Spot 2    -0.01147509    -0.01255305    -0.07388500
Spot 1    -0.01194516    -0.01255273    -0.07388500
Spot 2    -0.01147498    -0.01255297    -0.07388500
Spot 1    -0.01194520    -0.01255264    -0.07388500
Spot 2    -0.01147525    -0.01255298    -0.07388500
Spot 1    -0.01194536    -0.01255272    -0.07388500
Spot 2    -0.01147525    -0.01255300    -0.07388500
Spot 1    -0.01194524    -0.01255263    -0.07388500
Spot 2    -0.01147514    -0.01255295    -0.07388500
20MABNDB000131_PR032
Spot 1    -0.01144146    -0.01299820    -0.07533000
Spot 2    -0.01138168    -0.01299340    -0.07533000
Spot 1    -0.01144117    -0.01299840    -0.07533000
Spot 2    -0.01138186    -0.01299345    -0.07533000
Spot 1    -0.01144137    -0.01299832    -0.07533000
Spot 2    -0.01138180    -0.01299347    -0.07533000
Spot 1    -0.01144096    -0.01299828    -0.07533000
Spot 2    -0.01138157    -0.01299340    -0.07533000
Spot 1    -0.01144129    -0.01299854    -0.07533000
Spot 2    -0.01138206    -0.01299352    -0.07533000
20MABNDB000131_PR034
Spot 1    -0.01328439    -0.01368409    -0.07533000
Spot 2    -0.01310837    -0.01368440    -0.07533000
Spot 1    -0.01328463    -0.01368394    -0.07533000
Spot 2    -0.01310850    -0.01368443    -0.07533000
Spot 1    -0.01328442    -0.01368400    -0.07533000
Spot 2    -0.01310834    -0.01368437    -0.07533000
Spot 1    -0.01328444    -0.01368406    -0.07533000
Spot 2    -0.01310835    -0.01368449    -0.07533000
Spot 1    -0.01328442    -0.01368400    -0.07533000
Spot 2    -0.01310833    -0.01368450    -0.07533000
20MABNDA000208_PR042
Spot 1    -0.01386829     0.01309513    -0.07273700
Spot 2    -0.01379619     0.01309074    -0.07273700
Spot 1    -0.01386845     0.01309509    -0.07273700
Spot 2    -0.01379766     0.01309117    -0.07273700
Spot 1    -0.01386837     0.01309533    -0.07273700
Spot 2    -0.01379838     0.01309133    -0.07273700
Spot 1    -0.01386957     0.01309564    -0.07273700
Spot 2    -0.01379614     0.01309023    -0.07273700
Spot 1    -0.01386944     0.01309499    -0.07273700
Spot 2    -0.01379791     0.01309154    -0.07273700
20MABNDA000208_PR046
Spot 1    -0.01218577     0.01211302    -0.07273700
Spot 2    -0.01171027     0.01210966    -0.07273700
Spot 1    -0.01218591     0.01211322    -0.07273700
Spot 2    -0.01171042     0.01210971    -0.07273700
Spot 1    -0.01218578     0.01211294    -0.07273700
Spot 2    -0.01171054     0.01210977    -0.07273700
Spot 1    -0.01218579     0.01211282    -0.07273700
Spot 2    -0.01171076     0.01210966    -0.07273700
Spot 1    -0.01218582     0.01211314    -0.07273700
Spot 2    -0.01171042     0.01210971    -0.07273700
20MABNDA000035_PR044
Spot 1    -0.01157596     0.01295712    -0.07483200
Spot 2    -0.01151953     0.01296416    -0.07483200
Spot 1    -0.01157572     0.01295705    -0.07483200
Spot 2    -0.01151982     0.01296411    -0.07483200
Spot 1    -0.01157602     0.01295685    -0.07483200
Spot 2    -0.01151955     0.01296394    -0.07483200
Spot 1    -0.01157564     0.01295696    -0.07483200
Spot 2    -0.01151962     0.01296396    -0.07483200
Spot 1    -0.01157607     0.01295704    -0.07483200
Spot 2    -0.01151950     0.01296421    -0.07483200
20MABNDA000035_PR045
Spot 1    -0.01337784     0.01367641    -0.07483200
Spot 2    -0.01320152     0.01367643    -0.07483200
Spot 1    -0.01337788     0.01367639    -0.07483200
Spot 2    -0.01320161     0.01367642    -0.07483200
Spot 1    -0.01337793     0.01367651    -0.07483200
Spot 2    -0.01320158     0.01367642    -0.07483200
Spot 1    -0.01337783     0.01367633    -0.07483200
Spot 2    -0.01320158     0.01367629    -0.07483200
Spot 1    -0.01337789     0.01367616    -0.07483200
Spot 2    -0.01320169     0.01367642    -0.07483200
20MABNDL000077_PR002
Spot 1     0.01186495     0.03557233    -0.07463200
Spot 2     0.01202731     0.03556992    -0.07463200
Spot 1     0.01186495     0.03557255    -0.07463200
Spot 2     0.01202739     0.03557008    -0.07463200
Spot 1     0.01186482     0.03557252    -0.07463200
Spot 2     0.01202723     0.03556984    -0.07463200
Spot 1     0.01186482     0.03557273    -0.07463200
Spot 2     0.01202739     0.03556962    -0.07463200
Spot 1     0.01186480     0.03557283    -0.07463200
Spot 2     0.01202708     0.03556986    -0.07463200
20MABNDL000077_PR003
Spot 1     0.01259167     0.03525746    -0.07463200
Spot 2     0.01274160     0.03525848    -0.07463200
Spot 1     0.01259165     0.03525751    -0.07463200
Spot 2     0.01274140     0.03525857    -0.07463200
Spot 1     0.01259150     0.03525734    -0.07463200
Spot 2     0.01274128     0.03525842    -0.07463200
Spot 1     0.01259161     0.03525738    -0.07463200
Spot 2     0.01274200     0.03525896    -0.07463200
Spot 1     0.01259148     0.03525729    -0.07463200
Spot 2     0.01274118     0.03525831    -0.07463200
20MABNDL000077_20MABNDM000168
Spot 1    -0.01272199     0.03554757    -0.00695400
Spot 2    -0.01254250     0.03558062    -0.00695400
Spot 1    -0.01272231     0.03554751    -0.00695400
Spot 2    -0.01254255     0.03558074    -0.00695400
Spot 1    -0.01272232     0.03554777    -0.00695400
Spot 2    -0.01254265     0.03558072    -0.00695400
Spot 1    -0.01272198     0.03554752    -0.00695400
Spot 2    -0.01254267     0.03558098    -0.00695400
Spot 1    -0.01272229     0.03554774    -0.00695400
Spot 2    -0.01254280     0.03558113    -0.00695400
20MABNDL000077_PR024
Spot 1    -0.01347068     0.03576762    -0.00695400
Spot 2    -0.01357079     0.03577168    -0.00695400
Spot 1    -0.01347027     0.03576887    -0.00695400
Spot 2    -0.01357114     0.03577195    -0.00695400
Spot 1    -0.01347042     0.03576897    -0.00695400
Spot 2    -0.01357109     0.03577193    -0.00695400
Spot 1    -0.01347054     0.03576984    -0.00695400
Spot 2    -0.01357130     0.03577208    -0.00695400
Spot 1    -0.01347040     0.03576892    -0.00695400
Spot 2    -0.01357159     0.03577238    -0.00695400
20MABNDM000020_PR013
Spot 1    -0.01270152    -0.03609952    -0.00523500
Spot 2    -0.01285446    -0.03610784    -0.00523500
Spot 1    -0.01270153    -0.03609965    -0.00523500
Spot 2    -0.01285464    -0.03610794    -0.00523500
Spot 1    -0.01270175    -0.03609966    -0.00523500
Spot 2    -0.01285451    -0.03610782    -0.00523500
Spot 1    -0.01270175    -0.03609966    -0.00523500
Spot 2    -0.01285460    -0.03610782    -0.00523500
Spot 1    -0.01270174    -0.03609953    -0.00523500
Spot 2    -0.01285478    -0.03610773    -0.00523500
20MABNDM000020_PR014
Spot 1    -0.01166491    -0.03621530    -0.00523500
Spot 2    -0.01182608    -0.03622606    -0.00523500
Spot 1    -0.01166506    -0.03621517    -0.00523500
Spot 2    -0.01182616    -0.03622599    -0.00523500
Spot 1    -0.01166504    -0.03621530    -0.00523500
Spot 2    -0.01182632    -0.03622606    -0.00523500
Spot 1    -0.01166506    -0.03621537    -0.00523500
Spot 2    -0.01182620    -0.03622592    -0.00523500
Spot 1    -0.01166481    -0.03621541    -0.00523500
Spot 2    -0.01182615    -0.03622600    -0.00523500
20MABNDM000020_20MABNDL000196
Spot 1     0.01268475    -0.03454830    -0.07583800
Spot 2     0.01388114    -0.03418340    -0.07583800
Spot 1     0.01268463    -0.03454807    -0.07583800
Spot 2     0.01388114    -0.03418340    -0.07583800
Spot 1     0.01268464    -0.03454859    -0.07583800
Spot 2     0.01388114    -0.03418340    -0.07583800
Spot 1     0.01268469    -0.03454829    -0.07583800
Spot 2     0.01388114    -0.03418340    -0.07583800
Spot 1     0.01268478    -0.03454839    -0.07583800
Spot 2     0.01388114    -0.03418340    -0.07583800
20MABNDM000020_PR035
Spot 1     0.01342303    -0.03483861    -0.07583800
Spot 2     0.01349251    -0.03487391    -0.07583800
Spot 1     0.01342340    -0.03483872    -0.07583800
Spot 2     0.01349273    -0.03487380    -0.07583800
Spot 1     0.01342329    -0.03483853    -0.07583800
Spot 2     0.01349284    -0.03487369    -0.07583800
Spot 1     0.01342301    -0.03483872    -0.07583800
Spot 2     0.01349290    -0.03487393    -0.07583800
Spot 1     0.01342280    -0.03483868    -0.07583800
Spot 2     0.01349270    -0.03487390    -0.07583800
20MABNDA000188_PR008
Spot 1    -0.01384475     0.01351925    -0.07502000
Spot 2    -0.01432659     0.01388998    -0.07502000
Spot 1    -0.01384659     0.01351654    -0.07502000
Spot 2    -0.01385116     0.01393841    -0.07502000
Spot 1    -0.01373294     0.01389740    -0.07502000
Spot 2    -0.01385116     0.01393841    -0.07502000
Spot 1    -0.01384767     0.01351266    -0.07502000
Spot 2    -0.01432809     0.01400750    -0.07502000
Spot 1    -0.01384979     0.01351464    -0.07502000
Spot 2    -0.01381099     0.01395807    -0.07502000
20MABNDA000188_PR018
Spot 1    -0.01257092     0.01252460    -0.07502000
Spot 2    -0.01210431     0.01252380    -0.07502000
Spot 1    -0.01257095     0.01252446    -0.07502000
Spot 2    -0.01210412     0.01252367    -0.07502000
Spot 1    -0.01257090     0.01252446    -0.07502000
Spot 2    -0.01210416     0.01252366    -0.07502000
Spot 1    -0.01257105     0.01252436    -0.07502000
Spot 2    -0.01210443     0.01252404    -0.07502000
Spot 1    -0.01257117     0.01252415    -0.07502000
Spot 2    -0.01210426     0.01252375    -0.07502000
20MABNDA000039_PR009
Spot 1    -0.01162331     0.01303523    -0.07444800
Spot 2    -0.01157577     0.01303051    -0.07444800
Spot 1    -0.01162313     0.01303535    -0.07444800
Spot 2    -0.01157624     0.01303051    -0.07444800
Spot 1    -0.01162251     0.01303528    -0.07444800
Spot 2    -0.01157609     0.01303079    -0.07444800
Spot 1    -0.01162309     0.01303520    -0.07444800
Spot 2    -0.01157576     0.01303038    -0.07444800
Spot 1    -0.01162311     0.01303521    -0.07444800
Spot 2    -0.01157564     0.01303057    -0.07444800
20MABNDA000039_PR011
Spot 1    -0.01372019     0.01388601    -0.07444800
Spot 2    -0.01354525     0.01389033    -0.07444800
Spot 1    -0.01372040     0.01388605    -0.07444800
Spot 2    -0.01354524     0.01389033    -0.07444800
Spot 1    -0.01372024     0.01388619    -0.07444800
Spot 2    -0.01354520     0.01389028    -0.07444800
Spot 1    -0.01372018     0.01388609    -0.07444800
Spot 2    -0.01354514     0.01389013    -0.07444800
20MABNDB000155_PR020
Spot 1    -0.01359397    -0.01316839    -0.07501700
Spot 2    -0.01353022    -0.01317088    -0.07501700
Spot 1    -0.01359403    -0.01316838    -0.07501700
Spot 2    -0.01353011    -0.01317117    -0.07501700
Spot 1    -0.01359416    -0.01316839    -0.07501700
Spot 2    -0.01353030    -0.01317112    -0.07501700
Spot 1    -0.01359364    -0.01316874    -0.07501700
Spot 2    -0.01352982    -0.01317137    -0.07501700
20MABNDB000155_PR022
Spot 1    -0.01206367    -0.01311363    -0.07501700
Spot 2    -0.01159086    -0.01311101    -0.07501700
Spot 1    -0.01206364    -0.01311330    -0.07501700
Spot 2    -0.01159086    -0.01311092    -0.07501700
Spot 1    -0.01206381    -0.01311347    -0.07501700
Spot 2    -0.01159096    -0.01311083    -0.07501700
Spot 1    -0.01206374    -0.01311328    -0.07501700
Spot 2    -0.01159082    -0.01311077    -0.07501700
20MABNDB000010_PR021
Spot 1    -0.01158758    -0.01289119    -0.07358200
Spot 2    -0.01153376    -0.01288704    -0.07358200
Spot 1    -0.01158783    -0.01289133    -0.07358200
Spot 2    -0.01153386    -0.01288685    -0.07358200
Spot 1    -0.01158768    -0.01289116    -0.07358200
Spot 2    -0.01153346    -0.01288643    -0.07358200
Spot 1    -0.01158761    -0.01289130    -0.07358200
Spot 2    -0.01153390    -0.01288678    -0.07358200
20MABNDB000010_PR023
Spot 1    -0.01312920    -0.01369188    -0.07358200
Spot 2    -0.01295436    -0.01369087    -0.07358200
Spot 1    -0.01312907    -0.01369169    -0.07358200
Spot 2    -0.01295436    -0.01369061    -0.07358200
Spot 1    -0.01312922    -0.01369154    -0.07358200
Spot 2    -0.01295430    -0.01369063    -0.07358200
Spot 1    -0.01312918    -0.01369175    -0.07358200
Spot 2    -0.01295450    -0.01369078    -0.07358200
20MABNDB000212_PR029
Spot 1    -0.01183132    -0.01325789    -0.07390500
Spot 2    -0.01219656    -0.01325468    -0.07390500
Spot 1    -0.01183115    -0.01325791    -0.07390500
Spot 2    -0.01219652    -0.01325457    -0.07390500
Spot 1    -0.01183101    -0.01325821    -0.07390500
Spot 2    -0.01219663    -0.01325454    -0.07390500
Spot 1    -0.01183108    -0.01325799    -0.07390500
Spot 2    -0.01219648    -0.01325428    -0.07390500
20MABNDB000128_PR030
Spot 1    -0.01246536    -0.01220769    -0.07353400
Spot 2    -0.01226124    -0.01221216    -0.07353400
Spot 1    -0.01246537    -0.01220770    -0.07353400
Spot 2    -0.01226119    -0.01221231    -0.07353400
Spot 1    -0.01246524    -0.01220775    -0.07353400
Spot 2    -0.01226108    -0.01221255    -0.07353400
Spot 1    -0.01246545    -0.01220765    -0.07353400
Spot 2    -0.01226108    -0.01221230    -0.07353400
20MABNDA000444_PR040
Spot 1    -0.01172334     0.01365778    -0.07412000
Spot 2    -0.01208856     0.01365249    -0.07412000
Spot 1    -0.01172328     0.01365772    -0.07412000
Spot 2    -0.01208842     0.01365296    -0.07412000
Spot 1    -0.01172329     0.01365777    -0.07412000
Spot 2    -0.01208872     0.01365290    -0.07412000
Spot 1    -0.01172304     0.01365761    -0.07412000
Spot 2    -0.01208852     0.01365252    -0.07412000
20MABNDA000053_PR041
Spot 1    -0.01239884     0.01211568    -0.07430100
Spot 2    -0.01219540     0.01211460    -0.07430100
Spot 1    -0.01239904     0.01211582    -0.07430100
Spot 2    -0.01219571     0.01211480    -0.07430100
Spot 1    -0.01239902     0.01211585    -0.07430100
Spot 2    -0.01219589     0.01211474    -0.07430100
Spot 1    -0.01239921     0.01211547    -0.07430100
Spot 2    -0.01219574     0.01211465    -0.07430100
20MABNDA000196_PR006
Spot 1    -0.01294338     0.01321752    -0.07967100
Spot 2    -0.01257730     0.01321622    -0.07967100
Spot 1    -0.01294329     0.01321785    -0.07967100
Spot 2    -0.01257739     0.01321646    -0.07967100
Spot 1    -0.01294329     0.01321789    -0.07967100
Spot 2    -0.01257735     0.01321627    -0.07967100
Spot 1    -0.01294338     0.01321747    -0.07967100
Spot 2    -0.01257726     0.01321623    -0.07967100
20MABNDA000324_PR007
Spot 1    -0.01255381     0.01281350    -0.07446800
Spot 2    -0.01234772     0.01280944    -0.07446800
Spot 1    -0.01255365     0.01281330    -0.07446800
Spot 2    -0.01234777     0.01280942    -0.07446800
Spot 1    -0.01255387     0.01281329    -0.07446800
Spot 2    -0.01234759     0.01280945    -0.07446800
Spot 1    -0.01255373     0.01281332    -0.07446800
Spot 2    -0.01234761     0.01280953    -0.07446800
20MABNDB000001_PR017
Spot 1    -0.01230906    -0.01351610    -0.07418400
Spot 2    -0.01194101    -0.01350986    -0.07418400
Spot 1    -0.01230899    -0.01351588    -0.07418400
Spot 2    -0.01194101    -0.01350973    -0.07418400
Spot 1    -0.01230920    -0.01351588    -0.07418400
Spot 2    -0.01194112    -0.01350975    -0.07418400
Spot 1    -0.01230901    -0.01351601    -0.07418400
Spot 2    -0.01194116    -0.01350996    -0.07418400
20MABNDB000260_PR019
Spot 1    -0.01240554    -0.01240340    -0.07492700
Spot 2    -0.01220187    -0.01240065    -0.07492700
Spot 1    -0.01240526    -0.01240358    -0.07492700
Spot 2    -0.01220218    -0.01239949    -0.07492700
Spot 1    -0.01240534    -0.01240393    -0.07492700
Spot 2    -0.01220222    -0.01239922    -0.07492700
Spot 1    -0.01240575    -0.01240350    -0.07492700
Spot 2    -0.01220174    -0.01239895    -0.07492700
20MABNDB000135_PR027
Spot 1    -0.01251152    -0.01318710    -0.07464700
Spot 2    -0.01229318    -0.01318733    -0.07464700
Spot 1    -0.01251156    -0.01318730    -0.07464700
Spot 2    -0.01229314    -0.01318724    -0.07464700
Spot 1    -0.01251137    -0.01318717    -0.07464700
Spot 2    -0.01229329    -0.01318684    -0.07464700
Spot 1    -0.01251149    -0.01318723    -0.07464700
Spot 2    -0.01229308    -0.01318701    -0.07464700
20MABNDB000126_PR028
Spot 1    -0.01253254    -0.01217818    -0.07500400
Spot 2    -0.01225187    -0.01217399    -0.07500400
Spot 1    -0.01253283    -0.01217803    -0.07500400
Spot 2    -0.01225191    -0.01217416    -0.07500400
Spot 1    -0.01253275    -0.01217798    -0.07500400
Spot 2    -0.01225198    -0.01217412    -0.07500400
Spot 1    -0.01253264    -0.01217819    -0.07500400
Spot 2    -0.01225179    -0.01217425    -0.07500400
20MABNDA000272_PR038
Spot 1    -0.01275525     0.01314689    -0.07417900
Spot 2    -0.01253252     0.01314800    -0.07417900
Spot 1    -0.01275509     0.01314725    -0.07417900
Spot 2    -0.01253289     0.01314829    -0.07417900
Spot 1    -0.01275501     0.01314683    -0.07417900
Spot 2    -0.01253267     0.01314807    -0.07417900
Spot 1    -0.01275496     0.01314716    -0.07417900
Spot 2    -0.01253247     0.01314796    -0.07417900
20MABNDA000003_PR039
Spot 1    -0.01279950     0.01212981    -0.07373400
Spot 2    -0.01307752     0.01213073    -0.07373400
Spot 1    -0.01279951     0.01212969    -0.07373400
Spot 2    -0.01307771     0.01213037    -0.07373400
Spot 1    -0.01279932     0.01212980    -0.07373400
Spot 2    -0.01307785     0.01213044    -0.07373400
Spot 1    -0.01279965     0.01212980    -0.07373400
Spot 2    -0.01307751     0.01213030    -0.07373400
20MABNDA000318_PR004
Spot 1    -0.01286380     0.01246352    -0.07310600
Spot 2    -0.01264613     0.01246247    -0.07310600
Spot 1    -0.01286410     0.01246320    -0.07310600
Spot 2    -0.01264649     0.01246226    -0.07310600
Spot 1    -0.01286413     0.01246318    -0.07310600
Spot 2    -0.01264649     0.01246234    -0.07310600
Spot 1    -0.01286387     0.01246346    -0.07310600
Spot 2    -0.01264623     0.01246213    -0.07310600
20MABNDA000334_PR005
Spot 1    -0.01311641     0.01254844    -0.07324100
Spot 2    -0.01283618     0.01254757    -0.07324100
Spot 1    -0.01311644     0.01254849    -0.07324100
Spot 2    -0.01283613     0.01254763    -0.07324100
Spot 1    -0.01311639     0.01254851    -0.07324100
Spot 2    -0.01283624     0.01254766    -0.07324100
Spot 1    -0.01311629     0.01254837    -0.07324100
Spot 2    -0.01283643     0.01254751    -0.07324100
20MABNDB000317_PR015
Spot 1    -0.01266302    -0.01248947    -0.07326100
Spot 2    -0.01244327    -0.01249205    -0.07326100
Spot 1    -0.01266289    -0.01248932    -0.07326100
Spot 2    -0.01244343    -0.01249195    -0.07326100
Spot 1    -0.01266283    -0.01248934    -0.07326100
Spot 2    -0.01244331    -0.01249191    -0.07326100
Spot 1    -0.01266307    -0.01248949    -0.07326100
Spot 2    -0.01244330    -0.01249187    -0.07326100
20MABNDB000146_PR016
Spot 1    -0.01275769    -0.01245994    -0.07450500
Spot 2    -0.01248223    -0.01245678    -0.07450500
Spot 1    -0.01275775    -0.01245985    -0.07450500
Spot 2    -0.01248201    -0.01245678    -0.07450500
Spot 1    -0.01275769    -0.01245998    -0.07450500
Spot 2    -0.01248203    -0.01245700    -0.07450500
Spot 1    -0.01275778    -0.01245994    -0.07450500
Spot 2    -0.01248183    -0.01245687    -0.07450500
20MABNDM000168_PR025
Spot 1    -0.01322549    -0.03565224    -0.00532900
Spot 2    -0.01337873    -0.03565301    -0.00532900
Spot 1    -0.01322566    -0.03565213    -0.00532900
Spot 2    -0.01337877    -0.03565295    -0.00532900
Spot 1    -0.01322558    -0.03565185    -0.00532900
Spot 2    -0.01337896    -0.03565261    -0.00532900
Spot 1    -0.01322593    -0.03565229    -0.00532900
Spot 2    -0.01337931    -0.03565279    -0.00532900
20MABNDM000168_PR026
Spot 1    -0.01173494    -0.03576152    -0.00532900
Spot 2    -0.01189452    -0.03575927    -0.00532900
Spot 1    -0.01173484    -0.03576131    -0.00532900
Spot 2    -0.01189451    -0.03575925    -0.00532900
Spot 1    -0.01173495    -0.03576128    -0.00532900
Spot 2    -0.01189474    -0.03575903    -0.00532900
Spot 1    -0.01173480    -0.03576137    -0.00532900
Spot 2    -0.01189464    -0.03575910    -0.00532900
20MABNDM000168_20MABNDL000077
Spot 1     0.01288834    -0.03529846    -0.07445100
Spot 2     0.01267063    -0.03529859    -0.07445100
Spot 1     0.01288831    -0.03529858    -0.07445100
Spot 2     0.01267071    -0.03529824    -0.07445100
Spot 1     0.01288859    -0.03529813    -0.07445100
Spot 2     0.01267063    -0.03529826    -0.07445100
Spot 1     0.01288828    -0.03529824    -0.07445100
Spot 2     0.01267074    -0.03529826    -0.07445100
20MABNDM000168_PR001
Spot 1     0.01361700    -0.03562635    -0.07445100
Spot 2     0.01371718    -0.03563324    -0.07445100
Spot 1     0.01361672    -0.03562602    -0.07445100
Spot 2     0.01371739    -0.03563304    -0.07445100
Spot 1     0.01361678    -0.03562606    -0.07445100
Spot 2     0.01371696    -0.03563315    -0.07445100
Spot 1     0.01361712    -0.03562570    -0.07445100
Spot 2     0.01371707    -0.03563307    -0.07445100
20MABNDL000196_PR036
Spot 1     0.01193976     0.03583198    -0.07483600
Spot 2     0.01210254     0.03583218    -0.07483600
Spot 1     0.01193951     0.03583205    -0.07483600
Spot 2     0.01210277     0.03583192    -0.07483600
Spot 1     0.01193955     0.03583212    -0.07483600
Spot 2     0.01210282     0.03583219    -0.07483600
Spot 1     0.01193969     0.03583195    -0.07483600
Spot 2     0.01210272     0.03583237    -0.07483600
20MABNDL000196_PR037
Spot 1     0.01346106     0.03535685    -0.07483600
Spot 2     0.01361549     0.03535548    -0.07483600
Spot 1     0.01346091     0.03535655    -0.07483600
Spot 2     0.01361549     0.03535544    -0.07483600
Spot 1     0.01346104     0.03535674    -0.07483600
Spot 2     0.01361518     0.03535565    -0.07483600
Spot 1     0.01346119     0.03535695    -0.07483600
Spot 2     0.01361550     0.03535570    -0.07483600
20MABNDL000196_20MABNDM000020
Spot 1    -0.01277462     0.03530173    -0.00611000
Spot 2    -0.01255343     0.03530647    -0.00611000
Spot 1    -0.01277472     0.03530180    -0.00611000
Spot 2    -0.01255333     0.03530639    -0.00611000
Spot 1    -0.01277476     0.03530197    -0.00611000
Spot 2    -0.01255341     0.03530660    -0.00611000
Spot 1    -0.01277490     0.03530196    -0.00611000
Spot 2    -0.01255351     0.03530680    -0.00611000
20MABNDL000196_PR012
Spot 1    -0.01353347     0.03453028    -0.00611000
Spot 2    -0.01154789     0.03477028    -0.00611000
Spot 1    -0.01152589     0.03467070    -0.00611000
Spot 2    -0.01328540     0.03438024    -0.00611000
Spot 1    -0.01384918     0.03431388    -0.00611000
Spot 2    -0.01384918     0.03431388    -0.00611000
Spot 1    -0.01384918     0.03431388    -0.00611000
Spot 2    -0.01268941     0.03433722    -0.00611000


*****************************************************************coordonnees du prisme dans le repere MOUNT********************************************************************************** 
20MABNDB000069_PR031
    0.09765260    -0.03518546     9.20362854
    0.09763231    -0.03523066     9.20362854
    0.09758502    -0.03511269     9.20362854
    0.09750804    -0.03523780     9.20362949
    0.09769171    -0.03514472     9.20362854
20MABNDB000069_PR033
   -0.02820446    -0.02197972     1.28396845
   -0.02820355    -0.02198036     1.28396845
   -0.02820092    -0.02198107     1.28396845
   -0.02819952    -0.02198019     1.28396845
   -0.02820153    -0.02198130     1.28396845
20MABNDB000131_PR032
   -0.18818672    -0.03554761    11.00640774
   -0.18819413    -0.03552938    11.00640774
   -0.18818387    -0.03553372    11.00640774
   -0.18823130    -0.03554199    11.00640678
   -0.18817081    -0.03551465    11.00640774
20MABNDB000131_PR034
    0.01397400     0.01123782     3.43342280
    0.01398245     0.01123512     3.43342280
    0.01397401     0.01123508     3.43342280
    0.01397468     0.01123918     3.43342280
    0.01397377     0.01123804     3.43342280
20MABNDA000208_PR042
    0.12459125     0.00853887     9.20156956
    0.12469129     0.00851441     9.20156765
    0.12473057     0.00848990     9.20156670
    0.12466675     0.00853894     9.20156860
    0.12476741     0.00849791     9.20156670
20MABNDA000208_PR046
   -0.02576924     0.02921696     1.28213978
   -0.02576676     0.02921482     1.28214002
   -0.02576685     0.02921670     1.28214002
   -0.02576489     0.02921858     1.28213978
   -0.02576753     0.02921550     1.28214002
20MABNDA000035_PR044
   -0.17948510     0.03290658    11.00802040
   -0.17948139     0.03291534    11.00802040
   -0.17947972     0.03294239    11.00802040
   -0.17950246     0.03293231    11.00801945
   -0.17947997     0.03290875    11.00802040
20MABNDA000035_PR045
    0.01477842    -0.01338678     3.43488312
    0.01478139    -0.01338612     3.43488312
    0.01478183    -0.01338886     3.43488312
    0.01477959    -0.01338177     3.43488312
    0.01478325    -0.01338088     3.43488312
20MABNDL000077_PR002
    0.04954321     0.02145397     3.70690918
    0.04954138     0.02144460     3.70690918
    0.04954861     0.02145120     3.70690918
    0.04954467     0.02145148     3.70690918
    0.04955273     0.02144300     3.70690918
20MABNDL000077_PR003
    0.01401314     0.03696957     3.89605379
    0.01401908     0.03696588     3.89605379
    0.01402591     0.03697412     3.89605379
    0.01400448     0.03695927     3.89605379
    0.01402906     0.03697824     3.89605379
20MABNDL000077_20MABNDM000168
   -0.01650230     0.01430006    -5.46871090
   -0.01648892     0.01429803    -5.46871090
   -0.01648522     0.01428940    -5.46871090
   -0.01649677     0.01428892    -5.46871090
   -0.01648111     0.01427572    -5.46871090
20MABNDL000077_PR024
    0.05246505    -0.00345123    -5.89622307
    0.05246254    -0.00351051    -5.89622211
    0.05246647    -0.00351398    -5.89622211
    0.05247935    -0.00355361    -5.89622211
    0.05248535    -0.00352938    -5.89622211
20MABNDM000020_PR013
   -0.00518269     0.01229572    -3.80216765
   -0.00517810     0.01230153    -3.80216765
   -0.00517581     0.01229860    -3.80216765
   -0.00517357     0.01229865    -3.80216765
   -0.00516924     0.01229329    -3.80216765
20MABNDM000020_PR014
   -0.06753539     0.03182966    -4.74799824
   -0.06752840     0.03182328    -4.74799824
   -0.06752387     0.03182960    -4.74799824
   -0.06752693     0.03182736    -4.74799824
   -0.06753635     0.03183088    -4.74799824
20MABNDM000020_20MABNDL000196
   -0.02600922    -0.08874528     5.39443302
   -0.02600492    -0.08875352     5.39443254
   -0.02600528    -0.08873489     5.39443302
   -0.02600707    -0.08874564     5.39443302
   -0.02601030    -0.08874206     5.39443302
20MABNDM000020_PR035
   -0.04240122    -0.05493844     5.80099726
   -0.04242394    -0.05493844     5.80099678
   -0.04242394    -0.05495000     5.80099678
   -0.04241547    -0.05493344     5.80099726
   -0.04239968    -0.05493613     5.80099726
20MABNDA000188_PR008
    0.15778440    -0.06604159     9.20314312
    0.12872210    -0.06885186     9.20361042
    0.12174334    -0.09222974     9.20347786
    0.15805390    -0.07284949     9.20307732
    0.12645289    -0.06994191     9.20363617
20MABNDA000188_PR018
   -0.01884659     0.02226724     1.28360295
   -0.01884794     0.02226956     1.28360295
   -0.01884802     0.02226965     1.28360295
   -0.01884445     0.02226722     1.28360295
   -0.01884484     0.02227151     1.28360295
20MABNDA000039_PR009
   -0.17158069     0.02984411    11.00700378
   -0.17155953     0.02983524    11.00700378
   -0.17161590     0.02982013    11.00700378
   -0.17159818     0.02985589    11.00700378
   -0.17160481     0.02984129    11.00700378
20MABNDA000039_PR011
    0.03051400    -0.02066025     3.43351460
    0.03051855    -0.02066118     3.43351460
    0.03051398    -0.02066321     3.43351460
    0.03051127    -0.02065773     3.43351460
20MABNDB000155_PR020
    0.09578218    -0.00396062     9.20035648
    0.09577948    -0.00394347     9.20035648
    0.09579916    -0.00394627     9.20035553
    0.09573787    -0.00390904     9.20035648
20MABNDB000155_PR022
   -0.02720384    -0.01282872     1.28069854
   -0.02720421    -0.01283232     1.28069854
   -0.02720183    -0.01283168     1.28069854
   -0.02720368    -0.01283376     1.28069854
20MABNDB000010_PR021
   -0.17531070    -0.03879741    11.00694847
   -0.17528489    -0.03880138    11.00694847
   -0.17532533    -0.03884471    11.00694752
   -0.17529801    -0.03880895    11.00694847
20MABNDB000010_PR023
    0.00453928     0.01568761     3.43381166
    0.00453647     0.01567747     3.43381166
    0.00453859     0.01567430     3.43381166
    0.00454212     0.01568238     3.43381166
20MABNDB000212_PR029
   -0.02585096    -0.00894891     1.64223552
   -0.02585327    -0.00894987     1.64223552
   -0.02585368    -0.00894691     1.64223552
   -0.02585462    -0.00895216     1.64223552
20MABNDB000128_PR030
   -0.01885819    -0.04714030     2.95496011
   -0.01885899    -0.04713716     2.95496058
   -0.01886372    -0.04713148     2.95496058
   -0.01885957    -0.04713834     2.95496011
20MABNDA000444_PR040
   -0.02942081     0.00134027     1.64492011
   -0.02942305     0.00133575     1.64492011
   -0.02941966     0.00133590     1.64492011
   -0.02942455     0.00134176     1.64492011
20MABNDA000053_PR041
   -0.02698083     0.05122513     2.95450020
   -0.02697095     0.05121827     2.95450044
   -0.02696779     0.05121879     2.95450044
   -0.02696703     0.05122801     2.95450044
20MABNDA000196_PR006
   -0.01034581     0.01060800     1.64206481
   -0.01034578     0.01060166     1.64206481
   -0.01034631     0.01060331     1.64206481
   -0.01034624     0.01060844     1.64206481
20MABNDA000324_PR007
   -0.02525454     0.02769140     2.95549250
   -0.02525674     0.02769571     2.95549250
   -0.02525595     0.02769532     2.95549250
   -0.02525829     0.02769314     2.95549250
20MABNDB000001_PR017
   -0.02396785    -0.00360867     1.64036548
   -0.02396854    -0.00361248     1.64036560
   -0.02396504    -0.00361230     1.64036560
   -0.02396664    -0.00360857     1.64036548
20MABNDB000260_PR019
   -0.02449604    -0.03818602     2.95627594
   -0.02449525    -0.03820530     2.95627594
   -0.02449312    -0.03820369     2.95627594
   -0.02449421    -0.03821749     2.95627546
20MABNDB000135_PR027
   -0.02108473    -0.01022427     2.74937153
   -0.02108470    -0.01022226     2.74937153
   -0.02108536    -0.01023197     2.74937153
   -0.02108715    -0.01022773     2.74937153
20MABNDB000126_PR028
   -0.02038028    -0.03883011     2.14679670
   -0.02037543    -0.03882980     2.14679670
   -0.02037557    -0.03883108     2.14679670
   -0.02037987    -0.03882625     2.14679670
20MABNDA000272_PR038
   -0.01338017     0.01127877     2.74965882
   -0.01337635     0.01126686     2.74965882
   -0.01338182     0.01127859     2.74965882
   -0.01338641     0.01127457     2.74965882
20MABNDA000003_PR039
   -0.00600348     0.04111850     2.14891720
   -0.00600060     0.04112535     2.14891720
   -0.00600132     0.04112278     2.14891720
   -0.00600146     0.04112478     2.14891720
20MABNDA000318_PR004
   -0.00852122     0.03863176     2.74965692
   -0.00850914     0.03864152     2.74965668
   -0.00850859     0.03864042     2.74965668
   -0.00851812     0.03863911     2.74965668
20MABNDA000334_PR005
   -0.00426509     0.03152025     2.14977336
   -0.00426538     0.03151868     2.14977336
   -0.00426452     0.03151797     2.14977336
   -0.00426324     0.03152211     2.14977312
20MABNDB000317_PR015
   -0.01750219    -0.03432941     2.75128746
   -0.01750159    -0.03433413     2.75128746
   -0.01750486    -0.03433435     2.75128746
   -0.01750070    -0.03433231     2.75128746
20MABNDB000146_PR016
   -0.01360981    -0.03183015     2.15201235
   -0.01361211    -0.03183145     2.15201235
   -0.01361269    -0.03182642     2.15201235
   -0.01361427    -0.03182887     2.15201235
20MABNDM000168_PR025
    0.01792037    -0.02029077    -3.78863788
    0.01792558    -0.02029495    -3.78863788
    0.01792837    -0.02031026    -3.78863788
    0.01794560    -0.02029486    -3.78863740
20MABNDM000168_PR026
   -0.05789558    -0.01384925    -3.98428893
   -0.05789842    -0.01385525    -3.98428893
   -0.05788955    -0.01386171    -3.98428965
   -0.05789607    -0.01385758    -3.98428893
20MABNDM000168_20MABNDL000077
    0.01128777    -0.03897312     5.38884640
    0.01128585    -0.03898136     5.38884640
    0.01127880    -0.03899670     5.38884640
    0.01128604    -0.03899286     5.38884640
20MABNDM000168_PR001
   -0.05764093    -0.01352068     5.81470299
   -0.05763852    -0.01354126     5.81470299
   -0.05762409    -0.01353566     5.81470299
   -0.05764139    -0.01355246     5.81470299
20MABNDL000196_PR036
    0.05073193     0.00575115     3.68777657
    0.05073241     0.00575581     3.68777657
    0.05073022     0.00574746     3.68777657
    0.05072923     0.00574721     3.68777657
20MABNDL000196_PR037
   -0.02570115     0.02875486     3.88380790
   -0.02569729     0.02876366     3.88380790
   -0.02569261     0.02875333     3.88380790
   -0.02570475     0.02874658     3.88380790
20MABNDL000196_20MABNDM000020
   -0.01392570     0.03885842    -5.47473907
   -0.01392607     0.03885914    -5.47473907
   -0.01392185     0.03884556    -5.47473907
   -0.01391308     0.03883855    -5.47473907
20MABNDL000196_PR012
   -0.02361380     0.08990784    -5.91551590
   -0.03410856     0.09960784    -5.91538954
    0.07807925     0.11604182    -5.91451979
    0.03301721     0.11514224    -5.91505957


*****************************************************************coordonnees du prisme dans le repere ATLAS********************************************************************************** 
20MABNDB000069_PR031 0.00000000
    3.67936778     3.84881997    -7.90521526
    3.67934752     3.84882021    -7.90516996
    3.67930007     3.84881973    -7.90528774
    3.67922306     3.84882140    -7.90516281
    3.67940688     3.84881973    -7.90525579
20MABNDB000069_PR033 0.00000000
    3.53209257    -4.07045269    -7.88369083
    3.53209352    -4.07045269    -7.88369036
    3.53209615    -4.07045269    -7.88368988
    3.53209758    -4.07045269    -7.88369036
    3.53209543    -4.07045269    -7.88368940
20MABNDB000131_PR032 0.00000000
    3.86898732     3.64755607   -12.94619083
    3.86899471     3.64755607   -12.94617176
    3.86898446     3.64755607   -12.94617653
    3.86903191     3.64755511   -12.94618511
    3.86897159     3.64755607   -12.94615746
20MABNDB000131_PR034 0.00000000
    3.67381358    -3.92559505   -12.89670944
    3.67380524    -3.92559505   -12.89671230
    3.67381358    -3.92559505   -12.89671230
    3.67381310    -3.92559505   -12.89670849
    3.67381382    -3.92559505   -12.89670944
20MABNDA000208_PR042 0.00000000
   -3.67466617     3.84924173    -7.90294313
   -3.67476606     3.84923983    -7.90296793
   -3.67480540     3.84923887    -7.90299225
   -3.67474151     3.84924078    -7.90294313
   -3.67484212     3.84923887    -7.90298414
20MABNDA000208_PR046 0.00000000
   -3.52999330    -4.07028580    -7.87930012
   -3.52999568    -4.07028580    -7.87930202
   -3.52999568    -4.07028580    -7.87930059
   -3.52999759    -4.07028580    -7.87929869
   -3.52999496    -4.07028580    -7.87930155
20MABNDA000035_PR044 0.00000000
   -3.86872721     3.64757609   -12.93858528
   -3.86872339     3.64757609   -12.93859482
   -3.86872172     3.64757609   -12.93862152
   -3.86874461     3.64757514   -12.93861103
   -3.86872196     3.64757609   -12.93858814
20MABNDA000035_PR045 0.00000000
   -3.67595100    -3.92560363   -12.89299774
   -3.67594790    -3.92560363   -12.89299870
   -3.67594743    -3.92560363   -12.89299583
   -3.67594981    -3.92560363   -12.89300251
   -3.67594600    -3.92560363   -12.89300346
20MABNDL000077_PR002 0.00000000
    2.83558679    -3.69497371     6.48618937
    2.83559632    -3.69497561     6.48618937
    2.83558965    -3.69496846     6.48618937
    2.83558941    -3.69497228     6.48618937
    2.83559775    -3.69496417     6.48618937
20MABNDL000077_PR003 0.00000000
    2.82024550    -3.73073220     6.67530537
    2.82024908    -3.73072624     6.67530537
    2.82024097    -3.73071957     6.67530537
    2.82025576    -3.73074079     6.67530537
    2.82023668    -3.73071623     6.67530537
20MABNDL000077_20MABNDM000168 0.00000000
    2.83371949    -3.74970078    -2.68950772
    2.83372164    -3.74968719    -2.68950772
    2.83373022    -3.74968362    -2.68950772
    2.83373070    -3.74969506    -2.68950772
    2.83374405    -3.74967957    -2.68950772
20MABNDL000077_PR024 0.00000000
    2.85107350    -3.68021154    -3.11695170
    2.85113287    -3.68021417    -3.11695075
    2.85113621    -3.68021011    -3.11695075
    2.85117602    -3.68019724    -3.11695075
    2.85115170    -3.68019128    -3.11695075
20MABNDM000020_PR013 0.00000000
   -2.86460471    -3.73429179     6.48601770
   -2.86461043    -3.73429632     6.48601770
   -2.86460757    -3.73429871     6.48601770
   -2.86460757    -3.73430085     6.48601770
   -2.86460233    -3.73430538     6.48601770
20MABNDM000020_PR014 0.00000000
   -2.88393021    -3.67265248     7.43189907
   -2.88392377    -3.67265940     7.43189907
   -2.88393021    -3.67266393     7.43189907
   -2.88392806    -3.67266107     7.43189907
   -2.88393140    -3.67265153     7.43189907
20MABNDM000020_20MABNDL000196 0.00000000
   -2.76539779    -3.70650196    -2.71058488
   -2.76538944    -3.70650625    -2.71058440
   -2.76540804    -3.70650578    -2.71058488
   -2.76539731    -3.70650411    -2.71058488
   -2.76540089    -3.70650077    -2.71058488
20MABNDM000020_PR035 0.00000000
   -2.79928088    -3.68979025    -3.11712980
   -2.79928088    -3.68976760    -3.11712933
   -2.79926944    -3.68976760    -3.11712933
   -2.79928589    -3.68977594    -3.11712980
   -2.79928327    -3.68979192    -3.11712980
20MABNDA000188_PR008 0.00000000
    3.57099128     3.84920120     8.07775211
    3.54188633     3.84919262     8.08012676
    3.53456163     3.84869504     8.10339355
    3.57115984     3.84906435     8.08456135
    3.53960109     3.84917164     8.08118248
20MABNDA000188_PR018 0.00000000
    3.51823735    -4.07065582     7.90114069
    3.51823616    -4.07065582     7.90113831
    3.51823616    -4.07065582     7.90113831
    3.51823950    -4.07065582     7.90114117
    3.51823926    -4.07065582     7.90113688
20MABNDA000039_PR009 0.00000000
    3.87575221     3.64745998    12.94113827
    3.87573099     3.64745998    12.94112968
    3.87578750     3.64745998    12.94111443
    3.87576962     3.64745998    12.94114971
    3.87577629     3.64745998    12.94113541
20MABNDA000039_PR011 0.00000000
    3.66450977    -3.92576289    12.88817596
    3.66450524    -3.92576289    12.88817596
    3.66450977    -3.92576289    12.88817310
    3.66451240    -3.92576289    12.88817883
20MABNDB000155_PR020 0.00000000
   -3.67443633     3.84890509     7.90290880
   -3.67443371     3.84890509     7.90292597
   -3.67445326     3.84890413     7.90292311
   -3.67439198     3.84890532     7.90296030
20MABNDB000155_PR022 0.00000000
   -3.53277826    -4.07044172     7.89523125
   -3.53277779    -4.07044172     7.89522743
   -3.53278017    -4.07044172     7.89522791
   -3.53277850    -4.07044172     7.89522600
20MABNDB000010_PR021 0.00000000
   -3.86114335     3.64768791    12.94062614
   -3.86111760     3.64768791    12.94062996
   -3.86115813     3.64768696    12.94067383
   -3.86113071     3.64768791    12.94063759
20MABNDB000010_PR023 0.00000000
   -3.68512297    -3.92556286    12.88958836
   -3.68512583    -3.92556286    12.88959789
   -3.68512368    -3.92556286    12.88960171
   -3.68512034    -3.92556286    12.88959312
20MABNDB000212_PR029 0.00000000
    2.59952879    -4.19501305    -6.54793692
    2.59953094    -4.19501305    -6.54793787
    2.59953141    -4.19501305    -6.54793453
    2.59953237    -4.19501305    -6.54793978
20MABNDB000128_PR030 0.00000000
    2.61000037    -4.14002991    -6.93098068
    2.60999966    -4.14002943    -6.93098402
    2.60999489    -4.14002943    -6.93098927
    2.60999918    -4.14002991    -6.93098259
20MABNDA000444_PR040 0.00000000
   -2.60459328    -4.19508934    -6.54052067
   -2.60459566    -4.19508934    -6.54051590
   -2.60459232    -4.19508934    -6.54051638
   -2.60459709    -4.19508934    -6.54052210
20MABNDA000053_PR041 0.00000000
   -2.59356117    -4.14013052    -6.92668819
   -2.59357095    -4.14013052    -6.92669535
   -2.59357429    -4.14013052    -6.92669487
   -2.59357500    -4.14013052    -6.92668533
20MABNDA000196_PR006 0.00000000
    2.58480620    -4.19496298     6.54856443
    2.58480620    -4.19496298     6.54855824
    2.58480668    -4.19496298     6.54855967
    2.58480668    -4.19496298     6.54856491
20MABNDA000324_PR007 0.00000000
    2.59406018    -4.13996553     6.94822359
    2.59405804    -4.13996553     6.94821930
    2.59405875    -4.13996553     6.94821978
    2.59405661    -4.13996553     6.94822216
20MABNDB000001_PR017 0.00000000
   -2.59766936    -4.19505024     6.53893661
   -2.59767008    -4.19504976     6.53894043
   -2.59766650    -4.19505024     6.53894043
   -2.59766817    -4.19505024     6.53893661
20MABNDB000260_PR019 0.00000000
   -2.60426593    -4.13995838     6.94245815
   -2.60426664    -4.13995838     6.94243860
   -2.60426879    -4.13995838     6.94244051
   -2.60426784    -4.13995886     6.94242668
20MABNDB000135_PR027 0.00000000
    2.60377836    -4.19700384    -3.82513666
    2.60377860    -4.19700384    -3.82513857
    2.60377789    -4.19700384    -3.82512879
    2.60377598    -4.19700384    -3.82513309
20MABNDB000126_PR028 0.00000000
    2.60553694    -4.19702005    -5.89338970
    2.60554171    -4.19702005    -5.89339018
    2.60554171    -4.19702005    -5.89338875
    2.60553741    -4.19702005    -5.89339352
20MABNDA000272_PR038 0.00000000
   -2.61115670    -4.19698238    -3.82720566
   -2.61116052    -4.19698238    -3.82721758
   -2.61115503    -4.19698238    -3.82720566
   -2.61115050    -4.19698238    -3.82720971
20MABNDA000003_PR039 0.00000000
   -2.61572766    -4.19702005    -5.89164829
   -2.61573052    -4.19702005    -5.89164114
   -2.61572981    -4.19702005    -5.89164400
   -2.61572957    -4.19702005    -5.89164209
20MABNDA000318_PR004 0.00000000
    2.61448193    -4.19698763     3.83336687
    2.61449409    -4.19698811     3.83335710
    2.61449456    -4.19698811     3.83335829
    2.61448503    -4.19698811     3.83335948
20MABNDA000334_PR005 0.00000000
    2.61673355    -4.19702959     5.89774084
    2.61673307    -4.19702959     5.89774227
    2.61673403    -4.19702959     5.89774275
    2.61673522    -4.19703007     5.89773893
20MABNDB000317_PR015 0.00000000
   -2.61110497    -4.19700384     3.83568597
   -2.61110568    -4.19700384     3.83568120
   -2.61110234    -4.19700384     3.83568120
   -2.61110640    -4.19700384     3.83568311
20MABNDB000146_PR016 0.00000000
   -2.61268544    -4.19702530     5.89851999
   -2.61268306    -4.19702530     5.89851904
   -2.61268258    -4.19702530     5.89852381
   -2.61268091    -4.19702530     5.89852142
20MABNDM000168_PR025 0.00000000
    2.83294606    -3.76324987    -6.47925663
    2.83294201    -3.76325488    -6.47925663
    2.83292651    -3.76325774    -6.47925663
    2.83294201    -3.76327491    -6.47925615
20MABNDM000168_PR026 0.00000000
    2.83939576    -3.68750834    -6.67493629
    2.83938980    -3.68750548    -6.67493629
    2.83938336    -3.68751431    -6.67493725
    2.83938742    -3.68750787    -6.67493629
20MABNDM000168_20MABNDL000077 0.00000000
    2.81482244    -3.75319982     2.69822550
    2.81481433    -3.75319791     2.69822550
    2.81479883    -3.75319076     2.69822550
    2.81480265    -3.75319815     2.69822550
20MABNDM000168_PR001 0.00000000
    2.84031892    -3.68411946     3.12405491
    2.84029841    -3.68412185     3.12405491
    2.84030390    -3.68413639     3.12405491
    2.84028721    -3.68411899     3.12405491
20MABNDL000196_PR036 0.00000000
   -2.84785604    -3.69354272    -6.47909975
   -2.84785151    -3.69354224    -6.47909975
   -2.84785986    -3.69354439    -6.47909975
   -2.84786010    -3.69354534    -6.47909927
20MABNDL000196_PR037 0.00000000
   -2.82482100    -3.77014732    -6.67506027
   -2.82481217    -3.77014351    -6.67506027
   -2.82482266    -3.77013874    -6.67506027
   -2.82482934    -3.77015090    -6.67506027
20MABNDL000196_20MABNDM000020 0.00000000
   -2.81452084    -3.74966192     2.68347168
   -2.81452012    -3.74966240     2.68347168
   -2.81453371    -3.74965811     2.68347168
   -2.81454062    -3.74964929     2.68347168
20MABNDL000196_PR012 0.00000000
   -2.76345730    -3.75891638     3.12425613
   -2.75375247    -3.76940656     3.12413955
   -2.73737073    -3.65721202     3.12316489
   -2.73824930    -3.70227408     3.12374663


*****************************************************************Rapport********************************************************************************** 
CAM-ECTC-US-IP_ECTC-US-IP-T    2016.03.12.01.13.17     3.67932906     3.84882021    -7.90521832     0.00006320     0.00000062     0.00004828 0.00000000 VRAI 
CAM-ECTC-US-IP_ECTC-US-IP      2016.03.12.01.13.17     3.53209505    -4.07045269    -7.88369017     0.00000180     0.00000000     0.00000049 0.00000000 VRAI 
CAM-ECTC-US-HO_ECTC-US-HO-T    2016.03.12.01.13.17     3.86899400     3.64755588   -12.94617634     0.00002037     0.00000038     0.00001153 0.00000000 VRAI 
CAM-ECTC-US-HO_ECTC-US-HO      2016.03.12.01.13.17     3.67381186    -3.92559505   -12.89671040     0.00000332     0.00000000     0.00000160 0.00000000 VRAI 
CAM-ECTC-USA-IP_ECTC-USA-IP-T  2016.03.12.01.13.17    -3.67476425     3.84924002    -7.90296612     0.00005983     0.00000111     0.00002033 0.00000000 VRAI 
CAM-ECTC-USA-IP_ECTC-USA-IP    2016.03.12.01.13.17    -3.52999544    -4.07028580    -7.87930059     0.00000138     0.00000000     0.00000117 0.00000000 VRAI 
CAM-ECTC-USA-HO_ECTC-USA-HO-T  2016.03.12.01.13.17    -3.86872778     3.64757590   -12.93860016     0.00000864     0.00000038     0.00001392 0.00000000 VRAI 
CAM-ECTC-USA-HO_ECTC-USA-HO    2016.03.12.01.13.17    -3.67594843    -3.92560363   -12.89299965     0.00000177     0.00000000     0.00000289 0.00000000 VRAI 
CAM-LBA-US_EBA-US-HO-H         2016.03.12.01.13.17     2.83559198    -3.69497085     6.48618937     0.00000427     0.00000408     0.00000000 0.00000000 VRAI 
CAM-LBA-US_JDA-US-H            2016.03.12.01.13.17     2.82024560    -3.73072701     6.67530537     0.00000658     0.00000882     0.00000000 0.00000000 VRAI 
CAM-LBA-US_CAM-LBC-US          2016.03.12.01.13.17     2.83372922    -3.74968925    -2.68950772     0.00000866     0.00000770     0.00000000 0.00000000 VRAI 
CAM-LBA-US_EBC-US-IP-H         2016.03.12.01.13.17     2.85113406    -3.68020487    -3.11695094     0.00003390     0.00000896     0.00000038 0.00000000 VRAI 
CAM-LBA-USA_EBA-USA-HO-H       2016.03.12.01.13.17    -2.86460652    -3.73429861     6.48601770     0.00000277     0.00000453     0.00000000 0.00000000 VRAI 
CAM-LBA-USA_JDA-USA-H          2016.03.12.01.13.17    -2.88392873    -3.67265768     7.43189907     0.00000270     0.00000486     0.00000000 0.00000000 VRAI 
CAM-LBA-USA_CAM-LBC-USA        2016.03.12.01.13.17    -2.76539869    -3.70650377    -2.71058478     0.00000601     0.00000213     0.00000019 0.00000000 VRAI 
CAM-LBA-USA_EBC-USA-IP-H       2016.03.12.01.13.17    -2.79928007    -3.68977866    -3.11712961     0.00000563     0.00001060     0.00000023 0.00000000 VRAI 
CAM-ECTA-US-IP_ECTA-US-IP-T    2016.03.12.01.13.17     3.55164003     3.84906497     8.08540325     0.01604516     0.00019135     0.00925803 0.00000000 VRAI 
CAM-ECTA-US-IP_ECTA-US-IP      2016.03.12.01.13.17     3.51823769    -4.07065582     7.90113907     0.00000145     0.00000000     0.00000161 0.00000000 VRAI 
CAM-ECTA-US-HO_ECTA-US-HO-T    2016.03.12.01.13.17     3.87576332     3.64745998    12.94113350     0.00001980     0.00000000     0.00001155 0.00000000 VRAI 
CAM-ECTA-US-HO_ECTA-US-HO      2016.03.12.01.13.17     3.66450930    -3.92576289    12.88817596     0.00000257     0.00000000     0.00000202 0.00000000 VRAI 
CAM-ECTA-USA-IP_ECTA-USA-IP-T  2016.03.12.01.13.17    -3.67442882     3.84890491     7.90292954     0.00002255     0.00000046     0.00001891 0.00000000 VRAI 
CAM-ECTA-USA-IP_ECTA-USA-IP    2016.03.12.01.13.17    -3.53277868    -4.07044172     7.89522815     0.00000090     0.00000000     0.00000192 0.00000000 VRAI 
CAM-ECTA-USA-HO_ECTA-USA-HO-T  2016.03.12.01.13.17    -3.86113745     3.64768767    12.94064188     0.00001502     0.00000041     0.00001890 0.00000000 VRAI 
CAM-ECTA-USA-HO_ECTA-USA-HO    2016.03.12.01.13.17    -3.68512321    -3.92556286    12.88959527     0.00000196     0.00000000     0.00000502 0.00000000 VRAI 
CAM-JDC-US-IP_JDC-US-IP        2016.03.12.01.13.17     2.59953088    -4.19501305    -6.54793727     0.00000131     0.00000000     0.00000189 0.00000000 VRAI 
CAM-JDC-US-HO_JDC-US-HO        2016.03.12.01.13.17     2.60999852    -4.14002967    -6.93098414     0.00000214     0.00000024     0.00000319 0.00000000 VRAI 
CAM-JDC-USA-IP_JDC-USA-IP      2016.03.12.01.13.17    -2.60459459    -4.19508934    -6.54051876     0.00000189     0.00000000     0.00000268 0.00000000 VRAI 
CAM-JDC-USA-HO_JDC-USA-HO      2016.03.12.01.13.17    -2.59357035    -4.14013052    -6.92669094     0.00000552     0.00000000     0.00000430 0.00000000 VRAI 
CAM-JDA-US-IP_JDA-US-IP        2016.03.12.01.13.17     2.58480644    -4.19496298     6.54856181     0.00000024     0.00000000     0.00000291 0.00000000 VRAI 
CAM-JDA-US-HO_JDA-US-HO        2016.03.12.01.13.17     2.59405839    -4.13996553     6.94822121     0.00000129     0.00000000     0.00000175 0.00000000 VRAI 
CAM-JDA-USA-IP_JDA-USA-IP      2016.03.12.01.13.17    -2.59766853    -4.19505012     6.53893852     0.00000135     0.00000021     0.00000191 0.00000000 VRAI 
CAM-JDA-USA-HO_JDA-USA-HO      2016.03.12.01.13.17    -2.60426730    -4.13995850     6.94244099     0.00000110     0.00000021     0.00001124 0.00000000 VRAI 
CAM-EBC-US-IP_EBC-US-IP        2016.03.12.01.13.17     2.60377771    -4.19700384    -3.82513428     0.00000103     0.00000000     0.00000373 0.00000000 VRAI 
CAM-EBC-US-HO_EBC-US-HO        2016.03.12.01.13.17     2.60553944    -4.19702005    -5.89339054     0.00000227     0.00000000     0.00000180 0.00000000 VRAI 
CAM-EBC-USA-IP_EBC-USA-IP      2016.03.12.01.13.17    -2.61115569    -4.19698238    -3.82720965     0.00000359     0.00000000     0.00000487 0.00000000 VRAI 
CAM-EBC-USA-HO_EBC-USA-HO      2016.03.12.01.13.17    -2.61572939    -4.19702005    -5.89164388     0.00000106     0.00000000     0.00000275 0.00000000 VRAI 
CAM-EBA-US-IP_EBA-US-IP        2016.03.12.01.13.17     2.61448890    -4.19698799     3.83336043     0.00000554     0.00000021     0.00000381 0.00000000 VRAI 
CAM-EBA-US-HO_EBA-US-HO        2016.03.12.01.13.17     2.61673397    -4.19702971     5.89774120     0.00000080     0.00000021     0.00000148 0.00000000 VRAI 
CAM-EBA-USA-IP_EBA-USA-IP      2016.03.12.01.13.17    -2.61110485    -4.19700384     3.83568287     0.00000153     0.00000000     0.00000195 0.00000000 VRAI 
CAM-EBA-USA-HO_EBA-USA-HO      2016.03.12.01.13.17    -2.61268300    -4.19702530     5.89852107     0.00000162     0.00000000     0.00000180 0.00000000 VRAI 
CAM-LBC-US_EBC-US-HO-H         2016.03.12.01.13.17     2.83293915    -3.76325935    -6.47925651     0.00000748     0.00000941     0.00000021 0.00000000 VRAI 
CAM-LBC-US_JDC-US-H            2016.03.12.01.13.17     2.83938909    -3.68750900    -6.67493653     0.00000449     0.00000325     0.00000041 0.00000000 VRAI 
CAM-LBC-US_CAM-LBA-US          2016.03.12.01.13.17     2.81480956    -3.75319666     2.69822550     0.00000937     0.00000349     0.00000000 0.00000000 VRAI 
CAM-LBC-US_EBA-US-IP-H         2016.03.12.01.13.17     2.84030211    -3.68412417     3.12405491     0.00001142     0.00000714     0.00000000 0.00000000 VRAI 
CAM-LBC-USA_EBC-USA-HO-H       2016.03.12.01.13.17    -2.84785688    -3.69354367    -6.47909963     0.00000349     0.00000125     0.00000021 0.00000000 VRAI 
CAM-LBC-USA_JDC-USA-H          2016.03.12.01.13.17    -2.82482129    -3.77014512    -6.67506027     0.00000612     0.00000452     0.00000000 0.00000000 VRAI 
CAM-LBC-USA_CAM-LBA-USA        2016.03.12.01.13.17    -2.81452882    -3.74965793     2.68347168     0.00000870     0.00000526     0.00000000 0.00000000 VRAI 
CAM-LBC-USA_EBA-USA-IP-H       2016.03.12.01.13.17    -2.74820745    -3.72195226     3.12382680     0.01095336     0.04526805     0.00042623 0.00000000 VRAI 
