********** Fichier qui contient une sauvegarde des coordonnees images + coordonnees images transformees dans le repere BCAM (MOUNT) + coordonnees des prismes dans le repere MOUNT********** 
********************************************************************** Unite en metres (m)************************************************************************************************** 

*******************************************************************coordonnees images dans le repere CCD *********************************************************************************** 
20MABNDB000069_PR031
Spot 1     0.00027550     0.00140096
Spot 2     0.00035795     0.00140215
Spot 1     0.00027530     0.00140093
Spot 2     0.00035798     0.00140226
Spot 1     0.00027533     0.00140107
Spot 2     0.00035820     0.00140240
Spot 1     0.00027563     0.00140079
Spot 2     0.00035816     0.00140240
Spot 1     0.00027584     0.00140075
Spot 2     0.00035800     0.00140255
20MABNDB000069_PR033
Spot 1     0.00183213     0.00201370
Spot 2     0.00230310     0.00203345
Spot 1     0.00183209     0.00201382
Spot 2     0.00230331     0.00203352
Spot 1     0.00183219     0.00201385
Spot 2     0.00230332     0.00203338
Spot 1     0.00183204     0.00201383
Spot 2     0.00230327     0.00203352
Spot 1     0.00183208     0.00201398
Spot 2     0.00230322     0.00203334
20MABNDB000131_PR032
Spot 1     0.00277920     0.00108508
Spot 2     0.00283948     0.00108790
Spot 1     0.00277940     0.00108492
Spot 2     0.00283942     0.00108807
Spot 1     0.00277918     0.00108480
Spot 2     0.00283946     0.00108783
Spot 1     0.00277942     0.00108476
Spot 2     0.00283944     0.00108796
Spot 1     0.00277927     0.00108492
Spot 2     0.00283919     0.00108805
20MABNDB000131_PR034
Spot 1     0.00092758     0.00035660
Spot 2     0.00110376     0.00035562
Spot 1     0.00092734     0.00035677
Spot 2     0.00110365     0.00035568
Spot 1     0.00092744     0.00035666
Spot 2     0.00110351     0.00035563
Spot 1     0.00092750     0.00035667
Spot 2     0.00110351     0.00035563
Spot 1     0.00092744     0.00035666
Spot 2     0.00110348     0.00035545
20MABNDA000208_PR042
Spot 1     0.00305555     0.00094689
Spot 2     0.00298590     0.00094784
Spot 1     0.00305604     0.00094698
Spot 2     0.00298839     0.00094737
Spot 1     0.00305575     0.00094637
Spot 2     0.00298645     0.00094815
Spot 1     0.00305590     0.00094669
Spot 2     0.00298687     0.00094698
Spot 1     0.00305621     0.00094583
Spot 2     0.00298816     0.00094662
20MABNDA000208_PR046
Spot 1     0.00145857     0.00210891
Spot 2     0.00098362     0.00211295
Spot 1     0.00145859     0.00210882
Spot 2     0.00098394     0.00211265
Spot 1     0.00145891     0.00210844
Spot 2     0.00098401     0.00211288
Spot 1     0.00145872     0.00210826
Spot 2     0.00098391     0.00211295
Spot 1     0.00145852     0.00210879
Spot 2     0.00098377     0.00211280
20MABNDA000035_PR044
Spot 1     0.00074174     0.00126530
Spot 2     0.00068240     0.00125942
Spot 1     0.00074153     0.00126525
Spot 2     0.00068255     0.00125962
Spot 1     0.00074160     0.00126551
Spot 2     0.00068260     0.00125967
Spot 1     0.00074145     0.00126538
Spot 2     0.00068250     0.00125967
Spot 1     0.00074152     0.00126500
Spot 2     0.00068264     0.00125949
20MABNDA000035_PR045
Spot 1     0.00254791     0.00051126
Spot 2     0.00237076     0.00050997
Spot 1     0.00254829     0.00051114
Spot 2     0.00237041     0.00051011
Spot 1     0.00254819     0.00051124
Spot 2     0.00237058     0.00051017
Spot 1     0.00254806     0.00051121
Spot 2     0.00237041     0.00051005
Spot 1     0.00254823     0.00051133
Spot 2     0.00237056     0.00051000
20MABNDL000077_PR002
Spot 1     0.00079524     0.00149445
Spot 2     0.00095743     0.00149460
Spot 1     0.00079516     0.00149417
Spot 2     0.00095751     0.00149437
Spot 1     0.00079526     0.00149563
Spot 2     0.00095760     0.00149433
Spot 1     0.00079531     0.00149436
Spot 2     0.00095759     0.00149436
Spot 1     0.00079537     0.00149425
Spot 2     0.00095765     0.00149436
20MABNDL000077_PR003
Spot 1     0.00152643     0.00119168
Spot 2     0.00167681     0.00119044
Spot 1     0.00152672     0.00119152
Spot 2     0.00167680     0.00119032
Spot 1     0.00152677     0.00119061
Spot 2     0.00167710     0.00119005
Spot 1     0.00152656     0.00118770
Spot 2     0.00167727     0.00119012
Spot 1     0.00152661     0.00118783
Spot 2     0.00167718     0.00119000
20MABNDL000077_20MABNDM000168
Spot 1     0.00188428     0.00148773
Spot 2     0.00109500     0.00018500
Spot 1     0.00188431     0.00148778
Spot 2     0.00026500     0.00044500
Spot 1     0.00188426     0.00148758
Spot 2     0.00204500     0.00205500
Spot 1     0.00188420     0.00148757
Spot 2     0.00204500     0.00205500
Spot 1     0.00188420     0.00148750
Spot 2     0.00204500     0.00205500
20MABNDL000077_PR024
Spot 1     0.00262810     0.00171672
Spot 2     0.00273015     0.00172024
Spot 1     0.00262783     0.00171657
Spot 2     0.00273003     0.00172021
Spot 1     0.00262782     0.00171619
Spot 2     0.00273002     0.00172012
Spot 1     0.00262754     0.00171616
Spot 2     0.00272992     0.00172002
Spot 1     0.00262758     0.00171618
Spot 2     0.00272984     0.00171995
20MABNDM000020_PR013
Spot 1     0.00164326     0.00213887
Spot 2     0.00149059     0.00214365
Spot 1     0.00164266     0.00213955
Spot 2     0.00149013     0.00214429
Spot 1     0.00164303     0.00213939
Spot 2     0.00148991     0.00214484
Spot 1     0.00164229     0.00213904
Spot 2     0.00149002     0.00214488
Spot 1     0.00164341     0.00213852
Spot 2     0.00149031     0.00214361
20MABNDM000020_PR014
Spot 1     0.00268043     0.00227871
Spot 2     0.00251745     0.00228680
Spot 1     0.00267979     0.00228001
Spot 2     0.00251809     0.00228768
Spot 1     0.00267999     0.00228021
Spot 2     0.00251797     0.00228703
Spot 1     0.00267993     0.00227929
Spot 2     0.00251745     0.00228598
20MABNDM000020_20MABNDL000196
Spot 1     0.00200171     0.00057934
Spot 2     0.00230500     0.00010500
Spot 1     0.00200139     0.00057925
Spot 2     0.00230500     0.00010500
Spot 1     0.00200156     0.00057911
Spot 2     0.00230500     0.00010500
Spot 1     0.00200147     0.00057894
Spot 2     0.00230500     0.00010500
20MABNDM000020_PR035
Spot 1     0.00126836     0.00087441
Spot 2     0.00119768     0.00090578
Spot 1     0.00126805     0.00087466
Spot 2     0.00119760     0.00090577
Spot 1     0.00126824     0.00087487
Spot 2     0.00119763     0.00090577
Spot 1     0.00126872     0.00087473
Spot 2     0.00119749     0.00090577
20MABNDA000188_PR008
Spot 1     0.00306500     0.00077500
Spot 2     0.00330833     0.00005500
Spot 1     0.00306500     0.00077500
Spot 2     0.00336500     0.00014500
Spot 1     0.00306500     0.00077500
Spot 2     0.00306500     0.00077500
Spot 1     0.00306500     0.00077500
Spot 2     0.00331500     0.00005500
20MABNDA000188_PR018
Spot 1     0.00164883     0.00175075
Spot 2     0.00118132     0.00174877
Spot 1     0.00164896     0.00175052
Spot 2     0.00118124     0.00174881
Spot 1     0.00164868     0.00175082
Spot 2     0.00118120     0.00174865
Spot 1     0.00164892     0.00175090
Spot 2     0.00118126     0.00174874
20MABNDA000039_PR009
Spot 1     0.00066154     0.00117295
Spot 2     0.00061392     0.00117720
Spot 1     0.00066196     0.00117286
Spot 2     0.00061397     0.00117705
Spot 1     0.00066134     0.00117315
Spot 2     0.00061368     0.00117709
Spot 1     0.00066102     0.00117320
Spot 2     0.00061413     0.00117704
20MABNDA000039_PR011
Spot 1     0.00276370     0.00027630
Spot 2     0.00258804     0.00027118
Spot 1     0.00276361     0.00027632
Spot 2     0.00258801     0.00027119
Spot 1     0.00276345     0.00027631
Spot 2     0.00258793     0.00027119
Spot 1     0.00276346     0.00027633
Spot 2     0.00258788     0.00027125
20MABNDB000155_PR020
Spot 1     0.00061454     0.00112313
Spot 2     0.00068351     0.00111880
Spot 1     0.00061540     0.00112307
Spot 2     0.00068399     0.00111860
Spot 1     0.00061573     0.00112290
Spot 2     0.00068327     0.00111856
Spot 1     0.00061578     0.00112270
Spot 2     0.00068353     0.00111874
20MABNDB000155_PR022
Spot 1     0.00208245     0.00135031
Spot 2     0.00255626     0.00134542
Spot 1     0.00208249     0.00135044
Spot 2     0.00255615     0.00134552
Spot 1     0.00208241     0.00135039
Spot 2     0.00255601     0.00134532
Spot 1     0.00208265     0.00135041
Spot 2     0.00255605     0.00134573
20MABNDB000010_PR021
Spot 1     0.00286675     0.00115605
Spot 2     0.00292251     0.00115871
Spot 1     0.00286672     0.00115579
Spot 2     0.00292260     0.00115876
Spot 1     0.00286657     0.00115574
Spot 2     0.00292238     0.00115848
Spot 1     0.00286700     0.00115591
Spot 2     0.00292219     0.00115897
20MABNDB000010_PR023
Spot 1     0.00130742     0.00033016
Spot 2     0.00148261     0.00032899
Spot 1     0.00130737     0.00032998
Spot 2     0.00148255     0.00032868
Spot 1     0.00130772     0.00033021
Spot 2     0.00148279     0.00032889
Spot 1     0.00130769     0.00033019
Spot 2     0.00148266     0.00032883
20MABNDB000212_PR029
Spot 1     0.00226427     0.00072312
Spot 2     0.00189709     0.00072306
Spot 1     0.00226438     0.00072325
Spot 2     0.00189686     0.00072300
Spot 1     0.00226439     0.00072332
Spot 2     0.00189703     0.00072341
Spot 1     0.00226418     0.00072316
Spot 2     0.00189674     0.00072370
20MABNDB000128_PR030
Spot 1     0.00188579     0.00199252
Spot 2     0.00209129     0.00198671
Spot 1     0.00188566     0.00199217
Spot 2     0.00209134     0.00198654
Spot 1     0.00188598     0.00199227
Spot 2     0.00209153     0.00198653
Spot 1     0.00188598     0.00199227
Spot 2     0.00209139     0.00198664
20MABNDA000444_PR040
Spot 1     0.00077961     0.00037138
Spot 2     0.00114697     0.00036796
Spot 1     0.00077980     0.00037151
Spot 2     0.00114688     0.00036848
Spot 1     0.00077971     0.00037152
Spot 2     0.00114703     0.00036804
Spot 1     0.00077981     0.00037130
Spot 2     0.00114731     0.00036762
20MABNDA000053_PR041
Spot 1     0.00144113     0.00197578
Spot 2     0.00164577     0.00197968
Spot 1     0.00144098     0.00197566
Spot 2     0.00164568     0.00197975
Spot 1     0.00144103     0.00197607
Spot 2     0.00164585     0.00198008
Spot 1     0.00144110     0.00197588
Spot 2     0.00164591     0.00198005
20MABNDA000196_PR006
Spot 1     0.00198137     0.00075785
Spot 2     0.00161554     0.00075589
Spot 1     0.00198180     0.00075820
Spot 2     0.00161555     0.00075582
Spot 1     0.00198146     0.00075803
Spot 2     0.00161549     0.00075589
Spot 1     0.00198165     0.00075830
Spot 2     0.00161556     0.00075597
20MABNDA000324_PR007
Spot 1     0.00195250     0.00119556
Spot 2     0.00174699     0.00120110
Spot 1     0.00195258     0.00119543
Spot 2     0.00174641     0.00120110
Spot 1     0.00195258     0.00119558
Spot 2     0.00174640     0.00120122
Spot 1     0.00195234     0.00119534
Spot 2     0.00174645     0.00120113
20MABNDB000001_PR017
Spot 1     0.00188808     0.00047091
Spot 2     0.00225774     0.00048024
Spot 1     0.00188813     0.00047102
Spot 2     0.00225809     0.00047995
Spot 1     0.00188817     0.00047101
Spot 2     0.00225747     0.00048038
Spot 1     0.00188814     0.00047109
Spot 2     0.00225745     0.00048032
20MABNDB000260_PR019
Spot 1     0.00192184     0.00148734
Spot 2     0.00212538     0.00148635
Spot 1     0.00192176     0.00148710
Spot 2     0.00212573     0.00148609
Spot 1     0.00192203     0.00148729
Spot 2     0.00212575     0.00148632
Spot 1     0.00192191     0.00148708
Spot 2     0.00212556     0.00148630
20MABNDB000135_PR027
Spot 1     0.00189024     0.00091612
Spot 2     0.00210916     0.00091828
Spot 1     0.00189000     0.00091612
Spot 2     0.00210929     0.00091831
Spot 1     0.00189031     0.00091622
Spot 2     0.00210904     0.00091835
Spot 1     0.00189022     0.00091621
Spot 2     0.00210914     0.00091840
20MABNDB000126_PR028
Spot 1     0.00164275     0.00200481
Spot 2     0.00192606     0.00200717
Spot 1     0.00164273     0.00200489
Spot 2     0.00192616     0.00200693
Spot 1     0.00164281     0.00200470
Spot 2     0.00192608     0.00200690
Spot 1     0.00164286     0.00200504
Spot 2     0.00192612     0.00200681
20MABNDA000272_PR038
Spot 1     0.00192513     0.00095270
Spot 2     0.00170276     0.00095194
Spot 1     0.00192489     0.00095303
Spot 2     0.00170242     0.00095233
Spot 1     0.00192489     0.00095313
Spot 2     0.00170267     0.00095192
Spot 1     0.00192495     0.00095285
Spot 2     0.00170231     0.00095223
20MABNDA000003_PR039
Spot 1     0.00200209     0.00192285
Spot 2     0.00228072     0.00192366
Spot 1     0.00200215     0.00192290
Spot 2     0.00228096     0.00192370
Spot 1     0.00200205     0.00192275
Spot 2     0.00228059     0.00192363
Spot 1     0.00200200     0.00192285
Spot 2     0.00228049     0.00192370
20MABNDA000318_PR004
Spot 1     0.00214792     0.00162109
Spot 2     0.00192969     0.00162125
Spot 1     0.00214793     0.00162115
Spot 2     0.00192956     0.00162099
Spot 1     0.00214799     0.00162111
Spot 2     0.00192963     0.00162103
Spot 1     0.00214804     0.00162119
Spot 2     0.00192956     0.00162067
20MABNDA000334_PR005
Spot 1     0.00247618     0.00158226
Spot 2     0.00219567     0.00158289
Spot 1     0.00247597     0.00158194
Spot 2     0.00219579     0.00158249
Spot 1     0.00247595     0.00158205
Spot 2     0.00219549     0.00158239
Spot 1     0.00247606     0.00158192
Spot 2     0.00219568     0.00158259
20MABNDB000317_PR015
Spot 1     0.00148793     0.00160150
Spot 2     0.00170784     0.00159605
Spot 1     0.00148787     0.00160157
Spot 2     0.00170753     0.00159607
Spot 1     0.00148784     0.00160149
Spot 2     0.00170761     0.00159545
Spot 1     0.00148819     0.00160149
Spot 2     0.00170761     0.00159619
20MABNDB000146_PR016
Spot 1     0.00172044     0.00133629
Spot 2     0.00144500     0.00133250
Spot 1     0.00172045     0.00133644
Spot 2     0.00144500     0.00133250
Spot 1     0.00172032     0.00133644
Spot 2     0.00144500     0.00133500
Spot 1     0.00172038     0.00133659
Spot 2     0.00144500     0.00133250
20MABNDM000168_PR025
Spot 1     0.00061500     0.00009500
Spot 2     0.00061500     0.00009500
Spot 1     0.00169250     0.00004750
Spot 2     0.00168833     0.00004333
Spot 1     0.00020500     0.00045500
Spot 2     0.00020500     0.00045500
Spot 1     0.00020500     0.00045500
Spot 2     0.00020500     0.00045500
20MABNDM000168_PR026
Spot 1     0.00184700     0.00011300
Spot 2     0.00195100     0.00005700
Spot 1     0.00335300     0.00005100
Spot 2     0.00340100     0.00007100
Spot 1     0.00335300     0.00005100
Spot 2     0.00214833     0.00003833
Spot 1     0.00300500     0.00051500
Spot 2     0.00300500     0.00051500
20MABNDM000168_20MABNDL000077
Spot 1     0.00153810     0.00129649
Spot 2     0.00175743     0.00130019
Spot 1     0.00153813     0.00129643
Spot 2     0.00175718     0.00130025
Spot 1     0.00153790     0.00129661
Spot 2     0.00175732     0.00130047
Spot 1     0.00153822     0.00129664
Spot 2     0.00175710     0.00130027
20MABNDM000168_PR001
Spot 1     0.00080708     0.00161565
Spot 2     0.00070431     0.00161979
Spot 1     0.00080731     0.00161579
Spot 2     0.00070422     0.00161983
Spot 1     0.00080681     0.00161582
Spot 2     0.00070430     0.00162010
Spot 1     0.00080711     0.00161565
Spot 2     0.00070435     0.00162040
20MABNDL000196_PR036
Spot 1     0.00095740     0.00164361
Spot 2     0.00112300     0.00164312
Spot 1     0.00095756     0.00164378
Spot 2     0.00112300     0.00164312
Spot 1     0.00095757     0.00164391
Spot 2     0.00112289     0.00164307
Spot 1     0.00095739     0.00164385
Spot 2     0.00112309     0.00164286
20MABNDL000196_PR037
Spot 1     0.00248203     0.00116436
Spot 2     0.00263723     0.00116221
Spot 1     0.00248186     0.00116436
Spot 2     0.00263728     0.00116241
Spot 1     0.00248194     0.00116429
Spot 2     0.00263720     0.00116242
Spot 1     0.00248165     0.00116424
Spot 2     0.00263721     0.00116246
20MABNDL000196_20MABNDM000020
Spot 1     0.00195189     0.00102996
Spot 2     0.00173003     0.00102928
Spot 1     0.00195208     0.00103003
Spot 2     0.00173026     0.00102949
Spot 1     0.00195181     0.00103017
Spot 2     0.00173026     0.00102963
Spot 1     0.00195186     0.00103008
Spot 2     0.00173030     0.00102973
20MABNDL000196_PR012
Spot 1     0.00324500     0.00011500
Spot 2     0.00324500     0.00011500
Spot 1     0.00324500     0.00011500
Spot 2     0.00324500     0.00011500
Spot 1     0.00324500     0.00011500
Spot 2     0.00324500     0.00011500
Spot 1     0.00324500     0.00011500
Spot 2     0.00324500     0.00011500


****************************************************************coordonnees images transformees dans le repere MOUNT************************************************************************* 
20MABNDB000069_PR031
Spot 1    -0.01360091    -0.01286635    -0.07388500
Spot 2    -0.01351848    -0.01286856    -0.07388500
Spot 1    -0.01360111    -0.01286637    -0.07388500
Spot 2    -0.01351845    -0.01286845    -0.07388500
Spot 1    -0.01360108    -0.01286623    -0.07388500
Spot 2    -0.01351822    -0.01286832    -0.07388500
Spot 1    -0.01360079    -0.01286652    -0.07388500
Spot 2    -0.01351826    -0.01286832    -0.07388500
Spot 1    -0.01360058    -0.01286657    -0.07388500
Spot 2    -0.01351842    -0.01286816    -0.07388500
20MABNDB000069_PR033
Spot 1    -0.01202032    -0.01231837    -0.07388500
Spot 2    -0.01154894    -0.01231807    -0.07388500
Spot 1    -0.01202036    -0.01231824    -0.07388500
Spot 2    -0.01154873    -0.01231801    -0.07388500
Spot 1    -0.01202026    -0.01231822    -0.07388500
Spot 2    -0.01154872    -0.01231815    -0.07388500
Spot 1    -0.01202041    -0.01231823    -0.07388500
Spot 2    -0.01154877    -0.01231801    -0.07388500
Spot 1    -0.01202036    -0.01231808    -0.07388500
Spot 2    -0.01154882    -0.01231818    -0.07388500
20MABNDB000131_PR032
Spot 1    -0.01144099    -0.01302966    -0.07533000
Spot 2    -0.01138072    -0.01302654    -0.07533000
Spot 1    -0.01144079    -0.01302982    -0.07533000
Spot 2    -0.01138078    -0.01302637    -0.07533000
Spot 1    -0.01144101    -0.01302994    -0.07533000
Spot 2    -0.01138074    -0.01302661    -0.07533000
Spot 1    -0.01144077    -0.01302998    -0.07533000
Spot 2    -0.01138076    -0.01302648    -0.07533000
Spot 1    -0.01144092    -0.01302982    -0.07533000
Spot 2    -0.01138101    -0.01302639    -0.07533000
20MABNDB000131_PR034
Spot 1    -0.01328892    -0.01376746    -0.07533000
Spot 2    -0.01311273    -0.01376755    -0.07533000
Spot 1    -0.01328916    -0.01376729    -0.07533000
Spot 2    -0.01311284    -0.01376749    -0.07533000
Spot 1    -0.01328906    -0.01376740    -0.07533000
Spot 2    -0.01311298    -0.01376754    -0.07533000
Spot 1    -0.01328900    -0.01376739    -0.07533000
Spot 2    -0.01311298    -0.01376754    -0.07533000
Spot 1    -0.01328906    -0.01376740    -0.07533000
Spot 2    -0.01311301    -0.01376772    -0.07533000
20MABNDA000208_PR042
Spot 1    -0.01392627     0.01304913    -0.07273700
Spot 2    -0.01385662     0.01304824    -0.07273700
Spot 1    -0.01392676     0.01304904    -0.07273700
Spot 2    -0.01385911     0.01304871    -0.07273700
Spot 1    -0.01392648     0.01304965    -0.07273700
Spot 2    -0.01385717     0.01304793    -0.07273700
Spot 1    -0.01392662     0.01304933    -0.07273700
Spot 2    -0.01385759     0.01304910    -0.07273700
Spot 1    -0.01392694     0.01305019    -0.07273700
Spot 2    -0.01385889     0.01304946    -0.07273700
20MABNDA000208_PR046
Spot 1    -0.01232828     0.01188851    -0.07273700
Spot 2    -0.01185332     0.01188489    -0.07273700
Spot 1    -0.01232830     0.01188860    -0.07273700
Spot 2    -0.01185364     0.01188519    -0.07273700
Spot 1    -0.01232862     0.01188898    -0.07273700
Spot 2    -0.01185371     0.01188496    -0.07273700
Spot 1    -0.01232843     0.01188916    -0.07273700
Spot 2    -0.01185361     0.01188489    -0.07273700
Spot 1    -0.01232823     0.01188863    -0.07273700
Spot 2    -0.01185347     0.01188504    -0.07273700
20MABNDA000035_PR044
Spot 1    -0.01157645     0.01299197    -0.07483200
Spot 2    -0.01151707     0.01299743    -0.07483200
Spot 1    -0.01157624     0.01299202    -0.07483200
Spot 2    -0.01151722     0.01299723    -0.07483200
Spot 1    -0.01157631     0.01299176    -0.07483200
Spot 2    -0.01151727     0.01299718    -0.07483200
Spot 1    -0.01157616     0.01299189    -0.07483200
Spot 2    -0.01151717     0.01299718    -0.07483200
Spot 1    -0.01157622     0.01299227    -0.07483200
Spot 2    -0.01151731     0.01299736    -0.07483200
20MABNDA000035_PR045
Spot 1    -0.01337721     0.01375884    -0.07483200
Spot 2    -0.01320005     0.01375887    -0.07483200
Spot 1    -0.01337759     0.01375896    -0.07483200
Spot 2    -0.01319970     0.01375873    -0.07483200
Spot 1    -0.01337749     0.01375886    -0.07483200
Spot 2    -0.01319987     0.01375867    -0.07483200
Spot 1    -0.01337736     0.01375889    -0.07483200
Spot 2    -0.01319970     0.01375879    -0.07483200
Spot 1    -0.01337753     0.01375877    -0.07483200
Spot 2    -0.01319985     0.01375884    -0.07483200
20MABNDL000077_PR002
Spot 1     0.01186551     0.03556992    -0.07463200
Spot 2     0.01202769     0.03556850    -0.07463200
Spot 1     0.01186543     0.03556964    -0.07463200
Spot 2     0.01202777     0.03556827    -0.07463200
Spot 1     0.01186554     0.03557109    -0.07463200
Spot 2     0.01202786     0.03556823    -0.07463200
Spot 1     0.01186558     0.03556982    -0.07463200
Spot 2     0.01202785     0.03556826    -0.07463200
Spot 1     0.01186564     0.03556971    -0.07463200
Spot 2     0.01202791     0.03556826    -0.07463200
20MABNDL000077_PR003
Spot 1     0.01259375     0.03526012    -0.07463200
Spot 2     0.01274411     0.03525744    -0.07463200
Spot 1     0.01259404     0.03525996    -0.07463200
Spot 2     0.01274410     0.03525732    -0.07463200
Spot 1     0.01259408     0.03525905    -0.07463200
Spot 2     0.01274440     0.03525704    -0.07463200
Spot 1     0.01259385     0.03525614    -0.07463200
Spot 2     0.01274457     0.03525711    -0.07463200
Spot 1     0.01259390     0.03525627    -0.07463200
Spot 2     0.01274448     0.03525699    -0.07463200
20MABNDL000077_20MABNDM000168
Spot 1    -0.01272252     0.03554940    -0.00695400
Spot 2    -0.01191995     0.03425481    -0.00695400
Spot 1    -0.01272255     0.03554945    -0.00695400
Spot 2    -0.01109266     0.03452330    -0.00695400
Spot 1    -0.01272250     0.03554925    -0.00695400
Spot 2    -0.01288904     0.03611499    -0.00695400
Spot 1    -0.01272244     0.03554924    -0.00695400
Spot 2    -0.01288904     0.03611499    -0.00695400
Spot 1    -0.01272244     0.03554917    -0.00695400
Spot 2    -0.01288904     0.03611499    -0.00695400
20MABNDL000077_PR024
Spot 1    -0.01346865     0.03577076    -0.00695400
Spot 2    -0.01357073     0.03577324    -0.00695400
Spot 1    -0.01346838     0.03577061    -0.00695400
Spot 2    -0.01357061     0.03577321    -0.00695400
Spot 1    -0.01346836     0.03577023    -0.00695400
Spot 2    -0.01357060     0.03577312    -0.00695400
Spot 1    -0.01346808     0.03577021    -0.00695400
Spot 2    -0.01357050     0.03577302    -0.00695400
Spot 1    -0.01346812     0.03577023    -0.00695400
Spot 2    -0.01357042     0.03577295    -0.00695400
20MABNDM000020_PR013
Spot 1    -0.01270215    -0.03609705    -0.00523500
Spot 2    -0.01285468    -0.03610520    -0.00523500
Spot 1    -0.01270274    -0.03609774    -0.00523500
Spot 2    -0.01285513    -0.03610585    -0.00523500
Spot 1    -0.01270237    -0.03609757    -0.00523500
Spot 2    -0.01285533    -0.03610641    -0.00523500
Spot 1    -0.01270312    -0.03609724    -0.00523500
Spot 2    -0.01285522    -0.03610644    -0.00523500
Spot 1    -0.01270201    -0.03609669    -0.00523500
Spot 2    -0.01285496    -0.03610517    -0.00523500
20MABNDM000020_PR014
Spot 1    -0.01166214    -0.03621392    -0.00523500
Spot 2    -0.01182491    -0.03622561    -0.00523500
Spot 1    -0.01166276    -0.03621523    -0.00523500
Spot 2    -0.01182425    -0.03622647    -0.00523500
Spot 1    -0.01166255    -0.03621543    -0.00523500
Spot 2    -0.01182438    -0.03622583    -0.00523500
Spot 1    -0.01166263    -0.03621451    -0.00523500
Spot 2    -0.01182492    -0.03622479    -0.00523500
20MABNDM000020_20MABNDL000196
Spot 1     0.01268448    -0.03454791    -0.07583800
Spot 2     0.01238113    -0.03407361    -0.07583800
Spot 1     0.01268480    -0.03454782    -0.07583800
Spot 2     0.01238113    -0.03407361    -0.07583800
Spot 1     0.01268463    -0.03454768    -0.07583800
Spot 2     0.01238113    -0.03407361    -0.07583800
Spot 1     0.01268472    -0.03454751    -0.07583800
Spot 2     0.01238113    -0.03407361    -0.07583800
20MABNDM000020_PR035
Spot 1     0.01341788    -0.03484288    -0.07583800
Spot 2     0.01348856    -0.03487424    -0.07583800
Spot 1     0.01341819    -0.03484313    -0.07583800
Spot 2     0.01348864    -0.03487423    -0.07583800
Spot 1     0.01341800    -0.03484334    -0.07583800
Spot 2     0.01348861    -0.03487423    -0.07583800
Spot 1     0.01341752    -0.03484320    -0.07583800
Spot 2     0.01348875    -0.03487423    -0.07583800
20MABNDA000188_PR008
Spot 1    -0.01408672     0.01329041    -0.07502000
Spot 2    -0.01432387     0.01401246    -0.07502000
Spot 1    -0.01408672     0.01329041    -0.07502000
Spot 2    -0.01438131     0.01392295    -0.07502000
Spot 1    -0.01408672     0.01329041    -0.07502000
Spot 2    -0.01408672     0.01329041    -0.07502000
Spot 1    -0.01408672     0.01329041    -0.07502000
Spot 2    -0.01433054     0.01401252    -0.07502000
20MABNDA000188_PR018
Spot 1    -0.01267896     0.01230257    -0.07502000
Spot 2    -0.01221145     0.01230054    -0.07502000
Spot 1    -0.01267908     0.01230280    -0.07502000
Spot 2    -0.01221137     0.01230050    -0.07502000
Spot 1    -0.01267881     0.01230249    -0.07502000
Spot 2    -0.01221132     0.01230066    -0.07502000
Spot 1    -0.01267905     0.01230242    -0.07502000
Spot 2    -0.01221138     0.01230057    -0.07502000
20MABNDA000039_PR009
Spot 1    -0.01162366     0.01307117    -0.07444800
Spot 2    -0.01157606     0.01306672    -0.07444800
Spot 1    -0.01162408     0.01307127    -0.07444800
Spot 2    -0.01157611     0.01306687    -0.07444800
Spot 1    -0.01162346     0.01307097    -0.07444800
Spot 2    -0.01157582     0.01306683    -0.07444800
Spot 1    -0.01162314     0.01307092    -0.07444800
Spot 2    -0.01157627     0.01306688    -0.07444800
20MABNDA000039_PR011
Spot 1    -0.01372192     0.01397691    -0.07444800
Spot 2    -0.01354624     0.01398127    -0.07444800
Spot 1    -0.01372183     0.01397689    -0.07444800
Spot 2    -0.01354621     0.01398126    -0.07444800
Spot 1    -0.01372167     0.01397690    -0.07444800
Spot 2    -0.01354613     0.01398126    -0.07444800
Spot 1    -0.01372168     0.01397688    -0.07444800
Spot 2    -0.01354608     0.01398120    -0.07444800
20MABNDB000155_PR020
Spot 1    -0.01365153    -0.01313431    -0.07501700
Spot 2    -0.01358251    -0.01313770    -0.07501700
Spot 1    -0.01365067    -0.01313436    -0.07501700
Spot 2    -0.01358202    -0.01313789    -0.07501700
Spot 1    -0.01365034    -0.01313453    -0.07501700
Spot 2    -0.01358274    -0.01313794    -0.07501700
Spot 1    -0.01365028    -0.01313473    -0.07501700
Spot 2    -0.01358248    -0.01313776    -0.07501700
20MABNDB000155_PR022
Spot 1    -0.01218687    -0.01288706    -0.07501700
Spot 2    -0.01171303    -0.01288546    -0.07501700
Spot 1    -0.01218683    -0.01288693    -0.07501700
Spot 2    -0.01171314    -0.01288536    -0.07501700
Spot 1    -0.01218691    -0.01288698    -0.07501700
Spot 2    -0.01171328    -0.01288557    -0.07501700
Spot 1    -0.01218667    -0.01288696    -0.07501700
Spot 2    -0.01171325    -0.01288515    -0.07501700
20MABNDB000010_PR021
Spot 1    -0.01158431    -0.01292250    -0.07358200
Spot 2    -0.01152860    -0.01291889    -0.07358200
Spot 1    -0.01158433    -0.01292276    -0.07358200
Spot 2    -0.01152851    -0.01291884    -0.07358200
Spot 1    -0.01158448    -0.01292281    -0.07358200
Spot 2    -0.01152873    -0.01291912    -0.07358200
Spot 1    -0.01158405    -0.01292263    -0.07358200
Spot 2    -0.01152892    -0.01291864    -0.07358200
20MABNDB000010_PR023
Spot 1    -0.01312942    -0.01377468    -0.07358200
Spot 2    -0.01295424    -0.01377288    -0.07358200
Spot 1    -0.01312947    -0.01377486    -0.07358200
Spot 2    -0.01295429    -0.01377319    -0.07358200
Spot 1    -0.01312912    -0.01377463    -0.07358200
Spot 2    -0.01295406    -0.01377298    -0.07358200
Spot 1    -0.01312915    -0.01377465    -0.07358200
Spot 2    -0.01295419    -0.01377304    -0.07358200
20MABNDB000212_PR029
Spot 1    -0.01182334    -0.01325848    -0.07390500
Spot 2    -0.01219050    -0.01325462    -0.07390500
Spot 1    -0.01182323    -0.01325835    -0.07390500
Spot 2    -0.01219073    -0.01325467    -0.07390500
Spot 1    -0.01182322    -0.01325828    -0.07390500
Spot 2    -0.01219056    -0.01325427    -0.07390500
Spot 1    -0.01182343    -0.01325844    -0.07390500
Spot 2    -0.01219084    -0.01325397    -0.07390500
20MABNDB000128_PR030
Spot 1    -0.01246930    -0.01222485    -0.07353400
Spot 2    -0.01226378    -0.01222995    -0.07353400
Spot 1    -0.01246943    -0.01222520    -0.07353400
Spot 2    -0.01226373    -0.01223012    -0.07353400
Spot 1    -0.01246911    -0.01222510    -0.07353400
Spot 2    -0.01226354    -0.01223012    -0.07353400
Spot 1    -0.01246911    -0.01222510    -0.07353400
Spot 2    -0.01226368    -0.01223002    -0.07353400
20MABNDA000444_PR040
Spot 1    -0.01171921     0.01365800    -0.07412000
Spot 2    -0.01208659     0.01365676    -0.07412000
Spot 1    -0.01171940     0.01365787    -0.07412000
Spot 2    -0.01208649     0.01365624    -0.07412000
Spot 1    -0.01171931     0.01365786    -0.07412000
Spot 2    -0.01208665     0.01365668    -0.07412000
Spot 1    -0.01171941     0.01365808    -0.07412000
Spot 2    -0.01208693     0.01365709    -0.07412000
20MABNDA000053_PR041
Spot 1    -0.01219754     0.01213054    -0.07430100
Spot 2    -0.01240222     0.01213064    -0.07430100
Spot 1    -0.01219739     0.01213066    -0.07430100
Spot 2    -0.01240213     0.01213056    -0.07430100
Spot 1    -0.01219745     0.01213025    -0.07430100
Spot 2    -0.01240231     0.01213024    -0.07430100
Spot 1    -0.01219752     0.01213044    -0.07430100
Spot 2    -0.01240237     0.01213027    -0.07430100
20MABNDA000196_PR006
Spot 1    -0.01293644     0.01322032    -0.07967100
Spot 2    -0.01257062     0.01321757    -0.07967100
Spot 1    -0.01293688     0.01321997    -0.07967100
Spot 2    -0.01257063     0.01321764    -0.07967100
Spot 1    -0.01293654     0.01322014    -0.07967100
Spot 2    -0.01257057     0.01321757    -0.07967100
Spot 1    -0.01293673     0.01321987    -0.07967100
Spot 2    -0.01257064     0.01321749    -0.07967100
20MABNDA000324_PR007
Spot 1    -0.01255834     0.01282598    -0.07446800
Spot 2    -0.01235280     0.01282204    -0.07446800
Spot 1    -0.01255842     0.01282611    -0.07446800
Spot 2    -0.01235222     0.01282205    -0.07446800
Spot 1    -0.01255842     0.01282596    -0.07446800
Spot 2    -0.01235220     0.01282193    -0.07446800
Spot 1    -0.01255818     0.01282620    -0.07446800
Spot 2    -0.01235225     0.01282202    -0.07446800
20MABNDB000001_PR017
Spot 1    -0.01229994    -0.01351863    -0.07418400
Spot 2    -0.01193020    -0.01351321    -0.07418400
Spot 1    -0.01229989    -0.01351852    -0.07418400
Spot 2    -0.01192986    -0.01351351    -0.07418400
Spot 1    -0.01229985    -0.01351853    -0.07418400
Spot 2    -0.01193047    -0.01351307    -0.07418400
Spot 1    -0.01229988    -0.01351845    -0.07418400
Spot 2    -0.01193049    -0.01351313    -0.07418400
20MABNDB000260_PR019
Spot 1    -0.01240918    -0.01241521    -0.07492700
Spot 2    -0.01220567    -0.01241203    -0.07492700
Spot 1    -0.01240926    -0.01241546    -0.07492700
Spot 2    -0.01220531    -0.01241228    -0.07492700
Spot 1    -0.01240899    -0.01241526    -0.07492700
Spot 2    -0.01220530    -0.01241205    -0.07492700
Spot 1    -0.01240911    -0.01241547    -0.07492700
Spot 2    -0.01220549    -0.01241208    -0.07492700
20MABNDB000135_PR027
Spot 1    -0.01251443    -0.01319689    -0.07464700
Spot 2    -0.01229550    -0.01319717    -0.07464700
Spot 1    -0.01251467    -0.01319689    -0.07464700
Spot 2    -0.01229537    -0.01319714    -0.07464700
Spot 1    -0.01251436    -0.01319679    -0.07464700
Spot 2    -0.01229562    -0.01319710    -0.07464700
Spot 1    -0.01251445    -0.01319680    -0.07464700
Spot 2    -0.01229552    -0.01319705    -0.07464700
20MABNDB000126_PR028
Spot 1    -0.01253676    -0.01217737    -0.07500400
Spot 2    -0.01225347    -0.01217350    -0.07500400
Spot 1    -0.01253678    -0.01217729    -0.07500400
Spot 2    -0.01225337    -0.01217374    -0.07500400
Spot 1    -0.01253670    -0.01217748    -0.07500400
Spot 2    -0.01225345    -0.01217377    -0.07500400
Spot 1    -0.01253665    -0.01217714    -0.07500400
Spot 2    -0.01225341    -0.01217386    -0.07500400
20MABNDA000272_PR038
Spot 1    -0.01276079     0.01315877    -0.07417900
Spot 2    -0.01253841     0.01315914    -0.07417900
Spot 1    -0.01276055     0.01315844    -0.07417900
Spot 2    -0.01253807     0.01315875    -0.07417900
Spot 1    -0.01276055     0.01315834    -0.07417900
Spot 2    -0.01253832     0.01315916    -0.07417900
Spot 1    -0.01276061     0.01315862    -0.07417900
Spot 2    -0.01253796     0.01315885    -0.07417900
20MABNDA000003_PR039
Spot 1    -0.01280317     0.01212942    -0.07373400
Spot 2    -0.01308180     0.01212932    -0.07373400
Spot 1    -0.01280323     0.01212937    -0.07373400
Spot 2    -0.01308204     0.01212928    -0.07373400
Spot 1    -0.01280313     0.01212952    -0.07373400
Spot 2    -0.01308167     0.01212935    -0.07373400
Spot 1    -0.01280308     0.01212942    -0.07373400
Spot 2    -0.01308157     0.01212928    -0.07373400
20MABNDA000318_PR004
Spot 1    -0.01286775     0.01247414    -0.07310600
Spot 2    -0.01264952     0.01247462    -0.07310600
Spot 1    -0.01286776     0.01247408    -0.07310600
Spot 2    -0.01264940     0.01247488    -0.07310600
Spot 1    -0.01286782     0.01247412    -0.07310600
Spot 2    -0.01264947     0.01247484    -0.07310600
Spot 1    -0.01286787     0.01247404    -0.07310600
Spot 2    -0.01264940     0.01247520    -0.07310600
20MABNDA000334_PR005
Spot 1    -0.01311929     0.01254614    -0.07324100
Spot 2    -0.01283878     0.01254524    -0.07324100
Spot 1    -0.01311908     0.01254646    -0.07324100
Spot 2    -0.01283890     0.01254564    -0.07324100
Spot 1    -0.01311906     0.01254635    -0.07324100
Spot 2    -0.01283860     0.01254574    -0.07324100
Spot 1    -0.01311917     0.01254648    -0.07324100
Spot 2    -0.01283879     0.01254554    -0.07324100
20MABNDB000317_PR015
Spot 1    -0.01266638    -0.01249654    -0.07326100
Spot 2    -0.01244642    -0.01249943    -0.07326100
Spot 1    -0.01266644    -0.01249647    -0.07326100
Spot 2    -0.01244673    -0.01249942    -0.07326100
Spot 1    -0.01266647    -0.01249655    -0.07326100
Spot 2    -0.01244664    -0.01250003    -0.07326100
Spot 1    -0.01266612    -0.01249655    -0.07326100
Spot 2    -0.01244665    -0.01249929    -0.07326100
20MABNDB000146_PR016
Spot 1    -0.01248793    -0.01245671    -0.07450500
Spot 2    -0.01276336    -0.01246111    -0.07450500
Spot 1    -0.01248792    -0.01245656    -0.07450500
Spot 2    -0.01276336    -0.01246111    -0.07450500
Spot 1    -0.01248805    -0.01245656    -0.07450500
Spot 2    -0.01276337    -0.01245861    -0.07450500
Spot 1    -0.01248799    -0.01245641    -0.07450500
Spot 2    -0.01276336    -0.01246111    -0.07450500
20MABNDM000168_PR025
Spot 1    -0.01379305    -0.03443461    -0.00532900
Spot 2    -0.01379305    -0.03443461    -0.00532900
Spot 1    -0.01271576    -0.03438248    -0.00532900
Spot 2    -0.01271995    -0.03437833    -0.00532900
Spot 1    -0.01420150    -0.03479637    -0.00532900
Spot 2    -0.01420150    -0.03479637    -0.00532900
Spot 1    -0.01420150    -0.03479637    -0.00532900
Spot 2    -0.01420150    -0.03479637    -0.00532900
20MABNDM000168_PR026
Spot 1    -0.01256098    -0.03444732    -0.00532900
Spot 2    -0.01245722    -0.03439087    -0.00532900
Spot 1    -0.01105526    -0.03437885    -0.00532900
Spot 2    -0.01100718    -0.03439864    -0.00532900
Spot 1    -0.01105526    -0.03437885    -0.00532900
Spot 2    -0.01225997    -0.03437135    -0.00532900
Spot 1    -0.01140126    -0.03484434    -0.00532900
Spot 2    -0.01140126    -0.03484434    -0.00532900
20MABNDM000168_20MABNDL000077
Spot 1     0.01288741    -0.03529717    -0.07445100
Spot 2     0.01266805    -0.03529766    -0.07445100
Spot 1     0.01288738    -0.03529711    -0.07445100
Spot 2     0.01266830    -0.03529773    -0.07445100
Spot 1     0.01288761    -0.03529730    -0.07445100
Spot 2     0.01266816    -0.03529795    -0.07445100
Spot 1     0.01288729    -0.03529732    -0.07445100
Spot 2     0.01266838    -0.03529775    -0.07445100
20MABNDM000168_PR001
Spot 1     0.01361369    -0.03562699    -0.07445100
Spot 2     0.01371638    -0.03563264    -0.07445100
Spot 1     0.01361345    -0.03562713    -0.07445100
Spot 2     0.01371647    -0.03563268    -0.07445100
Spot 1     0.01361395    -0.03562717    -0.07445100
Spot 2     0.01371639    -0.03563295    -0.07445100
Spot 1     0.01361366    -0.03562699    -0.07445100
Spot 2     0.01371634    -0.03563325    -0.07445100
20MABNDL000196_PR036
Spot 1     0.01193732     0.03583233    -0.07483600
Spot 2     0.01210292     0.03583219    -0.07483600
Spot 1     0.01193748     0.03583250    -0.07483600
Spot 2     0.01210292     0.03583219    -0.07483600
Spot 1     0.01193749     0.03583263    -0.07483600
Spot 2     0.01210281     0.03583214    -0.07483600
Spot 1     0.01193731     0.03583257    -0.07483600
Spot 2     0.01210301     0.03583193    -0.07483600
20MABNDL000196_PR037
Spot 1     0.01346294     0.03535626    -0.07483600
Spot 2     0.01361815     0.03535444    -0.07483600
Spot 1     0.01346277     0.03535626    -0.07483600
Spot 2     0.01361820     0.03535464    -0.07483600
Spot 1     0.01346285     0.03535619    -0.07483600
Spot 2     0.01361812     0.03535465    -0.07483600
Spot 1     0.01346256     0.03535614    -0.07483600
Spot 2     0.01361813     0.03535469    -0.07483600
20MABNDL000196_20MABNDM000020
Spot 1    -0.01277570     0.03530064    -0.00611000
Spot 2    -0.01255387     0.03530443    -0.00611000
Spot 1    -0.01277589     0.03530071    -0.00611000
Spot 2    -0.01255411     0.03530463    -0.00611000
Spot 1    -0.01277563     0.03530085    -0.00611000
Spot 2    -0.01255411     0.03530477    -0.00611000
Spot 1    -0.01277567     0.03530076    -0.00611000
Spot 2    -0.01255415     0.03530487    -0.00611000
20MABNDL000196_PR012
Spot 1    -0.01405014     0.03435985    -0.00611000
Spot 2    -0.01405014     0.03435985    -0.00611000
Spot 1    -0.01405014     0.03435985    -0.00611000
Spot 2    -0.01405014     0.03435985    -0.00611000
Spot 1    -0.01405014     0.03435985    -0.00611000
Spot 2    -0.01405014     0.03435985    -0.00611000
Spot 1    -0.01405014     0.03435985    -0.00611000
Spot 2    -0.01405014     0.03435985    -0.00611000


*****************************************************************coordonnees du prisme dans le repere MOUNT********************************************************************************** 
20MABNDB000069_PR031
    0.10262291    -0.03829645     9.20355988
    0.10263313    -0.03830178     9.20355988
    0.10261710    -0.03831831     9.20355988
    0.10260189    -0.03830049     9.20355988
    0.10259853    -0.03830711     9.20355988
20MABNDB000069_PR033
   -0.02692809    -0.02599317     1.28394926
   -0.02692961    -0.02599473     1.28394914
   -0.02693051    -0.02599376     1.28394914
   -0.02692884    -0.02599485     1.28394914
   -0.02692875    -0.02599460     1.28394914
20MABNDB000131_PR032
   -0.18829095    -0.03082802    11.00641441
   -0.18830118    -0.03082880    11.00641441
   -0.18828815    -0.03080243    11.00641441
   -0.18830422    -0.03080909    11.00641441
   -0.18827488    -0.03082721    11.00641441
20MABNDB000131_PR034
    0.01417642     0.01503281     3.43339205
    0.01418442     0.01502761     3.43339205
    0.01418532     0.01503126     3.43339205
    0.01418395     0.01503103     3.43339205
    0.01418598     0.01503537     3.43339205
20MABNDA000208_PR042
    0.13185802     0.01397043     9.20145893
    0.13204090     0.01394726     9.20145607
    0.13190404     0.01395758     9.20145798
    0.13193908     0.01390544     9.20145798
    0.13203731     0.01383064     9.20145607
20MABNDA000208_PR046
   -0.02332892     0.03305546     1.28210831
   -0.02332601     0.03305213     1.28210831
   -0.02332268     0.03305086     1.28210855
   -0.02332516     0.03304991     1.28210855
   -0.02332806     0.03305316     1.28210831
20MABNDA000035_PR044
   -0.17963034     0.02792358    11.00802612
   -0.17963466     0.02793458    11.00802612
   -0.17962572     0.02795720    11.00802612
   -0.17964408     0.02794782    11.00802612
   -0.17962901     0.02790675    11.00802612
20MABNDA000035_PR045
    0.01473018    -0.01714902     3.43485260
    0.01473087    -0.01714857     3.43485260
    0.01473249    -0.01714493     3.43485260
    0.01472562    -0.01714830     3.43485260
    0.01473294    -0.01714676     3.43485260
20MABNDL000077_PR002
    0.04951992     0.02154855     3.70691013
    0.04952004     0.02156114     3.70691013
    0.04951501     0.02152612     3.70691013
    0.04951432     0.02155675     3.70691013
    0.04951138     0.02155950     3.70691013
20MABNDL000077_PR003
    0.01389383     0.03692763     3.89605379
    0.01388663     0.03693496     3.89605379
    0.01387784     0.03696568     3.89605379
    0.01387959     0.03703940     3.89605379
    0.01388063     0.03703913     3.89605379
20MABNDL000077_20MABNDM000168
   -0.03896703     0.06211680    -5.46862936
   -0.06884220     0.05241804    -5.46843910
   -0.00396856    -0.00505894    -5.46859264
   -0.00397074    -0.00505860    -5.46859264
   -0.00397076    -0.00505607    -5.46859264
20MABNDL000077_PR024
    0.05238350    -0.00363451    -5.89622211
    0.05236823    -0.00362765    -5.89622307
    0.05236727    -0.00360934    -5.89622307
    0.05235241    -0.00360443    -5.89622307
    0.05235083    -0.00360249    -5.89622307
20MABNDM000020_PR013
   -0.00516152     0.01216890    -3.80216932
   -0.00513595     0.01220222    -3.80216837
   -0.00513988     0.01221181    -3.80216837
   -0.00512409     0.01220446    -3.80216837
   -0.00515808     0.01215930    -3.80216932
20MABNDM000020_PR014
   -0.06765801     0.03177246    -4.74799728
   -0.06765948     0.03184026    -4.74799681
   -0.06766167     0.03182623    -4.74799681
   -0.06764229     0.03176536    -4.74799728
20MABNDM000020_20MABNDL000196
    0.02773976    -0.09269355     5.39451122
    0.02772830    -0.09269679     5.39451122
    0.02773439    -0.09270179     5.39451122
    0.02773117    -0.09270789     5.39451122
20MABNDM000020_PR035
   -0.04205031    -0.05476196     5.80100155
   -0.04206533    -0.05475271     5.80100060
   -0.04205686    -0.05474462     5.80100155
   -0.04204376    -0.05475001     5.80100155
20MABNDA000188_PR008
    0.17246555    -0.05951066     9.20291328
    0.17599049    -0.05401625     9.20288277
    0.15791872    -0.01519257     9.20343781
    0.17287478    -0.05951410     9.20290565
20MABNDA000188_PR018
   -0.01700456     0.02607885     1.28357756
   -0.01700415     0.02607721     1.28357756
   -0.01700688     0.02607844     1.28357756
   -0.01700430     0.02607987     1.28357756
20MABNDA000039_PR009
   -0.17153490     0.02456751    11.00701141
   -0.17150059     0.02454981    11.00701141
   -0.17156702     0.02457423    11.00701141
   -0.17155753     0.02457419    11.00701141
20MABNDA000039_PR011
    0.03057533    -0.02480753     3.43347049
    0.03057260    -0.02480684     3.43347049
    0.03056712    -0.02480704     3.43347049
    0.03056622    -0.02480521     3.43347049
20MABNDB000155_PR020
    0.10252517    -0.00809005     9.20027733
    0.10244271    -0.00807522     9.20027924
    0.10246646    -0.00806200     9.20027733
    0.10244742    -0.00806103     9.20027733
20MABNDB000155_PR022
   -0.02510737    -0.01669219     1.28071570
   -0.02510674    -0.01669415     1.28071570
   -0.02510489    -0.01669198     1.28071570
   -0.02510723    -0.01669569     1.28071570
20MABNDB000010_PR021
   -0.17593050    -0.03415451    11.00694847
   -0.17593518    -0.03413915    11.00694847
   -0.17590840    -0.03411444    11.00694942
   -0.17592523    -0.03416325    11.00694847
20MABNDB000010_PR023
    0.00454159     0.01946656     3.43377781
    0.00454392     0.01947784     3.43377781
    0.00453057     0.01946753     3.43377781
    0.00453420     0.01946942     3.43377781
20MABNDB000212_PR029
   -0.02600496    -0.00894321     1.64223421
   -0.02600366    -0.00894399     1.64223421
   -0.02600569    -0.00894923     1.64223421
   -0.02600022    -0.00895072     1.64223433
20MABNDB000128_PR030
   -0.01873084    -0.04645350     2.95496845
   -0.01872930    -0.04644328     2.95496845
   -0.01873932    -0.04644508     2.95496845
   -0.01873656    -0.04644723     2.95496845
20MABNDA000444_PR040
   -0.02948765     0.00129112     1.64491916
   -0.02948664     0.00129825     1.64491916
   -0.02948593     0.00129355     1.64491916
   -0.02948168     0.00128660     1.64491916
20MABNDA000053_PR041
   -0.02687249     0.05061849     2.95450878
   -0.02687722     0.05061760     2.95450878
   -0.02687262     0.05063204     2.95450854
   -0.02687015     0.05062767     2.95450854
20MABNDA000196_PR006
   -0.01049454     0.01056261     1.64206505
   -0.01048969     0.01056560     1.64206505
   -0.01049407     0.01056457     1.64206505
   -0.01049118     0.01056835     1.64206505
20MABNDA000324_PR007
   -0.02506551     0.02719794     2.95549583
   -0.02507533     0.02719530     2.95549583
   -0.02507557     0.02720062     2.95549583
   -0.02507926     0.02719409     2.95549583
20MABNDB000001_PR017
   -0.02418553    -0.00354440     1.64036357
   -0.02418988    -0.00354239     1.64036357
   -0.02418359    -0.00354704     1.64036357
   -0.02418305    -0.00354727     1.64036357
20MABNDB000260_PR019
   -0.02434943    -0.03772924     2.95628023
   -0.02435495    -0.03771951     2.95628047
   -0.02436049    -0.03772790     2.95628023
   -0.02435448    -0.03772324     2.95628047
20MABNDB000135_PR027
   -0.02098885    -0.00986428     2.74937153
   -0.02098684    -0.00986485     2.74937153
   -0.02098797    -0.00986741     2.74937153
   -0.02098816    -0.00986814     2.74937153
20MABNDB000126_PR028
   -0.02029723    -0.03884862     2.14679670
   -0.02029838    -0.03884634     2.14679670
   -0.02029840    -0.03884321     2.14679670
   -0.02029966    -0.03884678     2.14679670
20MABNDA000272_PR038
   -0.01317075     0.01085696     2.74965858
   -0.01318135     0.01087017     2.74965882
   -0.01317678     0.01086449     2.74965858
   -0.01318228     0.01086505     2.74965858
20MABNDA000003_PR039
   -0.00588995     0.04114421     2.14891672
   -0.00588566     0.04114548     2.14891624
   -0.00589238     0.04114236     2.14891672
   -0.00589452     0.04114480     2.14891672
20MABNDA000318_PR004
   -0.00838644     0.03821409     2.74966049
   -0.00838863     0.03821042     2.74966049
   -0.00838624     0.03821043     2.74966049
   -0.00838660     0.03820529     2.74966049
20MABNDA000334_PR005
   -0.00418673     0.03158647     2.14977217
   -0.00418803     0.03157619     2.14977264
   -0.00419260     0.03157634     2.14977264
   -0.00418831     0.03157733     2.14977264
20MABNDB000317_PR015
   -0.01738364    -0.03406641     2.75128984
   -0.01737688    -0.03406797     2.75128984
   -0.01737794    -0.03405523     2.75128984
   -0.01738415    -0.03406878     2.75128984
20MABNDB000146_PR016
   -0.01344634    -0.03181426     2.15201259
   -0.01344648    -0.03181642     2.15201259
   -0.01344453    -0.03185235     2.15201211
   -0.01344546    -0.03181858     2.15201259
20MABNDM000168_PR025
    0.04218955    -0.08051538    -3.78812456
   -0.01097100    -0.08320012    -3.78849745
    0.06238085    -0.06262769    -3.78794241
    0.06238085    -0.06262769    -3.78794241
20MABNDM000168_PR026
   -0.02174753    -0.08367603    -3.98431277
   -0.09866376    -0.08524385    -3.98335719
   -0.06606928    -0.08596133    -3.98393011
   -0.07941447    -0.06153580    -3.98396063
20MABNDM000168_20MABNDL000077
    0.01141379    -0.03905257     5.38884640
    0.01140589    -0.03905246     5.38884640
    0.01140287    -0.03903804     5.38884640
    0.01140637    -0.03904420     5.38884640
20MABNDM000168_PR001
   -0.05748197    -0.01351912     5.81470490
   -0.05747645    -0.01351222     5.81470490
   -0.05749255    -0.01350036     5.81470490
   -0.05747892    -0.01349552     5.81470490
20MABNDL000196_PR036
    0.05078252     0.00574217     3.68777633
    0.05077860     0.00573799     3.68777633
    0.05078106     0.00573603     3.68777633
    0.05078055     0.00574266     3.68777633
20MABNDL000196_PR037
   -0.02581835     0.02879702     3.88380671
   -0.02581523     0.02879186     3.88380671
   -0.02581524     0.02879341     3.88380671
   -0.02580800     0.02879368     3.88380671
20MABNDL000196_20MABNDM000020
   -0.01387119     0.03897128    -5.47473907
   -0.01385590     0.03896153    -5.47473907
   -0.01386540     0.03895127    -5.47473907
   -0.01386216     0.03895098    -5.47473907
20MABNDL000196_PR012
    0.09369345     0.11246672    -5.91430378
    0.09369345     0.11246672    -5.91430378
    0.09369345     0.11246672    -5.91430378
    0.09369345     0.11246672    -5.91430378


*****************************************************************coordonnees du prisme dans le repere ATLAS********************************************************************************** 
20MABNDB000069_PR031 0.00000000
    3.68433928     3.84875131    -7.90210629
    3.68434954     3.84875131    -7.90210104
    3.68433356     3.84875154    -7.90208435
    3.68431830     3.84875154    -7.90210247
    3.68431497     3.84875154    -7.90209579
20MABNDB000069_PR033 0.00000000
    3.53337097    -4.07045794    -7.87967825
    3.53336930    -4.07045794    -7.87967682
    3.53336859    -4.07045794    -7.87967777
    3.53337026    -4.07045794    -7.87967634
    3.53337026    -4.07045794    -7.87967682
20MABNDB000131_PR032 0.00000000
    3.86909318     3.64756441   -12.94147110
    3.86910319     3.64756441   -12.94147205
    3.86909032     3.64756441   -12.94144535
    3.86910629     3.64756441   -12.94145203
    3.86907697     3.64756441   -12.94147015
20MABNDB000131_PR034 0.00000000
    3.67361236    -3.92562485   -12.89291477
    3.67360449    -3.92562485   -12.89291954
    3.67360353    -3.92562485   -12.89291668
    3.67360497    -3.92562485   -12.89291668
    3.67360282    -3.92562485   -12.89291191
20MABNDA000208_PR042 0.00000000
   -3.68193579     3.84913826    -7.89751577
   -3.68211865     3.84913564    -7.89753866
   -3.68198180     3.84913731    -7.89752865
   -3.68201685     3.84913731    -7.89758062
   -3.68211508     3.84913564    -7.89765549
20MABNDA000208_PR046 0.00000000
   -3.53243566    -4.07031441    -7.87546301
   -3.53243852    -4.07031441    -7.87546635
   -3.53244185    -4.07031393    -7.87546730
   -3.53243947    -4.07031393    -7.87546825
   -3.53243661    -4.07031441    -7.87546539
20MABNDA000035_PR044 0.00000000
   -3.86887145     3.64758134   -12.93360233
   -3.86887574     3.64758134   -12.93361378
   -3.86886692     3.64758134   -12.93363667
   -3.86888528     3.64758134   -12.93362713
   -3.86887026     3.64758134   -12.93358612
20MABNDA000035_PR045 0.00000000
   -3.67599845    -3.92563462   -12.88923550
   -3.67599773    -3.92563462   -12.88923550
   -3.67599607    -3.92563462   -12.88923931
   -3.67600298    -3.92563462   -12.88923645
   -3.67599583    -3.92563462   -12.88923740
20MABNDL000077_PR002 0.00000000
    2.83549237    -3.69499707     6.48619032
    2.83547974    -3.69499683     6.48619032
    2.83551478    -3.69500184     6.48619032
    2.83548403    -3.69500256     6.48619032
    2.83548141    -3.69500566     6.48619032
20MABNDL000077_PR003 0.00000000
    2.82028747    -3.73085165     6.67530489
    2.82028008    -3.73085880     6.67530489
    2.82024932    -3.73086762     6.67530489
    2.82017565    -3.73086572     6.67530489
    2.82017589    -3.73086476     6.67530489
20MABNDL000077_20MABNDM000168 0.00000000
    2.78589582    -3.77215028    -2.68940687
    2.79558516    -3.80202866    -2.68926311
    2.85308266    -3.73717332    -2.68939304
    2.85308242    -3.73717546    -2.68939304
    2.85307980    -3.73717546    -2.68939304
20MABNDL000077_PR024 0.00000000
    2.85125685    -3.68029308    -3.11695099
    2.85124993    -3.68030834    -3.11695194
    2.85123158    -3.68030930    -3.11695194
    2.85122681    -3.68032432    -3.11695194
    2.85122466    -3.68032575    -3.11695194
20MABNDM000020_PR013 0.00000000
   -2.86447787    -3.73431301     6.48601913
   -2.86451125    -3.73433852     6.48601818
   -2.86452079    -3.73433471     6.48601818
   -2.86451340    -3.73435044     6.48601818
   -2.86446834    -3.73431635     6.48601913
20MABNDM000020_PR014 0.00000000
   -2.88387299    -3.67252994     7.43189812
   -2.88394094    -3.67252851     7.43189764
   -2.88392687    -3.67252612     7.43189764
   -2.88386583    -3.67254567     7.43189812
20MABNDM000020_20MABNDL000196 0.00000000
   -2.76146603    -3.76025200    -2.71070480
   -2.76146269    -3.76024055    -2.71070480
   -2.76145768    -3.76024652    -2.71070480
   -2.76145172    -3.76024342    -2.71070480
20MABNDM000020_PR035 0.00000000
   -2.79945755    -3.69014120    -3.11713433
   -2.79946685    -3.69012618    -3.11713338
   -2.79947495    -3.69013453    -3.11713433
   -2.79946947    -3.69014764    -3.11713433
20MABNDA000188_PR008 0.00000000
    3.58577013     3.84926844     8.07144165
    3.58937693     3.84935260     8.06600094
    3.57188129     3.85005975     8.02691650
    3.58617949     3.84926701     8.07145119
20MABNDA000188_PR018 0.00000000
    3.52013636    -4.07061100     7.89735746
    3.52013683    -4.07061100     7.89735937
    3.52013421    -4.07061100     7.89735794
    3.52013683    -4.07061100     7.89735651
20MABNDA000039_PR009 0.00000000
    3.87570691     3.64746952    12.93586159
    3.87567258     3.64746952    12.93584347
    3.87573910     3.64746928    12.93586826
    3.87572956     3.64746928    12.93586826
20MABNDA000039_PR011 0.00000000
    3.66444874    -3.92580557    12.88402939
    3.66445160    -3.92580557    12.88402939
    3.66445708    -3.92580557    12.88402939
    3.66445804    -3.92580557    12.88403130
20MABNDB000155_PR020 0.00000000
   -3.68117785     3.84880948     7.89877701
   -3.68109536     3.84881163     7.89879179
   -3.68111920     3.84880972     7.89880514
   -3.68110013     3.84880972     7.89880610
20MABNDB000155_PR022 0.00000000
   -3.53487349    -4.07043028     7.89136696
   -3.53487420    -4.07043028     7.89136505
   -3.53487587    -4.07043028     7.89136696
   -3.53487372    -4.07043028     7.89136314
20MABNDB000010_PR021 0.00000000
   -3.86176729     3.64768600    12.93598366
   -3.86177206     3.64768600    12.93596840
   -3.86174536     3.64768696    12.93594360
   -3.86176205     3.64768600    12.93599224
20MABNDB000010_PR023 0.00000000
   -3.68512416    -3.92559862    12.88580894
   -3.68512177    -3.92559862    12.88579750
   -3.68513513    -3.92559862    12.88580799
   -3.68513155    -3.92559862    12.88580608
20MABNDB000212_PR029 0.00000000
    2.59968281    -4.19501400    -6.54793119
    2.59968138    -4.19501400    -6.54793167
    2.59968352    -4.19501400    -6.54793692
    2.59967804    -4.19501400    -6.54793835
20MABNDB000128_PR030 0.00000000
    2.61012793    -4.14002323    -6.93166733
    2.61012959    -4.14002323    -6.93167782
    2.61011958    -4.14002323    -6.93167591
    2.61012220    -4.14002323    -6.93167353
20MABNDA000444_PR040 0.00000000
   -2.60466027    -4.19509029    -6.54047155
   -2.60465932    -4.19509029    -6.54047871
   -2.60465860    -4.19509029    -6.54047394
   -2.60465431    -4.19509029    -6.54046679
20MABNDA000053_PR041 0.00000000
   -2.59366941    -4.14012337    -6.92729521
   -2.59366465    -4.14012337    -6.92729568
   -2.59366918    -4.14012337    -6.92728138
   -2.59367180    -4.14012337    -6.92728567
20MABNDA000196_PR006 0.00000000
    2.58495498    -4.19496298     6.54851913
    2.58495021    -4.19496298     6.54852200
    2.58495450    -4.19496298     6.54852104
    2.58495164    -4.19496298     6.54852486
20MABNDA000324_PR007 0.00000000
    2.59424925    -4.13996172     6.94871712
    2.59423947    -4.13996172     6.94871998
    2.59423923    -4.13996172     6.94871473
    2.59423542    -4.13996172     6.94872093
20MABNDB000001_PR017 0.00000000
   -2.59788704    -4.19505215     6.53887272
   -2.59789133    -4.19505215     6.53887033
   -2.59788513    -4.19505215     6.53887510
   -2.59788465    -4.19505215     6.53887558
20MABNDB000260_PR019 0.00000000
   -2.60441279    -4.13995457     6.94291496
   -2.60440707    -4.13995457     6.94292450
   -2.60440159    -4.13995457     6.94291592
   -2.60440755    -4.13995457     6.94292068
20MABNDB000135_PR027 0.00000000
    2.60387444    -4.19700384    -3.82549667
    2.60387635    -4.19700384    -3.82549596
    2.60387540    -4.19700384    -3.82549334
    2.60387516    -4.19700384    -3.82549262
20MABNDB000126_PR028 0.00000000
    2.60561991    -4.19702005    -5.89337111
    2.60561872    -4.19702005    -5.89337349
    2.60561872    -4.19702005    -5.89337683
    2.60561752    -4.19702005    -5.89337301
20MABNDA000272_PR038 0.00000000
   -2.61136603    -4.19698286    -3.82762742
   -2.61135554    -4.19698286    -3.82761407
   -2.61136007    -4.19698286    -3.82761979
   -2.61135459    -4.19698286    -3.82761931
20MABNDA000003_PR039 0.00000000
   -2.61584115    -4.19702053    -5.89162254
   -2.61584544    -4.19702101    -5.89162111
   -2.61583877    -4.19702053    -5.89162445
   -2.61583662    -4.19702053    -5.89162207
20MABNDA000318_PR004 0.00000000
    2.61461687    -4.19698954     3.83378458
    2.61461473    -4.19698954     3.83378816
    2.61461711    -4.19698954     3.83378816
    2.61461663    -4.19698954     3.83379340
20MABNDA000334_PR005 0.00000000
    2.61681175    -4.19703102     5.89767456
    2.61681056    -4.19703054     5.89768457
    2.61680603    -4.19703054     5.89768457
    2.61681032    -4.19703054     5.89768362
20MABNDB000317_PR015 0.00000000
   -2.61122346    -4.19700480     3.83594894
   -2.61123037    -4.19700480     3.83594751
   -2.61122918    -4.19700527     3.83596015
   -2.61122298    -4.19700480     3.83594680
20MABNDB000146_PR016 0.00000000
   -2.61284876    -4.19702530     5.89853621
   -2.61284876    -4.19702530     5.89853382
   -2.61285067    -4.19702578     5.89849806
   -2.61284971    -4.19702530     5.89853144
20MABNDM000168_PR025 0.00000000
    2.77271509    -3.78750277    -6.47873068
    2.77004433    -3.73434162    -6.47912359
    2.79059744    -3.80769873    -6.47854233
    2.79059744    -3.80769873    -6.47854233
20MABNDM000168_PR026 0.00000000
    2.76955938    -3.72363782    -6.67494249
    2.76801205    -3.64672089    -6.67401552
    2.76728582    -3.67931533    -6.67457628
    2.79171491    -3.66597676    -6.67461348
20MABNDM000168_20MABNDL000077 0.00000000
    2.81474304    -3.75332570     2.69822550
    2.81474304    -3.75331783     2.69822550
    2.81475759    -3.75331497     2.69822550
    2.81475139    -3.75331831     2.69822550
20MABNDM000168_PR001 0.00000000
    2.84032059    -3.68427849     3.12405682
    2.84032750    -3.68428397     3.12405682
    2.84033918    -3.68426800     3.12405682
    2.84034419    -3.68428159     3.12405682
20MABNDL000196_PR036 0.00000000
   -2.84786510    -3.69349217    -6.47909927
   -2.84786916    -3.69349599    -6.47909927
   -2.84787130    -3.69349360    -6.47909927
   -2.84786463    -3.69349408    -6.47909927
20MABNDL000196_PR037 0.00000000
   -2.82477880    -3.77026463    -6.67505884
   -2.82478404    -3.77026153    -6.67505884
   -2.82478237    -3.77026153    -6.67505884
   -2.82478213    -3.77025414    -6.67505884
20MABNDL000196_20MABNDM000020 0.00000000
   -2.81440783    -3.74960732     2.68347168
   -2.81441760    -3.74959207     2.68347168
   -2.81442785    -3.74960160     2.68347168
   -2.81442833    -3.74959826     2.68347168
20MABNDL000196_PR012 0.00000000
   -2.74095297    -3.64159966     3.12293458
   -2.74095297    -3.64159966     3.12293458
   -2.74095297    -3.64159966     3.12293458
   -2.74095297    -3.64159966     3.12293458


*****************************************************************Rapport********************************************************************************** 
CAM-ECTC-US-IP_ECTC-US-IP-T    2016.09.19.05.18.13     3.68433113     3.84875145    -7.90209799     0.00001294     0.00000012     0.00000760 0.00000000 VRAI 
CAM-ECTC-US-IP_ECTC-US-IP      2016.09.19.05.18.13     3.53336987    -4.07045794    -7.87967720     0.00000083     0.00000000     0.00000070 0.00000000 VRAI 
CAM-ECTC-US-HO_ECTC-US-HO-T    2016.09.19.05.18.13     3.86909399     3.64756441   -12.94146214     0.00001039     0.00000000     0.00001120 0.00000000 VRAI 
CAM-ECTC-US-HO_ECTC-US-HO      2016.09.19.05.18.13     3.67360563    -3.92562485   -12.89291592     0.00000344     0.00000000     0.00000252 0.00000000 VRAI 
CAM-ECTC-USA-IP_ECTC-USA-IP-T  2016.09.19.05.18.13    -3.68203363     3.84913683    -7.89756384     0.00007267     0.00000103     0.00005072 0.00000000 VRAI 
CAM-ECTC-USA-IP_ECTC-USA-IP    2016.09.19.05.18.13    -3.53243842    -4.07031422    -7.87546606     0.00000218     0.00000023     0.00000180 0.00000000 VRAI 
CAM-ECTC-USA-HO_ECTC-USA-HO-T  2016.09.19.05.18.13    -3.86887393     3.64758134   -12.93361320     0.00000634     0.00000000     0.00001787 0.00000000 VRAI 
CAM-ECTC-USA-HO_ECTC-USA-HO    2016.09.19.05.18.13    -3.67599821    -3.92563462   -12.88923683     0.00000258     0.00000000     0.00000143 0.00000000 VRAI 
CAM-LBA-US_EBA-US-HO-H         2016.09.19.05.18.13     2.83549047    -3.69500079     6.48619032     0.00001291     0.00000339     0.00000000 0.00000000 VRAI 
CAM-LBA-US_JDA-US-H            2016.09.19.05.18.13     2.82023368    -3.73086171     6.67530489     0.00004899     0.00000583     0.00000000 0.00000000 VRAI 
CAM-LBA-US_CAM-LBC-US          2016.09.19.05.18.13     2.82814517    -3.75714064    -2.68936982     0.03069411     0.02621501     0.00005363 0.00000000 VRAI 
CAM-LBA-US_EBC-US-IP-H         2016.09.19.05.18.13     2.85123796    -3.68031216    -3.11695175     0.00001298     0.00001199     0.00000038 0.00000000 VRAI 
CAM-LBA-USA_EBA-USA-HO-H       2016.09.19.05.18.13    -2.86449833    -3.73433061     6.48601856     0.00002105     0.00001404     0.00000047 0.00000000 VRAI 
CAM-LBA-USA_JDA-USA-H          2016.09.19.05.18.13    -2.88390166    -3.67253256     7.43189788     0.00003273     0.00000769     0.00000024 0.00000000 VRAI 
CAM-LBA-USA_CAM-LBC-USA        2016.09.19.05.18.13    -2.76145953    -3.76024562    -2.71070480     0.00000540     0.00000424     0.00000000 0.00000000 VRAI 
CAM-LBA-USA_EBC-USA-IP-H       2016.09.19.05.18.13    -2.79946721    -3.69013739    -3.11713409     0.00000630     0.00000796     0.00000041 0.00000000 VRAI 
CAM-ECTA-US-IP_ECTA-US-IP-T    2016.09.19.05.18.13     3.58330196     3.84948695     8.05895257     0.00673997     0.00033252     0.01862915 0.00000000 VRAI 
CAM-ECTA-US-IP_ECTA-US-IP      2016.09.19.05.18.13     3.52013606    -4.07061100     7.89735782     0.00000108     0.00000000     0.00000103 0.00000000 VRAI 
CAM-ECTA-US-HO_ECTA-US-HO-T    2016.09.19.05.18.13     3.87571204     3.64746940    12.93586040     0.00002561     0.00000012     0.00001015 0.00000000 VRAI 
CAM-ECTA-US-HO_ECTA-US-HO      2016.09.19.05.18.13     3.66445386    -3.92580557    12.88402987     0.00000385     0.00000000     0.00000083 0.00000000 VRAI 
CAM-ECTA-USA-IP_ECTA-USA-IP-T  2016.09.19.05.18.13    -3.68112314     3.84881014     7.89879501     0.00003283     0.00000087     0.00001183 0.00000000 VRAI 
CAM-ECTA-USA-IP_ECTA-USA-IP    2016.09.19.05.18.13    -3.53487432    -4.07043028     7.89136553     0.00000093     0.00000000     0.00000158 0.00000000 VRAI 
CAM-ECTA-USA-HO_ECTA-USA-HO-T  2016.09.19.05.18.13    -3.86176169     3.64768624    12.93597198     0.00001007     0.00000041     0.00001847 0.00000000 VRAI 
CAM-ECTA-USA-HO_ECTA-USA-HO    2016.09.19.05.18.13    -3.68512815    -3.92559862    12.88580513     0.00000540     0.00000000     0.00000452 0.00000000 VRAI 
CAM-JDC-US-IP_JDC-US-IP        2016.09.19.05.18.13     2.59968144    -4.19501400    -6.54793453     0.00000211     0.00000000     0.00000314 0.00000000 VRAI 
CAM-JDC-US-HO_JDC-US-HO        2016.09.19.05.18.13     2.61012483    -4.14002323    -6.93167365     0.00000408     0.00000000     0.00000395 0.00000000 VRAI 
CAM-JDC-USA-IP_JDC-USA-IP      2016.09.19.05.18.13    -2.60465813    -4.19509029    -6.54047275     0.00000228     0.00000000     0.00000430 0.00000000 VRAI 
CAM-JDC-USA-HO_JDC-USA-HO      2016.09.19.05.18.13    -2.59366876    -4.14012337    -6.92728949     0.00000259     0.00000000     0.00000615 0.00000000 VRAI 
CAM-JDA-US-IP_JDA-US-IP        2016.09.19.05.18.13     2.58495283    -4.19496298     6.54852176     0.00000198     0.00000000     0.00000206 0.00000000 VRAI 
CAM-JDA-US-HO_JDA-US-HO        2016.09.19.05.18.13     2.59424084    -4.13996172     6.94871819     0.00000511     0.00000000     0.00000244 0.00000000 VRAI 
CAM-JDA-USA-IP_JDA-USA-IP      2016.09.19.05.18.13    -2.59788704    -4.19505215     6.53887343     0.00000263     0.00000000     0.00000209 0.00000000 VRAI 
CAM-JDA-USA-HO_JDA-USA-HO      2016.09.19.05.18.13    -2.60440725    -4.13995457     6.94291902     0.00000397     0.00000000     0.00000384 0.00000000 VRAI 
CAM-EBC-US-IP_EBC-US-IP        2016.09.19.05.18.13     2.60387534    -4.19700384    -3.82549465     0.00000068     0.00000000     0.00000171 0.00000000 VRAI 
CAM-EBC-US-HO_EBC-US-HO        2016.09.19.05.18.13     2.60561872    -4.19702005    -5.89337361     0.00000084     0.00000000     0.00000206 0.00000000 VRAI 
CAM-EBC-USA-IP_EBC-USA-IP      2016.09.19.05.18.13    -2.61135906    -4.19698286    -3.82762015     0.00000453     0.00000000     0.00000476 0.00000000 VRAI 
CAM-EBC-USA-HO_EBC-USA-HO      2016.09.19.05.18.13    -2.61584049    -4.19702065    -5.89162254     0.00000328     0.00000021     0.00000122 0.00000000 VRAI 
CAM-EBA-US-IP_EBA-US-IP        2016.09.19.05.18.13     2.61461633    -4.19698954     3.83378857     0.00000094     0.00000000     0.00000315 0.00000000 VRAI 
CAM-EBA-US-HO_EBA-US-HO        2016.09.19.05.18.13     2.61680967    -4.19703066     5.89768183     0.00000217     0.00000021     0.00000422 0.00000000 VRAI 
CAM-EBA-USA-IP_EBA-USA-IP      2016.09.19.05.18.13    -2.61122650    -4.19700491     3.83595085     0.00000331     0.00000021     0.00000542 0.00000000 VRAI 
CAM-EBA-USA-HO_EBA-USA-HO      2016.09.19.05.18.13    -2.61284947    -4.19702542     5.89852488     0.00000079     0.00000021     0.00001558 0.00000000 VRAI 
CAM-LBC-US_EBC-US-HO-H         2016.09.19.05.18.13     2.78098857    -3.78431046    -6.47873473     0.00965515     0.03000457     0.00023731 0.00000000 VRAI 
CAM-LBC-US_JDC-US-H            2016.09.19.05.18.13     2.77414304    -3.67891270    -6.67453694     0.01017830     0.02830260     0.00033308 0.00000000 VRAI 
CAM-LBC-US_CAM-LBA-US          2016.09.19.05.18.13     2.81474876    -3.75331920     2.69822550     0.00000613     0.00000396     0.00000000 0.00000000 VRAI 
CAM-LBC-US_EBA-US-IP-H         2016.09.19.05.18.13     2.84033287    -3.68427801     3.12405682     0.00000932     0.00000610     0.00000000 0.00000000 VRAI 
CAM-LBC-USA_EBC-USA-HO-H       2016.09.19.05.18.13    -2.84786755    -3.69349396    -6.47909927     0.00000279     0.00000136     0.00000000 0.00000000 VRAI 
CAM-LBC-USA_JDC-USA-H          2016.09.19.05.18.13    -2.82478184    -3.77026045    -6.67505884     0.00000190     0.00000386     0.00000000 0.00000000 VRAI 
CAM-LBC-USA_CAM-LBA-USA        2016.09.19.05.18.13    -2.81442040    -3.74959981     2.68347168     0.00000843     0.00000552     0.00000000 0.00000000 VRAI 
CAM-LBC-USA_EBA-USA-IP-H       2016.09.19.05.18.13    -2.74095297    -3.64159966     3.12293458     0.00000000     0.00000000     0.00000000 0.00000000 VRAI 
