********** Fichier qui contient une sauvegarde des coordonnees images + coordonnees images transformees dans le repere BCAM (MOUNT) + coordonnees des prismes dans le repere MOUNT********** 
********************************************************************** Unite en metres (m)************************************************************************************************** 

*******************************************************************coordonnees images dans le repere CCD *********************************************************************************** 
20MABNDM000168_PR025
Spot 1     0.00061233     0.00007033
Spot 2     0.00174394     0.00006330
Spot 1     0.00065500     0.00008667
Spot 2     0.00161545     0.00006773
Spot 1     0.00065955     0.00009136
Spot 2     0.00143553     0.00004237
Spot 1     0.00034083     0.00006250
Spot 2     0.00144269     0.00003038
20MABNDM000168_PR026
Spot 1     0.00284033     0.00130419
Spot 2     0.00266546     0.00130747
Spot 1     0.00284056     0.00130410
Spot 2     0.00266547     0.00130755
Spot 1     0.00284059     0.00130422
Spot 2     0.00266557     0.00130775
Spot 1     0.00284011     0.00130397
Spot 2     0.00266552     0.00130768
20MABNDM000168_20MABNDL000077
Spot 1     0.00153774     0.00129685
Spot 2     0.00175624     0.00130089
Spot 1     0.00153781     0.00129646
Spot 2     0.00175588     0.00130083
Spot 1     0.00153771     0.00129687
Spot 2     0.00175620     0.00130111
Spot 1     0.00153782     0.00129673
Spot 2     0.00175634     0.00130117
20MABNDM000168_PR001
Spot 1     0.00080629     0.00161829
Spot 2     0.00070172     0.00162221
Spot 1     0.00080636     0.00161860
Spot 2     0.00070163     0.00162227
Spot 1     0.00080604     0.00161835
Spot 2     0.00070207     0.00162232
Spot 1     0.00080610     0.00161835
Spot 2     0.00070194     0.00162272
20MABNDL000196_PR036
Spot 1     0.00074966     0.00162903
Spot 2     0.00092673     0.00163056
Spot 1     0.00074878     0.00162950
Spot 2     0.00092653     0.00163078
Spot 1     0.00074877     0.00162916
Spot 2     0.00092667     0.00163069
Spot 1     0.00074912     0.00162927
Spot 2     0.00092652     0.00163053
20MABNDL000196_PR037
Spot 1     0.00202611     0.00003926
Spot 2     0.00245384     0.00010241
Spot 1     0.00202739     0.00003674
Spot 2     0.00243613     0.00009142
Spot 1     0.00203056     0.00003656
Spot 2     0.00243306     0.00008684
Spot 1     0.00202500     0.00003833
Spot 2     0.00243874     0.00008764
20MABNDL000196_20MABNDM000020
Spot 1     0.00195165     0.00103377
Spot 2     0.00173045     0.00103301
Spot 1     0.00195188     0.00103358
Spot 2     0.00173055     0.00103294
Spot 1     0.00195190     0.00103333
Spot 2     0.00173050     0.00103299
Spot 1     0.00195157     0.00103343
Spot 2     0.00173038     0.00103310
20MABNDL000196_PR012
Spot 1     0.00073500     0.00047500
Spot 2     0.00073500     0.00047500
Spot 1     0.00073500     0.00047500
Spot 2     0.00315567     0.00069500
Spot 1     0.00315571     0.00069500
Spot 2     0.00315571     0.00069500
Spot 1     0.00073500     0.00047500
Spot 2     0.00315571     0.00069500
20MABNDL000077_PR002
Spot 1     0.00079157     0.00149731
Spot 2     0.00095453     0.00149759
Spot 1     0.00079150     0.00149734
Spot 2     0.00095460     0.00149758
Spot 1     0.00079155     0.00149718
Spot 2     0.00095457     0.00149802
Spot 1     0.00079151     0.00149726
Spot 2     0.00095439     0.00149763
20MABNDL000077_PR003
Spot 1     0.00151921     0.00119321
Spot 2     0.00167128     0.00119479
Spot 1     0.00151908     0.00119321
Spot 2     0.00167137     0.00119453
Spot 1     0.00151919     0.00119337
Spot 2     0.00167111     0.00119481
Spot 1     0.00151900     0.00119305
Spot 2     0.00167124     0.00119479
20MABNDL000077_20MABNDM000168
Spot 1     0.00188271     0.00148452
Spot 2     0.00170091     0.00151727
Spot 1     0.00188256     0.00148463
Spot 2     0.00170026     0.00151711
Spot 1     0.00188258     0.00148470
Spot 2     0.00170045     0.00151727
Spot 1     0.00188265     0.00148469
Spot 2     0.00170045     0.00151682
20MABNDL000077_PR024
Spot 1     0.00235229     0.00160626
Spot 2     0.00241906     0.00160433
Spot 1     0.00235163     0.00160639
Spot 2     0.00241876     0.00160416
Spot 1     0.00235194     0.00160643
Spot 2     0.00241909     0.00160453
Spot 1     0.00235328     0.00160644
Spot 2     0.00241893     0.00160451
20MABNDM000020_PR013
Spot 1     0.00164690     0.00213754
Spot 2     0.00149258     0.00214391
Spot 1     0.00164697     0.00213754
Spot 2     0.00149257     0.00214397
Spot 1     0.00164698     0.00213762
Spot 2     0.00149269     0.00214399
Spot 1     0.00164724     0.00213740
Spot 2     0.00149253     0.00214388
20MABNDM000020_PR014
Spot 1     0.00268046     0.00227814
Spot 2     0.00251742     0.00228442
Spot 1     0.00268061     0.00227822
Spot 2     0.00251743     0.00228447
Spot 1     0.00268048     0.00227824
Spot 2     0.00251734     0.00228448
Spot 1     0.00268059     0.00227814
Spot 2     0.00251735     0.00228439
20MABNDM000020_20MABNDL000196
Spot 1     0.00200180     0.00057697
Spot 2     0.00096500     0.00046500
Spot 1     0.00200153     0.00057690
Spot 2     0.00096500     0.00046500
Spot 1     0.00200171     0.00057691
Spot 2     0.00096500     0.00046500
Spot 1     0.00200176     0.00057707
Spot 2     0.00096500     0.00046500
20MABNDM000020_PR035
Spot 1     0.00154661     0.00080866
Spot 2     0.00151604     0.00082000
Spot 1     0.00154693     0.00080868
Spot 2     0.00151718     0.00082006
Spot 1     0.00154662     0.00080827
Spot 2     0.00151589     0.00082018
Spot 1     0.00154709     0.00080819
Spot 2     0.00151571     0.00081935
20MABNDB000069_PR031
Spot 1     0.00021500     0.00240500
Spot 2     0.00021500     0.00240500
Spot 1     0.00021500     0.00240500
Spot 2     0.00021500     0.00240500
Spot 1     0.00021500     0.00240500
Spot 2     0.00021500     0.00240500
Spot 1     0.00021500     0.00240500
Spot 2     0.00021500     0.00240500
20MABNDB000069_PR033
Spot 1     0.00211500     0.00002500
Spot 2     0.00211500     0.00002500
Spot 1     0.00211500     0.00002500
Spot 2     0.00211500     0.00002500
Spot 1     0.00130500     0.00064500
Spot 2     0.00262500     0.00009500
Spot 1     0.00262500     0.00009500
Spot 2     0.00211500     0.00002500
20MABNDB000131_PR032
Spot 1     0.00310250     0.00021000
Spot 2     0.00318500     0.00179500
Spot 1     0.00323250     0.00012750
Spot 2     0.00318500     0.00179500
Spot 1     0.00267750     0.00076500
Spot 2     0.00318500     0.00179500
Spot 1     0.00323250     0.00012750
Spot 2     0.00318500     0.00179500
20MABNDB000131_PR034
Spot 1     0.00171608     0.00022883
Spot 2     0.00171612     0.00022965
Spot 1     0.00171592     0.00022990
Spot 2     0.00171577     0.00022940
Spot 1     0.00171600     0.00022989
Spot 2     0.00171605     0.00022974
Spot 1     0.00171588     0.00023004
Spot 2     0.00171528     0.00022998
20MABNDA000208_PR042
Spot 1     0.00301500     0.00024500
Spot 2     0.00325500     0.00014500
Spot 1     0.00281500     0.00004500
Spot 2     0.00287500     0.00004500
Spot 1     0.00289500     0.00005500
Spot 2     0.00319500     0.00003500
Spot 1     0.00299500     0.00100500
Spot 2     0.00287500     0.00004500
20MABNDA000208_PR046
Spot 1     0.00254500     0.00012500
Spot 2     0.00257500     0.00017500
Spot 1     0.00068750     0.00042750
Spot 2     0.00103500     0.00007500
Spot 1     0.00178500     0.00007500
Spot 2     0.00223500     0.00092500
Spot 1     0.00054500     0.00005250
Spot 2     0.00102500     0.00231500
20MABNDA000035_PR044
Spot 1     0.00093500     0.00008500
Spot 2     0.00093500     0.00008500
Spot 1     0.00093500     0.00008500
Spot 2     0.00093500     0.00008500
Spot 1     0.00093500     0.00008500
Spot 2     0.00093500     0.00008500
Spot 1     0.00093500     0.00008500
Spot 2     0.00093500     0.00008500
20MABNDA000035_PR045
Spot 1     0.00206500     0.00012500
Spot 2     0.00262500     0.00012500
Spot 1     0.00157500     0.00026500
Spot 2     0.00262500     0.00012500
Spot 1     0.00157500     0.00026500
Spot 2     0.00262500     0.00012500
Spot 1     0.00157500     0.00026500
Spot 2     0.00262500     0.00012500
20MABNDA000318_PR004
Spot 1     0.00215352     0.00162638
Spot 2     0.00193350     0.00162736
Spot 1     0.00215357     0.00162638
Spot 2     0.00193308     0.00162700
Spot 1     0.00215359     0.00162627
Spot 2     0.00193309     0.00162714
Spot 1     0.00215354     0.00162617
Spot 2     0.00193332     0.00162698
20MABNDA000334_PR005
Spot 1     0.00247995     0.00157440
Spot 2     0.00219987     0.00157452
Spot 1     0.00248000     0.00157446
Spot 2     0.00219967     0.00157485
Spot 1     0.00248015     0.00157432
Spot 2     0.00219964     0.00157459
Spot 1     0.00247985     0.00157446
Spot 2     0.00219947     0.00157442
20MABNDB000317_PR015
Spot 1     0.00149091     0.00160703
Spot 2     0.00171182     0.00160235
Spot 1     0.00149084     0.00160689
Spot 2     0.00171180     0.00160239
Spot 1     0.00149090     0.00160686
Spot 2     0.00171166     0.00160236
Spot 1     0.00149098     0.00160698
Spot 2     0.00171173     0.00160238
20MABNDB000146_PR016
Spot 1     0.00144787     0.00133420
Spot 2     0.00172438     0.00133578
Spot 1     0.00144783     0.00133425
Spot 2     0.00172438     0.00133609
Spot 1     0.00144784     0.00133415
Spot 2     0.00172446     0.00133585
Spot 1     0.00144787     0.00133415
Spot 2     0.00172457     0.00133534
20MABNDB000135_PR027
Spot 1     0.00283500     0.00116500
Spot 2     0.00337500     0.00002500
Spot 1     0.00337500     0.00002500
Spot 2     0.00173500     0.00015500
Spot 1     0.00283500     0.00116500
Spot 2     0.00337500     0.00002500
Spot 1     0.00283500     0.00116500
Spot 2     0.00337500     0.00002500
20MABNDB000126_PR028
Spot 1     0.00037500     0.00117500
Spot 2     0.00266500     0.00219500
Spot 1     0.00161500     0.00009500
Spot 2     0.00328357     0.00033643
Spot 1     0.00161500     0.00009500
Spot 2     0.00331500     0.00108500
Spot 1     0.00161500     0.00009500
Spot 2     0.00328318     0.00033682
20MABNDA000272_PR038
Spot 1     0.00036500     0.00009500
Spot 2     0.00070500     0.00012500
Spot 1     0.00036500     0.00009500
Spot 2     0.00249500     0.00015500
Spot 1     0.00036500     0.00009500
Spot 2     0.00070500     0.00012500
Spot 1     0.00036500     0.00009500
Spot 2     0.00070500     0.00012500
20MABNDA000003_PR039
Spot 1     0.00282500     0.00239500
Spot 2     0.00274500     0.00086500
Spot 1     0.00103500     0.00005500
Spot 2     0.00138500     0.00007500
Spot 1     0.00282500     0.00239500
Spot 2     0.00274500     0.00086500
Spot 1     0.00282500     0.00239500
Spot 2     0.00274500     0.00086500
20MABNDA000196_PR006
Spot 1     0.00197529     0.00074940
Spot 2     0.00160597     0.00074636
Spot 1     0.00197517     0.00074938
Spot 2     0.00160588     0.00074632
Spot 1     0.00197532     0.00074942
Spot 2     0.00160588     0.00074682
Spot 1     0.00197524     0.00074946
Spot 2     0.00160586     0.00074648
20MABNDA000324_PR007
Spot 1     0.00195585     0.00121321
Spot 2     0.00174722     0.00121876
Spot 1     0.00195615     0.00121333
Spot 2     0.00174705     0.00121890
Spot 1     0.00195623     0.00121328
Spot 2     0.00174693     0.00121881
Spot 1     0.00195610     0.00121316
Spot 2     0.00174709     0.00121886
20MABNDB000001_PR017
Spot 1     0.00187914     0.00047161
Spot 2     0.00224889     0.00048078
Spot 1     0.00187918     0.00047163
Spot 2     0.00224902     0.00048065
Spot 1     0.00187923     0.00047161
Spot 2     0.00224896     0.00048060
Spot 1     0.00187903     0.00047155
Spot 2     0.00224892     0.00048108
20MABNDB000260_PR019
Spot 1     0.00192494     0.00149538
Spot 2     0.00212833     0.00149426
Spot 1     0.00192489     0.00149569
Spot 2     0.00212900     0.00149467
Spot 1     0.00192506     0.00149575
Spot 2     0.00212900     0.00149433
Spot 1     0.00192512     0.00149553
Spot 2     0.00212907     0.00149463
20MABNDB000212_PR029
Spot 1     0.00235500     0.00029500
Spot 2     0.00177500     0.00007500
Spot 1     0.00235500     0.00029500
Spot 2     0.00177500     0.00007500
Spot 1     0.00235500     0.00029500
Spot 2     0.00177500     0.00007500
Spot 1     0.00235500     0.00029500
Spot 2     0.00177500     0.00007500
20MABNDB000128_PR030
Spot 1     0.00212871     0.00211196
Spot 2     0.00233675     0.00211157
Spot 1     0.00212887     0.00211169
Spot 2     0.00233681     0.00211157
Spot 1     0.00212863     0.00211173
Spot 2     0.00233678     0.00211143
Spot 1     0.00212880     0.00211176
Spot 2     0.00233663     0.00211157
20MABNDA000444_PR040
Spot 1     0.00340667     0.00002167
Spot 2     0.00052500     0.00003500
Spot 1     0.00340500     0.00002300
Spot 2     0.00144700     0.00003500
Spot 1     0.00341591     0.00003136
Spot 2     0.00205667     0.00003500
Spot 1     0.00053200     0.00005600
Spot 2     0.00174214     0.00003071
20MABNDA000053_PR041
Spot 1     0.00214112     0.00174744
Spot 2     0.00192810     0.00174300
Spot 1     0.00214093     0.00174735
Spot 2     0.00192846     0.00174291
Spot 1     0.00214100     0.00174725
Spot 2     0.00192801     0.00174297
Spot 1     0.00214080     0.00174760
Spot 2     0.00192831     0.00174277
20MABNDA000188_PR008
Spot 1     0.00267700     0.00023100
Spot 2     0.00297125     0.00006375
Spot 1     0.00283500     0.00012500
Spot 2     0.00300357     0.00007357
Spot 1     0.00283500     0.00012500
Spot 2     0.00320000     0.00006833
Spot 1     0.00283500     0.00012500
Spot 2     0.00298100     0.00006900
20MABNDA000188_PR018
Spot 1     0.00156047     0.00149797
Spot 2     0.00109143     0.00149576
Spot 1     0.00156040     0.00149786
Spot 2     0.00109165     0.00149573
Spot 1     0.00156042     0.00149797
Spot 2     0.00109155     0.00149597
Spot 1     0.00156039     0.00149790
Spot 2     0.00109171     0.00149587
20MABNDA000039_PR009
Spot 1     0.00066225     0.00121016
Spot 2     0.00061054     0.00121348
Spot 1     0.00066210     0.00121022
Spot 2     0.00061047     0.00121350
Spot 1     0.00066203     0.00121066
Spot 2     0.00061041     0.00121331
20MABNDA000039_PR011
Spot 1     0.00276292     0.00037127
Spot 2     0.00258615     0.00036555
Spot 1     0.00276286     0.00037110
Spot 2     0.00258623     0.00036586
Spot 1     0.00276298     0.00037108
Spot 2     0.00258624     0.00036574
20MABNDB000155_PR020
Spot 1     0.00066695     0.00108221
Spot 2     0.00073750     0.00107819
Spot 1     0.00066676     0.00108215
Spot 2     0.00073807     0.00107811
Spot 1     0.00066641     0.00108227
Spot 2     0.00073759     0.00107829
20MABNDB000155_PR022
Spot 1     0.00221265     0.00110092
Spot 2     0.00268640     0.00109680
Spot 1     0.00221244     0.00110119
Spot 2     0.00268618     0.00109672
Spot 1     0.00221258     0.00110118
Spot 2     0.00268627     0.00109683
20MABNDB000010_PR021
Spot 1     0.00286428     0.00119050
Spot 2     0.00292262     0.00119409
Spot 1     0.00286444     0.00119065
Spot 2     0.00292264     0.00119419
Spot 1     0.00286417     0.00119065
Spot 2     0.00292263     0.00119402
20MABNDB000010_PR023
Spot 1     0.00130650     0.00041800
Spot 2     0.00148275     0.00041687
Spot 1     0.00130662     0.00041794
Spot 2     0.00148275     0.00041671
Spot 1     0.00130648     0.00041806
Spot 2     0.00148242     0.00041677


****************************************************************coordonnees images transformees dans le repere MOUNT************************************************************************* 
20MABNDM000168_PR025
Spot 1    -0.01379582    -0.03440995    -0.00532900
Spot 2    -0.01266425    -0.03439806    -0.00532900
Spot 1    -0.01375308    -0.03442611    -0.00532900
Spot 2    -0.01279272    -0.03440304    -0.00532900
Spot 1    -0.01374851    -0.03443078    -0.00532900
Spot 2    -0.01297275    -0.03437845    -0.00532900
Spot 1    -0.01406735    -0.03440329    -0.00532900
Spot 2    -0.01296564    -0.03436643    -0.00532900
20MABNDM000168_PR026
Spot 1    -0.01156254    -0.03563423    -0.00532900
Spot 2    -0.01173740    -0.03563826    -0.00532900
Spot 1    -0.01156231    -0.03563414    -0.00532900
Spot 2    -0.01173739    -0.03563834    -0.00532900
Spot 1    -0.01156228    -0.03563426    -0.00532900
Spot 2    -0.01173729    -0.03563854    -0.00532900
Spot 1    -0.01156276    -0.03563401    -0.00532900
Spot 2    -0.01173734    -0.03563847    -0.00532900
20MABNDM000168_20MABNDL000077
Spot 1     0.01288777    -0.03529754    -0.07445100
Spot 2     0.01266923    -0.03529838    -0.07445100
Spot 1     0.01288770    -0.03529715    -0.07445100
Spot 2     0.01266959    -0.03529833    -0.07445100
Spot 1     0.01288780    -0.03529756    -0.07445100
Spot 2     0.01266927    -0.03529860    -0.07445100
Spot 1     0.01288769    -0.03529742    -0.07445100
Spot 2     0.01266913    -0.03529866    -0.07445100
20MABNDM000168_PR001
Spot 1     0.01361444    -0.03562964    -0.07445100
Spot 2     0.01371894    -0.03563509    -0.07445100
Spot 1     0.01361436    -0.03562995    -0.07445100
Spot 2     0.01371903    -0.03563516    -0.07445100
Spot 1     0.01361469    -0.03562971    -0.07445100
Spot 2     0.01371859    -0.03563520    -0.07445100
Spot 1     0.01361463    -0.03562971    -0.07445100
Spot 2     0.01371871    -0.03563560    -0.07445100
20MABNDL000196_PR036
Spot 1     0.01172961     0.03581732    -0.07483600
Spot 2     0.01190667     0.03581922    -0.07483600
Spot 1     0.01172873     0.03581779    -0.07483600
Spot 2     0.01190647     0.03581944    -0.07483600
Spot 1     0.01172872     0.03581745    -0.07483600
Spot 2     0.01190661     0.03581935    -0.07483600
Spot 1     0.01172907     0.03581756    -0.07483600
Spot 2     0.01190646     0.03581919    -0.07483600
20MABNDL000196_PR037
Spot 1     0.01300937     0.03423021    -0.07483600
Spot 2     0.01343697     0.03429426    -0.07483600
Spot 1     0.01301066     0.03422770    -0.07483600
Spot 2     0.01341928     0.03428323    -0.07483600
Spot 1     0.01301383     0.03422752    -0.07483600
Spot 2     0.01341622     0.03427864    -0.07483600
Spot 1     0.01300826     0.03422928    -0.07483600
Spot 2     0.01342190     0.03427945    -0.07483600
20MABNDL000196_20MABNDM000020
Spot 1    -0.01277554     0.03530446    -0.00611000
Spot 2    -0.01255437     0.03530815    -0.00611000
Spot 1    -0.01277577     0.03530426    -0.00611000
Spot 2    -0.01255447     0.03530807    -0.00611000
Spot 1    -0.01277578     0.03530401    -0.00611000
Spot 2    -0.01255442     0.03530813    -0.00611000
Spot 1    -0.01277545     0.03530412    -0.00611000
Spot 2    -0.01255430     0.03530824    -0.00611000
20MABNDL000196_PR012
Spot 1    -0.01154789     0.03477028    -0.00611000
Spot 2    -0.01154789     0.03477028    -0.00611000
Spot 1    -0.01154789     0.03477028    -0.00611000
Spot 2    -0.01397250     0.03494153    -0.00611000
Spot 1    -0.01397254     0.03494153    -0.00611000
Spot 2    -0.01397254     0.03494153    -0.00611000
Spot 1    -0.01154789     0.03477028    -0.00611000
Spot 2    -0.01397254     0.03494153    -0.00611000
20MABNDL000077_PR002
Spot 1     0.01186187     0.03557281    -0.07463200
Spot 2     0.01202482     0.03557152    -0.07463200
Spot 1     0.01186180     0.03557284    -0.07463200
Spot 2     0.01202489     0.03557151    -0.07463200
Spot 1     0.01186185     0.03557268    -0.07463200
Spot 2     0.01202487     0.03557195    -0.07463200
Spot 1     0.01186181     0.03557276    -0.07463200
Spot 2     0.01202468     0.03557156    -0.07463200
20MABNDL000077_PR003
Spot 1     0.01258655     0.03526172    -0.07463200
Spot 2     0.01273863     0.03526184    -0.07463200
Spot 1     0.01258642     0.03526172    -0.07463200
Spot 2     0.01273871     0.03526158    -0.07463200
Spot 1     0.01258653     0.03526188    -0.07463200
Spot 2     0.01273846     0.03526186    -0.07463200
Spot 1     0.01258634     0.03526156    -0.07463200
Spot 2     0.01273859     0.03526184    -0.07463200
20MABNDL000077_20MABNDM000168
Spot 1    -0.01272092     0.03554620    -0.00695400
Spot 2    -0.01253947     0.03558081    -0.00695400
Spot 1    -0.01272077     0.03554632    -0.00695400
Spot 2    -0.01253881     0.03558066    -0.00695400
Spot 1    -0.01272079     0.03554639    -0.00695400
Spot 2    -0.01253901     0.03558082    -0.00695400
Spot 1    -0.01272086     0.03554637    -0.00695400
Spot 2    -0.01253900     0.03558037    -0.00695400
20MABNDL000077_PR024
Spot 1    -0.01319172     0.03566313    -0.00695400
Spot 2    -0.01325847     0.03566052    -0.00695400
Spot 1    -0.01319106     0.03566327    -0.00695400
Spot 2    -0.01325817     0.03566035    -0.00695400
Spot 1    -0.01319137     0.03566330    -0.00695400
Spot 2    -0.01325850     0.03566072    -0.00695400
Spot 1    -0.01319271     0.03566330    -0.00695400
Spot 2    -0.01325834     0.03566070    -0.00695400
20MABNDM000020_PR013
Spot 1    -0.01269854    -0.03609564    -0.00523500
Spot 2    -0.01285268    -0.03610542    -0.00523500
Spot 1    -0.01269847    -0.03609563    -0.00523500
Spot 2    -0.01285269    -0.03610548    -0.00523500
Spot 1    -0.01269846    -0.03609571    -0.00523500
Spot 2    -0.01285257    -0.03610549    -0.00523500
Spot 1    -0.01269821    -0.03609549    -0.00523500
Spot 2    -0.01285274    -0.03610539    -0.00523500
20MABNDM000020_PR014
Spot 1    -0.01166213    -0.03621335    -0.00523500
Spot 2    -0.01182499    -0.03622323    -0.00523500
Spot 1    -0.01166198    -0.03621342    -0.00523500
Spot 2    -0.01182498    -0.03622328    -0.00523500
Spot 1    -0.01166210    -0.03621345    -0.00523500
Spot 2    -0.01182507    -0.03622329    -0.00523500
Spot 1    -0.01166200    -0.03621334    -0.00523500
Spot 2    -0.01182506    -0.03622320    -0.00523500
20MABNDM000020_20MABNDL000196
Spot 1     0.01268439    -0.03454554    -0.07583800
Spot 2     0.01372118    -0.03443342    -0.07583800
Spot 1     0.01268466    -0.03454547    -0.07583800
Spot 2     0.01372118    -0.03443342    -0.07583800
Spot 1     0.01268448    -0.03454548    -0.07583800
Spot 2     0.01372118    -0.03443342    -0.07583800
Spot 1     0.01268443    -0.03454564    -0.07583800
Spot 2     0.01372118    -0.03443342    -0.07583800
20MABNDM000020_PR035
Spot 1     0.01313962    -0.03477716    -0.07583800
Spot 2     0.01317019    -0.03478850    -0.07583800
Spot 1     0.01313930    -0.03477718    -0.07583800
Spot 2     0.01316905    -0.03478856    -0.07583800
Spot 1     0.01313961    -0.03477677    -0.07583800
Spot 2     0.01317034    -0.03478868    -0.07583800
Spot 1     0.01313914    -0.03477669    -0.07583800
Spot 2     0.01317052    -0.03478785    -0.07583800
20MABNDB000069_PR031
Spot 1    -0.01361993    -0.01186066    -0.07388500
Spot 2    -0.01361993    -0.01186066    -0.07388500
Spot 1    -0.01361993    -0.01186066    -0.07388500
Spot 2    -0.01361993    -0.01186066    -0.07388500
Spot 1    -0.01361993    -0.01186066    -0.07388500
Spot 2    -0.01361993    -0.01186066    -0.07388500
Spot 1    -0.01361993    -0.01186066    -0.07388500
Spot 2    -0.01361993    -0.01186066    -0.07388500
20MABNDB000069_PR033
Spot 1    -0.01181976    -0.01431704    -0.07388500
Spot 2    -0.01181976    -0.01431704    -0.07388500
Spot 1    -0.01181976    -0.01431704    -0.07388500
Spot 2    -0.01181976    -0.01431704    -0.07388500
Spot 1    -0.01260349    -0.01366415    -0.07388500
Spot 2    -0.01130731    -0.01426815    -0.07388500
Spot 1    -0.01130731    -0.01426815    -0.07388500
Spot 2    -0.01181976    -0.01431704    -0.07388500
20MABNDB000131_PR032
Spot 1    -0.01111329    -0.01390310    -0.07533000
Spot 2    -0.01103877    -0.01231771    -0.07533000
Spot 1    -0.01098287    -0.01398495    -0.07533000
Spot 2    -0.01103877    -0.01231771    -0.07533000
Spot 1    -0.01154107    -0.01335025    -0.07533000
Spot 2    -0.01103877    -0.01231771    -0.07533000
Spot 1    -0.01098287    -0.01398495    -0.07533000
Spot 2    -0.01103877    -0.01231771    -0.07533000
20MABNDB000131_PR034
Spot 1    -0.01249978    -0.01389125    -0.07533000
Spot 2    -0.01249975    -0.01389043    -0.07533000
Spot 1    -0.01249995    -0.01389019    -0.07533000
Spot 2    -0.01250010    -0.01389069    -0.07533000
Spot 1    -0.01249987    -0.01389019    -0.07533000
Spot 2    -0.01249982    -0.01389034    -0.07533000
Spot 1    -0.01249999    -0.01389005    -0.07533000
Spot 2    -0.01250059    -0.01389011    -0.07533000
20MABNDA000208_PR042
Spot 1    -0.01388634     0.01375106    -0.07273700
Spot 2    -0.01412643     0.01385085    -0.07273700
Spot 1    -0.01368652     0.01395123    -0.07273700
Spot 2    -0.01374652     0.01395118    -0.07273700
Spot 1    -0.01376651     0.01394116    -0.07273700
Spot 2    -0.01406652     0.01396090    -0.07273700
Spot 1    -0.01386567     0.01299107    -0.07273700
Spot 2    -0.01374652     0.01395118    -0.07273700
20MABNDA000208_PR046
Spot 1    -0.01341645     0.01387147    -0.07273700
Spot 2    -0.01344640     0.01382144    -0.07273700
Spot 1    -0.01155868     0.01357060    -0.07273700
Spot 2    -0.01190649     0.01392279    -0.07273700
Spot 1    -0.01265649     0.01392214    -0.07273700
Spot 2    -0.01310574     0.01307174    -0.07273700
Spot 1    -0.01141651     0.01394572    -0.07273700
Spot 2    -0.01189453     0.01168280    -0.07273700
20MABNDA000035_PR044
Spot 1    -0.01176131     0.01417362    -0.07483200
Spot 2    -0.01176131     0.01417362    -0.07483200
Spot 1    -0.01176131     0.01417362    -0.07483200
Spot 2    -0.01176131     0.01417362    -0.07483200
Spot 1    -0.01176131     0.01417362    -0.07483200
Spot 2    -0.01176131     0.01417362    -0.07483200
Spot 1    -0.01176131     0.01417362    -0.07483200
Spot 2    -0.01176131     0.01417362    -0.07483200
20MABNDA000035_PR045
Spot 1    -0.01289156     0.01414166    -0.07483200
Spot 2    -0.01345155     0.01414564    -0.07483200
Spot 1    -0.01240257     0.01399817    -0.07483200
Spot 2    -0.01345155     0.01414564    -0.07483200
Spot 1    -0.01240257     0.01399817    -0.07483200
Spot 2    -0.01345155     0.01414564    -0.07483200
Spot 1    -0.01240257     0.01399817    -0.07483200
Spot 2    -0.01345155     0.01414564    -0.07483200
20MABNDA000318_PR004
Spot 1    -0.01287334     0.01246883    -0.07310600
Spot 2    -0.01265332     0.01246850    -0.07310600
Spot 1    -0.01287339     0.01246883    -0.07310600
Spot 2    -0.01265290     0.01246886    -0.07310600
Spot 1    -0.01287341     0.01246894    -0.07310600
Spot 2    -0.01265291     0.01246872    -0.07310600
Spot 1    -0.01287336     0.01246904    -0.07310600
Spot 2    -0.01265314     0.01246888    -0.07310600
20MABNDA000334_PR005
Spot 1    -0.01312305     0.01255400    -0.07324100
Spot 2    -0.01284297     0.01255362    -0.07324100
Spot 1    -0.01312310     0.01255394    -0.07324100
Spot 2    -0.01284277     0.01255329    -0.07324100
Spot 1    -0.01312325     0.01255408    -0.07324100
Spot 2    -0.01284274     0.01255355    -0.07324100
Spot 1    -0.01312295     0.01255394    -0.07324100
Spot 2    -0.01284257     0.01255371    -0.07324100
20MABNDB000317_PR015
Spot 1    -0.01266346    -0.01249098    -0.07326100
Spot 2    -0.01244251    -0.01249309    -0.07326100
Spot 1    -0.01266353    -0.01249112    -0.07326100
Spot 2    -0.01244253    -0.01249305    -0.07326100
Spot 1    -0.01266347    -0.01249115    -0.07326100
Spot 2    -0.01244267    -0.01249308    -0.07326100
Spot 1    -0.01266339    -0.01249103    -0.07326100
Spot 2    -0.01244260    -0.01249306    -0.07326100
20MABNDB000146_PR016
Spot 1    -0.01276050    -0.01245940    -0.07450500
Spot 2    -0.01248399    -0.01245721    -0.07450500
Spot 1    -0.01276054    -0.01245935    -0.07450500
Spot 2    -0.01248399    -0.01245690    -0.07450500
Spot 1    -0.01276053    -0.01245945    -0.07450500
Spot 2    -0.01248391    -0.01245714    -0.07450500
Spot 1    -0.01276050    -0.01245945    -0.07450500
Spot 2    -0.01248380    -0.01245765    -0.07450500
20MABNDB000135_PR027
Spot 1    -0.01156696    -0.01295855    -0.07464700
Spot 2    -0.01103969    -0.01410449    -0.07464700
Spot 1    -0.01103969    -0.01410449    -0.07464700
Spot 2    -0.01267814    -0.01395624    -0.07464700
Spot 1    -0.01156696    -0.01295855    -0.07464700
Spot 2    -0.01103969    -0.01410449    -0.07464700
Spot 1    -0.01156696    -0.01295855    -0.07464700
Spot 2    -0.01103969    -0.01410449    -0.07464700
20MABNDB000126_PR028
Spot 1    -0.01380006    -0.01301394    -0.07500400
Spot 2    -0.01151554    -0.01198173    -0.07500400
Spot 1    -0.01255431    -0.01408730    -0.07500400
Spot 2    -0.01088706    -0.01383697    -0.07500400
Spot 1    -0.01255431    -0.01408730    -0.07500400
Spot 2    -0.01085962    -0.01308824    -0.07500400
Spot 1    -0.01255431    -0.01408730    -0.07500400
Spot 2    -0.01088745    -0.01383658    -0.07500400
20MABNDA000272_PR038
Spot 1    -0.01119914     0.01401371    -0.07417900
Spot 2    -0.01153919     0.01398431    -0.07417900
Spot 1    -0.01119914     0.01401371    -0.07417900
Spot 2    -0.01332924     0.01395748    -0.07417900
Spot 1    -0.01119914     0.01401371    -0.07417900
Spot 2    -0.01153919     0.01398431    -0.07417900
Spot 1    -0.01119914     0.01401371    -0.07417900
Spot 2    -0.01153919     0.01398431    -0.07417900
20MABNDA000003_PR039
Spot 1    -0.01362727     0.01165936    -0.07373400
Spot 2    -0.01354339     0.01318915    -0.07373400
Spot 1    -0.01183134     0.01399481    -0.07373400
Spot 2    -0.01218139     0.01397570    -0.07373400
Spot 1    -0.01362727     0.01165936    -0.07373400
Spot 2    -0.01354339     0.01318915    -0.07373400
Spot 1    -0.01362727     0.01165936    -0.07373400
Spot 2    -0.01354339     0.01318915    -0.07373400
20MABNDA000196_PR006
Spot 1    -0.01293026     0.01322869    -0.07967100
Spot 2    -0.01256093     0.01322698    -0.07967100
Spot 1    -0.01293014     0.01322871    -0.07967100
Spot 2    -0.01256084     0.01322702    -0.07967100
Spot 1    -0.01293029     0.01322867    -0.07967100
Spot 2    -0.01256084     0.01322652    -0.07967100
Spot 1    -0.01293021     0.01322863    -0.07967100
Spot 2    -0.01256082     0.01322686    -0.07967100
20MABNDA000324_PR007
Spot 1    -0.01256155     0.01280830    -0.07446800
Spot 2    -0.01235289     0.01280438    -0.07446800
Spot 1    -0.01256185     0.01280818    -0.07446800
Spot 2    -0.01235272     0.01280424    -0.07446800
Spot 1    -0.01256193     0.01280823    -0.07446800
Spot 2    -0.01235260     0.01280433    -0.07446800
Spot 1    -0.01256180     0.01280835    -0.07446800
Spot 2    -0.01235276     0.01280428    -0.07446800
20MABNDB000001_PR017
Spot 1    -0.01230887    -0.01351783    -0.07418400
Spot 2    -0.01193905    -0.01351258    -0.07418400
Spot 1    -0.01230883    -0.01351781    -0.07418400
Spot 2    -0.01193892    -0.01351271    -0.07418400
Spot 1    -0.01230878    -0.01351783    -0.07418400
Spot 2    -0.01193898    -0.01351276    -0.07418400
Spot 1    -0.01230898    -0.01351789    -0.07418400
Spot 2    -0.01193901    -0.01351228    -0.07418400
20MABNDB000260_PR019
Spot 1    -0.01240625    -0.01240711    -0.07492700
Spot 2    -0.01220288    -0.01240406    -0.07492700
Spot 1    -0.01240631    -0.01240680    -0.07492700
Spot 2    -0.01220222    -0.01240364    -0.07492700
Spot 1    -0.01240614    -0.01240674    -0.07492700
Spot 2    -0.01220221    -0.01240398    -0.07492700
Spot 1    -0.01240607    -0.01240696    -0.07492700
Spot 2    -0.01220215    -0.01240368    -0.07492700
20MABNDB000212_PR029
Spot 1    -0.01173719    -0.01368754    -0.07390500
Spot 2    -0.01231950    -0.01390134    -0.07390500
Spot 1    -0.01173719    -0.01368754    -0.07390500
Spot 2    -0.01231950    -0.01390134    -0.07390500
Spot 1    -0.01173719    -0.01368754    -0.07390500
Spot 2    -0.01231950    -0.01390134    -0.07390500
Spot 1    -0.01173719    -0.01368754    -0.07390500
Spot 2    -0.01231950    -0.01390134    -0.07390500
20MABNDB000128_PR030
Spot 1    -0.01222680    -0.01210457    -0.07353400
Spot 2    -0.01201876    -0.01210424    -0.07353400
Spot 1    -0.01222664    -0.01210484    -0.07353400
Spot 2    -0.01201870    -0.01210424    -0.07353400
Spot 1    -0.01222688    -0.01210480    -0.07353400
Spot 2    -0.01201873    -0.01210438    -0.07353400
Spot 1    -0.01222671    -0.01210477    -0.07353400
Spot 2    -0.01201888    -0.01210424    -0.07353400
20MABNDA000444_PR040
Spot 1    -0.01435050     0.01397434    -0.07412000
Spot 2    -0.01146889     0.01399758    -0.07412000
Spot 1    -0.01434881     0.01397303    -0.07412000
Spot 2    -0.01239082     0.01398588    -0.07412000
Spot 1    -0.01435962     0.01396453    -0.07412000
Spot 2    -0.01300044     0.01397814    -0.07412000
Spot 1    -0.01147563     0.01397650    -0.07412000
Spot 2    -0.01268599     0.01398643    -0.07412000
20MABNDA000053_PR041
Spot 1    -0.01289294     0.01237250    -0.07430100
Spot 2    -0.01267988     0.01237278    -0.07430100
Spot 1    -0.01289275     0.01237259    -0.07430100
Spot 2    -0.01268023     0.01237288    -0.07430100
Spot 1    -0.01289282     0.01237269    -0.07430100
Spot 2    -0.01267978     0.01237281    -0.07430100
Spot 1    -0.01289262     0.01237234    -0.07430100
Spot 2    -0.01268008     0.01237302    -0.07430100
20MABNDA000188_PR008
Spot 1    -0.01369407     0.01383106    -0.07502000
Spot 2    -0.01398688     0.01400083    -0.07502000
Spot 1    -0.01385116     0.01393841    -0.07502000
Spot 2    -0.01401928     0.01399129    -0.07502000
Spot 1    -0.01385116     0.01393841    -0.07502000
Spot 2    -0.01421566     0.01399821    -0.07502000
Spot 1    -0.01385116     0.01393841    -0.07502000
Spot 2    -0.01399667     0.01399566    -0.07502000
20MABNDA000188_PR018
Spot 1    -0.01258843     0.01255458    -0.07502000
Spot 2    -0.01211939     0.01255277    -0.07502000
Spot 1    -0.01258836     0.01255469    -0.07502000
Spot 2    -0.01211961     0.01255280    -0.07502000
Spot 1    -0.01258838     0.01255458    -0.07502000
Spot 2    -0.01211951     0.01255256    -0.07502000
Spot 1    -0.01258835     0.01255465    -0.07502000
Spot 2    -0.01211967     0.01255267    -0.07502000
20MABNDA000039_PR009
Spot 1    -0.01162453     0.01303397    -0.07444800
Spot 2    -0.01157283     0.01303042    -0.07444800
Spot 1    -0.01162438     0.01303391    -0.07444800
Spot 2    -0.01157276     0.01303040    -0.07444800
Spot 1    -0.01162431     0.01303347    -0.07444800
Spot 2    -0.01157270     0.01303059    -0.07444800
20MABNDA000039_PR011
Spot 1    -0.01372155     0.01388194    -0.07444800
Spot 2    -0.01354476     0.01388689    -0.07444800
Spot 1    -0.01372149     0.01388211    -0.07444800
Spot 2    -0.01354484     0.01388658    -0.07444800
Spot 1    -0.01372161     0.01388213    -0.07444800
Spot 2    -0.01354485     0.01388670    -0.07444800
20MABNDB000155_PR020
Spot 1    -0.01359856    -0.01317451    -0.07501700
Spot 2    -0.01352796    -0.01317756    -0.07501700
Spot 1    -0.01359875    -0.01317457    -0.07501700
Spot 2    -0.01352739    -0.01317764    -0.07501700
Spot 1    -0.01359910    -0.01317446    -0.07501700
Spot 2    -0.01352788    -0.01317746    -0.07501700
20MABNDB000155_PR022
Spot 1    -0.01205326    -0.01313464    -0.07501700
Spot 2    -0.01157950    -0.01313228    -0.07501700
Spot 1    -0.01205348    -0.01313438    -0.07501700
Spot 2    -0.01157972    -0.01313236    -0.07501700
Spot 1    -0.01205334    -0.01313438    -0.07501700
Spot 2    -0.01157963    -0.01313225    -0.07501700
20MABNDB000010_PR021
Spot 1    -0.01158736    -0.01288809    -0.07358200
Spot 2    -0.01152909    -0.01288351    -0.07358200
Spot 1    -0.01158720    -0.01288794    -0.07358200
Spot 2    -0.01152907    -0.01288341    -0.07358200
Spot 1    -0.01158747    -0.01288794    -0.07358200
Spot 2    -0.01152908    -0.01288358    -0.07358200
20MABNDB000010_PR023
Spot 1    -0.01313183    -0.01368687    -0.07358200
Spot 2    -0.01295559    -0.01368501    -0.07358200
Spot 1    -0.01313171    -0.01368693    -0.07358200
Spot 2    -0.01295558    -0.01368517    -0.07358200
Spot 1    -0.01313185    -0.01368681    -0.07358200
Spot 2    -0.01295591    -0.01368512    -0.07358200


*****************************************************************coordonnees du prisme dans le repere MOUNT********************************************************************************** 
20MABNDM000168_PR025
    0.01435525    -0.08203210    -3.78841376
    0.01647465    -0.08150937    -3.78840446
    0.02081208    -0.08200122    -3.78836155
    0.02851820    -0.08297694    -3.78827167
20MABNDM000168_PR026
   -0.06647163    -0.02031260    -3.98421168
   -0.06647788    -0.02031288    -3.98421168
   -0.06648129    -0.02030457    -3.98421144
   -0.06646746    -0.02031284    -3.98421168
20MABNDM000168_20MABNDL000077
    0.01135867    -0.03901368     5.38884640
    0.01134802    -0.03902969     5.38884640
    0.01135628    -0.03900502     5.38884640
    0.01136522    -0.03900803     5.38884640
20MABNDM000168_PR001
   -0.05761009    -0.01332109     5.81470203
   -0.05761065    -0.01330674     5.81470203
   -0.05760612    -0.01331456     5.81470203
   -0.05760860    -0.01329902     5.81470203
20MABNDL000196_PR036
    0.06069800     0.00643002     3.68766618
    0.06072454     0.00641314     3.68766570
    0.06072133     0.00642369     3.68766570
    0.06071642     0.00642491     3.68766570
20MABNDL000196_PR037
   -0.00940608     0.08531923     3.88362813
   -0.00898201     0.08566938     3.88362598
   -0.00898484     0.08579241     3.88362408
   -0.00898782     0.08572597     3.88362527
20MABNDL000196_20MABNDM000020
   -0.01385928     0.03870057    -5.47473907
   -0.01384761     0.03871014    -5.47473907
   -0.01384883     0.03871731    -5.47473907
   -0.01386485     0.03870944    -5.47473907
20MABNDL000196_PR012
   -0.10077265     0.08057615    -5.91493988
   -0.00654953     0.07392573    -5.91564846
    0.08767177     0.06726567    -5.91482782
   -0.00654798     0.07392576    -5.91564846
20MABNDL000077_PR002
    0.04968078     0.02140250     3.70690775
    0.04968078     0.02140201     3.70690775
    0.04968022     0.02139510     3.70690775
    0.04968572     0.02140270     3.70690775
20MABNDL000077_PR003
    0.01422335     0.03677180     3.89605379
    0.01422446     0.03677853     3.89605379
    0.01422824     0.03676707     3.89605379
    0.01422988     0.03677588     3.89605379
20MABNDL000077_20MABNDM000168
   -0.01665082     0.01434261    -5.46871090
   -0.01667973     0.01434411    -5.46871090
   -0.01667206     0.01433589    -5.46871090
   -0.01666970     0.01435252    -5.46871090
20MABNDL000077_PR024
    0.02941782     0.00495376    -5.89648676
    0.02938038     0.00495494    -5.89648676
    0.02940549     0.00493921    -5.89648676
    0.02945148     0.00494008    -5.89648628
20MABNDM000020_PR013
   -0.00530058     0.01213928    -3.80217004
   -0.00530210     0.01214073    -3.80216956
   -0.00530538     0.01214314    -3.80216956
   -0.00530768     0.01213491    -3.80217004
20MABNDM000020_PR014
   -0.06765600     0.03168074    -4.74799871
   -0.06766106     0.03168467    -4.74799824
   -0.06765424     0.03168575    -4.74799871
   -0.06765785     0.03167977    -4.74799871
20MABNDM000020_20MABNDL000196
   -0.02026647    -0.07988785     5.39455080
   -0.02027614    -0.07989036     5.39455080
   -0.02026970    -0.07989000     5.39455080
   -0.02026790    -0.07988427     5.39455080
20MABNDM000020_PR035
   -0.01906530    -0.06059729     5.80115032
   -0.01900905    -0.06059420     5.80115128
   -0.01907069    -0.06060538     5.80115032
   -0.01905951    -0.06064044     5.80115032
20MABNDB000069_PR031
    0.10999375    -0.16176865     9.20229721
    0.10999375    -0.16176865     9.20229721
    0.10999375    -0.16176865     9.20229721
    0.10999375    -0.16176865     9.20229721
20MABNDB000069_PR033
   -0.02632597     0.00819135     1.28384423
   -0.02632597     0.00819135     1.28384423
   -0.02400773     0.00219188     1.28395247
   -0.03070708     0.00777251     1.28379703
20MABNDB000131_PR032
   -0.23720232    -0.01880082    11.00553799
   -0.24672616    -0.01282128    11.00534058
   -0.20595688    -0.05919428    11.00603676
   -0.24672616    -0.01282128    11.00534058
20MABNDB000131_PR034
   -0.01778051     0.02065566     3.43344212
   -0.01776879     0.02063704     3.43344259
   -0.01777695     0.02062947     3.43344259
   -0.01775663     0.02062069     3.43344259
20MABNDA000208_PR042
    0.14595473    -0.07836622     9.20077229
    0.11037958    -0.09681334     9.20111465
    0.13492353    -0.09678749     9.20075417
    0.12138070    -0.03788535     9.20147610
20MABNDA000208_PR046
   -0.00041767    -0.00043648     1.28217852
   -0.02945109     0.00126878     1.28214431
   -0.00982242     0.00553628     1.28228331
   -0.03076861     0.01720405     1.28217411
20MABNDA000035_PR044
   -0.14823659    -0.14452405    11.00733852
   -0.14823659    -0.14452405    11.00733852
   -0.14823659    -0.14452405    11.00733852
   -0.14823659    -0.14452405    11.00733852
20MABNDA000035_PR045
    0.00938546    -0.03470942     3.43469143
   -0.00177307    -0.03143641     3.43478894
   -0.00177307    -0.03143641     3.43478894
   -0.00177307    -0.03143641     3.43478894
20MABNDA000318_PR004
   -0.00821442     0.03842372     2.74965835
   -0.00822119     0.03841709     2.74965835
   -0.00822064     0.03841764     2.74965835
   -0.00821733     0.03841288     2.74965835
20MABNDA000334_PR005
   -0.00407306     0.03135447     2.14977407
   -0.00407520     0.03136005     2.14977360
   -0.00407349     0.03135433     2.14977407
   -0.00408021     0.03135391     2.14977407
20MABNDB000317_PR015
   -0.01750783    -0.03428323     2.75128794
   -0.01750621    -0.03428139     2.75128794
   -0.01750477    -0.03428029     2.75128794
   -0.01750747    -0.03428286     2.75128794
20MABNDB000146_PR016
   -0.01354424    -0.03183158     2.15201235
   -0.01354366    -0.03183676     2.15201235
   -0.01354496    -0.03183188     2.15201235
   -0.01354699    -0.03182455     2.15201235
20MABNDB000135_PR027
   -0.06138054     0.00239963     2.74890971
   -0.04101038     0.02069180     2.74903107
   -0.06138054     0.00239963     2.74890971
   -0.06138054     0.00239963     2.74890971
20MABNDB000126_PR028
   -0.01280928    -0.02965937     2.14690113
   -0.03952042     0.01208051     2.14664912
   -0.03991258     0.00141040     2.14674282
   -0.03951483     0.01207499     2.14664936
20MABNDA000272_PR038
   -0.06008403    -0.01992110     2.74905181
   -0.02729330    -0.01943400     2.74942803
   -0.06008403    -0.01992110     2.74905181
   -0.06008403    -0.01992110     2.74905181
20MABNDA000003_PR039
    0.01248294     0.03271540     2.14887333
   -0.03264507    -0.01189879     2.14887166
    0.01248294     0.03271540     2.14887333
    0.01248294     0.03271540     2.14887333
20MABNDA000196_PR006
   -0.01066801     0.01036840     1.64206505
   -0.01067031     0.01036778     1.64206505
   -0.01066860     0.01037366     1.64206505
   -0.01066973     0.01037039     1.64206505
20MABNDA000324_PR007
   -0.02500048     0.02789333     2.95549297
   -0.02499796     0.02789847     2.95549297
   -0.02499872     0.02789571     2.95549297
   -0.02499812     0.02789433     2.95549297
20MABNDB000001_PR017
   -0.02399126    -0.00356000     1.64036512
   -0.02399311    -0.00355878     1.64036512
   -0.02399299    -0.00355801     1.64036512
   -0.02399042    -0.00356263     1.64036512
20MABNDB000260_PR019
   -0.02446209    -0.03804569     2.95627737
   -0.02447401    -0.03806011     2.95627689
   -0.02447747    -0.03805467     2.95627689
   -0.02447999    -0.03805630     2.95627689
20MABNDB000212_PR029
   -0.02553459     0.00285251     1.64216614
   -0.02553459     0.00285251     1.64216614
   -0.02553459     0.00285251     1.64216614
   -0.02553459     0.00285251     1.64216614
20MABNDB000128_PR030
   -0.02831418    -0.05128787     2.95487452
   -0.02831853    -0.05128258     2.95487452
   -0.02831323    -0.05128060     2.95487452
   -0.02831361    -0.05128394     2.95487452
20MABNDA000444_PR040
   -0.00743343    -0.00590676     1.64492893
    0.00264523    -0.00576355     1.64486766
    0.00943937    -0.00558488     1.64479232
   -0.02559021    -0.00580771     1.64488792
20MABNDA000053_PR041
   -0.00776758     0.04111481     2.95464420
   -0.00776431     0.04111122     2.95464420
   -0.00777178     0.04111058     2.95464420
   -0.00776976     0.04111348     2.95464420
20MABNDA000188_PR008
    0.12768741    -0.09198800     9.20339203
    0.13931480    -0.09798869     9.20313644
    0.15136495    -0.09841100     9.20292473
    0.13792741    -0.09825756     9.20315552
20MABNDA000188_PR018
   -0.01856757     0.02176263     1.28360772
   -0.01856630     0.02176142     1.28360772
   -0.01856696     0.02176442     1.28360772
   -0.01856586     0.02176296     1.28360772
20MABNDA000039_PR009
   -0.17170677     0.02994265    11.00700188
   -0.17172283     0.02994857    11.00700188
   -0.17173225     0.02996689    11.00700188
20MABNDA000039_PR011
    0.03053369    -0.02048904     3.43351603
    0.03053416    -0.02048585     3.43351603
    0.03053711    -0.02048906     3.43351603
20MABNDB000155_PR020
    0.09592611    -0.00317460     9.20035362
    0.09590267    -0.00316633     9.20035362
    0.09595385    -0.00318405     9.20035362
20MABNDB000155_PR022
   -0.02738984    -0.01246747     1.28069627
   -0.02738615    -0.01246904     1.28069639
   -0.02738810    -0.01246993     1.28069627
20MABNDB000010_PR021
   -0.17566998    -0.03928433    11.00694180
   -0.17568290    -0.03930293    11.00694180
   -0.17566253    -0.03929009    11.00694180
20MABNDB000010_PR023
    0.00462791     0.01543846     3.43381310
    0.00462507     0.01544345     3.43381310
    0.00463592     0.01543951     3.43381310


*****************************************************************coordonnees du prisme dans le repere ATLAS********************************************************************************** 
20MABNDM000168_PR025 0.00000000
    2.77120566    -3.75966811    -6.47903013
    2.77172780    -3.76178765    -6.47902012
    2.77123499    -3.76612496    -6.47897577
    2.77025723    -3.77383089    -6.47888279
20MABNDM000168_PR026 0.00000000
    2.83293462    -3.67893052    -6.67486191
    2.83293438    -3.67892432    -6.67486191
    2.83294272    -3.67892075    -6.67486191
    2.83293438    -3.67893457    -6.67486191
20MABNDM000168_20MABNDL000077 0.00000000
    2.81478190    -3.75327063     2.69822550
    2.81476593    -3.75326014     2.69822550
    2.81479049    -3.75326824     2.69822550
    2.81478763    -3.75327730     2.69822550
20MABNDM000168_PR001 0.00000000
    2.84051847    -3.68415046     3.12405396
    2.84053302    -3.68414974     3.12405396
    2.84052515    -3.68415427     3.12405396
    2.84054065    -3.68415189     3.12405396
20MABNDL000196_PR036 0.00000000
   -2.84718180    -3.68357611    -6.47899818
   -2.84719872    -3.68354964    -6.47899818
   -2.84718823    -3.68355274    -6.47899818
   -2.84718704    -3.68355775    -6.47899818
20MABNDL000196_PR037 0.00000000
   -2.76826429    -3.75382590    -6.67489672
   -2.76791430    -3.75340152    -6.67489529
   -2.76779127    -3.75340438    -6.67489338
   -2.76785779    -3.75340748    -6.67489433
20MABNDL000196_20MABNDM000020 0.00000000
   -2.81467867    -3.74959564     2.68347168
   -2.81466913    -3.74958396     2.68347168
   -2.81466198    -3.74958515     2.68347168
   -2.81466985    -3.74960113     2.68347168
20MABNDL000196_PR012 0.00000000
   -2.77275324    -3.83607984     3.12375212
   -2.77944732    -3.74185920     3.12437320
   -2.78615117    -3.64764190     3.12346506
   -2.77944732    -3.74185777     3.12437320
20MABNDL000077_PR002 0.00000000
    2.83563828    -3.69483614     6.48618793
    2.83563876    -3.69483614     6.48618793
    2.83564568    -3.69483685     6.48618793
    2.83563828    -3.69483113     6.48618793
20MABNDL000077_PR003 0.00000000
    2.82044339    -3.73052216     6.67530537
    2.82043648    -3.73052096     6.67530537
    2.82044792    -3.73051715     6.67530537
    2.82043934    -3.73051548     6.67530537
20MABNDL000077_20MABNDM000168 0.00000000
    2.83367705    -3.74984908    -2.68950772
    2.83367538    -3.74987817    -2.68950796
    2.83368373    -3.74987054    -2.68950796
    2.83366704    -3.74986815    -2.68950772
20MABNDL000077_PR024 0.00000000
    2.84266090    -3.70325589    -3.11723542
    2.84265971    -3.70329332    -3.11723566
    2.84267545    -3.70326805    -3.11723566
    2.84267473    -3.70322204    -3.11723495
20MABNDM000020_PR013 0.00000000
   -2.86444831    -3.73417401     6.48602009
   -2.86444974    -3.73417234     6.48601961
   -2.86445212    -3.73416924     6.48601961
   -2.86444378    -3.73416686     6.48602009
20MABNDM000020_PR014 0.00000000
   -2.88378119    -3.67253184     7.43189955
   -2.88378525    -3.67252684     7.43189907
   -2.88378620    -3.67253375     7.43189955
   -2.88378024    -3.67253017     7.43189955
20MABNDM000020_20MABNDL000196 0.00000000
   -2.77425694    -3.71224189    -2.71070528
   -2.77425456    -3.71223211    -2.71070528
   -2.77425480    -3.71223855    -2.71070528
   -2.77426052    -3.71224046    -2.71070528
20MABNDM000020_PR035 0.00000000
   -2.79362917    -3.71312785    -3.11730170
   -2.79363227    -3.71318412    -3.11730266
   -2.79362106    -3.71312237    -3.11730170
   -2.79358602    -3.71313357    -3.11730170
20MABNDB000069_PR031 0.00000000
    3.69177032     3.84800911    -7.77863359
    3.69177032     3.84800911    -7.77863359
    3.69177032     3.84800911    -7.77863359
    3.69177032     3.84800911    -7.77863359
20MABNDB000069_PR033 0.00000000
    3.53395510    -4.07071400    -7.91386223
    3.53395510    -4.07071400    -7.91386223
    3.53627682    -4.07058573    -7.90786457
    3.52957416    -4.07074738    -7.91344118
20MABNDB000131_PR032 0.00000000
    3.91800880     3.64673710   -12.92945862
    3.92753482     3.64655066   -12.92348194
    3.88675070     3.64719319   -12.96984291
    3.92753482     3.64655066   -12.92348194
20MABNDB000131_PR034 0.00000000
    3.70557094    -3.92554331   -12.88730145
    3.70555925    -3.92554283   -12.88732052
    3.70556760    -3.92554283   -12.88732815
    3.70554709    -3.92554283   -12.88733673
20MABNDA000208_PR042 0.00000000
   -3.69598365     3.84842801    -7.98985958
   -3.66039824     3.84873819    -8.00828743
   -3.68494248     3.84839535    -8.00827503
   -3.67143083     3.84912896    -7.94936562
20MABNDA000208_PR046 0.00000000
   -3.55532885    -4.07024002    -7.90896702
   -3.52629638    -4.07029438    -7.90724611
   -3.54592729    -4.07013941    -7.90298939
   -3.52498746    -4.07025957    -7.89131021
20MABNDA000035_PR044 0.00000000
   -3.83744693     3.64687228   -12.76116085
   -3.83744693     3.64687228   -12.76116085
   -3.83744693     3.64687228   -12.76116085
   -3.83744693     3.64687228   -12.76116085
20MABNDA000035_PR045 0.00000000
   -3.68133998    -3.92579627   -12.87167358
   -3.69249916    -3.92569613   -12.87494469
   -3.69249916    -3.92569613   -12.87494469
   -3.69249916    -3.92569613   -12.87494469
20MABNDA000318_PR004 0.00000000
    2.61478877    -4.19698906     3.83357477
    2.61478209    -4.19698906     3.83358145
    2.61478257    -4.19698906     3.83358097
    2.61478591    -4.19698906     3.83358574
20MABNDA000334_PR005 0.00000000
    2.61692548    -4.19702864     5.89790630
    2.61692333    -4.19702911     5.89790106
    2.61692500    -4.19702864     5.89790678
    2.61691833    -4.19702864     5.89790678
20MABNDB000317_PR015 0.00000000
   -2.61109924    -4.19700384     3.83573222
   -2.61110091    -4.19700384     3.83573413
   -2.61110234    -4.19700384     3.83573508
   -2.61109972    -4.19700384     3.83573270
20MABNDB000146_PR016 0.00000000
   -2.61275101    -4.19702530     5.89851856
   -2.61275148    -4.19702530     5.89851332
   -2.61275029    -4.19702530     5.89851856
   -2.61274815    -4.19702530     5.89852571
20MABNDB000135_PR027 0.00000000
    2.56348586    -4.19746113    -3.83777118
    2.58386087    -4.19733667    -3.85605788
    2.56348586    -4.19746113    -3.83777118
    2.56348586    -4.19746113    -3.83777118
20MABNDB000126_PR028 0.00000000
    2.61310339    -4.19695807    -5.90256453
    2.58637118    -4.19738483    -5.94428968
    2.58598423    -4.19724417    -5.93361998
    2.58637667    -4.19738483    -5.94428396
20MABNDA000272_PR038 0.00000000
   -2.56445813    -4.19757366    -3.85841370
   -2.59724903    -4.19721031    -3.85792089
   -2.56445813    -4.19757366    -3.85841370
   -2.56445813    -4.19757366    -3.85841370
20MABNDA000003_PR039 0.00000000
   -2.63421321    -4.19708920    -5.90005302
   -2.58908105    -4.19730282    -5.94466209
   -2.63421321    -4.19708920    -5.90005302
   -2.63421321    -4.19708920    -5.90005302
20MABNDA000196_PR006 0.00000000
    2.58512855    -4.19496298     6.54832506
    2.58513069    -4.19496298     6.54832411
    2.58512902    -4.19496298     6.54833031
    2.58513021    -4.19496298     6.54832697
20MABNDA000324_PR007 0.00000000
    2.59431434    -4.13996506     6.94802189
    2.59431696    -4.13996506     6.94801664
    2.59431601    -4.13996506     6.94801950
    2.59431672    -4.13996506     6.94802094
20MABNDB000001_PR017 0.00000000
   -2.59769273    -4.19505072     6.53888798
   -2.59769464    -4.19505072     6.53888702
   -2.59769464    -4.19505072     6.53888607
   -2.59769201    -4.19505072     6.53889084
20MABNDB000260_PR019 0.00000000
   -2.60430002    -4.13995695     6.94259834
   -2.60428810    -4.13995743     6.94258404
   -2.60428452    -4.13995743     6.94258928
   -2.60428214    -4.13995743     6.94258785
20MABNDB000212_PR029 0.00000000
    2.59921265    -4.19508171    -6.53613520
    2.59921265    -4.19508171    -6.53613520
    2.59921265    -4.19508171    -6.53613520
    2.59921265    -4.19508171    -6.53613520
20MABNDB000128_PR030 0.00000000
    2.60054350    -4.14009380    -6.92683506
    2.60053921    -4.14009380    -6.92684031
    2.60054445    -4.14009380    -6.92684221
    2.60054421    -4.14009380    -6.92683887
20MABNDA000444_PR040 0.00000000
   -2.58260512    -4.19507599    -6.53327608
   -2.57252669    -4.19513607    -6.53342009
   -2.56573248    -4.19521046    -6.53359938
   -2.60076213    -4.19511938    -6.53337288
20MABNDA000053_PR041 0.00000000
   -2.61277318    -4.13999510    -6.93680096
   -2.61277652    -4.13999510    -6.93680429
   -2.61276913    -4.13999510    -6.93680525
   -2.61277103    -4.13999510    -6.93680239
20MABNDA000188_PR008 0.00000000
    3.54050946     3.84870291     8.10324097
    3.55204821     3.84855914     8.10941410
    3.56409264     3.84852719     8.11001587
    3.55065703     3.84855390     8.10966206
20MABNDA000188_PR018 0.00000000
    3.51850891    -4.07065248     7.90164948
    3.51851010    -4.07065248     7.90165091
    3.51850939    -4.07065248     7.90164804
    3.51851058    -4.07065248     7.90164948
20MABNDA000039_PR009 0.00000000
    3.87587833     3.64745784    12.94123650
    3.87589431     3.64745784    12.94124222
    3.87590361     3.64745784    12.94126129
20MABNDA000039_PR011 0.00000000
    3.66448998    -3.92576146    12.88834763
    3.66448951    -3.92576146    12.88835049
    3.66448665    -3.92576146    12.88834763
20MABNDB000155_PR020 0.00000000
   -3.67458057     3.84890199     7.90369463
   -3.67455721     3.84890223     7.90370274
   -3.67460823     3.84890199     7.90368509
20MABNDB000155_PR022 0.00000000
   -3.53259230    -4.07044363     7.89559221
   -3.53259611    -4.07044363     7.89559078
   -3.53259420    -4.07044363     7.89558983
20MABNDB000010_PR021 0.00000000
   -3.86150241     3.64768171    12.94111347
   -3.86151528     3.64768171    12.94113255
   -3.86149478     3.64768171    12.94111919
20MABNDB000010_PR023 0.00000000
   -3.68503428    -3.92556143    12.88983727
   -3.68503714    -3.92556143    12.88983154
   -3.68502617    -3.92556143    12.88983631


*****************************************************************Rapport********************************************************************************** 
CAM-LBC-US_EBC-US-HO-H         2016.01.12.22.11.56     2.77110642    -3.76535290    -6.47897720     0.00053236     0.00541988     0.00005822 0.00000000 VRAI 
CAM-LBC-US_JDC-US-H            2016.01.12.22.11.56     2.83293653    -3.67892754    -6.67486191     0.00000358     0.00000536     0.00000000 0.00000000 VRAI 
CAM-LBC-US_CAM-LBA-US          2016.01.12.22.11.56     2.81478149    -3.75326908     2.69822550     0.00000950     0.00000614     0.00000000 0.00000000 VRAI 
CAM-LBC-US_EBA-US-IP-H         2016.01.12.22.11.56     2.84052932    -3.68415159     3.12405396     0.00000832     0.00000173     0.00000000 0.00000000 VRAI 
CAM-LBC-USA_EBC-USA-HO-H       2016.01.12.22.11.56    -2.84718895    -3.68355906    -6.47899818     0.00000614     0.00001026     0.00000000 0.00000000 VRAI 
CAM-LBC-USA_JDC-USA-H          2016.01.12.22.11.56    -2.76795691    -3.75350982    -6.67489493     0.00018273     0.00018250     0.00000123 0.00000000 VRAI 
CAM-LBC-USA_CAM-LBA-USA        2016.01.12.22.11.56    -2.81466991    -3.74959147     2.68347168     0.00000592     0.00000719     0.00000000 0.00000000 VRAI 
CAM-LBC-USA_EBA-USA-IP-H       2016.01.12.22.11.56    -2.77944976    -3.74185967     3.12399089     0.00473688     0.06662287     0.00039555 0.00000000 VRAI 
CAM-LBA-US_EBA-US-HO-H         2016.01.12.22.11.56     2.83564025    -3.69483507     6.48618793     0.00000314     0.00000229     0.00000000 0.00000000 VRAI 
CAM-LBA-US_JDA-US-H            2016.01.12.22.11.56     2.82044178    -3.73051894     6.67530537     0.00000431     0.00000272     0.00000000 0.00000000 VRAI 
CAM-LBA-US_CAM-LBC-US          2016.01.12.22.11.56     2.83367580    -3.74986649    -2.68950784     0.00000594     0.00001071     0.00000012 0.00000000 VRAI 
CAM-LBA-US_EBC-US-IP-H         2016.01.12.22.11.56     2.84266770    -3.70325983    -3.11723542     0.00000741     0.00002566     0.00000029 0.00000000 VRAI 
CAM-LBA-USA_EBA-USA-HO-H       2016.01.12.22.11.56    -2.86444849    -3.73417062     6.48601985     0.00000304     0.00000276     0.00000024 0.00000000 VRAI 
CAM-LBA-USA_JDA-USA-H          2016.01.12.22.11.56    -2.88378322    -3.67253065     7.43189943     0.00000255     0.00000254     0.00000021 0.00000000 VRAI 
CAM-LBA-USA_CAM-LBC-USA        2016.01.12.22.11.56    -2.77425671    -3.71223825    -2.71070528     0.00000239     0.00000374     0.00000000 0.00000000 VRAI 
CAM-LBA-USA_EBC-USA-IP-H       2016.01.12.22.11.56    -2.79361713    -3.71314198    -3.11730194     0.00001842     0.00002465     0.00000041 0.00000000 VRAI 
CAM-ECTC-US-IP_ECTC-US-IP-T    2016.01.12.22.11.56     3.69177032     3.84800911    -7.77863359     0.00000000     0.00000000     0.00000000 0.00000000 VRAI 
CAM-ECTC-US-IP_ECTC-US-IP      2016.01.12.22.11.56     3.53344029    -4.07069027    -7.91225755     0.00242502     0.00006188     0.00254211 0.00000000 VRAI 
CAM-ECTC-US-HO_ECTC-US-HO-T    2016.01.12.22.11.56     3.91495728     3.64675790   -12.93656635     0.01674300     0.00026259     0.01936655 0.00000000 VRAI 
CAM-ECTC-US-HO_ECTC-US-HO      2016.01.12.22.11.56     3.70556122    -3.92554295   -12.88732171     0.00000920     0.00000021     0.00001303 0.00000000 VRAI 
CAM-ECTC-USA-IP_ECTC-USA-IP-T  2016.01.12.22.11.56    -3.67818880     3.84867263    -7.98894691     0.01345774     0.00029549     0.02405797 0.00000000 VRAI 
CAM-ECTC-USA-IP_ECTC-USA-IP    2016.01.12.22.11.56    -3.53813499    -4.07023335    -7.90262818     0.01293599     0.00005762     0.00688718 0.00000000 VRAI 
CAM-ECTC-USA-HO_ECTC-USA-HO-T  2016.01.12.22.11.56    -3.83744693     3.64687228   -12.76116085     0.00000000     0.00000000     0.00000000 0.00000000 VRAI 
CAM-ECTC-USA-HO_ECTC-USA-HO    2016.01.12.22.11.56    -3.68970937    -3.92572117   -12.87412691     0.00483207     0.00004336     0.00141643 0.00000000 VRAI 
CAM-EBA-US-IP_EBA-US-IP        2016.01.12.22.11.56     2.61478484    -4.19698906     3.83358073     0.00000271     0.00000000     0.00000391 0.00000000 VRAI 
CAM-EBA-US-HO_EBA-US-HO        2016.01.12.22.11.56     2.61692303    -4.19702876     5.89790523     0.00000283     0.00000021     0.00000242 0.00000000 VRAI 
CAM-EBA-USA-IP_EBA-USA-IP      2016.01.12.22.11.56    -2.61110055    -4.19700384     3.83573353     0.00000120     0.00000000     0.00000114 0.00000000 VRAI 
CAM-EBA-USA-HO_EBA-USA-HO      2016.01.12.22.11.56    -2.61275023    -4.19702530     5.89851904     0.00000128     0.00000000     0.00000441 0.00000000 VRAI 
CAM-EBC-US-IP_EBC-US-IP        2016.01.12.22.11.56     2.56857961    -4.19743001    -3.84234285     0.00882264     0.00005389     0.00791838 0.00000000 VRAI 
CAM-EBC-US-HO_EBC-US-HO        2016.01.12.22.11.56     2.59295887    -4.19724298    -5.93118954     0.01163153     0.00017423     0.01709076 0.00000000 VRAI 
CAM-EBC-USA-IP_EBC-USA-IP      2016.01.12.22.11.56    -2.57265586    -4.19748282    -3.85829049     0.01419888     0.00015734     0.00021339 0.00000000 VRAI 
CAM-EBC-USA-HO_EBC-USA-HO      2016.01.12.22.11.56    -2.62293017    -4.19714260    -5.91120529     0.01954280     0.00009250     0.01931629 0.00000000 VRAI 
CAM-JDA-US-IP_JDA-US-IP        2016.01.12.22.11.56     2.58512962    -4.19496298     6.54832661     0.00000087     0.00000000     0.00000237 0.00000000 VRAI 
CAM-JDA-US-HO_JDA-US-HO        2016.01.12.22.11.56     2.59431601    -4.13996506     6.94801974     0.00000103     0.00000000     0.00000198 0.00000000 VRAI 
CAM-JDA-USA-IP_JDA-USA-IP      2016.01.12.22.11.56    -2.59769350    -4.19505072     6.53888798     0.00000116     0.00000000     0.00000178 0.00000000 VRAI 
CAM-JDA-USA-HO_JDA-USA-HO      2016.01.12.22.11.56    -2.60428870    -4.13995731     6.94258988     0.00000687     0.00000021     0.00000525 0.00000000 VRAI 
CAM-JDC-US-IP_JDC-US-IP        2016.01.12.22.11.56     2.59921265    -4.19508171    -6.53613520     0.00000000     0.00000000     0.00000000 0.00000000 VRAI 
CAM-JDC-US-HO_JDC-US-HO        2016.01.12.22.11.56     2.60054284    -4.14009380    -6.92683911     0.00000213     0.00000000     0.00000262 0.00000000 VRAI 
CAM-JDC-USA-IP_JDC-USA-IP      2016.01.12.22.11.56    -2.58040661    -4.19513547    -6.53341711     0.01319663     0.00004853     0.00011734 0.00000000 VRAI 
CAM-JDC-USA-HO_JDC-USA-HO      2016.01.12.22.11.56    -2.61277246    -4.13999510    -6.93680322     0.00000274     0.00000000     0.00000166 0.00000000 VRAI 
CAM-ECTA-US-IP_ECTA-US-IP-T    2016.01.12.22.11.56     3.55182683     3.84858578     8.10808325     0.00836586     0.00006870     0.00280386 0.00000000 VRAI 
CAM-ECTA-US-IP_ECTA-US-IP      2016.01.12.22.11.56     3.51850975    -4.07065248     7.90164948     0.00000064     0.00000000     0.00000101 0.00000000 VRAI 
CAM-ECTA-US-HO_ECTA-US-HO-T    2016.01.12.22.11.56     3.87589208     3.64745784    12.94124667     0.00001044     0.00000000     0.00001060 0.00000000 VRAI 
CAM-ECTA-US-HO_ECTA-US-HO      2016.01.12.22.11.56     3.66448871    -3.92576146    12.88834858     0.00000147     0.00000000     0.00000135 0.00000000 VRAI 
CAM-ECTA-USA-IP_ECTA-USA-IP-T  2016.01.12.22.11.56    -3.67458200     3.84890207     7.90369415     0.00002085     0.00000011     0.00000721 0.00000000 VRAI 
CAM-ECTA-USA-IP_ECTA-USA-IP    2016.01.12.22.11.56    -3.53259420    -4.07044363     7.89559094     0.00000156     0.00000000     0.00000098 0.00000000 VRAI 
CAM-ECTA-USA-HO_ECTA-USA-HO-T  2016.01.12.22.11.56    -3.86150416     3.64768171    12.94112174     0.00000846     0.00000000     0.00000799 0.00000000 VRAI 
CAM-ECTA-USA-HO_ECTA-USA-HO    2016.01.12.22.11.56    -3.68503253    -3.92556143    12.88983504     0.00000464     0.00000000     0.00000250 0.00000000 VRAI 
