********** Fichier qui contient une sauvegarde des coordonnees images + coordonnees images transformees dans le repere BCAM (MOUNT) + coordonnees des prismes dans le repere MOUNT********** 
********************************************************************** Unite en metres (m)************************************************************************************************** 

*******************************************************************coordonnees images dans le repere CCD *********************************************************************************** 
20MABNDB000069_PR031
Spot 1     0.00023213     0.00146022
Spot 2     0.00021500     0.00240500
Spot 1     0.00023266     0.00146023
Spot 2     0.00021500     0.00240500
Spot 1     0.00023309     0.00146000
Spot 2     0.00021500     0.00240500
Spot 1     0.00023220     0.00145993
Spot 2     0.00021500     0.00240500
Spot 1     0.00023173     0.00145991
Spot 2     0.00021500     0.00240500
20MABNDB000069_PR033
Spot 1     0.00191523     0.00182326
Spot 2     0.00238455     0.00184225
Spot 1     0.00191518     0.00182355
Spot 2     0.00238436     0.00184216
Spot 1     0.00191520     0.00182338
Spot 2     0.00238448     0.00184240
Spot 1     0.00191520     0.00182323
Spot 2     0.00238426     0.00184234
Spot 1     0.00191514     0.00182326
Spot 2     0.00238429     0.00184269
20MABNDB000131_PR032
Spot 1     0.00277962     0.00111211
Spot 2     0.00283871     0.00111705
Spot 1     0.00277978     0.00111211
Spot 2     0.00283881     0.00111635
Spot 1     0.00277981     0.00111223
Spot 2     0.00283905     0.00111667
Spot 1     0.00278019     0.00111207
Spot 2     0.00283883     0.00111668
Spot 1     0.00278007     0.00111244
Spot 2     0.00283833     0.00111685
20MABNDB000131_PR034
Spot 1     0.00093256     0.00042294
Spot 2     0.00110841     0.00042354
Spot 1     0.00093262     0.00042266
Spot 2     0.00110860     0.00042339
Spot 1     0.00093239     0.00042298
Spot 2     0.00110851     0.00042334
Spot 1     0.00093252     0.00042298
Spot 2     0.00110849     0.00042328
Spot 1     0.00093255     0.00042310
Spot 2     0.00110847     0.00042339
20MABNDA000208_PR042
Spot 1     0.00300468     0.00090050
Spot 2     0.00293863     0.00090422
Spot 1     0.00300495     0.00090053
Spot 2     0.00294012     0.00090423
Spot 1     0.00300459     0.00090076
Spot 2     0.00293793     0.00090390
Spot 1     0.00300483     0.00090096
Spot 2     0.00293912     0.00090363
Spot 1     0.00300521     0.00090054
Spot 2     0.00293958     0.00090397
20MABNDA000208_PR046
Spot 1     0.00132721     0.00191110
Spot 2     0.00085404     0.00191449
Spot 1     0.00132727     0.00191108
Spot 2     0.00085401     0.00191396
Spot 1     0.00132739     0.00191109
Spot 2     0.00085351     0.00191428
Spot 1     0.00132729     0.00191121
Spot 2     0.00085397     0.00191443
Spot 1     0.00132708     0.00191104
Spot 2     0.00085424     0.00191429
20MABNDA000035_PR044
Spot 1     0.00073994     0.00129445
Spot 2     0.00068581     0.00128903
Spot 1     0.00074008     0.00129492
Spot 2     0.00068594     0.00128878
Spot 1     0.00074000     0.00129441
Spot 2     0.00068601     0.00128912
Spot 1     0.00073994     0.00129449
Spot 2     0.00068639     0.00128890
Spot 1     0.00073994     0.00129473
Spot 2     0.00068611     0.00128889
20MABNDA000035_PR045
Spot 1     0.00254818     0.00058013
Spot 2     0.00237221     0.00057836
Spot 1     0.00254833     0.00058023
Spot 2     0.00237204     0.00057848
Spot 1     0.00254837     0.00058022
Spot 2     0.00237217     0.00057853
Spot 1     0.00254835     0.00058021
Spot 2     0.00237202     0.00057850
Spot 1     0.00254830     0.00058030
Spot 2     0.00237220     0.00057849
20MABNDL000077_PR002
Spot 1     0.00079433     0.00149755
Spot 2     0.00095581     0.00149643
Spot 1     0.00079430     0.00149442
Spot 2     0.00095617     0.00149641
Spot 1     0.00079443     0.00149721
Spot 2     0.00095608     0.00149608
Spot 1     0.00079445     0.00149439
Spot 2     0.00095601     0.00149597
Spot 1     0.00079449     0.00149449
Spot 2     0.00095609     0.00149569
20MABNDL000077_PR003
Spot 1     0.00152388     0.00119110
Spot 2     0.00167282     0.00119075
Spot 1     0.00152390     0.00119176
Spot 2     0.00167283     0.00119084
Spot 1     0.00152412     0.00119146
Spot 2     0.00167293     0.00119071
Spot 1     0.00152391     0.00118865
Spot 2     0.00167285     0.00119066
20MABNDL000077_20MABNDM000168
Spot 1     0.00188423     0.00148779
Spot 2     0.00170294     0.00151785
Spot 1     0.00188437     0.00148758
Spot 2     0.00170302     0.00151767
Spot 1     0.00188430     0.00148748
Spot 2     0.00170290     0.00151749
Spot 1     0.00188440     0.00148724
Spot 2     0.00170291     0.00151720
20MABNDL000077_PR024
Spot 1     0.00262971     0.00171738
Spot 2     0.00273074     0.00172136
Spot 1     0.00262935     0.00171730
Spot 2     0.00273067     0.00172128
Spot 1     0.00262977     0.00171718
Spot 2     0.00273069     0.00172122
Spot 1     0.00262977     0.00171738
Spot 2     0.00273068     0.00172110
20MABNDM000020_PR013
Spot 1     0.00164477     0.00214000
Spot 2     0.00149217     0.00214662
Spot 1     0.00164433     0.00213996
Spot 2     0.00149166     0.00214713
Spot 1     0.00164370     0.00213985
Spot 2     0.00149167     0.00214638
Spot 1     0.00164440     0.00214023
Spot 2     0.00149174     0.00214617
20MABNDM000020_PR014
Spot 1     0.00267920     0.00227912
Spot 2     0.00251681     0.00228684
Spot 1     0.00267889     0.00227931
Spot 2     0.00251715     0.00228728
Spot 1     0.00267853     0.00227971
Spot 2     0.00251723     0.00228762
Spot 1     0.00267826     0.00227963
Spot 2     0.00251683     0.00228697
20MABNDM000020_20MABNDL000196
Spot 1     0.00200140     0.00057911
Spot 2     0.00080500     0.00021500
Spot 1     0.00200137     0.00057924
Spot 2     0.00080500     0.00021500
Spot 1     0.00200161     0.00057933
Spot 2     0.00096500     0.00046500
Spot 1     0.00200162     0.00057931
Spot 2     0.00080500     0.00021500
20MABNDM000020_PR035
Spot 1     0.00126312     0.00087003
Spot 2     0.00119414     0.00090500
Spot 1     0.00126307     0.00086974
Spot 2     0.00119409     0.00090513
Spot 1     0.00126312     0.00086929
Spot 2     0.00119421     0.00090513
Spot 1     0.00126315     0.00086945
Spot 2     0.00119383     0.00090520
20MABNDA000188_PR008
Spot 1     0.00272167     0.00017667
Spot 2     0.00283500     0.00012500
Spot 1     0.00283500     0.00012500
Spot 2     0.00283500     0.00012500
Spot 1     0.00307750     0.00006000
Spot 2     0.00283500     0.00012500
Spot 1     0.00283500     0.00012500
Spot 2     0.00283500     0.00012500
20MABNDA000188_PR018
Spot 1     0.00154902     0.00153964
Spot 2     0.00108243     0.00153691
Spot 1     0.00154905     0.00153962
Spot 2     0.00108216     0.00153697
Spot 1     0.00154912     0.00153964
Spot 2     0.00108232     0.00153669
Spot 1     0.00154931     0.00153962
Spot 2     0.00108232     0.00153664
20MABNDA000039_PR009
Spot 1     0.00066070     0.00120651
Spot 2     0.00061361     0.00121046
Spot 1     0.00066038     0.00120666
Spot 2     0.00061371     0.00121035
Spot 1     0.00066006     0.00120672
Spot 2     0.00061363     0.00121020
Spot 1     0.00066012     0.00120643
Spot 2     0.00061393     0.00121028
20MABNDA000039_PR011
Spot 1     0.00276140     0.00035900
Spot 2     0.00258632     0.00035440
Spot 1     0.00276144     0.00035915
Spot 2     0.00258656     0.00035462
Spot 1     0.00276131     0.00035884
Spot 2     0.00258636     0.00035473
Spot 1     0.00276154     0.00035908
Spot 2     0.00258638     0.00035468
20MABNDB000155_PR020
Spot 1     0.00067052     0.00109100
Spot 2     0.00073311     0.00108742
Spot 1     0.00067086     0.00109141
Spot 2     0.00073233     0.00108743
Spot 1     0.00067064     0.00109143
Spot 2     0.00073211     0.00108803
Spot 1     0.00067119     0.00109080
Spot 2     0.00073308     0.00108786
20MABNDB000155_PR022
Spot 1     0.00220363     0.00114187
Spot 2     0.00267651     0.00113798
Spot 1     0.00220372     0.00114172
Spot 2     0.00267641     0.00113795
Spot 1     0.00220378     0.00114153
Spot 2     0.00267659     0.00113782
Spot 1     0.00220374     0.00114165
Spot 2     0.00267652     0.00113798
20MABNDB000010_PR021
Spot 1     0.00286545     0.00118717
Spot 2     0.00291724     0.00119024
Spot 1     0.00286554     0.00118705
Spot 2     0.00291797     0.00119021
Spot 1     0.00286534     0.00118733
Spot 2     0.00291763     0.00119027
Spot 1     0.00286546     0.00118728
Spot 2     0.00291736     0.00119023
20MABNDB000010_PR023
Spot 1     0.00130812     0.00040710
Spot 2     0.00148253     0.00040593
Spot 1     0.00130790     0.00040735
Spot 2     0.00148270     0.00040608
Spot 1     0.00130824     0.00040730
Spot 2     0.00148273     0.00040594
Spot 1     0.00130827     0.00040756
Spot 2     0.00148242     0.00040581
20MABNDB000212_PR029
Spot 1     0.00225851     0.00072130
Spot 2     0.00189271     0.00072114
Spot 1     0.00225848     0.00072133
Spot 2     0.00189265     0.00072074
Spot 1     0.00225851     0.00072125
Spot 2     0.00189321     0.00072097
Spot 1     0.00225846     0.00072120
Spot 2     0.00189265     0.00072103
20MABNDB000128_PR030
Spot 1     0.00188959     0.00201188
Spot 2     0.00209356     0.00200694
Spot 1     0.00188974     0.00201188
Spot 2     0.00209368     0.00200693
Spot 1     0.00188965     0.00201202
Spot 2     0.00209359     0.00200671
Spot 1     0.00188955     0.00201176
Spot 2     0.00209380     0.00200670
20MABNDA000444_PR040
Spot 1     0.00078206     0.00037088
Spot 2     0.00114794     0.00036897
Spot 1     0.00078227     0.00037068
Spot 2     0.00114792     0.00036915
Spot 1     0.00078232     0.00037080
Spot 2     0.00114788     0.00036894
Spot 1     0.00078214     0.00037109
Spot 2     0.00114774     0.00036871
20MABNDA000053_PR041
Spot 1     0.00164176     0.00199665
Spot 2     0.00143976     0.00199387
Spot 1     0.00164210     0.00199647
Spot 2     0.00143959     0.00199347
Spot 1     0.00164200     0.00199650
Spot 2     0.00143980     0.00199385
Spot 1     0.00164231     0.00199634
Spot 2     0.00143959     0.00199348
20MABNDA000196_PR006
Spot 1     0.00198933     0.00075858
Spot 2     0.00162498     0.00075317
Spot 1     0.00198952     0.00075855
Spot 2     0.00162515     0.00075303
Spot 1     0.00198961     0.00075856
Spot 2     0.00162539     0.00075299
Spot 1     0.00198955     0.00075856
Spot 2     0.00162547     0.00075298
20MABNDA000324_PR007
Spot 1     0.00194902     0.00121043
Spot 2     0.00174358     0.00121670
Spot 1     0.00194923     0.00121062
Spot 2     0.00174352     0.00121665
Spot 1     0.00194920     0.00121051
Spot 2     0.00174337     0.00121652
Spot 1     0.00194910     0.00121065
Spot 2     0.00174336     0.00121675
20MABNDB000001_PR017
Spot 1     0.00187987     0.00046985
Spot 2     0.00224782     0.00047987
Spot 1     0.00187977     0.00046975
Spot 2     0.00224795     0.00047962
Spot 1     0.00187981     0.00046977
Spot 2     0.00224782     0.00047974
Spot 1     0.00187987     0.00046992
Spot 2     0.00224788     0.00048000
20MABNDB000260_PR019
Spot 1     0.00192561     0.00149997
Spot 2     0.00212889     0.00150111
Spot 1     0.00192551     0.00150028
Spot 2     0.00212824     0.00150059
Spot 1     0.00192561     0.00150017
Spot 2     0.00212824     0.00150088
Spot 1     0.00192533     0.00150008
Spot 2     0.00212816     0.00150000
20MABNDB000135_PR027
Spot 1     0.00189298     0.00092573
Spot 2     0.00211117     0.00092854
Spot 1     0.00189281     0.00092575
Spot 2     0.00211128     0.00092872
Spot 1     0.00189282     0.00092574
Spot 2     0.00211145     0.00092844
Spot 1     0.00189310     0.00092613
Spot 2     0.00211138     0.00092868
20MABNDB000126_PR028
Spot 1     0.00164653     0.00200508
Spot 2     0.00192751     0.00200777
Spot 1     0.00164637     0.00200495
Spot 2     0.00192740     0.00200774
Spot 1     0.00164656     0.00200496
Spot 2     0.00192761     0.00200779
Spot 1     0.00164638     0.00200505
Spot 2     0.00192754     0.00200769
20MABNDA000272_PR038
Spot 1     0.00191955     0.00096626
Spot 2     0.00169850     0.00096400
Spot 1     0.00192003     0.00096574
Spot 2     0.00169820     0.00096418
Spot 1     0.00191990     0.00096571
Spot 2     0.00169799     0.00096397
Spot 1     0.00191961     0.00096593
Spot 2     0.00169808     0.00096440
20MABNDA000003_PR039
Spot 1     0.00199908     0.00192465
Spot 2     0.00227715     0.00192449
Spot 1     0.00199914     0.00192456
Spot 2     0.00227700     0.00192453
Spot 1     0.00199900     0.00192430
Spot 2     0.00227744     0.00192431
Spot 1     0.00199899     0.00192453
Spot 2     0.00227697     0.00192421
20MABNDA000318_PR004
Spot 1     0.00214411     0.00163263
Spot 2     0.00192676     0.00163424
Spot 1     0.00214430     0.00163234
Spot 2     0.00192713     0.00163422
Spot 1     0.00214429     0.00163252
Spot 2     0.00192707     0.00163384
Spot 1     0.00214422     0.00163265
Spot 2     0.00192678     0.00163373
20MABNDA000334_PR005
Spot 1     0.00247419     0.00158237
Spot 2     0.00219379     0.00158316
Spot 1     0.00247421     0.00158241
Spot 2     0.00219385     0.00158311
Spot 1     0.00247403     0.00158247
Spot 2     0.00219397     0.00158321
Spot 1     0.00247392     0.00158247
Spot 2     0.00219366     0.00158296
20MABNDB000317_PR015
Spot 1     0.00149150     0.00160995
Spot 2     0.00171061     0.00160436
Spot 1     0.00149174     0.00161012
Spot 2     0.00171042     0.00160421
Spot 1     0.00149162     0.00160992
Spot 2     0.00171057     0.00160412
Spot 1     0.00149146     0.00160990
Spot 2     0.00171055     0.00160414
20MABNDB000146_PR016
Spot 1     0.00144957     0.00133534
Spot 2     0.00172513     0.00133790
Spot 1     0.00144966     0.00133515
Spot 2     0.00172533     0.00133761
Spot 1     0.00144976     0.00133524
Spot 2     0.00172520     0.00133778
Spot 1     0.00144972     0.00133533
Spot 2     0.00172494     0.00133766
20MABNDM000168_PR025
Spot 1     0.00105500     0.00031500
Spot 2     0.00105500     0.00031500
Spot 1     0.00105500     0.00031500
Spot 2     0.00105500     0.00031500
Spot 1     0.00105500     0.00031500
Spot 2     0.00105500     0.00031500
Spot 1     0.00105500     0.00031625
Spot 2     0.00105500     0.00031500
20MABNDM000168_PR026
Spot 1     0.00291500     0.00008833
Spot 2     0.00257750     0.00012750
Spot 1     0.00336250     0.00004250
Spot 2     0.00241500     0.00011750
Spot 1     0.00234000     0.00006000
Spot 2     0.00194300     0.00004500
Spot 1     0.00197500     0.00003833
Spot 2     0.00256500     0.00017500
20MABNDM000168_20MABNDL000077
Spot 1     0.00153730     0.00129615
Spot 2     0.00175693     0.00130096
Spot 1     0.00153717     0.00129627
Spot 2     0.00175682     0.00130078
Spot 1     0.00153766     0.00129707
Spot 2     0.00175706     0.00130070
Spot 1     0.00153740     0.00129696
Spot 2     0.00175680     0.00130081
20MABNDM000168_PR001
Spot 1     0.00080482     0.00161455
Spot 2     0.00070345     0.00161899
Spot 1     0.00080445     0.00161463
Spot 2     0.00070320     0.00161916
Spot 1     0.00080452     0.00161452
Spot 2     0.00070361     0.00161944
Spot 1     0.00080427     0.00161482
Spot 2     0.00070354     0.00161938
20MABNDL000196_PR036
Spot 1     0.00096020     0.00164334
Spot 2     0.00112332     0.00164268
Spot 1     0.00096014     0.00164357
Spot 2     0.00112327     0.00164310
Spot 1     0.00096001     0.00164370
Spot 2     0.00112300     0.00164316
Spot 1     0.00095985     0.00164357
Spot 2     0.00112320     0.00164336
20MABNDL000196_PR037
Spot 1     0.00248098     0.00116569
Spot 2     0.00263475     0.00116375
Spot 1     0.00248052     0.00116573
Spot 2     0.00263463     0.00116380
Spot 1     0.00248068     0.00116563
Spot 2     0.00263460     0.00116391
Spot 1     0.00248075     0.00116552
Spot 2     0.00263448     0.00116373
20MABNDL000196_20MABNDM000020
Spot 1     0.00195173     0.00102920
Spot 2     0.00172970     0.00102911
Spot 1     0.00195184     0.00102945
Spot 2     0.00172983     0.00102917
Spot 1     0.00195187     0.00102960
Spot 2     0.00172996     0.00102950
Spot 1     0.00195186     0.00102972
Spot 2     0.00172986     0.00102978
20MABNDL000196_PR012
Spot 1     0.00319750     0.00019250
Spot 2     0.00177500     0.00011500
Spot 1     0.00342500     0.00005500
Spot 2     0.00073500     0.00047500
Spot 1     0.00342500     0.00005500
Spot 2     0.00064500     0.00003500
Spot 1     0.00064500     0.00003500
Spot 2     0.00064750     0.00003750


****************************************************************coordonnees images transformees dans le repere MOUNT************************************************************************* 
20MABNDB000069_PR031
Spot 1    -0.01364180    -0.01280535    -0.07388500
Spot 2    -0.01361993    -0.01186066    -0.07388500
Spot 1    -0.01364127    -0.01280536    -0.07388500
Spot 2    -0.01361993    -0.01186066    -0.07388500
Spot 1    -0.01364085    -0.01280561    -0.07388500
Spot 2    -0.01361993    -0.01186066    -0.07388500
Spot 1    -0.01364174    -0.01280564    -0.07388500
Spot 2    -0.01361993    -0.01186066    -0.07388500
Spot 1    -0.01364221    -0.01280564    -0.07388500
Spot 2    -0.01361993    -0.01186066    -0.07388500
20MABNDB000069_PR033
Spot 1    -0.01194515    -0.01251207    -0.07388500
Spot 2    -0.01147545    -0.01251247    -0.07388500
Spot 1    -0.01194519    -0.01251178    -0.07388500
Spot 2    -0.01147564    -0.01251255    -0.07388500
Spot 1    -0.01194518    -0.01251195    -0.07388500
Spot 2    -0.01147551    -0.01251231    -0.07388500
Spot 1    -0.01194518    -0.01251210    -0.07388500
Spot 2    -0.01147573    -0.01251236    -0.07388500
Spot 1    -0.01194524    -0.01251207    -0.07388500
Spot 2    -0.01147569    -0.01251202    -0.07388500
20MABNDB000131_PR032
Spot 1    -0.01144070    -0.01300263    -0.07533000
Spot 2    -0.01138164    -0.01299739    -0.07533000
Spot 1    -0.01144054    -0.01300263    -0.07533000
Spot 2    -0.01138154    -0.01299809    -0.07533000
Spot 1    -0.01144051    -0.01300251    -0.07533000
Spot 2    -0.01138130    -0.01299777    -0.07533000
Spot 1    -0.01144013    -0.01300267    -0.07533000
Spot 2    -0.01138152    -0.01299776    -0.07533000
Spot 1    -0.01144025    -0.01300230    -0.07533000
Spot 2    -0.01138202    -0.01299760    -0.07533000
20MABNDB000131_PR034
Spot 1    -0.01328427    -0.01370109    -0.07533000
Spot 2    -0.01310843    -0.01369961    -0.07533000
Spot 1    -0.01328421    -0.01370137    -0.07533000
Spot 2    -0.01310823    -0.01369976    -0.07533000
Spot 1    -0.01328444    -0.01370105    -0.07533000
Spot 2    -0.01310832    -0.01369981    -0.07533000
Spot 1    -0.01328431    -0.01370105    -0.07533000
Spot 2    -0.01310834    -0.01369987    -0.07533000
Spot 1    -0.01328428    -0.01370093    -0.07533000
Spot 2    -0.01310836    -0.01369976    -0.07533000
20MABNDA000208_PR042
Spot 1    -0.01387545     0.01309557    -0.07273700
Spot 2    -0.01380939     0.01309190    -0.07273700
Spot 1    -0.01387572     0.01309554    -0.07273700
Spot 2    -0.01381088     0.01309189    -0.07273700
Spot 1    -0.01387536     0.01309531    -0.07273700
Spot 2    -0.01380869     0.01309222    -0.07273700
Spot 1    -0.01387560     0.01309511    -0.07273700
Spot 2    -0.01380988     0.01309249    -0.07273700
Spot 1    -0.01387598     0.01309553    -0.07273700
Spot 2    -0.01381034     0.01309215    -0.07273700
20MABNDA000208_PR046
Spot 1    -0.01219709     0.01208644    -0.07273700
Spot 2    -0.01172392     0.01208346    -0.07273700
Spot 1    -0.01219715     0.01208646    -0.07273700
Spot 2    -0.01172389     0.01208399    -0.07273700
Spot 1    -0.01219727     0.01208645    -0.07273700
Spot 2    -0.01172339     0.01208367    -0.07273700
Spot 1    -0.01219717     0.01208633    -0.07273700
Spot 2    -0.01172385     0.01208352    -0.07273700
Spot 1    -0.01219696     0.01208650    -0.07273700
Spot 2    -0.01172412     0.01208366    -0.07273700
20MABNDA000035_PR044
Spot 1    -0.01157485     0.01296281    -0.07483200
Spot 2    -0.01152069     0.01296784    -0.07483200
Spot 1    -0.01157500     0.01296234    -0.07483200
Spot 2    -0.01152081     0.01296810    -0.07483200
Spot 1    -0.01157491     0.01296285    -0.07483200
Spot 2    -0.01152089     0.01296776    -0.07483200
Spot 1    -0.01157485     0.01296277    -0.07483200
Spot 2    -0.01152127     0.01296798    -0.07483200
Spot 1    -0.01157486     0.01296253    -0.07483200
Spot 2    -0.01152099     0.01296799    -0.07483200
20MABNDA000035_PR045
Spot 1    -0.01337797     0.01368997    -0.07483200
Spot 2    -0.01320199     0.01369049    -0.07483200
Spot 1    -0.01337812     0.01368988    -0.07483200
Spot 2    -0.01320182     0.01369037    -0.07483200
Spot 1    -0.01337816     0.01368989    -0.07483200
Spot 2    -0.01320195     0.01369032    -0.07483200
Spot 1    -0.01337814     0.01368990    -0.07483200
Spot 2    -0.01320180     0.01369035    -0.07483200
Spot 1    -0.01337809     0.01368981    -0.07483200
Spot 2    -0.01320198     0.01369036    -0.07483200
20MABNDL000077_PR002
Spot 1     0.01186463     0.03557302    -0.07463200
Spot 2     0.01202609     0.03557035    -0.07463200
Spot 1     0.01186457     0.03556989    -0.07463200
Spot 2     0.01202645     0.03557033    -0.07463200
Spot 1     0.01186473     0.03557268    -0.07463200
Spot 2     0.01202636     0.03557000    -0.07463200
Spot 1     0.01186472     0.03556986    -0.07463200
Spot 2     0.01202629     0.03556989    -0.07463200
Spot 1     0.01186476     0.03556996    -0.07463200
Spot 2     0.01202637     0.03556961    -0.07463200
20MABNDL000077_PR003
Spot 1     0.01259120     0.03525957    -0.07463200
Spot 2     0.01274013     0.03525778    -0.07463200
Spot 1     0.01259122     0.03526023    -0.07463200
Spot 2     0.01274014     0.03525787    -0.07463200
Spot 1     0.01259144     0.03525993    -0.07463200
Spot 2     0.01274024     0.03525774    -0.07463200
Spot 1     0.01259120     0.03525712    -0.07463200
Spot 2     0.01274016     0.03525769    -0.07463200
20MABNDL000077_20MABNDM000168
Spot 1    -0.01272247     0.03554946    -0.00695400
Spot 2    -0.01254150     0.03558137    -0.00695400
Spot 1    -0.01272261     0.03554925    -0.00695400
Spot 2    -0.01254158     0.03558119    -0.00695400
Spot 1    -0.01272254     0.03554915    -0.00695400
Spot 2    -0.01254146     0.03558101    -0.00695400
Spot 1    -0.01272264     0.03554891    -0.00695400
Spot 2    -0.01254146     0.03558072    -0.00695400
20MABNDL000077_PR024
Spot 1    -0.01347027     0.03577141    -0.00695400
Spot 2    -0.01357133     0.03577435    -0.00695400
Spot 1    -0.01346990     0.03577133    -0.00695400
Spot 2    -0.01357126     0.03577427    -0.00695400
Spot 1    -0.01347032     0.03577120    -0.00695400
Spot 2    -0.01357128     0.03577421    -0.00695400
Spot 1    -0.01347033     0.03577140    -0.00695400
Spot 2    -0.01357127     0.03577409    -0.00695400
20MABNDM000020_PR013
Spot 1    -0.01270062    -0.03609814    -0.00523500
Spot 2    -0.01285303    -0.03610814    -0.00523500
Spot 1    -0.01270106    -0.03609811    -0.00523500
Spot 2    -0.01285353    -0.03610866    -0.00523500
Spot 1    -0.01270169    -0.03609802    -0.00523500
Spot 2    -0.01285354    -0.03610791    -0.00523500
Spot 1    -0.01270098    -0.03609838    -0.00523500
Spot 2    -0.01285347    -0.03610769    -0.00523500
20MABNDM000020_PR014
Spot 1    -0.01166337    -0.03621435    -0.00523500
Spot 2    -0.01182554    -0.03622566    -0.00523500
Spot 1    -0.01166367    -0.03621455    -0.00523500
Spot 2    -0.01182520    -0.03622609    -0.00523500
Spot 1    -0.01166402    -0.03621496    -0.00523500
Spot 2    -0.01182511    -0.03622643    -0.00523500
Spot 1    -0.01166429    -0.03621488    -0.00523500
Spot 2    -0.01182552    -0.03622579    -0.00523500
20MABNDM000020_20MABNDL000196
Spot 1     0.01268479    -0.03454768    -0.07583800
Spot 2     0.01388114    -0.03418340    -0.07583800
Spot 1     0.01268482    -0.03454781    -0.07583800
Spot 2     0.01388114    -0.03418340    -0.07583800
Spot 1     0.01268458    -0.03454790    -0.07583800
Spot 2     0.01372118    -0.03443342    -0.07583800
Spot 1     0.01268457    -0.03454788    -0.07583800
Spot 2     0.01388114    -0.03418340    -0.07583800
20MABNDM000020_PR035
Spot 1     0.01342311    -0.03483849    -0.07583800
Spot 2     0.01349210    -0.03487345    -0.07583800
Spot 1     0.01342316    -0.03483820    -0.07583800
Spot 2     0.01349215    -0.03487358    -0.07583800
Spot 1     0.01342311    -0.03483775    -0.07583800
Spot 2     0.01349203    -0.03487358    -0.07583800
Spot 1     0.01342308    -0.03483791    -0.07583800
Spot 2     0.01349241    -0.03487365    -0.07583800
20MABNDA000188_PR008
Spot 1    -0.01373828     0.01388578    -0.07502000
Spot 2    -0.01385116     0.01393841    -0.07502000
Spot 1    -0.01385116     0.01393841    -0.07502000
Spot 2    -0.01385116     0.01393841    -0.07502000
Spot 1    -0.01409309     0.01400549    -0.07502000
Spot 2    -0.01385116     0.01393841    -0.07502000
Spot 1    -0.01385116     0.01393841    -0.07502000
Spot 2    -0.01385116     0.01393841    -0.07502000
20MABNDA000188_PR018
Spot 1    -0.01257734     0.01251281    -0.07502000
Spot 2    -0.01211074     0.01251155    -0.07502000
Spot 1    -0.01257737     0.01251283    -0.07502000
Spot 2    -0.01211048     0.01251149    -0.07502000
Spot 1    -0.01257744     0.01251281    -0.07502000
Spot 2    -0.01211063     0.01251177    -0.07502000
Spot 1    -0.01257763     0.01251284    -0.07502000
Spot 2    -0.01211063     0.01251182    -0.07502000
20MABNDA000039_PR009
Spot 1    -0.01162296     0.01303761    -0.07444800
Spot 2    -0.01157589     0.01303346    -0.07444800
Spot 1    -0.01162264     0.01303746    -0.07444800
Spot 2    -0.01157599     0.01303357    -0.07444800
Spot 1    -0.01162233     0.01303740    -0.07444800
Spot 2    -0.01157591     0.01303372    -0.07444800
Spot 1    -0.01162238     0.01303769    -0.07444800
Spot 2    -0.01157621     0.01303364    -0.07444800
20MABNDA000039_PR011
Spot 1    -0.01371998     0.01389420    -0.07444800
Spot 2    -0.01354488     0.01389804    -0.07444800
Spot 1    -0.01372002     0.01389405    -0.07444800
Spot 2    -0.01354512     0.01389782    -0.07444800
Spot 1    -0.01371989     0.01389436    -0.07444800
Spot 2    -0.01354492     0.01389771    -0.07444800
Spot 1    -0.01372012     0.01389412    -0.07444800
Spot 2    -0.01354494     0.01389776    -0.07444800
20MABNDB000155_PR020
Spot 1    -0.01359511    -0.01316567    -0.07501700
Spot 2    -0.01353248    -0.01316840    -0.07501700
Spot 1    -0.01359478    -0.01316526    -0.07501700
Spot 2    -0.01353326    -0.01316840    -0.07501700
Spot 1    -0.01359500    -0.01316524    -0.07501700
Spot 2    -0.01353349    -0.01316780    -0.07501700
Spot 1    -0.01359444    -0.01316586    -0.07501700
Spot 2    -0.01353252    -0.01316796    -0.07501700
20MABNDB000155_PR022
Spot 1    -0.01206284    -0.01309382    -0.07501700
Spot 2    -0.01158995    -0.01309124    -0.07501700
Spot 1    -0.01206275    -0.01309397    -0.07501700
Spot 2    -0.01159005    -0.01309127    -0.07501700
Spot 1    -0.01206269    -0.01309416    -0.07501700
Spot 2    -0.01158987    -0.01309139    -0.07501700
Spot 1    -0.01206273    -0.01309404    -0.07501700
Spot 2    -0.01158994    -0.01309124    -0.07501700
20MABNDB000010_PR021
Spot 1    -0.01158613    -0.01289140    -0.07358200
Spot 2    -0.01153440    -0.01288745    -0.07358200
Spot 1    -0.01158604    -0.01289152    -0.07358200
Spot 2    -0.01153367    -0.01288747    -0.07358200
Spot 1    -0.01158625    -0.01289124    -0.07358200
Spot 2    -0.01153401    -0.01288742    -0.07358200
Spot 1    -0.01158613    -0.01289129    -0.07358200
Spot 2    -0.01153428    -0.01288746    -0.07358200
20MABNDB000010_PR023
Spot 1    -0.01313003    -0.01369774    -0.07358200
Spot 2    -0.01295562    -0.01369596    -0.07358200
Spot 1    -0.01313025    -0.01369749    -0.07358200
Spot 2    -0.01295545    -0.01369580    -0.07358200
Spot 1    -0.01312991    -0.01369754    -0.07358200
Spot 2    -0.01295542    -0.01369594    -0.07358200
Spot 1    -0.01312988    -0.01369728    -0.07358200
Spot 2    -0.01295573    -0.01369608    -0.07358200
20MABNDB000212_PR029
Spot 1    -0.01182912    -0.01326024    -0.07390500
Spot 2    -0.01219490    -0.01325649    -0.07390500
Spot 1    -0.01182915    -0.01326020    -0.07390500
Spot 2    -0.01219496    -0.01325689    -0.07390500
Spot 1    -0.01182912    -0.01326029    -0.07390500
Spot 2    -0.01219440    -0.01325667    -0.07390500
Spot 1    -0.01182917    -0.01326033    -0.07390500
Spot 2    -0.01219496    -0.01325660    -0.07390500
20MABNDB000128_PR030
Spot 1    -0.01246557    -0.01220547    -0.07353400
Spot 2    -0.01226158    -0.01220971    -0.07353400
Spot 1    -0.01246542    -0.01220547    -0.07353400
Spot 2    -0.01226146    -0.01220972    -0.07353400
Spot 1    -0.01246551    -0.01220533    -0.07353400
Spot 2    -0.01226155    -0.01220994    -0.07353400
Spot 1    -0.01246561    -0.01220559    -0.07353400
Spot 2    -0.01226134    -0.01220995    -0.07353400
20MABNDA000444_PR040
Spot 1    -0.01172167     0.01365847    -0.07412000
Spot 2    -0.01208754     0.01365573    -0.07412000
Spot 1    -0.01172188     0.01365867    -0.07412000
Spot 2    -0.01208752     0.01365555    -0.07412000
Spot 1    -0.01172193     0.01365854    -0.07412000
Spot 2    -0.01208749     0.01365576    -0.07412000
Spot 1    -0.01172175     0.01365826    -0.07412000
Spot 2    -0.01208735     0.01365600    -0.07412000
20MABNDA000053_PR041
Spot 1    -0.01239854     0.01211359    -0.07430100
Spot 2    -0.01219653     0.01211243    -0.07430100
Spot 1    -0.01239888     0.01211378    -0.07430100
Spot 2    -0.01219635     0.01211282    -0.07430100
Spot 1    -0.01239878     0.01211375    -0.07430100
Spot 2    -0.01219657     0.01211245    -0.07430100
Spot 1    -0.01239909     0.01211391    -0.07430100
Spot 2    -0.01219635     0.01211281    -0.07430100
20MABNDA000196_PR006
Spot 1    -0.01294441     0.01321969    -0.07967100
Spot 2    -0.01258002     0.01322042    -0.07967100
Spot 1    -0.01294460     0.01321972    -0.07967100
Spot 2    -0.01258019     0.01322056    -0.07967100
Spot 1    -0.01294469     0.01321971    -0.07967100
Spot 2    -0.01258043     0.01322060    -0.07967100
Spot 1    -0.01294463     0.01321971    -0.07967100
Spot 2    -0.01258051     0.01322061    -0.07967100
20MABNDA000324_PR007
Spot 1    -0.01255475     0.01281113    -0.07446800
Spot 2    -0.01234926     0.01280647    -0.07446800
Spot 1    -0.01255495     0.01281094    -0.07446800
Spot 2    -0.01234920     0.01280652    -0.07446800
Spot 1    -0.01255493     0.01281105    -0.07446800
Spot 2    -0.01234905     0.01280665    -0.07446800
Spot 1    -0.01255482     0.01281091    -0.07446800
Spot 2    -0.01234904     0.01280642    -0.07446800
20MABNDB000001_PR017
Spot 1    -0.01230816    -0.01351960    -0.07418400
Spot 2    -0.01194013    -0.01351348    -0.07418400
Spot 1    -0.01230826    -0.01351970    -0.07418400
Spot 2    -0.01194000    -0.01351373    -0.07418400
Spot 1    -0.01230822    -0.01351968    -0.07418400
Spot 2    -0.01194013    -0.01351361    -0.07418400
Spot 1    -0.01230816    -0.01351953    -0.07418400
Spot 2    -0.01194007    -0.01351335    -0.07418400
20MABNDB000260_PR019
Spot 1    -0.01240567    -0.01240251    -0.07492700
Spot 2    -0.01220246    -0.01239720    -0.07492700
Spot 1    -0.01240578    -0.01240220    -0.07492700
Spot 2    -0.01220310    -0.01239774    -0.07492700
Spot 1    -0.01240568    -0.01240231    -0.07492700
Spot 2    -0.01220311    -0.01239745    -0.07492700
Spot 1    -0.01240596    -0.01240241    -0.07492700
Spot 2    -0.01220317    -0.01239833    -0.07492700
20MABNDB000135_PR027
Spot 1    -0.01251158    -0.01318731    -0.07464700
Spot 2    -0.01229338    -0.01318693    -0.07464700
Spot 1    -0.01251175    -0.01318729    -0.07464700
Spot 2    -0.01229326    -0.01318675    -0.07464700
Spot 1    -0.01251174    -0.01318730    -0.07464700
Spot 2    -0.01229310    -0.01318704    -0.07464700
Spot 1    -0.01251146    -0.01318691    -0.07464700
Spot 2    -0.01229316    -0.01318680    -0.07464700
20MABNDB000126_PR028
Spot 1    -0.01253298    -0.01217708    -0.07500400
Spot 2    -0.01225202    -0.01217289    -0.07500400
Spot 1    -0.01253314    -0.01217721    -0.07500400
Spot 2    -0.01225213    -0.01217292    -0.07500400
Spot 1    -0.01253295    -0.01217720    -0.07500400
Spot 2    -0.01225192    -0.01217287    -0.07500400
Spot 1    -0.01253313    -0.01217711    -0.07500400
Spot 2    -0.01225199    -0.01217297    -0.07500400
20MABNDA000272_PR038
Spot 1    -0.01275523     0.01314520    -0.07417900
Spot 2    -0.01253418     0.01314707    -0.07417900
Spot 1    -0.01275571     0.01314572    -0.07417900
Spot 2    -0.01253388     0.01314689    -0.07417900
Spot 1    -0.01275558     0.01314575    -0.07417900
Spot 2    -0.01253367     0.01314710    -0.07417900
Spot 1    -0.01275529     0.01314553    -0.07417900
Spot 2    -0.01253376     0.01314667    -0.07417900
20MABNDA000003_PR039
Spot 1    -0.01280016     0.01212761    -0.07373400
Spot 2    -0.01307823     0.01212848    -0.07373400
Spot 1    -0.01280022     0.01212770    -0.07373400
Spot 2    -0.01307808     0.01212844    -0.07373400
Spot 1    -0.01280008     0.01212796    -0.07373400
Spot 2    -0.01307852     0.01212866    -0.07373400
Spot 1    -0.01280007     0.01212773    -0.07373400
Spot 2    -0.01307805     0.01212876    -0.07373400
20MABNDA000318_PR004
Spot 1    -0.01286391     0.01246261    -0.07310600
Spot 2    -0.01264656     0.01246164    -0.07310600
Spot 1    -0.01286410     0.01246290    -0.07310600
Spot 2    -0.01264693     0.01246166    -0.07310600
Spot 1    -0.01286409     0.01246272    -0.07310600
Spot 2    -0.01264687     0.01246204    -0.07310600
Spot 1    -0.01286402     0.01246259    -0.07310600
Spot 2    -0.01264658     0.01246215    -0.07310600
20MABNDA000334_PR005
Spot 1    -0.01311730     0.01254603    -0.07324100
Spot 2    -0.01283690     0.01254497    -0.07324100
Spot 1    -0.01311732     0.01254599    -0.07324100
Spot 2    -0.01283696     0.01254502    -0.07324100
Spot 1    -0.01311714     0.01254593    -0.07324100
Spot 2    -0.01283708     0.01254492    -0.07324100
Spot 1    -0.01311703     0.01254592    -0.07324100
Spot 2    -0.01283677     0.01254517    -0.07324100
20MABNDB000317_PR015
Spot 1    -0.01266291    -0.01248805    -0.07326100
Spot 2    -0.01244375    -0.01249109    -0.07326100
Spot 1    -0.01266267    -0.01248788    -0.07326100
Spot 2    -0.01244393    -0.01249124    -0.07326100
Spot 1    -0.01266279    -0.01248808    -0.07326100
Spot 2    -0.01244378    -0.01249133    -0.07326100
Spot 1    -0.01266295    -0.01248810    -0.07326100
Spot 2    -0.01244380    -0.01249131    -0.07326100
20MABNDB000146_PR016
Spot 1    -0.01275880    -0.01245826    -0.07450500
Spot 2    -0.01248324    -0.01245509    -0.07450500
Spot 1    -0.01275871    -0.01245845    -0.07450500
Spot 2    -0.01248304    -0.01245538    -0.07450500
Spot 1    -0.01275861    -0.01245836    -0.07450500
Spot 2    -0.01248317    -0.01245521    -0.07450500
Spot 1    -0.01275865    -0.01245827    -0.07450500
Spot 2    -0.01248343    -0.01245533    -0.07450500
20MABNDM000168_PR025
Spot 1    -0.01335211    -0.03465272    -0.00532900
Spot 2    -0.01335211    -0.03465272    -0.00532900
Spot 1    -0.01335211    -0.03465272    -0.00532900
Spot 2    -0.01335211    -0.03465272    -0.00532900
Spot 1    -0.01335211    -0.03465272    -0.00532900
Spot 2    -0.01335211    -0.03465272    -0.00532900
Spot 1    -0.01335210    -0.03465397    -0.00532900
Spot 2    -0.01335211    -0.03465272    -0.00532900
20MABNDM000168_PR026
Spot 1    -0.01149310    -0.03441806    -0.00532900
Spot 2    -0.01183043    -0.03445868    -0.00532900
Spot 1    -0.01104580    -0.03437031    -0.00532900
Spot 2    -0.01199297    -0.03444938    -0.00532900
Spot 1    -0.01206821    -0.03439220    -0.00532900
Spot 2    -0.01246527    -0.03437890    -0.00532900
Spot 1    -0.01243330    -0.03437210    -0.00532900
Spot 2    -0.01184272    -0.03450623    -0.00532900
20MABNDM000168_20MABNDL000077
Spot 1     0.01288822    -0.03529684    -0.07445100
Spot 2     0.01266854    -0.03529844    -0.07445100
Spot 1     0.01288835    -0.03529697    -0.07445100
Spot 2     0.01266865    -0.03529826    -0.07445100
Spot 1     0.01288785    -0.03529776    -0.07445100
Spot 2     0.01266842    -0.03529818    -0.07445100
Spot 1     0.01288811    -0.03529765    -0.07445100
Spot 2     0.01266867    -0.03529829    -0.07445100
20MABNDM000168_PR001
Spot 1     0.01361596    -0.03562593    -0.07445100
Spot 2     0.01371726    -0.03563185    -0.07445100
Spot 1     0.01361633    -0.03562601    -0.07445100
Spot 2     0.01371750    -0.03563202    -0.07445100
Spot 1     0.01361626    -0.03562590    -0.07445100
Spot 2     0.01371709    -0.03563230    -0.07445100
Spot 1     0.01361651    -0.03562620    -0.07445100
Spot 2     0.01371716    -0.03563224    -0.07445100
20MABNDL000196_PR036
Spot 1     0.01194012     0.03583207    -0.07483600
Spot 2     0.01210324     0.03583175    -0.07483600
Spot 1     0.01194006     0.03583230    -0.07483600
Spot 2     0.01210319     0.03583217    -0.07483600
Spot 1     0.01193993     0.03583243    -0.07483600
Spot 2     0.01210292     0.03583223    -0.07483600
Spot 1     0.01193977     0.03583230    -0.07483600
Spot 2     0.01210312     0.03583243    -0.07483600
20MABNDL000196_PR037
Spot 1     0.01346189     0.03535759    -0.07483600
Spot 2     0.01361566     0.03535597    -0.07483600
Spot 1     0.01346143     0.03535763    -0.07483600
Spot 2     0.01361554     0.03535602    -0.07483600
Spot 1     0.01346159     0.03535753    -0.07483600
Spot 2     0.01361551     0.03535613    -0.07483600
Spot 1     0.01346166     0.03535742    -0.07483600
Spot 2     0.01361539     0.03535595    -0.07483600
20MABNDL000196_20MABNDM000020
Spot 1    -0.01277553     0.03529989    -0.00611000
Spot 2    -0.01255354     0.03530426    -0.00611000
Spot 1    -0.01277564     0.03530013    -0.00611000
Spot 2    -0.01255367     0.03530432    -0.00611000
Spot 1    -0.01277568     0.03530028    -0.00611000
Spot 2    -0.01255381     0.03530465    -0.00611000
Spot 1    -0.01277567     0.03530040    -0.00611000
Spot 2    -0.01255371     0.03530493    -0.00611000
20MABNDL000196_PR012
Spot 1    -0.01400421     0.03443829    -0.00611000
Spot 2    -0.01258044     0.03438943    -0.00611000
Spot 1    -0.01422890     0.03429624    -0.00611000
Spot 2    -0.01154789     0.03477028    -0.00611000
Spot 1    -0.01422890     0.03429624    -0.00611000
Spot 2    -0.01144906     0.03433218    -0.00611000
Spot 1    -0.01144906     0.03433218    -0.00611000
Spot 2    -0.01145161     0.03433463    -0.00611000


*****************************************************************coordonnees du prisme dans le repere MOUNT********************************************************************************** 
20MABNDB000069_PR031
    0.11134496    -0.10384623     9.20303345
    0.11131246    -0.10384551     9.20303345
    0.11128670    -0.10383032     9.20303345
    0.11134140    -0.10382828     9.20303345
    0.11137024    -0.10382824     9.20303249
20MABNDB000069_PR033
   -0.02819954    -0.02267436     1.28396344
   -0.02819756    -0.02267616     1.28396344
   -0.02819878    -0.02267671     1.28396344
   -0.02819683    -0.02267499     1.28396344
   -0.02819670    -0.02267825     1.28396344
20MABNDB000131_PR032
   -0.18824461    -0.03493268    11.00640774
   -0.18826386    -0.03488163    11.00640774
   -0.18828344    -0.03491388    11.00640774
   -0.18829516    -0.03490297    11.00640678
   -0.18824968    -0.03494220    11.00640774
20MABNDB000131_PR034
    0.01397254     0.01197191     3.43341780
    0.01396680     0.01198168     3.43341780
    0.01397412     0.01197556     3.43341780
    0.01397160     0.01197692     3.43341780
    0.01397140     0.01197167     3.43341780
20MABNDA000208_PR042
    0.12584069     0.00844055     9.20155048
    0.12594870     0.00844310     9.20154858
    0.12579224     0.00843682     9.20155144
    0.12587999     0.00843260     9.20155048
    0.12593153     0.00842774     9.20154953
20MABNDA000208_PR046
   -0.02555589     0.02966784     1.28213620
   -0.02555563     0.02966315     1.28213644
   -0.02555888     0.02966596     1.28213620
   -0.02555581     0.02966827     1.28213620
   -0.02555529     0.02966562     1.28213620
20MABNDA000035_PR044
   -0.17948195     0.03222048    11.00802231
   -0.17946209     0.03223643    11.00802231
   -0.17946291     0.03222400    11.00802231
   -0.17943957     0.03221359    11.00802231
   -0.17945994     0.03223056    11.00802231
20MABNDA000035_PR045
    0.01479192    -0.01401717     3.43487787
    0.01479150    -0.01401215     3.43487787
    0.01479538    -0.01401126     3.43487787
    0.01479150    -0.01401215     3.43487787
    0.01479448    -0.01401034     3.43487787
20MABNDL000077_PR002
    0.04958122     0.02142618     3.70690894
    0.04957382     0.02150406     3.70690918
    0.04957225     0.02144331     3.70690894
    0.04957418     0.02151567     3.70690918
    0.04957126     0.02152014     3.70690918
20MABNDL000077_PR003
    0.01406368     0.03693300     3.89605379
    0.01406271     0.03691354     3.89605379
    0.01405451     0.03692478     3.89605379
    0.01406275     0.03699895     3.89605379
20MABNDL000077_20MABNDM000168
   -0.01652119     0.01420488    -5.46871090
   -0.01651339     0.01421905    -5.46871090
   -0.01652036     0.01422908    -5.46871090
   -0.01651658     0.01424826    -5.46871090
20MABNDL000077_PR024
    0.05246995    -0.00370301    -5.89622116
    0.05245313    -0.00369694    -5.89622116
    0.05247021    -0.00368975    -5.89622116
    0.05246985    -0.00369287    -5.89622116
20MABNDM000020_PR013
   -0.00524042     0.01226889    -3.80216813
   -0.00521711     0.01228106    -3.80216789
   -0.00520126     0.01226008    -3.80216813
   -0.00522045     0.01226387    -3.80216813
20MABNDM000020_PR014
   -0.06760015     0.03178775    -4.74799824
   -0.06760149     0.03180732    -4.74799728
   -0.06759329     0.03183053    -4.74799728
   -0.06757195     0.03180831    -4.74799824
20MABNDM000020_20MABNDL000196
   -0.02601101    -0.08876749     5.39443254
   -0.02601209    -0.08876283     5.39443254
   -0.02027329    -0.07980330     5.39455128
   -0.02600313    -0.08876032     5.39443254
20MABNDM000020_PR035
   -0.04238850    -0.05496079     5.80099726
   -0.04239235    -0.05496695     5.80099726
   -0.04238580    -0.05498429     5.80099726
   -0.04239929    -0.05497543     5.80099726
20MABNDA000188_PR008
    0.12207115    -0.09151618     9.20347977
    0.12899831    -0.09474574     9.20333958
    0.14384425    -0.09885950     9.20304966
    0.12899831    -0.09474574     9.20333958
20MABNDA000188_PR018
   -0.01873653     0.02247303     1.28360200
   -0.01873858     0.02247339     1.28360200
   -0.01873663     0.02247115     1.28360200
   -0.01873501     0.02247054     1.28360200
20MABNDA000039_PR009
   -0.17159775     0.02945440    11.00700378
   -0.17161381     0.02945739    11.00700378
   -0.17164308     0.02945093    11.00700378
   -0.17161682     0.02943546    11.00700378
20MABNDA000039_PR011
    0.03050052    -0.02102306     3.43351126
    0.03050695    -0.02101465     3.43351126
    0.03049940    -0.02101918     3.43351126
    0.03050512    -0.02101487     3.43351126
20MABNDB000155_PR020
    0.09599159    -0.00428010     9.20035362
    0.09601895    -0.00430551     9.20035362
    0.09604648    -0.00434320     9.20035362
    0.09595251    -0.00429537     9.20035553
20MABNDB000155_PR022
   -0.02721869    -0.01316700     1.28069842
   -0.02721862    -0.01316546     1.28069842
   -0.02722071    -0.01316275     1.28069842
   -0.02721974    -0.01316513     1.28069842
20MABNDB000010_PR021
   -0.17536956    -0.03875134    11.00694752
   -0.17543000    -0.03874134    11.00694656
   -0.17538989    -0.03876566    11.00694752
   -0.17537898    -0.03875886    11.00694752
20MABNDB000010_PR023
    0.00458731     0.01593861     3.43380928
    0.00458861     0.01592946     3.43380928
    0.00458005     0.01593367     3.43380928
    0.00458652     0.01593080     3.43380928
20MABNDB000212_PR029
   -0.02589335    -0.00890339     1.64223504
   -0.02589232    -0.00889934     1.64223504
   -0.02589881    -0.00890092     1.64223504
   -0.02589212    -0.00890110     1.64223504
20MABNDB000128_PR030
   -0.01884745    -0.04723206     2.95495939
   -0.01885276    -0.04723188     2.95495939
   -0.01884923    -0.04723030     2.95495939
   -0.01885141    -0.04722500     2.95495939
20MABNDA000444_PR040
   -0.02945027     0.00129718     1.64491951
   -0.02944819     0.00129699     1.64491963
   -0.02944806     0.00129600     1.64491951
   -0.02945158     0.00129662     1.64491951
20MABNDA000053_PR041
   -0.02696466     0.05130866     2.95449924
   -0.02696155     0.05129721     2.95449972
   -0.02695923     0.05130521     2.95449924
   -0.02695747     0.05129477     2.95449972
20MABNDA000196_PR006
   -0.01030475     0.01053843     1.64206457
   -0.01030084     0.01053652     1.64206457
   -0.01029724     0.01053614     1.64206457
   -0.01029703     0.01053603     1.64206457
20MABNDA000324_PR007
   -0.02520577     0.02779647     2.95549226
   -0.02520284     0.02779925     2.95549226
   -0.02520634     0.02779450     2.95549226
   -0.02520856     0.02780177     2.95549226
20MABNDB000001_PR017
   -0.02398724    -0.00353086     1.64036489
   -0.02398753    -0.00352703     1.64036489
   -0.02398656    -0.00352857     1.64036489
   -0.02398792    -0.00353304     1.64036489
20MABNDB000260_PR019
   -0.02448168    -0.03827140     2.95627522
   -0.02446700    -0.03826696     2.95627522
   -0.02446890    -0.03827055     2.95627522
   -0.02446220    -0.03825130     2.95627546
20MABNDB000135_PR027
   -0.02107999    -0.01022763     2.74937153
   -0.02107894    -0.01023130     2.74937153
   -0.02108218    -0.01022595     2.74937153
   -0.02108616    -0.01023746     2.74937153
20MABNDB000126_PR028
   -0.02037170    -0.03886141     2.14679623
   -0.02036786    -0.03885911     2.14679623
   -0.02037356    -0.03886000     2.14679623
   -0.02037000    -0.03885984     2.14679623
20MABNDA000272_PR038
   -0.01335022     0.01132673     2.74965906
   -0.01334693     0.01132049     2.74965906
   -0.01335317     0.01131610     2.74965906
   -0.01335681     0.01132802     2.74965906
20MABNDA000003_PR039
   -0.00598388     0.04118203     2.14891624
   -0.00598517     0.04118132     2.14891624
   -0.00598090     0.04117445     2.14891624
   -0.00598776     0.04117633     2.14891624
20MABNDA000318_PR004
   -0.00851141     0.03866371     2.74965668
   -0.00850112     0.03865805     2.74965668
   -0.00850239     0.03865438     2.74965668
   -0.00850900     0.03865473     2.74965668
20MABNDA000334_PR005
   -0.00424202     0.03159196     2.14977264
   -0.00424088     0.03159181     2.14977264
   -0.00424174     0.03159410     2.14977264
   -0.00424774     0.03159053     2.14977264
20MABNDB000317_PR015
   -0.01749549    -0.03437284     2.75128698
   -0.01749640    -0.03437322     2.75128698
   -0.01749701    -0.03436795     2.75128698
   -0.01749373    -0.03436790     2.75128698
20MABNDB000146_PR016
   -0.01357936    -0.03187853     2.15201211
   -0.01358355    -0.03187164     2.15201211
   -0.01358311    -0.03187538     2.15201211
   -0.01357880    -0.03187494     2.15201211
20MABNDM000168_PR025
    0.02039144    -0.06973486    -3.78849745
    0.02039144    -0.06973486    -3.78849745
    0.02039144    -0.06973486    -3.78849745
    0.02039130    -0.06970395    -3.78849745
20MABNDM000168_PR026
   -0.06585455    -0.08266847    -3.98397374
   -0.07326382    -0.08415185    -3.98384786
   -0.03436390    -0.08542123    -3.98424172
   -0.04106574    -0.08263010    -3.98423290
20MABNDM000168_20MABNDL000077
    0.01136732    -0.03903644     5.38884640
    0.01135867    -0.03903847     5.38884640
    0.01138527    -0.03901299     5.38884640
    0.01136659    -0.03901272     5.38884640
20MABNDM000168_PR001
   -0.05760397    -0.01359100     5.81470346
   -0.05762785    -0.01358096     5.81470299
   -0.05760916    -0.01357464     5.81470346
   -0.05762142    -0.01356516     5.81470299
20MABNDL000196_PR036
    0.05070589     0.00575944     3.68777704
    0.05070863     0.00574348     3.68777704
    0.05071845     0.00573884     3.68777657
    0.05071747     0.00573712     3.68777657
20MABNDL000196_PR037
   -0.02572693     0.02872301     3.88380766
   -0.02571193     0.02872071     3.88380766
   -0.02571529     0.02872045     3.88380766
   -0.02571402     0.02872795     3.88380766
20MABNDL000196_20MABNDM000020
   -0.01388947     0.03900433    -5.47473907
   -0.01388062     0.03899337    -5.47473907
   -0.01387453     0.03897624    -5.47473907
   -0.01387819     0.03896180    -5.47473907
20MABNDL000196_PR012
    0.03480779     0.10827991    -5.91513443
    0.00341326     0.09900245    -5.91541290
   -0.00042827     0.11602607    -5.91521358
   -0.10834727     0.11452422    -5.91446304


*****************************************************************coordonnees du prisme dans le repere ATLAS********************************************************************************** 
20MABNDB000069_PR031 0.00000000
    3.69309378     3.84848833    -7.83655930
    3.69306111     3.84848833    -7.83656025
    3.69303536     3.84848833    -7.83657503
    3.69309020     3.84848809    -7.83657742
    3.69311905     3.84848714    -7.83657742
20MABNDB000069_PR033 0.00000000
    3.53209782    -4.07045460    -7.88299656
    3.53209972    -4.07045460    -7.88299465
    3.53209853    -4.07045460    -7.88299417
    3.53210044    -4.07045460    -7.88299561
    3.53210068    -4.07045460    -7.88299227
20MABNDB000131_PR032 0.00000000
    3.86904550     3.64755630   -12.94557571
    3.86906481     3.64755630   -12.94552422
    3.86908436     3.64755630   -12.94555664
    3.86909604     3.64755535   -12.94554615
    3.86905050     3.64755630   -12.94558525
20MABNDB000131_PR034 0.00000000
    3.67381525    -3.92559981   -12.89597607
    3.67382121    -3.92559981   -12.89596558
    3.67381382    -3.92559981   -12.89597225
    3.67381620    -3.92559981   -12.89597034
    3.67381644    -3.92559981   -12.89597607
20MABNDA000208_PR042 0.00000000
   -3.67591548     3.84922361    -7.90304232
   -3.67602348     3.84922171    -7.90303993
   -3.67586708     3.84922433    -7.90304613
   -3.67595482     3.84922361    -7.90305042
   -3.67600632     3.84922266    -7.90305519
20MABNDA000208_PR046 0.00000000
   -3.53020692    -4.07028913    -7.87884951
   -3.53020716    -4.07028913    -7.87885427
   -3.53020382    -4.07028913    -7.87885141
   -3.53020692    -4.07028913    -7.87884903
   -3.53020740    -4.07028913    -7.87885141
20MABNDA000035_PR044 0.00000000
   -3.86872387     3.64757800   -12.93789959
   -3.86870408     3.64757800   -12.93791580
   -3.86870480     3.64757800   -12.93790340
   -3.86868143     3.64757800   -12.93789291
   -3.86870193     3.64757800   -12.93791008
20MABNDA000035_PR045 0.00000000
   -3.67593741    -3.92560887   -12.89236736
   -3.67593765    -3.92560887   -12.89237213
   -3.67593384    -3.92560887   -12.89237309
   -3.67593765    -3.92560887   -12.89237213
   -3.67593479    -3.92560887   -12.89237404
20MABNDL000077_PR002 0.00000000
    2.83561468    -3.69493580     6.48618937
    2.83553672    -3.69494319     6.48618937
    2.83559752    -3.69494462     6.48618937
    2.83552527    -3.69494271     6.48618937
    2.83552074    -3.69494557     6.48618937
20MABNDL000077_PR003 0.00000000
    2.82028198    -3.73068166     6.67530537
    2.82030153    -3.73068261     6.67530537
    2.82029033    -3.73069096     6.67530537
    2.82021618    -3.73068261     6.67530537
20MABNDL000077_20MABNDM000168 0.00000000
    2.83381486    -3.74971962    -2.68950772
    2.83380055    -3.74971175    -2.68950772
    2.83379054    -3.74971867    -2.68950772
    2.83377147    -3.74971509    -2.68950772
20MABNDL000077_PR024 0.00000000
    2.85132527    -3.68020678    -3.11695004
    2.85131931    -3.68022346    -3.11695004
    2.85131216    -3.68020654    -3.11695004
    2.85131526    -3.68020678    -3.11695004
20MABNDM000020_PR013 0.00000000
   -2.86457777    -3.73423409     6.48601818
   -2.86458993    -3.73425746     6.48601770
   -2.86456895    -3.73427320     6.48601818
   -2.86457276    -3.73425412     6.48601818
20MABNDM000020_PR014 0.00000000
   -2.88388824    -3.67258763     7.43189907
   -2.88390779    -3.67258644     7.43189812
   -2.88393116    -3.67259455     7.43189812
   -2.88390899    -3.67261600     7.43189907
20MABNDM000020_20MABNDL000196 0.00000000
   -2.76537561    -3.70650005    -2.71058440
   -2.76538014    -3.70649910    -2.71058440
   -2.77434158    -3.71223497    -2.71070576
   -2.76538277    -3.70650792    -2.71058440
20MABNDM000020_PR035 0.00000000
   -2.79925847    -3.68980312    -3.11712980
   -2.79925251    -3.68979907    -3.11712980
   -2.79923511    -3.68980575    -3.11712980
   -2.79924393    -3.68979216    -3.11712980
20MABNDA000188_PR008 0.00000000
    3.53490019     3.84870982     8.10268497
    3.54177952     3.84863997     8.10601807
    3.55656505     3.84853196     8.11035252
    3.54177952     3.84863997     8.10601807
20MABNDA000188_PR018 0.00000000
    3.51835060    -4.07065296     7.90093660
    3.51834846    -4.07065296     7.90093660
    3.51835036    -4.07065296     7.90093851
    3.51835203    -4.07065296     7.90093946
20MABNDA000039_PR009 0.00000000
    3.87576938     3.64746022    12.94074821
    3.87578535     3.64746022    12.94075108
    3.87581468     3.64745998    12.94074535
    3.87578845     3.64746022    12.94072914
20MABNDA000039_PR011 0.00000000
    3.66452336    -3.92576599    12.88781357
    3.66451693    -3.92576599    12.88782215
    3.66452432    -3.92576599    12.88781738
    3.66451859    -3.92576599    12.88782215
20MABNDB000155_PR020 0.00000000
   -3.67464566     3.84890175     7.90258932
   -3.67467308     3.84890175     7.90256357
   -3.67470050     3.84890175     7.90252590
   -3.67460656     3.84890389     7.90257406
20MABNDB000155_PR022 0.00000000
   -3.53276324    -4.07044220     7.89489269
   -3.53276348    -4.07044220     7.89489412
   -3.53276134    -4.07044220     7.89489698
   -3.53276229    -4.07044220     7.89489460
20MABNDB000010_PR021 0.00000000
   -3.86120248     3.64768696    12.94058037
   -3.86126280     3.64768600    12.94056988
   -3.86122274     3.64768696    12.94059467
   -3.86121178     3.64768696    12.94058800
20MABNDB000010_PR023 0.00000000
   -3.68507528    -3.92556548    12.88933659
   -3.68507385    -3.92556548    12.88934612
   -3.68508244    -3.92556548    12.88934231
   -3.68507600    -3.92556548    12.88934517
20MABNDB000212_PR029 0.00000000
    2.59957099    -4.19501305    -6.54789114
    2.59957004    -4.19501305    -6.54788733
    2.59957647    -4.19501305    -6.54788876
    2.59956980    -4.19501305    -6.54788876
20MABNDB000128_PR030 0.00000000
    2.61001110    -4.14003038    -6.93088913
    2.61000586    -4.14003038    -6.93088913
    2.61000943    -4.14003038    -6.93089056
    2.61000729    -4.14003038    -6.93089581
20MABNDA000444_PR040 0.00000000
   -2.60462284    -4.19508982    -6.54047728
   -2.60462070    -4.19508982    -6.54047728
   -2.60462070    -4.19508982    -6.54047632
   -2.60462403    -4.19508982    -6.54047680
20MABNDA000053_PR041 0.00000000
   -2.59357738    -4.14013147    -6.92660475
   -2.59358048    -4.14013100    -6.92661619
   -2.59358287    -4.14013147    -6.92660809
   -2.59358454    -4.14013100    -6.92661858
20MABNDA000196_PR006 0.00000000
    2.58476520    -4.19496346     6.54849482
    2.58476138    -4.19496346     6.54849291
    2.58475780    -4.19496346     6.54849243
    2.58475757    -4.19496346     6.54849243
20MABNDA000324_PR007 0.00000000
    2.59410906    -4.13996601     6.94811869
    2.59411192    -4.13996601     6.94811583
    2.59410858    -4.13996601     6.94812059
    2.59410620    -4.13996601     6.94811344
20MABNDB000001_PR017 0.00000000
   -2.59768867    -4.19505119     6.53885889
   -2.59768915    -4.19505119     6.53885508
   -2.59768820    -4.19505119     6.53885651
   -2.59768939    -4.19505119     6.53886127
20MABNDB000260_PR019 0.00000000
   -2.60428023    -4.13995886     6.94237280
   -2.60429502    -4.13995886     6.94237709
   -2.60429311    -4.13995886     6.94237328
   -2.60429978    -4.13995886     6.94239283
20MABNDB000135_PR027 0.00000000
    2.60378313    -4.19700384    -3.82513332
    2.60378432    -4.19700384    -3.82512951
    2.60378098    -4.19700384    -3.82513499
    2.60377693    -4.19700384    -3.82512331
20MABNDB000126_PR028 0.00000000
    2.60554552    -4.19702053    -5.89335823
    2.60554934    -4.19702053    -5.89336061
    2.60554361    -4.19702053    -5.89335966
    2.60554719    -4.19702053    -5.89336014
20MABNDA000272_PR038 0.00000000
   -2.61118650    -4.19698238    -3.82715774
   -2.61118984    -4.19698238    -3.82716393
   -2.61118364    -4.19698238    -3.82716823
   -2.61118007    -4.19698238    -3.82715631
20MABNDA000003_PR039 0.00000000
   -2.61574721    -4.19702053    -5.89158487
   -2.61574602    -4.19702053    -5.89158535
   -2.61575031    -4.19702053    -5.89159203
   -2.61574340    -4.19702053    -5.89159012
20MABNDA000318_PR004 0.00000000
    2.61449170    -4.19698763     3.83333492
    2.61450195    -4.19698763     3.83334064
    2.61450076    -4.19698763     3.83334422
    2.61449409    -4.19698763     3.83334398
20MABNDA000334_PR005 0.00000000
    2.61675644    -4.19703054     5.89766884
    2.61675763    -4.19703054     5.89766932
    2.61675692    -4.19703054     5.89766693
    2.61675072    -4.19703054     5.89767027
20MABNDB000317_PR015 0.00000000
   -2.61111164    -4.19700384     3.83564258
   -2.61111069    -4.19700384     3.83564234
   -2.61111021    -4.19700384     3.83564758
   -2.61111355    -4.19700384     3.83564758
20MABNDB000146_PR016 0.00000000
   -2.61271572    -4.19702578     5.89847183
   -2.61271167    -4.19702578     5.89847851
   -2.61271214    -4.19702578     5.89847469
   -2.61271644    -4.19702578     5.89847517
20MABNDM000168_PR025 0.00000000
    2.78350139    -3.76570773    -6.47911263
    2.78350139    -3.76570773    -6.47911263
    2.78350139    -3.76570773    -6.47911263
    2.78353214    -3.76570749    -6.47911263
20MABNDM000168_PR026 0.00000000
    2.77057862    -3.67953110    -6.67462015
    2.76909733    -3.67212129    -6.67449665
    2.76781750    -3.71102095    -6.67487621
    2.77061057    -3.70431995    -6.67487001
20MABNDM000168_20MABNDL000077 0.00000000
    2.81475902    -3.75327945     2.69822550
    2.81475711    -3.75327063     2.69822550
    2.81478262    -3.75329733     2.69822550
    2.81478286    -3.75327849     2.69822550
20MABNDM000168_PR001 0.00000000
    2.84024858    -3.68415642     3.12405539
    2.84025860    -3.68413258     3.12405491
    2.84026504    -3.68415117     3.12405539
    2.84027457    -3.68413901     3.12405491
20MABNDL000196_PR036 0.00000000
   -2.84784770    -3.69356871    -6.47909975
   -2.84786367    -3.69356585    -6.47909975
   -2.84786844    -3.69355607    -6.47909927
   -2.84787011    -3.69355702    -6.47909927
20MABNDL000196_PR037 0.00000000
   -2.82485294    -3.77017307    -6.67505980
   -2.82485509    -3.77015805    -6.67505980
   -2.82485557    -3.77016139    -6.67505980
   -2.82484794    -3.77016020    -6.67505980
20MABNDL000196_20MABNDM000020 0.00000000
   -2.81437492    -3.74962568     2.68347168
   -2.81438589    -3.74961686     2.68347168
   -2.81440306    -3.74961066     2.68347168
   -2.81441736    -3.74961424     2.68347168
20MABNDL000196_PR012 0.00000000
   -2.74511242    -3.70048642     3.12382007
   -2.75437522    -3.73188519     3.12412786
   -2.73734975    -3.73571897     3.12393188
   -2.73880148    -3.84363914     3.12328172


*****************************************************************Rapport********************************************************************************** 
CAM-ECTC-US-IP_ECTC-US-IP-T    2016.04.30.11.07.42     3.69307990     3.84848804    -7.83656988     0.00002887     0.00000046     0.00000831 0.00000000 VRAI 
CAM-ECTC-US-IP_ECTC-US-IP      2016.04.30.11.07.42     3.53209944    -4.07045460    -7.88299465     0.00000110     0.00000000     0.00000145 0.00000000 VRAI 
CAM-ECTC-US-HO_ECTC-US-HO-T    2016.04.30.11.07.42     3.86906824     3.64755611   -12.94555759     0.00001937     0.00000038     0.00002163 0.00000000 VRAI 
CAM-ECTC-US-HO_ECTC-US-HO      2016.04.30.11.07.42     3.67381659    -3.92559981   -12.89597206     0.00000249     0.00000000     0.00000393 0.00000000 VRAI 
CAM-ECTC-USA-IP_ECTC-USA-IP-T  2016.04.30.11.07.42    -3.67595344     3.84922318    -7.90304680     0.00005762     0.00000091     0.00000550 0.00000000 VRAI 
CAM-ECTC-USA-IP_ECTC-USA-IP    2016.04.30.11.07.42    -3.53020644    -4.07028913    -7.87885113     0.00000132     0.00000000     0.00000185 0.00000000 VRAI 
CAM-ECTC-USA-HO_ECTC-USA-HO-T  2016.04.30.11.07.42    -3.86870322     3.64757800   -12.93790436     0.00001346     0.00000000     0.00000798 0.00000000 VRAI 
CAM-ECTC-USA-HO_ECTC-USA-HO    2016.04.30.11.07.42    -3.67593627    -3.92560887   -12.89237175     0.00000163     0.00000000     0.00000230 0.00000000 VRAI 
CAM-LBA-US_EBA-US-HO-H         2016.04.30.11.07.42     2.83555899    -3.69494238     6.48618937     0.00003919     0.00000344     0.00000000 0.00000000 VRAI 
CAM-LBA-US_JDA-US-H            2016.04.30.11.07.42     2.82027251    -3.73068446     6.67530537     0.00003325     0.00000377     0.00000000 0.00000000 VRAI 
CAM-LBA-US_CAM-LBC-US          2016.04.30.11.07.42     2.83379436    -3.74971628    -2.68950772     0.00001579     0.00000311     0.00000000 0.00000000 VRAI 
CAM-LBA-US_EBC-US-IP-H         2016.04.30.11.07.42     2.85131800    -3.68021089    -3.11695004     0.00000490     0.00000726     0.00000000 0.00000000 VRAI 
CAM-LBA-USA_EBA-USA-HO-H       2016.04.30.11.07.42    -2.86457735    -3.73425472     6.48601806     0.00000791     0.00001392     0.00000021 0.00000000 VRAI 
CAM-LBA-USA_JDA-USA-H          2016.04.30.11.07.42    -2.88390905    -3.67259616     7.43189859     0.00001519     0.00001187     0.00000048 0.00000000 VRAI 
CAM-LBA-USA_CAM-LBC-USA        2016.04.30.11.07.42    -2.76762003    -3.70793551    -2.71061474     0.00388069     0.00248230     0.00005255 0.00000000 VRAI 
CAM-LBA-USA_EBC-USA-IP-H       2016.04.30.11.07.42    -2.79924750    -3.68980002    -3.11712980     0.00000883     0.00000513     0.00000000 0.00000000 VRAI 
CAM-ECTA-US-IP_ECTA-US-IP-T    2016.04.30.11.07.42     3.54375607     3.84863043     8.10626841     0.00791059     0.00006360     0.00272242 0.00000000 VRAI 
CAM-ECTA-US-IP_ECTA-US-IP      2016.04.30.11.07.42     3.51835036    -4.07065296     7.90093780     0.00000127     0.00000000     0.00000124 0.00000000 VRAI 
CAM-ECTA-US-HO_ECTA-US-HO-T    2016.04.30.11.07.42     3.87578946     3.64746016    12.94074345     0.00001626     0.00000010     0.00000850 0.00000000 VRAI 
CAM-ECTA-US-HO_ECTA-US-HO      2016.04.30.11.07.42     3.66452080    -3.92576599    12.88781881     0.00000311     0.00000000     0.00000360 0.00000000 VRAI 
CAM-ECTA-USA-IP_ECTA-USA-IP-T  2016.04.30.11.07.42    -3.67465645     3.84890229     7.90256321     0.00003472     0.00000093     0.00002341 0.00000000 VRAI 
CAM-ECTA-USA-IP_ECTA-USA-IP    2016.04.30.11.07.42    -3.53276259    -4.07044220     7.89489460     0.00000085     0.00000000     0.00000155 0.00000000 VRAI 
CAM-ECTA-USA-HO_ECTA-USA-HO-T  2016.04.30.11.07.42    -3.86122495     3.64768672    12.94058323     0.00002300     0.00000041     0.00000922 0.00000000 VRAI 
CAM-ECTA-USA-HO_ECTA-USA-HO    2016.04.30.11.07.42    -3.68507689    -3.92556548    12.88934255     0.00000329     0.00000000     0.00000372 0.00000000 VRAI 
CAM-JDC-US-IP_JDC-US-IP        2016.04.30.11.07.42     2.59957182    -4.19501305    -6.54788899     0.00000272     0.00000000     0.00000137 0.00000000 VRAI 
CAM-JDC-US-HO_JDC-US-HO        2016.04.30.11.07.42     2.61000842    -4.14003038    -6.93089116     0.00000200     0.00000000     0.00000275 0.00000000 VRAI 
CAM-JDC-USA-IP_JDC-USA-IP      2016.04.30.11.07.42    -2.60462207    -4.19508982    -6.54047692     0.00000143     0.00000000     0.00000040 0.00000000 VRAI 
CAM-JDC-USA-HO_JDC-USA-HO      2016.04.30.11.07.42    -2.59358132    -4.14013124    -6.92661190     0.00000269     0.00000024     0.00000567 0.00000000 VRAI 
CAM-JDA-US-IP_JDA-US-IP        2016.04.30.11.07.42     2.58476049    -4.19496346     6.54849315     0.00000311     0.00000000     0.00000098 0.00000000 VRAI 
CAM-JDA-US-HO_JDA-US-HO        2016.04.30.11.07.42     2.59410894    -4.13996601     6.94811714     0.00000203     0.00000000     0.00000273 0.00000000 VRAI 
CAM-JDA-USA-IP_JDA-USA-IP      2016.04.30.11.07.42    -2.59768885    -4.19505119     6.53885794     0.00000046     0.00000000     0.00000236 0.00000000 VRAI 
CAM-JDA-USA-HO_JDA-USA-HO      2016.04.30.11.07.42    -2.60429204    -4.13995886     6.94237900     0.00000723     0.00000000     0.00000816 0.00000000 VRAI 
CAM-EBC-US-IP_EBC-US-IP        2016.04.30.11.07.42     2.60378134    -4.19700384    -3.82513028     0.00000281     0.00000000     0.00000449 0.00000000 VRAI 
CAM-EBC-US-HO_EBC-US-HO        2016.04.30.11.07.42     2.60554641    -4.19702053    -5.89335966     0.00000211     0.00000000     0.00000089 0.00000000 VRAI 
CAM-EBC-USA-IP_EBC-USA-IP      2016.04.30.11.07.42    -2.61118501    -4.19698238    -3.82716155     0.00000360     0.00000000     0.00000480 0.00000000 VRAI 
CAM-EBC-USA-HO_EBC-USA-HO      2016.04.30.11.07.42    -2.61574674    -4.19702053    -5.89158809     0.00000248     0.00000000     0.00000306 0.00000000 VRAI 
CAM-EBA-US-IP_EBA-US-IP        2016.04.30.11.07.42     2.61449713    -4.19698763     3.83334094     0.00000434     0.00000000     0.00000375 0.00000000 VRAI 
CAM-EBA-US-HO_EBA-US-HO        2016.04.30.11.07.42     2.61675543    -4.19703054     5.89766884     0.00000275     0.00000000     0.00000122 0.00000000 VRAI 
CAM-EBA-USA-IP_EBA-USA-IP      2016.04.30.11.07.42    -2.61111152    -4.19700384     3.83564502     0.00000128     0.00000000     0.00000256 0.00000000 VRAI 
CAM-EBA-USA-HO_EBA-USA-HO      2016.04.30.11.07.42    -2.61271399    -4.19702578     5.89847505     0.00000211     0.00000000     0.00000237 0.00000000 VRAI 
CAM-LBC-US_EBC-US-HO-H         2016.04.30.11.07.42     2.78350908    -3.76570767    -6.47911263     0.00001332     0.00000010     0.00000000 0.00000000 VRAI 
CAM-LBC-US_JDC-US-H            2016.04.30.11.07.42     2.76952600    -3.69174832    -6.67471576     0.00116050     0.01630921     0.00016332 0.00000000 VRAI 
CAM-LBC-US_CAM-LBA-US          2016.04.30.11.07.42     2.81477040    -3.75328147     2.69822550     0.00001236     0.00000977     0.00000000 0.00000000 VRAI 
CAM-LBC-US_EBA-US-IP-H         2016.04.30.11.07.42     2.84026170    -3.68414479     3.12405515     0.00000947     0.00000947     0.00000024 0.00000000 VRAI 
CAM-LBC-USA_EBC-USA-HO-H       2016.04.30.11.07.42    -2.84786248    -3.69356191    -6.47909951     0.00000886     0.00000547     0.00000024 0.00000000 VRAI 
CAM-LBC-USA_JDC-USA-H          2016.04.30.11.07.42    -2.82485288    -3.77016318    -6.67505980     0.00000302     0.00000584     0.00000000 0.00000000 VRAI 
CAM-LBC-USA_CAM-LBA-USA        2016.04.30.11.07.42    -2.81439531    -3.74961686     2.68347168     0.00001621     0.00000555     0.00000000 0.00000000 VRAI 
CAM-LBC-USA_EBA-USA-IP-H       2016.04.30.11.07.42    -2.74390972    -3.75293243     3.12379038     0.00671008     0.05412388     0.00031366 0.00000000 VRAI 
