********** Fichier qui contient une sauvegarde des coordonnees images + coordonnees images transformees dans le repere BCAM (MOUNT) + coordonnees des prismes dans le repere MOUNT********** 
********************************************************************** Unite en metres (m)************************************************************************************************** 

*******************************************************************coordonnees images dans le repere CCD *********************************************************************************** 
20MABNDB000069_PR031
Spot 1     0.00034925     0.00137900
Spot 2     0.00037243     0.00140271
Spot 1     0.00034989     0.00137989
Spot 2     0.00037327     0.00140294
Spot 1     0.00035035     0.00137849
Spot 2     0.00037268     0.00140234
Spot 1     0.00034939     0.00137915
Spot 2     0.00037228     0.00140314
Spot 1     0.00021500     0.00240500
Spot 2     0.00037294     0.00140234
20MABNDB000069_PR033
Spot 1     0.00183444     0.00200902
Spot 2     0.00230356     0.00202862
Spot 1     0.00183429     0.00200908
Spot 2     0.00230369     0.00202869
Spot 1     0.00183447     0.00200904
Spot 2     0.00230361     0.00202873
Spot 1     0.00183459     0.00200908
Spot 2     0.00230369     0.00202863
Spot 1     0.00183445     0.00200909
Spot 2     0.00230359     0.00202860
20MABNDB000131_PR032
Spot 1     0.00277889     0.00108564
Spot 2     0.00283777     0.00108933
Spot 1     0.00277891     0.00108591
Spot 2     0.00283802     0.00108909
Spot 1     0.00277898     0.00108595
Spot 2     0.00283779     0.00108932
Spot 1     0.00277908     0.00108570
Spot 2     0.00283797     0.00108922
Spot 1     0.00277915     0.00108577
Spot 2     0.00283777     0.00108911
20MABNDB000131_PR034
Spot 1     0.00092784     0.00035936
Spot 2     0.00110354     0.00035824
Spot 1     0.00092774     0.00035952
Spot 2     0.00110362     0.00035831
Spot 1     0.00092775     0.00035946
Spot 2     0.00110374     0.00035828
Spot 1     0.00092766     0.00035948
Spot 2     0.00110349     0.00035843
Spot 1     0.00092765     0.00035945
Spot 2     0.00110350     0.00035825
20MABNDA000208_PR042
Spot 1     0.00305276     0.00094005
Spot 2     0.00298732     0.00094130
Spot 1     0.00305295     0.00094004
Spot 2     0.00298866     0.00094181
Spot 1     0.00305137     0.00094009
Spot 2     0.00298787     0.00094182
Spot 1     0.00305242     0.00094013
Spot 2     0.00298726     0.00094125
Spot 1     0.00305250     0.00093981
Spot 2     0.00298809     0.00094136
20MABNDA000208_PR046
Spot 1     0.00145491     0.00210101
Spot 2     0.00098047     0.00210401
Spot 1     0.00145491     0.00210118
Spot 2     0.00098037     0.00210412
Spot 1     0.00145485     0.00210104
Spot 2     0.00098071     0.00210403
Spot 1     0.00145521     0.00210089
Spot 2     0.00098053     0.00210388
Spot 1     0.00145491     0.00210099
Spot 2     0.00098033     0.00210435
20MABNDA000035_PR044
Spot 1     0.00073970     0.00126673
Spot 2     0.00068606     0.00126121
Spot 1     0.00074007     0.00126722
Spot 2     0.00068676     0.00126116
Spot 1     0.00074000     0.00126716
Spot 2     0.00068655     0.00126130
Spot 1     0.00073968     0.00126715
Spot 2     0.00068642     0.00126131
Spot 1     0.00073979     0.00126711
Spot 2     0.00068622     0.00126142
20MABNDA000035_PR045
Spot 1     0.00254818     0.00051505
Spot 2     0.00237176     0.00051353
Spot 1     0.00254793     0.00051508
Spot 2     0.00237195     0.00051338
Spot 1     0.00254785     0.00051496
Spot 2     0.00237166     0.00051342
Spot 1     0.00254805     0.00051500
Spot 2     0.00237176     0.00051368
Spot 1     0.00254790     0.00051508
Spot 2     0.00237170     0.00051349
20MABNDL000077_PR002
Spot 1     0.00079506     0.00149626
Spot 2     0.00095673     0.00149709
Spot 1     0.00079500     0.00149579
Spot 2     0.00095683     0.00149730
Spot 1     0.00079489     0.00149584
Spot 2     0.00095664     0.00149739
Spot 1     0.00079477     0.00149639
Spot 2     0.00095676     0.00149672
Spot 1     0.00079477     0.00149638
Spot 2     0.00095679     0.00149634
20MABNDL000077_PR003
Spot 1     0.00152604     0.00118975
Spot 2     0.00167659     0.00119162
Spot 1     0.00152564     0.00119017
Spot 2     0.00167644     0.00119182
Spot 1     0.00152581     0.00118992
Spot 2     0.00167616     0.00119196
Spot 1     0.00152545     0.00118970
Spot 2     0.00167604     0.00119167
Spot 1     0.00152575     0.00118973
Spot 2     0.00167637     0.00119184
20MABNDL000077_20MABNDM000168
Spot 1     0.00188380     0.00148494
Spot 2     0.00170273     0.00151477
Spot 1     0.00188392     0.00148500
Spot 2     0.00170253     0.00151500
Spot 1     0.00188397     0.00148526
Spot 2     0.00170254     0.00151511
Spot 1     0.00188405     0.00148539
Spot 2     0.00170251     0.00151500
20MABNDL000077_PR024
Spot 1     0.00262789     0.00171311
Spot 2     0.00272924     0.00171760
Spot 1     0.00262787     0.00171337
Spot 2     0.00272913     0.00171758
Spot 1     0.00262768     0.00171345
Spot 2     0.00272930     0.00171785
Spot 1     0.00262785     0.00171360
Spot 2     0.00272917     0.00171795
20MABNDM000020_PR013
Spot 1     0.00164144     0.00213888
Spot 2     0.00148921     0.00214533
Spot 1     0.00164156     0.00213830
Spot 2     0.00148890     0.00214485
Spot 1     0.00164137     0.00213880
Spot 2     0.00148858     0.00214497
Spot 1     0.00164127     0.00213838
Spot 2     0.00148856     0.00214439
20MABNDM000020_PR014
Spot 1     0.00267915     0.00227892
Spot 2     0.00251715     0.00228600
Spot 1     0.00267832     0.00227949
Spot 2     0.00251644     0.00228654
Spot 1     0.00267874     0.00227944
Spot 2     0.00251664     0.00228675
Spot 1     0.00267845     0.00227829
Spot 2     0.00251673     0.00228616
20MABNDM000020_20MABNDL000196
Spot 1     0.00200158     0.00057946
Spot 2     0.00080500     0.00021500
Spot 1     0.00200155     0.00057955
Spot 2     0.00080500     0.00021500
Spot 1     0.00200165     0.00057951
Spot 2     0.00080500     0.00021500
Spot 1     0.00200137     0.00057929
Spot 2     0.00080500     0.00021500
20MABNDM000020_PR035
Spot 1     0.00126811     0.00087597
Spot 2     0.00119577     0.00090750
Spot 1     0.00126806     0.00087535
Spot 2     0.00119549     0.00090749
Spot 1     0.00126867     0.00087479
Spot 2     0.00119567     0.00090723
Spot 1     0.00126846     0.00087443
Spot 2     0.00119583     0.00090703
20MABNDA000188_PR008
Spot 1     0.00283500     0.00012500
Spot 2     0.00318214     0.00010500
Spot 1     0.00283500     0.00012500
Spot 2     0.00283500     0.00012500
Spot 1     0.00279500     0.00010500
Spot 2     0.00319000     0.00010500
Spot 1     0.00283500     0.00012500
Spot 2     0.00283500     0.00012500
20MABNDA000188_PR018
Spot 1     0.00164730     0.00174724
Spot 2     0.00118011     0.00174440
Spot 1     0.00164708     0.00174708
Spot 2     0.00118014     0.00174423
Spot 1     0.00164731     0.00174720
Spot 2     0.00118008     0.00174445
Spot 1     0.00164724     0.00174724
Spot 2     0.00118008     0.00174445
20MABNDA000039_PR009
Spot 1     0.00066208     0.00117352
Spot 2     0.00061559     0.00117732
Spot 1     0.00066193     0.00117355
Spot 2     0.00061570     0.00117744
Spot 1     0.00066282     0.00117282
Spot 2     0.00061500     0.00117772
Spot 1     0.00066279     0.00117288
Spot 2     0.00061553     0.00117766
20MABNDA000039_PR011
Spot 1     0.00276295     0.00027832
Spot 2     0.00258809     0.00027388
Spot 1     0.00276298     0.00027840
Spot 2     0.00258809     0.00027406
Spot 1     0.00276275     0.00027803
Spot 2     0.00258794     0.00027382
Spot 1     0.00276294     0.00027839
Spot 2     0.00258804     0.00027397
20MABNDB000155_PR020
Spot 1     0.00061773     0.00112298
Spot 2     0.00068091     0.00111932
Spot 1     0.00061864     0.00112295
Spot 2     0.00068083     0.00111912
Spot 1     0.00061891     0.00112291
Spot 2     0.00068160     0.00111898
Spot 1     0.00061877     0.00112250
Spot 2     0.00068049     0.00111916
20MABNDB000155_PR022
Spot 1     0.00208348     0.00134485
Spot 2     0.00255650     0.00134013
Spot 1     0.00208343     0.00134500
Spot 2     0.00255658     0.00134032
Spot 1     0.00208362     0.00134489
Spot 2     0.00255643     0.00134023
Spot 1     0.00208367     0.00134478
Spot 2     0.00255644     0.00134021
20MABNDB000010_PR021
Spot 1     0.00286656     0.00115711
Spot 2     0.00291902     0.00115967
Spot 1     0.00286671     0.00115678
Spot 2     0.00291888     0.00115952
Spot 1     0.00286624     0.00115620
Spot 2     0.00291906     0.00115934
Spot 1     0.00286695     0.00115669
Spot 2     0.00291948     0.00115952
20MABNDB000010_PR023
Spot 1     0.00130696     0.00033344
Spot 2     0.00148171     0.00033167
Spot 1     0.00130685     0.00033315
Spot 2     0.00148170     0.00033194
Spot 1     0.00130703     0.00033323
Spot 2     0.00148131     0.00033199
Spot 1     0.00130697     0.00033330
Spot 2     0.00148155     0.00033170
20MABNDB000212_PR029
Spot 1     0.00226142     0.00072578
Spot 2     0.00189532     0.00072532
Spot 1     0.00226114     0.00072574
Spot 2     0.00189532     0.00072516
Spot 1     0.00226139     0.00072564
Spot 2     0.00189531     0.00072531
Spot 1     0.00226112     0.00072550
Spot 2     0.00189532     0.00072565
20MABNDB000128_PR030
Spot 1     0.00188619     0.00200641
Spot 2     0.00209017     0.00200087
Spot 1     0.00188648     0.00200624
Spot 2     0.00209018     0.00200104
Spot 1     0.00188627     0.00200641
Spot 2     0.00209010     0.00200108
Spot 1     0.00188632     0.00200637
Spot 2     0.00209008     0.00200122
20MABNDA000444_PR040
Spot 1     0.00078310     0.00037333
Spot 2     0.00114844     0.00037123
Spot 1     0.00078324     0.00037332
Spot 2     0.00114935     0.00037145
Spot 1     0.00078344     0.00037328
Spot 2     0.00114871     0.00037145
Spot 1     0.00078297     0.00037313
Spot 2     0.00114903     0.00037145
20MABNDA000053_PR041
Spot 1     0.00164482     0.00199034
Spot 2     0.00144210     0.00198725
Spot 1     0.00164472     0.00199055
Spot 2     0.00144228     0.00198743
Spot 1     0.00164489     0.00199041
Spot 2     0.00144216     0.00198714
Spot 1     0.00164472     0.00199034
Spot 2     0.00144220     0.00198698
20MABNDA000196_PR006
Spot 1     0.00198654     0.00075833
Spot 2     0.00162132     0.00075362
Spot 1     0.00198662     0.00075851
Spot 2     0.00162131     0.00075379
Spot 1     0.00198659     0.00075858
Spot 2     0.00162131     0.00075366
Spot 1     0.00198672     0.00075849
Spot 2     0.00162130     0.00075357
20MABNDA000324_PR007
Spot 1     0.00195140     0.00120382
Spot 2     0.00174613     0.00120950
Spot 1     0.00195130     0.00120394
Spot 2     0.00174611     0.00120963
Spot 1     0.00195151     0.00120359
Spot 2     0.00174627     0.00120968
Spot 1     0.00195130     0.00120373
Spot 2     0.00174626     0.00120965
20MABNDB000001_PR017
Spot 1     0.00188497     0.00047108
Spot 2     0.00225384     0.00048094
Spot 1     0.00188511     0.00047108
Spot 2     0.00225397     0.00048103
Spot 1     0.00188503     0.00047117
Spot 2     0.00225386     0.00048100
Spot 1     0.00188505     0.00047124
Spot 2     0.00225384     0.00048138
20MABNDB000260_PR019
Spot 1     0.00192032     0.00149400
Spot 2     0.00212411     0.00149500
Spot 1     0.00192003     0.00149406
Spot 2     0.00212415     0.00149543
Spot 1     0.00191992     0.00149370
Spot 2     0.00212409     0.00149500
Spot 1     0.00191984     0.00149396
Spot 2     0.00212432     0.00149500
20MABNDB000135_PR027
Spot 1     0.00189130     0.00092361
Spot 2     0.00210960     0.00092606
Spot 1     0.00189123     0.00092358
Spot 2     0.00210976     0.00092616
Spot 1     0.00189122     0.00092380
Spot 2     0.00210954     0.00092639
Spot 1     0.00189135     0.00092385
Spot 2     0.00210967     0.00092633
20MABNDB000126_PR028
Spot 1     0.00164452     0.00200071
Spot 2     0.00192563     0.00200311
Spot 1     0.00164456     0.00200083
Spot 2     0.00192554     0.00200326
Spot 1     0.00164453     0.00200097
Spot 2     0.00192568     0.00200338
Spot 1     0.00164461     0.00200076
Spot 2     0.00192549     0.00200313
20MABNDA000272_PR038
Spot 1     0.00192382     0.00096297
Spot 2     0.00170234     0.00096191
Spot 1     0.00192393     0.00096293
Spot 2     0.00170181     0.00096128
Spot 1     0.00192388     0.00096276
Spot 2     0.00170195     0.00096153
Spot 1     0.00192453     0.00096272
Spot 2     0.00170213     0.00096149
20MABNDA000003_PR039
Spot 1     0.00200138     0.00192077
Spot 2     0.00227896     0.00192108
Spot 1     0.00200138     0.00192093
Spot 2     0.00227884     0.00192081
Spot 1     0.00200132     0.00192077
Spot 2     0.00227884     0.00192101
Spot 1     0.00200146     0.00192081
Spot 2     0.00227893     0.00192088
20MABNDA000318_PR004
Spot 1     0.00214712     0.00163243
Spot 2     0.00192990     0.00163282
Spot 1     0.00214708     0.00163254
Spot 2     0.00192981     0.00163312
Spot 1     0.00214704     0.00163212
Spot 2     0.00192956     0.00163279
Spot 1     0.00214730     0.00163252
Spot 2     0.00192977     0.00163265
20MABNDA000334_PR005
Spot 1     0.00247418     0.00158090
Spot 2     0.00219404     0.00158131
Spot 1     0.00247406     0.00158064
Spot 2     0.00219418     0.00158148
Spot 1     0.00247443     0.00158065
Spot 2     0.00219392     0.00158137
Spot 1     0.00247410     0.00158065
Spot 2     0.00219392     0.00158143
20MABNDB000317_PR015
Spot 1     0.00148832     0.00160990
Spot 2     0.00170771     0.00160292
Spot 1     0.00148804     0.00161004
Spot 2     0.00170765     0.00160272
Spot 1     0.00148825     0.00161009
Spot 2     0.00170770     0.00160311
Spot 1     0.00148833     0.00161007
Spot 2     0.00170776     0.00160303
20MABNDB000146_PR016
Spot 1     0.00144678     0.00133204
Spot 2     0.00172180     0.00133459
Spot 1     0.00144668     0.00133234
Spot 2     0.00172202     0.00133476
Spot 1     0.00144673     0.00133232
Spot 2     0.00172189     0.00133458
Spot 1     0.00144690     0.00133224
Spot 2     0.00172188     0.00133484
20MABNDM000168_PR025
Spot 1     0.00105500     0.00031500
Spot 2     0.00105500     0.00031500
Spot 1     0.00105500     0.00031500
Spot 2     0.00105500     0.00031500
Spot 1     0.00105500     0.00031643
Spot 2     0.00105500     0.00031500
Spot 1     0.00105500     0.00031500
Spot 2     0.00105500     0.00031500
20MABNDM000168_PR026
Spot 1     0.00337500     0.00002500
Spot 2     0.00217750     0.00004750
Spot 1     0.00235750     0.00050750
Spot 2     0.00336167     0.00006167
Spot 1     0.00268750     0.00010750
Spot 2     0.00307167     0.00009833
Spot 1     0.00256900     0.00017900
Spot 2     0.00267750     0.00039750
20MABNDM000168_20MABNDL000077
Spot 1     0.00153772     0.00129731
Spot 2     0.00175636     0.00130005
Spot 1     0.00153747     0.00129759
Spot 2     0.00175615     0.00130000
Spot 1     0.00153757     0.00129740
Spot 2     0.00175596     0.00129990
Spot 1     0.00153762     0.00129750
Spot 2     0.00175636     0.00130020
20MABNDM000168_PR001
Spot 1     0.00080622     0.00161561
Spot 2     0.00070509     0.00162019
Spot 1     0.00080624     0.00161574
Spot 2     0.00070500     0.00162013
Spot 1     0.00080621     0.00161570
Spot 2     0.00070504     0.00162020
Spot 1     0.00080596     0.00161588
Spot 2     0.00070509     0.00162038
20MABNDL000196_PR036
Spot 1     0.00095936     0.00164422
Spot 2     0.00112260     0.00164386
Spot 1     0.00095923     0.00164429
Spot 2     0.00112232     0.00164411
Spot 1     0.00095900     0.00164467
Spot 2     0.00112209     0.00164427
Spot 1     0.00095898     0.00164449
Spot 2     0.00112227     0.00164418
20MABNDL000196_PR037
Spot 1     0.00248331     0.00116538
Spot 2     0.00263729     0.00116349
Spot 1     0.00248335     0.00116527
Spot 2     0.00263704     0.00116351
Spot 1     0.00248319     0.00116544
Spot 2     0.00263707     0.00116351
Spot 1     0.00248339     0.00116538
Spot 2     0.00263704     0.00116354
20MABNDL000196_20MABNDM000020
Spot 1     0.00195191     0.00102915
Spot 2     0.00173007     0.00102916
Spot 1     0.00195217     0.00102929
Spot 2     0.00173014     0.00102920
Spot 1     0.00195242     0.00102943
Spot 2     0.00173011     0.00102934
Spot 1     0.00195236     0.00102960
Spot 2     0.00173032     0.00102963
20MABNDL000196_PR012
Spot 1     0.00342500     0.00005500
Spot 2     0.00304500     0.00006500
Spot 1     0.00064500     0.00003500
Spot 2     0.00315667     0.00069500
Spot 1     0.00315500     0.00069500
Spot 2     0.00273676     0.00137265
Spot 1     0.00315500     0.00069500
Spot 2     0.00273688     0.00137313


****************************************************************coordonnees images transformees dans le repere MOUNT************************************************************************* 
20MABNDB000069_PR031
Spot 1    -0.01352813    -0.01289133    -0.07388500
Spot 2    -0.01350399    -0.01286860    -0.07388500
Spot 1    -0.01352746    -0.01289047    -0.07388500
Spot 2    -0.01350314    -0.01286840    -0.07388500
Spot 1    -0.01352705    -0.01289189    -0.07388500
Spot 2    -0.01350376    -0.01286898    -0.07388500
Spot 1    -0.01352799    -0.01289119    -0.07388500
Spot 2    -0.01350413    -0.01286816    -0.07388500
Spot 1    -0.01361993    -0.01186066    -0.07388500
Spot 2    -0.01350350    -0.01286899    -0.07388500
20MABNDB000069_PR033
Spot 1    -0.01201821    -0.01232314    -0.07388500
Spot 2    -0.01154868    -0.01232291    -0.07388500
Spot 1    -0.01201836    -0.01232307    -0.07388500
Spot 2    -0.01154855    -0.01232285    -0.07388500
Spot 1    -0.01201818    -0.01232312    -0.07388500
Spot 2    -0.01154862    -0.01232281    -0.07388500
Spot 1    -0.01201806    -0.01232308    -0.07388500
Spot 2    -0.01154855    -0.01232291    -0.07388500
Spot 1    -0.01201820    -0.01232307    -0.07388500
Spot 2    -0.01154865    -0.01232293    -0.07388500
20MABNDB000131_PR032
Spot 1    -0.01144130    -0.01302910    -0.07533000
Spot 2    -0.01138244    -0.01302512    -0.07533000
Spot 1    -0.01144128    -0.01302883    -0.07533000
Spot 2    -0.01138219    -0.01302536    -0.07533000
Spot 1    -0.01144121    -0.01302879    -0.07533000
Spot 2    -0.01138242    -0.01302513    -0.07533000
Spot 1    -0.01144111    -0.01302904    -0.07533000
Spot 2    -0.01138224    -0.01302523    -0.07533000
Spot 1    -0.01144104    -0.01302897    -0.07533000
Spot 2    -0.01138244    -0.01302534    -0.07533000
20MABNDB000131_PR034
Spot 1    -0.01328867    -0.01376469    -0.07533000
Spot 2    -0.01311297    -0.01376493    -0.07533000
Spot 1    -0.01328877    -0.01376454    -0.07533000
Spot 2    -0.01311289    -0.01376486    -0.07533000
Spot 1    -0.01328876    -0.01376460    -0.07533000
Spot 2    -0.01311277    -0.01376489    -0.07533000
Spot 1    -0.01328885    -0.01376458    -0.07533000
Spot 2    -0.01311302    -0.01376474    -0.07533000
Spot 1    -0.01328886    -0.01376461    -0.07533000
Spot 2    -0.01311301    -0.01376492    -0.07533000
20MABNDA000208_PR042
Spot 1    -0.01392349     0.01305597    -0.07273700
Spot 2    -0.01385805     0.01305478    -0.07273700
Spot 1    -0.01392368     0.01305598    -0.07273700
Spot 2    -0.01385939     0.01305427    -0.07273700
Spot 1    -0.01392210     0.01305594    -0.07273700
Spot 2    -0.01385860     0.01305426    -0.07273700
Spot 1    -0.01392315     0.01305589    -0.07273700
Spot 2    -0.01385799     0.01305483    -0.07273700
Spot 1    -0.01392323     0.01305621    -0.07273700
Spot 2    -0.01385882     0.01305472    -0.07273700
20MABNDA000208_PR046
Spot 1    -0.01232462     0.01189642    -0.07273700
Spot 2    -0.01185018     0.01189383    -0.07273700
Spot 1    -0.01232462     0.01189625    -0.07273700
Spot 2    -0.01185008     0.01189372    -0.07273700
Spot 1    -0.01232456     0.01189639    -0.07273700
Spot 2    -0.01185042     0.01189381    -0.07273700
Spot 1    -0.01232492     0.01189654    -0.07273700
Spot 2    -0.01185024     0.01189396    -0.07273700
Spot 1    -0.01232462     0.01189644    -0.07273700
Spot 2    -0.01185004     0.01189349    -0.07273700
20MABNDA000035_PR044
Spot 1    -0.01157442     0.01299053    -0.07483200
Spot 2    -0.01152074     0.01299567    -0.07483200
Spot 1    -0.01157479     0.01299004    -0.07483200
Spot 2    -0.01152144     0.01299572    -0.07483200
Spot 1    -0.01157472     0.01299010    -0.07483200
Spot 2    -0.01152123     0.01299558    -0.07483200
Spot 1    -0.01157440     0.01299011    -0.07483200
Spot 2    -0.01152110     0.01299557    -0.07483200
Spot 1    -0.01157451     0.01299015    -0.07483200
Spot 2    -0.01152090     0.01299546    -0.07483200
20MABNDA000035_PR045
Spot 1    -0.01337750     0.01375505    -0.07483200
Spot 2    -0.01320108     0.01375532    -0.07483200
Spot 1    -0.01337725     0.01375502    -0.07483200
Spot 2    -0.01320127     0.01375547    -0.07483200
Spot 1    -0.01337717     0.01375514    -0.07483200
Spot 2    -0.01320098     0.01375543    -0.07483200
Spot 1    -0.01337737     0.01375510    -0.07483200
Spot 2    -0.01320108     0.01375517    -0.07483200
Spot 1    -0.01337722     0.01375502    -0.07483200
Spot 2    -0.01320102     0.01375536    -0.07483200
20MABNDL000077_PR002
Spot 1     0.01186535     0.03557173    -0.07463200
Spot 2     0.01202702     0.03557100    -0.07463200
Spot 1     0.01186528     0.03557126    -0.07463200
Spot 2     0.01202712     0.03557121    -0.07463200
Spot 1     0.01186517     0.03557131    -0.07463200
Spot 2     0.01202693     0.03557130    -0.07463200
Spot 1     0.01186506     0.03557186    -0.07463200
Spot 2     0.01202705     0.03557063    -0.07463200
Spot 1     0.01186506     0.03557185    -0.07463200
Spot 2     0.01202707     0.03557025    -0.07463200
20MABNDL000077_PR003
Spot 1     0.01259334     0.03525820    -0.07463200
Spot 2     0.01274391     0.03525862    -0.07463200
Spot 1     0.01259295     0.03525862    -0.07463200
Spot 2     0.01274376     0.03525882    -0.07463200
Spot 1     0.01259312     0.03525837    -0.07463200
Spot 2     0.01274348     0.03525896    -0.07463200
Spot 1     0.01259275     0.03525815    -0.07463200
Spot 2     0.01274336     0.03525867    -0.07463200
Spot 1     0.01259305     0.03525818    -0.07463200
Spot 2     0.01274369     0.03525884    -0.07463200
20MABNDL000077_20MABNDM000168
Spot 1    -0.01272202     0.03554661    -0.00695400
Spot 2    -0.01254126     0.03557829    -0.00695400
Spot 1    -0.01272214     0.03554667    -0.00695400
Spot 2    -0.01254106     0.03557853    -0.00695400
Spot 1    -0.01272219     0.03554693    -0.00695400
Spot 2    -0.01254107     0.03557864    -0.00695400
Spot 1    -0.01272227     0.03554706    -0.00695400
Spot 2    -0.01254104     0.03557853    -0.00695400
20MABNDL000077_PR024
Spot 1    -0.01346840     0.03576715    -0.00695400
Spot 2    -0.01356979     0.03577061    -0.00695400
Spot 1    -0.01346838     0.03576741    -0.00695400
Spot 2    -0.01356968     0.03577059    -0.00695400
Spot 1    -0.01346820     0.03576750    -0.00695400
Spot 2    -0.01356985     0.03577086    -0.00695400
Spot 1    -0.01346837     0.03576764    -0.00695400
Spot 2    -0.01356973     0.03577096    -0.00695400
20MABNDM000020_PR013
Spot 1    -0.01270397    -0.03609710    -0.00523500
Spot 2    -0.01285602    -0.03610691    -0.00523500
Spot 1    -0.01270387    -0.03609651    -0.00523500
Spot 2    -0.01285634    -0.03610644    -0.00523500
Spot 1    -0.01270404    -0.03609702    -0.00523500
Spot 2    -0.01285666    -0.03610656    -0.00523500
Spot 1    -0.01270415    -0.03609660    -0.00523500
Spot 2    -0.01285669    -0.03610599    -0.00523500
20MABNDM000020_PR014
Spot 1    -0.01166342    -0.03621415    -0.00523500
Spot 2    -0.01182522    -0.03622482    -0.00523500
Spot 1    -0.01166424    -0.03621474    -0.00523500
Spot 2    -0.01182592    -0.03622537    -0.00523500
Spot 1    -0.01166382    -0.03621468    -0.00523500
Spot 2    -0.01182572    -0.03622558    -0.00523500
Spot 1    -0.01166413    -0.03621354    -0.00523500
Spot 2    -0.01182564    -0.03622498    -0.00523500
20MABNDM000020_20MABNDL000196
Spot 1     0.01268461    -0.03454803    -0.07583800
Spot 2     0.01388114    -0.03418340    -0.07583800
Spot 1     0.01268465    -0.03454812    -0.07583800
Spot 2     0.01388114    -0.03418340    -0.07583800
Spot 1     0.01268455    -0.03454808    -0.07583800
Spot 2     0.01388114    -0.03418340    -0.07583800
Spot 1     0.01268482    -0.03454786    -0.07583800
Spot 2     0.01388114    -0.03418340    -0.07583800
20MABNDM000020_PR035
Spot 1     0.01341813    -0.03484444    -0.07583800
Spot 2     0.01349047    -0.03487596    -0.07583800
Spot 1     0.01341818    -0.03484382    -0.07583800
Spot 2     0.01349075    -0.03487595    -0.07583800
Spot 1     0.01341757    -0.03484326    -0.07583800
Spot 2     0.01349057    -0.03487569    -0.07583800
Spot 1     0.01341778    -0.03484290    -0.07583800
Spot 2     0.01349041    -0.03487549    -0.07583800
20MABNDA000188_PR008
Spot 1    -0.01385116     0.01393841    -0.07502000
Spot 2    -0.01419812     0.01396139    -0.07502000
Spot 1    -0.01385116     0.01393841    -0.07502000
Spot 2    -0.01385116     0.01393841    -0.07502000
Spot 1    -0.01381099     0.01395807    -0.07502000
Spot 2    -0.01420598     0.01396145    -0.07502000
Spot 1    -0.01385116     0.01393841    -0.07502000
Spot 2    -0.01385116     0.01393841    -0.07502000
20MABNDA000188_PR018
Spot 1    -0.01267740     0.01230606    -0.07502000
Spot 2    -0.01221020     0.01230490    -0.07502000
Spot 1    -0.01267717     0.01230622    -0.07502000
Spot 2    -0.01221023     0.01230507    -0.07502000
Spot 1    -0.01267740     0.01230610    -0.07502000
Spot 2    -0.01221017     0.01230485    -0.07502000
Spot 1    -0.01267734     0.01230606    -0.07502000
Spot 2    -0.01221017     0.01230485    -0.07502000
20MABNDA000039_PR009
Spot 1    -0.01162420     0.01307061    -0.07444800
Spot 2    -0.01157773     0.01306661    -0.07444800
Spot 1    -0.01162405     0.01307058    -0.07444800
Spot 2    -0.01157784     0.01306649    -0.07444800
Spot 1    -0.01162494     0.01307131    -0.07444800
Spot 2    -0.01157714     0.01306620    -0.07444800
Spot 1    -0.01162491     0.01307125    -0.07444800
Spot 2    -0.01157767     0.01306626    -0.07444800
20MABNDA000039_PR011
Spot 1    -0.01372118     0.01397489    -0.07444800
Spot 2    -0.01354630     0.01397857    -0.07444800
Spot 1    -0.01372121     0.01397481    -0.07444800
Spot 2    -0.01354630     0.01397839    -0.07444800
Spot 1    -0.01372098     0.01397518    -0.07444800
Spot 2    -0.01354615     0.01397863    -0.07444800
Spot 1    -0.01372117     0.01397482    -0.07444800
Spot 2    -0.01354625     0.01397848    -0.07444800
20MABNDB000155_PR020
Spot 1    -0.01364834    -0.01313442    -0.07501700
Spot 2    -0.01358511    -0.01313721    -0.07501700
Spot 1    -0.01364743    -0.01313444    -0.07501700
Spot 2    -0.01358519    -0.01313741    -0.07501700
Spot 1    -0.01364716    -0.01313447    -0.07501700
Spot 2    -0.01358442    -0.01313754    -0.07501700
Spot 1    -0.01364729    -0.01313488    -0.07501700
Spot 2    -0.01358553    -0.01313738    -0.07501700
20MABNDB000155_PR022
Spot 1    -0.01218576    -0.01289250    -0.07501700
Spot 2    -0.01171272    -0.01289075    -0.07501700
Spot 1    -0.01218581    -0.01289235    -0.07501700
Spot 2    -0.01171264    -0.01289056    -0.07501700
Spot 1    -0.01218562    -0.01289246    -0.07501700
Spot 2    -0.01171279    -0.01289065    -0.07501700
Spot 1    -0.01218557    -0.01289257    -0.07501700
Spot 2    -0.01171278    -0.01289067    -0.07501700
20MABNDB000010_PR021
Spot 1    -0.01158452    -0.01292144    -0.07358200
Spot 2    -0.01153211    -0.01291799    -0.07358200
Spot 1    -0.01158436    -0.01292177    -0.07358200
Spot 2    -0.01153224    -0.01291814    -0.07358200
Spot 1    -0.01158482    -0.01292235    -0.07358200
Spot 2    -0.01153206    -0.01291832    -0.07358200
Spot 1    -0.01158412    -0.01292185    -0.07358200
Spot 2    -0.01153164    -0.01291813    -0.07358200
20MABNDB000010_PR023
Spot 1    -0.01312994    -0.01377141    -0.07358200
Spot 2    -0.01295518    -0.01377022    -0.07358200
Spot 1    -0.01313004    -0.01377170    -0.07358200
Spot 2    -0.01295520    -0.01376995    -0.07358200
Spot 1    -0.01312986    -0.01377162    -0.07358200
Spot 2    -0.01295559    -0.01376991    -0.07358200
Spot 1    -0.01312993    -0.01377155    -0.07358200
Spot 2    -0.01295534    -0.01377019    -0.07358200
20MABNDB000212_PR029
Spot 1    -0.01182616    -0.01325579    -0.07390500
Spot 2    -0.01219225    -0.01325234    -0.07390500
Spot 1    -0.01182644    -0.01325582    -0.07390500
Spot 2    -0.01219225    -0.01325250    -0.07390500
Spot 1    -0.01182619    -0.01325593    -0.07390500
Spot 2    -0.01219226    -0.01325235    -0.07390500
Spot 1    -0.01182646    -0.01325606    -0.07390500
Spot 2    -0.01219224    -0.01325201    -0.07390500
20MABNDB000128_PR030
Spot 1    -0.01246895    -0.01221095    -0.07353400
Spot 2    -0.01226495    -0.01221579    -0.07353400
Spot 1    -0.01246866    -0.01221112    -0.07353400
Spot 2    -0.01226494    -0.01221562    -0.07353400
Spot 1    -0.01246887    -0.01221095    -0.07353400
Spot 2    -0.01226502    -0.01221558    -0.07353400
Spot 1    -0.01246882    -0.01221099    -0.07353400
Spot 2    -0.01226504    -0.01221544    -0.07353400
20MABNDA000444_PR040
Spot 1    -0.01172268     0.01365600    -0.07412000
Spot 2    -0.01208802     0.01365347    -0.07412000
Spot 1    -0.01172282     0.01365601    -0.07412000
Spot 2    -0.01208892     0.01365324    -0.07412000
Spot 1    -0.01172302     0.01365605    -0.07412000
Spot 2    -0.01208828     0.01365324    -0.07412000
Spot 1    -0.01172255     0.01365621    -0.07412000
Spot 2    -0.01208860     0.01365324    -0.07412000
20MABNDA000053_PR041
Spot 1    -0.01240148     0.01211996    -0.07430100
Spot 2    -0.01219874     0.01211909    -0.07430100
Spot 1    -0.01240138     0.01211975    -0.07430100
Spot 2    -0.01219892     0.01211891    -0.07430100
Spot 1    -0.01240155     0.01211989    -0.07430100
Spot 2    -0.01219880     0.01211920    -0.07430100
Spot 1    -0.01240138     0.01211996    -0.07430100
Spot 2    -0.01219883     0.01211936    -0.07430100
20MABNDA000196_PR006
Spot 1    -0.01294162     0.01321990    -0.07967100
Spot 2    -0.01257637     0.01321992    -0.07967100
Spot 1    -0.01294170     0.01321972    -0.07967100
Spot 2    -0.01257636     0.01321975    -0.07967100
Spot 1    -0.01294167     0.01321965    -0.07967100
Spot 2    -0.01257636     0.01321988    -0.07967100
Spot 1    -0.01294180     0.01321975    -0.07967100
Spot 2    -0.01257635     0.01321997    -0.07967100
20MABNDA000324_PR007
Spot 1    -0.01255718     0.01281773    -0.07446800
Spot 2    -0.01235187     0.01281365    -0.07446800
Spot 1    -0.01255708     0.01281761    -0.07446800
Spot 2    -0.01235185     0.01281352    -0.07446800
Spot 1    -0.01255729     0.01281795    -0.07446800
Spot 2    -0.01235201     0.01281347    -0.07446800
Spot 1    -0.01255708     0.01281782    -0.07446800
Spot 2    -0.01235200     0.01281350    -0.07446800
20MABNDB000001_PR017
Spot 1    -0.01230305    -0.01351842    -0.07418400
Spot 2    -0.01193410    -0.01351247    -0.07418400
Spot 1    -0.01230291    -0.01351843    -0.07418400
Spot 2    -0.01193396    -0.01351238    -0.07418400
Spot 1    -0.01230299    -0.01351834    -0.07418400
Spot 2    -0.01193407    -0.01351241    -0.07418400
Spot 1    -0.01230297    -0.01351827    -0.07418400
Spot 2    -0.01193409    -0.01351203    -0.07418400
20MABNDB000260_PR019
Spot 1    -0.01241084    -0.01240859    -0.07492700
Spot 2    -0.01220711    -0.01240341    -0.07492700
Spot 1    -0.01241113    -0.01240853    -0.07492700
Spot 2    -0.01220708    -0.01240298    -0.07492700
Spot 1    -0.01241123    -0.01240890    -0.07492700
Spot 2    -0.01220713    -0.01240341    -0.07492700
Spot 1    -0.01241132    -0.01240864    -0.07492700
Spot 2    -0.01220690    -0.01240340    -0.07492700
20MABNDB000135_PR027
Spot 1    -0.01251329    -0.01318941    -0.07464700
Spot 2    -0.01229497    -0.01318940    -0.07464700
Spot 1    -0.01251336    -0.01318944    -0.07464700
Spot 2    -0.01229481    -0.01318930    -0.07464700
Spot 1    -0.01251336    -0.01318922    -0.07464700
Spot 2    -0.01229503    -0.01318906    -0.07464700
Spot 1    -0.01251323    -0.01318917    -0.07464700
Spot 2    -0.01229490    -0.01318913    -0.07464700
20MABNDB000126_PR028
Spot 1    -0.01253497    -0.01218146    -0.07500400
Spot 2    -0.01225388    -0.01217756    -0.07500400
Spot 1    -0.01253493    -0.01218134    -0.07500400
Spot 2    -0.01225397    -0.01217741    -0.07500400
Spot 1    -0.01253496    -0.01218120    -0.07500400
Spot 2    -0.01225383    -0.01217729    -0.07500400
Spot 1    -0.01253488    -0.01218141    -0.07500400
Spot 2    -0.01225402    -0.01217754    -0.07500400
20MABNDA000272_PR038
Spot 1    -0.01275949     0.01314850    -0.07417900
Spot 2    -0.01253801     0.01314917    -0.07417900
Spot 1    -0.01275960     0.01314854    -0.07417900
Spot 2    -0.01253748     0.01314980    -0.07417900
Spot 1    -0.01275955     0.01314871    -0.07417900
Spot 2    -0.01253762     0.01314955    -0.07417900
Spot 1    -0.01276020     0.01314875    -0.07417900
Spot 2    -0.01253780     0.01314959    -0.07417900
20MABNDA000003_PR039
Spot 1    -0.01280245     0.01213150    -0.07373400
Spot 2    -0.01308003     0.01213189    -0.07373400
Spot 1    -0.01280245     0.01213134    -0.07373400
Spot 2    -0.01307991     0.01213216    -0.07373400
Spot 1    -0.01280239     0.01213150    -0.07373400
Spot 2    -0.01307991     0.01213196    -0.07373400
Spot 1    -0.01280253     0.01213146    -0.07373400
Spot 2    -0.01308000     0.01213209    -0.07373400
20MABNDA000318_PR004
Spot 1    -0.01286692     0.01246280    -0.07310600
Spot 2    -0.01264970     0.01246305    -0.07310600
Spot 1    -0.01286688     0.01246269    -0.07310600
Spot 2    -0.01264961     0.01246275    -0.07310600
Spot 1    -0.01286684     0.01246311    -0.07310600
Spot 2    -0.01264936     0.01246308    -0.07310600
Spot 1    -0.01286710     0.01246271    -0.07310600
Spot 2    -0.01264957     0.01246322    -0.07310600
20MABNDA000334_PR005
Spot 1    -0.01311729     0.01254750    -0.07324100
Spot 2    -0.01283715     0.01254682    -0.07324100
Spot 1    -0.01311717     0.01254776    -0.07324100
Spot 2    -0.01283729     0.01254665    -0.07324100
Spot 1    -0.01311754     0.01254775    -0.07324100
Spot 2    -0.01283703     0.01254676    -0.07324100
Spot 1    -0.01311721     0.01254775    -0.07324100
Spot 2    -0.01283703     0.01254670    -0.07324100
20MABNDB000317_PR015
Spot 1    -0.01266609    -0.01248814    -0.07326100
Spot 2    -0.01244663    -0.01249256    -0.07326100
Spot 1    -0.01266637    -0.01248800    -0.07326100
Spot 2    -0.01244669    -0.01249276    -0.07326100
Spot 1    -0.01266616    -0.01248795    -0.07326100
Spot 2    -0.01244664    -0.01249237    -0.07326100
Spot 1    -0.01266608    -0.01248797    -0.07326100
Spot 2    -0.01244658    -0.01249245    -0.07326100
20MABNDB000146_PR016
Spot 1    -0.01276158    -0.01246157    -0.07450500
Spot 2    -0.01248657    -0.01245841    -0.07450500
Spot 1    -0.01276168    -0.01246127    -0.07450500
Spot 2    -0.01248635    -0.01245824    -0.07450500
Spot 1    -0.01276163    -0.01246129    -0.07450500
Spot 2    -0.01248648    -0.01245842    -0.07450500
Spot 1    -0.01276146    -0.01246137    -0.07450500
Spot 2    -0.01248649    -0.01245816    -0.07450500
20MABNDM000168_PR025
Spot 1    -0.01335211    -0.03465272    -0.00532900
Spot 2    -0.01335211    -0.03465272    -0.00532900
Spot 1    -0.01335211    -0.03465272    -0.00532900
Spot 2    -0.01335211    -0.03465272    -0.00532900
Spot 1    -0.01335210    -0.03465415    -0.00532900
Spot 2    -0.01335211    -0.03465272    -0.00532900
Spot 1    -0.01335211    -0.03465272    -0.00532900
Spot 2    -0.01335211    -0.03465272    -0.00532900
20MABNDM000168_PR026
Spot 1    -0.01103337    -0.03435275    -0.00532900
Spot 2    -0.01223077    -0.03438040    -0.00532900
Spot 1    -0.01204879    -0.03483962    -0.00532900
Spot 2    -0.01104655    -0.03438948    -0.00532900
Spot 1    -0.01172051    -0.03443821    -0.00532900
Spot 2    -0.01133639    -0.03442739    -0.00532900
Spot 1    -0.01183870    -0.03451021    -0.00532900
Spot 2    -0.01172927    -0.03472825    -0.00532900
20MABNDM000168_20MABNDL000077
Spot 1     0.01288778    -0.03529800    -0.07445100
Spot 2     0.01266912    -0.03529754    -0.07445100
Spot 1     0.01288803    -0.03529828    -0.07445100
Spot 2     0.01266934    -0.03529749    -0.07445100
Spot 1     0.01288793    -0.03529809    -0.07445100
Spot 2     0.01266953    -0.03529740    -0.07445100
Spot 1     0.01288788    -0.03529819    -0.07445100
Spot 2     0.01266912    -0.03529769    -0.07445100
20MABNDM000168_PR001
Spot 1     0.01361455    -0.03562697    -0.07445100
Spot 2     0.01371560    -0.03563303    -0.07445100
Spot 1     0.01361452    -0.03562710    -0.07445100
Spot 2     0.01371569    -0.03563297    -0.07445100
Spot 1     0.01361456    -0.03562706    -0.07445100
Spot 2     0.01371565    -0.03563304    -0.07445100
Spot 1     0.01361480    -0.03562724    -0.07445100
Spot 2     0.01371560    -0.03563322    -0.07445100
20MABNDL000196_PR036
Spot 1     0.01193928     0.03583294    -0.07483600
Spot 2     0.01210252     0.03583293    -0.07483600
Spot 1     0.01193915     0.03583301    -0.07483600
Spot 2     0.01210224     0.03583317    -0.07483600
Spot 1     0.01193891     0.03583339    -0.07483600
Spot 2     0.01210200     0.03583333    -0.07483600
Spot 1     0.01193889     0.03583321    -0.07483600
Spot 2     0.01210218     0.03583324    -0.07483600
20MABNDL000196_PR037
Spot 1     0.01346422     0.03535728    -0.07483600
Spot 2     0.01361820     0.03535572    -0.07483600
Spot 1     0.01346426     0.03535718    -0.07483600
Spot 2     0.01361795     0.03535574    -0.07483600
Spot 1     0.01346410     0.03535734    -0.07483600
Spot 2     0.01361798     0.03535574    -0.07483600
Spot 1     0.01346430     0.03535729    -0.07483600
Spot 2     0.01361795     0.03535577    -0.07483600
20MABNDL000196_20MABNDM000020
Spot 1    -0.01277571     0.03529983    -0.00611000
Spot 2    -0.01255391     0.03530430    -0.00611000
Spot 1    -0.01277597     0.03529997    -0.00611000
Spot 2    -0.01255398     0.03530434    -0.00611000
Spot 1    -0.01277622     0.03530010    -0.00611000
Spot 2    -0.01255395     0.03530448    -0.00611000
Spot 1    -0.01277616     0.03530027    -0.00611000
Spot 2    -0.01255417     0.03530477    -0.00611000
20MABNDL000196_PR012
Spot 1    -0.01422890     0.03429624    -0.00611000
Spot 2    -0.01384918     0.03431388    -0.00611000
Spot 1    -0.01144906     0.03433218    -0.00611000
Spot 2    -0.01397350     0.03494151    -0.00611000
Spot 1    -0.01397183     0.03494154    -0.00611000
Spot 2    -0.01356731     0.03562747    -0.00611000
Spot 1    -0.01397183     0.03494154    -0.00611000
Spot 2    -0.01356744     0.03562795    -0.00611000


*****************************************************************coordonnees du prisme dans le repere MOUNT********************************************************************************** 
20MABNDB000069_PR031
    0.09727135    -0.03676198     9.20362854
    0.09717783    -0.03682686     9.20362949
    0.09719087    -0.03670464     9.20362949
    0.09727050    -0.03679754     9.20362854
    0.10286530    -0.09994529     9.20318127
20MABNDB000069_PR033
   -0.02694840    -0.02591094     1.28394985
   -0.02694828    -0.02591206     1.28394985
   -0.02694913    -0.02591203     1.28394985
   -0.02695082    -0.02591144     1.28394985
   -0.02694876    -0.02591136     1.28394985
20MABNDB000131_PR032
   -0.18814267    -0.03097268    11.00641632
   -0.18816237    -0.03097497    11.00641632
   -0.18815058    -0.03099464    11.00641632
   -0.18817118    -0.03096917    11.00641632
   -0.18816170    -0.03096620    11.00641632
20MABNDB000131_PR034
    0.01417613     0.01491020     3.43339324
    0.01417662     0.01490496     3.43339324
    0.01417364     0.01490700     3.43339324
    0.01418141     0.01490316     3.43339324
    0.01418139     0.01490795     3.43339324
20MABNDA000208_PR042
    0.13177468     0.01314913     9.20146084
    0.13186854     0.01317990     9.20145893
    0.13172309     0.01318345     9.20146179
    0.13175012     0.01315095     9.20146084
    0.13180596     0.01313811     9.20145988
20MABNDA000208_PR046
   -0.02338700     0.03291154     1.28210998
   -0.02338785     0.03291393     1.28210998
   -0.02338546     0.03291197     1.28211021
   -0.02338392     0.03290941     1.28211021
   -0.02338820     0.03291427     1.28210998
20MABNDA000035_PR044
   -0.17951021     0.02815825    11.00802708
   -0.17943174     0.02818988    11.00802803
   -0.17945217     0.02819588    11.00802803
   -0.17948505     0.02819611    11.00802708
   -0.17949161     0.02820127    11.00802708
20MABNDA000035_PR045
    0.01476037    -0.01698150     3.43485355
    0.01475898    -0.01698423     3.43485355
    0.01475052    -0.01698600     3.43485379
    0.01475742    -0.01697920     3.43485379
    0.01475261    -0.01698168     3.43485379
20MABNDL000077_PR002
    0.04954062     0.02144213     3.70690918
    0.04953970     0.02144856     3.70690918
    0.04954707     0.02144504     3.70690918
    0.04954710     0.02144800     3.70690918
    0.04954645     0.02145764     3.70690918
20MABNDL000077_PR003
    0.01390986     0.03694694     3.89605379
    0.01392398     0.03693071     3.89605379
    0.01392686     0.03693353     3.89605379
    0.01393945     0.03694665     3.89605379
    0.01392305     0.03694162     3.89605379
20MABNDL000077_20MABNDM000168
   -0.01654650     0.01441880    -5.46871185
   -0.01654928     0.01440829    -5.46871185
   -0.01654698     0.01439495    -5.46871185
   -0.01654516     0.01439425    -5.46871185
20MABNDL000077_PR024
    0.05233738    -0.00339135    -5.89622498
    0.05233241    -0.00340076    -5.89622498
    0.05233176    -0.00341441    -5.89622498
    0.05233342    -0.00342413    -5.89622498
20MABNDM000020_PR013
   -0.00508307     0.01221257    -3.80216837
   -0.00507778     0.01218639    -3.80216908
   -0.00506547     0.01220204    -3.80216837
   -0.00506194     0.01217730    -3.80216908
20MABNDM000020_PR014
   -0.06760845     0.03175522    -4.74799824
   -0.06756131     0.03179081    -4.74799824
   -0.06758070     0.03179535    -4.74799824
   -0.06757328     0.03174137    -4.74799871
20MABNDM000020_20MABNDL000196
   -0.02600456    -0.08875495     5.39443254
   -0.02600564    -0.08875173     5.39443302
   -0.02600206    -0.08875316     5.39443302
   -0.02601209    -0.08876104     5.39443254
20MABNDM000020_PR035
   -0.04213353    -0.05463560     5.80100060
   -0.04214625    -0.05465988     5.80100060
   -0.04211581    -0.05469146     5.80100060
   -0.04211773    -0.05471304     5.80100060
20MABNDA000188_PR008
    0.15028882    -0.09615144     9.20296955
    0.12899831    -0.09474574     9.20333958
    0.14830595    -0.09736238     9.20299149
    0.12899831    -0.09474574     9.20333958
20MABNDA000188_PR018
   -0.01702860     0.02601160     1.28357816
   -0.01703025     0.02600879     1.28357816
   -0.01702877     0.02601169     1.28357816
   -0.01702937     0.02601204     1.28357816
20MABNDA000039_PR009
   -0.17137308     0.02461727    11.00701427
   -0.17137596     0.02462826    11.00701427
   -0.17136222     0.02459529    11.00701427
   -0.17132565     0.02459513    11.00701427
20MABNDA000039_PR011
    0.03055985    -0.02469982     3.43347168
    0.03056056    -0.02469389     3.43347168
    0.03055183    -0.02470777     3.43347168
    0.03055849    -0.02469616     3.43347168
20MABNDB000155_PR020
    0.10248927    -0.00811326     9.20027733
    0.10243814    -0.00809984     9.20027924
    0.10237415    -0.00808966     9.20027924
    0.10245068    -0.00807449     9.20027733
20MABNDB000155_PR022
   -0.02511948    -0.01660049     1.28071594
   -0.02511969    -0.01660340     1.28071594
   -0.02512006    -0.01660169     1.28071594
   -0.02512059    -0.01660059     1.28071594
20MABNDB000010_PR021
   -0.17565756    -0.03429841    11.00695229
   -0.17565888    -0.03426315    11.00695229
   -0.17563851    -0.03420692    11.00695229
   -0.17572072    -0.03425758    11.00695229
20MABNDB000010_PR023
    0.00457509     0.01933046     3.43377924
    0.00457784     0.01933097     3.43377924
    0.00458270     0.01932807     3.43377924
    0.00457849     0.01933304     3.43377924
20MABNDB000212_PR029
   -0.02595489    -0.00899770     1.64223480
   -0.02595180    -0.00899554     1.64223480
   -0.02595443    -0.00899606     1.64223480
   -0.02595160    -0.00899828     1.64223480
20MABNDB000128_PR030
   -0.01871476    -0.04700478     2.95496225
   -0.01872066    -0.04700480     2.95496225
   -0.01871495    -0.04700891     2.95496225
   -0.01871553    -0.04701088     2.95496225
20MABNDA000444_PR040
   -0.02943406     0.00134897     1.64492011
   -0.02942259     0.00135142     1.64492035
   -0.02942741     0.00135092     1.64492011
   -0.02942903     0.00134926     1.64492011
20MABNDA000053_PR041
   -0.02686363     0.05105282     2.95450306
   -0.02686191     0.05106045     2.95450306
   -0.02686110     0.05105199     2.95450306
   -0.02686374     0.05104752     2.95450306
20MABNDA000196_PR006
   -0.01037518     0.01054152     1.64206481
   -0.01037437     0.01054533     1.64206481
   -0.01037470     0.01054468     1.64206481
   -0.01037342     0.01054269     1.64206481
20MABNDA000324_PR007
   -0.02510663     0.02752548     2.95549393
   -0.02510904     0.02753038     2.95549393
   -0.02510171     0.02752453     2.95549393
   -0.02510605     0.02752666     2.95549393
20MABNDB000001_PR017
   -0.02410902    -0.00355472     1.64036417
   -0.02411198    -0.00355567     1.64036417
   -0.02410992    -0.00355634     1.64036429
   -0.02410997    -0.00356126     1.64036429
20MABNDB000260_PR019
   -0.02428831    -0.03802953     2.95627809
   -0.02428319    -0.03803907     2.95627785
   -0.02428016    -0.03802345     2.95627809
   -0.02428301    -0.03802863     2.95627809
20MABNDB000135_PR027
   -0.02101947    -0.01014395     2.74937153
   -0.02102113    -0.01014521     2.74937153
   -0.02101701    -0.01015351     2.74937153
   -0.02102177    -0.01015327     2.74937153
20MABNDB000126_PR028
   -0.02031695    -0.03873244     2.14679813
   -0.02031622    -0.03873628     2.14679813
   -0.02031777    -0.03873999     2.14679813
   -0.02031623    -0.03873343     2.14679813
20MABNDA000272_PR038
   -0.01320179     0.01122788     2.74965882
   -0.01320951     0.01121562     2.74965882
   -0.01320786     0.01121708     2.74965882
   -0.01319265     0.01121559     2.74965882
20MABNDA000003_PR039
   -0.00592541     0.04107772     2.14891768
   -0.00592713     0.04107615     2.14891768
   -0.00592799     0.04107673     2.14891768
   -0.00592470     0.04107543     2.14891768
20MABNDA000318_PR004
   -0.00839850     0.03863432     2.74965668
   -0.00840091     0.03864183     2.74965668
   -0.00840619     0.03862806     2.74965668
   -0.00839758     0.03863285     2.74965668
20MABNDA000334_PR005
   -0.00423864     0.03154452     2.14977312
   -0.00423835     0.03154323     2.14977312
   -0.00423678     0.03154180     2.14977312
   -0.00424150     0.03154266     2.14977312
20MABNDB000317_PR015
   -0.01738513    -0.03434443     2.75128746
   -0.01737895    -0.03434326     2.75128746
   -0.01738359    -0.03435133     2.75128746
   -0.01738616    -0.03434954     2.75128746
20MABNDB000146_PR016
   -0.01349158    -0.03178331     2.15201283
   -0.01349329    -0.03179007     2.15201283
   -0.01349215    -0.03178719     2.15201283
   -0.01349444    -0.03178978     2.15201283
20MABNDM000168_PR025
    0.02039144    -0.06973486    -3.78849745
    0.02039144    -0.06973486    -3.78849745
    0.02039129    -0.06969950    -3.78849745
    0.02039144    -0.06973486    -3.78849745
20MABNDM000168_PR026
   -0.06739886    -0.08640476    -3.98390603
   -0.07179432    -0.07349772    -3.98398685
   -0.07279274    -0.08295731    -3.98386955
   -0.05949457    -0.07325545    -3.98415589
20MABNDM000168_20MABNDL000077
    0.01136206    -0.03902739     5.38884640
    0.01134566    -0.03901888     5.38884640
    0.01134228    -0.03902925     5.38884640
    0.01135865    -0.03901511     5.38884640
20MABNDM000168_PR001
   -0.05748487    -0.01350512     5.81470490
   -0.05748755    -0.01350237     5.81470490
   -0.05748715    -0.01350121     5.81470490
   -0.05749469    -0.01348715     5.81470394
20MABNDL000196_PR036
    0.05074429     0.00570895     3.68777633
    0.05075437     0.00570111     3.68777633
    0.05076569     0.00568788     3.68777585
    0.05076174     0.00569450     3.68777585
20MABNDL000196_PR037
   -0.02585286     0.02873749     3.88380623
   -0.02584744     0.02873982     3.88380623
   -0.02584407     0.02873544     3.88380623
   -0.02584846     0.02873620     3.88380623
20MABNDL000196_20MABNDM000020
   -0.01386971     0.03900473    -5.47473907
   -0.01385773     0.03899850    -5.47473907
   -0.01384962     0.03898861    -5.47473907
   -0.01384390     0.03897219    -5.47473907
20MABNDL000196_PR012
    0.09282962     0.11672384    -5.91426229
   -0.01035193     0.09095202    -5.91551590
    0.07190164     0.04060958    -5.91515875
    0.07190669     0.04059102    -5.91515875


*****************************************************************coordonnees du prisme dans le repere ATLAS********************************************************************************** 
20MABNDB000069_PR031 0.00000000
    3.67898726     3.84882784    -7.90363836
    3.67889380     3.84882927    -7.90357351
    3.67890668     3.84882879    -7.90369558
    3.67898631     3.84882808    -7.90360308
    3.68461251     3.84864187    -7.84045649
20MABNDB000069_PR033 0.00000000
    3.53335047    -4.07045746    -7.87976027
    3.53335071    -4.07045746    -7.87975931
    3.53334975    -4.07045746    -7.87975931
    3.53334808    -4.07045746    -7.87975979
    3.53335023    -4.07045746    -7.87975979
20MABNDB000131_PR032 0.00000000
    3.86894464     3.64756608   -12.94161510
    3.86896443     3.64756608   -12.94161797
    3.86895275     3.64756608   -12.94163704
    3.86897326     3.64756608   -12.94161224
    3.86896372     3.64756608   -12.94160938
20MABNDB000131_PR034 0.00000000
    3.67361259    -3.92562366   -12.89303780
    3.67361212    -3.92562366   -12.89304256
    3.67361522    -3.92562366   -12.89304066
    3.67360735    -3.92562366   -12.89304447
    3.67360735    -3.92562366   -12.89303970
20MABNDA000208_PR042 0.00000000
   -3.68185210     3.84913993    -7.89833689
   -3.68194604     3.84913802    -7.89830589
   -3.68180037     3.84914088    -7.89830256
   -3.68182755     3.84913993    -7.89833498
   -3.68188334     3.84913898    -7.89834785
20MABNDA000208_PR046 0.00000000
   -3.53237748    -4.07031250    -7.87560701
   -3.53237677    -4.07031250    -7.87560463
   -3.53237915    -4.07031250    -7.87560654
   -3.53238058    -4.07031250    -7.87560892
   -3.53237629    -4.07031250    -7.87560415
20MABNDA000035_PR044 0.00000000
   -3.86875153     3.64758229   -12.93383694
   -3.86867285     3.64758325   -12.93386936
   -3.86869335     3.64758325   -12.93387508
   -3.86872625     3.64758229   -12.93387508
   -3.86873293     3.64758229   -12.93388081
20MABNDA000035_PR045 0.00000000
   -3.67596841    -3.92563367   -12.88940334
   -3.67596984    -3.92563367   -12.88940048
   -3.67597818    -3.92563343   -12.88939857
   -3.67597127    -3.92563343   -12.88940525
   -3.67597604    -3.92563343   -12.88940239
20MABNDL000077_PR002 0.00000000
    2.83559871    -3.69497633     6.48618937
    2.83559227    -3.69497728     6.48618937
    2.83559585    -3.69496989     6.48618937
    2.83559275    -3.69496989     6.48618937
    2.83558321    -3.69497061     6.48618937
20MABNDL000077_PR003 0.00000000
    2.82026815    -3.73083544     6.67530489
    2.82028437    -3.73082137     6.67530489
    2.82028151    -3.73081851     6.67530489
    2.82026839    -3.73080587     6.67530489
    2.82027340    -3.73082232     6.67530489
20MABNDL000077_20MABNDM000168 0.00000000
    2.83360076    -3.74974489    -2.68950868
    2.83361125    -3.74974751    -2.68950868
    2.83362460    -3.74974537    -2.68950868
    2.83362532    -3.74974346    -2.68950868
20MABNDL000077_PR024 0.00000000
    2.85101366    -3.68033910    -3.11695361
    2.85102296    -3.68034410    -3.11695361
    2.85103679    -3.68034482    -3.11695361
    2.85104632    -3.68034315    -3.11695361
20MABNDM000020_PR013 0.00000000
   -2.86452150    -3.73439145     6.48601818
   -2.86449528    -3.73439670     6.48601866
   -2.86451101    -3.73440909     6.48601818
   -2.86448622    -3.73441267     6.48601866
20MABNDM000020_PR014 0.00000000
   -2.88385582    -3.67257953     7.43189907
   -2.88389134    -3.67262650     7.43189907
   -2.88389587    -3.67260718     7.43189907
   -2.88384199    -3.67261457     7.43189955
20MABNDM000020_20MABNDL000196 0.00000000
   -2.76538801    -3.70650649    -2.71058440
   -2.76539135    -3.70650554    -2.71058488
   -2.76538992    -3.70650911    -2.71058488
   -2.76538205    -3.70649910    -2.71058440
20MABNDM000020_PR035 0.00000000
   -2.79958391    -3.69005799    -3.11713314
   -2.79955959    -3.69004512    -3.11713314
   -2.79952788    -3.69007564    -3.11713314
   -2.79950643    -3.69007373    -3.11713314
20MABNDA000188_PR008 0.00000000
    3.56304979     3.84858036     8.10774136
    3.54177952     3.84863997     8.10601807
    3.56104898     3.84855866     8.10892200
    3.54177952     3.84863997     8.10601807
20MABNDA000188_PR018 0.00000000
    3.52011132    -4.07061148     7.89742422
    3.52010965    -4.07061148     7.89742708
    3.52011132    -4.07061148     7.89742422
    3.52011061    -4.07061148     7.89742374
20MABNDA000039_PR009 0.00000000
    3.87554526     3.64747238    12.93591118
    3.87554812     3.64747238    12.93592262
    3.87553430     3.64747238    12.93588924
    3.87549782     3.64747262    12.93588924
20MABNDA000039_PR011 0.00000000
    3.66446424    -3.92580438    12.88413715
    3.66446352    -3.92580438    12.88414288
    3.66447234    -3.92580438    12.88412857
    3.66446567    -3.92580438    12.88414097
20MABNDB000155_PR020 0.00000000
   -3.68114185     3.84880972     7.89875364
   -3.68109083     3.84881163     7.89876699
   -3.68102670     3.84881186     7.89877748
   -3.68110323     3.84880972     7.89879274
20MABNDB000155_PR022 0.00000000
   -3.53486133    -4.07042980     7.89145851
   -3.53486109    -4.07042980     7.89145565
   -3.53486085    -4.07042980     7.89145756
   -3.53486037    -4.07042980     7.89145851
20MABNDB000010_PR021 0.00000000
   -3.86149430     3.64768982    12.93612766
   -3.86149573     3.64768982    12.93609238
   -3.86147523     3.64768958    12.93603611
   -3.86155748     3.64768982    12.93608665
20MABNDB000010_PR023 0.00000000
   -3.68509054    -3.92559719    12.88594532
   -3.68508768    -3.92559719    12.88594437
   -3.68508291    -3.92559719    12.88594723
   -3.68508720    -3.92559719    12.88594246
20MABNDB000212_PR029 0.00000000
    2.59963274    -4.19501352    -6.54798555
    2.59962964    -4.19501352    -6.54798317
    2.59963226    -4.19501352    -6.54798412
    2.59962940    -4.19501352    -6.54798603
20MABNDB000128_PR030 0.00000000
    2.61014390    -4.14002800    -6.93111610
    2.61013794    -4.14002800    -6.93111610
    2.61014366    -4.14002800    -6.93111181
    2.61014318    -4.14002800    -6.93110991
20MABNDA000444_PR040 0.00000000
   -2.60460663    -4.19508934    -6.54052925
   -2.60459518    -4.19508886    -6.54053164
   -2.60459995    -4.19508934    -6.54053116
   -2.60460162    -4.19508934    -6.54052973
20MABNDA000053_PR041 0.00000000
   -2.59367824    -4.14012814    -6.92686081
   -2.59368014    -4.14012814    -6.92685318
   -2.59368086    -4.14012814    -6.92686129
   -2.59367824    -4.14012814    -6.92686605
20MABNDA000196_PR006 0.00000000
    2.58483577    -4.19496298     6.54849815
    2.58483481    -4.19496298     6.54850197
    2.58483529    -4.19496298     6.54850101
    2.58483386    -4.19496298     6.54849911
20MABNDA000324_PR007 0.00000000
    2.59420824    -4.13996410     6.94838953
    2.59420586    -4.13996410     6.94838476
    2.59421301    -4.13996410     6.94839048
    2.59420872    -4.13996410     6.94838858
20MABNDB000001_PR017 0.00000000
   -2.59781051    -4.19505167     6.53888273
   -2.59781361    -4.19505167     6.53888369
   -2.59781146    -4.19505119     6.53888464
   -2.59781146    -4.19505119     6.53888941
20MABNDB000260_PR019 0.00000000
   -2.60447383    -4.13995647     6.94261456
   -2.60447884    -4.13995695     6.94260502
   -2.60448194    -4.13995647     6.94262028
   -2.60447907    -4.13995647     6.94261551
20MABNDB000135_PR027 0.00000000
    2.60384369    -4.19700384    -3.82521701
    2.60384202    -4.19700384    -3.82521558
    2.60384631    -4.19700384    -3.82520723
    2.60384154    -4.19700384    -3.82520747
20MABNDB000126_PR028 0.00000000
    2.60560012    -4.19701910    -5.89348745
    2.60560083    -4.19701910    -5.89348364
    2.60559940    -4.19701910    -5.89347982
    2.60560083    -4.19701910    -5.89348650
20MABNDA000272_PR038 0.00000000
   -2.61133504    -4.19698286    -3.82725644
   -2.61132741    -4.19698286    -3.82726860
   -2.61132908    -4.19698286    -3.82726717
   -2.61134410    -4.19698286    -3.82726884
20MABNDA000003_PR039 0.00000000
   -2.61580563    -4.19701958    -5.89168882
   -2.61580396    -4.19701958    -5.89169073
   -2.61580324    -4.19701958    -5.89168978
   -2.61580634    -4.19701958    -5.89169121
20MABNDA000318_PR004 0.00000000
    2.61460471    -4.19698811     3.83336425
    2.61460233    -4.19698811     3.83335686
    2.61459708    -4.19698811     3.83337069
    2.61460567    -4.19698811     3.83336568
20MABNDA000334_PR005 0.00000000
    2.61676002    -4.19703007     5.89771652
    2.61676025    -4.19703007     5.89771748
    2.61676168    -4.19703007     5.89771891
    2.61675715    -4.19703007     5.89771843
20MABNDB000317_PR015 0.00000000
   -2.61122203    -4.19700384     3.83567095
   -2.61122823    -4.19700384     3.83567214
   -2.61122370    -4.19700384     3.83566403
   -2.61122108    -4.19700384     3.83566594
20MABNDB000146_PR016 0.00000000
   -2.61280370    -4.19702482     5.89856672
   -2.61280203    -4.19702482     5.89856005
   -2.61280298    -4.19702482     5.89856291
   -2.61280084    -4.19702482     5.89856052
20MABNDM000168_PR025 0.00000000
    2.78350139    -3.76570773    -6.47911263
    2.78350139    -3.76570773    -6.47911263
    2.78353667    -3.76570749    -6.47911263
    2.78350139    -3.76570773    -6.47911263
20MABNDM000168_PR026 0.00000000
    2.76684284    -3.67798567    -6.67455292
    2.77975106    -3.67359376    -6.67463589
    2.77029157    -3.67259264    -6.67451859
    2.77998996    -3.68589354    -6.67480040
20MABNDM000168_20MABNDL000077 0.00000000
    2.81476808    -3.75327396     2.69822550
    2.81477666    -3.75325775     2.69822550
    2.81476641    -3.75325418     2.69822550
    2.81478047    -3.75327063     2.69822550
20MABNDM000168_PR001 0.00000000
    2.84033442    -3.68427563     3.12405682
    2.84033728    -3.68427277     3.12405682
    2.84033847    -3.68427324     3.12405682
    2.84035254    -3.68426585     3.12405586
20MABNDL000196_PR036 0.00000000
   -2.84789824    -3.69353032    -6.47909927
   -2.84790611    -3.69352031    -6.47909927
   -2.84791946    -3.69350886    -6.47909880
   -2.84791279    -3.69351292    -6.47909880
20MABNDL000196_PR037 0.00000000
   -2.82483840    -3.77029896    -6.67505836
   -2.82483602    -3.77029371    -6.67505836
   -2.82484031    -3.77029037    -6.67505836
   -2.82483959    -3.77029467    -6.67505836
20MABNDL000196_20MABNDM000020 0.00000000
   -2.81437445    -3.74960589     2.68347168
   -2.81438065    -3.74959397     2.68347168
   -2.81439066    -3.74958587     2.68347168
   -2.81440711    -3.74958014     2.68347168
20MABNDL000196_PR012 0.00000000
   -2.73669553    -3.64246154     3.12289381
   -2.76241922    -3.74565387     3.12424397
   -2.81279993    -3.66342402     3.12381124
   -2.81281853    -3.66341901     3.12381124


*****************************************************************Rapport********************************************************************************** 
CAM-ECTC-US-IP_ECTC-US-IP-T    2016.05.05.04.30.02     3.68007731     3.84879117    -7.89099340     0.00226793     0.00007465     0.02526849 0.00000000 VRAI 
CAM-ECTC-US-IP_ECTC-US-IP      2016.05.05.04.30.02     3.53334985    -4.07045746    -7.87975969     0.00000094     0.00000000     0.00000036 0.00000000 VRAI 
CAM-ECTC-US-HO_ECTC-US-HO-T    2016.05.05.04.30.02     3.86895976     3.64756608   -12.94161835     0.00000997     0.00000000     0.00000977 0.00000000 VRAI 
CAM-ECTC-US-HO_ECTC-US-HO      2016.05.05.04.30.02     3.67361093    -3.92562366   -12.89304104     0.00000310     0.00000000     0.00000230 0.00000000 VRAI 
CAM-ECTC-USA-IP_ECTC-USA-IP-T  2016.05.05.04.30.02    -3.68186188     3.84913955    -7.89832563     0.00005020     0.00000097     0.00001806 0.00000000 VRAI 
CAM-ECTC-USA-IP_ECTC-USA-IP    2016.05.05.04.30.02    -3.53237805    -4.07031250    -7.87560625     0.00000159     0.00000000     0.00000172 0.00000000 VRAI 
CAM-ECTC-USA-HO_ECTC-USA-HO-T  2016.05.05.04.30.02    -3.86871538     3.64758267   -12.93386745     0.00002838     0.00000047     0.00001568 0.00000000 VRAI 
CAM-ECTC-USA-HO_ECTC-USA-HO    2016.05.05.04.30.02    -3.67597275    -3.92563353   -12.88940201     0.00000374     0.00000012     0.00000230 0.00000000 VRAI 
CAM-LBA-US_EBA-US-HO-H         2016.05.05.04.30.02     2.83559256    -3.69497280     6.48618937     0.00000522     0.00000329     0.00000000 0.00000000 VRAI 
CAM-LBA-US_JDA-US-H            2016.05.05.04.30.02     2.82027516    -3.73082070     6.67530489     0.00000668     0.00000943     0.00000000 0.00000000 VRAI 
CAM-LBA-US_CAM-LBC-US          2016.05.05.04.30.02     2.83361548    -3.74974531    -2.68950868     0.00001018     0.00000145     0.00000000 0.00000000 VRAI 
CAM-LBA-US_EBC-US-IP-H         2016.05.05.04.30.02     2.85102993    -3.68034279    -3.11695361     0.00001254     0.00000221     0.00000000 0.00000000 VRAI 
CAM-LBA-USA_EBA-USA-HO-H       2016.05.05.04.30.02    -2.86450350    -3.73440248     6.48601842     0.00001366     0.00000870     0.00000024 0.00000000 VRAI 
CAM-LBA-USA_JDA-USA-H          2016.05.05.04.30.02    -2.88387126    -3.67260695     7.43189919     0.00002294     0.00001726     0.00000021 0.00000000 VRAI 
CAM-LBA-USA_CAM-LBC-USA        2016.05.05.04.30.02    -2.76538783    -3.70650506    -2.71058464     0.00000354     0.00000368     0.00000024 0.00000000 VRAI 
CAM-LBA-USA_EBC-USA-IP-H       2016.05.05.04.30.02    -2.79954445    -3.69006312    -3.11713314     0.00002961     0.00001245     0.00000000 0.00000000 VRAI 
CAM-ECTA-US-IP_ECTA-US-IP-T    2016.05.05.04.30.02     3.55191445     3.84860474     8.10717487     0.01015959     0.00003605     0.00122981 0.00000000 VRAI 
CAM-ECTA-US-IP_ECTA-US-IP      2016.05.05.04.30.02     3.52011073    -4.07061148     7.89742482     0.00000068     0.00000000     0.00000132 0.00000000 VRAI 
CAM-ECTA-US-HO_ECTA-US-HO-T    2016.05.05.04.30.02     3.87553138     3.64747244    12.93590307     0.00002005     0.00000010     0.00001441 0.00000000 VRAI 
CAM-ECTA-US-HO_ECTA-US-HO      2016.05.05.04.30.02     3.66446644    -3.92580438    12.88413739     0.00000349     0.00000000     0.00000549 0.00000000 VRAI 
CAM-ECTA-USA-IP_ECTA-USA-IP-T  2016.05.05.04.30.02    -3.68109065     3.84881073     7.89877272     0.00004144     0.00000102     0.00001432 0.00000000 VRAI 
CAM-ECTA-USA-IP_ECTA-USA-IP    2016.05.05.04.30.02    -3.53486091    -4.07042980     7.89145756     0.00000035     0.00000000     0.00000117 0.00000000 VRAI 
CAM-ECTA-USA-HO_ECTA-USA-HO-T  2016.05.05.04.30.02    -3.86150569     3.64768976    12.93608570     0.00003098     0.00000010     0.00003266 0.00000000 VRAI 
CAM-ECTA-USA-HO_ECTA-USA-HO    2016.05.05.04.30.02    -3.68508708    -3.92559719    12.88594484     0.00000273     0.00000000     0.00000172 0.00000000 VRAI 
CAM-JDC-US-IP_JDC-US-IP        2016.05.05.04.30.02     2.59963101    -4.19501352    -6.54798472     0.00000150     0.00000000     0.00000114 0.00000000 VRAI 
CAM-JDC-US-HO_JDC-US-HO        2016.05.05.04.30.02     2.61014217    -4.14002800    -6.93111348     0.00000246     0.00000000     0.00000271 0.00000000 VRAI 
CAM-JDC-USA-IP_JDC-USA-IP      2016.05.05.04.30.02    -2.60460085    -4.19508922    -6.54053044     0.00000409     0.00000021     0.00000098 0.00000000 VRAI 
CAM-JDC-USA-HO_JDC-USA-HO      2016.05.05.04.30.02    -2.59367937    -4.14012814    -6.92686033     0.00000116     0.00000000     0.00000461 0.00000000 VRAI 
CAM-JDA-US-IP_JDA-US-IP        2016.05.05.04.30.02     2.58483493    -4.19496298     6.54850006     0.00000071     0.00000000     0.00000151 0.00000000 VRAI 
CAM-JDA-US-HO_JDA-US-HO        2016.05.05.04.30.02     2.59420896    -4.13996410     6.94838834     0.00000258     0.00000000     0.00000217 0.00000000 VRAI 
CAM-JDA-USA-IP_JDA-USA-IP      2016.05.05.04.30.02    -2.59781176    -4.19505143     6.53888512     0.00000114     0.00000024     0.00000257 0.00000000 VRAI 
CAM-JDA-USA-HO_JDA-USA-HO      2016.05.05.04.30.02    -2.60447842    -4.13995659     6.94261384     0.00000292     0.00000021     0.00000554 0.00000000 VRAI 
CAM-EBC-US-IP_EBC-US-IP        2016.05.05.04.30.02     2.60384339    -4.19700384    -3.82521182     0.00000186     0.00000000     0.00000450 0.00000000 VRAI 
CAM-EBC-US-HO_EBC-US-HO        2016.05.05.04.30.02     2.60560030    -4.19701910    -5.89348435     0.00000059     0.00000000     0.00000297 0.00000000 VRAI 
CAM-EBC-USA-IP_EBC-USA-IP      2016.05.05.04.30.02    -2.61133391    -4.19698286    -3.82726526     0.00000653     0.00000000     0.00000513 0.00000000 VRAI 
CAM-EBC-USA-HO_EBC-USA-HO      2016.05.05.04.30.02    -2.61580479    -4.19701958    -5.89169014     0.00000124     0.00000000     0.00000092 0.00000000 VRAI 
CAM-EBA-US-IP_EBA-US-IP        2016.05.05.04.30.02     2.61460245    -4.19698811     3.83336437     0.00000333     0.00000000     0.00000495 0.00000000 VRAI 
CAM-EBA-US-HO_EBA-US-HO        2016.05.05.04.30.02     2.61675978    -4.19703007     5.89771783     0.00000164     0.00000000     0.00000092 0.00000000 VRAI 
CAM-EBA-USA-IP_EBA-USA-IP      2016.05.05.04.30.02    -2.61122376    -4.19700384     3.83566827     0.00000275     0.00000000     0.00000337 0.00000000 VRAI 
CAM-EBA-USA-HO_EBA-USA-HO      2016.05.05.04.30.02    -2.61280239    -4.19702482     5.89856255     0.00000107     0.00000000     0.00000264 0.00000000 VRAI 
CAM-LBC-US_EBC-US-HO-H         2016.05.05.04.30.02     2.78351021    -3.76570767    -6.47911263     0.00001528     0.00000010     0.00000000 0.00000000 VRAI 
CAM-LBC-US_JDC-US-H            2016.05.05.04.30.02     2.77421886    -3.67751640    -6.67462695     0.00578230     0.00524469     0.00010884 0.00000000 VRAI 
CAM-LBC-US_CAM-LBA-US          2016.05.05.04.30.02     2.81477290    -3.75326413     2.69822550     0.00000585     0.00000835     0.00000000 0.00000000 VRAI 
CAM-LBC-US_EBA-US-IP-H         2016.05.05.04.30.02     2.84034067    -3.68427187     3.12405658     0.00000700     0.00000364     0.00000041 0.00000000 VRAI 
CAM-LBC-USA_EBC-USA-HO-H       2016.05.05.04.30.02    -2.84790915    -3.69351810    -6.47909904     0.00000787     0.00000816     0.00000024 0.00000000 VRAI 
CAM-LBC-USA_JDC-USA-H          2016.05.05.04.30.02    -2.82483858    -3.77029443    -6.67505836     0.00000163     0.00000306     0.00000000 0.00000000 VRAI 
CAM-LBC-USA_CAM-LBA-USA        2016.05.05.04.30.02    -2.81438822    -3.74959147     2.68347168     0.00001235     0.00000967     0.00000000 0.00000000 VRAI 
CAM-LBC-USA_EBA-USA-IP-H       2016.05.05.04.30.02    -2.78118330    -3.67873961     3.12369007     0.03290764     0.03956926     0.00049250 0.00000000 VRAI 
