********** Fichier qui contient une sauvegarde des coordonnees images + coordonnees images transformees dans le repere BCAM (MOUNT) + coordonnees des prismes dans le repere MOUNT********** 
********************************************************************** Unite en metres (m)************************************************************************************************** 

*******************************************************************coordonnees images dans le repere CCD *********************************************************************************** 
20MABNDB000069_PR031
Spot 1     0.00032471     0.00137727
Spot 2     0.00039149     0.00137952
Spot 1     0.00032458     0.00137795
Spot 2     0.00039038     0.00137894
Spot 1     0.00032377     0.00137862
Spot 2     0.00039017     0.00137971
Spot 1     0.00032469     0.00137782
Spot 2     0.00038939     0.00137917
Spot 1     0.00032532     0.00137922
Spot 2     0.00039097     0.00137915
20MABNDB000069_PR033
Spot 1     0.00191665     0.00178324
Spot 2     0.00238630     0.00180211
Spot 1     0.00191670     0.00178307
Spot 2     0.00238635     0.00180216
Spot 1     0.00191671     0.00178329
Spot 2     0.00238637     0.00180225
Spot 1     0.00191687     0.00178328
Spot 2     0.00238627     0.00180224
Spot 1     0.00191678     0.00178328
Spot 2     0.00238625     0.00180223
20MABNDB000131_PR032
Spot 1     0.00277940     0.00111637
Spot 2     0.00283889     0.00112071
Spot 1     0.00277955     0.00111613
Spot 2     0.00283897     0.00112111
Spot 1     0.00277959     0.00111643
Spot 2     0.00283855     0.00112089
Spot 1     0.00277914     0.00111624
Spot 2     0.00283867     0.00112089
Spot 1     0.00277949     0.00111611
Spot 2     0.00283864     0.00112051
20MABNDB000131_PR034
Spot 1     0.00093284     0.00043960
Spot 2     0.00110872     0.00043821
Spot 1     0.00093283     0.00043955
Spot 2     0.00110882     0.00043854
Spot 1     0.00093260     0.00043950
Spot 2     0.00110888     0.00043844
Spot 1     0.00093274     0.00043949
Spot 2     0.00110864     0.00043823
Spot 1     0.00093280     0.00043959
Spot 2     0.00110881     0.00043844
20MABNDA000208_PR042
Spot 1     0.00299696     0.00089944
Spot 2     0.00292740     0.00090472
Spot 1     0.00299645     0.00089981
Spot 2     0.00292818     0.00090379
Spot 1     0.00299720     0.00090008
Spot 2     0.00292845     0.00090579
Spot 1     0.00299707     0.00090014
Spot 2     0.00293047     0.00090370
Spot 1     0.00299674     0.00090051
Spot 2     0.00292653     0.00090492
20MABNDA000208_PR046
Spot 1     0.00131643     0.00188529
Spot 2     0.00084232     0.00188879
Spot 1     0.00131664     0.00188512
Spot 2     0.00084207     0.00188889
Spot 1     0.00131662     0.00188527
Spot 2     0.00084362     0.00188824
Spot 1     0.00131637     0.00188510
Spot 2     0.00084385     0.00188809
Spot 1     0.00131657     0.00188510
Spot 2     0.00084366     0.00188823
20MABNDA000035_PR044
Spot 1     0.00074071     0.00130006
Spot 2     0.00068513     0.00129234
Spot 1     0.00074063     0.00130046
Spot 2     0.00068521     0.00129280
Spot 1     0.00074081     0.00130040
Spot 2     0.00068503     0.00129244
Spot 1     0.00074068     0.00130044
Spot 2     0.00068550     0.00129274
Spot 1     0.00074056     0.00130028
Spot 2     0.00068503     0.00129243
20MABNDA000035_PR045
Spot 1     0.00254790     0.00059363
Spot 2     0.00237159     0.00059245
Spot 1     0.00254786     0.00059363
Spot 2     0.00237163     0.00059248
Spot 1     0.00254788     0.00059356
Spot 2     0.00237151     0.00059247
Spot 1     0.00254784     0.00059367
Spot 2     0.00237163     0.00059238
Spot 1     0.00254799     0.00059360
Spot 2     0.00237162     0.00059245
20MABNDL000077_PR002
Spot 1     0.00079482     0.00149666
Spot 2     0.00095726     0.00149598
Spot 1     0.00079449     0.00149715
Spot 2     0.00095666     0.00149626
Spot 1     0.00079449     0.00149708
Spot 2     0.00095679     0.00149639
Spot 1     0.00079448     0.00149737
Spot 2     0.00095681     0.00149609
Spot 1     0.00079452     0.00149732
Spot 2     0.00095685     0.00149573
20MABNDL000077_PR003
Spot 1     0.00152391     0.00118901
Spot 2     0.00167432     0.00119159
Spot 1     0.00152395     0.00118935
Spot 2     0.00167406     0.00119171
Spot 1     0.00152391     0.00118932
Spot 2     0.00167360     0.00119156
Spot 1     0.00152399     0.00118926
Spot 2     0.00167371     0.00119167
Spot 1     0.00152387     0.00118936
Spot 2     0.00167362     0.00119181
20MABNDL000077_20MABNDM000168
Spot 1     0.00188373     0.00148475
Spot 2     0.00170275     0.00151830
Spot 1     0.00188366     0.00148443
Spot 2     0.00170270     0.00151821
Spot 1     0.00188397     0.00148468
Spot 2     0.00170264     0.00151868
Spot 1     0.00188386     0.00148475
Spot 2     0.00170272     0.00151847
Spot 1     0.00188410     0.00148468
Spot 2     0.00170281     0.00151880
20MABNDL000077_PR024
Spot 1     0.00263032     0.00171356
Spot 2     0.00273075     0.00171816
Spot 1     0.00262988     0.00171435
Spot 2     0.00273080     0.00171828
Spot 1     0.00262981     0.00171421
Spot 2     0.00273079     0.00171835
Spot 1     0.00262981     0.00171394
Spot 2     0.00273081     0.00171854
Spot 1     0.00263034     0.00171400
Spot 2     0.00273092     0.00171862
20MABNDM000020_PR013
Spot 1     0.00164277     0.00214066
Spot 2     0.00148968     0.00214481
Spot 1     0.00164268     0.00214094
Spot 2     0.00148953     0.00214487
Spot 1     0.00164238     0.00214086
Spot 2     0.00148960     0.00214473
Spot 1     0.00164272     0.00214098
Spot 2     0.00148987     0.00214488
Spot 1     0.00164242     0.00214050
Spot 2     0.00148985     0.00214498
20MABNDM000020_PR014
Spot 1     0.00267640     0.00227965
Spot 2     0.00251492     0.00228669
Spot 1     0.00267624     0.00227967
Spot 2     0.00251492     0.00228693
Spot 1     0.00267638     0.00227966
Spot 2     0.00251518     0.00228695
Spot 1     0.00267670     0.00227977
Spot 2     0.00251492     0.00228695
Spot 1     0.00267673     0.00227986
Spot 2     0.00251538     0.00228704
20MABNDM000020_20MABNDL000196
Spot 1     0.00200100     0.00057850
Spot 2     0.00080500     0.00021500
Spot 1     0.00200090     0.00057832
Spot 2     0.00080500     0.00021500
Spot 1     0.00200097     0.00057885
Spot 2     0.00080500     0.00021500
Spot 1     0.00200087     0.00057857
Spot 2     0.00080500     0.00021500
Spot 1     0.00200090     0.00057888
Spot 2     0.00080500     0.00021500
20MABNDM000020_PR035
Spot 1     0.00126086     0.00087027
Spot 2     0.00119185     0.00090458
Spot 1     0.00126092     0.00087092
Spot 2     0.00119200     0.00090468
Spot 1     0.00126097     0.00087095
Spot 2     0.00119193     0.00090480
Spot 1     0.00126070     0.00087081
Spot 2     0.00119180     0.00090465
Spot 1     0.00126032     0.00087086
Spot 2     0.00119180     0.00090450
20MABNDA000188_PR008
Spot 1     0.00271125     0.00015875
Spot 2     0.00330250     0.00005500
Spot 1     0.00271167     0.00015667
Spot 2     0.00283500     0.00012500
Spot 1     0.00271500     0.00016056
Spot 2     0.00330250     0.00005500
Spot 1     0.00271357     0.00016071
Spot 2     0.00279500     0.00010500
Spot 1     0.00271500     0.00016000
Spot 2     0.00283500     0.00012500
20MABNDA000188_PR018
Spot 1     0.00154382     0.00152842
Spot 2     0.00107700     0.00152523
Spot 1     0.00154381     0.00152852
Spot 2     0.00107712     0.00152537
Spot 1     0.00154363     0.00152847
Spot 2     0.00107707     0.00152543
Spot 1     0.00154364     0.00152833
Spot 2     0.00107712     0.00152529
Spot 1     0.00154349     0.00152854
Spot 2     0.00107711     0.00152547
20MABNDA000039_PR009
Spot 1     0.00066052     0.00120945
Spot 2     0.00061414     0.00121307
Spot 1     0.00066075     0.00120870
Spot 2     0.00061371     0.00121329
Spot 1     0.00066106     0.00120927
Spot 2     0.00061455     0.00121305
Spot 1     0.00066114     0.00120930
Spot 2     0.00061423     0.00121326
20MABNDA000039_PR011
Spot 1     0.00276170     0.00036647
Spot 2     0.00258650     0.00036209
Spot 1     0.00276157     0.00036636
Spot 2     0.00258650     0.00036205
Spot 1     0.00276161     0.00036630
Spot 2     0.00258666     0.00036191
Spot 1     0.00276171     0.00036630
Spot 2     0.00258652     0.00036216
20MABNDB000155_PR020
Spot 1     0.00067182     0.00108795
Spot 2     0.00073550     0.00108450
Spot 1     0.00067202     0.00108807
Spot 2     0.00073550     0.00108491
Spot 1     0.00067191     0.00108832
Spot 2     0.00073509     0.00108495
Spot 1     0.00067221     0.00108806
Spot 2     0.00073540     0.00108487
20MABNDB000155_PR022
Spot 1     0.00220228     0.00112315
Spot 2     0.00267523     0.00111906
Spot 1     0.00220218     0.00112321
Spot 2     0.00267532     0.00111907
Spot 1     0.00220222     0.00112299
Spot 2     0.00267533     0.00111907
Spot 1     0.00220223     0.00112322
Spot 2     0.00267528     0.00111917
20MABNDB000010_PR021
Spot 1     0.00286404     0.00118797
Spot 2     0.00291754     0.00119094
Spot 1     0.00286448     0.00118762
Spot 2     0.00291808     0.00119108
Spot 1     0.00286373     0.00118746
Spot 2     0.00291825     0.00119098
Spot 1     0.00286395     0.00118793
Spot 2     0.00291776     0.00119099
20MABNDB000010_PR023
Spot 1     0.00130883     0.00041327
Spot 2     0.00148363     0.00041113
Spot 1     0.00130894     0.00041333
Spot 2     0.00148368     0.00041126
Spot 1     0.00130894     0.00041333
Spot 2     0.00148366     0.00041130
Spot 1     0.00130906     0.00041358
Spot 2     0.00148349     0.00041111
20MABNDB000212_PR029
Spot 1     0.00225651     0.00072173
Spot 2     0.00189097     0.00072069
Spot 1     0.00225641     0.00072168
Spot 2     0.00189118     0.00072118
Spot 1     0.00225639     0.00072167
Spot 2     0.00189103     0.00072103
Spot 1     0.00225669     0.00072197
Spot 2     0.00189091     0.00072121
20MABNDB000128_PR030
Spot 1     0.00189000     0.00200968
Spot 2     0.00209409     0.00200464
Spot 1     0.00189000     0.00200959
Spot 2     0.00209446     0.00200485
Spot 1     0.00189002     0.00200989
Spot 2     0.00209437     0.00200485
Spot 1     0.00189007     0.00200984
Spot 2     0.00209427     0.00200474
20MABNDA000444_PR040
Spot 1     0.00078364     0.00037180
Spot 2     0.00114889     0.00037148
Spot 1     0.00078362     0.00037175
Spot 2     0.00114896     0.00037179
Spot 1     0.00078389     0.00037183
Spot 2     0.00114889     0.00037185
Spot 1     0.00078366     0.00037155
Spot 2     0.00114882     0.00037191
20MABNDA000053_PR041
Spot 1     0.00164242     0.00199518
Spot 2     0.00143913     0.00199220
Spot 1     0.00164198     0.00199504
Spot 2     0.00143916     0.00199220
Spot 1     0.00164226     0.00199497
Spot 2     0.00143913     0.00199203
Spot 1     0.00164196     0.00199525
Spot 2     0.00143920     0.00199227
20MABNDA000196_PR006
Spot 1     0.00198712     0.00075925
Spot 2     0.00162162     0.00075626
Spot 1     0.00198699     0.00075946
Spot 2     0.00162134     0.00075634
Spot 1     0.00198709     0.00075921
Spot 2     0.00162168     0.00075619
Spot 1     0.00198721     0.00075907
Spot 2     0.00162204     0.00075565
20MABNDA000324_PR007
Spot 1     0.00194781     0.00120842
Spot 2     0.00174186     0.00121395
Spot 1     0.00194784     0.00120833
Spot 2     0.00174188     0.00121396
Spot 1     0.00194780     0.00120835
Spot 2     0.00174167     0.00121385
Spot 1     0.00194771     0.00120832
Spot 2     0.00174184     0.00121371
20MABNDB000001_PR017
Spot 1     0.00224688     0.00048138
Spot 2    -0.00000100    -0.00000100
Spot 1     0.00224697     0.00048142
Spot 2    -0.00000100    -0.00000100
Spot 1     0.00224692     0.00048143
Spot 2    -0.00000100    -0.00000100
Spot 1     0.00224697     0.00048150
Spot 2    -0.00000100    -0.00000100
20MABNDB000260_PR019
Spot 1     0.00192653     0.00149929
Spot 2     0.00212919     0.00149887
Spot 1     0.00192638     0.00149902
Spot 2     0.00212906     0.00149844
Spot 1     0.00192643     0.00149923
Spot 2     0.00212917     0.00149861
Spot 1     0.00192645     0.00149901
Spot 2     0.00212967     0.00149800
20MABNDB000135_PR027
Spot 1     0.00189333     0.00092588
Spot 2     0.00211143     0.00092845
Spot 1     0.00189330     0.00092599
Spot 2     0.00211152     0.00092854
Spot 1     0.00189353     0.00092607
Spot 2     0.00211155     0.00092845
Spot 1     0.00189330     0.00092585
Spot 2     0.00211169     0.00092861
20MABNDB000126_PR028
Spot 1     0.00164678     0.00200411
Spot 2     0.00192775     0.00200672
Spot 1     0.00164699     0.00200394
Spot 2     0.00192754     0.00200681
Spot 1     0.00164686     0.00200411
Spot 2     0.00192755     0.00200673
Spot 1     0.00164679     0.00200402
Spot 2     0.00192764     0.00200665
20MABNDA000272_PR038
Spot 1     0.00191911     0.00096474
Spot 2     0.00169742     0.00096317
Spot 1     0.00191910     0.00096463
Spot 2     0.00169710     0.00096340
Spot 1     0.00191916     0.00096484
Spot 2     0.00169752     0.00096343
Spot 1     0.00191928     0.00096479
Spot 2     0.00169759     0.00096304
20MABNDA000003_PR039
Spot 1     0.00199844     0.00192267
Spot 2     0.00227664     0.00192267
Spot 1     0.00199851     0.00192264
Spot 2     0.00227645     0.00192231
Spot 1     0.00199853     0.00192272
Spot 2     0.00227659     0.00192266
Spot 1     0.00199830     0.00192287
Spot 2     0.00227643     0.00192255
20MABNDA000318_PR004
Spot 1     0.00214395     0.00163229
Spot 2     0.00192662     0.00163401
Spot 1     0.00214378     0.00163221
Spot 2     0.00192658     0.00163333
Spot 1     0.00214384     0.00163220
Spot 2     0.00192652     0.00163375
Spot 1     0.00214386     0.00163216
Spot 2     0.00192627     0.00163345
20MABNDA000334_PR005
Spot 1     0.00247301     0.00158017
Spot 2     0.00219278     0.00158056
Spot 1     0.00247272     0.00158015
Spot 2     0.00219263     0.00158076
Spot 1     0.00247272     0.00158010
Spot 2     0.00219273     0.00158082
Spot 1     0.00247292     0.00158012
Spot 2     0.00219266     0.00158074
20MABNDB000317_PR015
Spot 1     0.00149174     0.00160909
Spot 2     0.00171087     0.00160400
Spot 1     0.00149181     0.00160915
Spot 2     0.00171096     0.00160381
Spot 1     0.00149173     0.00160909
Spot 2     0.00171089     0.00160394
Spot 1     0.00149178     0.00160910
Spot 2     0.00171092     0.00160386
20MABNDB000146_PR016
Spot 1     0.00145079     0.00133377
Spot 2     0.00172653     0.00133639
Spot 1     0.00145089     0.00133366
Spot 2     0.00172661     0.00133624
Spot 1     0.00145102     0.00133374
Spot 2     0.00172684     0.00133640
Spot 1     0.00145089     0.00133381
Spot 2     0.00172658     0.00133635
20MABNDM000168_PR025
Spot 1     0.00117694     0.00131511
Spot 2     0.00102394     0.00131516
Spot 1     0.00117718     0.00131511
Spot 2     0.00102362     0.00131517
Spot 1     0.00117715     0.00131500
Spot 2     0.00102379     0.00131494
Spot 1     0.00117735     0.00131500
Spot 2     0.00102379     0.00131506
20MABNDM000168_PR026
Spot 1     0.00266747     0.00143048
Spot 2     0.00250778     0.00142776
Spot 1     0.00266758     0.00143085
Spot 2     0.00250775     0.00142778
Spot 1     0.00266746     0.00143041
Spot 2     0.00250751     0.00142749
Spot 1     0.00266714     0.00143071
Spot 2     0.00250765     0.00142751
20MABNDM000168_20MABNDL000077
Spot 1     0.00153700     0.00129672
Spot 2     0.00175481     0.00129988
Spot 1     0.00153715     0.00129681
Spot 2     0.00175505     0.00129985
Spot 1     0.00153697     0.00129656
Spot 2     0.00175510     0.00129990
Spot 1     0.00153713     0.00129669
Spot 2     0.00175519     0.00129976
20MABNDM000168_PR001
Spot 1     0.00080340     0.00161387
Spot 2     0.00070341     0.00161945
Spot 1     0.00080367     0.00161381
Spot 2     0.00070333     0.00161928
Spot 1     0.00080375     0.00161392
Spot 2     0.00070337     0.00161943
Spot 1     0.00080396     0.00161374
Spot 2     0.00070345     0.00161941
20MABNDL000196_PR036
Spot 1     0.00096023     0.00164191
Spot 2     0.00112311     0.00164233
Spot 1     0.00096034     0.00164216
Spot 2     0.00112325     0.00164227
Spot 1     0.00096039     0.00164215
Spot 2     0.00112318     0.00164229
Spot 1     0.00096030     0.00164193
Spot 2     0.00112339     0.00164206
20MABNDL000196_PR037
Spot 1     0.00248041     0.00116438
Spot 2     0.00263460     0.00116271
Spot 1     0.00248070     0.00116414
Spot 2     0.00263474     0.00116254
Spot 1     0.00248085     0.00116402
Spot 2     0.00263474     0.00116247
Spot 1     0.00248093     0.00116426
Spot 2     0.00263486     0.00116261
20MABNDL000196_20MABNDM000020
Spot 1     0.00195096     0.00103262
Spot 2     0.00172989     0.00103169
Spot 1     0.00195099     0.00103256
Spot 2     0.00172988     0.00103168
Spot 1     0.00195099     0.00103270
Spot 2     0.00172996     0.00103168
Spot 1     0.00195113     0.00103287
Spot 2     0.00172994     0.00103169
20MABNDL000196_PR012
Spot 1     0.00073500     0.00047500
Spot 2     0.00315625     0.00069500
Spot 1     0.00315571     0.00069500
Spot 2     0.00315571     0.00069500
Spot 1     0.00304500     0.00006500
Spot 2     0.00304500     0.00006500
Spot 1     0.00304500     0.00006500
Spot 2     0.00304500     0.00006500


****************************************************************coordonnees images transformees dans le repere MOUNT************************************************************************* 
20MABNDB000069_PR031
Spot 1    -0.01355272    -0.01289205    -0.07388500
Spot 2    -0.01348591    -0.01289255    -0.07388500
Spot 1    -0.01355282    -0.01289136    -0.07388500
Spot 2    -0.01348704    -0.01289309    -0.07388500
Spot 1    -0.01355361    -0.01289066    -0.07388500
Spot 2    -0.01348722    -0.01289231    -0.07388500
Spot 1    -0.01355272    -0.01289150    -0.07388500
Spot 2    -0.01348802    -0.01289282    -0.07388500
Spot 1    -0.01355203    -0.01289012    -0.07388500
Spot 2    -0.01348644    -0.01289290    -0.07388500
20MABNDB000069_PR033
Spot 1    -0.01194539    -0.01255212    -0.07388500
Spot 2    -0.01147536    -0.01255264    -0.07388500
Spot 1    -0.01194534    -0.01255229    -0.07388500
Spot 2    -0.01147530    -0.01255260    -0.07388500
Spot 1    -0.01194532    -0.01255207    -0.07388500
Spot 2    -0.01147528    -0.01255251    -0.07388500
Spot 1    -0.01194516    -0.01255209    -0.07388500
Spot 2    -0.01147538    -0.01255251    -0.07388500
Spot 1    -0.01194525    -0.01255208    -0.07388500
Spot 2    -0.01147540    -0.01255252    -0.07388500
20MABNDB000131_PR032
Spot 1    -0.01144094    -0.01299837    -0.07533000
Spot 2    -0.01138148    -0.01299373    -0.07533000
Spot 1    -0.01144079    -0.01299861    -0.07533000
Spot 2    -0.01138140    -0.01299333    -0.07533000
Spot 1    -0.01144075    -0.01299831    -0.07533000
Spot 2    -0.01138182    -0.01299355    -0.07533000
Spot 1    -0.01144120    -0.01299850    -0.07533000
Spot 2    -0.01138170    -0.01299355    -0.07533000
Spot 1    -0.01144085    -0.01299863    -0.07533000
Spot 2    -0.01138173    -0.01299393    -0.07533000
20MABNDB000131_PR034
Spot 1    -0.01328407    -0.01368443    -0.07533000
Spot 2    -0.01310819    -0.01368494    -0.07533000
Spot 1    -0.01328408    -0.01368448    -0.07533000
Spot 2    -0.01310809    -0.01368460    -0.07533000
Spot 1    -0.01328431    -0.01368453    -0.07533000
Spot 2    -0.01310803    -0.01368470    -0.07533000
Spot 1    -0.01328417    -0.01368454    -0.07533000
Spot 2    -0.01310827    -0.01368492    -0.07533000
Spot 1    -0.01328411    -0.01368444    -0.07533000
Spot 2    -0.01310810    -0.01368470    -0.07533000
20MABNDA000208_PR042
Spot 1    -0.01386773     0.01309663    -0.07273700
Spot 2    -0.01379816     0.01309141    -0.07273700
Spot 1    -0.01386722     0.01309626    -0.07273700
Spot 2    -0.01379894     0.01309234    -0.07273700
Spot 1    -0.01386797     0.01309599    -0.07273700
Spot 2    -0.01379921     0.01309034    -0.07273700
Spot 1    -0.01386784     0.01309593    -0.07273700
Spot 2    -0.01380123     0.01309243    -0.07273700
Spot 1    -0.01386751     0.01309556    -0.07273700
Spot 2    -0.01379729     0.01309121    -0.07273700
20MABNDA000208_PR046
Spot 1    -0.01218633     0.01211226    -0.07273700
Spot 2    -0.01171222     0.01210917    -0.07273700
Spot 1    -0.01218654     0.01211243    -0.07273700
Spot 2    -0.01171197     0.01210907    -0.07273700
Spot 1    -0.01218652     0.01211228    -0.07273700
Spot 2    -0.01171352     0.01210972    -0.07273700
Spot 1    -0.01218627     0.01211245    -0.07273700
Spot 2    -0.01171375     0.01210987    -0.07273700
Spot 1    -0.01218647     0.01211245    -0.07273700
Spot 2    -0.01171356     0.01210973    -0.07273700
20MABNDA000035_PR044
Spot 1    -0.01157566     0.01295721    -0.07483200
Spot 2    -0.01152003     0.01296453    -0.07483200
Spot 1    -0.01157559     0.01295680    -0.07483200
Spot 2    -0.01152011     0.01296407    -0.07483200
Spot 1    -0.01157577     0.01295687    -0.07483200
Spot 2    -0.01151993     0.01296443    -0.07483200
Spot 1    -0.01157564     0.01295682    -0.07483200
Spot 2    -0.01152040     0.01296413    -0.07483200
Spot 1    -0.01157552     0.01295698    -0.07483200
Spot 2    -0.01151993     0.01296444    -0.07483200
20MABNDA000035_PR045
Spot 1    -0.01337778     0.01367647    -0.07483200
Spot 2    -0.01320147     0.01367640    -0.07483200
Spot 1    -0.01337774     0.01367647    -0.07483200
Spot 2    -0.01320151     0.01367637    -0.07483200
Spot 1    -0.01337776     0.01367654    -0.07483200
Spot 2    -0.01320139     0.01367638    -0.07483200
Spot 1    -0.01337772     0.01367643    -0.07483200
Spot 2    -0.01320151     0.01367647    -0.07483200
Spot 1    -0.01337787     0.01367650    -0.07483200
Spot 2    -0.01320150     0.01367640    -0.07483200
20MABNDL000077_PR002
Spot 1     0.01186511     0.03557213    -0.07463200
Spot 2     0.01202754     0.03556989    -0.07463200
Spot 1     0.01186479     0.03557262    -0.07463200
Spot 2     0.01202694     0.03557017    -0.07463200
Spot 1     0.01186479     0.03557255    -0.07463200
Spot 2     0.01202707     0.03557030    -0.07463200
Spot 1     0.01186478     0.03557284    -0.07463200
Spot 2     0.01202709     0.03557000    -0.07463200
Spot 1     0.01186482     0.03557279    -0.07463200
Spot 2     0.01202713     0.03556964    -0.07463200
20MABNDL000077_PR003
Spot 1     0.01259121     0.03525748    -0.07463200
Spot 2     0.01274164     0.03525861    -0.07463200
Spot 1     0.01259125     0.03525782    -0.07463200
Spot 2     0.01274138     0.03525873    -0.07463200
Spot 1     0.01259121     0.03525779    -0.07463200
Spot 2     0.01274092     0.03525859    -0.07463200
Spot 1     0.01259129     0.03525773    -0.07463200
Spot 2     0.01274103     0.03525870    -0.07463200
Spot 1     0.01259117     0.03525783    -0.07463200
Spot 2     0.01274094     0.03525884    -0.07463200
20MABNDL000077_20MABNDM000168
Spot 1    -0.01272194     0.03554642    -0.00695400
Spot 2    -0.01254132     0.03558182    -0.00695400
Spot 1    -0.01272187     0.03554610    -0.00695400
Spot 2    -0.01254127     0.03558173    -0.00695400
Spot 1    -0.01272218     0.03554635    -0.00695400
Spot 2    -0.01254121     0.03558221    -0.00695400
Spot 1    -0.01272207     0.03554642    -0.00695400
Spot 2    -0.01254129     0.03558199    -0.00695400
Spot 1    -0.01272231     0.03554635    -0.00695400
Spot 2    -0.01254138     0.03558232    -0.00695400
20MABNDL000077_PR024
Spot 1    -0.01347084     0.03576758    -0.00695400
Spot 2    -0.01357131     0.03577115    -0.00695400
Spot 1    -0.01347040     0.03576837    -0.00695400
Spot 2    -0.01357136     0.03577127    -0.00695400
Spot 1    -0.01347033     0.03576823    -0.00695400
Spot 2    -0.01357135     0.03577134    -0.00695400
Spot 1    -0.01347033     0.03576796    -0.00695400
Spot 2    -0.01357137     0.03577153    -0.00695400
Spot 1    -0.01347086     0.03576802    -0.00695400
Spot 2    -0.01357148     0.03577161    -0.00695400
20MABNDM000020_PR013
Spot 1    -0.01270260    -0.03609885    -0.00523500
Spot 2    -0.01285556    -0.03610638    -0.00523500
Spot 1    -0.01270269    -0.03609913    -0.00523500
Spot 2    -0.01285571    -0.03610644    -0.00523500
Spot 1    -0.01270299    -0.03609905    -0.00523500
Spot 2    -0.01285565    -0.03610630    -0.00523500
Spot 1    -0.01270265    -0.03609917    -0.00523500
Spot 2    -0.01285537    -0.03610645    -0.00523500
Spot 1    -0.01270296    -0.03609869    -0.00523500
Spot 2    -0.01285539    -0.03610655    -0.00523500
20MABNDM000020_PR014
Spot 1    -0.01166615    -0.03621495    -0.00523500
Spot 2    -0.01182744    -0.03622555    -0.00523500
Spot 1    -0.01166631    -0.03621497    -0.00523500
Spot 2    -0.01182743    -0.03622579    -0.00523500
Spot 1    -0.01166617    -0.03621496    -0.00523500
Spot 2    -0.01182717    -0.03622581    -0.00523500
Spot 1    -0.01166585    -0.03621506    -0.00523500
Spot 2    -0.01182743    -0.03622581    -0.00523500
Spot 1    -0.01166582    -0.03621515    -0.00523500
Spot 2    -0.01182697    -0.03622589    -0.00523500
20MABNDM000020_20MABNDL000196
Spot 1     0.01268519    -0.03454707    -0.07583800
Spot 2     0.01388114    -0.03418340    -0.07583800
Spot 1     0.01268529    -0.03454689    -0.07583800
Spot 2     0.01388114    -0.03418340    -0.07583800
Spot 1     0.01268522    -0.03454742    -0.07583800
Spot 2     0.01388114    -0.03418340    -0.07583800
Spot 1     0.01268532    -0.03454714    -0.07583800
Spot 2     0.01388114    -0.03418340    -0.07583800
Spot 1     0.01268529    -0.03454745    -0.07583800
Spot 2     0.01388114    -0.03418340    -0.07583800
20MABNDM000020_PR035
Spot 1     0.01342537    -0.03483873    -0.07583800
Spot 2     0.01349439    -0.03487303    -0.07583800
Spot 1     0.01342532    -0.03483938    -0.07583800
Spot 2     0.01349424    -0.03487313    -0.07583800
Spot 1     0.01342527    -0.03483941    -0.07583800
Spot 2     0.01349431    -0.03487325    -0.07583800
Spot 1     0.01342554    -0.03483927    -0.07583800
Spot 2     0.01349444    -0.03487310    -0.07583800
Spot 1     0.01342592    -0.03483932    -0.07583800
Spot 2     0.01349444    -0.03487295    -0.07583800
20MABNDA000188_PR008
Spot 1    -0.01372770     0.01390361    -0.07502000
Spot 2    -0.01431804     0.01401241    -0.07502000
Spot 1    -0.01372811     0.01390569    -0.07502000
Spot 2    -0.01385116     0.01393841    -0.07502000
Spot 1    -0.01373147     0.01390183    -0.07502000
Spot 2    -0.01431804     0.01401241    -0.07502000
Spot 1    -0.01373004     0.01390167    -0.07502000
Spot 2    -0.01381099     0.01395807    -0.07502000
Spot 1    -0.01373146     0.01390239    -0.07502000
Spot 2    -0.01385116     0.01393841    -0.07502000
20MABNDA000188_PR018
Spot 1    -0.01257204     0.01252399    -0.07502000
Spot 2    -0.01210521     0.01252318    -0.07502000
Spot 1    -0.01257204     0.01252389    -0.07502000
Spot 2    -0.01210534     0.01252304    -0.07502000
Spot 1    -0.01257186     0.01252394    -0.07502000
Spot 2    -0.01210529     0.01252298    -0.07502000
Spot 1    -0.01257186     0.01252408    -0.07502000
Spot 2    -0.01210534     0.01252312    -0.07502000
Spot 1    -0.01257172     0.01252387    -0.07502000
Spot 2    -0.01210533     0.01252294    -0.07502000
20MABNDA000039_PR009
Spot 1    -0.01162280     0.01303467    -0.07444800
Spot 2    -0.01157643     0.01303085    -0.07444800
Spot 1    -0.01162302     0.01303542    -0.07444800
Spot 2    -0.01157600     0.01303063    -0.07444800
Spot 1    -0.01162334     0.01303485    -0.07444800
Spot 2    -0.01157684     0.01303087    -0.07444800
Spot 1    -0.01162342     0.01303482    -0.07444800
Spot 2    -0.01157652     0.01303066    -0.07444800
20MABNDA000039_PR011
Spot 1    -0.01372031     0.01388673    -0.07444800
Spot 2    -0.01354509     0.01389035    -0.07444800
Spot 1    -0.01372018     0.01388684    -0.07444800
Spot 2    -0.01354509     0.01389039    -0.07444800
Spot 1    -0.01372022     0.01388690    -0.07444800
Spot 2    -0.01354525     0.01389054    -0.07444800
Spot 1    -0.01372032     0.01388690    -0.07444800
Spot 2    -0.01354511     0.01389028    -0.07444800
20MABNDB000155_PR020
Spot 1    -0.01359377    -0.01316870    -0.07501700
Spot 2    -0.01353005    -0.01317128    -0.07501700
Spot 1    -0.01359357    -0.01316858    -0.07501700
Spot 2    -0.01353006    -0.01317087    -0.07501700
Spot 1    -0.01359369    -0.01316833    -0.07501700
Spot 2    -0.01353047    -0.01317084    -0.07501700
Spot 1    -0.01359338    -0.01316859    -0.07501700
Spot 2    -0.01353016    -0.01317091    -0.07501700
20MABNDB000155_PR022
Spot 1    -0.01206394    -0.01311256    -0.07501700
Spot 2    -0.01159098    -0.01311017    -0.07501700
Spot 1    -0.01206404    -0.01311250    -0.07501700
Spot 2    -0.01159089    -0.01311016    -0.07501700
Spot 1    -0.01206400    -0.01311272    -0.07501700
Spot 2    -0.01159088    -0.01311016    -0.07501700
Spot 1    -0.01206399    -0.01311249    -0.07501700
Spot 2    -0.01159093    -0.01311006    -0.07501700
20MABNDB000010_PR021
Spot 1    -0.01158756    -0.01289063    -0.07358200
Spot 2    -0.01153412    -0.01288675    -0.07358200
Spot 1    -0.01158711    -0.01289097    -0.07358200
Spot 2    -0.01153358    -0.01288660    -0.07358200
Spot 1    -0.01158786    -0.01289114    -0.07358200
Spot 2    -0.01153341    -0.01288670    -0.07358200
Spot 1    -0.01158765    -0.01289067    -0.07358200
Spot 2    -0.01153390    -0.01288670    -0.07358200
20MABNDB000010_PR023
Spot 1    -0.01312942    -0.01369156    -0.07358200
Spot 2    -0.01295461    -0.01369074    -0.07358200
Spot 1    -0.01312931    -0.01369150    -0.07358200
Spot 2    -0.01295456    -0.01369061    -0.07358200
Spot 1    -0.01312931    -0.01369150    -0.07358200
Spot 2    -0.01295458    -0.01369057    -0.07358200
Spot 1    -0.01312920    -0.01369125    -0.07358200
Spot 2    -0.01295475    -0.01369076    -0.07358200
20MABNDB000212_PR029
Spot 1    -0.01183111    -0.01325978    -0.07390500
Spot 2    -0.01219665    -0.01325692    -0.07390500
Spot 1    -0.01183122    -0.01325983    -0.07390500
Spot 2    -0.01219643    -0.01325643    -0.07390500
Spot 1    -0.01183124    -0.01325984    -0.07390500
Spot 2    -0.01219658    -0.01325658    -0.07390500
Spot 1    -0.01183093    -0.01325955    -0.07390500
Spot 2    -0.01219670    -0.01325640    -0.07390500
20MABNDB000128_PR030
Spot 1    -0.01246515    -0.01220767    -0.07353400
Spot 2    -0.01226105    -0.01221201    -0.07353400
Spot 1    -0.01246515    -0.01220776    -0.07353400
Spot 2    -0.01226068    -0.01221179    -0.07353400
Spot 1    -0.01246513    -0.01220746    -0.07353400
Spot 2    -0.01226077    -0.01221179    -0.07353400
Spot 1    -0.01246508    -0.01220751    -0.07353400
Spot 2    -0.01226087    -0.01221191    -0.07353400
20MABNDA000444_PR040
Spot 1    -0.01172324     0.01365753    -0.07412000
Spot 2    -0.01208846     0.01365321    -0.07412000
Spot 1    -0.01172322     0.01365758    -0.07412000
Spot 2    -0.01208853     0.01365290    -0.07412000
Spot 1    -0.01172349     0.01365749    -0.07412000
Spot 2    -0.01208846     0.01365284    -0.07412000
Spot 1    -0.01172326     0.01365778    -0.07412000
Spot 2    -0.01208839     0.01365278    -0.07412000
20MABNDA000053_PR041
Spot 1    -0.01239917     0.01211507    -0.07430100
Spot 2    -0.01219586     0.01211408    -0.07430100
Spot 1    -0.01239873     0.01211521    -0.07430100
Spot 2    -0.01219589     0.01211408    -0.07430100
Spot 1    -0.01239901     0.01211528    -0.07430100
Spot 2    -0.01219586     0.01211425    -0.07430100
Spot 1    -0.01239872     0.01211500    -0.07430100
Spot 2    -0.01219594     0.01211402    -0.07430100
20MABNDA000196_PR006
Spot 1    -0.01294221     0.01321899    -0.07967100
Spot 2    -0.01257670     0.01321728    -0.07967100
Spot 1    -0.01294208     0.01321878    -0.07967100
Spot 2    -0.01257642     0.01321720    -0.07967100
Spot 1    -0.01294218     0.01321903    -0.07967100
Spot 2    -0.01257676     0.01321735    -0.07967100
Spot 1    -0.01294230     0.01321917    -0.07967100
Spot 2    -0.01257712     0.01321790    -0.07967100
20MABNDA000324_PR007
Spot 1    -0.01255355     0.01281315    -0.07446800
Spot 2    -0.01234757     0.01280923    -0.07446800
Spot 1    -0.01255358     0.01281324    -0.07446800
Spot 2    -0.01234758     0.01280922    -0.07446800
Spot 1    -0.01255354     0.01281322    -0.07446800
Spot 2    -0.01234738     0.01280933    -0.07446800
Spot 1    -0.01255345     0.01281325    -0.07446800
Spot 2    -0.01234755     0.01280947    -0.07446800
20MABNDB000001_PR017
Spot 1    -0.01194105    -0.01351196    -0.07418400
Spot 2    -0.01419391    -0.01397051    -0.07418400
Spot 1    -0.01194096    -0.01351192    -0.07418400
Spot 2    -0.01419391    -0.01397051    -0.07418400
Spot 1    -0.01194101    -0.01351191    -0.07418400
Spot 2    -0.01419391    -0.01397051    -0.07418400
Spot 1    -0.01194096    -0.01351184    -0.07418400
Spot 2    -0.01419391    -0.01397051    -0.07418400
20MABNDB000260_PR019
Spot 1    -0.01240474    -0.01240317    -0.07492700
Spot 2    -0.01220211    -0.01239944    -0.07492700
Spot 1    -0.01240489    -0.01240344    -0.07492700
Spot 2    -0.01220224    -0.01239987    -0.07492700
Spot 1    -0.01240484    -0.01240323    -0.07492700
Spot 2    -0.01220213    -0.01239970    -0.07492700
Spot 1    -0.01240481    -0.01240345    -0.07492700
Spot 2    -0.01220162    -0.01240030    -0.07492700
20MABNDB000135_PR027
Spot 1    -0.01251123    -0.01318717    -0.07464700
Spot 2    -0.01229312    -0.01318703    -0.07464700
Spot 1    -0.01251126    -0.01318706    -0.07464700
Spot 2    -0.01229303    -0.01318694    -0.07464700
Spot 1    -0.01251103    -0.01318698    -0.07464700
Spot 2    -0.01229300    -0.01318703    -0.07464700
Spot 1    -0.01251126    -0.01318720    -0.07464700
Spot 2    -0.01229285    -0.01318687    -0.07464700
20MABNDB000126_PR028
Spot 1    -0.01253273    -0.01217805    -0.07500400
Spot 2    -0.01225178    -0.01217394    -0.07500400
Spot 1    -0.01253252    -0.01217822    -0.07500400
Spot 2    -0.01225199    -0.01217385    -0.07500400
Spot 1    -0.01253265    -0.01217805    -0.07500400
Spot 2    -0.01225198    -0.01217393    -0.07500400
Spot 1    -0.01253272    -0.01217814    -0.07500400
Spot 2    -0.01225189    -0.01217401    -0.07500400
20MABNDA000272_PR038
Spot 1    -0.01275479     0.01314672    -0.07417900
Spot 2    -0.01253309     0.01314790    -0.07417900
Spot 1    -0.01275478     0.01314683    -0.07417900
Spot 2    -0.01253277     0.01314767    -0.07417900
Spot 1    -0.01275484     0.01314662    -0.07417900
Spot 2    -0.01253319     0.01314764    -0.07417900
Spot 1    -0.01275496     0.01314667    -0.07417900
Spot 2    -0.01253326     0.01314803    -0.07417900
20MABNDA000003_PR039
Spot 1    -0.01279952     0.01212959    -0.07373400
Spot 2    -0.01307771     0.01213030    -0.07373400
Spot 1    -0.01279959     0.01212962    -0.07373400
Spot 2    -0.01307752     0.01213066    -0.07373400
Spot 1    -0.01279961     0.01212954    -0.07373400
Spot 2    -0.01307766     0.01213031    -0.07373400
Spot 1    -0.01279938     0.01212939    -0.07373400
Spot 2    -0.01307750     0.01213042    -0.07373400
20MABNDA000318_PR004
Spot 1    -0.01286375     0.01246295    -0.07310600
Spot 2    -0.01264642     0.01246187    -0.07310600
Spot 1    -0.01286358     0.01246303    -0.07310600
Spot 2    -0.01264638     0.01246255    -0.07310600
Spot 1    -0.01286364     0.01246304    -0.07310600
Spot 2    -0.01264632     0.01246213    -0.07310600
Spot 1    -0.01286366     0.01246308    -0.07310600
Spot 2    -0.01264607     0.01246243    -0.07310600
20MABNDA000334_PR005
Spot 1    -0.01311612     0.01254822    -0.07324100
Spot 2    -0.01283589     0.01254757    -0.07324100
Spot 1    -0.01311583     0.01254824    -0.07324100
Spot 2    -0.01283574     0.01254737    -0.07324100
Spot 1    -0.01311583     0.01254829    -0.07324100
Spot 2    -0.01283584     0.01254731    -0.07324100
Spot 1    -0.01311603     0.01254827    -0.07324100
Spot 2    -0.01283577     0.01254739    -0.07324100
20MABNDB000317_PR015
Spot 1    -0.01266266    -0.01248891    -0.07326100
Spot 2    -0.01244348    -0.01249145    -0.07326100
Spot 1    -0.01266259    -0.01248885    -0.07326100
Spot 2    -0.01244339    -0.01249164    -0.07326100
Spot 1    -0.01266267    -0.01248891    -0.07326100
Spot 2    -0.01244346    -0.01249151    -0.07326100
Spot 1    -0.01266262    -0.01248890    -0.07326100
Spot 2    -0.01244343    -0.01249159    -0.07326100
20MABNDB000146_PR016
Spot 1    -0.01275757    -0.01245983    -0.07450500
Spot 2    -0.01248184    -0.01245660    -0.07450500
Spot 1    -0.01275747    -0.01245994    -0.07450500
Spot 2    -0.01248176    -0.01245675    -0.07450500
Spot 1    -0.01275734    -0.01245986    -0.07450500
Spot 2    -0.01248153    -0.01245659    -0.07450500
Spot 1    -0.01275747    -0.01245979    -0.07450500
Spot 2    -0.01248179    -0.01245664    -0.07450500
20MABNDM000168_PR025
Spot 1    -0.01322587    -0.03565229    -0.00532900
Spot 2    -0.01337887    -0.03565300    -0.00532900
Spot 1    -0.01322563    -0.03565229    -0.00532900
Spot 2    -0.01337919    -0.03565301    -0.00532900
Spot 1    -0.01322566    -0.03565218    -0.00532900
Spot 2    -0.01337902    -0.03565278    -0.00532900
Spot 1    -0.01322546    -0.03565218    -0.00532900
Spot 2    -0.01337902    -0.03565290    -0.00532900
20MABNDM000168_PR026
Spot 1    -0.01173486    -0.03576126    -0.00532900
Spot 2    -0.01189456    -0.03575923    -0.00532900
Spot 1    -0.01173475    -0.03576163    -0.00532900
Spot 2    -0.01189459    -0.03575925    -0.00532900
Spot 1    -0.01173487    -0.03576119    -0.00532900
Spot 2    -0.01189483    -0.03575896    -0.00532900
Spot 1    -0.01173519    -0.03576149    -0.00532900
Spot 2    -0.01189469    -0.03575898    -0.00532900
20MABNDM000168_20MABNDL000077
Spot 1     0.01288851    -0.03529742    -0.07445100
Spot 2     0.01267068    -0.03529739    -0.07445100
Spot 1     0.01288836    -0.03529751    -0.07445100
Spot 2     0.01267044    -0.03529736    -0.07445100
Spot 1     0.01288854    -0.03529726    -0.07445100
Spot 2     0.01267039    -0.03529741    -0.07445100
Spot 1     0.01288838    -0.03529739    -0.07445100
Spot 2     0.01267030    -0.03529727    -0.07445100
20MABNDM000168_PR001
Spot 1     0.01361739    -0.03562527    -0.07445100
Spot 2     0.01371729    -0.03563231    -0.07445100
Spot 1     0.01361712    -0.03562520    -0.07445100
Spot 2     0.01371737    -0.03563214    -0.07445100
Spot 1     0.01361704    -0.03562531    -0.07445100
Spot 2     0.01371733    -0.03563229    -0.07445100
Spot 1     0.01361683    -0.03562513    -0.07445100
Spot 2     0.01371725    -0.03563227    -0.07445100
20MABNDL000196_PR036
Spot 1     0.01194015     0.03583064    -0.07483600
Spot 2     0.01210303     0.03583140    -0.07483600
Spot 1     0.01194026     0.03583089    -0.07483600
Spot 2     0.01210317     0.03583134    -0.07483600
Spot 1     0.01194031     0.03583088    -0.07483600
Spot 2     0.01210310     0.03583136    -0.07483600
Spot 1     0.01194022     0.03583066    -0.07483600
Spot 2     0.01210331     0.03583113    -0.07483600
20MABNDL000196_PR037
Spot 1     0.01346132     0.03535628    -0.07483600
Spot 2     0.01361552     0.03535493    -0.07483600
Spot 1     0.01346161     0.03535604    -0.07483600
Spot 2     0.01361566     0.03535476    -0.07483600
Spot 1     0.01346176     0.03535592    -0.07483600
Spot 2     0.01361566     0.03535469    -0.07483600
Spot 1     0.01346184     0.03535616    -0.07483600
Spot 2     0.01361578     0.03535483    -0.07483600
20MABNDL000196_20MABNDM000020
Spot 1    -0.01277483     0.03530332    -0.00611000
Spot 2    -0.01255378     0.03530684    -0.00611000
Spot 1    -0.01277485     0.03530326    -0.00611000
Spot 2    -0.01255377     0.03530683    -0.00611000
Spot 1    -0.01277486     0.03530340    -0.00611000
Spot 2    -0.01255385     0.03530683    -0.00611000
Spot 1    -0.01277500     0.03530357    -0.00611000
Spot 2    -0.01255383     0.03530684    -0.00611000
20MABNDL000196_PR012
Spot 1    -0.01154789     0.03477028    -0.00611000
Spot 2    -0.01397308     0.03494152    -0.00611000
Spot 1    -0.01397254     0.03494153    -0.00611000
Spot 2    -0.01397254     0.03494153    -0.00611000
Spot 1    -0.01384918     0.03431388    -0.00611000
Spot 2    -0.01384918     0.03431388    -0.00611000
Spot 1    -0.01384918     0.03431388    -0.00611000
Spot 2    -0.01384918     0.03431388    -0.00611000


*****************************************************************coordonnees du prisme dans le repere MOUNT********************************************************************************** 
20MABNDB000069_PR031
    0.09767023    -0.03524879     9.20362854
    0.09774595    -0.03525806     9.20362663
    0.09780480    -0.03534888     9.20362663
    0.09779961    -0.03526641     9.20362663
    0.09766072    -0.03534539     9.20362854
20MABNDB000069_PR033
   -0.02819840    -0.02198836     1.28396845
   -0.02819921    -0.02198730     1.28396845
   -0.02819958    -0.02198994     1.28396845
   -0.02820008    -0.02198975     1.28396845
   -0.02819914    -0.02198970     1.28396845
20MABNDB000131_PR032
   -0.18823875    -0.03551134    11.00640678
   -0.18825550    -0.03552311    11.00640678
   -0.18822771    -0.03552882    11.00640678
   -0.18820369    -0.03551482    11.00640774
   -0.18822724    -0.03547767    11.00640678
20MABNDB000131_PR034
    0.01396273     0.01125781     3.43342280
    0.01396071     0.01125142     3.43342280
    0.01396457     0.01125486     3.43342280
    0.01396682     0.01125989     3.43342280
    0.01396162     0.01125280     3.43342280
20MABNDA000208_PR042
    0.12467789     0.00840515     9.20156765
    0.12469449     0.00837079     9.20156765
    0.12475695     0.00851017     9.20156670
    0.12487304     0.00838568     9.20156479
    0.12461093     0.00848304     9.20156860
20MABNDA000208_PR046
   -0.02574781     0.02922757     1.28214002
   -0.02574815     0.02922697     1.28214002
   -0.02573507     0.02922271     1.28214002
   -0.02573524     0.02921998     1.28214025
   -0.02573516     0.02922118     1.28214025
20MABNDA000035_PR044
   -0.17947072     0.03287284    11.00802040
   -0.17947027     0.03293574    11.00802040
   -0.17947048     0.03290502    11.00802040
   -0.17944545     0.03292971    11.00802040
   -0.17948884     0.03289564    11.00802040
20MABNDA000035_PR045
    0.01477590    -0.01338745     3.43488312
    0.01477591    -0.01338676     3.43488312
    0.01477361    -0.01338857     3.43488312
    0.01477544    -0.01338813     3.43488312
    0.01477863    -0.01338815     3.43488312
20MABNDL000077_PR002
    0.04953363     0.02145974     3.70690918
    0.04955642     0.02144050     3.70690918
    0.04955319     0.02143905     3.70690918
    0.04955295     0.02143930     3.70690918
    0.04955107     0.02144944     3.70690918
20MABNDL000077_PR003
    0.01402427     0.03696583     3.89605379
    0.01402987     0.03695384     3.89605379
    0.01404289     0.03695838     3.89605379
    0.01403795     0.03695713     3.89605379
    0.01404334     0.03695085     3.89605379
20MABNDL000077_20MABNDM000168
   -0.01654707     0.01429816    -5.46871090
   -0.01655155     0.01431292    -5.46871090
   -0.01654226     0.01428701    -5.46871090
   -0.01654339     0.01429206    -5.46871090
   -0.01653138     0.01428279    -5.46871090
20MABNDL000077_PR024
    0.05249134    -0.00342914    -5.89622307
    0.05247650    -0.00346476    -5.89622211
    0.05247336    -0.00346206    -5.89622307
    0.05247410    -0.00345894    -5.89622307
    0.05249910    -0.00346413    -5.89622211
20MABNDM000020_PR013
   -0.00512841     0.01224283    -3.80216813
   -0.00512265     0.01225139    -3.80216813
   -0.00511682     0.01224606    -3.80216813
   -0.00513210     0.01225243    -3.80216813
   -0.00512395     0.01224317    -3.80216813
20MABNDM000020_PR014
   -0.06745451     0.03180283    -4.74799967
   -0.06744971     0.03181103    -4.74799967
   -0.06746215     0.03181106    -4.74799871
   -0.06746410     0.03181444    -4.74799871
   -0.06747946     0.03181971    -4.74799871
20MABNDM000020_20MABNDL000196
   -0.02602534    -0.08878934     5.39443254
   -0.02602891    -0.08879580     5.39443207
   -0.02602641    -0.08877681     5.39443254
   -0.02602999    -0.08878684     5.39443254
   -0.02602892    -0.08877573     5.39443254
20MABNDM000020_PR035
   -0.04256378    -0.05496774     5.80099583
   -0.04255569    -0.05493884     5.80099583
   -0.04255646    -0.05493306     5.80099583
   -0.04257187    -0.05494424     5.80099583
   -0.04258651    -0.05494809     5.80099583
20MABNDA000188_PR008
    0.15007192    -0.09714691     9.20296288
    0.12144675    -0.09273852     9.20347595
    0.15030301    -0.09703776     9.20296001
    0.11910006    -0.09369840     9.20349884
    0.12165289    -0.09253586     9.20347500
20MABNDA000188_PR018
   -0.01882920     0.02227779     1.28360295
   -0.01882824     0.02227984     1.28360295
   -0.01883021     0.02227994     1.28360295
   -0.01882972     0.02227754     1.28360295
   -0.01883106     0.02228089     1.28360295
20MABNDA000039_PR009
   -0.17157039     0.02986016    11.00700378
   -0.17158517     0.02982146    11.00700378
   -0.17150100     0.02984523    11.00700569
   -0.17151847     0.02986286    11.00700569
20MABNDA000039_PR011
    0.03051301    -0.02067735     3.43351412
    0.03051003    -0.02068076     3.43351412
    0.03051457    -0.02068534     3.43351412
    0.03051369    -0.02067963     3.43351412
20MABNDB000155_PR020
    0.09576008    -0.00391672     9.20035648
    0.09574825    -0.00394942     9.20035648
    0.09578042    -0.00396679     9.20035648
    0.09574269    -0.00394643     9.20035648
20MABNDB000155_PR022
   -0.02720062    -0.01284509     1.28069854
   -0.02720053    -0.01284568     1.28069854
   -0.02720098    -0.01284381     1.28069854
   -0.02720060    -0.01284662     1.28069854
20MABNDB000010_PR021
   -0.17528611    -0.03886022    11.00694847
   -0.17535838    -0.03884600    11.00694752
   -0.17531610    -0.03882617    11.00694847
   -0.17529567    -0.03886112    11.00694847
20MABNDB000010_PR023
    0.00455024     0.01567725     3.43381166
    0.00454664     0.01567283     3.43381166
    0.00454712     0.01567192     3.43381166
    0.00454829     0.01567056     3.43381166
20MABNDB000212_PR029
   -0.02585234    -0.00890361     1.64223540
   -0.02585360    -0.00890842     1.64223540
   -0.02585172    -0.00890668     1.64223540
   -0.02585375    -0.00891192     1.64223540
20MABNDB000128_PR030
   -0.01886624    -0.04714367     2.95496011
   -0.01887350    -0.04714606     2.95496011
   -0.01887210    -0.04715195     2.95496011
   -0.01887113    -0.04714880     2.95496011
20MABNDA000444_PR040
   -0.02942304     0.00133509     1.64492011
   -0.02942253     0.00133795     1.64492011
   -0.02942036     0.00133951     1.64492011
   -0.02942362     0.00133706     1.64492011
20MABNDA000053_PR041
   -0.02696528     0.05124702     2.95450020
   -0.02697338     0.05124443     2.95450020
   -0.02696856     0.05123962     2.95450020
   -0.02697288     0.05124991     2.95449996
20MABNDA000196_PR006
   -0.01036507     0.01058028     1.64206481
   -0.01036951     0.01058350     1.64206481
   -0.01036476     0.01057907     1.64206481
   -0.01035961     0.01057158     1.64206481
20MABNDA000324_PR007
   -0.02526269     0.02770235     2.95549250
   -0.02526170     0.02770079     2.95549250
   -0.02526660     0.02769898     2.95549250
   -0.02526500     0.02769565     2.95549250
20MABNDB000001_PR017
   -0.00336741     0.00138044     1.64034176
   -0.00336840     0.00138001     1.64034176
   -0.00336785     0.00137990     1.64034176
   -0.00336841     0.00137914     1.64034176
20MABNDB000260_PR019
   -0.02450688    -0.03821440     2.95627546
   -0.02450165    -0.03820051     2.95627594
   -0.02450465    -0.03820806     2.95627594
   -0.02451522    -0.03819193     2.95627594
20MABNDB000135_PR027
   -0.02109119    -0.01022860     2.74937153
   -0.02109233    -0.01023226     2.74937153
   -0.02109710    -0.01023202     2.74937153
   -0.02109544    -0.01023094     2.74937153
20MABNDB000126_PR028
   -0.02037884    -0.03883266     2.14679670
   -0.02037885    -0.03883152     2.14679670
   -0.02037713    -0.03883280     2.14679670
   -0.02037743    -0.03883038     2.14679670
20MABNDA000272_PR038
   -0.01337815     0.01128372     2.74965882
   -0.01338419     0.01128593     2.74965882
   -0.01337539     0.01129031     2.74965882
   -0.01337192     0.01128224     2.74965882
20MABNDA000003_PR039
   -0.00600045     0.04112778     2.14891720
   -0.00600218     0.04112221     2.14891720
   -0.00599988     0.04112835     2.14891720
   -0.00600545     0.04112893     2.14891720
20MABNDA000318_PR004
   -0.00851688     0.03865323     2.74965668
   -0.00852069     0.03863928     2.74965668
   -0.00852072     0.03864680     2.74965668
   -0.00852492     0.03864055     2.74965668
20MABNDA000334_PR005
   -0.00427338     0.03152341     2.14977336
   -0.00427966     0.03152598     2.14977336
   -0.00427823     0.03152613     2.14977336
   -0.00427638     0.03152527     2.14977336
20MABNDB000317_PR015
   -0.01750486    -0.03435074     2.75128746
   -0.01750780    -0.03434841     2.75128746
   -0.01750505    -0.03434965     2.75128746
   -0.01750652    -0.03434839     2.75128746
20MABNDB000146_PR016
   -0.01361713    -0.03183433     2.15201235
   -0.01361973    -0.03183060     2.15201235
   -0.01362490    -0.03183407     2.15201235
   -0.01361929    -0.03183434     2.15201235
20MABNDM000168_PR025
    0.01793322    -0.02028972    -3.78863740
    0.01793519    -0.02028947    -3.78863740
    0.01793177    -0.02029788    -3.78863788
    0.01792682    -0.02029494    -3.78863788
20MABNDM000168_PR026
   -0.05789659    -0.01385706    -3.98428893
   -0.05789872    -0.01384692    -3.98428893
   -0.05788927    -0.01386588    -3.98428965
   -0.05788462    -0.01385753    -3.98428965
20MABNDM000168_20MABNDL000077
    0.01128013    -0.03905349     5.38884640
    0.01129417    -0.03905154     5.38884640
    0.01128939    -0.03905866     5.38884640
    0.01129837    -0.03905915     5.38884640
20MABNDM000168_PR001
   -0.05766068    -0.01359870     5.81470299
   -0.05765344    -0.01360772     5.81470299
   -0.05764864    -0.01359771     5.81470299
   -0.05763751    -0.01360563     5.81470299
20MABNDL000196_PR036
    0.05071022     0.00580314     3.68777728
    0.05070410     0.00579846     3.68777728
    0.05070459     0.00579822     3.68777728
    0.05070162     0.00580926     3.68777728
20MABNDL000196_PR037
   -0.02570845     0.02878381     3.88380790
   -0.02571959     0.02879438     3.88380790
   -0.02572347     0.02879929     3.88380766
   -0.02572862     0.02878945     3.88380766
20MABNDL000196_20MABNDM000020
   -0.01390596     0.03878839    -5.47473907
   -0.01390530     0.03879092    -5.47473907
   -0.01390232     0.03878594    -5.47473907
   -0.01389788     0.03877956    -5.47473907
20MABNDL000196_PR012
   -0.00652700     0.07392618    -5.91564846
    0.08767177     0.06726567    -5.91482782
    0.07807925     0.11604182    -5.91451979
    0.07807925     0.11604182    -5.91451979


*****************************************************************coordonnees du prisme dans le repere ATLAS********************************************************************************** 
20MABNDB000069_PR031 0.00000000
    3.67938542     3.84882021    -7.90515184
    3.67946100     3.84881806    -7.90514278
    3.67951989     3.84881830    -7.90505171
    3.67951465     3.84881806    -7.90513420
    3.67937589     3.84882069    -7.90505505
20MABNDB000069_PR033 0.00000000
    3.53209853    -4.07045269    -7.88368225
    3.53209782    -4.07045269    -7.88368368
    3.53209734    -4.07045269    -7.88368082
    3.53209686    -4.07045269    -7.88368082
    3.53209782    -4.07045269    -7.88368130
20MABNDB000131_PR032 0.00000000
    3.86903954     3.64755511   -12.94615459
    3.86905622     3.64755511   -12.94616604
    3.86902833     3.64755511   -12.94617176
    3.86900425     3.64755607   -12.94615746
    3.86902785     3.64755511   -12.94612026
20MABNDB000131_PR034 0.00000000
    3.67382503    -3.92559505   -12.89668941
    3.67382693    -3.92559505   -12.89669609
    3.67382312    -3.92559505   -12.89669323
    3.67382097    -3.92559505   -12.89668751
    3.67382598    -3.92559505   -12.89669514
20MABNDA000208_PR042 0.00000000
   -3.67475271     3.84923983    -7.90307713
   -3.67476916     3.84923983    -7.90311146
   -3.67483187     3.84923887    -7.90297222
   -3.67494774     3.84923720    -7.90309668
   -3.67468572     3.84924078    -7.90299892
20MABNDA000208_PR046 0.00000000
   -3.53001475    -4.07028580    -7.87928963
   -3.53001451    -4.07028580    -7.87929010
   -3.53002739    -4.07028580    -7.87929440
   -3.53002739    -4.07028532    -7.87929726
   -3.53002739    -4.07028532    -7.87929583
20MABNDA000035_PR044 0.00000000
   -3.86871290     3.64757609   -12.93855190
   -3.86871243     3.64757609   -12.93861485
   -3.86871266     3.64757609   -12.93858433
   -3.86868763     3.64757609   -12.93860912
   -3.86873102     3.64757609   -12.93857479
20MABNDA000035_PR045 0.00000000
   -3.67595339    -3.92560363   -12.89299679
   -3.67595339    -3.92560363   -12.89299774
   -3.67595577    -3.92560363   -12.89299583
   -3.67595387    -3.92560363   -12.89299583
   -3.67595077    -3.92560363   -12.89299583
20MABNDL000077_PR002 0.00000000
    2.83558106    -3.69498324     6.48618937
    2.83560038    -3.69496059     6.48618937
    2.83560181    -3.69496369     6.48618937
    2.83560157    -3.69496393     6.48618937
    2.83559132    -3.69496584     6.48618937
20MABNDL000077_PR003 0.00000000
    2.82024932    -3.73072100     6.67530537
    2.82026124    -3.73071551     6.67530537
    2.82025671    -3.73070240     6.67530537
    2.82025790    -3.73070741     6.67530537
    2.82026410    -3.73070192     6.67530537
20MABNDL000077_20MABNDM000168 0.00000000
    2.83372140    -3.74974537    -2.68950772
    2.83370662    -3.74974990    -2.68950772
    2.83373260    -3.74974060    -2.68950772
    2.83372760    -3.74974179    -2.68950772
    2.83373690    -3.74972987    -2.68950772
20MABNDL000077_PR024 0.00000000
    2.85105157    -3.68018532    -3.11695170
    2.85108709    -3.68020010    -3.11695075
    2.85108447    -3.68020320    -3.11695170
    2.85108137    -3.68020248    -3.11695170
    2.85108638    -3.68017745    -3.11695075
20MABNDM000020_PR013 0.00000000
   -2.86455178    -3.73434615     6.48601770
   -2.86456037    -3.73435187     6.48601770
   -2.86455512    -3.73435760     6.48601770
   -2.86456132    -3.73434234     6.48601770
   -2.86455226    -3.73435068     6.48601770
20MABNDM000020_PR014 0.00000000
   -2.88390350    -3.67273331     7.43190050
   -2.88391161    -3.67273808     7.43190050
   -2.88391161    -3.67272568     7.43189955
   -2.88391495    -3.67272377     7.43189955
   -2.88392043    -3.67270851     7.43189955
20MABNDM000020_20MABNDL000196 0.00000000
   -2.76535368    -3.70648575    -2.71058440
   -2.76534724    -3.70648217    -2.71058393
   -2.76536632    -3.70648456    -2.71058440
   -2.76535606    -3.70648098    -2.71058440
   -2.76536727    -3.70648217    -2.71058440
20MABNDM000020_PR035 0.00000000
   -2.79925156    -3.68962765    -3.11712813
   -2.79928041    -3.68963575    -3.11712813
   -2.79928637    -3.68963504    -3.11712813
   -2.79927516    -3.68961954    -3.11712813
   -2.79927111    -3.68960500    -3.11712813
20MABNDA000188_PR008 0.00000000
    3.56281829     3.84855938     8.10873318
    3.53425765     3.84868312     8.10389805
    3.56305099     3.84856129     8.10862732
    3.53189683     3.84865928     8.10482216
    3.53446674     3.84868741     8.10369873
20MABNDA000188_PR018 0.00000000
    3.51825500    -4.07065535     7.90113068
    3.51825595    -4.07065535     7.90112877
    3.51825404    -4.07065535     7.90112829
    3.51825452    -4.07065535     7.90113068
    3.51825309    -4.07065535     7.90112734
20MABNDA000039_PR009 0.00000000
    3.87574196     3.64745998    12.94115448
    3.87575674     3.64745998    12.94111538
    3.87567258     3.64746213    12.94113922
    3.87568998     3.64746189    12.94115734
20MABNDA000039_PR011 0.00000000
    3.66451073    -3.92576337    12.88815975
    3.66451383    -3.92576337    12.88815594
    3.66450930    -3.92576337    12.88815117
    3.66451001    -3.92576337    12.88815689
20MABNDB000155_PR020 0.00000000
   -3.67441440     3.84890532     7.90295267
   -3.67440248     3.84890532     7.90291977
   -3.67443466     3.84890509     7.90290260
   -3.67439699     3.84890532     7.90292263
20MABNDB000155_PR022 0.00000000
   -3.53278136    -4.07044172     7.89521456
   -3.53278160    -4.07044172     7.89521408
   -3.53278112    -4.07044172     7.89521599
   -3.53278160    -4.07044172     7.89521313
20MABNDB000010_PR021 0.00000000
   -3.86111879     3.64768791    12.94068909
   -3.86119103     3.64768696    12.94067478
   -3.86114883     3.64768791    12.94065475
   -3.86112833     3.64768791    12.94069004
20MABNDB000010_PR023 0.00000000
   -3.68511200    -3.92556286    12.88959789
   -3.68511581    -3.92556286    12.88960266
   -3.68511534    -3.92556286    12.88960361
   -3.68511415    -3.92556286    12.88960457
20MABNDB000212_PR029 0.00000000
    2.59952998    -4.19501305    -6.54789162
    2.59953141    -4.19501305    -6.54789639
    2.59952950    -4.19501305    -6.54789448
    2.59953141    -4.19501305    -6.54789972
20MABNDB000128_PR030 0.00000000
    2.60999250    -4.14002991    -6.93097734
    2.60998511    -4.14002991    -6.93097496
    2.60998654    -4.14002991    -6.93096924
    2.60998750    -4.14002991    -6.93097210
20MABNDA000444_PR040 0.00000000
   -2.60459566    -4.19508934    -6.54051542
   -2.60459518    -4.19508934    -6.54051828
   -2.60459304    -4.19508934    -6.54051971
   -2.60459614    -4.19508934    -6.54051733
20MABNDA000053_PR041 0.00000000
   -2.59357667    -4.14013052    -6.92666626
   -2.59356856    -4.14013052    -6.92666912
   -2.59357333    -4.14013052    -6.92667389
   -2.59356904    -4.14013100    -6.92666340
20MABNDA000196_PR006 0.00000000
    2.58482552    -4.19496298     6.54853678
    2.58483005    -4.19496298     6.54854012
    2.58482528    -4.19496298     6.54853582
    2.58482003    -4.19496298     6.54852819
20MABNDA000324_PR007 0.00000000
    2.59405208    -4.13996553     6.94821262
    2.59405303    -4.13996553     6.94821453
    2.59404826    -4.13996553     6.94821596
    2.59404969    -4.13996553     6.94821930
20MABNDB000001_PR017 0.00000000
   -2.57706738    -4.19510555     6.53395510
   -2.57706833    -4.19510555     6.53395557
   -2.57706761    -4.19510555     6.53395557
   -2.57706833    -4.19510555     6.53395653
20MABNDB000260_PR019 0.00000000
   -2.60425520    -4.13995886     6.94242954
   -2.60426021    -4.13995838     6.94244337
   -2.60425735    -4.13995838     6.94243574
   -2.60424685    -4.13995838     6.94245195
20MABNDB000135_PR027 0.00000000
    2.60377192    -4.19700384    -3.82513237
    2.60377097    -4.19700384    -3.82512856
    2.60376620    -4.19700384    -3.82512879
    2.60376787    -4.19700384    -3.82512999
20MABNDB000126_PR028 0.00000000
    2.60553837    -4.19702005    -5.89338732
    2.60553837    -4.19702005    -5.89338827
    2.60554004    -4.19702005    -5.89338684
    2.60553980    -4.19702005    -5.89338970
20MABNDA000272_PR038 0.00000000
   -2.61115861    -4.19698238    -3.82720065
   -2.61115265    -4.19698238    -3.82719851
   -2.61116147    -4.19698238    -3.82719398
   -2.61116481    -4.19698238    -3.82720208
20MABNDA000003_PR039 0.00000000
   -2.61573076    -4.19702005    -5.89163876
   -2.61572886    -4.19702005    -5.89164448
   -2.61573124    -4.19702005    -5.89163828
   -2.61572576    -4.19702005    -5.89163780
20MABNDA000318_PR004 0.00000000
    2.61448622    -4.19698763     3.83334541
    2.61448240    -4.19698811     3.83335948
    2.61448240    -4.19698763     3.83335185
    2.61447835    -4.19698811     3.83335805
20MABNDA000334_PR005 0.00000000
    2.61672521    -4.19702959     5.89773750
    2.61671901    -4.19702959     5.89773512
    2.61672044    -4.19702959     5.89773464
    2.61672211    -4.19702959     5.89773560
20MABNDB000317_PR015 0.00000000
   -2.61110234    -4.19700384     3.83566475
   -2.61109948    -4.19700384     3.83566713
   -2.61110210    -4.19700384     3.83566570
   -2.61110067    -4.19700384     3.83566713
20MABNDB000146_PR016 0.00000000
   -2.61267805    -4.19702530     5.89851570
   -2.61267543    -4.19702530     5.89851952
   -2.61267042    -4.19702530     5.89851618
   -2.61267591    -4.19702530     5.89851570
20MABNDM000168_PR025 0.00000000
    2.83294702    -3.76326251    -6.47925615
    2.83294749    -3.76326466    -6.47925615
    2.83293891    -3.76326108    -6.47925663
    2.83294201    -3.76325631    -6.47925663
20MABNDM000168_PR026 0.00000000
    2.83938789    -3.68750715    -6.67493629
    2.83939815    -3.68750525    -6.67493629
    2.83937907    -3.68751454    -6.67493725
    2.83938742    -3.68751931    -6.67493725
20MABNDM000168_20MABNDL000077 0.00000000
    2.81474209    -3.75319219     2.69822550
    2.81474400    -3.75320625     2.69822550
    2.81473684    -3.75320148     2.69822550
    2.81473637    -3.75321031     2.69822550
20MABNDM000168_PR001 0.00000000
    2.84024096    -3.68409967     3.12405491
    2.84023190    -3.68410707     3.12405491
    2.84024191    -3.68411183     3.12405491
    2.84023404    -3.68412280     3.12405491
20MABNDL000196_PR036 0.00000000
   -2.84780407    -3.69356441    -6.47910023
   -2.84780884    -3.69357038    -6.47910023
   -2.84780908    -3.69356990    -6.47910023
   -2.84779787    -3.69357300    -6.47910023
20MABNDL000196_PR037 0.00000000
   -2.82479215    -3.77015471    -6.67506027
   -2.82478142    -3.77016568    -6.67506027
   -2.82477665    -3.77016973    -6.67505980
   -2.82478642    -3.77017474    -6.67505980
20MABNDL000196_20MABNDM000020 0.00000000
   -2.81459069    -3.74964213     2.68347168
   -2.81458831    -3.74964142     2.68347168
   -2.81459332    -3.74963856     2.68347168
   -2.81459951    -3.74963403     2.68347168
20MABNDL000196_PR012 0.00000000
   -2.77944684    -3.74183679     3.12437320
   -2.78615117    -3.64764190     3.12346506
   -2.73737073    -3.65721202     3.12316489
   -2.73737073    -3.65721202     3.12316489


*****************************************************************Rapport********************************************************************************** 
CAM-ECTC-US-IP_ECTC-US-IP-T    2016.03.19.21.22.36     3.67945137     3.84881907    -7.90510712     0.00006138     0.00000114     0.00004424 0.00000000 VRAI 
CAM-ECTC-US-IP_ECTC-US-IP      2016.03.19.21.22.36     3.53209767    -4.07045269    -7.88368177     0.00000056     0.00000000     0.00000109 0.00000000 VRAI 
CAM-ECTC-US-HO_ECTC-US-HO-T    2016.03.19.21.22.36     3.86903124     3.64755530   -12.94615402     0.00001698     0.00000038     0.00001795 0.00000000 VRAI 
CAM-ECTC-US-HO_ECTC-US-HO      2016.03.19.21.22.36     3.67382441    -3.92559505   -12.89669228     0.00000213     0.00000000     0.00000330 0.00000000 VRAI 
CAM-ECTC-USA-IP_ECTC-USA-IP-T  2016.03.19.21.22.36    -3.67479744     3.84923930    -7.90305128     0.00008838     0.00000121     0.00005539 0.00000000 VRAI 
CAM-ECTC-USA-IP_ECTC-USA-IP    2016.03.19.21.22.36    -3.53002229    -4.07028561    -7.87929344     0.00000625     0.00000023     0.00000306 0.00000000 VRAI 
CAM-ECTC-USA-HO_ECTC-USA-HO-T  2016.03.19.21.22.36    -3.86871133     3.64757609   -12.93858700     0.00001382     0.00000000     0.00002303 0.00000000 VRAI 
CAM-ECTC-USA-HO_ECTC-USA-HO    2016.03.19.21.22.36    -3.67595344    -3.92560363   -12.89299641     0.00000160     0.00000000     0.00000076 0.00000000 VRAI 
CAM-LBA-US_EBA-US-HO-H         2016.03.19.21.22.36     2.83559523    -3.69496746     6.48618937     0.00000807     0.00000807     0.00000000 0.00000000 VRAI 
CAM-LBA-US_JDA-US-H            2016.03.19.21.22.36     2.82025785    -3.73070965     6.67530537     0.00000499     0.00000749     0.00000000 0.00000000 VRAI 
CAM-LBA-US_CAM-LBC-US          2016.03.19.21.22.36     2.83372502    -3.74974151    -2.68950772     0.00001055     0.00000666     0.00000000 0.00000000 VRAI 
CAM-LBA-US_EBC-US-IP-H         2016.03.19.21.22.36     2.85107818    -3.68019371    -3.11695132     0.00001345     0.00001042     0.00000047 0.00000000 VRAI 
CAM-LBA-USA_EBA-USA-HO-H       2016.03.19.21.22.36    -2.86455617    -3.73434973     6.48601770     0.00000399     0.00000519     0.00000000 0.00000000 VRAI 
CAM-LBA-USA_JDA-USA-H          2016.03.19.21.22.36    -2.88391242    -3.67272587     7.43189993     0.00000550     0.00001010     0.00000047 0.00000000 VRAI 
CAM-LBA-USA_CAM-LBC-USA        2016.03.19.21.22.36    -2.76535811    -3.70648313    -2.71058431     0.00000766     0.00000175     0.00000019 0.00000000 VRAI 
CAM-LBA-USA_EBC-USA-IP-H       2016.03.19.21.22.36    -2.79927292    -3.68962460    -3.11712813     0.00001184     0.00001142     0.00000000 0.00000000 VRAI 
CAM-ECTA-US-IP_ECTA-US-IP-T    2016.03.19.21.22.36     3.54529810     3.84863009     8.10595589     0.01442862     0.00005776     0.00225675 0.00000000 VRAI 
CAM-ECTA-US-IP_ECTA-US-IP      2016.03.19.21.22.36     3.51825452    -4.07065535     7.90112915     0.00000095     0.00000000     0.00000133 0.00000000 VRAI 
CAM-ECTA-US-HO_ECTA-US-HO-T    2016.03.19.21.22.36     3.87571532     3.64746100    12.94114161     0.00003498     0.00000102     0.00001663 0.00000000 VRAI 
CAM-ECTA-US-HO_ECTA-US-HO      2016.03.19.21.22.36     3.66451097    -3.92576337    12.88815594     0.00000173     0.00000000     0.00000309 0.00000000 VRAI 
CAM-ECTA-USA-IP_ECTA-USA-IP-T  2016.03.19.21.22.36    -3.67441213     3.84890527     7.90292442     0.00001445     0.00000010     0.00001802 0.00000000 VRAI 
CAM-ECTA-USA-IP_ECTA-USA-IP    2016.03.19.21.22.36    -3.53278142    -4.07044172     7.89521444     0.00000020     0.00000000     0.00000103 0.00000000 VRAI 
CAM-ECTA-USA-HO_ECTA-USA-HO-T  2016.03.19.21.22.36    -3.86114675     3.64768767    12.94067717     0.00002778     0.00000041     0.00001428 0.00000000 VRAI 
CAM-ECTA-USA-HO_ECTA-USA-HO    2016.03.19.21.22.36    -3.68511432    -3.92556286    12.88960218     0.00000147     0.00000000     0.00000257 0.00000000 VRAI 
CAM-JDC-US-IP_JDC-US-IP        2016.03.19.21.22.36     2.59953058    -4.19501305    -6.54789555     0.00000085     0.00000000     0.00000295 0.00000000 VRAI 
CAM-JDC-US-HO_JDC-US-HO        2016.03.19.21.22.36     2.60998791    -4.14002991    -6.93097341     0.00000278     0.00000000     0.00000304 0.00000000 VRAI 
CAM-JDC-USA-IP_JDC-USA-IP      2016.03.19.21.22.36    -2.60459501    -4.19508934    -6.54051769     0.00000118     0.00000000     0.00000156 0.00000000 VRAI 
CAM-JDC-USA-HO_JDC-USA-HO      2016.03.19.21.22.36    -2.59357190    -4.14013064    -6.92666817     0.00000332     0.00000021     0.00000387 0.00000000 VRAI 
CAM-JDA-US-IP_JDA-US-IP        2016.03.19.21.22.36     2.58482522    -4.19496298     6.54853523     0.00000355     0.00000000     0.00000436 0.00000000 VRAI 
CAM-JDA-US-HO_JDA-US-HO        2016.03.19.21.22.36     2.59405077    -4.13996553     6.94821560     0.00000189     0.00000000     0.00000244 0.00000000 VRAI 
CAM-JDA-USA-IP_JDA-USA-IP      2016.03.19.21.22.36    -2.57706791    -4.19510555     6.53395569     0.00000043     0.00000000     0.00000052 0.00000000 VRAI 
CAM-JDA-USA-HO_JDA-USA-HO      2016.03.19.21.22.36    -2.60425490    -4.13995850     6.94244015     0.00000497     0.00000021     0.00000839 0.00000000 VRAI 
CAM-EBC-US-IP_EBC-US-IP        2016.03.19.21.22.36     2.60376924    -4.19700384    -3.82512993     0.00000231     0.00000000     0.00000151 0.00000000 VRAI 
CAM-EBC-US-HO_EBC-US-HO        2016.03.19.21.22.36     2.60553914    -4.19702005    -5.89338803     0.00000078     0.00000000     0.00000109 0.00000000 VRAI 
CAM-EBC-USA-IP_EBC-USA-IP      2016.03.19.21.22.36    -2.61115938    -4.19698238    -3.82719880     0.00000446     0.00000000     0.00000306 0.00000000 VRAI 
CAM-EBC-USA-HO_EBC-USA-HO      2016.03.19.21.22.36    -2.61572915    -4.19702005    -5.89163983     0.00000215     0.00000000     0.00000271 0.00000000 VRAI 
CAM-EBA-US-IP_EBA-US-IP        2016.03.19.21.22.36     2.61448234    -4.19698787     3.83335370     0.00000278     0.00000024     0.00000558 0.00000000 VRAI 
CAM-EBA-US-HO_EBA-US-HO        2016.03.19.21.22.36     2.61672169    -4.19702959     5.89773571     0.00000231     0.00000000     0.00000109 0.00000000 VRAI 
CAM-EBA-USA-IP_EBA-USA-IP      2016.03.19.21.22.36    -2.61110115    -4.19700384     3.83566618     0.00000116     0.00000000     0.00000101 0.00000000 VRAI 
CAM-EBA-USA-HO_EBA-USA-HO      2016.03.19.21.22.36    -2.61267495    -4.19702530     5.89851677     0.00000280     0.00000000     0.00000159 0.00000000 VRAI 
CAM-LBC-US_EBC-US-HO-H         2016.03.19.21.22.36     2.83294386    -3.76326114    -6.47925639     0.00000357     0.00000306     0.00000024 0.00000000 VRAI 
CAM-LBC-US_JDC-US-H            2016.03.19.21.22.36     2.83938813    -3.68751156    -6.67493677     0.00000676     0.00000566     0.00000048 0.00000000 VRAI 
CAM-LBC-US_CAM-LBA-US          2016.03.19.21.22.36     2.81473982    -3.75320256     2.69822550     0.00000329     0.00000675     0.00000000 0.00000000 VRAI 
CAM-LBC-US_EBA-US-IP-H         2016.03.19.21.22.36     2.84023720    -3.68411034     3.12405491     0.00000431     0.00000840     0.00000000 0.00000000 VRAI 
CAM-LBC-USA_EBC-USA-HO-H       2016.03.19.21.22.36    -2.84780496    -3.69356942    -6.47910023     0.00000456     0.00000312     0.00000000 0.00000000 VRAI 
CAM-LBC-USA_JDC-USA-H          2016.03.19.21.22.36    -2.82478416    -3.77016622    -6.67506003     0.00000576     0.00000738     0.00000024 0.00000000 VRAI 
CAM-LBC-USA_CAM-LBA-USA        2016.03.19.21.22.36    -2.81459296    -3.74963903     2.68347168     0.00000418     0.00000319     0.00000000 0.00000000 VRAI 
CAM-LBC-USA_EBA-USA-IP-H       2016.03.19.21.22.36    -2.76008487    -3.67597568     3.12354201     0.02283748     0.03822512     0.00049529 0.00000000 VRAI 
