********** Fichier qui contient une sauvegarde des coordonnees images + coordonnees images transformees dans le repere BCAM (MOUNT) + coordonnees des prismes dans le repere MOUNT********** 
********************************************************************** Unite en metres (m)************************************************************************************************** 

*******************************************************************coordonnees images dans le repere CCD *********************************************************************************** 
20MABNDB000069_PR031
Spot 1     0.00028340     0.00141197
Spot 2     0.00035552     0.00141077
Spot 1     0.00028327     0.00141192
Spot 2     0.00035543     0.00141088
Spot 1     0.00028337     0.00141178
Spot 2     0.00035563     0.00141119
Spot 1     0.00028307     0.00141212
Spot 2     0.00035595     0.00141140
Spot 1     0.00028335     0.00141233
Spot 2     0.00035572     0.00141096
20MABNDB000069_PR033
Spot 1     0.00183356     0.00201293
Spot 2     0.00230390     0.00203273
Spot 1     0.00183359     0.00201315
Spot 2     0.00230363     0.00203258
Spot 1     0.00183358     0.00201314
Spot 2     0.00230394     0.00203263
Spot 1     0.00183352     0.00201314
Spot 2     0.00230369     0.00203256
Spot 1     0.00183359     0.00201314
Spot 2     0.00230368     0.00203255
20MABNDB000131_PR032
Spot 1     0.00277898     0.00108520
Spot 2     0.00283818     0.00108847
Spot 1     0.00277898     0.00108516
Spot 2     0.00283855     0.00108855
Spot 1     0.00277888     0.00108533
Spot 2     0.00283858     0.00108876
Spot 1     0.00277903     0.00108524
Spot 2     0.00283878     0.00108865
Spot 1     0.00277902     0.00108512
Spot 2     0.00283872     0.00108864
20MABNDB000131_PR034
Spot 1     0.00092737     0.00035794
Spot 2     0.00110342     0.00035676
Spot 1     0.00092722     0.00035782
Spot 2     0.00110338     0.00035680
Spot 1     0.00092730     0.00035758
Spot 2     0.00110329     0.00035685
Spot 1     0.00092751     0.00035784
Spot 2     0.00110358     0.00035674
Spot 1     0.00092736     0.00035778
Spot 2     0.00110345     0.00035677
20MABNDA000208_PR042
Spot 1     0.00305506     0.00094299
Spot 2     0.00298806     0.00094400
Spot 1     0.00305531     0.00094333
Spot 2     0.00298890     0.00094338
Spot 1     0.00305520     0.00094333
Spot 2     0.00298787     0.00094368
Spot 1     0.00305533     0.00094345
Spot 2     0.00298853     0.00094389
Spot 1     0.00305573     0.00094349
Spot 2     0.00298866     0.00094409
20MABNDA000208_PR046
Spot 1     0.00145752     0.00210524
Spot 2     0.00098332     0.00210962
Spot 1     0.00145759     0.00210552
Spot 2     0.00098332     0.00210823
Spot 1     0.00145740     0.00210538
Spot 2     0.00098307     0.00210882
Spot 1     0.00145728     0.00210557
Spot 2     0.00098322     0.00210862
Spot 1     0.00145748     0.00210525
Spot 2     0.00098319     0.00210844
20MABNDA000035_PR044
Spot 1     0.00074122     0.00126604
Spot 2     0.00068503     0.00126039
Spot 1     0.00074059     0.00126627
Spot 2     0.00068471     0.00126052
Spot 1     0.00074118     0.00126618
Spot 2     0.00068488     0.00126034
Spot 1     0.00074084     0.00126607
Spot 2     0.00068454     0.00126053
Spot 1     0.00074063     0.00126608
Spot 2     0.00068512     0.00126016
20MABNDA000035_PR045
Spot 1     0.00254867     0.00051274
Spot 2     0.00237119     0.00051143
Spot 1     0.00254833     0.00051270
Spot 2     0.00237136     0.00051121
Spot 1     0.00254836     0.00051274
Spot 2     0.00237104     0.00051133
Spot 1     0.00254833     0.00051282
Spot 2     0.00237120     0.00051138
20MABNDL000077_PR002
Spot 1     0.00079540     0.00149580
Spot 2     0.00095715     0.00149539
Spot 1     0.00079489     0.00149602
Spot 2     0.00095713     0.00149570
Spot 1     0.00079457     0.00149671
Spot 2     0.00095682     0.00149587
Spot 1     0.00079472     0.00149689
Spot 2     0.00095698     0.00149548
20MABNDL000077_PR003
Spot 1     0.00152602     0.00118913
Spot 2     0.00167706     0.00119170
Spot 1     0.00152570     0.00118919
Spot 2     0.00167695     0.00119159
Spot 1     0.00152570     0.00118909
Spot 2     0.00167694     0.00119131
Spot 1     0.00152590     0.00118921
Spot 2     0.00167663     0.00119146
20MABNDL000077_20MABNDM000168
Spot 1     0.00188354     0.00148507
Spot 2     0.00202500     0.00034500
Spot 1     0.00188388     0.00148528
Spot 2     0.00204500     0.00205500
Spot 1     0.00188390     0.00148527
Spot 2     0.00204500     0.00205500
Spot 1     0.00188364     0.00148568
Spot 2     0.00202500     0.00034500
20MABNDL000077_PR024
Spot 1     0.00262790     0.00171380
Spot 2     0.00272961     0.00171867
Spot 1     0.00262835     0.00171407
Spot 2     0.00272936     0.00171850
Spot 1     0.00262789     0.00171407
Spot 2     0.00272921     0.00171868
Spot 1     0.00262813     0.00171418
Spot 2     0.00272922     0.00171881
20MABNDM000020_PR013
Spot 1     0.00164196     0.00213922
Spot 2     0.00148915     0.00214452
Spot 1     0.00164181     0.00213898
Spot 2     0.00148876     0.00214439
Spot 1     0.00164205     0.00213920
Spot 2     0.00148910     0.00214438
Spot 1     0.00164176     0.00213937
Spot 2     0.00148886     0.00214455
20MABNDM000020_PR014
Spot 1     0.00267914     0.00227881
Spot 2     0.00251681     0.00228627
Spot 1     0.00267909     0.00227856
Spot 2     0.00251681     0.00228613
Spot 1     0.00267897     0.00227903
Spot 2     0.00251701     0.00228595
Spot 1     0.00267884     0.00227954
Spot 2     0.00251711     0.00228627
20MABNDM000020_20MABNDL000196
Spot 1     0.00200189     0.00057922
Spot 2     0.00230500     0.00010500
Spot 1     0.00200191     0.00057891
Spot 2     0.00230500     0.00010500
Spot 1     0.00200216     0.00057900
Spot 2     0.00230500     0.00010500
Spot 1     0.00200216     0.00057941
Spot 2     0.00230500     0.00010500
20MABNDM000020_PR035
Spot 1     0.00126973     0.00087504
Spot 2     0.00119689     0.00090710
Spot 1     0.00126954     0.00087516
Spot 2     0.00119680     0.00090699
Spot 1     0.00126948     0.00087489
Spot 2     0.00119688     0.00090688
Spot 1     0.00126961     0.00087491
Spot 2     0.00119669     0.00090673
20MABNDA000188_PR008
Spot 1     0.00283500     0.00012500
Spot 2     0.00283500     0.00012300
Spot 1     0.00283500     0.00012500
Spot 2     0.00283500     0.00012500
Spot 1     0.00283500     0.00012500
Spot 2     0.00283500     0.00012500
Spot 1     0.00283500     0.00012500
Spot 2     0.00291250     0.00004250
20MABNDA000188_PR018
Spot 1     0.00164823     0.00174989
Spot 2     0.00118110     0.00174753
Spot 1     0.00164814     0.00174997
Spot 2     0.00118087     0.00174763
Spot 1     0.00164844     0.00174988
Spot 2     0.00118088     0.00174770
Spot 1     0.00164806     0.00174995
Spot 2     0.00118084     0.00174764
20MABNDA000039_PR009
Spot 1     0.00066193     0.00117325
Spot 2     0.00061497     0.00117725
Spot 1     0.00066173     0.00117338
Spot 2     0.00061513     0.00117724
Spot 1     0.00066174     0.00117322
Spot 2     0.00061474     0.00117740
Spot 1     0.00066198     0.00117295
Spot 2     0.00061471     0.00117727
20MABNDA000039_PR011
Spot 1     0.00276321     0.00027769
Spot 2     0.00258820     0.00027264
Spot 1     0.00276294     0.00027764
Spot 2     0.00258812     0.00027271
Spot 1     0.00276300     0.00027779
Spot 2     0.00258819     0.00027263
Spot 1     0.00276300     0.00027763
Spot 2     0.00258822     0.00027266
20MABNDB000155_PR020
Spot 1     0.00061800     0.00112378
Spot 2     0.00068277     0.00111957
Spot 1     0.00061751     0.00112374
Spot 2     0.00068204     0.00111974
Spot 1     0.00061757     0.00112386
Spot 2     0.00068237     0.00111947
Spot 1     0.00061696     0.00112404
Spot 2     0.00068197     0.00111952
20MABNDB000155_PR022
Spot 1     0.00208317     0.00134916
Spot 2     0.00255674     0.00134434
Spot 1     0.00208333     0.00134922
Spot 2     0.00255655     0.00134415
Spot 1     0.00208338     0.00134910
Spot 2     0.00255663     0.00134416
Spot 1     0.00208339     0.00134912
Spot 2     0.00255671     0.00134429
20MABNDB000010_PR021
Spot 1     0.00286650     0.00115692
Spot 2     0.00292018     0.00115925
Spot 1     0.00286671     0.00115680
Spot 2     0.00292051     0.00115895
Spot 1     0.00286681     0.00115660
Spot 2     0.00292029     0.00115914
Spot 1     0.00286688     0.00115684
Spot 2     0.00292060     0.00115933
20MABNDB000010_PR023
Spot 1     0.00130721     0.00033131
Spot 2     0.00148184     0.00032978
Spot 1     0.00130717     0.00033146
Spot 2     0.00148183     0.00032986
Spot 1     0.00130742     0.00033136
Spot 2     0.00148188     0.00032984
Spot 1     0.00130714     0.00033138
Spot 2     0.00148191     0.00032980
20MABNDB000212_PR029
Spot 1     0.00226237     0.00072531
Spot 2     0.00189595     0.00072484
Spot 1     0.00226264     0.00072531
Spot 2     0.00189598     0.00072500
Spot 1     0.00226255     0.00072531
Spot 2     0.00189600     0.00072533
Spot 1     0.00226262     0.00072531
Spot 2     0.00189597     0.00072516
20MABNDB000128_PR030
Spot 1     0.00188616     0.00200669
Spot 2     0.00209043     0.00200156
Spot 1     0.00188621     0.00200686
Spot 2     0.00209053     0.00200149
Spot 1     0.00188656     0.00200680
Spot 2     0.00209042     0.00200195
Spot 1     0.00188609     0.00200694
Spot 2     0.00209053     0.00200176
20MABNDA000444_PR040
Spot 1     0.00078236     0.00037316
Spot 2     0.00114849     0.00037087
Spot 1     0.00078242     0.00037339
Spot 2     0.00114914     0.00037086
Spot 1     0.00078250     0.00037350
Spot 2     0.00114926     0.00037074
Spot 1     0.00078207     0.00037321
Spot 2     0.00114910     0.00037057
20MABNDA000053_PR041
Spot 1     0.00164532     0.00199020
Spot 2     0.00144201     0.00198652
Spot 1     0.00164513     0.00199026
Spot 2     0.00144178     0.00198688
Spot 1     0.00164519     0.00199019
Spot 2     0.00144185     0.00198691
Spot 1     0.00164531     0.00199007
Spot 2     0.00144194     0.00198670
20MABNDA000196_PR006
Spot 1     0.00198535     0.00075893
Spot 2     0.00161938     0.00075668
Spot 1     0.00198557     0.00075926
Spot 2     0.00161931     0.00075682
Spot 1     0.00198546     0.00075883
Spot 2     0.00161935     0.00075674
Spot 1     0.00198580     0.00075925
Spot 2     0.00161925     0.00075657
20MABNDA000324_PR007
Spot 1     0.00195096     0.00120447
Spot 2     0.00174556     0.00121031
Spot 1     0.00195085     0.00120452
Spot 2     0.00174570     0.00121061
Spot 1     0.00195115     0.00120466
Spot 2     0.00174572     0.00121060
Spot 1     0.00195094     0.00120453
Spot 2     0.00174594     0.00121063
20MABNDB000001_PR017
Spot 1     0.00188565     0.00047163
Spot 2     0.00225451     0.00048167
Spot 1     0.00188545     0.00047156
Spot 2     0.00225464     0.00048175
Spot 1     0.00188561     0.00047159
Spot 2     0.00225463     0.00048159
Spot 1     0.00188558     0.00047152
Spot 2     0.00225464     0.00048151
20MABNDB000260_PR019
Spot 1     0.00192030     0.00149465
Spot 2     0.00212329     0.00149451
Spot 1     0.00192067     0.00149525
Spot 2     0.00212386     0.00149432
Spot 1     0.00192055     0.00149535
Spot 2     0.00212400     0.00149450
Spot 1     0.00192068     0.00149538
Spot 2     0.00212344     0.00149438
20MABNDB000135_PR027
Spot 1     0.00189108     0.00092376
Spot 2     0.00210990     0.00092687
Spot 1     0.00189119     0.00092366
Spot 2     0.00210997     0.00092647
Spot 1     0.00189113     0.00092355
Spot 2     0.00211000     0.00092657
Spot 1     0.00189123     0.00092377
Spot 2     0.00211006     0.00092643
20MABNDB000126_PR028
Spot 1     0.00164441     0.00200159
Spot 2     0.00192657     0.00200414
Spot 1     0.00164426     0.00200149
Spot 2     0.00192648     0.00200383
Spot 1     0.00164426     0.00200150
Spot 2     0.00192667     0.00200404
Spot 1     0.00164436     0.00200160
Spot 2     0.00192682     0.00200411
20MABNDA000272_PR038
Spot 1     0.00192377     0.00096208
Spot 2     0.00170167     0.00096123
Spot 1     0.00192377     0.00096235
Spot 2     0.00170164     0.00096118
Spot 1     0.00192378     0.00096201
Spot 2     0.00170167     0.00096110
Spot 1     0.00192378     0.00096238
Spot 2     0.00170170     0.00096134
20MABNDA000003_PR039
Spot 1     0.00200153     0.00192040
Spot 2     0.00227931     0.00192120
Spot 1     0.00200161     0.00192039
Spot 2     0.00227927     0.00192093
Spot 1     0.00200160     0.00192060
Spot 2     0.00227926     0.00192094
Spot 1     0.00200148     0.00192051
Spot 2     0.00227928     0.00192105
20MABNDA000318_PR004
Spot 1     0.00214741     0.00163164
Spot 2     0.00192953     0.00163267
Spot 1     0.00214748     0.00163171
Spot 2     0.00192908     0.00163235
Spot 1     0.00214739     0.00163172
Spot 2     0.00192916     0.00163238
Spot 1     0.00214744     0.00163215
Spot 2     0.00192946     0.00163216
20MABNDA000334_PR005
Spot 1     0.00247460     0.00158056
Spot 2     0.00219442     0.00158082
Spot 1     0.00247466     0.00158041
Spot 2     0.00219423     0.00158077
Spot 1     0.00247437     0.00158060
Spot 2     0.00219429     0.00158094
Spot 1     0.00247455     0.00158050
Spot 2     0.00219428     0.00158082
20MABNDB000317_PR015
Spot 1     0.00148765     0.00161029
Spot 2     0.00170787     0.00160314
Spot 1     0.00148783     0.00161007
Spot 2     0.00170790     0.00160288
Spot 1     0.00148768     0.00161004
Spot 2     0.00170758     0.00160314
Spot 1     0.00148770     0.00161022
Spot 2     0.00170782     0.00160305
20MABNDB000146_PR016
Spot 1     0.00144649     0.00133209
Spot 2     0.00172156     0.00133484
Spot 1     0.00144621     0.00133233
Spot 2     0.00172170     0.00133509
Spot 1     0.00144607     0.00133218
Spot 2     0.00172169     0.00133492
Spot 1     0.00144628     0.00133238
Spot 2     0.00172192     0.00133500
20MABNDM000168_PR025
Spot 1     0.00054500     0.00102500
Spot 2     0.00105500     0.00031500
Spot 1     0.00054500     0.00102500
Spot 2     0.00054500     0.00102500
Spot 1     0.00054500     0.00102500
Spot 2     0.00105500     0.00031500
Spot 1     0.00105500     0.00031500
Spot 2     0.00054500     0.00102500
20MABNDM000168_PR026
Spot 1     0.00242500     0.00006500
Spot 2     0.00242500     0.00006500
Spot 1     0.00327500     0.00174500
Spot 2     0.00327500     0.00174500
Spot 1     0.00327500     0.00174500
Spot 2     0.00327500     0.00174500
Spot 1     0.00327500     0.00174500
Spot 2     0.00327500     0.00174500
20MABNDM000168_20MABNDL000077
Spot 1     0.00153781     0.00129697
Spot 2     0.00175538     0.00129933
Spot 1     0.00153794     0.00129694
Spot 2     0.00175552     0.00129925
Spot 1     0.00153798     0.00129691
Spot 2     0.00175547     0.00129969
Spot 1     0.00153780     0.00129660
Spot 2     0.00175537     0.00129942
20MABNDM000168_PR001
Spot 1     0.00080606     0.00161563
Spot 2     0.00070480     0.00162078
Spot 1     0.00080635     0.00161540
Spot 2     0.00070495     0.00162066
Spot 1     0.00080628     0.00161578
Spot 2     0.00070464     0.00162061
Spot 1     0.00080641     0.00161585
Spot 2     0.00070457     0.00162059
20MABNDL000196_PR036
Spot 1     0.00095824     0.00164419
Spot 2     0.00112293     0.00164364
Spot 1     0.00095841     0.00164432
Spot 2     0.00112287     0.00164370
Spot 1     0.00095817     0.00164447
Spot 2     0.00112283     0.00164363
Spot 1     0.00095797     0.00164432
Spot 2     0.00112296     0.00164368
20MABNDL000196_PR037
Spot 1     0.00248273     0.00116517
Spot 2     0.00263755     0.00116326
Spot 1     0.00248269     0.00116518
Spot 2     0.00263735     0.00116324
Spot 1     0.00248272     0.00116518
Spot 2     0.00263744     0.00116344
Spot 1     0.00248269     0.00116506
Spot 2     0.00263734     0.00116324
20MABNDL000196_20MABNDM000020
Spot 1     0.00195134     0.00102968
Spot 2     0.00172962     0.00102965
Spot 1     0.00195139     0.00102988
Spot 2     0.00172965     0.00102973
Spot 1     0.00195138     0.00102990
Spot 2     0.00172965     0.00102960
Spot 1     0.00195137     0.00102993
Spot 2     0.00172966     0.00102972
20MABNDL000196_PR012
Spot 1     0.00293500     0.00023600
Spot 2     0.00293500     0.00023600
Spot 1     0.00293500     0.00023600
Spot 2     0.00293500     0.00023600
Spot 1     0.00293500     0.00023500
Spot 2     0.00293500     0.00023583
Spot 1     0.00293500     0.00023500
Spot 2     0.00293500     0.00023500


****************************************************************coordonnees images transformees dans le repere MOUNT************************************************************************* 
20MABNDB000069_PR031
Spot 1    -0.01359257    -0.01285567    -0.07388500
Spot 2    -0.01352056    -0.01285985    -0.07388500
Spot 1    -0.01359270    -0.01285572    -0.07388500
Spot 2    -0.01352064    -0.01285973    -0.07388500
Spot 1    -0.01359260    -0.01285586    -0.07388500
Spot 2    -0.01352043    -0.01285943    -0.07388500
Spot 1    -0.01359289    -0.01285551    -0.07388500
Spot 2    -0.01352010    -0.01285923    -0.07388500
Spot 1    -0.01359260    -0.01285531    -0.07388500
Spot 2    -0.01352035    -0.01285966    -0.07388500
20MABNDB000069_PR033
Spot 1    -0.01201893    -0.01231919    -0.07388500
Spot 2    -0.01154817    -0.01231882    -0.07388500
Spot 1    -0.01201889    -0.01231898    -0.07388500
Spot 2    -0.01154845    -0.01231896    -0.07388500
Spot 1    -0.01201890    -0.01231898    -0.07388500
Spot 2    -0.01154813    -0.01231892    -0.07388500
Spot 1    -0.01201896    -0.01231898    -0.07388500
Spot 2    -0.01154839    -0.01231898    -0.07388500
Spot 1    -0.01201889    -0.01231899    -0.07388500
Spot 2    -0.01154840    -0.01231899    -0.07388500
20MABNDB000131_PR032
Spot 1    -0.01144121    -0.01302954    -0.07533000
Spot 2    -0.01138202    -0.01302598    -0.07533000
Spot 1    -0.01144121    -0.01302958    -0.07533000
Spot 2    -0.01138166    -0.01302589    -0.07533000
Spot 1    -0.01144131    -0.01302941    -0.07533000
Spot 2    -0.01138163    -0.01302568    -0.07533000
Spot 1    -0.01144116    -0.01302950    -0.07533000
Spot 2    -0.01138143    -0.01302579    -0.07533000
Spot 1    -0.01144117    -0.01302962    -0.07533000
Spot 2    -0.01138149    -0.01302580    -0.07533000
20MABNDB000131_PR034
Spot 1    -0.01328913    -0.01376612    -0.07533000
Spot 2    -0.01311308    -0.01376641    -0.07533000
Spot 1    -0.01328928    -0.01376624    -0.07533000
Spot 2    -0.01311312    -0.01376637    -0.07533000
Spot 1    -0.01328920    -0.01376648    -0.07533000
Spot 2    -0.01311321    -0.01376632    -0.07533000
Spot 1    -0.01328899    -0.01376622    -0.07533000
Spot 2    -0.01311292    -0.01376643    -0.07533000
Spot 1    -0.01328914    -0.01376628    -0.07533000
Spot 2    -0.01311305    -0.01376640    -0.07533000
20MABNDA000208_PR042
Spot 1    -0.01392579     0.01305303    -0.07273700
Spot 2    -0.01385879     0.01305208    -0.07273700
Spot 1    -0.01392604     0.01305269    -0.07273700
Spot 2    -0.01385963     0.01305270    -0.07273700
Spot 1    -0.01392593     0.01305269    -0.07273700
Spot 2    -0.01385860     0.01305240    -0.07273700
Spot 1    -0.01392606     0.01305257    -0.07273700
Spot 2    -0.01385926     0.01305219    -0.07273700
Spot 1    -0.01392646     0.01305253    -0.07273700
Spot 2    -0.01385939     0.01305199    -0.07273700
20MABNDA000208_PR046
Spot 1    -0.01232723     0.01189218    -0.07273700
Spot 2    -0.01185303     0.01188822    -0.07273700
Spot 1    -0.01232730     0.01189190    -0.07273700
Spot 2    -0.01185303     0.01188961    -0.07273700
Spot 1    -0.01232711     0.01189204    -0.07273700
Spot 2    -0.01185278     0.01188902    -0.07273700
Spot 1    -0.01232699     0.01189185    -0.07273700
Spot 2    -0.01185293     0.01188922    -0.07273700
Spot 1    -0.01232719     0.01189217    -0.07273700
Spot 2    -0.01185290     0.01188940    -0.07273700
20MABNDA000035_PR044
Spot 1    -0.01157593     0.01299123    -0.07483200
Spot 2    -0.01151970     0.01299648    -0.07483200
Spot 1    -0.01157530     0.01299099    -0.07483200
Spot 2    -0.01151938     0.01299635    -0.07483200
Spot 1    -0.01157589     0.01299109    -0.07483200
Spot 2    -0.01151955     0.01299653    -0.07483200
Spot 1    -0.01157555     0.01299120    -0.07483200
Spot 2    -0.01151921     0.01299633    -0.07483200
Spot 1    -0.01157534     0.01299118    -0.07483200
Spot 2    -0.01151979     0.01299671    -0.07483200
20MABNDA000035_PR045
Spot 1    -0.01337798     0.01375737    -0.07483200
Spot 2    -0.01320049     0.01375741    -0.07483200
Spot 1    -0.01337764     0.01375740    -0.07483200
Spot 2    -0.01320066     0.01375763    -0.07483200
Spot 1    -0.01337767     0.01375736    -0.07483200
Spot 2    -0.01320034     0.01375751    -0.07483200
Spot 1    -0.01337764     0.01375728    -0.07483200
Spot 2    -0.01320050     0.01375746    -0.07483200
20MABNDL000077_PR002
Spot 1     0.01186568     0.03557126    -0.07463200
Spot 2     0.01202742     0.03556930    -0.07463200
Spot 1     0.01186518     0.03557149    -0.07463200
Spot 2     0.01202741     0.03556961    -0.07463200
Spot 1     0.01186486     0.03557218    -0.07463200
Spot 2     0.01202710     0.03556978    -0.07463200
Spot 1     0.01186501     0.03557236    -0.07463200
Spot 2     0.01202725     0.03556939    -0.07463200
20MABNDL000077_PR003
Spot 1     0.01259332     0.03525758    -0.07463200
Spot 2     0.01274438     0.03525869    -0.07463200
Spot 1     0.01259300     0.03525764    -0.07463200
Spot 2     0.01274427     0.03525858    -0.07463200
Spot 1     0.01259300     0.03525754    -0.07463200
Spot 2     0.01274425     0.03525830    -0.07463200
Spot 1     0.01259320     0.03525766    -0.07463200
Spot 2     0.01274394     0.03525846    -0.07463200
20MABNDL000077_20MABNDM000168
Spot 1    -0.01272176     0.03554675    -0.00695400
Spot 2    -0.01285154     0.03440529    -0.00695400
Spot 1    -0.01272210     0.03554695    -0.00695400
Spot 2    -0.01288904     0.03611499    -0.00695400
Spot 1    -0.01272212     0.03554694    -0.00695400
Spot 2    -0.01288904     0.03611499    -0.00695400
Spot 1    -0.01272186     0.03554735    -0.00695400
Spot 2    -0.01285154     0.03440529    -0.00695400
20MABNDL000077_PR024
Spot 1    -0.01346842     0.03576784    -0.00695400
Spot 2    -0.01357017     0.03577167    -0.00695400
Spot 1    -0.01346887     0.03576811    -0.00695400
Spot 2    -0.01356992     0.03577151    -0.00695400
Spot 1    -0.01346841     0.03576811    -0.00695400
Spot 2    -0.01356977     0.03577169    -0.00695400
Spot 1    -0.01346865     0.03576822    -0.00695400
Spot 2    -0.01356978     0.03577182    -0.00695400
20MABNDM000020_PR013
Spot 1    -0.01270345    -0.03609742    -0.00523500
Spot 2    -0.01285610    -0.03610610    -0.00523500
Spot 1    -0.01270360    -0.03609719    -0.00523500
Spot 2    -0.01285649    -0.03610598    -0.00523500
Spot 1    -0.01270336    -0.03609740    -0.00523500
Spot 2    -0.01285615    -0.03610596    -0.00523500
Spot 1    -0.01270364    -0.03609758    -0.00523500
Spot 2    -0.01285639    -0.03610614    -0.00523500
20MABNDM000020_PR014
Spot 1    -0.01166343    -0.03621404    -0.00523500
Spot 2    -0.01182556    -0.03622509    -0.00523500
Spot 1    -0.01166349    -0.03621380    -0.00523500
Spot 2    -0.01182556    -0.03622495    -0.00523500
Spot 1    -0.01166360    -0.03621427    -0.00523500
Spot 2    -0.01182536    -0.03622477    -0.00523500
Spot 1    -0.01166372    -0.03621478    -0.00523500
Spot 2    -0.01182526    -0.03622509    -0.00523500
20MABNDM000020_20MABNDL000196
Spot 1     0.01268430    -0.03454779    -0.07583800
Spot 2     0.01238113    -0.03407361    -0.07583800
Spot 1     0.01268428    -0.03454748    -0.07583800
Spot 2     0.01238113    -0.03407361    -0.07583800
Spot 1     0.01268403    -0.03454757    -0.07583800
Spot 2     0.01238113    -0.03407361    -0.07583800
Spot 1     0.01268403    -0.03454798    -0.07583800
Spot 2     0.01238113    -0.03407361    -0.07583800
20MABNDM000020_PR035
Spot 1     0.01341651    -0.03484351    -0.07583800
Spot 2     0.01348935    -0.03487556    -0.07583800
Spot 1     0.01341670    -0.03484363    -0.07583800
Spot 2     0.01348944    -0.03487545    -0.07583800
Spot 1     0.01341676    -0.03484336    -0.07583800
Spot 2     0.01348936    -0.03487534    -0.07583800
Spot 1     0.01341663    -0.03484338    -0.07583800
Spot 2     0.01348955    -0.03487519    -0.07583800
20MABNDA000188_PR008
Spot 1    -0.01385116     0.01393841    -0.07502000
Spot 2    -0.01385114     0.01394041    -0.07502000
Spot 1    -0.01385116     0.01393841    -0.07502000
Spot 2    -0.01385116     0.01393841    -0.07502000
Spot 1    -0.01385116     0.01393841    -0.07502000
Spot 2    -0.01385116     0.01393841    -0.07502000
Spot 1    -0.01385116     0.01393841    -0.07502000
Spot 2    -0.01392795     0.01402157    -0.07502000
20MABNDA000188_PR018
Spot 1    -0.01267835     0.01230342    -0.07502000
Spot 2    -0.01221121     0.01230178    -0.07502000
Spot 1    -0.01267826     0.01230334    -0.07502000
Spot 2    -0.01221099     0.01230168    -0.07502000
Spot 1    -0.01267856     0.01230343    -0.07502000
Spot 2    -0.01221100     0.01230161    -0.07502000
Spot 1    -0.01267818     0.01230336    -0.07502000
Spot 2    -0.01221096     0.01230167    -0.07502000
20MABNDA000039_PR009
Spot 1    -0.01162405     0.01307088    -0.07444800
Spot 2    -0.01157711     0.01306667    -0.07444800
Spot 1    -0.01162385     0.01307074    -0.07444800
Spot 2    -0.01157727     0.01306668    -0.07444800
Spot 1    -0.01162386     0.01307090    -0.07444800
Spot 2    -0.01157688     0.01306652    -0.07444800
Spot 1    -0.01162410     0.01307118    -0.07444800
Spot 2    -0.01157685     0.01306665    -0.07444800
20MABNDA000039_PR011
Spot 1    -0.01372144     0.01397552    -0.07444800
Spot 2    -0.01354641     0.01397981    -0.07444800
Spot 1    -0.01372117     0.01397557    -0.07444800
Spot 2    -0.01354633     0.01397974    -0.07444800
Spot 1    -0.01372123     0.01397542    -0.07444800
Spot 2    -0.01354640     0.01397982    -0.07444800
Spot 1    -0.01372123     0.01397558    -0.07444800
Spot 2    -0.01354643     0.01397979    -0.07444800
20MABNDB000155_PR020
Spot 1    -0.01364808    -0.01313361    -0.07501700
Spot 2    -0.01358326    -0.01313694    -0.07501700
Spot 1    -0.01364857    -0.01313366    -0.07501700
Spot 2    -0.01358399    -0.01313678    -0.07501700
Spot 1    -0.01364851    -0.01313354    -0.07501700
Spot 2    -0.01358365    -0.01313704    -0.07501700
Spot 1    -0.01364912    -0.01313337    -0.07501700
Spot 2    -0.01358406    -0.01313700    -0.07501700
20MABNDB000155_PR022
Spot 1    -0.01218613    -0.01288820    -0.07501700
Spot 2    -0.01171254    -0.01288653    -0.07501700
Spot 1    -0.01218597    -0.01288814    -0.07501700
Spot 2    -0.01171273    -0.01288673    -0.07501700
Spot 1    -0.01218592    -0.01288826    -0.07501700
Spot 2    -0.01171265    -0.01288672    -0.07501700
Spot 1    -0.01218591    -0.01288824    -0.07501700
Spot 2    -0.01171257    -0.01288659    -0.07501700
20MABNDB000010_PR021
Spot 1    -0.01158457    -0.01292163    -0.07358200
Spot 2    -0.01153094    -0.01291839    -0.07358200
Spot 1    -0.01158436    -0.01292175    -0.07358200
Spot 2    -0.01153060    -0.01291868    -0.07358200
Spot 1    -0.01158426    -0.01292194    -0.07358200
Spot 2    -0.01153083    -0.01291850    -0.07358200
Spot 1    -0.01158419    -0.01292170    -0.07358200
Spot 2    -0.01153052    -0.01291830    -0.07358200
20MABNDB000010_PR023
Spot 1    -0.01312965    -0.01377354    -0.07358200
Spot 2    -0.01295502    -0.01377211    -0.07358200
Spot 1    -0.01312969    -0.01377339    -0.07358200
Spot 2    -0.01295503    -0.01377203    -0.07358200
Spot 1    -0.01312944    -0.01377348    -0.07358200
Spot 2    -0.01295498    -0.01377205    -0.07358200
Spot 1    -0.01312972    -0.01377347    -0.07358200
Spot 2    -0.01295495    -0.01377209    -0.07358200
20MABNDB000212_PR029
Spot 1    -0.01182522    -0.01325627    -0.07390500
Spot 2    -0.01219162    -0.01325283    -0.07390500
Spot 1    -0.01182495    -0.01325627    -0.07390500
Spot 2    -0.01219159    -0.01325267    -0.07390500
Spot 1    -0.01182504    -0.01325627    -0.07390500
Spot 2    -0.01219157    -0.01325234    -0.07390500
Spot 1    -0.01182497    -0.01325627    -0.07390500
Spot 2    -0.01219160    -0.01325251    -0.07390500
20MABNDB000128_PR030
Spot 1    -0.01246898    -0.01221067    -0.07353400
Spot 2    -0.01226469    -0.01221510    -0.07353400
Spot 1    -0.01246893    -0.01221050    -0.07353400
Spot 2    -0.01226459    -0.01221517    -0.07353400
Spot 1    -0.01246858    -0.01221056    -0.07353400
Spot 2    -0.01226471    -0.01221471    -0.07353400
Spot 1    -0.01246905    -0.01221043    -0.07353400
Spot 2    -0.01226460    -0.01221490    -0.07353400
20MABNDA000444_PR040
Spot 1    -0.01172194     0.01365618    -0.07412000
Spot 2    -0.01208807     0.01365383    -0.07412000
Spot 1    -0.01172200     0.01365595    -0.07412000
Spot 2    -0.01208872     0.01365383    -0.07412000
Spot 1    -0.01172208     0.01365584    -0.07412000
Spot 2    -0.01208884     0.01365395    -0.07412000
Spot 1    -0.01172165     0.01365614    -0.07412000
Spot 2    -0.01208868     0.01365412    -0.07412000
20MABNDA000053_PR041
Spot 1    -0.01240198     0.01212011    -0.07430100
Spot 2    -0.01219863     0.01211982    -0.07430100
Spot 1    -0.01240179     0.01212005    -0.07430100
Spot 2    -0.01219841     0.01211946    -0.07430100
Spot 1    -0.01240185     0.01212012    -0.07430100
Spot 2    -0.01219848     0.01211943    -0.07430100
Spot 1    -0.01240196     0.01212024    -0.07430100
Spot 2    -0.01219857     0.01211964    -0.07430100
20MABNDA000196_PR006
Spot 1    -0.01294044     0.01321929    -0.07967100
Spot 2    -0.01257447     0.01321683    -0.07967100
Spot 1    -0.01294066     0.01321896    -0.07967100
Spot 2    -0.01257440     0.01321669    -0.07967100
Spot 1    -0.01294055     0.01321939    -0.07967100
Spot 2    -0.01257444     0.01321677    -0.07967100
Spot 1    -0.01294089     0.01321897    -0.07967100
Spot 2    -0.01257434     0.01321694    -0.07967100
20MABNDA000324_PR007
Spot 1    -0.01255673     0.01281708    -0.07446800
Spot 2    -0.01235129     0.01281284    -0.07446800
Spot 1    -0.01255662     0.01281703    -0.07446800
Spot 2    -0.01235143     0.01281254    -0.07446800
Spot 1    -0.01255692     0.01281689    -0.07446800
Spot 2    -0.01235145     0.01281255    -0.07446800
Spot 1    -0.01255671     0.01281702    -0.07446800
Spot 2    -0.01235167     0.01281252    -0.07446800
20MABNDB000001_PR017
Spot 1    -0.01230236    -0.01351788    -0.07418400
Spot 2    -0.01193342    -0.01351175    -0.07418400
Spot 1    -0.01230256    -0.01351795    -0.07418400
Spot 2    -0.01193329    -0.01351167    -0.07418400
Spot 1    -0.01230240    -0.01351792    -0.07418400
Spot 2    -0.01193330    -0.01351183    -0.07418400
Spot 1    -0.01230243    -0.01351799    -0.07418400
Spot 2    -0.01193329    -0.01351191    -0.07418400
20MABNDB000260_PR019
Spot 1    -0.01241087    -0.01240794    -0.07492700
Spot 2    -0.01220792    -0.01240392    -0.07492700
Spot 1    -0.01241052    -0.01240733    -0.07492700
Spot 2    -0.01220735    -0.01240409    -0.07492700
Spot 1    -0.01241064    -0.01240723    -0.07492700
Spot 2    -0.01220721    -0.01240391    -0.07492700
Spot 1    -0.01241051    -0.01240720    -0.07492700
Spot 2    -0.01220777    -0.01240404    -0.07492700
20MABNDB000135_PR027
Spot 1    -0.01251350    -0.01318926    -0.07464700
Spot 2    -0.01229466    -0.01318859    -0.07464700
Spot 1    -0.01251340    -0.01318936    -0.07464700
Spot 2    -0.01229460    -0.01318899    -0.07464700
Spot 1    -0.01251346    -0.01318947    -0.07464700
Spot 2    -0.01229457    -0.01318889    -0.07464700
Spot 1    -0.01251335    -0.01318925    -0.07464700
Spot 2    -0.01229451    -0.01318903    -0.07464700
20MABNDB000126_PR028
Spot 1    -0.01253508    -0.01218058    -0.07500400
Spot 2    -0.01225294    -0.01217653    -0.07500400
Spot 1    -0.01253523    -0.01218068    -0.07500400
Spot 2    -0.01225303    -0.01217684    -0.07500400
Spot 1    -0.01253523    -0.01218067    -0.07500400
Spot 2    -0.01225284    -0.01217663    -0.07500400
Spot 1    -0.01253513    -0.01218057    -0.07500400
Spot 2    -0.01225269    -0.01217655    -0.07500400
20MABNDA000272_PR038
Spot 1    -0.01275944     0.01314939    -0.07417900
Spot 2    -0.01253734     0.01314985    -0.07417900
Spot 1    -0.01275944     0.01314912    -0.07417900
Spot 2    -0.01253731     0.01314990    -0.07417900
Spot 1    -0.01275945     0.01314946    -0.07417900
Spot 2    -0.01253734     0.01314998    -0.07417900
Spot 1    -0.01275945     0.01314909    -0.07417900
Spot 2    -0.01253737     0.01314974    -0.07417900
20MABNDA000003_PR039
Spot 1    -0.01280260     0.01213187    -0.07373400
Spot 2    -0.01308038     0.01213177    -0.07373400
Spot 1    -0.01280268     0.01213188    -0.07373400
Spot 2    -0.01308034     0.01213204    -0.07373400
Spot 1    -0.01280267     0.01213167    -0.07373400
Spot 2    -0.01308033     0.01213203    -0.07373400
Spot 1    -0.01280255     0.01213176    -0.07373400
Spot 2    -0.01308035     0.01213192    -0.07373400
20MABNDA000318_PR004
Spot 1    -0.01286721     0.01246359    -0.07310600
Spot 2    -0.01264933     0.01246320    -0.07310600
Spot 1    -0.01286728     0.01246352    -0.07310600
Spot 2    -0.01264888     0.01246352    -0.07310600
Spot 1    -0.01286719     0.01246351    -0.07310600
Spot 2    -0.01264896     0.01246349    -0.07310600
Spot 1    -0.01286724     0.01246308    -0.07310600
Spot 2    -0.01264926     0.01246371    -0.07310600
20MABNDA000334_PR005
Spot 1    -0.01311771     0.01254784    -0.07324100
Spot 2    -0.01283753     0.01254731    -0.07324100
Spot 1    -0.01311777     0.01254799    -0.07324100
Spot 2    -0.01283734     0.01254736    -0.07324100
Spot 1    -0.01311748     0.01254780    -0.07324100
Spot 2    -0.01283740     0.01254719    -0.07324100
Spot 1    -0.01311766     0.01254790    -0.07324100
Spot 2    -0.01283739     0.01254731    -0.07324100
20MABNDB000317_PR015
Spot 1    -0.01266676    -0.01248776    -0.07326100
Spot 2    -0.01244647    -0.01249234    -0.07326100
Spot 1    -0.01266658    -0.01248798    -0.07326100
Spot 2    -0.01244644    -0.01249260    -0.07326100
Spot 1    -0.01266673    -0.01248801    -0.07326100
Spot 2    -0.01244676    -0.01249235    -0.07326100
Spot 1    -0.01266671    -0.01248783    -0.07326100
Spot 2    -0.01244652    -0.01249243    -0.07326100
20MABNDB000146_PR016
Spot 1    -0.01276187    -0.01246152    -0.07450500
Spot 2    -0.01248681    -0.01245816    -0.07450500
Spot 1    -0.01276215    -0.01246128    -0.07450500
Spot 2    -0.01248667    -0.01245791    -0.07450500
Spot 1    -0.01276229    -0.01246143    -0.07450500
Spot 2    -0.01248668    -0.01245808    -0.07450500
Spot 1    -0.01276208    -0.01246123    -0.07450500
Spot 2    -0.01248645    -0.01245800    -0.07450500
20MABNDM000168_PR025
Spot 1    -0.01385905    -0.03536490    -0.00532900
Spot 2    -0.01335211    -0.03465272    -0.00532900
Spot 1    -0.01385905    -0.03536490    -0.00532900
Spot 2    -0.01385905    -0.03536490    -0.00532900
Spot 1    -0.01385905    -0.03536490    -0.00532900
Spot 2    -0.01335211    -0.03465272    -0.00532900
Spot 1    -0.01335211    -0.03465272    -0.00532900
Spot 2    -0.01385905    -0.03536490    -0.00532900
20MABNDM000168_PR026
Spot 1    -0.01198319    -0.03439683    -0.00532900
Spot 2    -0.01198319    -0.03439683    -0.00532900
Spot 1    -0.01112598    -0.03607317    -0.00532900
Spot 2    -0.01112598    -0.03607317    -0.00532900
Spot 1    -0.01112598    -0.03607317    -0.00532900
Spot 2    -0.01112598    -0.03607317    -0.00532900
Spot 1    -0.01112598    -0.03607317    -0.00532900
Spot 2    -0.01112598    -0.03607317    -0.00532900
20MABNDM000168_20MABNDL000077
Spot 1     0.01288770    -0.03529766    -0.07445100
Spot 2     0.01267012    -0.03529683    -0.07445100
Spot 1     0.01288757    -0.03529763    -0.07445100
Spot 2     0.01266998    -0.03529675    -0.07445100
Spot 1     0.01288753    -0.03529759    -0.07445100
Spot 2     0.01267002    -0.03529719    -0.07445100
Spot 1     0.01288771    -0.03529729    -0.07445100
Spot 2     0.01267012    -0.03529692    -0.07445100
20MABNDM000168_PR001
Spot 1     0.01361471    -0.03562699    -0.07445100
Spot 2     0.01371588    -0.03563362    -0.07445100
Spot 1     0.01361442    -0.03562675    -0.07445100
Spot 2     0.01371573    -0.03563350    -0.07445100
Spot 1     0.01361448    -0.03562714    -0.07445100
Spot 2     0.01371604    -0.03563345    -0.07445100
Spot 1     0.01361435    -0.03562720    -0.07445100
Spot 2     0.01371611    -0.03563343    -0.07445100
20MABNDL000196_PR036
Spot 1     0.01193816     0.03583291    -0.07483600
Spot 2     0.01210285     0.03583271    -0.07483600
Spot 1     0.01193832     0.03583304    -0.07483600
Spot 2     0.01210279     0.03583277    -0.07483600
Spot 1     0.01193808     0.03583319    -0.07483600
Spot 2     0.01210275     0.03583270    -0.07483600
Spot 1     0.01193788     0.03583304    -0.07483600
Spot 2     0.01210288     0.03583275    -0.07483600
20MABNDL000196_PR037
Spot 1     0.01346364     0.03535707    -0.07483600
Spot 2     0.01361846     0.03535549    -0.07483600
Spot 1     0.01346360     0.03535708    -0.07483600
Spot 2     0.01361826     0.03535547    -0.07483600
Spot 1     0.01346363     0.03535708    -0.07483600
Spot 2     0.01361835     0.03535567    -0.07483600
Spot 1     0.01346360     0.03535696    -0.07483600
Spot 2     0.01361825     0.03535547    -0.07483600
20MABNDL000196_20MABNDM000020
Spot 1    -0.01277515     0.03530037    -0.00611000
Spot 2    -0.01255347     0.03530480    -0.00611000
Spot 1    -0.01277520     0.03530057    -0.00611000
Spot 2    -0.01255350     0.03530488    -0.00611000
Spot 1    -0.01277519     0.03530059    -0.00611000
Spot 2    -0.01255350     0.03530475    -0.00611000
Spot 1    -0.01277518     0.03530062    -0.00611000
Spot 2    -0.01255351     0.03530487    -0.00611000
20MABNDL000196_PR012
Spot 1    -0.01374264     0.03448706    -0.00611000
Spot 2    -0.01374264     0.03448706    -0.00611000
Spot 1    -0.01374264     0.03448706    -0.00611000
Spot 2    -0.01374264     0.03448706    -0.00611000
Spot 1    -0.01374262     0.03448606    -0.00611000
Spot 2    -0.01374264     0.03448689    -0.00611000
Spot 1    -0.01374262     0.03448606    -0.00611000
Spot 2    -0.01374262     0.03448606    -0.00611000


*****************************************************************coordonnees du prisme dans le repere MOUNT********************************************************************************** 
20MABNDB000069_PR031
    0.10223805    -0.03948549     9.20355988
    0.10225138    -0.03948972     9.20355988
    0.10223257    -0.03949938     9.20355988
    0.10222995    -0.03953303     9.20355988
    0.10222746    -0.03951881     9.20355988
20MABNDB000069_PR033
   -0.02694662    -0.02597965     1.28394914
   -0.02694459    -0.02598033     1.28394914
   -0.02694716    -0.02598057     1.28394914
   -0.02694449    -0.02598008     1.28394914
   -0.02694500    -0.02597998     1.28394914
20MABNDB000131_PR032
   -0.18817967    -0.03087788    11.00641632
   -0.18820667    -0.03088094    11.00641537
   -0.18820143    -0.03090867    11.00641537
   -0.18822707    -0.03089419    11.00641537
   -0.18822201    -0.03088466    11.00641537
20MABNDB000131_PR034
    0.01418924     0.01497636     3.43339252
    0.01419356     0.01497820     3.43339252
    0.01419377     0.01498253     3.43339252
    0.01418239     0.01497906     3.43339252
    0.01418877     0.01497977     3.43339252
20MABNDA000208_PR042
    0.13196090     0.01349546     9.20145798
    0.13202780     0.01347833     9.20145607
    0.13195786     0.01349668     9.20145798
    0.13200629     0.01351698     9.20145702
    0.13203880     0.01353174     9.20145607
20MABNDA000208_PR046
   -0.02334041     0.03299565     1.28210902
   -0.02333980     0.03298617     1.28210926
   -0.02334357     0.03299001     1.28210926
   -0.02334331     0.03298993     1.28210926
   -0.02334185     0.03298565     1.28210926
20MABNDA000035_PR044
   -0.17947516     0.02804756    11.00802803
   -0.17954445     0.02807438    11.00802708
   -0.17948902     0.02805424    11.00802803
   -0.17953870     0.02806044    11.00802708
   -0.17951182     0.02803392    11.00802708
20MABNDA000035_PR045
    0.01475782    -0.01708212     3.43485284
    0.01475389    -0.01708803     3.43485284
    0.01474730    -0.01708433     3.43485284
    0.01475029    -0.01708139     3.43485284
20MABNDL000077_PR002
    0.04952237     0.02149566     3.70690966
    0.04953533     0.02148245     3.70690966
    0.04955068     0.02146106     3.70690918
    0.04954308     0.02146632     3.70690918
20MABNDL000077_PR003
    0.01389831     0.03696107     3.89605379
    0.01390948     0.03696226     3.89605379
    0.01390984     0.03697212     3.89605379
    0.01391263     0.03696509     3.89605379
20MABNDL000077_20MABNDM000168
   -0.00534974     0.05677851    -5.46871185
   -0.00398314    -0.00497603    -5.46859360
   -0.00398242    -0.00497566    -5.46859360
   -0.00534590     0.05675652    -5.46871185
20MABNDL000077_PR024
    0.05235288    -0.00345980    -5.89622402
    0.05236072    -0.00346362    -5.89622402
    0.05233701    -0.00347088    -5.89622402
    0.05234686    -0.00348013    -5.89622402
20MABNDM000020_PR013
   -0.00509422     0.01220066    -3.80216837
   -0.00508062     0.01219178    -3.80216908
   -0.00509513     0.01219667    -3.80216837
   -0.00508217     0.01220539    -3.80216837
20MABNDM000020_PR014
   -0.06759767     0.03176043    -4.74799824
   -0.06759585     0.03174833    -4.74799824
   -0.06759854     0.03175731    -4.74799824
   -0.06759816     0.03178315    -4.74799824
20MABNDM000020_20MABNDL000196
    0.02774621    -0.09269786     5.39451122
    0.02774693    -0.09270896     5.39451122
    0.02775588    -0.09270573     5.39451122
    0.02775588    -0.09269105     5.39451122
20MABNDM000020_PR035
   -0.04202797    -0.05468683     5.80100155
   -0.04203876    -0.05468645     5.80100155
   -0.04203799    -0.05470109     5.80100155
   -0.04204030    -0.05470609     5.80100155
20MABNDA000188_PR008
    0.12899724    -0.09486848     9.20333767
    0.12899831    -0.09474574     9.20333958
    0.12899831    -0.09474574     9.20333958
    0.13370979    -0.09984870     9.20320415
20MABNDA000188_PR018
   -0.01701174     0.02606093     1.28357768
   -0.01701447     0.02606250     1.28357768
   -0.01701181     0.02606230     1.28357768
   -0.01701541     0.02606242     1.28357768
20MABNDA000039_PR009
   -0.17142949     0.02459265    11.00701332
   -0.17143238     0.02460144    11.00701332
   -0.17146015     0.02460156    11.00701141
   -0.17144494     0.02457224    11.00701332
20MABNDA000039_PR011
    0.03056809    -0.02474250     3.43347120
    0.03056011    -0.02474201     3.43347120
    0.03056309    -0.02474043     3.43347120
    0.03056376    -0.02474340     3.43347120
20MABNDB000155_PR020
    0.10235943    -0.00817950     9.20027924
    0.10243441    -0.00818646     9.20027924
    0.10241035    -0.00817758     9.20027924
    0.10247253    -0.00819085     9.20027733
20MABNDB000155_PR022
   -0.02511788    -0.01667328     1.28071570
   -0.02511764    -0.01667216     1.28071570
   -0.02511876    -0.01667124     1.28071570
   -0.02511951    -0.01667253     1.28071570
20MABNDB000010_PR021
   -0.17573915    -0.03425495    11.00695229
   -0.17577934    -0.03422474    11.00695038
   -0.17577055    -0.03422386    11.00695038
   -0.17579794    -0.03425594    11.00695038
20MABNDB000010_PR023
    0.00456481     0.01942247     3.43377829
    0.00456605     0.01941722     3.43377829
    0.00455913     0.01941985     3.43377829
    0.00456485     0.01942041     3.43377829
20MABNDB000212_PR029
   -0.02597210    -0.00898710     1.64223480
   -0.02597541    -0.00898881     1.64223480
   -0.02597468    -0.00899244     1.64223480
   -0.02597510    -0.00899057     1.64223480
20MABNDB000128_PR030
   -0.01871922    -0.04702386     2.95496202
   -0.01872216    -0.04702584     2.95496202
   -0.01872685    -0.04703372     2.95496202
   -0.01871978    -0.04703271     2.95496202
20MABNDA000444_PR040
   -0.02944154     0.00134307     1.64491999
   -0.02943380     0.00134558     1.64492011
   -0.02943161     0.00134550     1.64492011
   -0.02943801     0.00134038     1.64491999
20MABNDA000053_PR041
   -0.02685592     0.05103559     2.95450330
   -0.02686400     0.05104399     2.95450306
   -0.02686147     0.05104315     2.95450306
   -0.02685747     0.05103660     2.95450330
20MABNDA000196_PR006
   -0.01040886     0.01058193     1.64206505
   -0.01040715     0.01058705     1.64206505
   -0.01040799     0.01058148     1.64206505
   -0.01040533     0.01058418     1.64206505
20MABNDA000324_PR007
   -0.02512674     0.02755405     2.95549393
   -0.02512620     0.02756094     2.95549369
   -0.02511992     0.02756355     2.95549369
   -0.02511971     0.02756159     2.95549369
20MABNDB000001_PR017
   -0.02412393    -0.00356855     1.64036417
   -0.02412316    -0.00356867     1.64036417
   -0.02412479    -0.00356723     1.64036417
   -0.02412455    -0.00356559     1.64036417
20MABNDB000260_PR019
   -0.02427171    -0.03803234     2.95627809
   -0.02429005    -0.03804079     2.95627785
   -0.02429033    -0.03804631     2.95627785
   -0.02428190    -0.03804436     2.95627785
20MABNDB000135_PR027
   -0.02102113    -0.01016153     2.74937153
   -0.02102433    -0.01015233     2.74937153
   -0.02102378    -0.01015215     2.74937153
   -0.02102673    -0.01015359     2.74937153
20MABNDB000126_PR028
   -0.02032864    -0.03875972     2.14679766
   -0.02032525    -0.03875386     2.14679766
   -0.02032794    -0.03875700     2.14679766
   -0.02033149    -0.03875945     2.14679766
20MABNDA000272_PR038
   -0.01321504     0.01119914     2.74965882
   -0.01321558     0.01120317     2.74965882
   -0.01321486     0.01119548     2.74965882
   -0.01321429     0.01120665     2.74965882
20MABNDA000003_PR039
   -0.00591827     0.04107413     2.14891768
   -0.00591771     0.04107013     2.14891768
   -0.00591799     0.04107327     2.14891768
   -0.00591942     0.04107356     2.14891768
20MABNDA000318_PR004
   -0.00839992     0.03861707     2.74965668
   -0.00840687     0.03861247     2.74965692
   -0.00840706     0.03861320     2.74965692
   -0.00840065     0.03861707     2.74965668
20MABNDA000334_PR005
   -0.00422722     0.03153265     2.14977312
   -0.00422908     0.03152979     2.14977312
   -0.00423236     0.03153494     2.14977312
   -0.00422993     0.03153179     2.14977312
20MABNDB000317_PR015
   -0.01737571    -0.03435543     2.75128746
   -0.01737964    -0.03434674     2.75128746
   -0.01737103    -0.03435082     2.75128746
   -0.01737574    -0.03435252     2.75128746
20MABNDB000146_PR016
   -0.01348395    -0.03178760     2.15201283
   -0.01348192    -0.03179464     2.15201259
   -0.01347978    -0.03179004     2.15201283
   -0.01348609    -0.03179408     2.15201259
20MABNDM000168_PR025
    0.03292516    -0.05212649    -3.78848219
    0.04545642    -0.03451886    -3.78834152
    0.03292516    -0.05212649    -3.78848219
    0.03292477    -0.05212703    -3.78848219
20MABNDM000168_PR026
   -0.04912424    -0.08483262    -3.98413920
   -0.09373622     0.00242647    -3.98358321
   -0.09373622     0.00242647    -3.98358321
   -0.09373622     0.00242647    -3.98358321
20MABNDM000168_20MABNDL000077
    0.01132954    -0.03906499     5.38884640
    0.01133918    -0.03906908     5.38884640
    0.01133903    -0.03905435     5.38884640
    0.01132867    -0.03907504     5.38884640
20MABNDM000168_PR001
   -0.05750196    -0.01348123     5.81470394
   -0.05748512    -0.01349504     5.81470490
   -0.05749965    -0.01348204     5.81470394
   -0.05749730    -0.01348013     5.81470394
20MABNDL000196_PR036
    0.05076367     0.00571513     3.68777633
    0.05076098     0.00571046     3.68777633
    0.05076785     0.00570851     3.68777585
    0.05076957     0.00571097     3.68777585
20MABNDL000196_PR037
   -0.02584461     0.02874888     3.88380623
   -0.02583841     0.02874915     3.88380623
   -0.02584150     0.02874397     3.88380623
   -0.02583816     0.02875225     3.88380623
20MABNDL000196_20MABNDM000020
   -0.01390561     0.03896735    -5.47473907
   -0.01390254     0.03895735    -5.47473907
   -0.01390297     0.03896130    -5.47473907
   -0.01390287     0.03895591    -5.47473907
20MABNDL000196_PR012
    0.06980377     0.10258648    -5.91481209
    0.06980377     0.10258648    -5.91481209
    0.06980284     0.10263193    -5.91481113
    0.06980219     0.10266418    -5.91481113


*****************************************************************coordonnees du prisme dans le repere ATLAS********************************************************************************** 
20MABNDB000069_PR031 0.00000000
    3.68395519     3.84875774    -7.90091705
    3.68396854     3.84875774    -7.90091276
    3.68394971     3.84875774    -7.90090322
    3.68394709     3.84875798    -7.90086937
    3.68394446     3.84875774    -7.90088367
20MABNDB000069_PR033 0.00000000
    3.53335238    -4.07045794    -7.87969160
    3.53335428    -4.07045794    -7.87969112
    3.53335190    -4.07045794    -7.87969065
    3.53335452    -4.07045794    -7.87969112
    3.53335404    -4.07045794    -7.87969160
20MABNDB000131_PR032 0.00000000
    3.86898184     3.64756632   -12.94152069
    3.86900878     3.64756536   -12.94152355
    3.86900353     3.64756536   -12.94155121
    3.86902928     3.64756536   -12.94153690
    3.86902404     3.64756536   -12.94152737
20MABNDB000131_PR034 0.00000000
    3.67359972    -3.92562437   -12.89297104
    3.67359519    -3.92562437   -12.89296913
    3.67359519    -3.92562437   -12.89296532
    3.67360640    -3.92562437   -12.89296818
    3.67360020    -3.92562437   -12.89296818
20MABNDA000208_PR042 0.00000000
   -3.68203855     3.84913731    -7.89799070
   -3.68210530     3.84913540    -7.89800787
   -3.68203545     3.84913731    -7.89798927
   -3.68208385     3.84913635    -7.89796925
   -3.68211627     3.84913540    -7.89795446
20MABNDA000208_PR046 0.00000000
   -3.53242421    -4.07031345    -7.87552261
   -3.53242469    -4.07031345    -7.87553215
   -3.53242111    -4.07031345    -7.87552834
   -3.53242135    -4.07031345    -7.87552834
   -3.53242278    -4.07031345    -7.87553263
20MABNDA000035_PR044 0.00000000
   -3.86871648     3.64758325   -12.93372631
   -3.86878562     3.64758229   -12.93375397
   -3.86873031     3.64758325   -12.93373299
   -3.86877990     3.64758229   -12.93373966
   -3.86875296     3.64758229   -12.93371296
20MABNDA000035_PR045 0.00000000
   -3.67597079    -3.92563438   -12.88930225
   -3.67597485    -3.92563438   -12.88929653
   -3.67598128    -3.92563438   -12.88930035
   -3.67597842    -3.92563438   -12.88930321
20MABNDL000077_PR002 0.00000000
    2.83554506    -3.69499469     6.48618984
    2.83555841    -3.69498158     6.48618984
    2.83557987    -3.69496632     6.48618937
    2.83557463    -3.69497395     6.48618937
20MABNDL000077_PR003 0.00000000
    2.82025385    -3.73084712     6.67530489
    2.82025266    -3.73083591     6.67530489
    2.82024288    -3.73083544     6.67530489
    2.82025003    -3.73083282     6.67530489
20MABNDL000077_20MABNDM000168 0.00000000
    2.79124475    -3.73853469    -2.68945312
    2.85299969    -3.73718786    -2.68939376
    2.85299945    -3.73718715    -2.68939376
    2.79126668    -3.73853087    -2.68945312
20MABNDL000077_PR024 0.00000000
    2.85108209    -3.68032384    -3.11695266
    2.85108590    -3.68031597    -3.11695266
    2.85109305    -3.68033957    -3.11695290
    2.85110235    -3.68032980    -3.11695290
20MABNDM000020_PR013 0.00000000
   -2.86450958    -3.73438025     6.48601818
   -2.86450076    -3.73439384     6.48601866
   -2.86450577    -3.73437929     6.48601818
   -2.86451435    -3.73439240     6.48601818
20MABNDM000020_PR014 0.00000000
   -2.88386106    -3.67259026     7.43189907
   -2.88384891    -3.67259216     7.43189907
   -2.88385797    -3.67258930     7.43189907
   -2.88388371    -3.67258978     7.43189907
20MABNDM000020_20MABNDL000196 0.00000000
   -2.76146173    -3.76025844    -2.71070480
   -2.76145053    -3.76025915    -2.71070480
   -2.76145387    -3.76026797    -2.71070480
   -2.76146841    -3.76026797    -2.71070480
20MABNDM000020_PR035 0.00000000
   -2.79953265    -3.69016337    -3.11713433
   -2.79953313    -3.69015265    -3.11713433
   -2.79951835    -3.69015336    -3.11713433
   -2.79951334    -3.69015121    -3.11713433
20MABNDA000188_PR008 0.00000000
    3.54177666     3.84863687     8.10614014
    3.54177952     3.84863997     8.10601807
    3.54177952     3.84863997     8.10601807
    3.54641581     3.84852052     8.11118984
20MABNDA000188_PR018 0.00000000
    3.52012897    -4.07061100     7.89737511
    3.52012634    -4.07061100     7.89737368
    3.52012897    -4.07061100     7.89737415
    3.52012539    -4.07061148     7.89737368
20MABNDA000039_PR009 0.00000000
    3.87560153     3.64747143    12.93588638
    3.87560439     3.64747143    12.93589592
    3.87563229     3.64746952    12.93589592
    3.87561703     3.64747143    12.93586636
20MABNDA000039_PR011 0.00000000
    3.66445613    -3.92580485    12.88409424
    3.66446400    -3.92580485    12.88409424
    3.66446114    -3.92580485    12.88409615
    3.66446042    -3.92580485    12.88409328
20MABNDB000155_PR020 0.00000000
   -3.68101192     3.84881186     7.89868736
   -3.68108702     3.84881163     7.89868069
   -3.68106294     3.84881163     7.89868927
   -3.68112516     3.84880972     7.89867640
20MABNDB000155_PR022 0.00000000
   -3.53486300    -4.07043028     7.89138556
   -3.53486323    -4.07043028     7.89138699
   -3.53486204    -4.07043028     7.89138794
   -3.53486133    -4.07043028     7.89138651
20MABNDB000010_PR021 0.00000000
   -3.86157584     3.64768982    12.93608379
   -3.86161613     3.64768791    12.93605423
   -3.86160731     3.64768791    12.93605328
   -3.86163473     3.64768791    12.93608570
20MABNDB000010_PR023 0.00000000
   -3.68510079    -3.92559814    12.88585281
   -3.68509960    -3.92559814    12.88585854
   -3.68510652    -3.92559814    12.88585567
   -3.68510079    -3.92559814    12.88585472
20MABNDB000212_PR029 0.00000000
    2.59964991    -4.19501352    -6.54797506
    2.59965324    -4.19501352    -6.54797649
    2.59965253    -4.19501352    -6.54798031
    2.59965277    -4.19501352    -6.54797840
20MABNDB000128_PR030 0.00000000
    2.61013937    -4.14002848    -6.93109703
    2.61013651    -4.14002848    -6.93109512
    2.61013174    -4.14002800    -6.93108702
    2.61013889    -4.14002848    -6.93108845
20MABNDA000444_PR040 0.00000000
   -2.60461402    -4.19508934    -6.54052353
   -2.60460639    -4.19508934    -6.54052591
   -2.60460424    -4.19508934    -6.54052591
   -2.60461068    -4.19508934    -6.54052067
20MABNDA000053_PR041 0.00000000
   -2.59368610    -4.14012766    -6.92687798
   -2.59367800    -4.14012814    -6.92686939
   -2.59368038    -4.14012814    -6.92687035
   -2.59368443    -4.14012766    -6.92687702
20MABNDA000196_PR006 0.00000000
    2.58486938    -4.19496298     6.54853868
    2.58486772    -4.19496298     6.54854345
    2.58486843    -4.19496298     6.54853821
    2.58486581    -4.19496298     6.54854059
20MABNDA000324_PR007 0.00000000
    2.59418797    -4.13996410     6.94836092
    2.59418869    -4.13996410     6.94835424
    2.59419489    -4.13996410     6.94835138
    2.59419513    -4.13996410     6.94835377
20MABNDB000001_PR017 0.00000000
   -2.59782553    -4.19505167     6.53889656
   -2.59782481    -4.19505167     6.53889656
   -2.59782624    -4.19505167     6.53889513
   -2.59782600    -4.19505167     6.53889370
20MABNDB000260_PR019 0.00000000
   -2.60449028    -4.13995647     6.94261169
   -2.60447192    -4.13995695     6.94260311
   -2.60447168    -4.13995695     6.94259787
   -2.60448003    -4.13995695     6.94259977
20MABNDB000135_PR027 0.00000000
    2.60384202    -4.19700384    -3.82519937
    2.60383892    -4.19700384    -3.82520843
    2.60383940    -4.19700384    -3.82520866
    2.60383654    -4.19700384    -3.82520723
20MABNDB000126_PR028 0.00000000
    2.60558844    -4.19701958    -5.89346027
    2.60559201    -4.19701958    -5.89346600
    2.60558915    -4.19701958    -5.89346266
    2.60558558    -4.19701958    -5.89346027
20MABNDA000272_PR038 0.00000000
   -2.61132169    -4.19698286    -3.82728529
   -2.61132121    -4.19698286    -3.82728124
   -2.61132193    -4.19698286    -3.82728887
   -2.61132264    -4.19698286    -3.82727766
20MABNDA000003_PR039 0.00000000
   -2.61581278    -4.19701958    -5.89169264
   -2.61581349    -4.19701958    -5.89169645
   -2.61581326    -4.19701958    -5.89169359
   -2.61581182    -4.19701958    -5.89169312
20MABNDA000318_PR004 0.00000000
    2.61460328    -4.19698811     3.83338165
    2.61459637    -4.19698811     3.83338618
    2.61459613    -4.19698811     3.83338547
    2.61460257    -4.19698811     3.83338165
20MABNDA000334_PR005 0.00000000
    2.61677122    -4.19703007     5.89772844
    2.61676955    -4.19703007     5.89773130
    2.61676621    -4.19703007     5.89772606
    2.61676860    -4.19703007     5.89772892
20MABNDB000317_PR015 0.00000000
   -2.61123157    -4.19700384     3.83565998
   -2.61122751    -4.19700384     3.83566880
   -2.61123610    -4.19700384     3.83566475
   -2.61123133    -4.19700384     3.83566284
20MABNDB000146_PR016 0.00000000
   -2.61281133    -4.19702482     5.89856243
   -2.61281323    -4.19702530     5.89855576
   -2.61281538    -4.19702482     5.89856005
   -2.61280918    -4.19702530     5.89855623
20MABNDM000168_PR025 0.00000000
    2.80110645    -3.77824616    -6.47909355
    2.81871080    -3.79078197    -6.47894955
    2.80110645    -3.77824616    -6.47909355
    2.80110598    -3.77824569    -6.47909355
20MABNDM000168_PR026 0.00000000
    2.76841021    -3.69626069    -6.67477942
    2.85568094    -3.65167165    -6.67424488
    2.85568094    -3.65167165    -6.67424488
    2.85568094    -3.65167165    -6.67424488
20MABNDM000168_20MABNDL000077 0.00000000
    2.81473064    -3.75324154     2.69822550
    2.81472659    -3.75325108     2.69822550
    2.81474113    -3.75325108     2.69822550
    2.81472063    -3.75324059     2.69822550
20MABNDM000168_PR001 0.00000000
    2.84035850    -3.68425846     3.12405586
    2.84034467    -3.68427539     3.12405682
    2.84035754    -3.68426085     3.12405586
    2.84035945    -3.68426323     3.12405586
20MABNDL000196_PR036 0.00000000
   -2.84789205    -3.69351101    -6.47909927
   -2.84789681    -3.69351363    -6.47909927
   -2.84789872    -3.69350672    -6.47909880
   -2.84789634    -3.69350505    -6.47909880
20MABNDL000196_PR037 0.00000000
   -2.82482696    -3.77029085    -6.67505836
   -2.82482672    -3.77028465    -6.67505836
   -2.82483196    -3.77028775    -6.67505836
   -2.82482362    -3.77028441    -6.67505836
20MABNDL000196_20MABNDM000020 0.00000000
   -2.81441188    -3.74964166     2.68347168
   -2.81442189    -3.74963880     2.68347168
   -2.81441784    -3.74963903     2.68347168
   -2.81442332    -3.74963903     2.68347168
20MABNDL000196_PR012 0.00000000
   -2.75082207    -3.66549349     3.12346530
   -2.75082207    -3.66549349     3.12346530
   -2.75077677    -3.66549444     3.12346435
   -2.75074434    -3.66549492     3.12346435


*****************************************************************Rapport********************************************************************************** 
CAM-ECTC-US-IP_ECTC-US-IP-T    2016.06.22.22.33.46     3.68395300     3.84875779    -7.90089722     0.00000855     0.00000010     0.00001806 0.00000000 VRAI 
CAM-ECTC-US-IP_ECTC-US-IP      2016.06.22.22.33.46     3.53335342    -4.07045794    -7.87969122     0.00000107     0.00000000     0.00000036 0.00000000 VRAI 
CAM-ECTC-US-HO_ECTC-US-HO-T    2016.06.22.22.33.46     3.86900949     3.64756556   -12.94153194     0.00001676     0.00000038     0.00001108 0.00000000 VRAI 
CAM-ECTC-US-HO_ECTC-US-HO      2016.06.22.22.33.46     3.67359934    -3.92562437   -12.89296837     0.00000413     0.00000000     0.00000185 0.00000000 VRAI 
CAM-ECTC-USA-IP_ECTC-USA-IP-T  2016.06.22.22.33.46    -3.68207588     3.84913635    -7.89798231     0.00003343     0.00000085     0.00001854 0.00000000 VRAI 
CAM-ECTC-USA-IP_ECTC-USA-IP    2016.06.22.22.33.46    -3.53242283    -4.07031345    -7.87552881     0.00000145     0.00000000     0.00000359 0.00000000 VRAI 
CAM-ECTC-USA-HO_ECTC-USA-HO-T  2016.06.22.22.33.46    -3.86875305     3.64758267   -12.93373318     0.00002697     0.00000047     0.00001364 0.00000000 VRAI 
CAM-ECTC-USA-HO_ECTC-USA-HO    2016.06.22.22.33.46    -3.67597634    -3.92563438   -12.88930058     0.00000393     0.00000000     0.00000256 0.00000000 VRAI 
CAM-LBA-US_EBA-US-HO-H         2016.06.22.22.33.46     2.83556449    -3.69497913     6.48618960     0.00001373     0.00001048     0.00000024 0.00000000 VRAI 
CAM-LBA-US_JDA-US-H            2016.06.22.22.33.46     2.82024986    -3.73083782     6.67530489     0.00000426     0.00000550     0.00000000 0.00000000 VRAI 
CAM-LBA-US_CAM-LBC-US          2016.06.22.22.33.46     2.82212764    -3.73786014    -2.68942344     0.03087193     0.00067264     0.00002968 0.00000000 VRAI 
CAM-LBA-US_EBC-US-IP-H         2016.06.22.22.33.46     2.85109085    -3.68032730    -3.11695278     0.00000772     0.00000862     0.00000012 0.00000000 VRAI 
CAM-LBA-USA_EBA-USA-HO-H       2016.06.22.22.33.46    -2.86450762    -3.73438644     6.48601830     0.00000499     0.00000670     0.00000021 0.00000000 VRAI 
CAM-LBA-USA_JDA-USA-H          2016.06.22.22.33.46    -2.88386291    -3.67259037     7.43189907     0.00001281     0.00000109     0.00000000 0.00000000 VRAI 
CAM-LBA-USA_CAM-LBC-USA        2016.06.22.22.33.46    -2.76145864    -3.76026338    -2.71070480     0.00000696     0.00000460     0.00000000 0.00000000 VRAI 
CAM-LBA-USA_EBC-USA-IP-H       2016.06.22.22.33.46    -2.79952437    -3.69015515    -3.11713433     0.00000871     0.00000481     0.00000000 0.00000000 VRAI 
CAM-ECTA-US-IP_ECTA-US-IP-T    2016.06.22.22.33.46     3.54293787     3.84860933     8.10734153     0.00200798     0.00005129     0.00222238 0.00000000 VRAI 
CAM-ECTA-US-IP_ECTA-US-IP      2016.06.22.22.33.46     3.52012742    -4.07061112     7.89737415     0.00000159     0.00000021     0.00000058 0.00000000 VRAI 
CAM-ECTA-US-HO_ECTA-US-HO-T    2016.06.22.22.33.46     3.87561381     3.64747095    12.93588614     0.00001216     0.00000083     0.00001207 0.00000000 VRAI 
CAM-ECTA-US-HO_ECTA-US-HO      2016.06.22.22.33.46     3.66446042    -3.92580485    12.88409448     0.00000282     0.00000000     0.00000104 0.00000000 VRAI 
CAM-ECTA-USA-IP_ECTA-USA-IP-T  2016.06.22.22.33.46    -3.68107176     3.84881121     7.89868343     0.00004106     0.00000087     0.00000516 0.00000000 VRAI 
CAM-ECTA-USA-IP_ECTA-USA-IP    2016.06.22.22.33.46    -3.53486240    -4.07043028     7.89138675     0.00000076     0.00000000     0.00000086 0.00000000 VRAI 
CAM-ECTA-USA-HO_ECTA-USA-HO-T  2016.06.22.22.33.46    -3.86160851     3.64768839    12.93606925     0.00002130     0.00000083     0.00001552 0.00000000 VRAI 
CAM-ECTA-USA-HO_ECTA-USA-HO    2016.06.22.22.33.46    -3.68510193    -3.92559814    12.88585544     0.00000269     0.00000000     0.00000206 0.00000000 VRAI 
CAM-JDC-US-IP_JDC-US-IP        2016.06.22.22.33.46     2.59965211    -4.19501352    -6.54797757     0.00000130     0.00000000     0.00000198 0.00000000 VRAI 
CAM-JDC-US-HO_JDC-US-HO        2016.06.22.22.33.46     2.61013663    -4.14002836    -6.93109190     0.00000302     0.00000021     0.00000426 0.00000000 VRAI 
CAM-JDC-USA-IP_JDC-USA-IP      2016.06.22.22.33.46    -2.60460883    -4.19508934    -6.54052401     0.00000379     0.00000000     0.00000216 0.00000000 VRAI 
CAM-JDC-USA-HO_JDC-USA-HO      2016.06.22.22.33.46    -2.59368223    -4.14012790    -6.92687368     0.00000321     0.00000024     0.00000384 0.00000000 VRAI 
CAM-JDA-US-IP_JDA-US-IP        2016.06.22.22.33.46     2.58486784    -4.19496298     6.54854023     0.00000131     0.00000000     0.00000206 0.00000000 VRAI 
CAM-JDA-US-HO_JDA-US-HO        2016.06.22.22.33.46     2.59419167    -4.13996410     6.94835508     0.00000335     0.00000000     0.00000354 0.00000000 VRAI 
CAM-JDA-USA-IP_JDA-USA-IP      2016.06.22.22.33.46    -2.59782565    -4.19505167     6.53889549     0.00000055     0.00000000     0.00000119 0.00000000 VRAI 
CAM-JDA-USA-HO_JDA-USA-HO      2016.06.22.22.33.46    -2.60447848    -4.13995683     6.94260311     0.00000760     0.00000021     0.00000530 0.00000000 VRAI 
CAM-EBC-US-IP_EBC-US-IP        2016.06.22.22.33.46     2.60383922    -4.19700384    -3.82520592     0.00000195     0.00000000     0.00000382 0.00000000 VRAI 
CAM-EBC-US-HO_EBC-US-HO        2016.06.22.22.33.46     2.60558879    -4.19701958    -5.89346230     0.00000229     0.00000000     0.00000235 0.00000000 VRAI 
CAM-EBC-USA-IP_EBC-USA-IP      2016.06.22.22.33.46    -2.61132187    -4.19698286    -3.82728326     0.00000052     0.00000000     0.00000421 0.00000000 VRAI 
CAM-EBC-USA-HO_EBC-USA-HO      2016.06.22.22.33.46    -2.61581284    -4.19701958    -5.89169395     0.00000064     0.00000000     0.00000148 0.00000000 VRAI 
CAM-EBA-US-IP_EBA-US-IP        2016.06.22.22.33.46     2.61459959    -4.19698811     3.83338374     0.00000335     0.00000000     0.00000210 0.00000000 VRAI 
CAM-EBA-US-HO_EBA-US-HO        2016.06.22.22.33.46     2.61676890    -4.19703007     5.89772868     0.00000181     0.00000000     0.00000186 0.00000000 VRAI 
CAM-EBA-USA-IP_EBA-USA-IP      2016.06.22.22.33.46    -2.61123163    -4.19700384     3.83566409     0.00000304     0.00000000     0.00000320 0.00000000 VRAI 
CAM-EBA-USA-HO_EBA-USA-HO      2016.06.22.22.33.46    -2.61281228    -4.19702506     5.89855862     0.00000229     0.00000024     0.00000276 0.00000000 VRAI 
CAM-LBC-US_EBC-US-HO-H         2016.06.22.22.33.46     2.80550742    -3.78138000    -6.47905755     0.00762298     0.00542823     0.00006236 0.00000000 VRAI 
CAM-LBC-US_JDC-US-H            2016.06.22.22.33.46     2.83386326    -3.66281891    -6.67437851     0.03778934     0.01930762     0.00023146 0.00000000 VRAI 
CAM-LBC-US_CAM-LBA-US          2016.06.22.22.33.46     2.81472975    -3.75324607     2.69822550     0.00000748     0.00000502     0.00000000 0.00000000 VRAI 
CAM-LBC-US_EBA-US-IP-H         2016.06.22.22.33.46     2.84035504    -3.68426448     3.12405610     0.00000603     0.00000652     0.00000041 0.00000000 VRAI 
CAM-LBC-USA_EBC-USA-HO-H       2016.06.22.22.33.46    -2.84789598    -3.69350910    -6.47909904     0.00000244     0.00000340     0.00000024 0.00000000 VRAI 
CAM-LBC-USA_JDC-USA-H          2016.06.22.22.33.46    -2.82482731    -3.77028692    -6.67505836     0.00000299     0.00000263     0.00000000 0.00000000 VRAI 
CAM-LBC-USA_CAM-LBA-USA        2016.06.22.22.33.46    -2.81441873    -3.74963963     2.68347168     0.00000444     0.00000117     0.00000000 0.00000000 VRAI 
CAM-LBC-USA_EBA-USA-IP-H       2016.06.22.22.33.46    -2.75079131    -3.66549408     3.12346482     0.00003282     0.00000062     0.00000048 0.00000000 VRAI 
