********** Fichier qui contient une sauvegarde des coordonnees images + coordonnees images transformees dans le repere BCAM (MOUNT) + coordonnees des prismes dans le repere MOUNT********** 
********************************************************************** Unite en metres (m)************************************************************************************************** 

*******************************************************************coordonnees images dans le repere CCD *********************************************************************************** 
20MABNDB000069_PR031
Spot 1     0.00021500     0.00240500
Spot 2     0.00021500     0.00240500
Spot 1     0.00021500     0.00240500
Spot 2     0.00021500     0.00240500
Spot 1     0.00021500     0.00240500
Spot 2     0.00021500     0.00240500
Spot 1     0.00021500     0.00240500
Spot 2     0.00021500     0.00240500
Spot 1     0.00021500     0.00240500
Spot 2     0.00021500     0.00240500
20MABNDB000069_PR033
Spot 1     0.00183537     0.00201025
Spot 2     0.00230449     0.00202962
Spot 1     0.00183558     0.00201021
Spot 2     0.00230454     0.00202974
Spot 1     0.00183547     0.00201012
Spot 2     0.00230466     0.00202986
Spot 1     0.00183557     0.00201024
Spot 2     0.00230469     0.00202979
Spot 1     0.00183551     0.00201033
Spot 2     0.00230432     0.00202995
20MABNDB000131_PR032
Spot 1     0.00277881     0.00108582
Spot 2     0.00283752     0.00108920
Spot 1     0.00277870     0.00108559
Spot 2     0.00283777     0.00108890
Spot 1     0.00277871     0.00108597
Spot 2     0.00283783     0.00108929
Spot 1     0.00277876     0.00108581
Spot 2     0.00283791     0.00108945
Spot 1     0.00277868     0.00108569
Spot 2     0.00283767     0.00108907
20MABNDB000131_PR034
Spot 1     0.00092776     0.00035892
Spot 2     0.00110378     0.00035813
Spot 1     0.00092758     0.00035900
Spot 2     0.00110374     0.00035814
Spot 1     0.00092771     0.00035893
Spot 2     0.00110362     0.00035812
Spot 1     0.00092769     0.00035897
Spot 2     0.00110358     0.00035825
Spot 1     0.00092773     0.00035888
Spot 2     0.00110362     0.00035805
20MABNDA000208_PR042
Spot 1     0.00305078     0.00094175
Spot 2     0.00298560     0.00094261
Spot 1     0.00305142     0.00094219
Spot 2     0.00298616     0.00094255
Spot 1     0.00305145     0.00094142
Spot 2     0.00298599     0.00094277
Spot 1     0.00305181     0.00094092
Spot 2     0.00298528     0.00094275
Spot 1     0.00305199     0.00094167
Spot 2     0.00298548     0.00094289
20MABNDA000208_PR046
Spot 1     0.00145412     0.00210364
Spot 2     0.00097945     0.00210625
Spot 1     0.00145424     0.00210335
Spot 2     0.00097951     0.00210679
Spot 1     0.00145391     0.00210352
Spot 2     0.00098016     0.00210654
Spot 1     0.00145403     0.00210321
Spot 2     0.00098000     0.00210660
Spot 1     0.00145396     0.00210351
Spot 2     0.00097989     0.00210654
20MABNDA000035_PR044
Spot 1     0.00073983     0.00126769
Spot 2     0.00068675     0.00126140
Spot 1     0.00073956     0.00126762
Spot 2     0.00068694     0.00126132
Spot 1     0.00073996     0.00126754
Spot 2     0.00068671     0.00126146
Spot 1     0.00073968     0.00126766
Spot 2     0.00068679     0.00126150
Spot 1     0.00073972     0.00126760
Spot 2     0.00068679     0.00126148
20MABNDA000035_PR045
Spot 1     0.00254840     0.00051537
Spot 2     0.00237196     0.00051348
Spot 1     0.00254823     0.00051549
Spot 2     0.00237179     0.00051357
Spot 1     0.00254851     0.00051518
Spot 2     0.00237201     0.00051357
Spot 1     0.00254844     0.00051522
Spot 2     0.00237198     0.00051366
Spot 1     0.00254824     0.00051550
Spot 2     0.00237195     0.00051366
20MABNDL000077_PR002
Spot 1     0.00079487     0.00149700
Spot 2     0.00095728     0.00149450
Spot 1     0.00079463     0.00149751
Spot 2     0.00095669     0.00149492
Spot 1     0.00079460     0.00149749
Spot 2     0.00095709     0.00149513
Spot 1     0.00079475     0.00149751
Spot 2     0.00095694     0.00149513
Spot 1     0.00079460     0.00149755
Spot 2     0.00095706     0.00149513
20MABNDL000077_PR003
Spot 1     0.00152683     0.00118916
Spot 2     0.00167593     0.00119184
Spot 1     0.00152679     0.00118939
Spot 2     0.00167555     0.00119182
Spot 1     0.00152630     0.00118935
Spot 2     0.00167558     0.00119214
Spot 1     0.00152644     0.00118946
Spot 2     0.00167564     0.00119211
Spot 1     0.00152651     0.00118910
Spot 2     0.00167525     0.00119192
20MABNDL000077_20MABNDM000168
Spot 1     0.00188397     0.00148536
Spot 2     0.00204500     0.00205500
Spot 1     0.00188402     0.00148537
Spot 2     0.00204500     0.00205500
Spot 1     0.00188410     0.00148532
Spot 2     0.00204500     0.00205500
Spot 1     0.00188404     0.00148538
Spot 2     0.00204500     0.00205500
Spot 1     0.00188408     0.00148552
Spot 2     0.00204500     0.00205500
20MABNDL000077_PR024
Spot 1     0.00262839     0.00171394
Spot 2     0.00272996     0.00171821
Spot 1     0.00262833     0.00171408
Spot 2     0.00272982     0.00171841
Spot 1     0.00262878     0.00171415
Spot 2     0.00272968     0.00171827
Spot 1     0.00262868     0.00171405
Spot 2     0.00272969     0.00171837
Spot 1     0.00262870     0.00171442
Spot 2     0.00272988     0.00171860
20MABNDM000020_PR013
Spot 1     0.00164033     0.00213914
Spot 2     0.00148770     0.00214435
Spot 1     0.00164042     0.00213929
Spot 2     0.00148764     0.00214410
Spot 1     0.00164037     0.00213963
Spot 2     0.00148787     0.00214439
Spot 1     0.00164052     0.00213935
Spot 2     0.00148788     0.00214443
20MABNDM000020_PR014
Spot 1     0.00267758     0.00227926
Spot 2     0.00251614     0.00228654
Spot 1     0.00267779     0.00227946
Spot 2     0.00251632     0.00228667
Spot 1     0.00267803     0.00227994
Spot 2     0.00251620     0.00228681
Spot 1     0.00267781     0.00227947
Spot 2     0.00251612     0.00228651
20MABNDM000020_20MABNDL000196
Spot 1     0.00200116     0.00057801
Spot 2     0.00096500     0.00046500
Spot 1     0.00200109     0.00057784
Spot 2     0.00096500     0.00046500
Spot 1     0.00200091     0.00057793
Spot 2     0.00096500     0.00046500
Spot 1     0.00200118     0.00057809
Spot 2     0.00080500     0.00021500
20MABNDM000020_PR035
Spot 1     0.00126775     0.00087525
Spot 2     0.00119520     0.00090584
Spot 1     0.00126799     0.00087525
Spot 2     0.00119528     0.00090566
Spot 1     0.00126811     0.00087519
Spot 2     0.00119553     0.00090575
Spot 1     0.00126852     0.00087513
Spot 2     0.00119545     0.00090586
20MABNDA000188_PR008
Spot 1     0.00281786     0.00037643
Spot 2     0.00319100     0.00010700
Spot 1     0.00281900     0.00038100
Spot 2     0.00283667     0.00012167
Spot 1     0.00283500     0.00012500
Spot 2     0.00293700     0.00015700
Spot 1     0.00279500     0.00010500
Spot 2     0.00336500     0.00014700
20MABNDA000188_PR018
Spot 1     0.00164622     0.00174913
Spot 2     0.00117949     0.00174635
Spot 1     0.00164617     0.00174904
Spot 2     0.00117936     0.00174634
Spot 1     0.00164628     0.00174917
Spot 2     0.00117936     0.00174623
Spot 1     0.00164622     0.00174920
Spot 2     0.00117946     0.00174637
20MABNDA000039_PR009
Spot 1     0.00066283     0.00117397
Spot 2     0.00061606     0.00117785
Spot 1     0.00066284     0.00117386
Spot 2     0.00061600     0.00117791
Spot 1     0.00066300     0.00117407
Spot 2     0.00061595     0.00117826
Spot 1     0.00066277     0.00117402
Spot 2     0.00061581     0.00117822
20MABNDA000039_PR011
Spot 1     0.00276287     0.00027844
Spot 2     0.00258800     0.00027436
Spot 1     0.00276273     0.00027832
Spot 2     0.00258800     0.00027442
Spot 1     0.00276283     0.00027815
Spot 2     0.00258788     0.00027434
Spot 1     0.00276292     0.00027830
Spot 2     0.00258798     0.00027437
20MABNDB000155_PR020
Spot 1     0.00061855     0.00112312
Spot 2     0.00068020     0.00111912
Spot 1     0.00061817     0.00112252
Spot 2     0.00068073     0.00111904
Spot 1     0.00061872     0.00112286
Spot 2     0.00068112     0.00111907
Spot 1     0.00061838     0.00112311
Spot 2     0.00068107     0.00111889
20MABNDB000155_PR022
Spot 1     0.00208422     0.00134573
Spot 2     0.00255719     0.00134102
Spot 1     0.00208419     0.00134600
Spot 2     0.00255703     0.00134105
Spot 1     0.00208419     0.00134562
Spot 2     0.00255695     0.00134094
Spot 1     0.00208429     0.00134581
Spot 2     0.00255693     0.00134102
20MABNDB000010_PR021
Spot 1     0.00286650     0.00115708
Spot 2     0.00291880     0.00116004
Spot 1     0.00286621     0.00115706
Spot 2     0.00291822     0.00115985
Spot 1     0.00286629     0.00115740
Spot 2     0.00291830     0.00115983
Spot 1     0.00286620     0.00115677
Spot 2     0.00291810     0.00115970
20MABNDB000010_PR023
Spot 1     0.00130682     0.00033349
Spot 2     0.00148090     0.00033146
Spot 1     0.00130680     0.00033375
Spot 2     0.00148104     0.00033208
Spot 1     0.00130672     0.00033398
Spot 2     0.00148091     0.00033171
Spot 1     0.00130655     0.00033356
Spot 2     0.00148093     0.00033173
20MABNDB000212_PR029
Spot 1     0.00226011     0.00072653
Spot 2     0.00189447     0.00072645
Spot 1     0.00226013     0.00072661
Spot 2     0.00189472     0.00072653
Spot 1     0.00226013     0.00072655
Spot 2     0.00189473     0.00072635
Spot 1     0.00226020     0.00072664
Spot 2     0.00189417     0.00072694
20MABNDB000128_PR030
Spot 1     0.00188698     0.00200575
Spot 2     0.00209056     0.00200112
Spot 1     0.00188688     0.00200621
Spot 2     0.00209062     0.00200093
Spot 1     0.00188693     0.00200601
Spot 2     0.00209055     0.00200086
Spot 1     0.00188691     0.00200598
Spot 2     0.00209061     0.00200093
20MABNDA000444_PR040
Spot 1     0.00078404     0.00037372
Spot 2     0.00114963     0.00037231
Spot 1     0.00078427     0.00037379
Spot 2     0.00114946     0.00037208
Spot 1     0.00078424     0.00037399
Spot 2     0.00114943     0.00037221
Spot 1     0.00078419     0.00037387
Spot 2     0.00114959     0.00037205
20MABNDA000053_PR041
Spot 1     0.00164426     0.00199012
Spot 2     0.00144155     0.00198718
Spot 1     0.00164397     0.00198997
Spot 2     0.00144144     0.00198721
Spot 1     0.00164392     0.00198986
Spot 2     0.00144171     0.00198704
Spot 1     0.00164399     0.00198990
Spot 2     0.00144156     0.00198714
20MABNDA000196_PR006
Spot 1     0.00198662     0.00075846
Spot 2     0.00162194     0.00075392
Spot 1     0.00198704     0.00075855
Spot 2     0.00162200     0.00075415
Spot 1     0.00198672     0.00075838
Spot 2     0.00162186     0.00075374
Spot 1     0.00198655     0.00075853
Spot 2     0.00162180     0.00075374
20MABNDA000324_PR007
Spot 1     0.00195070     0.00120350
Spot 2     0.00174562     0.00120953
Spot 1     0.00195076     0.00120374
Spot 2     0.00174568     0.00120963
Spot 1     0.00195074     0.00120362
Spot 2     0.00174537     0.00120944
Spot 1     0.00195054     0.00120365
Spot 2     0.00174563     0.00120949
20MABNDB000001_PR017
Spot 1     0.00188386     0.00047211
Spot 2     0.00225227     0.00048318
Spot 1     0.00188386     0.00047214
Spot 2     0.00225232     0.00048304
Spot 1     0.00188397     0.00047220
Spot 2     0.00225227     0.00048300
Spot 1     0.00188394     0.00047204
Spot 2     0.00225202     0.00048307
20MABNDB000260_PR019
Spot 1     0.00192096     0.00149371
Spot 2     0.00212533     0.00149400
Spot 1     0.00192085     0.00149339
Spot 2     0.00212471     0.00149412
Spot 1     0.00192103     0.00149366
Spot 2     0.00212500     0.00149375
Spot 1     0.00192098     0.00149383
Spot 2     0.00212500     0.00149367
20MABNDB000135_PR027
Spot 1     0.00189182     0.00092346
Spot 2     0.00210994     0.00092610
Spot 1     0.00189164     0.00092342
Spot 2     0.00211011     0.00092608
Spot 1     0.00189172     0.00092340
Spot 2     0.00211006     0.00092606
Spot 1     0.00189168     0.00092343
Spot 2     0.00211014     0.00092612
20MABNDB000126_PR028
Spot 1     0.00164500     0.00200085
Spot 2     0.00192631     0.00200270
Spot 1     0.00164523     0.00200077
Spot 2     0.00192642     0.00200310
Spot 1     0.00164505     0.00200063
Spot 2     0.00192642     0.00200310
Spot 1     0.00164528     0.00200084
Spot 2     0.00192642     0.00200307
20MABNDA000272_PR038
Spot 1     0.00192344     0.00096225
Spot 2     0.00170127     0.00096055
Spot 1     0.00192315     0.00096264
Spot 2     0.00170136     0.00096068
Spot 1     0.00192323     0.00096260
Spot 2     0.00170115     0.00096062
Spot 1     0.00192339     0.00096234
Spot 2     0.00170136     0.00096081
20MABNDA000003_PR039
Spot 1     0.00200067     0.00192029
Spot 2     0.00227812     0.00192097
Spot 1     0.00200081     0.00192030
Spot 2     0.00227803     0.00192078
Spot 1     0.00200076     0.00192025
Spot 2     0.00227809     0.00192085
Spot 1     0.00200093     0.00192042
Spot 2     0.00227810     0.00192067
20MABNDA000318_PR004
Spot 1     0.00214695     0.00163089
Spot 2     0.00192903     0.00163232
Spot 1     0.00214665     0.00163121
Spot 2     0.00192931     0.00163266
Spot 1     0.00214683     0.00163086
Spot 2     0.00192916     0.00163292
Spot 1     0.00214674     0.00163122
Spot 2     0.00192921     0.00163236
20MABNDA000334_PR005
Spot 1     0.00247358     0.00158038
Spot 2     0.00219330     0.00158072
Spot 1     0.00247367     0.00158026
Spot 2     0.00219300     0.00158074
Spot 1     0.00247348     0.00158044
Spot 2     0.00219323     0.00158098
Spot 1     0.00247353     0.00158059
Spot 2     0.00219311     0.00158092
20MABNDB000317_PR015
Spot 1     0.00148864     0.00160953
Spot 2     0.00170833     0.00160289
Spot 1     0.00148851     0.00160956
Spot 2     0.00170848     0.00160276
Spot 1     0.00148873     0.00160955
Spot 2     0.00170844     0.00160285
Spot 1     0.00148879     0.00160975
Spot 2     0.00170829     0.00160294
20MABNDB000146_PR016
Spot 1     0.00144733     0.00133157
Spot 2     0.00172248     0.00133387
Spot 1     0.00144743     0.00133152
Spot 2     0.00172258     0.00133408
Spot 1     0.00144744     0.00133169
Spot 2     0.00172250     0.00133387
Spot 1     0.00144724     0.00133165
Spot 2     0.00172252     0.00133404
20MABNDM000168_PR025
Spot 1     0.00105500     0.00031500
Spot 2     0.00105500     0.00031500
Spot 1     0.00105500     0.00031500
Spot 2     0.00105500     0.00031500
Spot 1     0.00105500     0.00031500
Spot 2     0.00105500     0.00031500
Spot 1     0.00105500     0.00031500
Spot 2     0.00105500     0.00031500
20MABNDM000168_PR026
Spot 1     0.00277500     0.00187500
Spot 2     0.00277500     0.00187500
Spot 1     0.00277500     0.00187500
Spot 2     0.00277500     0.00187500
Spot 1     0.00277500     0.00187500
Spot 2     0.00277500     0.00187500
Spot 1     0.00277500     0.00187500
Spot 2     0.00277500     0.00187500
20MABNDM000168_20MABNDL000077
Spot 1     0.00153762     0.00129682
Spot 2     0.00175544     0.00130017
Spot 1     0.00153765     0.00129647
Spot 2     0.00175558     0.00130024
Spot 1     0.00153735     0.00129698
Spot 2     0.00175577     0.00130018
Spot 1     0.00153760     0.00129654
Spot 2     0.00175548     0.00130008
20MABNDM000168_PR001
Spot 1     0.00080556     0.00161560
Spot 2     0.00070437     0.00162149
Spot 1     0.00080618     0.00161612
Spot 2     0.00070433     0.00162148
Spot 1     0.00080559     0.00161602
Spot 2     0.00070443     0.00162176
Spot 1     0.00080688     0.00161704
Spot 2     0.00070444     0.00162105
20MABNDL000196_PR036
Spot 1     0.00095907     0.00164536
Spot 2     0.00112273     0.00164472
Spot 1     0.00095895     0.00164546
Spot 2     0.00112244     0.00164512
Spot 1     0.00095888     0.00164539
Spot 2     0.00112243     0.00164462
Spot 1     0.00095875     0.00164537
Spot 2     0.00112272     0.00164530
20MABNDL000196_PR037
Spot 1     0.00248361     0.00116623
Spot 2     0.00263741     0.00116440
Spot 1     0.00248382     0.00116618
Spot 2     0.00263712     0.00116426
Spot 1     0.00248355     0.00116586
Spot 2     0.00263701     0.00116428
Spot 1     0.00248347     0.00116631
Spot 2     0.00263709     0.00116424
20MABNDL000196_20MABNDM000020
Spot 1     0.00195198     0.00102992
Spot 2     0.00173022     0.00102884
Spot 1     0.00195222     0.00102985
Spot 2     0.00173034     0.00102899
Spot 1     0.00195222     0.00103006
Spot 2     0.00173026     0.00102902
Spot 1     0.00195227     0.00103012
Spot 2     0.00173035     0.00102887
20MABNDL000196_PR012
Spot 1     0.00315600     0.00069500
Spot 2     0.00273633     0.00137367
Spot 1     0.00315600     0.00069500
Spot 2     0.00273667     0.00137333
Spot 1     0.00315600     0.00069500
Spot 2     0.00273667     0.00137333
Spot 1     0.00315600     0.00069500
Spot 2     0.00315600     0.00069500


****************************************************************coordonnees images transformees dans le repere MOUNT************************************************************************* 
20MABNDB000069_PR031
Spot 1    -0.01361993    -0.01186066    -0.07388500
Spot 2    -0.01361993    -0.01186066    -0.07388500
Spot 1    -0.01361993    -0.01186066    -0.07388500
Spot 2    -0.01361993    -0.01186066    -0.07388500
Spot 1    -0.01361993    -0.01186066    -0.07388500
Spot 2    -0.01361993    -0.01186066    -0.07388500
Spot 1    -0.01361993    -0.01186066    -0.07388500
Spot 2    -0.01361993    -0.01186066    -0.07388500
Spot 1    -0.01361993    -0.01186066    -0.07388500
Spot 2    -0.01361993    -0.01186066    -0.07388500
20MABNDB000069_PR033
Spot 1    -0.01201723    -0.01232195    -0.07388500
Spot 2    -0.01154771    -0.01232195    -0.07388500
Spot 1    -0.01201702    -0.01232199    -0.07388500
Spot 2    -0.01154765    -0.01232183    -0.07388500
Spot 1    -0.01201713    -0.01232208    -0.07388500
Spot 2    -0.01154753    -0.01232172    -0.07388500
Spot 1    -0.01201703    -0.01232196    -0.07388500
Spot 2    -0.01154750    -0.01232179    -0.07388500
Spot 1    -0.01201708    -0.01232187    -0.07388500
Spot 2    -0.01154786    -0.01232162    -0.07388500
20MABNDB000131_PR032
Spot 1    -0.01144138    -0.01302892    -0.07533000
Spot 2    -0.01138269    -0.01302525    -0.07533000
Spot 1    -0.01144149    -0.01302916    -0.07533000
Spot 2    -0.01138244    -0.01302555    -0.07533000
Spot 1    -0.01144148    -0.01302878    -0.07533000
Spot 2    -0.01138238    -0.01302516    -0.07533000
Spot 1    -0.01144143    -0.01302893    -0.07533000
Spot 2    -0.01138230    -0.01302500    -0.07533000
Spot 1    -0.01144151    -0.01302906    -0.07533000
Spot 2    -0.01138254    -0.01302538    -0.07533000
20MABNDB000131_PR034
Spot 1    -0.01328875    -0.01376514    -0.07533000
Spot 2    -0.01311273    -0.01376504    -0.07533000
Spot 1    -0.01328893    -0.01376506    -0.07533000
Spot 2    -0.01311277    -0.01376503    -0.07533000
Spot 1    -0.01328880    -0.01376513    -0.07533000
Spot 2    -0.01311289    -0.01376505    -0.07533000
Spot 1    -0.01328882    -0.01376509    -0.07533000
Spot 2    -0.01311293    -0.01376492    -0.07533000
Spot 1    -0.01328878    -0.01376518    -0.07533000
Spot 2    -0.01311289    -0.01376512    -0.07533000
20MABNDA000208_PR042
Spot 1    -0.01392151     0.01305428    -0.07273700
Spot 2    -0.01385633     0.01305347    -0.07273700
Spot 1    -0.01392215     0.01305384    -0.07273700
Spot 2    -0.01385689     0.01305353    -0.07273700
Spot 1    -0.01392218     0.01305461    -0.07273700
Spot 2    -0.01385672     0.01305331    -0.07273700
Spot 1    -0.01392254     0.01305510    -0.07273700
Spot 2    -0.01385601     0.01305333    -0.07273700
Spot 1    -0.01392272     0.01305435    -0.07273700
Spot 2    -0.01385621     0.01305319    -0.07273700
20MABNDA000208_PR046
Spot 1    -0.01232383     0.01189379    -0.07273700
Spot 2    -0.01184916     0.01189159    -0.07273700
Spot 1    -0.01232395     0.01189408    -0.07273700
Spot 2    -0.01184922     0.01189105    -0.07273700
Spot 1    -0.01232362     0.01189391    -0.07273700
Spot 2    -0.01184987     0.01189130    -0.07273700
Spot 1    -0.01232374     0.01189422    -0.07273700
Spot 2    -0.01184971     0.01189124    -0.07273700
Spot 1    -0.01232367     0.01189392    -0.07273700
Spot 2    -0.01184960     0.01189130    -0.07273700
20MABNDA000035_PR044
Spot 1    -0.01157455     0.01298957    -0.07483200
Spot 2    -0.01152143     0.01299548    -0.07483200
Spot 1    -0.01157428     0.01298964    -0.07483200
Spot 2    -0.01152162     0.01299556    -0.07483200
Spot 1    -0.01157468     0.01298972    -0.07483200
Spot 2    -0.01152139     0.01299542    -0.07483200
Spot 1    -0.01157440     0.01298960    -0.07483200
Spot 2    -0.01152147     0.01299538    -0.07483200
Spot 1    -0.01157444     0.01298966    -0.07483200
Spot 2    -0.01152147     0.01299540    -0.07483200
20MABNDA000035_PR045
Spot 1    -0.01337773     0.01375473    -0.07483200
Spot 2    -0.01320128     0.01375537    -0.07483200
Spot 1    -0.01337756     0.01375461    -0.07483200
Spot 2    -0.01320111     0.01375528    -0.07483200
Spot 1    -0.01337783     0.01375493    -0.07483200
Spot 2    -0.01320133     0.01375528    -0.07483200
Spot 1    -0.01337777     0.01375488    -0.07483200
Spot 2    -0.01320130     0.01375519    -0.07483200
Spot 1    -0.01337757     0.01375460    -0.07483200
Spot 2    -0.01320127     0.01375519    -0.07483200
20MABNDL000077_PR002
Spot 1     0.01186517     0.03557247    -0.07463200
Spot 2     0.01202754     0.03556841    -0.07463200
Spot 1     0.01186493     0.03557298    -0.07463200
Spot 2     0.01202696     0.03556883    -0.07463200
Spot 1     0.01186490     0.03557296    -0.07463200
Spot 2     0.01202736     0.03556904    -0.07463200
Spot 1     0.01186505     0.03557298    -0.07463200
Spot 2     0.01202721     0.03556904    -0.07463200
Spot 1     0.01186490     0.03557302    -0.07463200
Spot 2     0.01202733     0.03556904    -0.07463200
20MABNDL000077_PR003
Spot 1     0.01259413     0.03525760    -0.07463200
Spot 2     0.01274325     0.03525884    -0.07463200
Spot 1     0.01259409     0.03525783    -0.07463200
Spot 2     0.01274287     0.03525883    -0.07463200
Spot 1     0.01259360     0.03525779    -0.07463200
Spot 2     0.01274290     0.03525915    -0.07463200
Spot 1     0.01259374     0.03525790    -0.07463200
Spot 2     0.01274296     0.03525912    -0.07463200
Spot 1     0.01259381     0.03525754    -0.07463200
Spot 2     0.01274257     0.03525893    -0.07463200
20MABNDL000077_20MABNDM000168
Spot 1    -0.01272219     0.03554703    -0.00695400
Spot 2    -0.01288904     0.03611499    -0.00695400
Spot 1    -0.01272224     0.03554704    -0.00695400
Spot 2    -0.01288904     0.03611499    -0.00695400
Spot 1    -0.01272232     0.03554699    -0.00695400
Spot 2    -0.01288904     0.03611499    -0.00695400
Spot 1    -0.01272226     0.03554705    -0.00695400
Spot 2    -0.01288904     0.03611499    -0.00695400
Spot 1    -0.01272230     0.03554719    -0.00695400
Spot 2    -0.01288904     0.03611499    -0.00695400
20MABNDL000077_PR024
Spot 1    -0.01346891     0.03576798    -0.00695400
Spot 2    -0.01357052     0.03577121    -0.00695400
Spot 1    -0.01346885     0.03576812    -0.00695400
Spot 2    -0.01357038     0.03577141    -0.00695400
Spot 1    -0.01346930     0.03576819    -0.00695400
Spot 2    -0.01357024     0.03577127    -0.00695400
Spot 1    -0.01346920     0.03576809    -0.00695400
Spot 2    -0.01357025     0.03577137    -0.00695400
Spot 1    -0.01346922     0.03576846    -0.00695400
Spot 2    -0.01357044     0.03577160    -0.00695400
20MABNDM000020_PR013
Spot 1    -0.01270508    -0.03609738    -0.00523500
Spot 2    -0.01285755    -0.03610596    -0.00523500
Spot 1    -0.01270498    -0.03609753    -0.00523500
Spot 2    -0.01285762    -0.03610572    -0.00523500
Spot 1    -0.01270503    -0.03609787    -0.00523500
Spot 2    -0.01285738    -0.03610600    -0.00523500
Spot 1    -0.01270488    -0.03609759    -0.00523500
Spot 2    -0.01285737    -0.03610604    -0.00523500
20MABNDM000020_PR014
Spot 1    -0.01166498    -0.03621453    -0.00523500
Spot 2    -0.01182622    -0.03622538    -0.00523500
Spot 1    -0.01166477    -0.03621472    -0.00523500
Spot 2    -0.01182604    -0.03622550    -0.00523500
Spot 1    -0.01166452    -0.03621520    -0.00523500
Spot 2    -0.01182616    -0.03622565    -0.00523500
Spot 1    -0.01166475    -0.03621473    -0.00523500
Spot 2    -0.01182624    -0.03622535    -0.00523500
20MABNDM000020_20MABNDL000196
Spot 1     0.01268503    -0.03454658    -0.07583800
Spot 2     0.01372118    -0.03443342    -0.07583800
Spot 1     0.01268510    -0.03454641    -0.07583800
Spot 2     0.01372118    -0.03443342    -0.07583800
Spot 1     0.01268528    -0.03454650    -0.07583800
Spot 2     0.01372118    -0.03443342    -0.07583800
Spot 1     0.01268501    -0.03454666    -0.07583800
Spot 2     0.01388114    -0.03418340    -0.07583800
20MABNDM000020_PR035
Spot 1     0.01341849    -0.03484372    -0.07583800
Spot 2     0.01349104    -0.03487430    -0.07583800
Spot 1     0.01341825    -0.03484372    -0.07583800
Spot 2     0.01349096    -0.03487412    -0.07583800
Spot 1     0.01341813    -0.03484366    -0.07583800
Spot 2     0.01349071    -0.03487421    -0.07583800
Spot 1     0.01341772    -0.03484360    -0.07583800
Spot 2     0.01349079    -0.03487432    -0.07583800
20MABNDA000188_PR008
Spot 1    -0.01383617     0.01368685    -0.07502000
Spot 2    -0.01420699     0.01395946    -0.07502000
Spot 1    -0.01383735     0.01368229    -0.07502000
Spot 2    -0.01385280     0.01394176    -0.07502000
Spot 1    -0.01385116     0.01393841    -0.07502000
Spot 2    -0.01395343     0.01390729    -0.07502000
Spot 1    -0.01381099     0.01395807    -0.07502000
Spot 2    -0.01438133     0.01392095    -0.07502000
20MABNDA000188_PR018
Spot 1    -0.01267633     0.01230416    -0.07502000
Spot 2    -0.01220959     0.01230295    -0.07502000
Spot 1    -0.01267628     0.01230425    -0.07502000
Spot 2    -0.01220946     0.01230296    -0.07502000
Spot 1    -0.01267639     0.01230412    -0.07502000
Spot 2    -0.01220946     0.01230307    -0.07502000
Spot 1    -0.01267633     0.01230409    -0.07502000
Spot 2    -0.01220956     0.01230293    -0.07502000
20MABNDA000039_PR009
Spot 1    -0.01162495     0.01307016    -0.07444800
Spot 2    -0.01157820     0.01306608    -0.07444800
Spot 1    -0.01162496     0.01307027    -0.07444800
Spot 2    -0.01157814     0.01306602    -0.07444800
Spot 1    -0.01162512     0.01307006    -0.07444800
Spot 2    -0.01157809     0.01306567    -0.07444800
Spot 1    -0.01162489     0.01307011    -0.07444800
Spot 2    -0.01157795     0.01306571    -0.07444800
20MABNDA000039_PR011
Spot 1    -0.01372110     0.01397477    -0.07444800
Spot 2    -0.01354621     0.01397809    -0.07444800
Spot 1    -0.01372096     0.01397489    -0.07444800
Spot 2    -0.01354621     0.01397803    -0.07444800
Spot 1    -0.01372106     0.01397506    -0.07444800
Spot 2    -0.01354609     0.01397811    -0.07444800
Spot 1    -0.01372115     0.01397491    -0.07444800
Spot 2    -0.01354619     0.01397808    -0.07444800
20MABNDB000155_PR020
Spot 1    -0.01364752    -0.01313427    -0.07501700
Spot 2    -0.01358582    -0.01313742    -0.07501700
Spot 1    -0.01364789    -0.01313487    -0.07501700
Spot 2    -0.01358529    -0.01313750    -0.07501700
Spot 1    -0.01364734    -0.01313452    -0.07501700
Spot 2    -0.01358490    -0.01313746    -0.07501700
Spot 1    -0.01364769    -0.01313428    -0.07501700
Spot 2    -0.01358495    -0.01313764    -0.07501700
20MABNDB000155_PR022
Spot 1    -0.01218503    -0.01289161    -0.07501700
Spot 2    -0.01171204    -0.01288985    -0.07501700
Spot 1    -0.01218507    -0.01289134    -0.07501700
Spot 2    -0.01171220    -0.01288982    -0.07501700
Spot 1    -0.01218506    -0.01289172    -0.07501700
Spot 2    -0.01171228    -0.01288993    -0.07501700
Spot 1    -0.01218496    -0.01289153    -0.07501700
Spot 2    -0.01171230    -0.01288985    -0.07501700
20MABNDB000010_PR021
Spot 1    -0.01158457    -0.01292147    -0.07358200
Spot 2    -0.01153233    -0.01291762    -0.07358200
Spot 1    -0.01158486    -0.01292149    -0.07358200
Spot 2    -0.01153291    -0.01291782    -0.07358200
Spot 1    -0.01158479    -0.01292115    -0.07358200
Spot 2    -0.01153283    -0.01291784    -0.07358200
Spot 1    -0.01158487    -0.01292178    -0.07358200
Spot 2    -0.01153303    -0.01291798    -0.07358200
20MABNDB000010_PR023
Spot 1    -0.01313008    -0.01377136    -0.07358200
Spot 2    -0.01295599    -0.01377044    -0.07358200
Spot 1    -0.01313010    -0.01377110    -0.07358200
Spot 2    -0.01295586    -0.01376982    -0.07358200
Spot 1    -0.01313019    -0.01377087    -0.07358200
Spot 2    -0.01295598    -0.01377019    -0.07358200
Spot 1    -0.01313035    -0.01377130    -0.07358200
Spot 2    -0.01295596    -0.01377017    -0.07358200
20MABNDB000212_PR029
Spot 1    -0.01182746    -0.01325502    -0.07390500
Spot 2    -0.01219308    -0.01325120    -0.07390500
Spot 1    -0.01182744    -0.01325494    -0.07390500
Spot 2    -0.01219283    -0.01325112    -0.07390500
Spot 1    -0.01182744    -0.01325500    -0.07390500
Spot 2    -0.01219282    -0.01325130    -0.07390500
Spot 1    -0.01182737    -0.01325491    -0.07390500
Spot 2    -0.01219338    -0.01325071    -0.07390500
20MABNDB000128_PR030
Spot 1    -0.01246816    -0.01221161    -0.07353400
Spot 2    -0.01226456    -0.01221554    -0.07353400
Spot 1    -0.01246826    -0.01221115    -0.07353400
Spot 2    -0.01226450    -0.01221573    -0.07353400
Spot 1    -0.01246821    -0.01221135    -0.07353400
Spot 2    -0.01226457    -0.01221580    -0.07353400
Spot 1    -0.01246823    -0.01221138    -0.07353400
Spot 2    -0.01226451    -0.01221573    -0.07353400
20MABNDA000444_PR040
Spot 1    -0.01172361     0.01365560    -0.07412000
Spot 2    -0.01208919     0.01365237    -0.07412000
Spot 1    -0.01172384     0.01365553    -0.07412000
Spot 2    -0.01208903     0.01365260    -0.07412000
Spot 1    -0.01172381     0.01365533    -0.07412000
Spot 2    -0.01208899     0.01365248    -0.07412000
Spot 1    -0.01172376     0.01365545    -0.07412000
Spot 2    -0.01208916     0.01365263    -0.07412000
20MABNDA000053_PR041
Spot 1    -0.01240091     0.01212017    -0.07430100
Spot 2    -0.01219819     0.01211915    -0.07430100
Spot 1    -0.01240062     0.01212031    -0.07430100
Spot 2    -0.01219808     0.01211912    -0.07430100
Spot 1    -0.01240057     0.01212042    -0.07430100
Spot 2    -0.01219834     0.01211929    -0.07430100
Spot 1    -0.01240064     0.01212038    -0.07430100
Spot 2    -0.01219820     0.01211919    -0.07430100
20MABNDA000196_PR006
Spot 1    -0.01294170     0.01321977    -0.07967100
Spot 2    -0.01257699     0.01321963    -0.07967100
Spot 1    -0.01294212     0.01321969    -0.07967100
Spot 2    -0.01257706     0.01321940    -0.07967100
Spot 1    -0.01294180     0.01321986    -0.07967100
Spot 2    -0.01257691     0.01321981    -0.07967100
Spot 1    -0.01294163     0.01321970    -0.07967100
Spot 2    -0.01257685     0.01321980    -0.07967100
20MABNDA000324_PR007
Spot 1    -0.01255648     0.01281805    -0.07446800
Spot 2    -0.01235136     0.01281362    -0.07446800
Spot 1    -0.01255654     0.01281781    -0.07446800
Spot 2    -0.01235142     0.01281352    -0.07446800
Spot 1    -0.01255652     0.01281793    -0.07446800
Spot 2    -0.01235111     0.01281371    -0.07446800
Spot 1    -0.01255632     0.01281790    -0.07446800
Spot 2    -0.01235137     0.01281366    -0.07446800
20MABNDB000001_PR017
Spot 1    -0.01230415    -0.01351738    -0.07418400
Spot 2    -0.01193564    -0.01351021    -0.07418400
Spot 1    -0.01230415    -0.01351735    -0.07418400
Spot 2    -0.01193559    -0.01351035    -0.07418400
Spot 1    -0.01230404    -0.01351729    -0.07418400
Spot 2    -0.01193564    -0.01351039    -0.07418400
Spot 1    -0.01230407    -0.01351745    -0.07418400
Spot 2    -0.01193589    -0.01351032    -0.07418400
20MABNDB000260_PR019
Spot 1    -0.01241020    -0.01240886    -0.07492700
Spot 2    -0.01220587    -0.01240438    -0.07492700
Spot 1    -0.01241030    -0.01240919    -0.07492700
Spot 2    -0.01220650    -0.01240428    -0.07492700
Spot 1    -0.01241012    -0.01240891    -0.07492700
Spot 2    -0.01220620    -0.01240464    -0.07492700
Spot 1    -0.01241018    -0.01240874    -0.07492700
Spot 2    -0.01220620    -0.01240472    -0.07492700
20MABNDB000135_PR027
Spot 1    -0.01251277    -0.01318957    -0.07464700
Spot 2    -0.01229463    -0.01318936    -0.07464700
Spot 1    -0.01251295    -0.01318961    -0.07464700
Spot 2    -0.01229446    -0.01318938    -0.07464700
Spot 1    -0.01251287    -0.01318963    -0.07464700
Spot 2    -0.01229451    -0.01318940    -0.07464700
Spot 1    -0.01251291    -0.01318960    -0.07464700
Spot 2    -0.01229443    -0.01318934    -0.07464700
20MABNDB000126_PR028
Spot 1    -0.01253449    -0.01218132    -0.07500400
Spot 2    -0.01225319    -0.01217797    -0.07500400
Spot 1    -0.01253426    -0.01218140    -0.07500400
Spot 2    -0.01225309    -0.01217757    -0.07500400
Spot 1    -0.01253444    -0.01218154    -0.07500400
Spot 2    -0.01225309    -0.01217757    -0.07500400
Spot 1    -0.01253421    -0.01218133    -0.07500400
Spot 2    -0.01225309    -0.01217760    -0.07500400
20MABNDA000272_PR038
Spot 1    -0.01275911     0.01314922    -0.07417900
Spot 2    -0.01253694     0.01315053    -0.07417900
Spot 1    -0.01275882     0.01314883    -0.07417900
Spot 2    -0.01253703     0.01315040    -0.07417900
Spot 1    -0.01275890     0.01314887    -0.07417900
Spot 2    -0.01253682     0.01315045    -0.07417900
Spot 1    -0.01275906     0.01314913    -0.07417900
Spot 2    -0.01253703     0.01315027    -0.07417900
20MABNDA000003_PR039
Spot 1    -0.01280174     0.01213198    -0.07373400
Spot 2    -0.01307919     0.01213200    -0.07373400
Spot 1    -0.01280188     0.01213197    -0.07373400
Spot 2    -0.01307910     0.01213219    -0.07373400
Spot 1    -0.01280183     0.01213202    -0.07373400
Spot 2    -0.01307916     0.01213212    -0.07373400
Spot 1    -0.01280200     0.01213185    -0.07373400
Spot 2    -0.01307917     0.01213230    -0.07373400
20MABNDA000318_PR004
Spot 1    -0.01286676     0.01246434    -0.07310600
Spot 2    -0.01264883     0.01246355    -0.07310600
Spot 1    -0.01286645     0.01246402    -0.07310600
Spot 2    -0.01264911     0.01246321    -0.07310600
Spot 1    -0.01286664     0.01246437    -0.07310600
Spot 2    -0.01264896     0.01246295    -0.07310600
Spot 1    -0.01286654     0.01246401    -0.07310600
Spot 2    -0.01264901     0.01246351    -0.07310600
20MABNDA000334_PR005
Spot 1    -0.01311669     0.01254801    -0.07324100
Spot 2    -0.01283641     0.01254741    -0.07324100
Spot 1    -0.01311678     0.01254813    -0.07324100
Spot 2    -0.01283611     0.01254739    -0.07324100
Spot 1    -0.01311659     0.01254795    -0.07324100
Spot 2    -0.01283634     0.01254715    -0.07324100
Spot 1    -0.01311664     0.01254780    -0.07324100
Spot 2    -0.01283622     0.01254721    -0.07324100
20MABNDB000317_PR015
Spot 1    -0.01266576    -0.01248851    -0.07326100
Spot 2    -0.01244601    -0.01249259    -0.07326100
Spot 1    -0.01266589    -0.01248848    -0.07326100
Spot 2    -0.01244586    -0.01249271    -0.07326100
Spot 1    -0.01266567    -0.01248848    -0.07326100
Spot 2    -0.01244590    -0.01249263    -0.07326100
Spot 1    -0.01266561    -0.01248828    -0.07326100
Spot 2    -0.01244605    -0.01249254    -0.07326100
20MABNDB000146_PR016
Spot 1    -0.01276103    -0.01246204    -0.07450500
Spot 2    -0.01248589    -0.01245913    -0.07450500
Spot 1    -0.01276093    -0.01246209    -0.07450500
Spot 2    -0.01248579    -0.01245892    -0.07450500
Spot 1    -0.01276092    -0.01246191    -0.07450500
Spot 2    -0.01248587    -0.01245913    -0.07450500
Spot 1    -0.01276112    -0.01246196    -0.07450500
Spot 2    -0.01248585    -0.01245896    -0.07450500
20MABNDM000168_PR025
Spot 1    -0.01335211    -0.03465272    -0.00532900
Spot 2    -0.01335211    -0.03465272    -0.00532900
Spot 1    -0.01335211    -0.03465272    -0.00532900
Spot 2    -0.01335211    -0.03465272    -0.00532900
Spot 1    -0.01335211    -0.03465272    -0.00532900
Spot 2    -0.01335211    -0.03465272    -0.00532900
Spot 1    -0.01335211    -0.03465272    -0.00532900
Spot 2    -0.01335211    -0.03465272    -0.00532900
20MABNDM000168_PR026
Spot 1    -0.01162542    -0.03620531    -0.00532900
Spot 2    -0.01162542    -0.03620531    -0.00532900
Spot 1    -0.01162542    -0.03620531    -0.00532900
Spot 2    -0.01162542    -0.03620531    -0.00532900
Spot 1    -0.01162542    -0.03620531    -0.00532900
Spot 2    -0.01162542    -0.03620531    -0.00532900
Spot 1    -0.01162542    -0.03620531    -0.00532900
Spot 2    -0.01162542    -0.03620531    -0.00532900
20MABNDM000168_20MABNDL000077
Spot 1     0.01288789    -0.03529751    -0.07445100
Spot 2     0.01267004    -0.03529767    -0.07445100
Spot 1     0.01288786    -0.03529716    -0.07445100
Spot 2     0.01266990    -0.03529774    -0.07445100
Spot 1     0.01288816    -0.03529767    -0.07445100
Spot 2     0.01266971    -0.03529768    -0.07445100
Spot 1     0.01288791    -0.03529723    -0.07445100
Spot 2     0.01267000    -0.03529758    -0.07445100
20MABNDM000168_PR001
Spot 1     0.01361521    -0.03562697    -0.07445100
Spot 2     0.01371630    -0.03563434    -0.07445100
Spot 1     0.01361458    -0.03562748    -0.07445100
Spot 2     0.01371634    -0.03563433    -0.07445100
Spot 1     0.01361517    -0.03562739    -0.07445100
Spot 2     0.01371624    -0.03563460    -0.07445100
Spot 1     0.01361387    -0.03562839    -0.07445100
Spot 2     0.01371624    -0.03563389    -0.07445100
20MABNDL000196_PR036
Spot 1     0.01193898     0.03583408    -0.07483600
Spot 2     0.01210264     0.03583379    -0.07483600
Spot 1     0.01193886     0.03583418    -0.07483600
Spot 2     0.01210235     0.03583419    -0.07483600
Spot 1     0.01193879     0.03583411    -0.07483600
Spot 2     0.01210234     0.03583369    -0.07483600
Spot 1     0.01193866     0.03583409    -0.07483600
Spot 2     0.01210263     0.03583437    -0.07483600
20MABNDL000196_PR037
Spot 1     0.01346452     0.03535814    -0.07483600
Spot 2     0.01361832     0.03535663    -0.07483600
Spot 1     0.01346473     0.03535809    -0.07483600
Spot 2     0.01361803     0.03535649    -0.07483600
Spot 1     0.01346446     0.03535777    -0.07483600
Spot 2     0.01361792     0.03535651    -0.07483600
Spot 1     0.01346438     0.03535822    -0.07483600
Spot 2     0.01361800     0.03535647    -0.07483600
20MABNDL000196_20MABNDM000020
Spot 1    -0.01277579     0.03530060    -0.00611000
Spot 2    -0.01255405     0.03530398    -0.00611000
Spot 1    -0.01277603     0.03530053    -0.00611000
Spot 2    -0.01255418     0.03530413    -0.00611000
Spot 1    -0.01277603     0.03530074    -0.00611000
Spot 2    -0.01255410     0.03530416    -0.00611000
Spot 1    -0.01277609     0.03530079    -0.00611000
Spot 2    -0.01255419     0.03530401    -0.00611000
20MABNDL000196_PR012
Spot 1    -0.01397283     0.03494152    -0.00611000
Spot 2    -0.01356690     0.03562850    -0.00611000
Spot 1    -0.01397283     0.03494152    -0.00611000
Spot 2    -0.01356723     0.03562815    -0.00611000
Spot 1    -0.01397283     0.03494152    -0.00611000
Spot 2    -0.01356723     0.03562815    -0.00611000
Spot 1    -0.01397283     0.03494152    -0.00611000
Spot 2    -0.01397283     0.03494152    -0.00611000


*****************************************************************coordonnees du prisme dans le repere MOUNT********************************************************************************** 
20MABNDB000069_PR031
    0.10999375    -0.16176865     9.20229721
    0.10999375    -0.16176865     9.20229721
    0.10999375    -0.16176865     9.20229721
    0.10999375    -0.16176865     9.20229721
    0.10999375    -0.16176865     9.20229721
20MABNDB000069_PR033
   -0.02696508    -0.02592934     1.28394938
   -0.02696733    -0.02592993     1.28394938
   -0.02696742    -0.02593018     1.28394938
   -0.02696855    -0.02593056     1.28394938
   -0.02696497    -0.02593285     1.28394938
20MABNDB000131_PR032
   -0.18811856    -0.03097621    11.00641823
   -0.18812895    -0.03093754    11.00641632
   -0.18813381    -0.03099382    11.00641632
   -0.18814328    -0.03099387    11.00641632
   -0.18812011    -0.03095722    11.00641823
20MABNDB000131_PR034
    0.01417242     0.01492272     3.43339324
    0.01417745     0.01492069     3.43339324
    0.01417721     0.01492274     3.43339324
    0.01417860     0.01491887     3.43339324
    0.01417674     0.01492547     3.43339324
20MABNDA000208_PR042
    0.13154748     0.01333367     9.20146465
    0.13162109     0.01335706     9.20146275
    0.13161254     0.01332330     9.20146370
    0.13159108     0.01329136     9.20146370
    0.13161433     0.01334601     9.20146275
20MABNDA000208_PR046
   -0.02340249     0.03295313     1.28210926
   -0.02340096     0.03295527     1.28210926
   -0.02339822     0.03295459     1.28210950
   -0.02339856     0.03295245     1.28210950
   -0.02340010     0.03295450     1.28210926
20MABNDA000035_PR044
   -0.17944965     0.02824194    11.00802803
   -0.17945558     0.02823101    11.00802803
   -0.17944311     0.02823531    11.00802803
   -0.17945766     0.02824712    11.00802803
   -0.17945477     0.02824125    11.00802803
20MABNDA000035_PR045
    0.01476999    -0.01697541     3.43485355
    0.01476227    -0.01697057     3.43485379
    0.01477363    -0.01697772     3.43485355
    0.01477137    -0.01697474     3.43485355
    0.01476617    -0.01696831     3.43485379
20MABNDL000077_PR002
    0.04953218     0.02148791     3.70690966
    0.04955245     0.02146474     3.70690918
    0.04954327     0.02146014     3.70690918
    0.04954326     0.02145964     3.70690918
    0.04954399     0.02145865     3.70690918
20MABNDL000077_PR003
    0.01390657     0.03695658     3.89605379
    0.01391742     0.03695102     3.89605379
    0.01392930     0.03694364     3.89605379
    0.01392408     0.03694161     3.89605379
    0.01393253     0.03695581     3.89605379
20MABNDL000077_20MABNDM000168
   -0.00397986    -0.00497888    -5.46859360
   -0.00397805    -0.00497922    -5.46859360
   -0.00397518    -0.00497739    -5.46859360
   -0.00397732    -0.00497958    -5.46859360
   -0.00397583    -0.00498462    -5.46859360
20MABNDL000077_PR024
    0.05238549    -0.00344699    -5.89622355
    0.05237783    -0.00346032    -5.89622355
    0.05238989    -0.00345746    -5.89622355
    0.05238638    -0.00345750    -5.89622355
    0.05239480    -0.00348080    -5.89622355
20MABNDM000020_PR013
   -0.00501769     0.01219615    -3.80216837
   -0.00501838     0.01219365    -3.80216837
   -0.00502319     0.01220918    -3.80216837
   -0.00502702     0.01220314    -3.80216837
20MABNDM000020_PR014
   -0.06752878     0.03178438    -4.74799871
   -0.06754114     0.03179437    -4.74799824
   -0.06754531     0.03181357    -4.74799824
   -0.06753545     0.03178983    -4.74799824
20MABNDM000020_20MABNDL000196
   -0.02028941    -0.07985059     5.39455080
   -0.02029191    -0.07985668     5.39455080
   -0.02029836    -0.07985346     5.39455080
   -0.02601888    -0.08880403     5.39443207
20MABNDM000020_PR035
   -0.04216935    -0.05472730     5.80100012
   -0.04215702    -0.05473423     5.80100012
   -0.04214276    -0.05473307     5.80100012
   -0.04213005    -0.05473115     5.80100012
20MABNDA000188_PR008
    0.14991696    -0.08059359     9.20314789
    0.12825429    -0.07923072     9.20351982
    0.13527469    -0.09283431     9.20326233
    0.15906610    -0.09487455     9.20282555
20MABNDA000188_PR018
   -0.01704287     0.02604459     1.28357768
   -0.01704442     0.02604375     1.28357768
   -0.01704347     0.02604391     1.28357768
   -0.01704312     0.02604536     1.28357768
20MABNDA000039_PR009
   -0.17128357     0.02468855    11.00701523
   -0.17128724     0.02468492    11.00701523
   -0.17127903     0.02472583    11.00701523
   -0.17130610     0.02471937    11.00701427
20MABNDA000039_PR011
    0.03055603    -0.02468612     3.43347216
    0.03055283    -0.02468747     3.43347216
    0.03055235    -0.02469317     3.43347216
    0.03055670    -0.02468909     3.43347216
20MABNDB000155_PR020
    0.10248247    -0.00810967     9.20027733
    0.10247269    -0.00806805     9.20027733
    0.10241531    -0.00809155     9.20027924
    0.10243931    -0.00809552     9.20027924
20MABNDB000155_PR022
   -0.02513149    -0.01661578     1.28071570
   -0.02512983    -0.01661832     1.28071570
   -0.02512920    -0.01661412     1.28071570
   -0.02512985    -0.01661644     1.28071570
20MABNDB000010_PR021
   -0.17563654    -0.03432306    11.00695229
   -0.17557287    -0.03430654    11.00695324
   -0.17558424    -0.03433026    11.00695324
   -0.17556387    -0.03427404    11.00695324
20MABNDB000010_PR023
    0.00459681     0.01933450     3.43377924
    0.00459440     0.01931427     3.43377924
    0.00459916     0.01931756     3.43377924
    0.00460245     0.01932679     3.43377924
20MABNDB000212_PR029
   -0.02593143    -0.00901856     1.64223504
   -0.02593440    -0.00902029     1.64223504
   -0.02593449    -0.00901765     1.64223504
   -0.02592919    -0.00902517     1.64223504
20MABNDB000128_PR030
   -0.01873799    -0.04699680     2.95496225
   -0.01873719    -0.04700211     2.95496225
   -0.01873681    -0.04699679     2.95496225
   -0.01873759    -0.04699758     2.95496225
20MABNDA000444_PR040
   -0.02941094     0.00136537     1.64492047
   -0.02941026     0.00136362     1.64492047
   -0.02941097     0.00136723     1.64492047
   -0.02940972     0.00136418     1.64492047
20MABNDA000053_PR041
   -0.02688553     0.05104756     2.95450306
   -0.02689343     0.05104535     2.95450306
   -0.02688922     0.05103977     2.95450306
   -0.02689074     0.05104255     2.95450306
20MABNDA000196_PR006
   -0.01036747     0.01054611     1.64206481
   -0.01036219     0.01054954     1.64206481
   -0.01036729     0.01054327     1.64206481
   -0.01036978     0.01054494     1.64206481
20MABNDA000324_PR007
   -0.02513040     0.02751958     2.95549393
   -0.02512809     0.02752629     2.95549393
   -0.02513454     0.02752014     2.95549393
   -0.02513337     0.02752173     2.95549393
20MABNDB000001_PR017
   -0.02408012    -0.00359076     1.64036465
   -0.02408065    -0.00358955     1.64036465
   -0.02408131    -0.00358976     1.64036465
   -0.02407824    -0.00358881     1.64036465
20MABNDB000260_PR019
   -0.02432545    -0.03800488     2.95627809
   -0.02431116    -0.03800065     2.95627809
   -0.02432045    -0.03799887     2.95627809
   -0.02431943    -0.03800062     2.95627809
20MABNDB000135_PR027
   -0.02103521    -0.01014176     2.74937153
   -0.02103502    -0.01014066     2.74937153
   -0.02103556    -0.01013992     2.74937153
   -0.02103631    -0.01014156     2.74937153
20MABNDB000126_PR028
   -0.02033351    -0.03872867     2.14679813
   -0.02033833    -0.03873326     2.14679813
   -0.02033577    -0.03873125     2.14679813
   -0.02033904    -0.03873384     2.14679813
20MABNDA000272_PR038
   -0.01322843     0.01118982     2.74965882
   -0.01323208     0.01119935     2.74965882
   -0.01323446     0.01119753     2.74965882
   -0.01322768     0.01119623     2.74965882
20MABNDA000003_PR039
   -0.00594758     0.04106935     2.14891768
   -0.00594687     0.04106677     2.14891768
   -0.00594673     0.04106706     2.14891768
   -0.00594416     0.04106691     2.14891768
20MABNDA000318_PR004
   -0.00841747     0.03859684     2.74965692
   -0.00841787     0.03860895     2.74965692
   -0.00841731     0.03860730     2.74965692
   -0.00841804     0.03860363     2.74965692
20MABNDA000334_PR005
   -0.00425780     0.03152867     2.14977312
   -0.00426080     0.03152725     2.14977312
   -0.00426022     0.03153325     2.14977312
   -0.00426122     0.03153454     2.14977312
20MABNDB000317_PR015
   -0.01740232    -0.03433735     2.75128746
   -0.01740271    -0.03433553     2.75128746
   -0.01740597    -0.03433703     2.75128746
   -0.01740427    -0.03434229     2.75128746
20MABNDB000146_PR016
   -0.01350931    -0.03176624     2.15201306
   -0.01351218    -0.03176855     2.15201283
   -0.01351117    -0.03176796     2.15201283
   -0.01350858    -0.03176983     2.15201283
20MABNDM000168_PR025
    0.02039144    -0.06973486    -3.78849745
    0.02039144    -0.06973486    -3.78849745
    0.02039144    -0.06973486    -3.78849745
    0.02039144    -0.06973486    -3.78849745
20MABNDM000168_PR026
   -0.06774618     0.00930901    -3.98396206
   -0.06774618     0.00930901    -3.98396206
   -0.06774618     0.00930901    -3.98396206
   -0.06774618     0.00930901    -3.98396206
20MABNDM000168_20MABNDL000077
    0.01132523    -0.03904014     5.38884640
    0.01133119    -0.03905028     5.38884640
    0.01132748    -0.03903406     5.38884640
    0.01132576    -0.03905344     5.38884640
20MABNDM000168_PR001
   -0.05753762    -0.01345435     5.81470346
   -0.05751485    -0.01343491     5.81470394
   -0.05753373    -0.01342765     5.81470346
   -0.05748318    -0.01341637     5.81470394
20MABNDL000196_PR036
    0.05074832     0.00565986     3.68777585
    0.05075840     0.00564761     3.68777537
    0.05076034     0.00566160     3.68777585
    0.05075644     0.00564540     3.68777537
20MABNDL000196_PR037
   -0.02586363     0.02869196     3.88380599
   -0.02586157     0.02869688     3.88380599
   -0.02585176     0.02870465     3.88380623
   -0.02585174     0.02869405     3.88380623
20MABNDL000196_20MABNDM000020
   -0.01386148     0.03898872    -5.47473907
   -0.01384849     0.03898611    -5.47473907
   -0.01385119     0.03897743    -5.47473907
   -0.01384623     0.03898077    -5.47473907
20MABNDL000196_PR012
    0.07192458     0.04057039    -5.91515875
    0.07193753     0.04058387    -5.91515875
    0.07193753     0.04058387    -5.91515875
    0.08769429     0.06726613    -5.91482735


*****************************************************************coordonnees du prisme dans le repere ATLAS********************************************************************************** 
20MABNDB000069_PR031 0.00000000
    3.69177032     3.84800911    -7.77863359
    3.69177032     3.84800911    -7.77863359
    3.69177032     3.84800911    -7.77863359
    3.69177032     3.84800911    -7.77863359
    3.69177032     3.84800911    -7.77863359
20MABNDB000069_PR033 0.00000000
    3.53333378    -4.07045794    -7.87974215
    3.53333163    -4.07045794    -7.87974119
    3.53333163    -4.07045794    -7.87974119
    3.53333044    -4.07045794    -7.87974072
    3.53333402    -4.07045794    -7.87973833
20MABNDB000131_PR032 0.00000000
    3.86892056     3.64756799   -12.94161892
    3.86893106     3.64756608   -12.94158077
    3.86893582     3.64756608   -12.94163704
    3.86894536     3.64756608   -12.94163704
    3.86892223     3.64756799   -12.94159985
20MABNDB000131_PR034 0.00000000
    3.67361641    -3.92562366   -12.89302444
    3.67361140    -3.92562366   -12.89302731
    3.67361164    -3.92562366   -12.89302444
    3.67361021    -3.92562366   -12.89302826
    3.67361212    -3.92562366   -12.89302254
20MABNDA000208_PR042 0.00000000
   -3.68162489     3.84914351    -7.89815235
   -3.68169856     3.84914184    -7.89812899
   -3.68168998     3.84914255    -7.89816236
   -3.68166852     3.84914255    -7.89819431
   -3.68169188     3.84914160    -7.89813995
20MABNDA000208_PR046 0.00000000
   -3.53236198    -4.07031345    -7.87556505
   -3.53236365    -4.07031345    -7.87556314
   -3.53236628    -4.07031298    -7.87556362
   -3.53236604    -4.07031298    -7.87556601
   -3.53236437    -4.07031345    -7.87556362
20MABNDA000035_PR044 0.00000000
   -3.86869097     3.64758325   -12.93392086
   -3.86869693     3.64758325   -12.93391037
   -3.86868429     3.64758325   -12.93391418
   -3.86869884     3.64758325   -12.93392658
   -3.86869597     3.64758325   -12.93392086
20MABNDA000035_PR045 0.00000000
   -3.67595863    -3.92563367   -12.88940907
   -3.67596650    -3.92563343   -12.88941383
   -3.67595506    -3.92563367   -12.88940620
   -3.67595744    -3.92563367   -12.88941002
   -3.67596245    -3.92563343   -12.88941574
20MABNDL000077_PR002 0.00000000
    2.83555293    -3.69498467     6.48618984
    2.83557606    -3.69496441     6.48618937
    2.83558059    -3.69497371     6.48618937
    2.83558130    -3.69497371     6.48618937
    2.83558226    -3.69497299     6.48618937
20MABNDL000077_PR003 0.00000000
    2.82025838    -3.73083878     6.67530489
    2.82026410    -3.73082805     6.67530489
    2.82027149    -3.73081613     6.67530489
    2.82027340    -3.73082137     6.67530489
    2.82025909    -3.73081279     6.67530489
20MABNDL000077_20MABNDM000168 0.00000000
    2.85300255    -3.73718452    -2.68939376
    2.85300303    -3.73718262    -2.68939376
    2.85300112    -3.73717976    -2.68939376
    2.85300326    -3.73718190    -2.68939376
    2.85300827    -3.73718047    -2.68939376
20MABNDL000077_PR024 0.00000000
    2.85106921    -3.68029118    -3.11695218
    2.85108256    -3.68029881    -3.11695218
    2.85107970    -3.68028665    -3.11695218
    2.85107970    -3.68029022    -3.11695218
    2.85110307    -3.68028188    -3.11695218
20MABNDM000020_PR013 0.00000000
   -2.86450505    -3.73445678     6.48601818
   -2.86450267    -3.73445606     6.48601818
   -2.86451817    -3.73445129     6.48601818
   -2.86451221    -3.73444748     6.48601818
20MABNDM000020_PR014 0.00000000
   -2.88388491    -3.67265916     7.43189955
   -2.88389492    -3.67264676     7.43189907
   -2.88391423    -3.67264247     7.43189907
   -2.88389039    -3.67265248     7.43189907
20MABNDM000020_20MABNDL000196 0.00000000
   -2.77429414    -3.71221876    -2.71070528
   -2.77428818    -3.71221638    -2.71070528
   -2.77429128    -3.71220994    -2.71070528
   -2.76533890    -3.70649219    -2.71058393
20MABNDM000020_PR035 0.00000000
   -2.79949212    -3.69002199    -3.11713266
   -2.79948521    -3.69003439    -3.11713266
   -2.79948640    -3.69004869    -3.11713266
   -2.79948831    -3.69006133    -3.11713266
20MABNDA000188_PR008 0.00000000
    3.56290793     3.84892488     8.09218216
    3.54126501     3.84898019     8.09049606
    3.54808426     3.84868002     8.10420036
    3.57184649     3.84858489     8.10659599
20MABNDA000188_PR018 0.00000000
    3.52009773    -4.07061195     7.89739132
    3.52009606    -4.07061195     7.89739180
    3.52009702    -4.07061195     7.89739180
    3.52009749    -4.07061195     7.89739037
20MABNDA000039_PR009 0.00000000
    3.87545562     3.64747357    12.93598270
    3.87545919     3.64747357    12.93597889
    3.87545109     3.64747357    12.93601990
    3.87547827     3.64747238    12.93601322
20MABNDA000039_PR011 0.00000000
    3.66446805    -3.92580390    12.88415051
    3.66447139    -3.92580390    12.88414955
    3.66447186    -3.92580390    12.88414383
    3.66446733    -3.92580390    12.88414764
20MABNDB000155_PR020 0.00000000
   -3.68113518     3.84880972     7.89875746
   -3.68112540     3.84880972     7.89879894
   -3.68106794     3.84881163     7.89877558
   -3.68109202     3.84881163     7.89877129
20MABNDB000155_PR022 0.00000000
   -3.53484941    -4.07043028     7.89144325
   -3.53485107    -4.07043028     7.89144087
   -3.53485155    -4.07043028     7.89144516
   -3.53485107    -4.07043028     7.89144278
20MABNDB000010_PR021 0.00000000
   -3.86147332     3.64768982    12.93615246
   -3.86140966     3.64769053    12.93613529
   -3.86142087     3.64769077    12.93615913
   -3.86140060     3.64769053    12.93610287
20MABNDB000010_PR023 0.00000000
   -3.68506885    -3.92559719    12.88594055
   -3.68507123    -3.92559719    12.88596153
   -3.68506646    -3.92559719    12.88595772
   -3.68506312    -3.92559719    12.88594913
20MABNDB000212_PR029 0.00000000
    2.59960914    -4.19501305    -6.54800653
    2.59961224    -4.19501305    -6.54800797
    2.59961224    -4.19501305    -6.54800558
    2.59960699    -4.19501305    -6.54801321
20MABNDB000128_PR030 0.00000000
    2.61012077    -4.14002800    -6.93112421
    2.61012149    -4.14002800    -6.93111897
    2.61012197    -4.14002800    -6.93112421
    2.61012101    -4.14002800    -6.93112326
20MABNDA000444_PR040 0.00000000
   -2.60458350    -4.19508886    -6.54054546
   -2.60458279    -4.19508886    -6.54054403
   -2.60458350    -4.19508886    -6.54054737
   -2.60458231    -4.19508886    -6.54054451
20MABNDA000053_PR041 0.00000000
   -2.59365630    -4.14012814    -6.92686605
   -2.59364843    -4.14012814    -6.92686796
   -2.59365273    -4.14012814    -6.92687368
   -2.59365129    -4.14012814    -6.92687082
20MABNDA000196_PR006 0.00000000
    2.58482790    -4.19496298     6.54850245
    2.58482265    -4.19496298     6.54850626
    2.58482766    -4.19496298     6.54849958
    2.58483028    -4.19496298     6.54850149
20MABNDA000324_PR007 0.00000000
    2.59418440    -4.13996410     6.94839573
    2.59418678    -4.13996410     6.94838905
    2.59418035    -4.13996410     6.94839478
    2.59418130    -4.13996410     6.94839334
20MABNDB000001_PR017 0.00000000
   -2.59778166    -4.19505072     6.53891897
   -2.59778214    -4.19505072     6.53891754
   -2.59778285    -4.19505072     6.53891802
   -2.59777975    -4.19505119     6.53891706
20MABNDB000260_PR019 0.00000000
   -2.60443664    -4.13995647     6.94263887
   -2.60445094    -4.13995647     6.94264317
   -2.60444164    -4.13995647     6.94264507
   -2.60444260    -4.13995647     6.94264317
20MABNDB000135_PR027 0.00000000
    2.60382795    -4.19700384    -3.82521915
    2.60382819    -4.19700384    -3.82522011
    2.60382771    -4.19700384    -3.82522106
    2.60382700    -4.19700384    -3.82521939
20MABNDB000126_PR028 0.00000000
    2.60558367    -4.19701910    -5.89349127
    2.60557890    -4.19701910    -5.89348650
    2.60558128    -4.19701910    -5.89348841
    2.60557818    -4.19701910    -5.89348602
20MABNDA000272_PR038 0.00000000
   -2.61130834    -4.19698286    -3.82729459
   -2.61130476    -4.19698286    -3.82728505
   -2.61130238    -4.19698286    -3.82728672
   -2.61130905    -4.19698286    -3.82728815
20MABNDA000003_PR039 0.00000000
   -2.61578345    -4.19701958    -5.89169741
   -2.61578417    -4.19701958    -5.89169979
   -2.61578441    -4.19701958    -5.89169979
   -2.61578703    -4.19701958    -5.89169979
20MABNDA000318_PR004 0.00000000
    2.61458564    -4.19698811     3.83340168
    2.61458540    -4.19698811     3.83338976
    2.61458588    -4.19698811     3.83339143
    2.61458516    -4.19698811     3.83339500
20MABNDA000334_PR005 0.00000000
    2.61674070    -4.19703007     5.89773226
    2.61673784    -4.19703007     5.89773369
    2.61673832    -4.19703007     5.89772749
    2.61673737    -4.19703007     5.89772654
20MABNDB000317_PR015 0.00000000
   -2.61120486    -4.19700384     3.83567810
   -2.61120439    -4.19700384     3.83568001
   -2.61120129    -4.19700384     3.83567834
   -2.61120296    -4.19700384     3.83567309
20MABNDB000146_PR016 0.00000000
   -2.61278582    -4.19702482     5.89858389
   -2.61278296    -4.19702482     5.89858150
   -2.61278415    -4.19702482     5.89858246
   -2.61278653    -4.19702482     5.89858055
20MABNDM000168_PR025 0.00000000
    2.78350139    -3.76570773    -6.47911263
    2.78350139    -3.76570773    -6.47911263
    2.78350139    -3.76570773    -6.47911263
    2.78350139    -3.76570773    -6.47911263
20MABNDM000168_PR026 0.00000000
    2.86255670    -3.67766356    -6.67461491
    2.86255670    -3.67766356    -6.67461491
    2.86255670    -3.67766356    -6.67461491
    2.86255670    -3.67766356    -6.67461491
20MABNDM000168_20MABNDL000077 0.00000000
    2.81475544    -3.75323725     2.69822550
    2.81474519    -3.75324321     2.69822550
    2.81476140    -3.75323939     2.69822550
    2.81474209    -3.75323772     2.69822550
20MABNDM000168_PR001 0.00000000
    2.84038520    -3.68422294     3.12405539
    2.84040475    -3.68424559     3.12405586
    2.84041190    -3.68422675     3.12405539
    2.84042335    -3.68427730     3.12405586
20MABNDL000196_PR036 0.00000000
   -2.84794736    -3.69352627    -6.47909880
   -2.84795952    -3.69351625    -6.47909832
   -2.84794569    -3.69351435    -6.47909880
   -2.84796190    -3.69351816    -6.47909832
20MABNDL000196_PR037 0.00000000
   -2.82488394    -3.77030993    -6.67505789
   -2.82487893    -3.77030778    -6.67505789
   -2.82487130    -3.77029800    -6.67505836
   -2.82488179    -3.77029800    -6.67505836
20MABNDL000196_20MABNDM000020 0.00000000
   -2.81439042    -3.74959755     2.68347168
   -2.81439304    -3.74958467     2.68347168
   -2.81440187    -3.74958730     2.68347168
   -2.81439853    -3.74958229     2.68347168
20MABNDL000196_PR012 0.00000000
   -2.81283927    -3.66340113     3.12381124
   -2.81282568    -3.66338825     3.12381124
   -2.81282568    -3.66338825     3.12381124
   -2.78615069    -3.64761949     3.12346458


*****************************************************************Rapport********************************************************************************** 
CAM-ECTC-US-IP_ECTC-US-IP-T    2016.04.21.18.01.14     3.69177032     3.84800911    -7.77863359     0.00000000     0.00000000     0.00000000 0.00000000 VRAI 
CAM-ECTC-US-IP_ECTC-US-IP      2016.04.21.18.01.14     3.53333230    -4.07045794    -7.87974072     0.00000138     0.00000000     0.00000128 0.00000000 VRAI 
CAM-ECTC-US-HO_ECTC-US-HO-T    2016.04.21.18.01.14     3.86893101     3.64756684   -12.94161472     0.00000911     0.00000093     0.00002185 0.00000000 VRAI 
CAM-ECTC-US-HO_ECTC-US-HO      2016.04.21.18.01.14     3.67361236    -3.92562366   -12.89302540     0.00000212     0.00000000     0.00000209 0.00000000 VRAI 
CAM-ECTC-USA-IP_ECTC-USA-IP-T  2016.04.21.18.01.14    -3.68167477     3.84914241    -7.89815559     0.00002690     0.00000067     0.00002240 0.00000000 VRAI 
CAM-ECTC-USA-IP_ECTC-USA-IP    2016.04.21.18.01.14    -3.53236446    -4.07031326    -7.87556429     0.00000159     0.00000023     0.00000107 0.00000000 VRAI 
CAM-ECTC-USA-HO_ECTC-USA-HO-T  2016.04.21.18.01.14    -3.86869340     3.64758325   -12.93391857     0.00000524     0.00000000     0.00000568 0.00000000 VRAI 
CAM-ECTC-USA-HO_ECTC-USA-HO    2016.04.21.18.01.14    -3.67596002    -3.92563357   -12.88941097     0.00000403     0.00000012     0.00000341 0.00000000 VRAI 
CAM-LBA-US_EBA-US-HO-H         2016.04.21.18.01.14     2.83557463    -3.69497390     6.48618946     0.00001106     0.00000644     0.00000019 0.00000000 VRAI 
CAM-LBA-US_JDA-US-H            2016.04.21.18.01.14     2.82026529    -3.73082342     6.67530489     0.00000619     0.00000925     0.00000000 0.00000000 VRAI 
CAM-LBA-US_CAM-LBC-US          2016.04.21.18.01.14     2.85300364    -3.73718185    -2.68939376     0.00000243     0.00000168     0.00000000 0.00000000 VRAI 
CAM-LBA-US_EBC-US-IP-H         2016.04.21.18.01.14     2.85108285    -3.68028975    -3.11695218     0.00001109     0.00000558     0.00000000 0.00000000 VRAI 
CAM-LBA-USA_EBA-USA-HO-H       2016.04.21.18.01.14    -2.86450952    -3.73445290     6.48601818     0.00000610     0.00000377     0.00000000 0.00000000 VRAI 
CAM-LBA-USA_JDA-USA-H          2016.04.21.18.01.14    -2.88389611    -3.67265022     7.43189919     0.00001105     0.00000627     0.00000021 0.00000000 VRAI 
CAM-LBA-USA_CAM-LBC-USA        2016.04.21.18.01.14    -2.77205312    -3.71078432    -2.71067494     0.00387646     0.00247806     0.00005255 0.00000000 VRAI 
CAM-LBA-USA_EBC-USA-IP-H       2016.04.21.18.01.14    -2.79948801    -3.69004160    -3.11713266     0.00000262     0.00001480     0.00000000 0.00000000 VRAI 
CAM-ECTA-US-IP_ECTA-US-IP-T    2016.04.21.18.01.14     3.55602592     3.84879249     8.09836864     0.01202712     0.00016470     0.00710543 0.00000000 VRAI 
CAM-ECTA-US-IP_ECTA-US-IP      2016.04.21.18.01.14     3.52009708    -4.07061195     7.89739132     0.00000064     0.00000000     0.00000058 0.00000000 VRAI 
CAM-ECTA-US-HO_ECTA-US-HO-T    2016.04.21.18.01.14     3.87546104     3.64747328    12.93599868     0.00001035     0.00000052     0.00001809 0.00000000 VRAI 
CAM-ECTA-US-HO_ECTA-US-HO      2016.04.21.18.01.14     3.66446966    -3.92580390    12.88414788     0.00000199     0.00000000     0.00000256 0.00000000 VRAI 
CAM-ECTA-USA-IP_ECTA-USA-IP-T  2016.04.21.18.01.14    -3.68110514     3.84881067     7.89877582     0.00002678     0.00000095     0.00001494 0.00000000 VRAI 
CAM-ECTA-USA-IP_ECTA-USA-IP    2016.04.21.18.01.14    -3.53485078    -4.07043028     7.89144301     0.00000082     0.00000000     0.00000153 0.00000000 VRAI 
CAM-ECTA-USA-HO_ECTA-USA-HO-T  2016.04.21.18.01.14    -3.86142612     3.64769042    12.93613744     0.00002818     0.00000036     0.00002177 0.00000000 VRAI 
CAM-ECTA-USA-HO_ECTA-USA-HO    2016.04.21.18.01.14    -3.68506742    -3.92559719    12.88595223     0.00000300     0.00000000     0.00000810 0.00000000 VRAI 
CAM-JDC-US-IP_JDC-US-IP        2016.04.21.18.01.14     2.59961015    -4.19501305    -6.54800832     0.00000222     0.00000000     0.00000295 0.00000000 VRAI 
CAM-JDC-US-HO_JDC-US-HO        2016.04.21.18.01.14     2.61012131    -4.14002800    -6.93112266     0.00000046     0.00000000     0.00000217 0.00000000 VRAI 
CAM-JDC-USA-IP_JDC-USA-IP      2016.04.21.18.01.14    -2.60458302    -4.19508886    -6.54054534     0.00000051     0.00000000     0.00000128 0.00000000 VRAI 
CAM-JDC-USA-HO_JDC-USA-HO      2016.04.21.18.01.14    -2.59365219    -4.14012814    -6.92686963     0.00000283     0.00000000     0.00000289 0.00000000 VRAI 
CAM-JDA-US-IP_JDA-US-IP        2016.04.21.18.01.14     2.58482713    -4.19496298     6.54850245     0.00000278     0.00000000     0.00000243 0.00000000 VRAI 
CAM-JDA-US-HO_JDA-US-HO        2016.04.21.18.01.14     2.59418321    -4.13996410     6.94839323     0.00000255     0.00000000     0.00000255 0.00000000 VRAI 
CAM-JDA-USA-IP_JDA-USA-IP      2016.04.21.18.01.14    -2.59778160    -4.19505084     6.53891790     0.00000115     0.00000021     0.00000071 0.00000000 VRAI 
CAM-JDA-USA-HO_JDA-USA-HO      2016.04.21.18.01.14    -2.60444295    -4.13995647     6.94264257     0.00000514     0.00000000     0.00000227 0.00000000 VRAI 
CAM-EBC-US-IP_EBC-US-IP        2016.04.21.18.01.14     2.60382771    -4.19700384    -3.82521993     0.00000045     0.00000000     0.00000074 0.00000000 VRAI 
CAM-EBC-US-HO_EBC-US-HO        2016.04.21.18.01.14     2.60558051    -4.19701910    -5.89348805     0.00000215     0.00000000     0.00000206 0.00000000 VRAI 
CAM-EBC-USA-IP_EBC-USA-IP      2016.04.21.18.01.14    -2.61130613    -4.19698286    -3.82728863     0.00000271     0.00000000     0.00000361 0.00000000 VRAI 
CAM-EBC-USA-HO_EBC-USA-HO      2016.04.21.18.01.14    -2.61578476    -4.19701958    -5.89169919     0.00000135     0.00000000     0.00000103 0.00000000 VRAI 
CAM-EBA-US-IP_EBA-US-IP        2016.04.21.18.01.14     2.61458552    -4.19698811     3.83339447     0.00000027     0.00000000     0.00000457 0.00000000 VRAI 
CAM-EBA-US-HO_EBA-US-HO        2016.04.21.18.01.14     2.61673856    -4.19703007     5.89772999     0.00000128     0.00000000     0.00000304 0.00000000 VRAI 
CAM-EBA-USA-IP_EBA-USA-IP      2016.04.21.18.01.14    -2.61120337    -4.19700384     3.83567739     0.00000139     0.00000000     0.00000258 0.00000000 VRAI 
CAM-EBA-USA-HO_EBA-USA-HO      2016.04.21.18.01.14    -2.61278486    -4.19702482     5.89858210     0.00000140     0.00000000     0.00000123 0.00000000 VRAI 
CAM-LBC-US_EBC-US-HO-H         2016.04.21.18.01.14     2.78350139    -3.76570773    -6.47911263     0.00000000     0.00000000     0.00000000 0.00000000 VRAI 
CAM-LBC-US_JDC-US-H            2016.04.21.18.01.14     2.86255670    -3.67766356    -6.67461491     0.00000000     0.00000000     0.00000000 0.00000000 VRAI 
CAM-LBC-US_CAM-LBA-US          2016.04.21.18.01.14     2.81475103    -3.75323939     2.69822550     0.00000776     0.00000234     0.00000000 0.00000000 VRAI 
CAM-LBC-US_EBA-US-IP-H         2016.04.21.18.01.14     2.84040630    -3.68424314     3.12405562     0.00001387     0.00002150     0.00000024 0.00000000 VRAI 
CAM-LBC-USA_EBC-USA-HO-H       2016.04.21.18.01.14    -2.84795362    -3.69351876    -6.47909856     0.00000717     0.00000454     0.00000024 0.00000000 VRAI 
CAM-LBC-USA_JDC-USA-H          2016.04.21.18.01.14    -2.82487899    -3.77030343    -6.67505813     0.00000478     0.00000548     0.00000024 0.00000000 VRAI 
CAM-LBC-USA_CAM-LBA-USA        2016.04.21.18.01.14    -2.81439596    -3.74958795     2.68347168     0.00000449     0.00000582     0.00000000 0.00000000 VRAI 
CAM-LBC-USA_EBA-USA-IP-H       2016.04.21.18.01.14    -2.80616033    -3.65944928     3.12372458     0.01155257     0.00682994     0.00015011 0.00000000 VRAI 
