********** Fichier qui contient une sauvegarde des coordonnees images + coordonnees images transformees dans le repere BCAM (MOUNT) + coordonnees des prismes dans le repere MOUNT********** 
********************************************************************** Unite en metres (m)************************************************************************************************** 

*******************************************************************coordonnees images dans le repere CCD *********************************************************************************** 
20MABNDB000069_PR031
Spot 1     0.00028373     0.00141237
Spot 2     0.00035618     0.00141170
Spot 1     0.00028332     0.00141210
Spot 2     0.00035614     0.00141136
Spot 1     0.00028367     0.00141220
Spot 2     0.00035734     0.00141182
Spot 1     0.00028319     0.00141248
Spot 2     0.00035712     0.00141182
Spot 1     0.00028315     0.00141181
Spot 2     0.00035733     0.00141193
20MABNDB000069_PR033
Spot 1     0.00183380     0.00201271
Spot 2     0.00230355     0.00203236
Spot 1     0.00183383     0.00201261
Spot 2     0.00230375     0.00203238
Spot 1     0.00183401     0.00201301
Spot 2     0.00230387     0.00203242
Spot 1     0.00183382     0.00201270
Spot 2     0.00230366     0.00203238
Spot 1     0.00183395     0.00201284
Spot 2     0.00230366     0.00203252
20MABNDB000131_PR032
Spot 1     0.00277873     0.00108545
Spot 2     0.00283835     0.00108889
Spot 1     0.00277837     0.00108525
Spot 2     0.00283864     0.00108846
Spot 1     0.00277868     0.00108521
Spot 2     0.00283828     0.00108865
Spot 1     0.00277857     0.00108543
Spot 2     0.00283833     0.00108885
Spot 1     0.00277857     0.00108550
Spot 2     0.00283818     0.00108865
20MABNDB000131_PR034
Spot 1     0.00092740     0.00035776
Spot 2     0.00110353     0.00035669
Spot 1     0.00092736     0.00035791
Spot 2     0.00110334     0.00035666
Spot 1     0.00092706     0.00035783
Spot 2     0.00110316     0.00035666
Spot 1     0.00092733     0.00035774
Spot 2     0.00110345     0.00035669
Spot 1     0.00092709     0.00035814
Spot 2     0.00110331     0.00035683
20MABNDA000208_PR042
Spot 1     0.00305485     0.00094196
Spot 2     0.00298864     0.00094196
Spot 1     0.00305462     0.00094208
Spot 2     0.00298812     0.00094213
Spot 1     0.00305615     0.00094216
Spot 2     0.00298887     0.00094192
Spot 1     0.00305396     0.00094170
Spot 2     0.00298873     0.00094217
Spot 1     0.00305550     0.00094285
Spot 2     0.00298937     0.00094223
20MABNDA000208_PR046
Spot 1     0.00145690     0.00210478
Spot 2     0.00098271     0.00210750
Spot 1     0.00145671     0.00210456
Spot 2     0.00098232     0.00210899
Spot 1     0.00145669     0.00210517
Spot 2     0.00098273     0.00210871
Spot 1     0.00145675     0.00210475
Spot 2     0.00098312     0.00210751
Spot 1     0.00145670     0.00210517
Spot 2     0.00098312     0.00210777
20MABNDA000035_PR044
Spot 1     0.00074025     0.00126633
Spot 2     0.00068532     0.00126030
Spot 1     0.00074037     0.00126626
Spot 2     0.00068552     0.00126037
Spot 1     0.00074032     0.00126623
Spot 2     0.00068506     0.00126055
Spot 1     0.00074071     0.00126614
Spot 2     0.00068522     0.00126059
Spot 1     0.00074032     0.00126658
Spot 2     0.00068569     0.00126059
20MABNDA000035_PR045
Spot 1     0.00254804     0.00051306
Spot 2     0.00237122     0.00051158
Spot 1     0.00254802     0.00051314
Spot 2     0.00237126     0.00051156
Spot 1     0.00254823     0.00051313
Spot 2     0.00237117     0.00051152
Spot 1     0.00254866     0.00051322
Spot 2     0.00237133     0.00051164
Spot 1     0.00254818     0.00051322
Spot 2     0.00237141     0.00051172
20MABNDL000077_PR002
Spot 1     0.00079483     0.00149483
Spot 2     0.00095685     0.00149616
Spot 1     0.00079472     0.00149483
Spot 2     0.00095663     0.00149634
Spot 1     0.00079471     0.00149506
Spot 2     0.00095674     0.00149623
Spot 1     0.00079449     0.00149640
Spot 2     0.00095678     0.00149607
Spot 1     0.00079453     0.00149639
Spot 2     0.00095680     0.00149548
20MABNDL000077_PR003
Spot 1     0.00152555     0.00118931
Spot 2     0.00167708     0.00119134
Spot 1     0.00152546     0.00118931
Spot 2     0.00167658     0.00119128
Spot 1     0.00152554     0.00118952
Spot 2     0.00167686     0.00119158
Spot 1     0.00152563     0.00118907
Spot 2     0.00167661     0.00119182
Spot 1     0.00152586     0.00118899
Spot 2     0.00167684     0.00119137
20MABNDL000077_20MABNDM000168
Spot 1     0.00188361     0.00148476
Spot 2     0.00167891     0.00159783
Spot 1     0.00188373     0.00148476
Spot 2     0.00320500     0.00052500
Spot 1     0.00188368     0.00148506
Spot 2     0.00167936     0.00159731
Spot 1     0.00188360     0.00148506
Spot 2     0.00320500     0.00052500
Spot 1     0.00188363     0.00148513
Spot 2     0.00167947     0.00159737
20MABNDL000077_PR024
Spot 1     0.00262712     0.00171337
Spot 2     0.00272966     0.00171826
Spot 1     0.00262754     0.00171350
Spot 2     0.00272928     0.00171847
Spot 1     0.00262754     0.00171373
Spot 2     0.00272940     0.00171840
Spot 1     0.00262763     0.00171389
Spot 2     0.00272936     0.00171856
20MABNDM000020_PR013
Spot 1     0.00164289     0.00213847
Spot 2     0.00148985     0.00214441
Spot 1     0.00164212     0.00213846
Spot 2     0.00148999     0.00214432
Spot 1     0.00164168     0.00213885
Spot 2     0.00148940     0.00214481
Spot 1     0.00164228     0.00213836
Spot 2     0.00148961     0.00214454
20MABNDM000020_PR014
Spot 1     0.00268003     0.00227836
Spot 2     0.00251817     0.00228622
Spot 1     0.00267962     0.00227800
Spot 2     0.00251715     0.00228583
Spot 1     0.00267989     0.00227906
Spot 2     0.00251733     0.00228578
Spot 1     0.00267965     0.00227815
Spot 2     0.00251705     0.00228669
20MABNDM000020_20MABNDL000196
Spot 1     0.00200138     0.00057955
Spot 2     0.00096500     0.00046500
Spot 1     0.00200134     0.00057958
Spot 2     0.00080500     0.00021500
Spot 1     0.00200147     0.00057931
Spot 2     0.00080500     0.00021500
Spot 1     0.00200120     0.00057936
Spot 2     0.00080500     0.00021500
20MABNDM000020_PR035
Spot 1     0.00126757     0.00087572
Spot 2     0.00119574     0.00090741
Spot 1     0.00126789     0.00087523
Spot 2     0.00119582     0.00090722
Spot 1     0.00126902     0.00087492
Spot 2     0.00119606     0.00090719
Spot 1     0.00126849     0.00087471
Spot 2     0.00119583     0.00090690
20MABNDA000188_PR008
Spot 1     0.00283500     0.00012500
Spot 2     0.00290500     0.00003833
Spot 1     0.00313500     0.00066500
Spot 2     0.00283500     0.00012167
Spot 1     0.00283833     0.00012167
Spot 2     0.00313500     0.00066500
Spot 1     0.00283500     0.00012500
Spot 2     0.00283500     0.00012500
20MABNDA000188_PR018
Spot 1     0.00164833     0.00175014
Spot 2     0.00118102     0.00174777
Spot 1     0.00164808     0.00175019
Spot 2     0.00118092     0.00174782
Spot 1     0.00164829     0.00175012
Spot 2     0.00118098     0.00174775
Spot 1     0.00164828     0.00175019
Spot 2     0.00118100     0.00174780
20MABNDA000039_PR009
Spot 1     0.00066178     0.00117310
Spot 2     0.00061473     0.00117725
Spot 1     0.00066215     0.00117313
Spot 2     0.00061483     0.00117731
Spot 1     0.00066211     0.00117338
Spot 2     0.00061465     0.00117756
Spot 1     0.00066229     0.00117328
Spot 2     0.00061479     0.00117745
20MABNDA000039_PR011
Spot 1     0.00276282     0.00027742
Spot 2     0.00258803     0.00027267
Spot 1     0.00276268     0.00027743
Spot 2     0.00258770     0.00027266
Spot 1     0.00276288     0.00027742
Spot 2     0.00258790     0.00027265
Spot 1     0.00276304     0.00027742
Spot 2     0.00258801     0.00027275
20MABNDB000155_PR020
Spot 1     0.00061679     0.00112375
Spot 2     0.00068138     0.00112020
Spot 1     0.00061737     0.00112315
Spot 2     0.00068080     0.00111942
Spot 1     0.00061787     0.00112401
Spot 2     0.00068204     0.00112002
Spot 1     0.00061808     0.00112365
Spot 2     0.00068160     0.00111998
20MABNDB000155_PR022
Spot 1     0.00208349     0.00134930
Spot 2     0.00255676     0.00134468
Spot 1     0.00208349     0.00134919
Spot 2     0.00255688     0.00134460
Spot 1     0.00208354     0.00134938
Spot 2     0.00255690     0.00134476
Spot 1     0.00208347     0.00134937
Spot 2     0.00255686     0.00134451
20MABNDB000010_PR021
Spot 1     0.00286632     0.00115646
Spot 2     0.00292034     0.00115900
Spot 1     0.00286649     0.00115705
Spot 2     0.00292018     0.00115880
Spot 1     0.00286628     0.00115689
Spot 2     0.00292041     0.00115937
Spot 1     0.00286645     0.00115667
Spot 2     0.00292015     0.00115919
20MABNDB000010_PR023
Spot 1     0.00130681     0.00033173
Spot 2     0.00148162     0.00032995
Spot 1     0.00130726     0.00033146
Spot 2     0.00148179     0.00032983
Spot 1     0.00130695     0.00033154
Spot 2     0.00148148     0.00033000
Spot 1     0.00130698     0.00033150
Spot 2     0.00148165     0.00032972
20MABNDB000212_PR029
Spot 1     0.00226251     0.00072516
Spot 2     0.00189600     0.00072500
Spot 1     0.00226262     0.00072516
Spot 2     0.00189568     0.00072517
Spot 1     0.00226240     0.00072521
Spot 2     0.00189552     0.00072534
Spot 1     0.00226223     0.00072521
Spot 2     0.00189585     0.00072517
20MABNDB000128_PR030
Spot 1     0.00188650     0.00200650
Spot 2     0.00209019     0.00200146
Spot 1     0.00188607     0.00200666
Spot 2     0.00209022     0.00200140
Spot 1     0.00188620     0.00200680
Spot 2     0.00209027     0.00200158
Spot 1     0.00188660     0.00200680
Spot 2     0.00209021     0.00200154
20MABNDA000444_PR040
Spot 1     0.00078269     0.00037326
Spot 2     0.00114867     0.00037083
Spot 1     0.00078231     0.00037332
Spot 2     0.00114879     0.00037069
Spot 1     0.00078246     0.00037308
Spot 2     0.00114871     0.00037081
Spot 1     0.00078262     0.00037320
Spot 2     0.00114861     0.00037057
20MABNDA000053_PR041
Spot 1     0.00164513     0.00199033
Spot 2     0.00144225     0.00198720
Spot 1     0.00164496     0.00199021
Spot 2     0.00144224     0.00198694
Spot 1     0.00164518     0.00198996
Spot 2     0.00144205     0.00198707
Spot 1     0.00164533     0.00199044
Spot 2     0.00144215     0.00198697
20MABNDA000196_PR006
Spot 1     0.00198578     0.00075860
Spot 2     0.00161995     0.00075602
Spot 1     0.00198576     0.00075882
Spot 2     0.00161995     0.00075604
Spot 1     0.00198559     0.00075882
Spot 2     0.00162009     0.00075567
Spot 1     0.00198578     0.00075856
Spot 2     0.00162003     0.00075600
20MABNDA000324_PR007
Spot 1     0.00195145     0.00120421
Spot 2     0.00174605     0.00121008
Spot 1     0.00195139     0.00120422
Spot 2     0.00174619     0.00121017
Spot 1     0.00195141     0.00120428
Spot 2     0.00174629     0.00121010
Spot 1     0.00195122     0.00120421
Spot 2     0.00174653     0.00121011
20MABNDB000001_PR017
Spot 1     0.00188562     0.00047165
Spot 2     0.00225440     0.00048187
Spot 1     0.00188556     0.00047161
Spot 2     0.00225463     0.00048175
Spot 1     0.00188557     0.00047168
Spot 2     0.00225452     0.00048167
Spot 1     0.00188551     0.00047166
Spot 2     0.00225458     0.00048194
20MABNDB000260_PR019
Spot 1     0.00192000     0.00149489
Spot 2     0.00212394     0.00149457
Spot 1     0.00192034     0.00149505
Spot 2     0.00212394     0.00149457
Spot 1     0.00191995     0.00149479
Spot 2     0.00212394     0.00149457
Spot 1     0.00192015     0.00149466
Spot 2     0.00212333     0.00149426
20MABNDB000135_PR027
Spot 1     0.00189110     0.00092367
Spot 2     0.00210954     0.00092658
Spot 1     0.00189108     0.00092368
Spot 2     0.00210967     0.00092638
Spot 1     0.00189118     0.00092388
Spot 2     0.00210972     0.00092639
Spot 1     0.00189118     0.00092391
Spot 2     0.00210983     0.00092661
20MABNDB000126_PR028
Spot 1     0.00164428     0.00200136
Spot 2     0.00192652     0.00200371
Spot 1     0.00164438     0.00200161
Spot 2     0.00192640     0.00200399
Spot 1     0.00164456     0.00200144
Spot 2     0.00192647     0.00200383
Spot 1     0.00164430     0.00200153
Spot 2     0.00192645     0.00200390
20MABNDA000272_PR038
Spot 1     0.00192367     0.00096294
Spot 2     0.00170179     0.00096124
Spot 1     0.00192365     0.00096285
Spot 2     0.00170155     0.00096128
Spot 1     0.00192391     0.00096269
Spot 2     0.00170208     0.00096160
Spot 1     0.00192372     0.00096258
Spot 2     0.00170154     0.00096106
20MABNDA000003_PR039
Spot 1     0.00200171     0.00192056
Spot 2     0.00227912     0.00192091
Spot 1     0.00200176     0.00192060
Spot 2     0.00227912     0.00192098
Spot 1     0.00200161     0.00192059
Spot 2     0.00227902     0.00192101
Spot 1     0.00200179     0.00192067
Spot 2     0.00227905     0.00192099
20MABNDA000318_PR004
Spot 1     0.00214736     0.00163211
Spot 2     0.00192924     0.00163288
Spot 1     0.00214740     0.00163190
Spot 2     0.00192935     0.00163271
Spot 1     0.00214730     0.00163208
Spot 2     0.00192929     0.00163298
Spot 1     0.00214696     0.00163210
Spot 2     0.00192936     0.00163257
20MABNDA000334_PR005
Spot 1     0.00247425     0.00158077
Spot 2     0.00219388     0.00158112
Spot 1     0.00247448     0.00158054
Spot 2     0.00219401     0.00158093
Spot 1     0.00247459     0.00158070
Spot 2     0.00219389     0.00158100
Spot 1     0.00247453     0.00158063
Spot 2     0.00219394     0.00158098
20MABNDB000317_PR015
Spot 1     0.00148782     0.00160960
Spot 2     0.00170769     0.00160378
Spot 1     0.00148766     0.00160968
Spot 2     0.00170762     0.00160379
Spot 1     0.00148766     0.00160966
Spot 2     0.00170769     0.00160360
Spot 1     0.00148727     0.00160972
Spot 2     0.00170774     0.00160390
20MABNDB000146_PR016
Spot 1     0.00144650     0.00133243
Spot 2     0.00172145     0.00133459
Spot 1     0.00144637     0.00133245
Spot 2     0.00172144     0.00133458
Spot 1     0.00144635     0.00133236
Spot 2     0.00172143     0.00133465
Spot 1     0.00144649     0.00133231
Spot 2     0.00172146     0.00133421
20MABNDM000168_PR025
Spot 1     0.00136500     0.00213500
Spot 2     0.00136500     0.00213500
Spot 1     0.00105500     0.00031500
Spot 2     0.00105500     0.00031500
Spot 1     0.00136500     0.00213500
Spot 2     0.00136500     0.00213500
Spot 1     0.00136500     0.00213500
Spot 2     0.00136500     0.00213500
20MABNDM000168_PR026
Spot 1     0.00331500     0.00129500
Spot 2     0.00331500     0.00129500
Spot 1     0.00331500     0.00129500
Spot 2     0.00331500     0.00129500
Spot 1     0.00242500     0.00006500
Spot 2     0.00242500     0.00006500
Spot 1     0.00242500     0.00006500
Spot 2     0.00242500     0.00006500
20MABNDM000168_20MABNDL000077
Spot 1     0.00153768     0.00129690
Spot 2     0.00175536     0.00130000
Spot 1     0.00153764     0.00129687
Spot 2     0.00175545     0.00129997
Spot 1     0.00153786     0.00129670
Spot 2     0.00175546     0.00129964
Spot 1     0.00153763     0.00129690
Spot 2     0.00175531     0.00129980
20MABNDM000168_PR001
Spot 1     0.00080611     0.00161616
Spot 2     0.00070430     0.00162105
Spot 1     0.00080589     0.00161562
Spot 2     0.00070426     0.00162076
Spot 1     0.00080606     0.00161606
Spot 2     0.00070441     0.00162080
Spot 1     0.00080568     0.00161560
Spot 2     0.00070438     0.00162081
20MABNDL000196_PR036
Spot 1     0.00095864     0.00164402
Spot 2     0.00112294     0.00164367
Spot 1     0.00095851     0.00164416
Spot 2     0.00112265     0.00164352
Spot 1     0.00095845     0.00164432
Spot 2     0.00112269     0.00164394
Spot 1     0.00095830     0.00164431
Spot 2     0.00112265     0.00164358
20MABNDL000196_PR037
Spot 1     0.00248320     0.00116523
Spot 2     0.00263724     0.00116294
Spot 1     0.00248323     0.00116517
Spot 2     0.00263714     0.00116312
Spot 1     0.00248305     0.00116506
Spot 2     0.00263705     0.00116295
Spot 1     0.00248308     0.00116522
Spot 2     0.00263709     0.00116300
20MABNDL000196_20MABNDM000020
Spot 1     0.00195255     0.00102940
Spot 2     0.00173043     0.00102908
Spot 1     0.00195265     0.00102958
Spot 2     0.00173058     0.00102929
Spot 1     0.00195257     0.00102978
Spot 2     0.00173056     0.00102965
Spot 1     0.00195255     0.00102990
Spot 2     0.00173082     0.00102968
20MABNDL000196_PR012
Spot 1     0.00044500     0.00036500
Spot 2     0.00033500     0.00002500
Spot 1     0.00044500     0.00036500
Spot 2     0.00044500     0.00036500
Spot 1     0.00315600     0.00069500
Spot 2     0.00315500     0.00069500
Spot 1     0.00315600     0.00069500
Spot 2     0.00044500     0.00036500


****************************************************************coordonnees images transformees dans le repere MOUNT************************************************************************* 
20MABNDB000069_PR031
Spot 1    -0.01359222    -0.01285529    -0.07388500
Spot 2    -0.01351986    -0.01285894    -0.07388500
Spot 1    -0.01359264    -0.01285554    -0.07388500
Spot 2    -0.01351991    -0.01285928    -0.07388500
Spot 1    -0.01359229    -0.01285545    -0.07388500
Spot 2    -0.01351869    -0.01285887    -0.07388500
Spot 1    -0.01359275    -0.01285515    -0.07388500
Spot 2    -0.01351891    -0.01285886    -0.07388500
Spot 1    -0.01359282    -0.01285582    -0.07388500
Spot 2    -0.01351870    -0.01285876    -0.07388500
20MABNDB000069_PR033
Spot 1    -0.01201870    -0.01231942    -0.07388500
Spot 2    -0.01154853    -0.01231918    -0.07388500
Spot 1    -0.01201867    -0.01231952    -0.07388500
Spot 2    -0.01154833    -0.01231916    -0.07388500
Spot 1    -0.01201847    -0.01231913    -0.07388500
Spot 2    -0.01154821    -0.01231913    -0.07388500
Spot 1    -0.01201868    -0.01231943    -0.07388500
Spot 2    -0.01154842    -0.01231916    -0.07388500
Spot 1    -0.01201854    -0.01231930    -0.07388500
Spot 2    -0.01154842    -0.01231902    -0.07388500
20MABNDB000131_PR032
Spot 1    -0.01144146    -0.01302929    -0.07533000
Spot 2    -0.01138186    -0.01302555    -0.07533000
Spot 1    -0.01144182    -0.01302950    -0.07533000
Spot 2    -0.01138156    -0.01302598    -0.07533000
Spot 1    -0.01144151    -0.01302954    -0.07533000
Spot 2    -0.01138193    -0.01302580    -0.07533000
Spot 1    -0.01144162    -0.01302932    -0.07533000
Spot 2    -0.01138188    -0.01302559    -0.07533000
Spot 1    -0.01144162    -0.01302925    -0.07533000
Spot 2    -0.01138203    -0.01302580    -0.07533000
20MABNDB000131_PR034
Spot 1    -0.01328910    -0.01376630    -0.07533000
Spot 2    -0.01311297    -0.01376648    -0.07533000
Spot 1    -0.01328914    -0.01376615    -0.07533000
Spot 2    -0.01311316    -0.01376651    -0.07533000
Spot 1    -0.01328944    -0.01376623    -0.07533000
Spot 2    -0.01311334    -0.01376651    -0.07533000
Spot 1    -0.01328917    -0.01376632    -0.07533000
Spot 2    -0.01311305    -0.01376648    -0.07533000
Spot 1    -0.01328941    -0.01376592    -0.07533000
Spot 2    -0.01311319    -0.01376634    -0.07533000
20MABNDA000208_PR042
Spot 1    -0.01392558     0.01305406    -0.07273700
Spot 2    -0.01385937     0.01305412    -0.07273700
Spot 1    -0.01392535     0.01305394    -0.07273700
Spot 2    -0.01385885     0.01305395    -0.07273700
Spot 1    -0.01392688     0.01305386    -0.07273700
Spot 2    -0.01385960     0.01305416    -0.07273700
Spot 1    -0.01392469     0.01305432    -0.07273700
Spot 2    -0.01385946     0.01305391    -0.07273700
Spot 1    -0.01392623     0.01305317    -0.07273700
Spot 2    -0.01386010     0.01305385    -0.07273700
20MABNDA000208_PR046
Spot 1    -0.01232661     0.01189264    -0.07273700
Spot 2    -0.01185242     0.01189034    -0.07273700
Spot 1    -0.01232642     0.01189286    -0.07273700
Spot 2    -0.01185203     0.01188885    -0.07273700
Spot 1    -0.01232640     0.01189225    -0.07273700
Spot 2    -0.01185244     0.01188913    -0.07273700
Spot 1    -0.01232646     0.01189267    -0.07273700
Spot 2    -0.01185283     0.01189033    -0.07273700
Spot 1    -0.01232641     0.01189225    -0.07273700
Spot 2    -0.01185283     0.01189007    -0.07273700
20MABNDA000035_PR044
Spot 1    -0.01157496     0.01299093    -0.07483200
Spot 2    -0.01151999     0.01299657    -0.07483200
Spot 1    -0.01157508     0.01299100    -0.07483200
Spot 2    -0.01152019     0.01299650    -0.07483200
Spot 1    -0.01157503     0.01299103    -0.07483200
Spot 2    -0.01151973     0.01299632    -0.07483200
Spot 1    -0.01157542     0.01299112    -0.07483200
Spot 2    -0.01151989     0.01299628    -0.07483200
Spot 1    -0.01157504     0.01299068    -0.07483200
Spot 2    -0.01152036     0.01299628    -0.07483200
20MABNDA000035_PR045
Spot 1    -0.01337735     0.01375704    -0.07483200
Spot 2    -0.01320052     0.01375726    -0.07483200
Spot 1    -0.01337733     0.01375696    -0.07483200
Spot 2    -0.01320056     0.01375728    -0.07483200
Spot 1    -0.01337754     0.01375697    -0.07483200
Spot 2    -0.01320047     0.01375732    -0.07483200
Spot 1    -0.01337797     0.01375689    -0.07483200
Spot 2    -0.01320063     0.01375720    -0.07483200
Spot 1    -0.01337749     0.01375688    -0.07483200
Spot 2    -0.01320071     0.01375713    -0.07483200
20MABNDL000077_PR002
Spot 1     0.01186510     0.03557030    -0.07463200
Spot 2     0.01202713     0.03557007    -0.07463200
Spot 1     0.01186499     0.03557030    -0.07463200
Spot 2     0.01202691     0.03557025    -0.07463200
Spot 1     0.01186499     0.03557053    -0.07463200
Spot 2     0.01202702     0.03557014    -0.07463200
Spot 1     0.01186478     0.03557187    -0.07463200
Spot 2     0.01202706     0.03556998    -0.07463200
Spot 1     0.01186482     0.03557186    -0.07463200
Spot 2     0.01202707     0.03556939    -0.07463200
20MABNDL000077_PR003
Spot 1     0.01259285     0.03525776    -0.07463200
Spot 2     0.01274439     0.03525833    -0.07463200
Spot 1     0.01259276     0.03525776    -0.07463200
Spot 2     0.01274389     0.03525828    -0.07463200
Spot 1     0.01259284     0.03525797    -0.07463200
Spot 2     0.01274418     0.03525858    -0.07463200
Spot 1     0.01259293     0.03525752    -0.07463200
Spot 2     0.01274393     0.03525882    -0.07463200
Spot 1     0.01259316     0.03525744    -0.07463200
Spot 2     0.01274415     0.03525837    -0.07463200
20MABNDL000077_20MABNDM000168
Spot 1    -0.01272182     0.03554643    -0.00695400
Spot 2    -0.01251829     0.03566159    -0.00695400
Spot 1    -0.01272194     0.03554643    -0.00695400
Spot 2    -0.01403332     0.03457320    -0.00695400
Spot 1    -0.01272190     0.03554673    -0.00695400
Spot 2    -0.01251874     0.03566107    -0.00695400
Spot 1    -0.01272182     0.03554673    -0.00695400
Spot 2    -0.01403332     0.03457320    -0.00695400
Spot 1    -0.01272185     0.03554680    -0.00695400
Spot 2    -0.01251885     0.03566113    -0.00695400
20MABNDL000077_PR024
Spot 1    -0.01346763     0.03576742    -0.00695400
Spot 2    -0.01357022     0.03577126    -0.00695400
Spot 1    -0.01346806     0.03576755    -0.00695400
Spot 2    -0.01356984     0.03577148    -0.00695400
Spot 1    -0.01346806     0.03576778    -0.00695400
Spot 2    -0.01356996     0.03577140    -0.00695400
Spot 1    -0.01346815     0.03576794    -0.00695400
Spot 2    -0.01356992     0.03577157    -0.00695400
20MABNDM000020_PR013
Spot 1    -0.01270253    -0.03609665    -0.00523500
Spot 2    -0.01285540    -0.03610598    -0.00523500
Spot 1    -0.01270330    -0.03609666    -0.00523500
Spot 2    -0.01285527    -0.03610588    -0.00523500
Spot 1    -0.01270373    -0.03609706    -0.00523500
Spot 2    -0.01285584    -0.03610639    -0.00523500
Spot 1    -0.01270314    -0.03609656    -0.00523500
Spot 2    -0.01285564    -0.03610611    -0.00523500
20MABNDM000020_PR014
Spot 1    -0.01166255    -0.03621358    -0.00523500
Spot 2    -0.01182420    -0.03622501    -0.00523500
Spot 1    -0.01166297    -0.03621322    -0.00523500
Spot 2    -0.01182523    -0.03622465    -0.00523500
Spot 1    -0.01166268    -0.03621428    -0.00523500
Spot 2    -0.01182505    -0.03622459    -0.00523500
Spot 1    -0.01166294    -0.03621337    -0.00523500
Spot 2    -0.01182531    -0.03622551    -0.00523500
20MABNDM000020_20MABNDL000196
Spot 1     0.01268482    -0.03454812    -0.07583800
Spot 2     0.01372118    -0.03443342    -0.07583800
Spot 1     0.01268486    -0.03454815    -0.07583800
Spot 2     0.01388114    -0.03418340    -0.07583800
Spot 1     0.01268472    -0.03454788    -0.07583800
Spot 2     0.01388114    -0.03418340    -0.07583800
Spot 1     0.01268499    -0.03454793    -0.07583800
Spot 2     0.01388114    -0.03418340    -0.07583800
20MABNDM000020_PR035
Spot 1     0.01341867    -0.03484419    -0.07583800
Spot 2     0.01349050    -0.03487587    -0.07583800
Spot 1     0.01341835    -0.03484370    -0.07583800
Spot 2     0.01349042    -0.03487568    -0.07583800
Spot 1     0.01341722    -0.03484339    -0.07583800
Spot 2     0.01349018    -0.03487565    -0.07583800
Spot 1     0.01341775    -0.03484318    -0.07583800
Spot 2     0.01349041    -0.03487536    -0.07583800
20MABNDA000188_PR008
Spot 1    -0.01385116     0.01393841    -0.07502000
Spot 2    -0.01392041     0.01402568    -0.07502000
Spot 1    -0.01415577     0.01340100    -0.07502000
Spot 2    -0.01385113     0.01394174    -0.07502000
Spot 1    -0.01385446     0.01394177    -0.07502000
Spot 2    -0.01415577     0.01340100    -0.07502000
Spot 1    -0.01385116     0.01393841    -0.07502000
Spot 2    -0.01385116     0.01393841    -0.07502000
20MABNDA000188_PR018
Spot 1    -0.01267845     0.01230317    -0.07502000
Spot 2    -0.01221114     0.01230154    -0.07502000
Spot 1    -0.01267820     0.01230312    -0.07502000
Spot 2    -0.01221104     0.01230149    -0.07502000
Spot 1    -0.01267841     0.01230319    -0.07502000
Spot 2    -0.01221110     0.01230156    -0.07502000
Spot 1    -0.01267840     0.01230312    -0.07502000
Spot 2    -0.01221112     0.01230151    -0.07502000
20MABNDA000039_PR009
Spot 1    -0.01162390     0.01307103    -0.07444800
Spot 2    -0.01157687     0.01306667    -0.07444800
Spot 1    -0.01162427     0.01307100    -0.07444800
Spot 2    -0.01157697     0.01306661    -0.07444800
Spot 1    -0.01162423     0.01307075    -0.07444800
Spot 2    -0.01157679     0.01306636    -0.07444800
Spot 1    -0.01162441     0.01307085    -0.07444800
Spot 2    -0.01157693     0.01306647    -0.07444800
20MABNDA000039_PR011
Spot 1    -0.01372104     0.01397579    -0.07444800
Spot 2    -0.01354624     0.01397978    -0.07444800
Spot 1    -0.01372090     0.01397578    -0.07444800
Spot 2    -0.01354591     0.01397979    -0.07444800
Spot 1    -0.01372110     0.01397579    -0.07444800
Spot 2    -0.01354611     0.01397980    -0.07444800
Spot 1    -0.01372126     0.01397579    -0.07444800
Spot 2    -0.01354622     0.01397970    -0.07444800
20MABNDB000155_PR020
Spot 1    -0.01364929    -0.01313366    -0.07501700
Spot 2    -0.01358465    -0.01313633    -0.07501700
Spot 1    -0.01364870    -0.01313425    -0.07501700
Spot 2    -0.01358522    -0.01313711    -0.07501700
Spot 1    -0.01364821    -0.01313339    -0.07501700
Spot 2    -0.01358399    -0.01313650    -0.07501700
Spot 1    -0.01364800    -0.01313374    -0.07501700
Spot 2    -0.01358443    -0.01313654    -0.07501700
20MABNDB000155_PR022
Spot 1    -0.01218581    -0.01288805    -0.07501700
Spot 2    -0.01171252    -0.01288619    -0.07501700
Spot 1    -0.01218581    -0.01288816    -0.07501700
Spot 2    -0.01171240    -0.01288627    -0.07501700
Spot 1    -0.01218576    -0.01288797    -0.07501700
Spot 2    -0.01171238    -0.01288611    -0.07501700
Spot 1    -0.01218583    -0.01288798    -0.07501700
Spot 2    -0.01171242    -0.01288636    -0.07501700
20MABNDB000010_PR021
Spot 1    -0.01158474    -0.01292209    -0.07358200
Spot 2    -0.01153077    -0.01291864    -0.07358200
Spot 1    -0.01158458    -0.01292150    -0.07358200
Spot 2    -0.01153093    -0.01291884    -0.07358200
Spot 1    -0.01158479    -0.01292166    -0.07358200
Spot 2    -0.01153071    -0.01291827    -0.07358200
Spot 1    -0.01158462    -0.01292188    -0.07358200
Spot 2    -0.01153097    -0.01291845    -0.07358200
20MABNDB000010_PR023
Spot 1    -0.01313006    -0.01377312    -0.07358200
Spot 2    -0.01295524    -0.01377194    -0.07358200
Spot 1    -0.01312960    -0.01377338    -0.07358200
Spot 2    -0.01295507    -0.01377206    -0.07358200
Spot 1    -0.01312992    -0.01377331    -0.07358200
Spot 2    -0.01295538    -0.01377189    -0.07358200
Spot 1    -0.01312989    -0.01377335    -0.07358200
Spot 2    -0.01295521    -0.01377217    -0.07358200
20MABNDB000212_PR029
Spot 1    -0.01182508    -0.01325642    -0.07390500
Spot 2    -0.01219157    -0.01325267    -0.07390500
Spot 1    -0.01182497    -0.01325642    -0.07390500
Spot 2    -0.01219189    -0.01325249    -0.07390500
Spot 1    -0.01182519    -0.01325637    -0.07390500
Spot 2    -0.01219205    -0.01325232    -0.07390500
Spot 1    -0.01182536    -0.01325637    -0.07390500
Spot 2    -0.01219172    -0.01325249    -0.07390500
20MABNDB000128_PR030
Spot 1    -0.01246864    -0.01221086    -0.07353400
Spot 2    -0.01226493    -0.01221520    -0.07353400
Spot 1    -0.01246907    -0.01221071    -0.07353400
Spot 2    -0.01226490    -0.01221526    -0.07353400
Spot 1    -0.01246894    -0.01221056    -0.07353400
Spot 2    -0.01226485    -0.01221508    -0.07353400
Spot 1    -0.01246854    -0.01221056    -0.07353400
Spot 2    -0.01226491    -0.01221512    -0.07353400
20MABNDA000444_PR040
Spot 1    -0.01172227     0.01365608    -0.07412000
Spot 2    -0.01208825     0.01365386    -0.07412000
Spot 1    -0.01172189     0.01365602    -0.07412000
Spot 2    -0.01208837     0.01365400    -0.07412000
Spot 1    -0.01172204     0.01365626    -0.07412000
Spot 2    -0.01208829     0.01365388    -0.07412000
Spot 1    -0.01172220     0.01365614    -0.07412000
Spot 2    -0.01208819     0.01365413    -0.07412000
20MABNDA000053_PR041
Spot 1    -0.01240179     0.01211998    -0.07430100
Spot 2    -0.01219889     0.01211914    -0.07430100
Spot 1    -0.01240162     0.01212009    -0.07430100
Spot 2    -0.01219887     0.01211940    -0.07430100
Spot 1    -0.01240183     0.01212035    -0.07430100
Spot 2    -0.01219868     0.01211927    -0.07430100
Spot 1    -0.01240199     0.01211987    -0.07430100
Spot 2    -0.01219878     0.01211937    -0.07430100
20MABNDA000196_PR006
Spot 1    -0.01294086     0.01321962    -0.07967100
Spot 2    -0.01257503     0.01321750    -0.07967100
Spot 1    -0.01294085     0.01321940    -0.07967100
Spot 2    -0.01257503     0.01321748    -0.07967100
Spot 1    -0.01294068     0.01321940    -0.07967100
Spot 2    -0.01257517     0.01321785    -0.07967100
Spot 1    -0.01294086     0.01321966    -0.07967100
Spot 2    -0.01257511     0.01321752    -0.07967100
20MABNDA000324_PR007
Spot 1    -0.01255722     0.01281734    -0.07446800
Spot 2    -0.01235179     0.01281307    -0.07446800
Spot 1    -0.01255716     0.01281733    -0.07446800
Spot 2    -0.01235192     0.01281298    -0.07446800
Spot 1    -0.01255718     0.01281727    -0.07446800
Spot 2    -0.01235202     0.01281305    -0.07446800
Spot 1    -0.01255699     0.01281734    -0.07446800
Spot 2    -0.01235226     0.01281304    -0.07446800
20MABNDB000001_PR017
Spot 1    -0.01230239    -0.01351786    -0.07418400
Spot 2    -0.01193353    -0.01351155    -0.07418400
Spot 1    -0.01230245    -0.01351790    -0.07418400
Spot 2    -0.01193330    -0.01351167    -0.07418400
Spot 1    -0.01230244    -0.01351783    -0.07418400
Spot 2    -0.01193341    -0.01351175    -0.07418400
Spot 1    -0.01230250    -0.01351785    -0.07418400
Spot 2    -0.01193335    -0.01351148    -0.07418400
20MABNDB000260_PR019
Spot 1    -0.01241118    -0.01240770    -0.07492700
Spot 2    -0.01220728    -0.01240384    -0.07492700
Spot 1    -0.01241084    -0.01240754    -0.07492700
Spot 2    -0.01220728    -0.01240384    -0.07492700
Spot 1    -0.01241123    -0.01240780    -0.07492700
Spot 2    -0.01220728    -0.01240384    -0.07492700
Spot 1    -0.01241102    -0.01240793    -0.07492700
Spot 2    -0.01220788    -0.01240416    -0.07492700
20MABNDB000135_PR027
Spot 1    -0.01251349    -0.01318935    -0.07464700
Spot 2    -0.01229503    -0.01318887    -0.07464700
Spot 1    -0.01251351    -0.01318934    -0.07464700
Spot 2    -0.01229490    -0.01318908    -0.07464700
Spot 1    -0.01251340    -0.01318914    -0.07464700
Spot 2    -0.01229485    -0.01318907    -0.07464700
Spot 1    -0.01251340    -0.01318911    -0.07464700
Spot 2    -0.01229474    -0.01318885    -0.07464700
20MABNDB000126_PR028
Spot 1    -0.01253521    -0.01218081    -0.07500400
Spot 2    -0.01225299    -0.01217696    -0.07500400
Spot 1    -0.01253511    -0.01218056    -0.07500400
Spot 2    -0.01225311    -0.01217668    -0.07500400
Spot 1    -0.01253493    -0.01218073    -0.07500400
Spot 2    -0.01225304    -0.01217684    -0.07500400
Spot 1    -0.01253519    -0.01218064    -0.07500400
Spot 2    -0.01225306    -0.01217677    -0.07500400
20MABNDA000272_PR038
Spot 1    -0.01275934     0.01314853    -0.07417900
Spot 2    -0.01253746     0.01314984    -0.07417900
Spot 1    -0.01275932     0.01314862    -0.07417900
Spot 2    -0.01253722     0.01314980    -0.07417900
Spot 1    -0.01275958     0.01314878    -0.07417900
Spot 2    -0.01253775     0.01314948    -0.07417900
Spot 1    -0.01275939     0.01314889    -0.07417900
Spot 2    -0.01253721     0.01315002    -0.07417900
20MABNDA000003_PR039
Spot 1    -0.01280278     0.01213171    -0.07373400
Spot 2    -0.01308019     0.01213206    -0.07373400
Spot 1    -0.01280283     0.01213167    -0.07373400
Spot 2    -0.01308019     0.01213199    -0.07373400
Spot 1    -0.01280268     0.01213168    -0.07373400
Spot 2    -0.01308009     0.01213196    -0.07373400
Spot 1    -0.01280286     0.01213160    -0.07373400
Spot 2    -0.01308012     0.01213198    -0.07373400
20MABNDA000318_PR004
Spot 1    -0.01286716     0.01246312    -0.07310600
Spot 2    -0.01264904     0.01246299    -0.07310600
Spot 1    -0.01286720     0.01246333    -0.07310600
Spot 2    -0.01264915     0.01246316    -0.07310600
Spot 1    -0.01286710     0.01246315    -0.07310600
Spot 2    -0.01264909     0.01246289    -0.07310600
Spot 1    -0.01286676     0.01246313    -0.07310600
Spot 2    -0.01264916     0.01246330    -0.07310600
20MABNDA000334_PR005
Spot 1    -0.01311736     0.01254763    -0.07324100
Spot 2    -0.01283699     0.01254701    -0.07324100
Spot 1    -0.01311759     0.01254786    -0.07324100
Spot 2    -0.01283712     0.01254720    -0.07324100
Spot 1    -0.01311770     0.01254770    -0.07324100
Spot 2    -0.01283700     0.01254713    -0.07324100
Spot 1    -0.01311764     0.01254777    -0.07324100
Spot 2    -0.01283705     0.01254715    -0.07324100
20MABNDB000317_PR015
Spot 1    -0.01266658    -0.01248845    -0.07326100
Spot 2    -0.01244666    -0.01249170    -0.07326100
Spot 1    -0.01266674    -0.01248837    -0.07326100
Spot 2    -0.01244673    -0.01249169    -0.07326100
Spot 1    -0.01266674    -0.01248839    -0.07326100
Spot 2    -0.01244666    -0.01249188    -0.07326100
Spot 1    -0.01266713    -0.01248833    -0.07326100
Spot 2    -0.01244661    -0.01249158    -0.07326100
20MABNDB000146_PR016
Spot 1    -0.01276186    -0.01246118    -0.07450500
Spot 2    -0.01248692    -0.01245841    -0.07450500
Spot 1    -0.01276199    -0.01246116    -0.07450500
Spot 2    -0.01248693    -0.01245842    -0.07450500
Spot 1    -0.01276201    -0.01246125    -0.07450500
Spot 2    -0.01248694    -0.01245835    -0.07450500
Spot 1    -0.01276187    -0.01246130    -0.07450500
Spot 2    -0.01248691    -0.01245879    -0.07450500
20MABNDM000168_PR025
Spot 1    -0.01303429    -0.03647137    -0.00532900
Spot 2    -0.01303429    -0.03647137    -0.00532900
Spot 1    -0.01335211    -0.03465272    -0.00532900
Spot 2    -0.01335211    -0.03465272    -0.00532900
Spot 1    -0.01303429    -0.03647137    -0.00532900
Spot 2    -0.01303429    -0.03647137    -0.00532900
Spot 1    -0.01303429    -0.03647137    -0.00532900
Spot 2    -0.01303429    -0.03647137    -0.00532900
20MABNDM000168_PR026
Spot 1    -0.01108792    -0.03562300    -0.00532900
Spot 2    -0.01108792    -0.03562300    -0.00532900
Spot 1    -0.01108792    -0.03562300    -0.00532900
Spot 2    -0.01108792    -0.03562300    -0.00532900
Spot 1    -0.01198319    -0.03439683    -0.00532900
Spot 2    -0.01198319    -0.03439683    -0.00532900
Spot 1    -0.01198319    -0.03439683    -0.00532900
Spot 2    -0.01198319    -0.03439683    -0.00532900
20MABNDM000168_20MABNDL000077
Spot 1     0.01288783    -0.03529759    -0.07445100
Spot 2     0.01267013    -0.03529750    -0.07445100
Spot 1     0.01288787    -0.03529756    -0.07445100
Spot 2     0.01267004    -0.03529747    -0.07445100
Spot 1     0.01288765    -0.03529739    -0.07445100
Spot 2     0.01267003    -0.03529714    -0.07445100
Spot 1     0.01288788    -0.03529759    -0.07445100
Spot 2     0.01267018    -0.03529730    -0.07445100
20MABNDM000168_PR001
Spot 1     0.01361465    -0.03562752    -0.07445100
Spot 2     0.01371638    -0.03563390    -0.07445100
Spot 1     0.01361488    -0.03562698    -0.07445100
Spot 2     0.01371642    -0.03563361    -0.07445100
Spot 1     0.01361470    -0.03562742    -0.07445100
Spot 2     0.01371627    -0.03563365    -0.07445100
Spot 1     0.01361509    -0.03562696    -0.07445100
Spot 2     0.01371630    -0.03563366    -0.07445100
20MABNDL000196_PR036
Spot 1     0.01193856     0.03583274    -0.07483600
Spot 2     0.01210286     0.03583274    -0.07483600
Spot 1     0.01193843     0.03583288    -0.07483600
Spot 2     0.01210257     0.03583259    -0.07483600
Spot 1     0.01193836     0.03583304    -0.07483600
Spot 2     0.01210261     0.03583301    -0.07483600
Spot 1     0.01193821     0.03583303    -0.07483600
Spot 2     0.01210257     0.03583265    -0.07483600
20MABNDL000196_PR037
Spot 1     0.01346411     0.03535713    -0.07483600
Spot 2     0.01361816     0.03535517    -0.07483600
Spot 1     0.01346414     0.03535707    -0.07483600
Spot 2     0.01361806     0.03535535    -0.07483600
Spot 1     0.01346396     0.03535696    -0.07483600
Spot 2     0.01361797     0.03535518    -0.07483600
Spot 1     0.01346399     0.03535712    -0.07483600
Spot 2     0.01361801     0.03535523    -0.07483600
20MABNDL000196_20MABNDM000020
Spot 1    -0.01277635     0.03530007    -0.00611000
Spot 2    -0.01255427     0.03530422    -0.00611000
Spot 1    -0.01277645     0.03530025    -0.00611000
Spot 2    -0.01255442     0.03530442    -0.00611000
Spot 1    -0.01277638     0.03530045    -0.00611000
Spot 2    -0.01255441     0.03530478    -0.00611000
Spot 1    -0.01277636     0.03530057    -0.00611000
Spot 2    -0.01255467     0.03530481    -0.00611000
20MABNDL000196_PR012
Spot 1    -0.01125574     0.03466613    -0.00611000
Spot 2    -0.01113892     0.03432842    -0.00611000
Spot 1    -0.01125574     0.03466613    -0.00611000
Spot 2    -0.01125574     0.03466613    -0.00611000
Spot 1    -0.01397283     0.03494152    -0.00611000
Spot 2    -0.01397183     0.03494154    -0.00611000
Spot 1    -0.01397283     0.03494152    -0.00611000
Spot 2    -0.01125574     0.03466613    -0.00611000


*****************************************************************coordonnees du prisme dans le repere MOUNT********************************************************************************** 
20MABNDB000069_PR031
    0.10217404    -0.03956449     9.20356083
    0.10220315    -0.03952825     9.20356083
    0.10210676    -0.03955864     9.20356178
    0.10214894    -0.03957757     9.20356083
    0.10213996    -0.03954282     9.20356178
20MABNDB000069_PR033
   -0.02694547    -0.02597465     1.28394926
   -0.02694740    -0.02597389     1.28394914
   -0.02695012    -0.02597754     1.28394914
   -0.02694658    -0.02597469     1.28394914
   -0.02694779    -0.02597704     1.28394914
20MABNDB000131_PR032
   -0.18817359    -0.03092680    11.00641632
   -0.18816870    -0.03088075    11.00641632
   -0.18816501    -0.03089169    11.00641632
   -0.18816045    -0.03092235    11.00641632
   -0.18814954    -0.03091280    11.00641632
20MABNDB000131_PR034
    0.01418602     0.01498204     3.43339252
    0.01419128     0.01497933     3.43339252
    0.01420221     0.01498121     3.43339252
    0.01418944     0.01498251     3.43339252
    0.01419816     0.01497025     3.43339252
20MABNDA000208_PR042
    0.13198376     0.01330705     9.20145702
    0.13193774     0.01332481     9.20145798
    0.13207766     0.01331695     9.20145607
    0.13193470     0.01330394     9.20145798
    0.13206840     0.01337832     9.20145607
20MABNDA000208_PR046
   -0.02335090     0.03297360     1.28210950
   -0.02335586     0.03298444     1.28210926
   -0.02335254     0.03298727     1.28210926
   -0.02334868     0.03297343     1.28210950
   -0.02334911     0.03297924     1.28210950
20MABNDA000035_PR044
   -0.17952478     0.02806254    11.00802708
   -0.17950138     0.02806237    11.00802708
   -0.17953859     0.02807361    11.00802708
   -0.17949840     0.02806966    11.00802708
   -0.17949232     0.02810181    11.00802708
20MABNDA000035_PR045
    0.01474420    -0.01707130     3.43485308
    0.01474467    -0.01706994     3.43485308
    0.01474740    -0.01707110     3.43485284
    0.01476090    -0.01706640     3.43485284
    0.01475178    -0.01706451     3.43485308
20MABNDL000077_PR002
    0.04954390     0.02150040     3.70690966
    0.04955201     0.02149587     3.70690918
    0.04954951     0.02149293     3.70690918
    0.04955368     0.02146374     3.70690918
    0.04955234     0.02147858     3.70690918
20MABNDL000077_PR003
    0.01391003     0.03696563     3.89605379
    0.01392537     0.03696704     3.89605379
    0.01391589     0.03695389     3.89605379
    0.01392010     0.03695930     3.89605379
    0.01390829     0.03697318     3.89605379
20MABNDL000077_20MABNDM000168
   -0.01738295     0.01141683    -5.46869850
    0.03733644     0.05072487    -5.46850395
   -0.01736425     0.01142497    -5.46869850
    0.03733186     0.05071399    -5.46850491
   -0.01736204     0.01142030    -5.46869850
20MABNDL000077_PR024
    0.05232410    -0.00342735    -5.89622498
    0.05232579    -0.00344058    -5.89622498
    0.05233053    -0.00344677    -5.89622402
    0.05233260    -0.00345923    -5.89622402
20MABNDM000020_PR013
   -0.00513418     0.01217844    -3.80216908
   -0.00511850     0.01217630    -3.80216908
   -0.00509344     0.01219869    -3.80216837
   -0.00511311     0.01217940    -3.80216908
20MABNDM000020_PR014
   -0.06766731     0.03174331    -4.74799728
   -0.06762233     0.03172098    -4.74799824
   -0.06763702     0.03175210    -4.74799824
   -0.06762084     0.03175243    -4.74799824
20MABNDM000020_20MABNDL000196
   -0.02028153    -0.07979542     5.39455128
   -0.02601316    -0.08875065     5.39443254
   -0.02600850    -0.08876032     5.39443254
   -0.02601818    -0.08875854     5.39443254
20MABNDM000020_PR035
   -0.04215550    -0.05464870     5.80100060
   -0.04214008    -0.05467490     5.80100060
   -0.04208730    -0.05468799     5.80100060
   -0.04211657    -0.05470726     5.80100060
20MABNDA000188_PR008
    0.13324732    -0.10010077     9.20320892
    0.14769524    -0.06196192     9.20335865
    0.14789918    -0.06196433     9.20335579
    0.12899831    -0.09474574     9.20333958
20MABNDA000188_PR018
   -0.01701153     0.02606512     1.28357768
   -0.01701452     0.02606601     1.28357768
   -0.01701222     0.02606479     1.28357768
   -0.01701212     0.02606582     1.28357768
20MABNDA000039_PR009
   -0.17145807     0.02458180    11.00701332
   -0.17142364     0.02458824    11.00701332
   -0.17143959     0.02462487    11.00701332
   -0.17141625     0.02460941    11.00701332
20MABNDA000039_PR011
    0.03055530    -0.02474792     3.43347120
    0.03054458    -0.02474787     3.43347120
    0.03055370    -0.02474837     3.43347120
    0.03055987    -0.02474612     3.43347120
20MABNDB000155_PR020
    0.10251951    -0.00821415     9.20027733
    0.10251835    -0.00812944     9.20027733
    0.10241278    -0.00822052     9.20027924
    0.10242656    -0.00819578     9.20027924
20MABNDB000155_PR022
   -0.02512073    -0.01667742     1.28071570
   -0.02512178    -0.01667581     1.28071570
   -0.02512233    -0.01667881     1.28071570
   -0.02512142    -0.01667657     1.28071570
20MABNDB000010_PR021
   -0.17573857    -0.03420273    11.00695229
   -0.17573881    -0.03423141    11.00695229
   -0.17573978    -0.03426157    11.00695229
   -0.17573366    -0.03423206    11.00695229
20MABNDB000010_PR023
    0.00457926     0.01940918     3.43377829
    0.00456489     0.01941789     3.43377829
    0.00457920     0.01941239     3.43377829
    0.00457449     0.01941965     3.43377829
20MABNDB000212_PR029
   -0.02597418    -0.00898718     1.64223480
   -0.02597190    -0.00898907     1.64223480
   -0.02596776    -0.00899153     1.64223480
   -0.02596949    -0.00898965     1.64223480
20MABNDB000128_PR030
   -0.01872120    -0.04701817     2.95496202
   -0.01871334    -0.04702010     2.95496202
   -0.01871685    -0.04702641     2.95496202
   -0.01872354    -0.04702564     2.95496202
20MABNDA000444_PR040
   -0.02943597     0.00134380     1.64491999
   -0.02943880     0.00134289     1.64491999
   -0.02943802     0.00134159     1.64491999
   -0.02943735     0.00134028     1.64491999
20MABNDA000053_PR041
   -0.02685462     0.05105147     2.95450306
   -0.02685830     0.05104408     2.95450306
   -0.02685776     0.05104171     2.95450330
   -0.02685271     0.05104907     2.95450306
20MABNDA000196_PR006
   -0.01039807     0.01057098     1.64206505
   -0.01039826     0.01057360     1.64206505
   -0.01039864     0.01056957     1.64206505
   -0.01039721     0.01057031     1.64206505
20MABNDA000324_PR007
   -0.02510737     0.02754456     2.95549393
   -0.02510582     0.02754654     2.95549393
   -0.02510345     0.02754636     2.95549393
   -0.02510246     0.02754519     2.95549393
20MABNDB000001_PR017
   -0.02412242    -0.00357097     1.64036417
   -0.02412426    -0.00356920     1.64036417
   -0.02412317    -0.00356910     1.64036417
   -0.02412320    -0.00357183     1.64036417
20MABNDB000260_PR019
   -0.02427848    -0.03803839     2.95627809
   -0.02428511    -0.03804167     2.95627785
   -0.02427753    -0.03803640     2.95627809
   -0.02426964    -0.03802757     2.95627809
20MABNDB000135_PR027
   -0.02101482    -0.01015464     2.74937153
   -0.02101680    -0.01015113     2.74937153
   -0.02101959    -0.01015495     2.74937153
   -0.02102166    -0.01015951     2.74937153
20MABNDB000126_PR028
   -0.02032612    -0.03875030     2.14679766
   -0.02032579    -0.03875785     2.14679766
   -0.02032938    -0.03875317     2.14679766
   -0.02032538    -0.03875542     2.14679766
20MABNDA000272_PR038
   -0.01321464     0.01121508     2.74965882
   -0.01321941     0.01121417     2.74965882
   -0.01320493     0.01121708     2.74965882
   -0.01321832     0.01120519     2.74965882
20MABNDA000003_PR039
   -0.00591842     0.04107227     2.14891768
   -0.00591770     0.04107384     2.14891768
   -0.00592128     0.04107413     2.14891768
   -0.00591827     0.04107499     2.14891768
20MABNDA000318_PR004
   -0.00840619     0.03862952     2.74965668
   -0.00840342     0.03862257     2.74965668
   -0.00840638     0.03863081     2.74965668
   -0.00841131     0.03862364     2.74965668
20MABNDA000334_PR005
   -0.00423993     0.03153995     2.14977312
   -0.00423479     0.03153394     2.14977312
   -0.00423493     0.03153723     2.14977312
   -0.00423507     0.03153594     2.14977312
20MABNDB000317_PR015
   -0.01737554    -0.03435452     2.75128746
   -0.01737133    -0.03435611     2.75128746
   -0.01737265    -0.03435230     2.75128746
   -0.01736639    -0.03435878     2.75128746
20MABNDB000146_PR016
   -0.01348251    -0.03178889     2.15201283
   -0.01348050    -0.03178903     2.15201283
   -0.01348007    -0.03178874     2.15201283
   -0.01348253    -0.03178171     2.15201283
20MABNDM000168_PR025
    0.00467537     0.02019125    -3.78833055
    0.02039144    -0.06973486    -3.78849745
    0.00467537     0.02019125    -3.78833055
    0.00467537     0.02019125    -3.78833055
20MABNDM000168_PR026
   -0.09572010    -0.02100403    -3.98370194
   -0.09572010    -0.02100403    -3.98370194
   -0.04912424    -0.08483262    -3.98413920
   -0.04912424    -0.08483262    -3.98413920
20MABNDM000168_20MABNDL000077
    0.01132447    -0.03904336     5.38884640
    0.01132623    -0.03904554     5.38884640
    0.01133423    -0.03906362     5.38884640
    0.01132077    -0.03905049     5.38884640
20MABNDM000168_PR001
   -0.05751895    -0.01344997     5.81470394
   -0.05752950    -0.01348199     5.81470394
   -0.05751683    -0.01346357     5.81470394
   -0.05753297    -0.01348077     5.81470394
20MABNDL000196_PR036
    0.05075359     0.00571854     3.68777633
    0.05076391     0.00571881     3.68777633
    0.05076442     0.00570457     3.68777585
    0.05076907     0.00571367     3.68777585
20MABNDL000196_PR037
   -0.02584876     0.02875559     3.88380623
   -0.02584695     0.02875249     3.88380623
   -0.02583998     0.02875975     3.88380623
   -0.02584178     0.02875431     3.88380623
20MABNDL000196_20MABNDM000020
   -0.01383367     0.03899935    -5.47473907
   -0.01382440     0.03898552    -5.47473907
   -0.01382759     0.03896533    -5.47473907
   -0.01381886     0.03896011    -5.47473907
20MABNDL000196_PR012
   -0.12800556     0.10178670    -5.91426516
   -0.12347060     0.08866617    -5.91448545
    0.08765545     0.06726535    -5.91482782
   -0.01789295     0.07797348    -5.91562176


*****************************************************************coordonnees du prisme dans le repere ATLAS********************************************************************************** 
20MABNDB000069_PR031 0.00000000
    3.68389106     3.84875917    -7.90083790
    3.68392038     3.84875894    -7.90087461
    3.68382382     3.84876013    -7.90084410
    3.68386602     3.84875917    -7.90082502
    3.68385720     3.84876013    -7.90085983
20MABNDB000069_PR033 0.00000000
    3.53335357    -4.07045794    -7.87969685
    3.53335166    -4.07045794    -7.87969732
    3.53334880    -4.07045794    -7.87969398
    3.53335238    -4.07045794    -7.87969685
    3.53335118    -4.07045794    -7.87969446
20MABNDB000131_PR032 0.00000000
    3.86897564     3.64756608   -12.94156933
    3.86897087     3.64756608   -12.94152355
    3.86896706     3.64756608   -12.94153404
    3.86896253     3.64756608   -12.94156551
    3.86895156     3.64756608   -12.94155598
20MABNDB000131_PR034 0.00000000
    3.67360282    -3.92562437   -12.89296532
    3.67359757    -3.92562437   -12.89296818
    3.67358661    -3.92562437   -12.89296627
    3.67359948    -3.92562437   -12.89296532
    3.67359066    -3.92562437   -12.89297771
20MABNDA000208_PR042 0.00000000
   -3.68206120     3.84913635    -7.89817905
   -3.68201518     3.84913707    -7.89816141
   -3.68215513     3.84913540    -7.89816904
   -3.68201208     3.84913707    -7.89818192
   -3.68214583     3.84913540    -7.89810801
20MABNDA000208_PR046 0.00000000
   -3.53241372    -4.07031298    -7.87554455
   -3.53240871    -4.07031345    -7.87553406
   -3.53241205    -4.07031345    -7.87553120
   -3.53241587    -4.07031298    -7.87554502
   -3.53241539    -4.07031298    -7.87553930
20MABNDA000035_PR044 0.00000000
   -3.86876607     3.64758229   -12.93374157
   -3.86874270     3.64758229   -12.93374157
   -3.86877990     3.64758229   -12.93375301
   -3.86873960     3.64758229   -12.93374920
   -3.86873364     3.64758229   -12.93378067
20MABNDA000035_PR045 0.00000000
   -3.67598438    -3.92563415   -12.88931274
   -3.67598391    -3.92563415   -12.88931465
   -3.67598128    -3.92563438   -12.88931370
   -3.67596769    -3.92563438   -12.88931847
   -3.67597699    -3.92563415   -12.88931942
20MABNDL000077_PR002 0.00000000
    2.83554053    -3.69497299     6.48618984
    2.83554506    -3.69496489     6.48618937
    2.83554792    -3.69496751     6.48618937
    2.83557701    -3.69496322     6.48618937
    2.83556223    -3.69496465     6.48618937
20MABNDL000077_PR003 0.00000000
    2.82024932    -3.73083544     6.67530489
    2.82024789    -3.73081994     6.67530489
    2.82026100    -3.73082948     6.67530489
    2.82025576    -3.73082519     6.67530489
    2.82024193    -3.73083711     6.67530489
20MABNDL000077_20MABNDM000168 0.00000000
    2.83660245    -3.75058222    -2.68949914
    2.79731226    -3.69585061    -2.68919849
    2.83659434    -3.75056362    -2.68949914
    2.79732299    -3.69585514    -2.68919945
    2.83659911    -3.75056124    -2.68949914
20MABNDL000077_PR024 0.00000000
    2.85104966    -3.68035245    -3.11695361
    2.85106277    -3.68035078    -3.11695361
    2.85106897    -3.68034601    -3.11695266
    2.85108161    -3.68034410    -3.11695290
20MABNDM000020_PR013 0.00000000
   -2.86448741    -3.73434043     6.48601866
   -2.86448526    -3.73435593     6.48601866
   -2.86450768    -3.73438120     6.48601818
   -2.86448836    -3.73436141     6.48601866
20MABNDM000020_PR014 0.00000000
   -2.88384390    -3.67252064     7.43189812
   -2.88382149    -3.67256570     7.43189907
   -2.88385272    -3.67255092     7.43189907
   -2.88385296    -3.67256713     7.43189907
20MABNDM000020_20MABNDL000196 0.00000000
   -2.77434945    -3.71222663    -2.71070576
   -2.76539230    -3.70649791    -2.71058440
   -2.76538277    -3.70650268    -2.71058440
   -2.76538444    -3.70649290    -2.71058440
20MABNDM000020_PR035 0.00000000
   -2.79957080    -3.69003582    -3.11713314
   -2.79954457    -3.69005132    -3.11713314
   -2.79953146    -3.69010425    -3.11713314
   -2.79951215    -3.69007492    -3.11713314
20MABNDA000188_PR008 0.00000000
    3.54594946     3.84851527     8.11143494
    3.56096220     3.84930754     8.07352257
    3.56116605     3.84930778     8.07352829
    3.54177952     3.84863997     8.10601807
20MABNDA000188_PR018 0.00000000
    3.52012920    -4.07061100     7.89737129
    3.52012634    -4.07061100     7.89737034
    3.52012849    -4.07061100     7.89737129
    3.52012873    -4.07061100     7.89737034
20MABNDA000039_PR009 0.00000000
    3.87563014     3.64747143    12.93587589
    3.87559581     3.64747143    12.93588257
    3.87561154     3.64747143    12.93591881
    3.87558842     3.64747143    12.93590355
20MABNDA000039_PR011 0.00000000
    3.66446877    -3.92580485    12.88408852
    3.66447949    -3.92580485    12.88408852
    3.66447043    -3.92580485    12.88408852
    3.66446424    -3.92580485    12.88409042
20MABNDB000155_PR020 0.00000000
   -3.68117213     3.84880948     7.89865303
   -3.68117094     3.84880948     7.89873743
   -3.68106532     3.84881163     7.89864635
   -3.68107915     3.84881163     7.89867115
20MABNDB000155_PR022 0.00000000
   -3.53486013    -4.07043028     7.89138174
   -3.53485918    -4.07043028     7.89138317
   -3.53485847    -4.07043028     7.89138031
   -3.53485942    -4.07043028     7.89138269
20MABNDB000010_PR021 0.00000000
   -3.86157537     3.64768982    12.93603230
   -3.86157560     3.64768982    12.93606091
   -3.86157656     3.64768982    12.93609047
   -3.86157036     3.64768982    12.93606091
20MABNDB000010_PR023 0.00000000
   -3.68508649    -3.92559814    12.88586617
   -3.68510079    -3.92559814    12.88585758
   -3.68508649    -3.92559814    12.88586330
   -3.68509126    -3.92559814    12.88585567
20MABNDB000212_PR029 0.00000000
    2.59965181    -4.19501352    -6.54797506
    2.59964967    -4.19501352    -6.54797697
    2.59964561    -4.19501352    -6.54797935
    2.59964728    -4.19501352    -6.54797745
20MABNDB000128_PR030 0.00000000
    2.61013746    -4.14002848    -6.93110275
    2.61014533    -4.14002848    -6.93110085
    2.61014175    -4.14002848    -6.93109465
    2.61013508    -4.14002848    -6.93109512
20MABNDA000444_PR040 0.00000000
   -2.60460854    -4.19508934    -6.54052401
   -2.60461140    -4.19508934    -6.54052305
   -2.60461068    -4.19508934    -6.54052210
   -2.60460997    -4.19508934    -6.54052067
20MABNDA000053_PR041 0.00000000
   -2.59368730    -4.14012814    -6.92686224
   -2.59368372    -4.14012814    -6.92686939
   -2.59368420    -4.14012766    -6.92687178
   -2.59368920    -4.14012814    -6.92686462
20MABNDA000196_PR006 0.00000000
    2.58485866    -4.19496298     6.54852772
    2.58485866    -4.19496298     6.54853010
    2.58485913    -4.19496298     6.54852629
    2.58485770    -4.19496298     6.54852676
20MABNDA000324_PR007 0.00000000
    2.59420729    -4.13996410     6.94837046
    2.59420896    -4.13996410     6.94836855
    2.59421134    -4.13996410     6.94836903
    2.59421229    -4.13996410     6.94836998
20MABNDB000001_PR017 0.00000000
   -2.59782410    -4.19505167     6.53889894
   -2.59782577    -4.19505167     6.53889751
   -2.59782481    -4.19505167     6.53889704
   -2.59782481    -4.19505167     6.53889990
20MABNDB000260_PR019 0.00000000
   -2.60448360    -4.13995647     6.94260550
   -2.60447693    -4.13995695     6.94260216
   -2.60448456    -4.13995647     6.94260740
   -2.60449243    -4.13995647     6.94261646
20MABNDB000135_PR027 0.00000000
    2.60384846    -4.19700384    -3.82520628
    2.60384631    -4.19700384    -3.82520962
    2.60384369    -4.19700384    -3.82520580
    2.60384154    -4.19700384    -3.82520127
20MABNDB000126_PR028 0.00000000
    2.60559106    -4.19701958    -5.89346981
    2.60559130    -4.19701958    -5.89346218
    2.60558772    -4.19701958    -5.89346695
    2.60559177    -4.19701958    -5.89346457
20MABNDA000272_PR038 0.00000000
   -2.61132216    -4.19698286    -3.82726932
   -2.61131740    -4.19698286    -3.82727027
   -2.61133194    -4.19698286    -3.82726717
   -2.61131859    -4.19698286    -3.82727909
20MABNDA000003_PR039 0.00000000
   -2.61581278    -4.19701958    -5.89169455
   -2.61581349    -4.19701958    -5.89169264
   -2.61580992    -4.19701958    -5.89169264
   -2.61581278    -4.19701958    -5.89169168
20MABNDA000318_PR004 0.00000000
    2.61459708    -4.19698811     3.83336902
    2.61459970    -4.19698811     3.83337617
    2.61459684    -4.19698811     3.83336782
    2.61459184    -4.19698811     3.83337498
20MABNDA000334_PR005 0.00000000
    2.61675858    -4.19703007     5.89772081
    2.61676383    -4.19703007     5.89772701
    2.61676359    -4.19703007     5.89772367
    2.61676359    -4.19703007     5.89772511
20MABNDB000317_PR015 0.00000000
   -2.61123157    -4.19700384     3.83566093
   -2.61123586    -4.19700384     3.83565927
   -2.61123443    -4.19700384     3.83566308
   -2.61124086    -4.19700384     3.83565664
20MABNDB000146_PR016 0.00000000
   -2.61281276    -4.19702482     5.89856148
   -2.61281466    -4.19702482     5.89856100
   -2.61281514    -4.19702482     5.89856148
   -2.61281276    -4.19702482     5.89856863
20MABNDM000168_PR025 0.00000000
    2.87343168    -3.75001526    -6.47895670
    2.78350139    -3.76570773    -6.47911263
    2.87343168    -3.75001526    -6.47895670
    2.87343168    -3.75001526    -6.47895670
20MABNDM000168_PR026 0.00000000
    2.83225107    -3.64968157    -6.67436314
    2.83225107    -3.64968157    -6.67436314
    2.76841021    -3.69626069    -6.67477942
    2.76841021    -3.69626069    -6.67477942
20MABNDM000168_20MABNDL000077 0.00000000
    2.81475210    -3.75323653     2.69822550
    2.81474996    -3.75323820     2.69822550
    2.81473184    -3.75324631     2.69822550
    2.81474519    -3.75323272     2.69822550
20MABNDM000168_PR001 0.00000000
    2.84038973    -3.68424153     3.12405586
    2.84035754    -3.68423104     3.12405586
    2.84037614    -3.68424368     3.12405586
    2.84035873    -3.68422747     3.12405586
20MABNDL000196_PR036 0.00000000
   -2.84788871    -3.69352102    -6.47909927
   -2.84788847    -3.69351077    -6.47909927
   -2.84790277    -3.69351029    -6.47909880
   -2.84789348    -3.69350553    -6.47909880
20MABNDL000196_PR037 0.00000000
   -2.82482028    -3.77029490    -6.67505836
   -2.82482338    -3.77029324    -6.67505836
   -2.82481599    -3.77028608    -6.67505836
   -2.82482147    -3.77028799    -6.67505836
20MABNDL000196_20MABNDM000020 0.00000000
   -2.81437993    -3.74956989     2.68347168
   -2.81439376    -3.74956059     2.68347168
   -2.81441379    -3.74956369     2.68347168
   -2.81441903    -3.74955511     2.68347168
20MABNDL000196_PR012 0.00000000
   -2.75152993    -3.86330366     3.12310243
   -2.76465249    -3.85877466     3.12331867
   -2.78615165    -3.64765835     3.12346506
   -2.77539420    -3.75320077     3.12435699


*****************************************************************Rapport********************************************************************************** 
CAM-ECTC-US-IP_ECTC-US-IP-T    2016.06.04.03.37.58     3.68387170     3.84875951    -7.90084829     0.00003249     0.00000051     0.00001728 0.00000000 VRAI 
CAM-ECTC-US-IP_ECTC-US-IP      2016.06.04.03.37.58     3.53335152    -4.07045794    -7.87969589     0.00000158     0.00000000     0.00000138 0.00000000 VRAI 
CAM-ECTC-US-HO_ECTC-US-HO-T    2016.06.04.03.37.58     3.86896553     3.64756608   -12.94154968     0.00000821     0.00000000     0.00001791 0.00000000 VRAI 
CAM-ECTC-US-HO_ECTC-US-HO      2016.06.04.03.37.58     3.67359543    -3.92562437   -12.89296856     0.00000594     0.00000000     0.00000470 0.00000000 VRAI 
CAM-ECTC-USA-IP_ECTC-USA-IP-T  2016.06.04.03.37.58    -3.68207788     3.84913626    -7.89815989     0.00006185     0.00000075     0.00002695 0.00000000 VRAI 
CAM-ECTC-USA-IP_ECTC-USA-IP    2016.06.04.03.37.58    -3.53241315    -4.07031317    -7.87553883     0.00000259     0.00000023     0.00000552 0.00000000 VRAI 
CAM-ECTC-USA-HO_ECTC-USA-HO-T  2016.06.04.03.37.58    -3.86875238     3.64758229   -12.93375320     0.00001762     0.00000000     0.00001443 0.00000000 VRAI 
CAM-ECTC-USA-HO_ECTC-USA-HO    2016.06.04.03.37.58    -3.67597885    -3.92563424   -12.88931580     0.00000616     0.00000012     0.00000266 0.00000000 VRAI 
CAM-LBA-US_EBA-US-HO-H         2016.06.04.03.37.58     2.83555455    -3.69496665     6.48618946     0.00001337     0.00000346     0.00000019 0.00000000 VRAI 
CAM-LBA-US_JDA-US-H            2016.06.04.03.37.58     2.82025118    -3.73082943     6.67530489     0.00000659     0.00000637     0.00000000 0.00000000 VRAI 
CAM-LBA-US_CAM-LBC-US          2016.06.04.03.37.58     2.82088623    -3.72868257    -2.68937907     0.01924369     0.02680533     0.00014705 0.00000000 VRAI 
CAM-LBA-US_EBC-US-IP-H         2016.06.04.03.37.58     2.85106575    -3.68034834    -3.11695319     0.00001151     0.00000340     0.00000043 0.00000000 VRAI 
CAM-LBA-USA_EBA-USA-HO-H       2016.06.04.03.37.58    -2.86449218    -3.73435974     6.48601854     0.00000902     0.00001458     0.00000021 0.00000000 VRAI 
CAM-LBA-USA_JDA-USA-H          2016.06.04.03.37.58    -2.88384277    -3.67255110     7.43189883     0.00001282     0.00001870     0.00000041 0.00000000 VRAI 
CAM-LBA-USA_CAM-LBC-USA        2016.06.04.03.37.58    -2.76762724    -3.70793003    -2.71061474     0.00388107     0.00248065     0.00005255 0.00000000 VRAI 
CAM-LBA-USA_EBC-USA-IP-H       2016.06.04.03.37.58    -2.79953974    -3.69006658    -3.11713314     0.00002132     0.00002582     0.00000000 0.00000000 VRAI 
CAM-ECTA-US-IP_ECTA-US-IP-T    2016.06.04.03.37.58     3.55246431     3.84894264     8.09112597     0.00872557     0.00036767     0.01770443 0.00000000 VRAI 
CAM-ECTA-US-IP_ECTA-US-IP      2016.06.04.03.37.58     3.52012819    -4.07061100     7.89737082     0.00000110     0.00000000     0.00000048 0.00000000 VRAI 
CAM-ECTA-US-HO_ECTA-US-HO-T    2016.06.04.03.37.58     3.87560648     3.64747143    12.93589520     0.00001601     0.00000000     0.00001702 0.00000000 VRAI 
CAM-ECTA-US-HO_ECTA-US-HO      2016.06.04.03.37.58     3.66447073    -3.92580485    12.88408899     0.00000554     0.00000000     0.00000083 0.00000000 VRAI 
CAM-ECTA-USA-IP_ECTA-USA-IP-T  2016.06.04.03.37.58    -3.68112189     3.84881055     7.89867699     0.00004989     0.00000107     0.00003605 0.00000000 VRAI 
CAM-ECTA-USA-IP_ECTA-USA-IP    2016.06.04.03.37.58    -3.53485930    -4.07043028     7.89138198     0.00000060     0.00000000     0.00000109 0.00000000 VRAI 
CAM-ECTA-USA-HO_ECTA-USA-HO-T  2016.06.04.03.37.58    -3.86157447     3.64768982    12.93606114     0.00000242     0.00000000     0.00002057 0.00000000 VRAI 
CAM-ECTA-USA-HO_ECTA-USA-HO    2016.06.04.03.37.58    -3.68509126    -3.92559814    12.88586068     0.00000584     0.00000000     0.00000423 0.00000000 VRAI 
CAM-JDC-US-IP_JDC-US-IP        2016.06.04.03.37.58     2.59964859    -4.19501352    -6.54797721     0.00000235     0.00000000     0.00000153 0.00000000 VRAI 
CAM-JDC-US-HO_JDC-US-HO        2016.06.04.03.37.58     2.61013991    -4.14002848    -6.93109834     0.00000394     0.00000000     0.00000353 0.00000000 VRAI 
CAM-JDC-USA-IP_JDC-USA-IP      2016.06.04.03.37.58    -2.60461015    -4.19508934    -6.54052246     0.00000106     0.00000000     0.00000123 0.00000000 VRAI 
CAM-JDC-USA-HO_JDC-USA-HO      2016.06.04.03.37.58    -2.59368610    -4.14012802    -6.92686701     0.00000226     0.00000021     0.00000377 0.00000000 VRAI 
CAM-JDA-US-IP_JDA-US-IP        2016.06.04.03.37.58     2.58485854    -4.19496298     6.54852772     0.00000052     0.00000000     0.00000147 0.00000000 VRAI 
CAM-JDA-US-HO_JDA-US-HO        2016.06.04.03.37.58     2.59420997    -4.13996410     6.94836950     0.00000197     0.00000000     0.00000075 0.00000000 VRAI 
CAM-JDA-USA-IP_JDA-USA-IP      2016.06.04.03.37.58    -2.59782487    -4.19505167     6.53889835     0.00000059     0.00000000     0.00000114 0.00000000 VRAI 
CAM-JDA-USA-HO_JDA-USA-HO      2016.06.04.03.37.58    -2.60448438    -4.13995659     6.94260788     0.00000550     0.00000021     0.00000530 0.00000000 VRAI 
CAM-EBC-US-IP_EBC-US-IP        2016.06.04.03.37.58     2.60384500    -4.19700384    -3.82520574     0.00000261     0.00000000     0.00000297 0.00000000 VRAI 
CAM-EBC-US-HO_EBC-US-HO        2016.06.04.03.37.58     2.60559046    -4.19701958    -5.89346588     0.00000160     0.00000000     0.00000283 0.00000000 VRAI 
CAM-EBC-USA-IP_EBC-USA-IP      2016.06.04.03.37.58    -2.61132252    -4.19698286    -3.82727146     0.00000571     0.00000000     0.00000455 0.00000000 VRAI 
CAM-EBC-USA-HO_EBC-USA-HO      2016.06.04.03.37.58    -2.61581224    -4.19701958    -5.89169288     0.00000137     0.00000000     0.00000104 0.00000000 VRAI 
CAM-EBA-US-IP_EBA-US-IP        2016.06.04.03.37.58     2.61459637    -4.19698811     3.83337200     0.00000285     0.00000000     0.00000363 0.00000000 VRAI 
CAM-EBA-US-HO_EBA-US-HO        2016.06.04.03.37.58     2.61676240    -4.19703007     5.89772415     0.00000220     0.00000000     0.00000226 0.00000000 VRAI 
CAM-EBA-USA-IP_EBA-USA-IP      2016.06.04.03.37.58    -2.61123568    -4.19700384     3.83565998     0.00000337     0.00000000     0.00000235 0.00000000 VRAI 
CAM-EBA-USA-HO_EBA-USA-HO      2016.06.04.03.37.58    -2.61281383    -4.19702482     5.89856315     0.00000109     0.00000000     0.00000317 0.00000000 VRAI 
CAM-LBC-US_EBC-US-HO-H         2016.06.04.03.37.58     2.85094911    -3.75393838    -6.47899568     0.03894096     0.00679504     0.00006752 0.00000000 VRAI 
CAM-LBC-US_JDC-US-H            2016.06.04.03.37.58     2.80033064    -3.67297113    -6.67457128     0.03192043     0.02328956     0.00020814 0.00000000 VRAI 
CAM-LBC-US_CAM-LBA-US          2016.06.04.03.37.58     2.81474477    -3.75323844     2.69822550     0.00000788     0.00000496     0.00000000 0.00000000 VRAI 
CAM-LBC-US_EBA-US-IP-H         2016.06.04.03.37.58     2.84037054    -3.68423593     3.12405586     0.00001330     0.00000684     0.00000000 0.00000000 VRAI 
CAM-LBC-USA_EBC-USA-HO-H       2016.06.04.03.37.58    -2.84789336    -3.69351190    -6.47909904     0.00000579     0.00000565     0.00000024 0.00000000 VRAI 
CAM-LBC-USA_JDC-USA-H          2016.06.04.03.37.58    -2.82482028    -3.77029055    -6.67505836     0.00000271     0.00000363     0.00000000 0.00000000 VRAI 
CAM-LBC-USA_CAM-LBA-USA        2016.06.04.03.37.58    -2.81440163    -3.74956232     2.68347168     0.00001568     0.00000534     0.00000000 0.00000000 VRAI 
CAM-LBC-USA_EBA-USA-IP-H       2016.06.04.03.37.58    -2.76943207    -3.78073436     3.12356079     0.01282987     0.08856537     0.00047744 0.00000000 VRAI 
