********** Fichier qui contient une sauvegarde des coordonnees images + coordonnees images transformees dans le repere BCAM (MOUNT) + coordonnees des prismes dans le repere MOUNT********** 
********************************************************************** Unite en metres (m)************************************************************************************************** 

*******************************************************************coordonnees images dans le repere CCD *********************************************************************************** 
20MABNDB000069_PR031
Spot 1     0.00028333     0.00141136
Spot 2     0.00034609     0.00141248
Spot 1     0.00028335     0.00141213
Spot 2     0.00034557     0.00141257
Spot 1     0.00028404     0.00141174
Spot 2     0.00034463     0.00141201
Spot 1     0.00028348     0.00141192
Spot 2     0.00034557     0.00141228
Spot 1     0.00028373     0.00141194
Spot 2     0.00034530     0.00141216
20MABNDB000069_PR033
Spot 1     0.00183337     0.00201374
Spot 2     0.00230404     0.00203290
Spot 1     0.00183335     0.00201384
Spot 2     0.00230403     0.00203318
Spot 1     0.00183342     0.00201378
Spot 2     0.00230401     0.00203284
Spot 1     0.00183351     0.00201386
Spot 2     0.00230396     0.00203298
Spot 1     0.00183350     0.00201391
Spot 2     0.00230401     0.00203295
20MABNDB000131_PR032
Spot 1     0.00277915     0.00108496
Spot 2     0.00283876     0.00108839
Spot 1     0.00277884     0.00108524
Spot 2     0.00283862     0.00108850
Spot 1     0.00277922     0.00108536
Spot 2     0.00283896     0.00108835
Spot 1     0.00277919     0.00108504
Spot 2     0.00283877     0.00108856
Spot 1     0.00277905     0.00108508
Spot 2     0.00283868     0.00108810
20MABNDB000131_PR034
Spot 1     0.00092735     0.00035776
Spot 2     0.00110338     0.00035648
Spot 1     0.00092744     0.00035776
Spot 2     0.00110342     0.00035640
Spot 1     0.00092735     0.00035772
Spot 2     0.00110339     0.00035643
Spot 1     0.00092766     0.00035771
Spot 2     0.00110338     0.00035626
Spot 1     0.00092741     0.00035759
Spot 2     0.00110348     0.00035625
20MABNDA000208_PR042
Spot 1     0.00305609     0.00094351
Spot 2     0.00298884     0.00094496
Spot 1     0.00305578     0.00094351
Spot 2     0.00298847     0.00094523
Spot 1     0.00305603     0.00094337
Spot 2     0.00298803     0.00094518
Spot 1     0.00305564     0.00094312
Spot 2     0.00298824     0.00094460
Spot 1     0.00305653     0.00094430
Spot 2     0.00299014     0.00094490
20MABNDA000208_PR046
Spot 1     0.00145774     0.00210706
Spot 2     0.00098286     0.00211072
Spot 1     0.00145761     0.00210734
Spot 2     0.00098295     0.00211067
Spot 1     0.00145766     0.00210694
Spot 2     0.00098291     0.00211040
Spot 1     0.00145829     0.00210703
Spot 2     0.00098301     0.00211037
20MABNDA000035_PR044
Spot 1     0.00074083     0.00126592
Spot 2     0.00068394     0.00126002
Spot 1     0.00074094     0.00126573
Spot 2     0.00068393     0.00126003
Spot 1     0.00074088     0.00126572
Spot 2     0.00068389     0.00125995
Spot 1     0.00074092     0.00126596
Spot 2     0.00068433     0.00126012
20MABNDA000035_PR045
Spot 1     0.00254804     0.00051223
Spot 2     0.00237112     0.00051082
Spot 1     0.00254816     0.00051232
Spot 2     0.00237115     0.00051079
Spot 1     0.00254810     0.00051211
Spot 2     0.00237109     0.00051089
Spot 1     0.00254815     0.00051224
Spot 2     0.00237106     0.00051076
20MABNDL000077_PR002
Spot 1     0.00079519     0.00149562
Spot 2     0.00095751     0.00149521
Spot 1     0.00079536     0.00149485
Spot 2     0.00095718     0.00149540
Spot 1     0.00079494     0.00149595
Spot 2     0.00095715     0.00149531
Spot 1     0.00079454     0.00149673
Spot 2     0.00095703     0.00149555
20MABNDL000077_PR003
Spot 1     0.00152614     0.00118858
Spot 2     0.00167752     0.00119112
Spot 1     0.00152602     0.00118882
Spot 2     0.00167710     0.00119124
Spot 1     0.00152581     0.00118895
Spot 2     0.00167701     0.00119127
Spot 1     0.00152591     0.00118866
Spot 2     0.00167686     0.00119123
20MABNDL000077_20MABNDM000168
Spot 1     0.00188428     0.00148512
Spot 2     0.00123500     0.00130500
Spot 1     0.00188397     0.00148529
Spot 2     0.00123500     0.00130500
Spot 1     0.00188386     0.00148536
Spot 2     0.00123500     0.00130500
Spot 1     0.00188390     0.00148551
Spot 2     0.00123500     0.00130500
20MABNDL000077_PR024
Spot 1     0.00262791     0.00171363
Spot 2     0.00272937     0.00171851
Spot 1     0.00262792     0.00171393
Spot 2     0.00272922     0.00171838
Spot 1     0.00262798     0.00171424
Spot 2     0.00272913     0.00171867
Spot 1     0.00262820     0.00171423
Spot 2     0.00272922     0.00171874
20MABNDM000020_PR013
Spot 1     0.00164231     0.00213825
Spot 2     0.00148819     0.00214537
Spot 1     0.00164110     0.00213886
Spot 2     0.00148914     0.00214401
Spot 1     0.00164303     0.00213910
Spot 2     0.00148920     0.00214534
Spot 1     0.00164286     0.00213845
Spot 2     0.00148962     0.00214398
20MABNDM000020_PR014
Spot 1     0.00268036     0.00227860
Spot 2     0.00251783     0.00228593
Spot 1     0.00268038     0.00227844
Spot 2     0.00251667     0.00228621
Spot 1     0.00268033     0.00227861
Spot 2     0.00251742     0.00228659
Spot 1     0.00267970     0.00227902
Spot 2     0.00251759     0.00228646
20MABNDM000020_20MABNDL000196
Spot 1     0.00200135     0.00057957
Spot 2     0.00230500     0.00010500
Spot 1     0.00200138     0.00057962
Spot 2     0.00230500     0.00010500
Spot 1     0.00200100     0.00057955
Spot 2     0.00230500     0.00010500
Spot 1     0.00200134     0.00057933
Spot 2     0.00230500     0.00010500
20MABNDM000020_PR035
Spot 1     0.00126757     0.00087564
Spot 2     0.00119600     0.00090743
Spot 1     0.00126771     0.00087577
Spot 2     0.00119615     0.00090732
Spot 1     0.00126790     0.00087532
Spot 2     0.00119634     0.00090720
Spot 1     0.00126876     0.00087512
Spot 2     0.00119658     0.00090706
20MABNDA000188_PR008
Spot 1     0.00283500     0.00012500
Spot 2     0.00283500     0.00012500
Spot 1     0.00283500     0.00012500
Spot 2     0.00283500     0.00012500
Spot 1     0.00279500     0.00010500
Spot 2     0.00283500     0.00012500
Spot 1     0.00283500     0.00012100
Spot 2     0.00279500     0.00010500
20MABNDA000188_PR018
Spot 1     0.00164797     0.00175047
Spot 2     0.00118054     0.00174810
Spot 1     0.00164797     0.00175057
Spot 2     0.00118058     0.00174804
Spot 1     0.00164797     0.00175057
Spot 2     0.00118071     0.00174821
Spot 1     0.00164786     0.00175061
Spot 2     0.00118069     0.00174815
20MABNDA000039_PR009
Spot 1     0.00066139     0.00117333
Spot 2     0.00061464     0.00117736
Spot 1     0.00066101     0.00117332
Spot 2     0.00061474     0.00117728
Spot 1     0.00066162     0.00117314
Spot 2     0.00061452     0.00117768
Spot 1     0.00066112     0.00117302
Spot 2     0.00061458     0.00117728
20MABNDA000039_PR011
Spot 1     0.00276320     0.00027737
Spot 2     0.00258803     0.00027221
Spot 1     0.00276311     0.00027734
Spot 2     0.00258812     0.00027226
Spot 1     0.00276330     0.00027723
Spot 2     0.00258817     0.00027219
Spot 1     0.00276317     0.00027749
Spot 2     0.00258812     0.00027226
20MABNDB000155_PR020
Spot 1     0.00061734     0.00112390
Spot 2     0.00068314     0.00111984
Spot 1     0.00061760     0.00112377
Spot 2     0.00068272     0.00111929
Spot 1     0.00061667     0.00112402
Spot 2     0.00068184     0.00111943
Spot 1     0.00061744     0.00112311
Spot 2     0.00068189     0.00111943
20MABNDB000155_PR022
Spot 1     0.00208356     0.00134983
Spot 2     0.00255702     0.00134510
Spot 1     0.00208351     0.00134998
Spot 2     0.00255699     0.00134521
Spot 1     0.00208361     0.00135005
Spot 2     0.00255702     0.00134521
Spot 1     0.00208344     0.00134982
Spot 2     0.00255719     0.00134510
20MABNDB000010_PR021
Spot 1     0.00286671     0.00115667
Spot 2     0.00292056     0.00115905
Spot 1     0.00286677     0.00115617
Spot 2     0.00292066     0.00115875
Spot 1     0.00286714     0.00115641
Spot 2     0.00292040     0.00115915
Spot 1     0.00286714     0.00115690
Spot 2     0.00292056     0.00115904
20MABNDB000010_PR023
Spot 1     0.00130733     0.00033068
Spot 2     0.00148176     0.00032951
Spot 1     0.00130735     0.00033080
Spot 2     0.00148197     0.00032922
Spot 1     0.00130750     0.00033090
Spot 2     0.00148191     0.00032940
Spot 1     0.00130719     0.00033100
Spot 2     0.00148187     0.00032956
20MABNDB000212_PR029
Spot 1     0.00226276     0.00072529
Spot 2     0.00189637     0.00072555
Spot 1     0.00226268     0.00072520
Spot 2     0.00189604     0.00072500
Spot 1     0.00226279     0.00072510
Spot 2     0.00189616     0.00072514
Spot 1     0.00226268     0.00072495
Spot 2     0.00189608     0.00072531
20MABNDB000128_PR030
Spot 1     0.00188611     0.00200673
Spot 2     0.00209075     0.00200184
Spot 1     0.00188581     0.00200682
Spot 2     0.00209061     0.00200161
Spot 1     0.00188605     0.00200684
Spot 2     0.00209025     0.00200148
Spot 1     0.00188598     0.00200666
Spot 2     0.00209059     0.00200172
20MABNDA000444_PR040
Spot 1     0.00078180     0.00037316
Spot 2     0.00114903     0.00037032
Spot 1     0.00078169     0.00037314
Spot 2     0.00114906     0.00037065
Spot 1     0.00078182     0.00037314
Spot 2     0.00114859     0.00037047
Spot 1     0.00078176     0.00037299
Spot 2     0.00114879     0.00037061
20MABNDA000053_PR041
Spot 1     0.00144193     0.00198656
Spot 2     0.00164556     0.00199008
Spot 1     0.00144158     0.00198643
Spot 2     0.00164565     0.00198970
Spot 1     0.00164577     0.00198990
Spot 2     0.00144180     0.00198641
Spot 1     0.00144121     0.00198628
Spot 2     0.00164575     0.00198952
20MABNDA000196_PR006
Spot 1     0.00198484     0.00075904
Spot 2     0.00161886     0.00075679
Spot 1     0.00198477     0.00075893
Spot 2     0.00161885     0.00075669
Spot 1     0.00198476     0.00075888
Spot 2     0.00161883     0.00075664
Spot 1     0.00198484     0.00075898
Spot 2     0.00161890     0.00075671
20MABNDA000324_PR007
Spot 1     0.00174608     0.00121096
Spot 2     0.00195132     0.00120490
Spot 1     0.00174597     0.00121069
Spot 2     0.00195136     0.00120481
Spot 1     0.00174589     0.00121084
Spot 2     0.00195129     0.00120466
Spot 1     0.00174589     0.00121077
Spot 2     0.00195111     0.00120471
20MABNDB000001_PR017
Spot 1     0.00188608     0.00047160
Spot 2     0.00225470     0.00048172
Spot 1     0.00188615     0.00047157
Spot 2     0.00225474     0.00048184
Spot 1     0.00188619     0.00047166
Spot 2     0.00225500     0.00048167
Spot 1     0.00188600     0.00047176
Spot 2     0.00225473     0.00048193
20MABNDB000260_PR019
Spot 1     0.00192016     0.00149549
Spot 2     0.00212379     0.00149470
Spot 1     0.00192054     0.00149534
Spot 2     0.00212419     0.00149484
Spot 1     0.00192040     0.00149543
Spot 2     0.00212426     0.00149485
Spot 1     0.00192024     0.00149516
Spot 2     0.00212408     0.00149454
20MABNDB000135_PR027
Spot 1     0.00189082     0.00092371
Spot 2     0.00210994     0.00092644
Spot 1     0.00189097     0.00092367
Spot 2     0.00210973     0.00092640
Spot 1     0.00189094     0.00092363
Spot 2     0.00210959     0.00092662
Spot 1     0.00189092     0.00092367
Spot 2     0.00210980     0.00092649
20MABNDB000126_PR028
Spot 1     0.00164372     0.00200115
Spot 2     0.00192609     0.00200328
Spot 1     0.00164379     0.00200113
Spot 2     0.00192633     0.00200346
Spot 1     0.00164369     0.00200113
Spot 2     0.00192622     0.00200341
Spot 1     0.00164386     0.00200122
Spot 2     0.00192615     0.00200338
20MABNDA000272_PR038
Spot 1     0.00192373     0.00096259
Spot 2     0.00170173     0.00096143
Spot 1     0.00192399     0.00096240
Spot 2     0.00170153     0.00096114
Spot 1     0.00192402     0.00096253
Spot 2     0.00170170     0.00096170
Spot 1     0.00192358     0.00096299
Spot 2     0.00170150     0.00096150
20MABNDA000003_PR039
Spot 1     0.00200164     0.00192046
Spot 2     0.00227983     0.00192102
Spot 1     0.00200167     0.00192048
Spot 2     0.00227985     0.00192093
Spot 1     0.00200152     0.00192037
Spot 2     0.00227982     0.00192093
Spot 1     0.00200160     0.00192043
Spot 2     0.00228002     0.00192074
20MABNDA000318_PR004
Spot 1     0.00214759     0.00163175
Spot 2     0.00192913     0.00163256
Spot 1     0.00214746     0.00163154
Spot 2     0.00192910     0.00163252
Spot 1     0.00214725     0.00163182
Spot 2     0.00192916     0.00163241
Spot 1     0.00214731     0.00163167
Spot 2     0.00192942     0.00163212
20MABNDA000334_PR005
Spot 1     0.00247458     0.00158016
Spot 2     0.00219441     0.00158078
Spot 1     0.00247476     0.00158036
Spot 2     0.00219450     0.00158100
Spot 1     0.00247479     0.00158044
Spot 2     0.00219444     0.00158087
Spot 1     0.00247479     0.00158045
Spot 2     0.00219456     0.00158082
20MABNDB000317_PR015
Spot 1     0.00148817     0.00160947
Spot 2     0.00170720     0.00160293
Spot 1     0.00148817     0.00160923
Spot 2     0.00170746     0.00160324
Spot 1     0.00148806     0.00160965
Spot 2     0.00170760     0.00160290
Spot 1     0.00148784     0.00160946
Spot 2     0.00170723     0.00160311
20MABNDB000146_PR016
Spot 1     0.00144585     0.00133184
Spot 2     0.00172160     0.00133462
Spot 1     0.00144595     0.00133198
Spot 2     0.00172129     0.00133443
Spot 1     0.00144606     0.00133176
Spot 2     0.00172150     0.00133471
Spot 1     0.00144598     0.00133207
Spot 2     0.00172144     0.00133442
20MABNDM000168_PR025
Spot 1     0.00023500     0.00160786
Spot 2     0.00023500     0.00160786
Spot 1     0.00105500     0.00031500
Spot 2     0.00023500     0.00160786
Spot 1     0.00105500     0.00031500
Spot 2     0.00105500     0.00031500
Spot 1     0.00105500     0.00031500
Spot 2     0.00105500     0.00031500
20MABNDM000168_PR026
Spot 1     0.00300500     0.00051500
Spot 2     0.00244500     0.00036500
Spot 1     0.00276500     0.00031500
Spot 2     0.00300500     0.00051500
Spot 1     0.00256500     0.00017500
Spot 2     0.00300500     0.00051500
Spot 1     0.00300500     0.00051500
Spot 2     0.00256500     0.00017500
20MABNDM000168_20MABNDL000077
Spot 1     0.00153773     0.00129692
Spot 2     0.00175583     0.00129901
Spot 1     0.00153784     0.00129672
Spot 2     0.00175584     0.00129908
Spot 1     0.00153801     0.00129656
Spot 2     0.00175573     0.00129943
Spot 1     0.00153795     0.00129675
Spot 2     0.00175579     0.00129935
20MABNDM000168_PR001
Spot 1     0.00080676     0.00161606
Spot 2     0.00070455     0.00162008
Spot 1     0.00080602     0.00161537
Spot 2     0.00070464     0.00162011
Spot 1     0.00080606     0.00161538
Spot 2     0.00070452     0.00161995
Spot 1     0.00080595     0.00161542
Spot 2     0.00070452     0.00162008
20MABNDL000196_PR036
Spot 1     0.00095814     0.00164459
Spot 2     0.00112316     0.00164405
Spot 1     0.00095816     0.00164471
Spot 2     0.00112299     0.00164351
Spot 1     0.00095801     0.00164481
Spot 2     0.00112276     0.00164421
Spot 1     0.00095781     0.00164465
Spot 2     0.00112289     0.00164404
20MABNDL000196_PR037
Spot 1     0.00248305     0.00116494
Spot 2     0.00263799     0.00116324
Spot 1     0.00248302     0.00116489
Spot 2     0.00263800     0.00116324
Spot 1     0.00248290     0.00116506
Spot 2     0.00263790     0.00116332
Spot 1     0.00248290     0.00116489
Spot 2     0.00263786     0.00116333
20MABNDL000196_20MABNDM000020
Spot 1     0.00195206     0.00102941
Spot 2     0.00173061     0.00102917
Spot 1     0.00195238     0.00102950
Spot 2     0.00173056     0.00102925
Spot 1     0.00195249     0.00102943
Spot 2     0.00173049     0.00102931
Spot 1     0.00195247     0.00102947
Spot 2     0.00173054     0.00102936
20MABNDL000196_PR012
Spot 1     0.00293500     0.00023625
Spot 2     0.00293500     0.00023500
Spot 1     0.00293500     0.00023500
Spot 2     0.00293500     0.00023500
Spot 1     0.00293500     0.00023500
Spot 2     0.00293500     0.00023500
Spot 1     0.00159500     0.00010300
Spot 2     0.00293500     0.00023500


****************************************************************coordonnees images transformees dans le repere MOUNT************************************************************************* 
20MABNDB000069_PR031
Spot 1    -0.01359266    -0.01285628    -0.07388500
Spot 2    -0.01352991    -0.01285775    -0.07388500
Spot 1    -0.01359261    -0.01285551    -0.07388500
Spot 2    -0.01353042    -0.01285764    -0.07388500
Spot 1    -0.01359194    -0.01285593    -0.07388500
Spot 2    -0.01353139    -0.01285816    -0.07388500
Spot 1    -0.01359249    -0.01285572    -0.07388500
Spot 2    -0.01353044    -0.01285793    -0.07388500
Spot 1    -0.01359224    -0.01285571    -0.07388500
Spot 2    -0.01353071    -0.01285804    -0.07388500
20MABNDB000069_PR033
Spot 1    -0.01201908    -0.01231838    -0.07388500
Spot 2    -0.01154802    -0.01231866    -0.07388500
Spot 1    -0.01201910    -0.01231828    -0.07388500
Spot 2    -0.01154802    -0.01231838    -0.07388500
Spot 1    -0.01201903    -0.01231834    -0.07388500
Spot 2    -0.01154806    -0.01231872    -0.07388500
Spot 1    -0.01201894    -0.01231826    -0.07388500
Spot 2    -0.01154810    -0.01231857    -0.07388500
Spot 1    -0.01201895    -0.01231821    -0.07388500
Spot 2    -0.01154805    -0.01231861    -0.07388500
20MABNDB000131_PR032
Spot 1    -0.01144104    -0.01302978    -0.07533000
Spot 2    -0.01138144    -0.01302605    -0.07533000
Spot 1    -0.01144135    -0.01302950    -0.07533000
Spot 2    -0.01138159    -0.01302594    -0.07533000
Spot 1    -0.01144097    -0.01302938    -0.07533000
Spot 2    -0.01138124    -0.01302609    -0.07533000
Spot 1    -0.01144100    -0.01302970    -0.07533000
Spot 2    -0.01138144    -0.01302588    -0.07533000
Spot 1    -0.01144114    -0.01302966    -0.07533000
Spot 2    -0.01138152    -0.01302634    -0.07533000
20MABNDB000131_PR034
Spot 1    -0.01328915    -0.01376630    -0.07533000
Spot 2    -0.01311312    -0.01376669    -0.07533000
Spot 1    -0.01328906    -0.01376630    -0.07533000
Spot 2    -0.01311308    -0.01376677    -0.07533000
Spot 1    -0.01328915    -0.01376634    -0.07533000
Spot 2    -0.01311311    -0.01376674    -0.07533000
Spot 1    -0.01328884    -0.01376635    -0.07533000
Spot 2    -0.01311312    -0.01376691    -0.07533000
Spot 1    -0.01328909    -0.01376647    -0.07533000
Spot 2    -0.01311302    -0.01376692    -0.07533000
20MABNDA000208_PR042
Spot 1    -0.01392682     0.01305251    -0.07273700
Spot 2    -0.01385957     0.01305112    -0.07273700
Spot 1    -0.01392651     0.01305251    -0.07273700
Spot 2    -0.01385920     0.01305085    -0.07273700
Spot 1    -0.01392676     0.01305265    -0.07273700
Spot 2    -0.01385876     0.01305090    -0.07273700
Spot 1    -0.01392637     0.01305290    -0.07273700
Spot 2    -0.01385897     0.01305148    -0.07273700
Spot 1    -0.01392726     0.01305172    -0.07273700
Spot 2    -0.01386087     0.01305118    -0.07273700
20MABNDA000208_PR046
Spot 1    -0.01232745     0.01189036    -0.07273700
Spot 2    -0.01185256     0.01188712    -0.07273700
Spot 1    -0.01232732     0.01189008    -0.07273700
Spot 2    -0.01185265     0.01188717    -0.07273700
Spot 1    -0.01232737     0.01189048    -0.07273700
Spot 2    -0.01185261     0.01188744    -0.07273700
Spot 1    -0.01232800     0.01189039    -0.07273700
Spot 2    -0.01185271     0.01188747    -0.07273700
20MABNDA000035_PR044
Spot 1    -0.01157554     0.01299135    -0.07483200
Spot 2    -0.01151861     0.01299684    -0.07483200
Spot 1    -0.01157565     0.01299154    -0.07483200
Spot 2    -0.01151860     0.01299683    -0.07483200
Spot 1    -0.01157559     0.01299155    -0.07483200
Spot 2    -0.01151856     0.01299691    -0.07483200
Spot 1    -0.01157563     0.01299131    -0.07483200
Spot 2    -0.01151900     0.01299674    -0.07483200
20MABNDA000035_PR045
Spot 1    -0.01337734     0.01375787    -0.07483200
Spot 2    -0.01320042     0.01375802    -0.07483200
Spot 1    -0.01337746     0.01375778    -0.07483200
Spot 2    -0.01320045     0.01375805    -0.07483200
Spot 1    -0.01337740     0.01375799    -0.07483200
Spot 2    -0.01320039     0.01375795    -0.07483200
Spot 1    -0.01337745     0.01375786    -0.07483200
Spot 2    -0.01320036     0.01375808    -0.07483200
20MABNDL000077_PR002
Spot 1     0.01186547     0.03557109    -0.07463200
Spot 2     0.01202778     0.03556911    -0.07463200
Spot 1     0.01186563     0.03557031    -0.07463200
Spot 2     0.01202745     0.03556931    -0.07463200
Spot 1     0.01186523     0.03557142    -0.07463200
Spot 2     0.01202742     0.03556922    -0.07463200
Spot 1     0.01186483     0.03557220    -0.07463200
Spot 2     0.01202730     0.03556946    -0.07463200
20MABNDL000077_PR003
Spot 1     0.01259343     0.03525703    -0.07463200
Spot 2     0.01274483     0.03525811    -0.07463200
Spot 1     0.01259332     0.03525727    -0.07463200
Spot 2     0.01274441     0.03525823    -0.07463200
Spot 1     0.01259311     0.03525740    -0.07463200
Spot 2     0.01274432     0.03525826    -0.07463200
Spot 1     0.01259320     0.03525711    -0.07463200
Spot 2     0.01274417     0.03525823    -0.07463200
20MABNDL000077_20MABNDM000168
Spot 1    -0.01272250     0.03554679    -0.00695400
Spot 2    -0.01207141     0.03537332    -0.00695400
Spot 1    -0.01272219     0.03554696    -0.00695400
Spot 2    -0.01207141     0.03537332    -0.00695400
Spot 1    -0.01272208     0.03554703    -0.00695400
Spot 2    -0.01207141     0.03537332    -0.00695400
Spot 1    -0.01272212     0.03554718    -0.00695400
Spot 2    -0.01207141     0.03537332    -0.00695400
20MABNDL000077_PR024
Spot 1    -0.01346843     0.03576767    -0.00695400
Spot 2    -0.01356993     0.03577152    -0.00695400
Spot 1    -0.01346844     0.03576797    -0.00695400
Spot 2    -0.01356978     0.03577139    -0.00695400
Spot 1    -0.01346850     0.03576828    -0.00695400
Spot 2    -0.01356969     0.03577168    -0.00695400
Spot 1    -0.01346872     0.03576827    -0.00695400
Spot 2    -0.01356978     0.03577175    -0.00695400
20MABNDM000020_PR013
Spot 1    -0.01270312    -0.03609645    -0.00523500
Spot 2    -0.01285704    -0.03610697    -0.00523500
Spot 1    -0.01270431    -0.03609708    -0.00523500
Spot 2    -0.01285612    -0.03610559    -0.00523500
Spot 1    -0.01270238    -0.03609728    -0.00523500
Spot 2    -0.01285603    -0.03610692    -0.00523500
Spot 1    -0.01270256    -0.03609663    -0.00523500
Spot 2    -0.01285564    -0.03610555    -0.00523500
20MABNDM000020_PR014
Spot 1    -0.01166222    -0.03621381    -0.00523500
Spot 2    -0.01182455    -0.03622473    -0.00523500
Spot 1    -0.01166220    -0.03621365    -0.00523500
Spot 2    -0.01182570    -0.03622504    -0.00523500
Spot 1    -0.01166225    -0.03621382    -0.00523500
Spot 2    -0.01182494    -0.03622540    -0.00523500
Spot 1    -0.01166287    -0.03621424    -0.00523500
Spot 2    -0.01182477    -0.03622527    -0.00523500
20MABNDM000020_20MABNDL000196
Spot 1     0.01268485    -0.03454814    -0.07583800
Spot 2     0.01238113    -0.03407361    -0.07583800
Spot 1     0.01268482    -0.03454819    -0.07583800
Spot 2     0.01238113    -0.03407361    -0.07583800
Spot 1     0.01268520    -0.03454812    -0.07583800
Spot 2     0.01238113    -0.03407361    -0.07583800
Spot 1     0.01268485    -0.03454790    -0.07583800
Spot 2     0.01238113    -0.03407361    -0.07583800
20MABNDM000020_PR035
Spot 1     0.01341867    -0.03484411    -0.07583800
Spot 2     0.01349024    -0.03487589    -0.07583800
Spot 1     0.01341853    -0.03484424    -0.07583800
Spot 2     0.01349009    -0.03487578    -0.07583800
Spot 1     0.01341834    -0.03484379    -0.07583800
Spot 2     0.01348990    -0.03487566    -0.07583800
Spot 1     0.01341748    -0.03484359    -0.07583800
Spot 2     0.01348966    -0.03487552    -0.07583800
20MABNDA000188_PR008
Spot 1    -0.01385116     0.01393841    -0.07502000
Spot 2    -0.01385116     0.01393841    -0.07502000
Spot 1    -0.01385116     0.01393841    -0.07502000
Spot 2    -0.01385116     0.01393841    -0.07502000
Spot 1    -0.01381099     0.01395807    -0.07502000
Spot 2    -0.01385116     0.01393841    -0.07502000
Spot 1    -0.01385113     0.01394241    -0.07502000
Spot 2    -0.01381099     0.01395807    -0.07502000
20MABNDA000188_PR018
Spot 1    -0.01267809     0.01230284    -0.07502000
Spot 2    -0.01221066     0.01230121    -0.07502000
Spot 1    -0.01267809     0.01230274    -0.07502000
Spot 2    -0.01221070     0.01230127    -0.07502000
Spot 1    -0.01267809     0.01230274    -0.07502000
Spot 2    -0.01221083     0.01230110    -0.07502000
Spot 1    -0.01267798     0.01230270    -0.07502000
Spot 2    -0.01221081     0.01230116    -0.07502000
20MABNDA000039_PR009
Spot 1    -0.01162351     0.01307079    -0.07444800
Spot 2    -0.01157678     0.01306656    -0.07444800
Spot 1    -0.01162313     0.01307080    -0.07444800
Spot 2    -0.01157688     0.01306664    -0.07444800
Spot 1    -0.01162374     0.01307098    -0.07444800
Spot 2    -0.01157666     0.01306624    -0.07444800
Spot 1    -0.01162324     0.01307110    -0.07444800
Spot 2    -0.01157672     0.01306664    -0.07444800
20MABNDA000039_PR011
Spot 1    -0.01372142     0.01397584    -0.07444800
Spot 2    -0.01354623     0.01398024    -0.07444800
Spot 1    -0.01372133     0.01397587    -0.07444800
Spot 2    -0.01354632     0.01398019    -0.07444800
Spot 1    -0.01372152     0.01397598    -0.07444800
Spot 2    -0.01354637     0.01398026    -0.07444800
Spot 1    -0.01372140     0.01397572    -0.07444800
Spot 2    -0.01354632     0.01398019    -0.07444800
20MABNDB000155_PR020
Spot 1    -0.01364874    -0.01313350    -0.07501700
Spot 2    -0.01358289    -0.01313666    -0.07501700
Spot 1    -0.01364848    -0.01313363    -0.07501700
Spot 2    -0.01358330    -0.01313722    -0.07501700
Spot 1    -0.01364941    -0.01313339    -0.07501700
Spot 2    -0.01358418    -0.01313709    -0.07501700
Spot 1    -0.01364863    -0.01313429    -0.07501700
Spot 2    -0.01358413    -0.01313709    -0.07501700
20MABNDB000155_PR022
Spot 1    -0.01218575    -0.01288752    -0.07501700
Spot 2    -0.01171227    -0.01288577    -0.07501700
Spot 1    -0.01218580    -0.01288737    -0.07501700
Spot 2    -0.01171230    -0.01288566    -0.07501700
Spot 1    -0.01218570    -0.01288730    -0.07501700
Spot 2    -0.01171227    -0.01288566    -0.07501700
Spot 1    -0.01218587    -0.01288753    -0.07501700
Spot 2    -0.01171210    -0.01288577    -0.07501700
20MABNDB000010_PR021
Spot 1    -0.01158436    -0.01292188    -0.07358200
Spot 2    -0.01153056    -0.01291858    -0.07358200
Spot 1    -0.01158429    -0.01292237    -0.07358200
Spot 2    -0.01153045    -0.01291888    -0.07358200
Spot 1    -0.01158392    -0.01292213    -0.07358200
Spot 2    -0.01153072    -0.01291849    -0.07358200
Spot 1    -0.01158393    -0.01292164    -0.07358200
Spot 2    -0.01153056    -0.01291859    -0.07358200
20MABNDB000010_PR023
Spot 1    -0.01312952    -0.01377416    -0.07358200
Spot 2    -0.01295510    -0.01377238    -0.07358200
Spot 1    -0.01312950    -0.01377404    -0.07358200
Spot 2    -0.01295488    -0.01377266    -0.07358200
Spot 1    -0.01312936    -0.01377394    -0.07358200
Spot 2    -0.01295494    -0.01377249    -0.07358200
Spot 1    -0.01312967    -0.01377385    -0.07358200
Spot 2    -0.01295499    -0.01377233    -0.07358200
20MABNDB000212_PR029
Spot 1    -0.01182483    -0.01325629    -0.07390500
Spot 2    -0.01219119    -0.01325212    -0.07390500
Spot 1    -0.01182491    -0.01325638    -0.07390500
Spot 2    -0.01219153    -0.01325267    -0.07390500
Spot 1    -0.01182480    -0.01325648    -0.07390500
Spot 2    -0.01219141    -0.01325253    -0.07390500
Spot 1    -0.01182491    -0.01325663    -0.07390500
Spot 2    -0.01219149    -0.01325236    -0.07390500
20MABNDB000128_PR030
Spot 1    -0.01246903    -0.01221064    -0.07353400
Spot 2    -0.01226438    -0.01221482    -0.07353400
Spot 1    -0.01246933    -0.01221055    -0.07353400
Spot 2    -0.01226451    -0.01221505    -0.07353400
Spot 1    -0.01246909    -0.01221053    -0.07353400
Spot 2    -0.01226487    -0.01221518    -0.07353400
Spot 1    -0.01246916    -0.01221071    -0.07353400
Spot 2    -0.01226454    -0.01221494    -0.07353400
20MABNDA000444_PR040
Spot 1    -0.01172138     0.01365619    -0.07412000
Spot 2    -0.01208862     0.01365437    -0.07412000
Spot 1    -0.01172127     0.01365621    -0.07412000
Spot 2    -0.01208864     0.01365404    -0.07412000
Spot 1    -0.01172140     0.01365621    -0.07412000
Spot 2    -0.01208818     0.01365423    -0.07412000
Spot 1    -0.01172134     0.01365636    -0.07412000
Spot 2    -0.01208837     0.01365408    -0.07412000
20MABNDA000053_PR041
Spot 1    -0.01219855     0.01211978    -0.07430100
Spot 2    -0.01240221     0.01212023    -0.07430100
Spot 1    -0.01219820     0.01211990    -0.07430100
Spot 2    -0.01240230     0.01212062    -0.07430100
Spot 1    -0.01240242     0.01212042    -0.07430100
Spot 2    -0.01219842     0.01211993    -0.07430100
Spot 1    -0.01219783     0.01212004    -0.07430100
Spot 2    -0.01240239     0.01212080    -0.07430100
20MABNDA000196_PR006
Spot 1    -0.01293993     0.01321917    -0.07967100
Spot 2    -0.01257395     0.01321672    -0.07967100
Spot 1    -0.01293986     0.01321928    -0.07967100
Spot 2    -0.01257394     0.01321682    -0.07967100
Spot 1    -0.01293985     0.01321933    -0.07967100
Spot 2    -0.01257392     0.01321687    -0.07967100
Spot 1    -0.01293993     0.01321923    -0.07967100
Spot 2    -0.01257399     0.01321680    -0.07967100
20MABNDA000324_PR007
Spot 1    -0.01235181     0.01281219    -0.07446800
Spot 2    -0.01255709     0.01281665    -0.07446800
Spot 1    -0.01235170     0.01281246    -0.07446800
Spot 2    -0.01255713     0.01281674    -0.07446800
Spot 1    -0.01235162     0.01281231    -0.07446800
Spot 2    -0.01255706     0.01281689    -0.07446800
Spot 1    -0.01235162     0.01281238    -0.07446800
Spot 2    -0.01255688     0.01281684    -0.07446800
20MABNDB000001_PR017
Spot 1    -0.01230193    -0.01351792    -0.07418400
Spot 2    -0.01193323    -0.01351170    -0.07418400
Spot 1    -0.01230186    -0.01351795    -0.07418400
Spot 2    -0.01193319    -0.01351158    -0.07418400
Spot 1    -0.01230182    -0.01351786    -0.07418400
Spot 2    -0.01193293    -0.01351175    -0.07418400
Spot 1    -0.01230201    -0.01351776    -0.07418400
Spot 2    -0.01193320    -0.01351149    -0.07418400
20MABNDB000260_PR019
Spot 1    -0.01241103    -0.01240710    -0.07492700
Spot 2    -0.01220743    -0.01240372    -0.07492700
Spot 1    -0.01241065    -0.01240724    -0.07492700
Spot 2    -0.01220703    -0.01240357    -0.07492700
Spot 1    -0.01241079    -0.01240716    -0.07492700
Spot 2    -0.01220696    -0.01240356    -0.07492700
Spot 1    -0.01241094    -0.01240743    -0.07492700
Spot 2    -0.01220713    -0.01240387    -0.07492700
20MABNDB000135_PR027
Spot 1    -0.01251377    -0.01318931    -0.07464700
Spot 2    -0.01229463    -0.01318902    -0.07464700
Spot 1    -0.01251362    -0.01318935    -0.07464700
Spot 2    -0.01229484    -0.01318906    -0.07464700
Spot 1    -0.01251365    -0.01318939    -0.07464700
Spot 2    -0.01229498    -0.01318884    -0.07464700
Spot 1    -0.01251367    -0.01318935    -0.07464700
Spot 2    -0.01229477    -0.01318897    -0.07464700
20MABNDB000126_PR028
Spot 1    -0.01253577    -0.01218103    -0.07500400
Spot 2    -0.01225342    -0.01217739    -0.07500400
Spot 1    -0.01253570    -0.01218105    -0.07500400
Spot 2    -0.01225318    -0.01217721    -0.07500400
Spot 1    -0.01253580    -0.01218105    -0.07500400
Spot 2    -0.01225329    -0.01217726    -0.07500400
Spot 1    -0.01253563    -0.01218096    -0.07500400
Spot 2    -0.01225336    -0.01217729    -0.07500400
20MABNDA000272_PR038
Spot 1    -0.01275940     0.01314888    -0.07417900
Spot 2    -0.01253740     0.01314965    -0.07417900
Spot 1    -0.01275966     0.01314907    -0.07417900
Spot 2    -0.01253720     0.01314994    -0.07417900
Spot 1    -0.01275969     0.01314894    -0.07417900
Spot 2    -0.01253737     0.01314938    -0.07417900
Spot 1    -0.01275925     0.01314848    -0.07417900
Spot 2    -0.01253717     0.01314958    -0.07417900
20MABNDA000003_PR039
Spot 1    -0.01280271     0.01213181    -0.07373400
Spot 2    -0.01308090     0.01213195    -0.07373400
Spot 1    -0.01280274     0.01213179    -0.07373400
Spot 2    -0.01308092     0.01213204    -0.07373400
Spot 1    -0.01280259     0.01213190    -0.07373400
Spot 2    -0.01308089     0.01213204    -0.07373400
Spot 1    -0.01280267     0.01213184    -0.07373400
Spot 2    -0.01308109     0.01213224    -0.07373400
20MABNDA000318_PR004
Spot 1    -0.01286739     0.01246348    -0.07310600
Spot 2    -0.01264893     0.01246331    -0.07310600
Spot 1    -0.01286726     0.01246369    -0.07310600
Spot 2    -0.01264890     0.01246335    -0.07310600
Spot 1    -0.01286705     0.01246341    -0.07310600
Spot 2    -0.01264896     0.01246346    -0.07310600
Spot 1    -0.01286711     0.01246356    -0.07310600
Spot 2    -0.01264922     0.01246375    -0.07310600
20MABNDA000334_PR005
Spot 1    -0.01311769     0.01254824    -0.07324100
Spot 2    -0.01283752     0.01254735    -0.07324100
Spot 1    -0.01311787     0.01254804    -0.07324100
Spot 2    -0.01283761     0.01254713    -0.07324100
Spot 1    -0.01311790     0.01254796    -0.07324100
Spot 2    -0.01283755     0.01254726    -0.07324100
Spot 1    -0.01311790     0.01254795    -0.07324100
Spot 2    -0.01283767     0.01254731    -0.07324100
20MABNDB000317_PR015
Spot 1    -0.01266623    -0.01248857    -0.07326100
Spot 2    -0.01244714    -0.01249256    -0.07326100
Spot 1    -0.01266623    -0.01248881    -0.07326100
Spot 2    -0.01244688    -0.01249225    -0.07326100
Spot 1    -0.01266634    -0.01248839    -0.07326100
Spot 2    -0.01244674    -0.01249258    -0.07326100
Spot 1    -0.01266656    -0.01248859    -0.07326100
Spot 2    -0.01244711    -0.01249238    -0.07326100
20MABNDB000146_PR016
Spot 1    -0.01276251    -0.01246177    -0.07450500
Spot 2    -0.01248677    -0.01245838    -0.07450500
Spot 1    -0.01276241    -0.01246163    -0.07450500
Spot 2    -0.01248708    -0.01245857    -0.07450500
Spot 1    -0.01276230    -0.01246185    -0.07450500
Spot 2    -0.01248687    -0.01245829    -0.07450500
Spot 1    -0.01276238    -0.01246154    -0.07450500
Spot 2    -0.01248693    -0.01245858    -0.07450500
20MABNDM000168_PR025
Spot 1    -0.01416655    -0.03594909    -0.00532900
Spot 2    -0.01416655    -0.03594909    -0.00532900
Spot 1    -0.01335211    -0.03465272    -0.00532900
Spot 2    -0.01416655    -0.03594909    -0.00532900
Spot 1    -0.01335211    -0.03465272    -0.00532900
Spot 2    -0.01335211    -0.03465272    -0.00532900
Spot 1    -0.01335211    -0.03465272    -0.00532900
Spot 2    -0.01335211    -0.03465272    -0.00532900
20MABNDM000168_PR026
Spot 1    -0.01140126    -0.03484434    -0.00532900
Spot 2    -0.01196190    -0.03469675    -0.00532900
Spot 1    -0.01164212    -0.03464537    -0.00532900
Spot 2    -0.01140126    -0.03484434    -0.00532900
Spot 1    -0.01184272    -0.03450623    -0.00532900
Spot 2    -0.01140126    -0.03484434    -0.00532900
Spot 1    -0.01140126    -0.03484434    -0.00532900
Spot 2    -0.01184272    -0.03450623    -0.00532900
20MABNDM000168_20MABNDL000077
Spot 1     0.01288778    -0.03529761    -0.07445100
Spot 2     0.01266967    -0.03529651    -0.07445100
Spot 1     0.01288767    -0.03529741    -0.07445100
Spot 2     0.01266966    -0.03529658    -0.07445100
Spot 1     0.01288750    -0.03529724    -0.07445100
Spot 2     0.01266976    -0.03529693    -0.07445100
Spot 1     0.01288756    -0.03529744    -0.07445100
Spot 2     0.01266971    -0.03529685    -0.07445100
20MABNDM000168_PR001
Spot 1     0.01361400    -0.03562741    -0.07445100
Spot 2     0.01371614    -0.03563292    -0.07445100
Spot 1     0.01361475    -0.03562673    -0.07445100
Spot 2     0.01371605    -0.03563295    -0.07445100
Spot 1     0.01361471    -0.03562674    -0.07445100
Spot 2     0.01371617    -0.03563279    -0.07445100
Spot 1     0.01361482    -0.03562678    -0.07445100
Spot 2     0.01371617    -0.03563292    -0.07445100
20MABNDL000196_PR036
Spot 1     0.01193805     0.03583331    -0.07483600
Spot 2     0.01210308     0.03583312    -0.07483600
Spot 1     0.01193807     0.03583343    -0.07483600
Spot 2     0.01210291     0.03583258    -0.07483600
Spot 1     0.01193792     0.03583353    -0.07483600
Spot 2     0.01210267     0.03583328    -0.07483600
Spot 1     0.01193772     0.03583337    -0.07483600
Spot 2     0.01210281     0.03583311    -0.07483600
20MABNDL000196_PR037
Spot 1     0.01346396     0.03535684    -0.07483600
Spot 2     0.01361890     0.03535547    -0.07483600
Spot 1     0.01346393     0.03535679    -0.07483600
Spot 2     0.01361891     0.03535547    -0.07483600
Spot 1     0.01346381     0.03535696    -0.07483600
Spot 2     0.01361881     0.03535555    -0.07483600
Spot 1     0.01346381     0.03535679    -0.07483600
Spot 2     0.01361877     0.03535556    -0.07483600
20MABNDL000196_20MABNDM000020
Spot 1    -0.01277586     0.03530009    -0.00611000
Spot 2    -0.01255445     0.03530430    -0.00611000
Spot 1    -0.01277618     0.03530017    -0.00611000
Spot 2    -0.01255440     0.03530439    -0.00611000
Spot 1    -0.01277629     0.03530010    -0.00611000
Spot 2    -0.01255433     0.03530445    -0.00611000
Spot 1    -0.01277627     0.03530014    -0.00611000
Spot 2    -0.01255439     0.03530450    -0.00611000
20MABNDL000196_PR012
Spot 1    -0.01374264     0.03448731    -0.00611000
Spot 2    -0.01374262     0.03448606    -0.00611000
Spot 1    -0.01374262     0.03448606    -0.00611000
Spot 2    -0.01374262     0.03448606    -0.00611000
Spot 1    -0.01374262     0.03448606    -0.00611000
Spot 2    -0.01374262     0.03448606    -0.00611000
Spot 1    -0.01240023     0.03438105    -0.00611000
Spot 2    -0.01374262     0.03448606    -0.00611000


*****************************************************************coordonnees du prisme dans le repere MOUNT********************************************************************************** 
20MABNDB000069_PR031
    0.10281731    -0.03957692     9.20355320
    0.10284577    -0.03963088     9.20355320
    0.10286350    -0.03957330     9.20355320
    0.10283908    -0.03959992     9.20355320
    0.10284056    -0.03959384     9.20355320
20MABNDB000069_PR033
   -0.02694653    -0.02598804     1.28394914
   -0.02694641    -0.02599130     1.28394914
   -0.02694670    -0.02598787     1.28394914
   -0.02694711    -0.02598973     1.28394914
   -0.02694746    -0.02598989     1.28394914
20MABNDB000131_PR032
   -0.18823457    -0.03085477    11.00641537
   -0.18820155    -0.03088310    11.00641537
   -0.18825418    -0.03088117    11.00641537
   -0.18823814    -0.03087306    11.00641537
   -0.18822148    -0.03084228    11.00641537
20MABNDB000131_PR034
    0.01419056     0.01498685     3.43339252
    0.01418758     0.01498866     3.43339252
    0.01419032     0.01498890     3.43339252
    0.01418346     0.01499297     3.43339252
    0.01418686     0.01499595     3.43339252
20MABNDA000208_PR042
    0.13207190     0.01358639     9.20145607
    0.13203014     0.01360293     9.20145607
    0.13201851     0.01359126     9.20145702
    0.13200751     0.01354030     9.20145702
    0.13217863     0.01363129     9.20145416
20MABNDA000208_PR046
   -0.02334248     0.03302059     1.28210878
   -0.02334282     0.03302256     1.28210878
   -0.02334273     0.03301683     1.28210878
   -0.02333649     0.03301735     1.28210878
20MABNDA000035_PR044
   -0.17958364     0.02801248    11.00802612
   -0.17957641     0.02799927    11.00802612
   -0.17958377     0.02799274    11.00802612
   -0.17954847     0.02802248    11.00802708
20MABNDA000035_PR045
    0.01474166    -0.01710757     3.43485284
    0.01474509    -0.01710623     3.43485284
    0.01474234    -0.01710872     3.43485284
    0.01474280    -0.01710872     3.43485284
20MABNDL000077_PR002
    0.04951875     0.02150459     3.70690966
    0.04952284     0.02151888     3.70690966
    0.04953371     0.02149383     3.70690966
    0.04954631     0.02146851     3.70690918
20MABNDL000077_PR003
    0.01388353     0.03699055     3.89605379
    0.01389746     0.03698107     3.89605379
    0.01390521     0.03697684     3.89605379
    0.01390659     0.03698540     3.89605379
20MABNDL000077_20MABNDM000168
   -0.03349831     0.02181529    -5.46869802
   -0.03350944     0.02180903    -5.46869755
   -0.03351339     0.02180646    -5.46869755
   -0.03351189     0.02180106    -5.46869755
20MABNDL000077_PR024
    0.05234379    -0.00344702    -5.89622402
    0.05233840    -0.00345371    -5.89622402
    0.05233747    -0.00347711    -5.89622402
    0.05234957    -0.00347932    -5.89622402
20MABNDM000020_PR013
   -0.00507903     0.01219802    -3.80216837
   -0.00507216     0.01217956    -3.80216908
   -0.00512239     0.01221741    -3.80216837
   -0.00512749     0.01216742    -3.80216932
20MABNDM000020_PR014
   -0.06766698     0.03174178    -4.74799728
   -0.06763162     0.03174629    -4.74799824
   -0.06765375     0.03176291    -4.74799728
   -0.06763962     0.03177194    -4.74799728
20MABNDM000020_20MABNDL000196
    0.02772686    -0.09268531     5.39451170
    0.02772794    -0.09268352     5.39451170
    0.02771432    -0.09268604     5.39451170
    0.02772650    -0.09269391     5.39451122
20MABNDM000020_PR035
   -0.04214548    -0.05465101     5.80100060
   -0.04213431    -0.05465024     5.80100060
   -0.04211966    -0.05467220     5.80100060
   -0.04207729    -0.05468529     5.80100155
20MABNDA000188_PR008
    0.12899831    -0.09474574     9.20333958
    0.12899831    -0.09474574     9.20333958
    0.12653290    -0.09595264     9.20336342
    0.12653080    -0.09619810     9.20335960
20MABNDA000188_PR018
   -0.01701867     0.02607083     1.28357768
   -0.01701833     0.02607117     1.28357768
   -0.01701720     0.02607262     1.28357756
   -0.01701832     0.02607246     1.28357756
20MABNDA000039_PR009
   -0.17149304     0.02460682    11.00701141
   -0.17151354     0.02460033    11.00701141
   -0.17148495     0.02461629    11.00701141
   -0.17151728     0.02457840    11.00701141
20MABNDA000039_PR011
    0.03056391    -0.02475959     3.43347120
    0.03056391    -0.02475913     3.43347120
    0.03056937    -0.02476326     3.43347120
    0.03056530    -0.02475572     3.43347120
20MABNDB000155_PR020
    0.10237755    -0.00820320     9.20027924
    0.10238679    -0.00816133     9.20027924
    0.10249822    -0.00818374     9.20027733
    0.10244713    -0.00812857     9.20027924
20MABNDB000155_PR022
   -0.02512344    -0.01668557     1.28071570
   -0.02512272    -0.01668778     1.28071570
   -0.02512383    -0.01668840     1.28071570
   -0.02512387    -0.01668549     1.28071570
20MABNDB000010_PR021
   -0.17578307    -0.03422260    11.00695038
   -0.17579582    -0.03416400    11.00695038
   -0.17580311    -0.03421118    11.00695038
   -0.17581439    -0.03423931    11.00695038
20MABNDB000010_PR023
    0.00456355     0.01944309     3.43377781
    0.00455821     0.01944689     3.43377781
    0.00455625     0.01944044     3.43377781
    0.00456438     0.01943462     3.43377781
20MABNDB000212_PR029
   -0.02598106    -0.00899457     1.64223456
   -0.02597649    -0.00898760     1.64223456
   -0.02597902    -0.00898801     1.64223456
   -0.02597694    -0.00898825     1.64223456
20MABNDB000128_PR030
   -0.01872450    -0.04703017     2.95496202
   -0.01871587    -0.04702739     2.95496202
   -0.01871352    -0.04702522     2.95496202
   -0.01871882    -0.04702641     2.95496202
20MABNDA000444_PR040
   -0.02944169     0.00133705     1.64491999
   -0.02944261     0.00134043     1.64491999
   -0.02944631     0.00133841     1.64491987
   -0.02944477     0.00133832     1.64491999
20MABNDA000053_PR041
   -0.02685276     0.05103396     2.95450330
   -0.02685806     0.05102405     2.95450330
   -0.02685137     0.05102745     2.95450330
   -0.02686349     0.05101767     2.95450330
20MABNDA000196_PR006
   -0.01042007     0.01058448     1.64206505
   -0.01042098     0.01058220     1.64206505
   -0.01042132     0.01058111     1.64206505
   -0.01041966     0.01058295     1.64206505
20MABNDA000324_PR007
   -0.02510954     0.02757544     2.95549369
   -0.02511086     0.02756835     2.95549393
   -0.02511381     0.02756832     2.95549369
   -0.02511735     0.02756790     2.95549369
20MABNDB000001_PR017
   -0.02413070    -0.00356869     1.64036417
   -0.02413192    -0.00356967     1.64036417
   -0.02413518    -0.00356876     1.64036417
   -0.02413020    -0.00357274     1.64036417
20MABNDB000260_PR019
   -0.02427838    -0.03805276     2.95627785
   -0.02429374    -0.03805288     2.95627785
   -0.02429232    -0.03805482     2.95627785
   -0.02428586    -0.03804326     2.95627785
20MABNDB000135_PR027
   -0.02101700    -0.01015278     2.74937153
   -0.02101588    -0.01015132     2.74937153
   -0.02101280    -0.01015466     2.74937153
   -0.02101627    -0.01015297     2.74937153
20MABNDB000126_PR028
   -0.02031206    -0.03874110     2.14679813
   -0.02031647    -0.03874341     2.14679813
   -0.02031348    -0.03874268     2.14679813
   -0.02031490    -0.03874354     2.14679813
20MABNDA000272_PR038
   -0.01321465     0.01121215     2.74965882
   -0.01321356     0.01120335     2.74965882
   -0.01320988     0.01121599     2.74965882
   -0.01322159     0.01122077     2.74965882
20MABNDA000003_PR039
   -0.00590928     0.04107239     2.14891768
   -0.00590856     0.04107139     2.14891768
   -0.00591114     0.04106982     2.14891768
   -0.00590714     0.04106796     2.14891768
20MABNDA000318_PR004
   -0.00840395     0.03861706     2.74965668
   -0.00840687     0.03861247     2.74965692
   -0.00840963     0.03861558     2.74965692
   -0.00840374     0.03860752     2.74965692
20MABNDA000334_PR005
   -0.00422765     0.03152636     2.14977312
   -0.00422379     0.03153236     2.14977312
   -0.00422422     0.03153164     2.14977312
   -0.00422250     0.03153107     2.14977312
20MABNDB000317_PR015
   -0.01737320    -0.03433665     2.75128746
   -0.01737792    -0.03433798     2.75128746
   -0.01737845    -0.03433944     2.75128746
   -0.01736770    -0.03433968     2.75128746
20MABNDB000146_PR016
   -0.01347534    -0.03178083     2.15201283
   -0.01347232    -0.03178010     2.15201283
   -0.01347692    -0.03178097     2.15201283
   -0.01347491    -0.03178126     2.15201283
20MABNDM000168_PR025
    0.06065293    -0.00563649    -3.78794765
    0.04052614    -0.03768387    -3.78841543
    0.02039144    -0.06973486    -3.78849745
    0.02039144    -0.06973486    -3.78849745
20MABNDM000168_PR026
   -0.06482498    -0.06537876    -3.98415565
   -0.07314675    -0.06671479    -3.98402524
   -0.06792636    -0.07033663    -3.98407269
   -0.06792602    -0.07033689    -3.98407269
20MABNDM000168_20MABNDL000077
    0.01134263    -0.03907847     5.38884640
    0.01134688    -0.03908321     5.38884640
    0.01134913    -0.03907641     5.38884640
    0.01134919    -0.03907246     5.38884640
20MABNDM000168_PR001
   -0.05748469    -0.01349195     5.81470490
   -0.05751024    -0.01351716     5.81470394
   -0.05751343    -0.01352293     5.81470394
   -0.05751760    -0.01351628     5.81470394
20MABNDL000196_PR036
    0.05076052     0.00569524     3.68777585
    0.05076418     0.00570556     3.68777585
    0.05077355     0.00568594     3.68777585
    0.05077525     0.00569404     3.68777585
20MABNDL000196_PR037
   -0.02586428     0.02875530     3.88380623
   -0.02586376     0.02875660     3.88380623
   -0.02585806     0.02875014     3.88380623
   -0.02585704     0.02875428     3.88380623
20MABNDL000196_20MABNDM000020
   -0.01384473     0.03899553    -5.47473907
   -0.01383491     0.03898962    -5.47473907
   -0.01383348     0.03899001    -5.47473907
   -0.01383233     0.03898679    -5.47473907
20MABNDL000196_PR012
    0.06980319     0.10261562    -5.91481209
    0.06980219     0.10266418    -5.91481113
    0.06980219     0.10266418    -5.91481113
    0.01764029     0.10675044    -5.91526747


*****************************************************************coordonnees du prisme dans le repere ATLAS********************************************************************************** 
20MABNDB000069_PR031 0.00000000
    3.68453455     3.84874988    -7.90082598
    3.68456292     3.84874988    -7.90077209
    3.68458056     3.84874964    -7.90082979
    3.68455625     3.84874988    -7.90080309
    3.68455768     3.84874988    -7.90080929
20MABNDB000069_PR033 0.00000000
    3.53335238    -4.07045794    -7.87968349
    3.53335261    -4.07045794    -7.87968016
    3.53335238    -4.07045794    -7.87968349
    3.53335190    -4.07045794    -7.87968159
    3.53335142    -4.07045794    -7.87968159
20MABNDB000131_PR032 0.00000000
    3.86903667     3.64756536   -12.94149780
    3.86900353     3.64756536   -12.94152546
    3.86905622     3.64756536   -12.94152355
    3.86904025     3.64756536   -12.94151592
    3.86902356     3.64756536   -12.94148540
20MABNDB000131_PR034 0.00000000
    3.67359829    -3.92562437   -12.89296055
    3.67360139    -3.92562437   -12.89295864
    3.67359853    -3.92562437   -12.89295864
    3.67360544    -3.92562437   -12.89295483
    3.67360210    -3.92562437   -12.89295197
20MABNDA000208_PR042 0.00000000
   -3.68214941     3.84913540    -7.89789963
   -3.68210769     3.84913540    -7.89788342
   -3.68209600     3.84913635    -7.89789486
   -3.68208504     3.84913635    -7.89794588
   -3.68225622     3.84913373    -7.89785480
20MABNDA000208_PR046 0.00000000
   -3.53242207    -4.07031393    -7.87549782
   -3.53242183    -4.07031393    -7.87549591
   -3.53242183    -4.07031393    -7.87550163
   -3.53242803    -4.07031393    -7.87550116
20MABNDA000035_PR044 0.00000000
   -3.86882472     3.64758134   -12.93369198
   -3.86881757     3.64758134   -12.93367863
   -3.86882496     3.64758134   -12.93367195
   -3.86878967     3.64758229   -12.93370152
20MABNDA000035_PR045 0.00000000
   -3.67598701    -3.92563438   -12.88927650
   -3.67598367    -3.92563438   -12.88927841
   -3.67598629    -3.92563438   -12.88927555
   -3.67598581    -3.92563438   -12.88927555
20MABNDL000077_PR002 0.00000000
    2.83553624    -3.69499826     6.48618984
    2.83552194    -3.69499421     6.48618984
    2.83554697    -3.69498324     6.48618984
    2.83557224    -3.69497061     6.48618937
20MABNDL000077_PR003 0.00000000
    2.82022452    -3.73086190     6.67530489
    2.82023382    -3.73084784     6.67530489
    2.82023811    -3.73084021     6.67530489
    2.82022953    -3.73083878     6.67530489
20MABNDL000077_20MABNDM000168 0.00000000
    2.82619905    -3.76669431    -2.68950844
    2.82620525    -3.76670551    -2.68950796
    2.82620788    -3.76670933    -2.68950796
    2.82621312    -3.76670790    -2.68950796
20MABNDL000077_PR024 0.00000000
    2.85106921    -3.68033290    -3.11695266
    2.85107589    -3.68033814    -3.11695266
    2.85109949    -3.68033910    -3.11695290
    2.85110164    -3.68032694    -3.11695290
20MABNDM000020_PR013 0.00000000
   -2.86450696    -3.73439550     6.48601818
   -2.86448860    -3.73440242     6.48601866
   -2.86452651    -3.73435211     6.48601818
   -2.86447644    -3.73434711     6.48601913
20MABNDM000020_PR014 0.00000000
   -2.88384223    -3.67252088     7.43189812
   -2.88384676    -3.67255640     7.43189907
   -2.88386345    -3.67253423     7.43189812
   -2.88387251    -3.67254829     7.43189812
20MABNDM000020_20MABNDL000196 0.00000000
   -2.76147413    -3.76023912    -2.71070528
   -2.76147604    -3.76024008    -2.71070528
   -2.76147342    -3.76022649    -2.71070528
   -2.76146555    -3.76023865    -2.71070480
20MABNDM000020_PR035 0.00000000
   -2.79956841    -3.69004607    -3.11713314
   -2.79956913    -3.69005704    -3.11713314
   -2.79954720    -3.69007182    -3.11713314
   -2.79953408    -3.69011426    -3.11713409
20MABNDA000188_PR008 0.00000000
    3.54177952     3.84863997     8.10601807
    3.54177952     3.84863997     8.10601807
    3.53929639     3.84861279     8.10718727
    3.53929067     3.84860635     8.10743237
20MABNDA000188_PR018 0.00000000
    3.52012229    -4.07061100     7.89736509
    3.52012253    -4.07061100     7.89736509
    3.52012372    -4.07061148     7.89736366
    3.52012253    -4.07061148     7.89736366
20MABNDA000039_PR009 0.00000000
    3.87566519     3.64746952    12.93590069
    3.87568569     3.64746952    12.93589401
    3.87565708     3.64746952    12.93591022
    3.87568927     3.64746952    12.93587208
20MABNDA000039_PR011 0.00000000
    3.66446018    -3.92580485    12.88407707
    3.66446018    -3.92580485    12.88407707
    3.66445470    -3.92580485    12.88407326
    3.66445875    -3.92580485    12.88408089
20MABNDB000155_PR020 0.00000000
   -3.68103004     3.84881186     7.89866400
   -3.68103933     3.84881186     7.89870596
   -3.68115091     3.84880948     7.89868307
   -3.68109965     3.84881163     7.89873838
20MABNDB000155_PR022 0.00000000
   -3.53485751    -4.07043028     7.89137363
   -3.53485823    -4.07043028     7.89137125
   -3.53485703    -4.07043028     7.89137077
   -3.53485703    -4.07043028     7.89137363
20MABNDB000010_PR021 0.00000000
   -3.86161995     3.64768791    12.93605232
   -3.86163259     3.64768791    12.93599319
   -3.86163998     3.64768791    12.93604088
   -3.86165118     3.64768791    12.93606853
20MABNDB000010_PR023 0.00000000
   -3.68510222    -3.92559862    12.88583279
   -3.68510747    -3.92559862    12.88582897
   -3.68510938    -3.92559862    12.88583469
   -3.68510127    -3.92559862    12.88584137
20MABNDB000212_PR029 0.00000000
    2.59965873    -4.19501352    -6.54798222
    2.59965420    -4.19501352    -6.54797554
    2.59965682    -4.19501352    -6.54797602
    2.59965467    -4.19501352    -6.54797602
20MABNDB000128_PR030 0.00000000
    2.61013412    -4.14002848    -6.93109083
    2.61014271    -4.14002848    -6.93109369
    2.61014509    -4.14002848    -6.93109560
    2.61013985    -4.14002848    -6.93109465
20MABNDA000444_PR040 0.00000000
   -2.60461426    -4.19508934    -6.54051733
   -2.60461521    -4.19508934    -6.54052067
   -2.60461879    -4.19508934    -6.54051876
   -2.60461736    -4.19508934    -6.54051876
20MABNDA000053_PR041 0.00000000
   -2.59368920    -4.14012766    -6.92687941
   -2.59368396    -4.14012766    -6.92688942
   -2.59369063    -4.14012766    -6.92688608
   -2.59367847    -4.14012814    -6.92689562
20MABNDA000196_PR006 0.00000000
    2.58488059    -4.19496298     6.54854107
    2.58488154    -4.19496298     6.54853868
    2.58488178    -4.19496298     6.54853773
    2.58488011    -4.19496298     6.54853964
20MABNDA000324_PR007 0.00000000
    2.59420514    -4.13996410     6.94833994
    2.59420395    -4.13996410     6.94834661
    2.59420085    -4.13996410     6.94834661
    2.59419751    -4.13996410     6.94834709
20MABNDB000001_PR017 0.00000000
   -2.59783220    -4.19505167     6.53889656
   -2.59783340    -4.19505167     6.53889799
   -2.59783673    -4.19505167     6.53889704
   -2.59783173    -4.19505167     6.53890085
20MABNDB000260_PR019 0.00000000
   -2.60448360    -4.13995695     6.94259119
   -2.60446835    -4.13995695     6.94259119
   -2.60446978    -4.13995695     6.94258928
   -2.60447621    -4.13995695     6.94260073
20MABNDB000135_PR027 0.00000000
    2.60384631    -4.19700384    -3.82520819
    2.60384727    -4.19700384    -3.82520962
    2.60385036    -4.19700384    -3.82520628
    2.60384703    -4.19700384    -3.82520795
20MABNDB000126_PR028 0.00000000
    2.60560513    -4.19701910    -5.89347887
    2.60560060    -4.19701910    -5.89347649
    2.60560369    -4.19701910    -5.89347744
    2.60560226    -4.19701910    -5.89347649
20MABNDA000272_PR038 0.00000000
   -2.61132216    -4.19698286    -3.82727218
   -2.61132336    -4.19698286    -3.82728100
   -2.61132693    -4.19698286    -3.82726836
   -2.61131525    -4.19698286    -3.82726359
20MABNDA000003_PR039 0.00000000
   -2.61582184    -4.19701958    -5.89169407
   -2.61582255    -4.19701958    -5.89169550
   -2.61581993    -4.19701958    -5.89169693
   -2.61582398    -4.19701958    -5.89169884
20MABNDA000318_PR004 0.00000000
    2.61459923    -4.19698811     3.83338165
    2.61459637    -4.19698811     3.83338618
    2.61459351    -4.19698811     3.83338308
    2.61459947    -4.19698811     3.83339119
20MABNDA000334_PR005 0.00000000
    2.61677098    -4.19703007     5.89773464
    2.61677480    -4.19703007     5.89772844
    2.61677432    -4.19703007     5.89772940
    2.61677599    -4.19703007     5.89772987
20MABNDB000317_PR015 0.00000000
   -2.61123395    -4.19700384     3.83567882
   -2.61122918    -4.19700384     3.83567739
   -2.61122870    -4.19700384     3.83567595
   -2.61123943    -4.19700384     3.83567572
20MABNDB000146_PR016 0.00000000
   -2.61281991    -4.19702482     5.89856958
   -2.61282277    -4.19702482     5.89857006
   -2.61281824    -4.19702482     5.89856911
   -2.61282039    -4.19702482     5.89856911
20MABNDM000168_PR025 0.00000000
    2.84758902    -3.80598593    -6.47855186
    2.81554699    -3.78585076    -6.47902489
    2.78350139    -3.76570773    -6.47911263
    2.78350139    -3.76570773    -6.47911263
20MABNDM000168_PR026 0.00000000
    2.78786802    -3.68056512    -6.67480278
    2.78653431    -3.67224312    -6.67467546
    2.78291106    -3.67746258    -6.67472076
    2.78291082    -3.67746282    -6.67472076
20MABNDM000168_20MABNDL000077 0.00000000
    2.81471705    -3.75325465     2.69822550
    2.81471229    -3.75325894     2.69822550
    2.81471920    -3.75326109     2.69822550
    2.81472301    -3.75326109     2.69822550
20MABNDM000168_PR001 0.00000000
    2.84034777    -3.68427587     3.12405682
    2.84032249    -3.68425012     3.12405586
    2.84031677    -3.68424702     3.12405586
    2.84032345    -3.68424273     3.12405586
20MABNDL000196_PR036 0.00000000
   -2.84791207    -3.69351411    -6.47909880
   -2.84790158    -3.69351053    -6.47909880
   -2.84792137    -3.69350100    -6.47909880
   -2.84791327    -3.69349933    -6.47909880
20MABNDL000196_PR037 0.00000000
   -2.82482052    -3.77031040    -6.67505836
   -2.82481933    -3.77030993    -6.67505836
   -2.82482576    -3.77030420    -6.67505836
   -2.82482147    -3.77030325    -6.67505836
20MABNDL000196_20MABNDM000020 0.00000000
   -2.81438375    -3.74958086     2.68347168
   -2.81438971    -3.74957108     2.68347168
   -2.81438923    -3.74956965     2.68347168
   -2.81439233    -3.74956846     2.68347168
20MABNDL000196_PR012 0.00000000
   -2.75079298    -3.66549397     3.12346530
   -2.75074434    -3.66549492     3.12346435
   -2.75074434    -3.66549492     3.12346435
   -2.74663401    -3.71765471     3.12396908


*****************************************************************Rapport********************************************************************************** 
CAM-ECTC-US-IP_ECTC-US-IP-T    2016.07.08.05.40.46     3.68455839     3.84874983    -7.90080805     0.00001474     0.00000010     0.00002056 0.00000000 VRAI 
CAM-ECTC-US-IP_ECTC-US-IP      2016.07.08.05.40.46     3.53335214    -4.07045794    -7.87968206     0.00000043     0.00000000     0.00000128 0.00000000 VRAI 
CAM-ECTC-US-HO_ECTC-US-HO-T    2016.07.08.05.40.46     3.86903205     3.64756536   -12.94150963     0.00001765     0.00000000     0.00001556 0.00000000 VRAI 
CAM-ECTC-US-HO_ECTC-US-HO      2016.07.08.05.40.46     3.67360115    -3.92562437   -12.89295692     0.00000262     0.00000000     0.00000310 0.00000000 VRAI 
CAM-ECTC-USA-IP_ECTC-USA-IP-T  2016.07.08.05.40.46    -3.68213887     3.84913545    -7.89789572     0.00006259     0.00000096     0.00002952 0.00000000 VRAI 
CAM-ECTC-USA-IP_ECTC-USA-IP    2016.07.08.05.40.46    -3.53242344    -4.07031393    -7.87549913     0.00000265     0.00000000     0.00000237 0.00000000 VRAI 
CAM-ECTC-USA-HO_ECTC-USA-HO-T  2016.07.08.05.40.46    -3.86881423     3.64758158   -12.93368602     0.00001449     0.00000041     0.00001149 0.00000000 VRAI 
CAM-ECTC-USA-HO_ECTC-USA-HO    2016.07.08.05.40.46    -3.67598569    -3.92563438   -12.88927650     0.00000124     0.00000000     0.00000117 0.00000000 VRAI 
CAM-LBA-US_EBA-US-HO-H         2016.07.08.05.40.46     2.83554435    -3.69498658     6.48618972     0.00001839     0.00001074     0.00000021 0.00000000 VRAI 
CAM-LBA-US_JDA-US-H            2016.07.08.05.40.46     2.82023150    -3.73084718     6.67530489     0.00000504     0.00000917     0.00000000 0.00000000 VRAI 
CAM-LBA-US_CAM-LBC-US          2016.07.08.05.40.46     2.82620633    -3.76670426    -2.68950808     0.00000506     0.00000591     0.00000021 0.00000000 VRAI 
CAM-LBA-US_EBC-US-IP-H         2016.07.08.05.40.46     2.85108656    -3.68033427    -3.11695278     0.00001422     0.00000485     0.00000012 0.00000000 VRAI 
CAM-LBA-USA_EBA-USA-HO-H       2016.07.08.05.40.46    -2.86449963    -3.73437428     6.48601854     0.00001894     0.00002486     0.00000040 0.00000000 VRAI 
CAM-LBA-USA_JDA-USA-H          2016.07.08.05.40.46    -2.88385624    -3.67253995     7.43189836     0.00001228     0.00001357     0.00000041 0.00000000 VRAI 
CAM-LBA-USA_CAM-LBC-USA        2016.07.08.05.40.46    -2.76147228    -3.76023608    -2.71070516     0.00000401     0.00000556     0.00000021 0.00000000 VRAI 
CAM-LBA-USA_EBC-USA-IP-H       2016.07.08.05.40.46    -2.79955471    -3.69007230    -3.11713338     0.00001481     0.00002589     0.00000041 0.00000000 VRAI 
CAM-ECTA-US-IP_ECTA-US-IP-T    2016.07.08.05.40.46     3.54053652     3.84862477     8.10666394     0.00124300     0.00001537     0.00065166 0.00000000 VRAI 
CAM-ECTA-US-IP_ECTA-US-IP      2016.07.08.05.40.46     3.52012277    -4.07061124     7.89736438     0.00000056     0.00000024     0.00000072 0.00000000 VRAI 
CAM-ECTA-US-HO_ECTA-US-HO-T    2016.07.08.05.40.46     3.87567431     3.64746952    12.93589425     0.00001354     0.00000000     0.00001404 0.00000000 VRAI 
CAM-ECTA-US-HO_ECTA-US-HO      2016.07.08.05.40.46     3.66445845    -3.92580485    12.88407707     0.00000225     0.00000000     0.00000270 0.00000000 VRAI 
CAM-ECTA-USA-IP_ECTA-USA-IP-T  2016.07.08.05.40.46    -3.68107998     3.84881121     7.89869785     0.00004890     0.00000100     0.00002772 0.00000000 VRAI 
CAM-ECTA-USA-IP_ECTA-USA-IP    2016.07.08.05.40.46    -3.53485745    -4.07043028     7.89137232     0.00000049     0.00000000     0.00000132 0.00000000 VRAI 
CAM-ECTA-USA-HO_ECTA-USA-HO-T  2016.07.08.05.40.46    -3.86163592     3.64768791    12.93603873     0.00001135     0.00000000     0.00002807 0.00000000 VRAI 
CAM-ECTA-USA-HO_ECTA-USA-HO    2016.07.08.05.40.46    -3.68510509    -3.92559862    12.88583446     0.00000342     0.00000000     0.00000449 0.00000000 VRAI 
CAM-JDC-US-IP_JDC-US-IP        2016.07.08.05.40.46     2.59965611    -4.19501352    -6.54797745     0.00000181     0.00000000     0.00000276 0.00000000 VRAI 
CAM-JDC-US-HO_JDC-US-HO        2016.07.08.05.40.46     2.61014044    -4.14002848    -6.93109369     0.00000409     0.00000000     0.00000178 0.00000000 VRAI 
CAM-JDC-USA-IP_JDC-USA-IP      2016.07.08.05.40.46    -2.60461640    -4.19508934    -6.54051888     0.00000178     0.00000000     0.00000119 0.00000000 VRAI 
CAM-JDC-USA-HO_JDC-USA-HO      2016.07.08.05.40.46    -2.59368557    -4.14012778    -6.92688763     0.00000479     0.00000021     0.00000585 0.00000000 VRAI 
CAM-JDA-US-IP_JDA-US-IP        2016.07.08.05.40.46     2.58488101    -4.19496298     6.54853928     0.00000068     0.00000000     0.00000123 0.00000000 VRAI 
CAM-JDA-US-HO_JDA-US-HO        2016.07.08.05.40.46     2.59420186    -4.13996410     6.94834507     0.00000296     0.00000000     0.00000297 0.00000000 VRAI 
CAM-JDA-USA-IP_JDA-USA-IP      2016.07.08.05.40.46    -2.59783351    -4.19505167     6.53889811     0.00000196     0.00000000     0.00000166 0.00000000 VRAI 
CAM-JDA-USA-HO_JDA-USA-HO      2016.07.08.05.40.46    -2.60447448    -4.13995695     6.94259310     0.00000604     0.00000000     0.00000447 0.00000000 VRAI 
CAM-EBC-US-IP_EBC-US-IP        2016.07.08.05.40.46     2.60384774    -4.19700384    -3.82520801     0.00000155     0.00000000     0.00000118 0.00000000 VRAI 
CAM-EBC-US-HO_EBC-US-HO        2016.07.08.05.40.46     2.60560292    -4.19701910    -5.89347732     0.00000168     0.00000000     0.00000098 0.00000000 VRAI 
CAM-EBC-USA-IP_EBC-USA-IP      2016.07.08.05.40.46    -2.61132193    -4.19698286    -3.82727128     0.00000423     0.00000000     0.00000638 0.00000000 VRAI 
CAM-EBC-USA-HO_EBC-USA-HO      2016.07.08.05.40.46    -2.61582208    -4.19701958    -5.89169633     0.00000146     0.00000000     0.00000176 0.00000000 VRAI 
CAM-EBA-US-IP_EBA-US-IP        2016.07.08.05.40.46     2.61459714    -4.19698811     3.83338553     0.00000243     0.00000000     0.00000366 0.00000000 VRAI 
CAM-EBA-US-HO_EBA-US-HO        2016.07.08.05.40.46     2.61677402    -4.19703007     5.89773059     0.00000186     0.00000000     0.00000240 0.00000000 VRAI 
CAM-EBA-USA-IP_EBA-USA-IP      2016.07.08.05.40.46    -2.61123282    -4.19700384     3.83567697     0.00000434     0.00000000     0.00000124 0.00000000 VRAI 
CAM-EBA-USA-HO_EBA-USA-HO      2016.07.08.05.40.46    -2.61282033    -4.19702482     5.89856946     0.00000162     0.00000000     0.00000040 0.00000000 VRAI 
CAM-LBC-US_EBC-US-HO-H         2016.07.08.05.40.46     2.80753469    -3.78081304    -6.47895050     0.02656946     0.01669875     0.00023292 0.00000000 VRAI 
CAM-LBC-US_JDC-US-H            2016.07.08.05.40.46     2.78505605    -3.67693341    -6.67472994     0.00219633     0.00298950     0.00004594 0.00000000 VRAI 
CAM-LBC-US_CAM-LBA-US          2016.07.08.05.40.46     2.81471789    -3.75325894     2.69822550     0.00000388     0.00000263     0.00000000 0.00000000 VRAI 
CAM-LBC-US_EBA-US-IP-H         2016.07.08.05.40.46     2.84032762    -3.68425393     3.12405610     0.00001191     0.00001293     0.00000041 0.00000000 VRAI 
CAM-LBC-USA_EBC-USA-HO-H       2016.07.08.05.40.46    -2.84791207    -3.69350624    -6.47909880     0.00000703     0.00000624     0.00000000 0.00000000 VRAI 
CAM-LBC-USA_JDC-USA-H          2016.07.08.05.40.46    -2.82482177    -3.77030694    -6.67505836     0.00000243     0.00000324     0.00000000 0.00000000 VRAI 
CAM-LBC-USA_CAM-LBA-USA        2016.07.08.05.40.46    -2.81438875    -3.74957252     2.68347168     0.00000312     0.00000491     0.00000000 0.00000000 VRAI 
CAM-LBC-USA_EBA-USA-IP-H       2016.07.08.05.40.46    -2.74972892    -3.67853463     3.12359077     0.00178696     0.02258599     0.00021842 0.00000000 VRAI 
