********** Fichier qui contient une sauvegarde des coordonnees images + coordonnees images transformees dans le repere BCAM (MOUNT) + coordonnees des prismes dans le repere MOUNT********** 
********************************************************************** Unite en metres (m)************************************************************************************************** 

*******************************************************************coordonnees images dans le repere CCD *********************************************************************************** 
20MABNDB000069_PR031
Spot 1     0.00021500     0.00240500
Spot 2     0.00021500     0.00240500
Spot 1     0.00021500     0.00240500
Spot 2     0.00021500     0.00240500
Spot 1     0.00021500     0.00240500
Spot 2     0.00021500     0.00240500
Spot 1     0.00021500     0.00240500
Spot 2     0.00021500     0.00240500
Spot 1     0.00021500     0.00240500
Spot 2     0.00021500     0.00240500
20MABNDB000069_PR033
Spot 1     0.00183412     0.00201088
Spot 2     0.00230324     0.00203044
Spot 1     0.00183399     0.00201096
Spot 2     0.00230328     0.00203057
Spot 1     0.00183407     0.00201085
Spot 2     0.00230324     0.00203054
Spot 1     0.00183391     0.00201090
Spot 2     0.00230328     0.00203057
Spot 1     0.00183399     0.00201086
Spot 2     0.00230335     0.00203063
20MABNDB000131_PR032
Spot 1     0.00277881     0.00108553
Spot 2     0.00283823     0.00108909
Spot 1     0.00277897     0.00108561
Spot 2     0.00283807     0.00108916
Spot 1     0.00277891     0.00108565
Spot 2     0.00283819     0.00108914
Spot 1     0.00277870     0.00108561
Spot 2     0.00283825     0.00108893
Spot 1     0.00277903     0.00108556
Spot 2     0.00283811     0.00108915
20MABNDB000131_PR034
Spot 1     0.00092748     0.00035903
Spot 2     0.00110362     0.00035747
Spot 1     0.00092738     0.00035911
Spot 2     0.00110360     0.00035772
Spot 1     0.00092750     0.00035888
Spot 2     0.00110345     0.00035761
Spot 1     0.00092756     0.00035886
Spot 2     0.00110339     0.00035784
Spot 1     0.00092763     0.00035895
Spot 2     0.00110350     0.00035750
20MABNDA000208_PR042
Spot 1     0.00305247     0.00094079
Spot 2     0.00298779     0.00094234
Spot 1     0.00305324     0.00094112
Spot 2     0.00298658     0.00094261
Spot 1     0.00305289     0.00094067
Spot 2     0.00298634     0.00094173
Spot 1     0.00305264     0.00094102
Spot 2     0.00298671     0.00094196
Spot 1     0.00305316     0.00094104
Spot 2     0.00298656     0.00094149
20MABNDA000208_PR046
Spot 1     0.00145559     0.00210317
Spot 2     0.00098134     0.00210532
Spot 1     0.00145580     0.00210313
Spot 2     0.00098150     0.00210544
Spot 1     0.00145563     0.00210335
Spot 2     0.00098156     0.00210539
Spot 1     0.00145558     0.00210340
Spot 2     0.00098154     0.00210522
Spot 1     0.00145586     0.00210345
Spot 2     0.00098157     0.00210561
20MABNDA000035_PR044
Spot 1     0.00073988     0.00126690
Spot 2     0.00068607     0.00126099
Spot 1     0.00073988     0.00126691
Spot 2     0.00068607     0.00126109
Spot 1     0.00074013     0.00126693
Spot 2     0.00068600     0.00126111
Spot 1     0.00073993     0.00126695
Spot 2     0.00068572     0.00126090
Spot 1     0.00073988     0.00126705
Spot 2     0.00068632     0.00126099
20MABNDA000035_PR045
Spot 1     0.00254820     0.00051415
Spot 2     0.00237168     0.00051274
Spot 1     0.00254807     0.00051434
Spot 2     0.00237150     0.00051273
Spot 1     0.00254803     0.00051462
Spot 2     0.00237157     0.00051271
Spot 1     0.00254807     0.00051446
Spot 2     0.00237153     0.00051283
Spot 1     0.00254822     0.00051431
Spot 2     0.00237163     0.00051269
20MABNDL000077_PR002
Spot 1     0.00079417     0.00149561
Spot 2     0.00095609     0.00149504
Spot 1     0.00079434     0.00149526
Spot 2     0.00095626     0.00149495
Spot 1     0.00079441     0.00149528
Spot 2     0.00095622     0.00149481
Spot 1     0.00079447     0.00149534
Spot 2     0.00095639     0.00149489
Spot 1     0.00079444     0.00149544
Spot 2     0.00095651     0.00149456
20MABNDL000077_PR003
Spot 1     0.00152582     0.00118863
Spot 2     0.00167537     0.00119030
Spot 1     0.00152610     0.00119008
Spot 2     0.00167521     0.00119036
Spot 1     0.00152581     0.00118805
Spot 2     0.00167557     0.00119039
Spot 1     0.00152548     0.00118848
Spot 2     0.00167558     0.00119041
Spot 1     0.00152589     0.00118837
Spot 2     0.00167571     0.00119025
20MABNDL000077_20MABNDM000168
Spot 1     0.00188440     0.00148767
Spot 2     0.00167768     0.00160207
Spot 1     0.00188413     0.00148757
Spot 2     0.00167857     0.00160232
Spot 1     0.00188388     0.00148737
Spot 2     0.00167888     0.00160213
Spot 1     0.00188416     0.00148729
Spot 2     0.00167788     0.00160288
Spot 1     0.00188410     0.00148746
Spot 2     0.00167806     0.00160133
20MABNDL000077_PR024
Spot 1     0.00262823     0.00171594
Spot 2     0.00272951     0.00172014
Spot 1     0.00262862     0.00171571
Spot 2     0.00272963     0.00172025
Spot 1     0.00262870     0.00171595
Spot 2     0.00272950     0.00172019
Spot 1     0.00262842     0.00171554
Spot 2     0.00272952     0.00172011
Spot 1     0.00262885     0.00171554
Spot 2     0.00272953     0.00171985
20MABNDM000020_PR013
Spot 1     0.00164196     0.00213727
Spot 2     0.00148938     0.00214532
Spot 1     0.00164228     0.00213845
Spot 2     0.00148990     0.00214409
Spot 1     0.00164260     0.00213795
Spot 2     0.00148958     0.00214541
Spot 1     0.00164208     0.00213887
Spot 2     0.00148983     0.00214445
Spot 1     0.00164203     0.00213883
Spot 2     0.00148980     0.00214502
20MABNDM000020_PR014
Spot 1     0.00267934     0.00227985
Spot 2     0.00251742     0.00228707
Spot 1     0.00267944     0.00227885
Spot 2     0.00251797     0.00228626
Spot 1     0.00267960     0.00227941
Spot 2     0.00251761     0.00228584
Spot 1     0.00267888     0.00227944
Spot 2     0.00251747     0.00228558
Spot 1     0.00267847     0.00227941
Spot 2     0.00251579     0.00228551
20MABNDM000020_20MABNDL000196
Spot 1     0.00200118     0.00057973
Spot 2     0.00096500     0.00046500
Spot 1     0.00200143     0.00057958
Spot 2     0.00080500     0.00021500
Spot 1     0.00200159     0.00057971
Spot 2     0.00080500     0.00021500
Spot 1     0.00200142     0.00057951
Spot 2     0.00080500     0.00021500
Spot 1     0.00200145     0.00057955
Spot 2     0.00080500     0.00021500
20MABNDM000020_PR035
Spot 1     0.00126714     0.00087583
Spot 2     0.00119519     0.00090742
Spot 1     0.00126758     0.00087552
Spot 2     0.00119503     0.00090756
Spot 1     0.00126825     0.00087478
Spot 2     0.00119572     0.00090717
Spot 1     0.00126880     0.00087424
Spot 2     0.00119593     0.00090671
Spot 1     0.00126921     0.00087387
Spot 2     0.00119593     0.00090664
20MABNDA000188_PR008
Spot 1     0.00283500     0.00012500
Spot 2     0.00283500     0.00012500
Spot 1     0.00283500     0.00012500
Spot 2     0.00283500     0.00012500
Spot 1     0.00283500     0.00012500
Spot 2     0.00336750     0.00014250
Spot 1     0.00283500     0.00012500
Spot 2     0.00283500     0.00012500
Spot 1     0.00283500     0.00012500
Spot 2     0.00318500     0.00010500
20MABNDA000188_PR018
Spot 1     0.00164740     0.00174915
Spot 2     0.00118049     0.00174654
Spot 1     0.00164746     0.00174926
Spot 2     0.00118031     0.00174679
Spot 1     0.00164745     0.00174929
Spot 2     0.00118041     0.00174680
Spot 1     0.00164736     0.00174940
Spot 2     0.00118023     0.00174662
20MABNDA000039_PR009
Spot 1     0.00066278     0.00117319
Spot 2     0.00061538     0.00117763
Spot 1     0.00066263     0.00117317
Spot 2     0.00061478     0.00117771
Spot 1     0.00066280     0.00117320
Spot 2     0.00061503     0.00117772
Spot 1     0.00066227     0.00117358
Spot 2     0.00061503     0.00117781
20MABNDA000039_PR011
Spot 1     0.00276272     0.00027802
Spot 2     0.00258789     0.00027333
Spot 1     0.00276292     0.00027798
Spot 2     0.00258790     0.00027345
Spot 1     0.00276281     0.00027804
Spot 2     0.00258789     0.00027340
Spot 1     0.00276291     0.00027810
Spot 2     0.00258790     0.00027342
20MABNDB000155_PR020
Spot 1     0.00061866     0.00112349
Spot 2     0.00068027     0.00111977
Spot 1     0.00061791     0.00112303
Spot 2     0.00067968     0.00112009
Spot 1     0.00061797     0.00112344
Spot 2     0.00068026     0.00112000
Spot 1     0.00061842     0.00112342
Spot 2     0.00068070     0.00111978
20MABNDB000155_PR022
Spot 1     0.00208278     0.00134722
Spot 2     0.00255598     0.00134211
Spot 1     0.00208286     0.00134725
Spot 2     0.00255561     0.00134206
Spot 1     0.00208278     0.00134722
Spot 2     0.00255594     0.00134205
Spot 1     0.00208277     0.00134713
Spot 2     0.00255575     0.00134232
20MABNDB000010_PR021
Spot 1     0.00286682     0.00115692
Spot 2     0.00291951     0.00115959
Spot 1     0.00286668     0.00115654
Spot 2     0.00291966     0.00115930
Spot 1     0.00286679     0.00115672
Spot 2     0.00291980     0.00115944
Spot 1     0.00286642     0.00115650
Spot 2     0.00291975     0.00115975
20MABNDB000010_PR023
Spot 1     0.00130703     0.00033277
Spot 2     0.00148171     0.00033123
Spot 1     0.00130700     0.00033238
Spot 2     0.00148163     0.00033108
Spot 1     0.00130712     0.00033313
Spot 2     0.00148178     0.00033098
Spot 1     0.00130723     0.00033261
Spot 2     0.00148168     0.00033110
20MABNDB000212_PR029
Spot 1     0.00226191     0.00072539
Spot 2     0.00189531     0.00072547
Spot 1     0.00226201     0.00072539
Spot 2     0.00189581     0.00072484
Spot 1     0.00226183     0.00072545
Spot 2     0.00189563     0.00072500
Spot 1     0.00226188     0.00072554
Spot 2     0.00189565     0.00072516
20MABNDB000128_PR030
Spot 1     0.00188662     0.00200652
Spot 2     0.00209005     0.00200113
Spot 1     0.00188639     0.00200696
Spot 2     0.00209005     0.00200134
Spot 1     0.00188648     0.00200663
Spot 2     0.00209000     0.00200147
Spot 1     0.00188652     0.00200667
Spot 2     0.00209010     0.00200128
20MABNDA000444_PR040
Spot 1     0.00078294     0.00037302
Spot 2     0.00114856     0.00037127
Spot 1     0.00078294     0.00037341
Spot 2     0.00114881     0.00037167
Spot 1     0.00078295     0.00037343
Spot 2     0.00114877     0.00037123
Spot 1     0.00078278     0.00037325
Spot 2     0.00114903     0.00037210
20MABNDA000053_PR041
Spot 1     0.00164478     0.00198980
Spot 2     0.00144226     0.00198670
Spot 1     0.00164478     0.00199023
Spot 2     0.00144230     0.00198706
Spot 1     0.00164486     0.00199017
Spot 2     0.00144210     0.00198710
Spot 1     0.00164496     0.00199029
Spot 2     0.00144230     0.00198706
20MABNDA000196_PR006
Spot 1     0.00198629     0.00075832
Spot 2     0.00162099     0.00075414
Spot 1     0.00198647     0.00075843
Spot 2     0.00162086     0.00075408
Spot 1     0.00198636     0.00075839
Spot 2     0.00162095     0.00075394
Spot 1     0.00198620     0.00075839
Spot 2     0.00162093     0.00075425
20MABNDA000324_PR007
Spot 1     0.00195144     0.00120394
Spot 2     0.00174615     0.00120984
Spot 1     0.00195136     0.00120409
Spot 2     0.00174633     0.00120994
Spot 1     0.00195128     0.00120394
Spot 2     0.00174606     0.00120994
Spot 1     0.00195142     0.00120393
Spot 2     0.00174629     0.00120994
20MABNDB000001_PR017
Spot 1     0.00188520     0.00047158
Spot 2     0.00225414     0.00048186
Spot 1     0.00188541     0.00047162
Spot 2     0.00225414     0.00048186
Spot 1     0.00188523     0.00047154
Spot 2     0.00225397     0.00048162
Spot 1     0.00188530     0.00047168
Spot 2     0.00225437     0.00048184
20MABNDB000260_PR019
Spot 1     0.00191997     0.00149411
Spot 2     0.00212386     0.00149477
Spot 1     0.00191998     0.00149428
Spot 2     0.00212385     0.00149500
Spot 1     0.00191998     0.00149408
Spot 2     0.00212343     0.00149480
Spot 1     0.00192017     0.00149441
Spot 2     0.00212349     0.00149443
20MABNDB000135_PR027
Spot 1     0.00189112     0.00092376
Spot 2     0.00210979     0.00092620
Spot 1     0.00189105     0.00092374
Spot 2     0.00210965     0.00092639
Spot 1     0.00189129     0.00092371
Spot 2     0.00210957     0.00092660
Spot 1     0.00189109     0.00092374
Spot 2     0.00210948     0.00092641
20MABNDB000126_PR028
Spot 1     0.00164445     0.00200095
Spot 2     0.00192599     0.00200362
Spot 1     0.00164424     0.00200102
Spot 2     0.00192588     0.00200341
Spot 1     0.00164450     0.00200093
Spot 2     0.00192578     0.00200339
Spot 1     0.00164449     0.00200102
Spot 2     0.00192565     0.00200339
20MABNDA000272_PR038
Spot 1     0.00192387     0.00096268
Spot 2     0.00170194     0.00096111
Spot 1     0.00192405     0.00096262
Spot 2     0.00170201     0.00096107
Spot 1     0.00192384     0.00096248
Spot 2     0.00170176     0.00096120
Spot 1     0.00192381     0.00096268
Spot 2     0.00170192     0.00096126
20MABNDA000003_PR039
Spot 1     0.00200155     0.00192069
Spot 2     0.00227901     0.00192075
Spot 1     0.00200160     0.00192053
Spot 2     0.00227900     0.00192084
Spot 1     0.00200155     0.00192057
Spot 2     0.00227920     0.00192080
Spot 1     0.00200152     0.00192061
Spot 2     0.00227894     0.00192062
20MABNDA000318_PR004
Spot 1     0.00214726     0.00163163
Spot 2     0.00192939     0.00163270
Spot 1     0.00214711     0.00163200
Spot 2     0.00192938     0.00163310
Spot 1     0.00214729     0.00163179
Spot 2     0.00192972     0.00163352
Spot 1     0.00214702     0.00163190
Spot 2     0.00192953     0.00163318
20MABNDA000334_PR005
Spot 1     0.00247459     0.00158075
Spot 2     0.00219429     0.00158119
Spot 1     0.00247447     0.00158078
Spot 2     0.00219407     0.00158134
Spot 1     0.00247432     0.00158068
Spot 2     0.00219399     0.00158113
Spot 1     0.00247437     0.00158068
Spot 2     0.00219418     0.00158107
20MABNDB000317_PR015
Spot 1     0.00148812     0.00160932
Spot 2     0.00170745     0.00160316
Spot 1     0.00148820     0.00160938
Spot 2     0.00170738     0.00160337
Spot 1     0.00148813     0.00160957
Spot 2     0.00170747     0.00160335
Spot 1     0.00148811     0.00160969
Spot 2     0.00170751     0.00160341
20MABNDB000146_PR016
Spot 1     0.00144640     0.00133225
Spot 2     0.00172138     0.00133446
Spot 1     0.00144654     0.00133228
Spot 2     0.00172148     0.00133445
Spot 1     0.00144640     0.00133208
Spot 2     0.00172167     0.00133446
Spot 1     0.00144630     0.00133228
Spot 2     0.00172141     0.00133398
20MABNDM000168_PR025
Spot 1     0.00105500     0.00031500
Spot 2     0.00105500     0.00031500
Spot 1     0.00105500     0.00031500
Spot 2     0.00179300     0.00005900
Spot 1     0.00105500     0.00031500
Spot 2     0.00105500     0.00031500
Spot 1     0.00078900     0.00006900
Spot 2     0.00105500     0.00031500
20MABNDM000168_PR026
Spot 1     0.00335409     0.00005591
Spot 2     0.00339500     0.00004900
Spot 1     0.00335750     0.00004500
Spot 2     0.00229750     0.00004000
Spot 1     0.00323500     0.00003500
Spot 2     0.00277500     0.00187500
Spot 1     0.00324357     0.00003786
Spot 2     0.00277500     0.00187500
20MABNDM000168_20MABNDL000077
Spot 1     0.00153812     0.00129683
Spot 2     0.00175689     0.00130067
Spot 1     0.00153801     0.00129686
Spot 2     0.00175674     0.00130042
Spot 1     0.00153811     0.00129686
Spot 2     0.00175639     0.00130036
Spot 1     0.00153804     0.00129699
Spot 2     0.00175633     0.00129997
20MABNDM000168_PR001
Spot 1     0.00080591     0.00161551
Spot 2     0.00070462     0.00162065
Spot 1     0.00080679     0.00161612
Spot 2     0.00070485     0.00162068
Spot 1     0.00080696     0.00161648
Spot 2     0.00070471     0.00162083
Spot 1     0.00080673     0.00161628
Spot 2     0.00070476     0.00162071
20MABNDL000196_PR036
Spot 1     0.00095903     0.00164425
Spot 2     0.00112270     0.00164432
Spot 1     0.00095888     0.00164440
Spot 2     0.00112242     0.00164412
Spot 1     0.00095867     0.00164437
Spot 2     0.00112248     0.00164433
Spot 1     0.00095865     0.00164450
Spot 2     0.00112226     0.00164429
20MABNDL000196_PR037
Spot 1     0.00248336     0.00116541
Spot 2     0.00263713     0.00116340
Spot 1     0.00248326     0.00116534
Spot 2     0.00263715     0.00116363
Spot 1     0.00248328     0.00116556
Spot 2     0.00263721     0.00116346
Spot 1     0.00248339     0.00116528
Spot 2     0.00263684     0.00116337
20MABNDL000196_20MABNDM000020
Spot 1     0.00195211     0.00102971
Spot 2     0.00173037     0.00102911
Spot 1     0.00195232     0.00102967
Spot 2     0.00173050     0.00102916
Spot 1     0.00195253     0.00102948
Spot 2     0.00173039     0.00102917
Spot 1     0.00195269     0.00102959
Spot 2     0.00173043     0.00102942
20MABNDL000196_PR012
Spot 1     0.00342500     0.00005500
Spot 2     0.00275500     0.00001500
Spot 1     0.00304500     0.00006500
Spot 2     0.00315600     0.00069500
Spot 1     0.00315667     0.00069500
Spot 2     0.00232500     0.00042500
Spot 1     0.00315600     0.00069500
Spot 2     0.00266500     0.00002500


****************************************************************coordonnees images transformees dans le repere MOUNT************************************************************************* 
20MABNDB000069_PR031
Spot 1    -0.01361993    -0.01186066    -0.07388500
Spot 2    -0.01361993    -0.01186066    -0.07388500
Spot 1    -0.01361993    -0.01186066    -0.07388500
Spot 2    -0.01361993    -0.01186066    -0.07388500
Spot 1    -0.01361993    -0.01186066    -0.07388500
Spot 2    -0.01361993    -0.01186066    -0.07388500
Spot 1    -0.01361993    -0.01186066    -0.07388500
Spot 2    -0.01361993    -0.01186066    -0.07388500
Spot 1    -0.01361993    -0.01186066    -0.07388500
Spot 2    -0.01361993    -0.01186066    -0.07388500
20MABNDB000069_PR033
Spot 1    -0.01201845    -0.01232127    -0.07388500
Spot 2    -0.01154892    -0.01232108    -0.07388500
Spot 1    -0.01201858    -0.01232118    -0.07388500
Spot 2    -0.01154888    -0.01232095    -0.07388500
Spot 1    -0.01201850    -0.01232129    -0.07388500
Spot 2    -0.01154892    -0.01232098    -0.07388500
Spot 1    -0.01201866    -0.01232124    -0.07388500
Spot 2    -0.01154888    -0.01232095    -0.07388500
Spot 1    -0.01201858    -0.01232128    -0.07388500
Spot 2    -0.01154881    -0.01232090    -0.07388500
20MABNDB000131_PR032
Spot 1    -0.01144138    -0.01302921    -0.07533000
Spot 2    -0.01138198    -0.01302536    -0.07533000
Spot 1    -0.01144122    -0.01302913    -0.07533000
Spot 2    -0.01138214    -0.01302529    -0.07533000
Spot 1    -0.01144128    -0.01302909    -0.07533000
Spot 2    -0.01138202    -0.01302531    -0.07533000
Spot 1    -0.01144149    -0.01302914    -0.07533000
Spot 2    -0.01138196    -0.01302552    -0.07533000
Spot 1    -0.01144116    -0.01302918    -0.07533000
Spot 2    -0.01138210    -0.01302530    -0.07533000
20MABNDB000131_PR034
Spot 1    -0.01328903    -0.01376503    -0.07533000
Spot 2    -0.01311288    -0.01376570    -0.07533000
Spot 1    -0.01328913    -0.01376495    -0.07533000
Spot 2    -0.01311290    -0.01376545    -0.07533000
Spot 1    -0.01328901    -0.01376518    -0.07533000
Spot 2    -0.01311305    -0.01376556    -0.07533000
Spot 1    -0.01328895    -0.01376520    -0.07533000
Spot 2    -0.01311311    -0.01376533    -0.07533000
Spot 1    -0.01328888    -0.01376511    -0.07533000
Spot 2    -0.01311300    -0.01376567    -0.07533000
20MABNDA000208_PR042
Spot 1    -0.01392320     0.01305523    -0.07273700
Spot 2    -0.01385852     0.01305374    -0.07273700
Spot 1    -0.01392397     0.01305490    -0.07273700
Spot 2    -0.01385731     0.01305347    -0.07273700
Spot 1    -0.01392362     0.01305535    -0.07273700
Spot 2    -0.01385707     0.01305435    -0.07273700
Spot 1    -0.01392337     0.01305500    -0.07273700
Spot 2    -0.01385744     0.01305412    -0.07273700
Spot 1    -0.01392389     0.01305498    -0.07273700
Spot 2    -0.01385729     0.01305459    -0.07273700
20MABNDA000208_PR046
Spot 1    -0.01232530     0.01189426    -0.07273700
Spot 2    -0.01185105     0.01189252    -0.07273700
Spot 1    -0.01232551     0.01189430    -0.07273700
Spot 2    -0.01185121     0.01189240    -0.07273700
Spot 1    -0.01232534     0.01189408    -0.07273700
Spot 2    -0.01185127     0.01189245    -0.07273700
Spot 1    -0.01232529     0.01189403    -0.07273700
Spot 2    -0.01185125     0.01189262    -0.07273700
Spot 1    -0.01232557     0.01189398    -0.07273700
Spot 2    -0.01185128     0.01189223    -0.07273700
20MABNDA000035_PR044
Spot 1    -0.01157460     0.01299036    -0.07483200
Spot 2    -0.01152075     0.01299589    -0.07483200
Spot 1    -0.01157460     0.01299035    -0.07483200
Spot 2    -0.01152075     0.01299579    -0.07483200
Spot 1    -0.01157485     0.01299033    -0.07483200
Spot 2    -0.01152068     0.01299576    -0.07483200
Spot 1    -0.01157465     0.01299031    -0.07483200
Spot 2    -0.01152040     0.01299597    -0.07483200
Spot 1    -0.01157460     0.01299021    -0.07483200
Spot 2    -0.01152100     0.01299589    -0.07483200
20MABNDA000035_PR045
Spot 1    -0.01337752     0.01375595    -0.07483200
Spot 2    -0.01320099     0.01375611    -0.07483200
Spot 1    -0.01337739     0.01375576    -0.07483200
Spot 2    -0.01320081     0.01375612    -0.07483200
Spot 1    -0.01337735     0.01375548    -0.07483200
Spot 2    -0.01320088     0.01375614    -0.07483200
Spot 1    -0.01337739     0.01375564    -0.07483200
Spot 2    -0.01320084     0.01375602    -0.07483200
Spot 1    -0.01337754     0.01375579    -0.07483200
Spot 2    -0.01320094     0.01375616    -0.07483200
20MABNDL000077_PR002
Spot 1     0.01186445     0.03557109    -0.07463200
Spot 2     0.01202636     0.03556896    -0.07463200
Spot 1     0.01186462     0.03557073    -0.07463200
Spot 2     0.01202653     0.03556887    -0.07463200
Spot 1     0.01186469     0.03557075    -0.07463200
Spot 2     0.01202649     0.03556873    -0.07463200
Spot 1     0.01186475     0.03557081    -0.07463200
Spot 2     0.01202666     0.03556880    -0.07463200
Spot 1     0.01186472     0.03557091    -0.07463200
Spot 2     0.01202677     0.03556847    -0.07463200
20MABNDL000077_PR003
Spot 1     0.01259311     0.03525708    -0.07463200
Spot 2     0.01274267     0.03525731    -0.07463200
Spot 1     0.01259341     0.03525853    -0.07463200
Spot 2     0.01274251     0.03525737    -0.07463200
Spot 1     0.01259310     0.03525650    -0.07463200
Spot 2     0.01274287     0.03525740    -0.07463200
Spot 1     0.01259277     0.03525693    -0.07463200
Spot 2     0.01274288     0.03525742    -0.07463200
Spot 1     0.01259318     0.03525682    -0.07463200
Spot 2     0.01274301     0.03525726    -0.07463200
20MABNDL000077_20MABNDM000168
Spot 1    -0.01272264     0.03554934    -0.00695400
Spot 2    -0.01251710     0.03566585    -0.00695400
Spot 1    -0.01272237     0.03554924    -0.00695400
Spot 2    -0.01251800     0.03566609    -0.00695400
Spot 1    -0.01272212     0.03554904    -0.00695400
Spot 2    -0.01251831     0.03566589    -0.00695400
Spot 1    -0.01272240     0.03554896    -0.00695400
Spot 2    -0.01251731     0.03566665    -0.00695400
Spot 1    -0.01272234     0.03554913    -0.00695400
Spot 2    -0.01251748     0.03566510    -0.00695400
20MABNDL000077_PR024
Spot 1    -0.01346877     0.03576998    -0.00695400
Spot 2    -0.01357009     0.03577314    -0.00695400
Spot 1    -0.01346916     0.03576975    -0.00695400
Spot 2    -0.01357021     0.03577325    -0.00695400
Spot 1    -0.01346924     0.03576999    -0.00695400
Spot 2    -0.01357008     0.03577319    -0.00695400
Spot 1    -0.01346896     0.03576958    -0.00695400
Spot 2    -0.01357010     0.03577311    -0.00695400
Spot 1    -0.01346939     0.03576957    -0.00695400
Spot 2    -0.01357011     0.03577285    -0.00695400
20MABNDM000020_PR013
Spot 1    -0.01270349    -0.03609548    -0.00523500
Spot 2    -0.01285585    -0.03610690    -0.00523500
Spot 1    -0.01270314    -0.03609665    -0.00523500
Spot 2    -0.01285536    -0.03610566    -0.00523500
Spot 1    -0.01270283    -0.03609614    -0.00523500
Spot 2    -0.01285565    -0.03610698    -0.00523500
Spot 1    -0.01270333    -0.03609707    -0.00523500
Spot 2    -0.01285542    -0.03610602    -0.00523500
Spot 1    -0.01270338    -0.03609703    -0.00523500
Spot 2    -0.01285544    -0.03610659    -0.00523500
20MABNDM000020_PR014
Spot 1    -0.01166321    -0.03621508    -0.00523500
Spot 2    -0.01182493    -0.03622588    -0.00523500
Spot 1    -0.01166313    -0.03621408    -0.00523500
Spot 2    -0.01182440    -0.03622506    -0.00523500
Spot 1    -0.01166296    -0.03621463    -0.00523500
Spot 2    -0.01182477    -0.03622464    -0.00523500
Spot 1    -0.01166368    -0.03621468    -0.00523500
Spot 2    -0.01182491    -0.03622439    -0.00523500
Spot 1    -0.01166409    -0.03621466    -0.00523500
Spot 2    -0.01182659    -0.03622436    -0.00523500
20MABNDM000020_20MABNDL000196
Spot 1     0.01268502    -0.03454830    -0.07583800
Spot 2     0.01372118    -0.03443342    -0.07583800
Spot 1     0.01268477    -0.03454815    -0.07583800
Spot 2     0.01388114    -0.03418340    -0.07583800
Spot 1     0.01268461    -0.03454828    -0.07583800
Spot 2     0.01388114    -0.03418340    -0.07583800
Spot 1     0.01268478    -0.03454808    -0.07583800
Spot 2     0.01388114    -0.03418340    -0.07583800
Spot 1     0.01268475    -0.03454812    -0.07583800
Spot 2     0.01388114    -0.03418340    -0.07583800
20MABNDM000020_PR035
Spot 1     0.01341910    -0.03484429    -0.07583800
Spot 2     0.01349105    -0.03487588    -0.07583800
Spot 1     0.01341866    -0.03484399    -0.07583800
Spot 2     0.01349121    -0.03487602    -0.07583800
Spot 1     0.01341799    -0.03484325    -0.07583800
Spot 2     0.01349052    -0.03487563    -0.07583800
Spot 1     0.01341744    -0.03484271    -0.07583800
Spot 2     0.01349031    -0.03487517    -0.07583800
Spot 1     0.01341703    -0.03484234    -0.07583800
Spot 2     0.01349031    -0.03487510    -0.07583800
20MABNDA000188_PR008
Spot 1    -0.01385116     0.01393841    -0.07502000
Spot 2    -0.01385116     0.01393841    -0.07502000
Spot 1    -0.01385116     0.01393841    -0.07502000
Spot 2    -0.01385116     0.01393841    -0.07502000
Spot 1    -0.01385116     0.01393841    -0.07502000
Spot 2    -0.01438379     0.01392547    -0.07502000
Spot 1    -0.01385116     0.01393841    -0.07502000
Spot 2    -0.01385116     0.01393841    -0.07502000
Spot 1    -0.01385116     0.01393841    -0.07502000
Spot 2    -0.01420098     0.01396141    -0.07502000
20MABNDA000188_PR018
Spot 1    -0.01267751     0.01230415    -0.07502000
Spot 2    -0.01221060     0.01230276    -0.07502000
Spot 1    -0.01267757     0.01230404    -0.07502000
Spot 2    -0.01221042     0.01230251    -0.07502000
Spot 1    -0.01267756     0.01230401    -0.07502000
Spot 2    -0.01221052     0.01230250    -0.07502000
Spot 1    -0.01267747     0.01230390    -0.07502000
Spot 2    -0.01221034     0.01230268    -0.07502000
20MABNDA000039_PR009
Spot 1    -0.01162490     0.01307094    -0.07444800
Spot 2    -0.01157752     0.01306629    -0.07444800
Spot 1    -0.01162475     0.01307096    -0.07444800
Spot 2    -0.01157692     0.01306621    -0.07444800
Spot 1    -0.01162492     0.01307093    -0.07444800
Spot 2    -0.01157717     0.01306620    -0.07444800
Spot 1    -0.01162439     0.01307055    -0.07444800
Spot 2    -0.01157717     0.01306611    -0.07444800
20MABNDA000039_PR011
Spot 1    -0.01372095     0.01397519    -0.07444800
Spot 2    -0.01354610     0.01397912    -0.07444800
Spot 1    -0.01372115     0.01397523    -0.07444800
Spot 2    -0.01354611     0.01397900    -0.07444800
Spot 1    -0.01372104     0.01397517    -0.07444800
Spot 2    -0.01354610     0.01397905    -0.07444800
Spot 1    -0.01372114     0.01397511    -0.07444800
Spot 2    -0.01354611     0.01397903    -0.07444800
20MABNDB000155_PR020
Spot 1    -0.01364741    -0.01313390    -0.07501700
Spot 2    -0.01358576    -0.01313677    -0.07501700
Spot 1    -0.01364816    -0.01313437    -0.07501700
Spot 2    -0.01358635    -0.01313646    -0.07501700
Spot 1    -0.01364810    -0.01313396    -0.07501700
Spot 2    -0.01358577    -0.01313654    -0.07501700
Spot 1    -0.01364765    -0.01313397    -0.07501700
Spot 2    -0.01358533    -0.01313676    -0.07501700
20MABNDB000155_PR022
Spot 1    -0.01218649    -0.01289014    -0.07501700
Spot 2    -0.01171327    -0.01288878    -0.07501700
Spot 1    -0.01218641    -0.01289011    -0.07501700
Spot 2    -0.01171364    -0.01288883    -0.07501700
Spot 1    -0.01218649    -0.01289014    -0.07501700
Spot 2    -0.01171331    -0.01288884    -0.07501700
Spot 1    -0.01218650    -0.01289023    -0.07501700
Spot 2    -0.01171350    -0.01288857    -0.07501700
20MABNDB000010_PR021
Spot 1    -0.01158425    -0.01292162    -0.07358200
Spot 2    -0.01153161    -0.01291806    -0.07358200
Spot 1    -0.01158439    -0.01292201    -0.07358200
Spot 2    -0.01153146    -0.01291835    -0.07358200
Spot 1    -0.01158428    -0.01292182    -0.07358200
Spot 2    -0.01153132    -0.01291821    -0.07358200
Spot 1    -0.01158464    -0.01292205    -0.07358200
Spot 2    -0.01153138    -0.01291790    -0.07358200
20MABNDB000010_PR023
Spot 1    -0.01312986    -0.01377208    -0.07358200
Spot 2    -0.01295518    -0.01377066    -0.07358200
Spot 1    -0.01312988    -0.01377247    -0.07358200
Spot 2    -0.01295525    -0.01377081    -0.07358200
Spot 1    -0.01312977    -0.01377172    -0.07358200
Spot 2    -0.01295510    -0.01377091    -0.07358200
Spot 1    -0.01312965    -0.01377224    -0.07358200
Spot 2    -0.01295520    -0.01377079    -0.07358200
20MABNDB000212_PR029
Spot 1    -0.01182568    -0.01325618    -0.07390500
Spot 2    -0.01219225    -0.01325219    -0.07390500
Spot 1    -0.01182558    -0.01325618    -0.07390500
Spot 2    -0.01219176    -0.01325282    -0.07390500
Spot 1    -0.01182576    -0.01325612    -0.07390500
Spot 2    -0.01219194    -0.01325266    -0.07390500
Spot 1    -0.01182570    -0.01325603    -0.07390500
Spot 2    -0.01219192    -0.01325250    -0.07390500
20MABNDB000128_PR030
Spot 1    -0.01246852    -0.01221084    -0.07353400
Spot 2    -0.01226507    -0.01221553    -0.07353400
Spot 1    -0.01246875    -0.01221040    -0.07353400
Spot 2    -0.01226507    -0.01221532    -0.07353400
Spot 1    -0.01246866    -0.01221073    -0.07353400
Spot 2    -0.01226512    -0.01221519    -0.07353400
Spot 1    -0.01246862    -0.01221069    -0.07353400
Spot 2    -0.01226502    -0.01221538    -0.07353400
20MABNDA000444_PR040
Spot 1    -0.01172252     0.01365632    -0.07412000
Spot 2    -0.01208814     0.01365343    -0.07412000
Spot 1    -0.01172252     0.01365593    -0.07412000
Spot 2    -0.01208838     0.01365302    -0.07412000
Spot 1    -0.01172253     0.01365591    -0.07412000
Spot 2    -0.01208835     0.01365346    -0.07412000
Spot 1    -0.01172236     0.01365609    -0.07412000
Spot 2    -0.01208859     0.01365259    -0.07412000
20MABNDA000053_PR041
Spot 1    -0.01240143     0.01212050    -0.07430100
Spot 2    -0.01219889     0.01211964    -0.07430100
Spot 1    -0.01240144     0.01212007    -0.07430100
Spot 2    -0.01219893     0.01211929    -0.07430100
Spot 1    -0.01240152     0.01212013    -0.07430100
Spot 2    -0.01219873     0.01211924    -0.07430100
Spot 1    -0.01240162     0.01212001    -0.07430100
Spot 2    -0.01219893     0.01211929    -0.07430100
20MABNDA000196_PR006
Spot 1    -0.01294137     0.01321991    -0.07967100
Spot 2    -0.01257605     0.01321939    -0.07967100
Spot 1    -0.01294155     0.01321980    -0.07967100
Spot 2    -0.01257592     0.01321945    -0.07967100
Spot 1    -0.01294144     0.01321984    -0.07967100
Spot 2    -0.01257600     0.01321959    -0.07967100
Spot 1    -0.01294128     0.01321984    -0.07967100
Spot 2    -0.01257599     0.01321928    -0.07967100
20MABNDA000324_PR007
Spot 1    -0.01255722     0.01281761    -0.07446800
Spot 2    -0.01235189     0.01281331    -0.07446800
Spot 1    -0.01255714     0.01281746    -0.07446800
Spot 2    -0.01235207     0.01281321    -0.07446800
Spot 1    -0.01255706     0.01281761    -0.07446800
Spot 2    -0.01235180     0.01281321    -0.07446800
Spot 1    -0.01255720     0.01281762    -0.07446800
Spot 2    -0.01235203     0.01281321    -0.07446800
20MABNDB000001_PR017
Spot 1    -0.01230281    -0.01351793    -0.07418400
Spot 2    -0.01193379    -0.01351155    -0.07418400
Spot 1    -0.01230260    -0.01351789    -0.07418400
Spot 2    -0.01193379    -0.01351155    -0.07418400
Spot 1    -0.01230278    -0.01351797    -0.07418400
Spot 2    -0.01193396    -0.01351179    -0.07418400
Spot 1    -0.01230271    -0.01351783    -0.07418400
Spot 2    -0.01193356    -0.01351158    -0.07418400
20MABNDB000260_PR019
Spot 1    -0.01241119    -0.01240848    -0.07492700
Spot 2    -0.01220736    -0.01240364    -0.07492700
Spot 1    -0.01241119    -0.01240831    -0.07492700
Spot 2    -0.01220737    -0.01240341    -0.07492700
Spot 1    -0.01241118    -0.01240851    -0.07492700
Spot 2    -0.01220779    -0.01240362    -0.07492700
Spot 1    -0.01241100    -0.01240818    -0.07492700
Spot 2    -0.01220772    -0.01240399    -0.07492700
20MABNDB000135_PR027
Spot 1    -0.01251346    -0.01318926    -0.07464700
Spot 2    -0.01229478    -0.01318926    -0.07464700
Spot 1    -0.01251354    -0.01318928    -0.07464700
Spot 2    -0.01229492    -0.01318907    -0.07464700
Spot 1    -0.01251330    -0.01318931    -0.07464700
Spot 2    -0.01229500    -0.01318885    -0.07464700
Spot 1    -0.01251350    -0.01318928    -0.07464700
Spot 2    -0.01229509    -0.01318904    -0.07464700
20MABNDB000126_PR028
Spot 1    -0.01253504    -0.01218122    -0.07500400
Spot 2    -0.01225352    -0.01217705    -0.07500400
Spot 1    -0.01253525    -0.01218115    -0.07500400
Spot 2    -0.01225363    -0.01217726    -0.07500400
Spot 1    -0.01253499    -0.01218124    -0.07500400
Spot 2    -0.01225373    -0.01217728    -0.07500400
Spot 1    -0.01253500    -0.01218115    -0.07500400
Spot 2    -0.01225386    -0.01217728    -0.07500400
20MABNDA000272_PR038
Spot 1    -0.01275954     0.01314879    -0.07417900
Spot 2    -0.01253761     0.01314997    -0.07417900
Spot 1    -0.01275972     0.01314885    -0.07417900
Spot 2    -0.01253768     0.01315001    -0.07417900
Spot 1    -0.01275951     0.01314899    -0.07417900
Spot 2    -0.01253743     0.01314988    -0.07417900
Spot 1    -0.01275948     0.01314879    -0.07417900
Spot 2    -0.01253759     0.01314982    -0.07417900
20MABNDA000003_PR039
Spot 1    -0.01280262     0.01213158    -0.07373400
Spot 2    -0.01308008     0.01213222    -0.07373400
Spot 1    -0.01280267     0.01213174    -0.07373400
Spot 2    -0.01308007     0.01213213    -0.07373400
Spot 1    -0.01280262     0.01213170    -0.07373400
Spot 2    -0.01308027     0.01213217    -0.07373400
Spot 1    -0.01280259     0.01213166    -0.07373400
Spot 2    -0.01308001     0.01213235    -0.07373400
20MABNDA000318_PR004
Spot 1    -0.01286706     0.01246360    -0.07310600
Spot 2    -0.01264919     0.01246317    -0.07310600
Spot 1    -0.01286691     0.01246323    -0.07310600
Spot 2    -0.01264918     0.01246277    -0.07310600
Spot 1    -0.01286709     0.01246344    -0.07310600
Spot 2    -0.01264952     0.01246235    -0.07310600
Spot 1    -0.01286682     0.01246333    -0.07310600
Spot 2    -0.01264933     0.01246269    -0.07310600
20MABNDA000334_PR005
Spot 1    -0.01311770     0.01254765    -0.07324100
Spot 2    -0.01283740     0.01254694    -0.07324100
Spot 1    -0.01311758     0.01254762    -0.07324100
Spot 2    -0.01283718     0.01254679    -0.07324100
Spot 1    -0.01311743     0.01254772    -0.07324100
Spot 2    -0.01283710     0.01254700    -0.07324100
Spot 1    -0.01311748     0.01254772    -0.07324100
Spot 2    -0.01283729     0.01254706    -0.07324100
20MABNDB000317_PR015
Spot 1    -0.01266628    -0.01248872    -0.07326100
Spot 2    -0.01244689    -0.01249233    -0.07326100
Spot 1    -0.01266620    -0.01248866    -0.07326100
Spot 2    -0.01244696    -0.01249212    -0.07326100
Spot 1    -0.01266627    -0.01248847    -0.07326100
Spot 2    -0.01244687    -0.01249214    -0.07326100
Spot 1    -0.01266629    -0.01248835    -0.07326100
Spot 2    -0.01244684    -0.01249208    -0.07326100
20MABNDB000146_PR016
Spot 1    -0.01276196    -0.01246136    -0.07450500
Spot 2    -0.01248699    -0.01245854    -0.07450500
Spot 1    -0.01276182    -0.01246133    -0.07450500
Spot 2    -0.01248689    -0.01245855    -0.07450500
Spot 1    -0.01276196    -0.01246153    -0.07450500
Spot 2    -0.01248670    -0.01245854    -0.07450500
Spot 1    -0.01276206    -0.01246133    -0.07450500
Spot 2    -0.01248696    -0.01245902    -0.07450500
20MABNDM000168_PR025
Spot 1    -0.01335211    -0.03465272    -0.00532900
Spot 2    -0.01335211    -0.03465272    -0.00532900
Spot 1    -0.01335211    -0.03465272    -0.00532900
Spot 2    -0.01261521    -0.03439355    -0.00532900
Spot 1    -0.01335211    -0.03465272    -0.00532900
Spot 2    -0.01335211    -0.03465272    -0.00532900
Spot 1    -0.01361916    -0.03440786    -0.00532900
Spot 2    -0.01335211    -0.03465272    -0.00532900
20MABNDM000168_PR026
Spot 1    -0.01105415    -0.03438375    -0.00532900
Spot 2    -0.01101327    -0.03437667    -0.00532900
Spot 1    -0.01105079    -0.03437283    -0.00532900
Spot 2    -0.01211080    -0.03437238    -0.00532900
Spot 1    -0.01117333    -0.03436336    -0.00532900
Spot 2    -0.01162542    -0.03620531    -0.00532900
Spot 1    -0.01116475    -0.03436618    -0.00532900
Spot 2    -0.01162542    -0.03620531    -0.00532900
20MABNDM000168_20MABNDL000077
Spot 1     0.01288739    -0.03529751    -0.07445100
Spot 2     0.01266859    -0.03529815    -0.07445100
Spot 1     0.01288750    -0.03529754    -0.07445100
Spot 2     0.01266874    -0.03529790    -0.07445100
Spot 1     0.01288740    -0.03529754    -0.07445100
Spot 2     0.01266909    -0.03529785    -0.07445100
Spot 1     0.01288747    -0.03529767    -0.07445100
Spot 2     0.01266916    -0.03529746    -0.07445100
20MABNDM000168_PR001
Spot 1     0.01361486    -0.03562687    -0.07445100
Spot 2     0.01371606    -0.03563349    -0.07445100
Spot 1     0.01361397    -0.03562747    -0.07445100
Spot 2     0.01371583    -0.03563352    -0.07445100
Spot 1     0.01361379    -0.03562783    -0.07445100
Spot 2     0.01371597    -0.03563367    -0.07445100
Spot 1     0.01361403    -0.03562763    -0.07445100
Spot 2     0.01371592    -0.03563355    -0.07445100
20MABNDL000196_PR036
Spot 1     0.01193895     0.03583297    -0.07483600
Spot 2     0.01210261     0.03583339    -0.07483600
Spot 1     0.01193879     0.03583312    -0.07483600
Spot 2     0.01210234     0.03583319    -0.07483600
Spot 1     0.01193858     0.03583309    -0.07483600
Spot 2     0.01210239     0.03583340    -0.07483600
Spot 1     0.01193856     0.03583322    -0.07483600
Spot 2     0.01210217     0.03583335    -0.07483600
20MABNDL000196_PR037
Spot 1     0.01346427     0.03535732    -0.07483600
Spot 2     0.01361804     0.03535563    -0.07483600
Spot 1     0.01346417     0.03535724    -0.07483600
Spot 2     0.01361806     0.03535586    -0.07483600
Spot 1     0.01346419     0.03535746    -0.07483600
Spot 2     0.01361812     0.03535569    -0.07483600
Spot 1     0.01346430     0.03535719    -0.07483600
Spot 2     0.01361775     0.03535560    -0.07483600
20MABNDL000196_20MABNDM000020
Spot 1    -0.01277592     0.03530039    -0.00611000
Spot 2    -0.01255421     0.03530425    -0.00611000
Spot 1    -0.01277613     0.03530034    -0.00611000
Spot 2    -0.01255434     0.03530430    -0.00611000
Spot 1    -0.01277633     0.03530015    -0.00611000
Spot 2    -0.01255423     0.03530431    -0.00611000
Spot 1    -0.01277649     0.03530026    -0.00611000
Spot 2    -0.01255428     0.03530456    -0.00611000
20MABNDL000196_PR012
Spot 1    -0.01422890     0.03429624    -0.00611000
Spot 2    -0.01355823     0.03426973    -0.00611000
Spot 1    -0.01384918     0.03431388    -0.00611000
Spot 2    -0.01397283     0.03494152    -0.00611000
Spot 1    -0.01397350     0.03494151    -0.00611000
Spot 2    -0.01313657     0.03468830    -0.00611000
Spot 1    -0.01397283     0.03494152    -0.00611000
Spot 2    -0.01346845     0.03428154    -0.00611000


*****************************************************************coordonnees du prisme dans le repere MOUNT********************************************************************************** 
20MABNDB000069_PR031
    0.10999375    -0.16176865     9.20229721
    0.10999375    -0.16176865     9.20229721
    0.10999375    -0.16176865     9.20229721
    0.10999375    -0.16176865     9.20229721
    0.10999375    -0.16176865     9.20229721
20MABNDB000069_PR033
   -0.02694423    -0.02594261     1.28394949
   -0.02694354    -0.02594443     1.28394949
   -0.02694383    -0.02594323     1.28394949
   -0.02694283    -0.02594395     1.28394949
   -0.02694412    -0.02594407     1.28394949
20MABNDB000131_PR032
   -0.18817055    -0.03094725    11.00641632
   -0.18817051    -0.03095821    11.00641632
   -0.18817487    -0.03095969    11.00641632
   -0.18816401    -0.03094137    11.00641632
   -0.18817784    -0.03095386    11.00641632
20MABNDB000131_PR034
    0.01418239     0.01493530     3.43339300
    0.01418516     0.01492779     3.43339300
    0.01418580     0.01493555     3.43339300
    0.01418583     0.01493076     3.43339300
    0.01418170     0.01493644     3.43339300
20MABNDA000208_PR042
    0.13178563     0.01325839     9.20146084
    0.13175860     0.01329519     9.20146084
    0.13172248     0.01321353     9.20146179
    0.13172980     0.01324913     9.20146179
    0.13175252     0.01322153     9.20146084
20MABNDA000208_PR046
   -0.02337378     0.03294120     1.28210974
   -0.02337061     0.03294189     1.28210974
   -0.02337155     0.03294334     1.28210974
   -0.02337215     0.03294231     1.28210974
   -0.02336951     0.03294607     1.28210974
20MABNDA000035_PR044
   -0.17949632     0.02815450    11.00802708
   -0.17949626     0.02816254    11.00802708
   -0.17948309     0.02816537    11.00802803
   -0.17951828     0.02815173    11.00802708
   -0.17947799     0.02816534    11.00802803
20MABNDA000035_PR045
    0.01475872    -0.01702006     3.43485355
    0.01475168    -0.01701590     3.43485355
    0.01475240    -0.01700998     3.43485355
    0.01475240    -0.01701089     3.43485355
    0.01475806    -0.01701755     3.43485355
20MABNDL000077_PR002
    0.04957905     0.02150846     3.70690918
    0.04957076     0.02151941     3.70690918
    0.04957005     0.02152238     3.70690918
    0.04956434     0.02151897     3.70690918
    0.04956217     0.02152468     3.70690918
20MABNDL000077_PR003
    0.01394785     0.03700992     3.89605379
    0.01394436     0.03697075     3.89605379
    0.01394304     0.03702269     3.89605379
    0.01395123     0.03701093     3.89605379
    0.01393728     0.03701807     3.89605379
20MABNDL000077_20MABNDM000168
   -0.01739620     0.01115846    -5.46869755
   -0.01737375     0.01115327    -5.46869659
   -0.01737173     0.01116738    -5.46869755
   -0.01739748     0.01114292    -5.46869659
   -0.01739366     0.01119279    -5.46869755
20MABNDL000077_PR024
    0.05236328    -0.00360041    -5.89622307
    0.05238311    -0.00359553    -5.89622307
    0.05238123    -0.00360257    -5.89622307
    0.05237090    -0.00358357    -5.89622307
    0.05238795    -0.00357326    -5.89622307
20MABNDM000020_PR013
   -0.00509930     0.01217201    -3.80216908
   -0.00512011     0.01217031    -3.80216908
   -0.00512055     0.01219065    -3.80216908
   -0.00511384     0.01218981    -3.80216908
   -0.00511214     0.01220299    -3.80216837
20MABNDM000020_PR014
   -0.06762412     0.03181710    -4.74799728
   -0.06764309     0.03176035    -4.74799728
   -0.06763697     0.03176486    -4.74799728
   -0.06761006     0.03175831    -4.74799824
   -0.06754500     0.03175665    -4.74799871
20MABNDM000020_20MABNDL000196
   -0.02028870    -0.07978898     5.39455128
   -0.02600994    -0.08875065     5.39443254
   -0.02600421    -0.08874600     5.39443302
   -0.02601029    -0.08875316     5.39443254
   -0.02600922    -0.08875173     5.39443254
20MABNDM000020_PR035
   -0.04219325    -0.05464409     5.80100012
   -0.04218246    -0.05465063     5.80100012
   -0.04213006    -0.05469416     5.80100060
   -0.04210078    -0.05473268     5.80100060
   -0.04208498    -0.05474963     5.80100060
20MABNDA000188_PR008
    0.12899831    -0.09474574     9.20333958
    0.12899831    -0.09474574     9.20333958
    0.16168207    -0.09394507     9.20278740
    0.12899831    -0.09474574     9.20333958
    0.15046433    -0.09615292     9.20296669
20MABNDA000188_PR018
   -0.01702419     0.02604623     1.28357768
   -0.01702519     0.02604932     1.28357768
   -0.01702442     0.02604965     1.28357768
   -0.01702674     0.02604908     1.28357768
20MABNDA000039_PR009
   -0.17133725     0.02461566    11.00701427
   -0.17139207     0.02462028    11.00701332
   -0.17136136     0.02462307    11.00701427
   -0.17139995     0.02465761    11.00701332
20MABNDA000039_PR011
    0.03054995    -0.02471916     3.43347168
    0.03055475    -0.02471736     3.43347168
    0.03055201    -0.02471712     3.43347168
    0.03055453    -0.02471531     3.43347168
20MABNDB000155_PR020
    0.10247228    -0.00817243     9.20027733
    0.10255440    -0.00816271     9.20027733
    0.10251540    -0.00818289     9.20027733
    0.10246056    -0.00816891     9.20027733
20MABNDB000155_PR022
   -0.02510854    -0.01663751     1.28071594
   -0.02510607    -0.01663731     1.28071594
   -0.02510821    -0.01663699     1.28071594
   -0.02510648    -0.01663851     1.28071594
20MABNDB000010_PR021
   -0.17571300    -0.03427950    11.00695229
   -0.17571458    -0.03423027    11.00695229
   -0.17573255    -0.03425410    11.00695229
   -0.17570156    -0.03426019    11.00695229
20MABNDB000010_PR023
    0.00457305     0.01935588     3.43377852
    0.00457537     0.01936830     3.43377852
    0.00456943     0.01935330     3.43377924
    0.00456904     0.01936246     3.43377852
20MABNDB000212_PR029
   -0.02596012    -0.00899501     1.64223480
   -0.02596663    -0.00898803     1.64223480
   -0.02596270    -0.00899049     1.64223480
   -0.02596350    -0.00899322     1.64223480
20MABNDB000128_PR030
   -0.01872083    -0.04701207     2.95496202
   -0.01871627    -0.04702483     2.95496202
   -0.01871707    -0.04702090     2.95496202
   -0.01871983    -0.04701797     2.95496202
20MABNDA000444_PR040
   -0.02943446     0.00134601     1.64492011
   -0.02943184     0.00135470     1.64492011
   -0.02943211     0.00135009     1.64492011
   -0.02943122     0.00135766     1.64492011
20MABNDA000053_PR041
   -0.02686170     0.05103138     2.95450330
   -0.02686061     0.05104687     2.95450306
   -0.02686297     0.05104652     2.95450306
   -0.02685705     0.05104798     2.95450306
20MABNDA000196_PR006
   -0.01038144     0.01054717     1.64206481
   -0.01038089     0.01054771     1.64206481
   -0.01038113     0.01054574     1.64206481
   -0.01038306     0.01054915     1.64206481
20MABNDA000324_PR007
   -0.02510553     0.02753454     2.95549393
   -0.02510360     0.02753947     2.95549393
   -0.02511046     0.02753647     2.95549393
   -0.02510318     0.02753633     2.95549393
20MABNDB000001_PR017
   -0.02411498    -0.00357017     1.64036429
   -0.02411728    -0.00357058     1.64036429
   -0.02411342    -0.00356713     1.64036429
   -0.02411860    -0.00357101     1.64036429
20MABNDB000260_PR019
   -0.02427655    -0.03802692     2.95627809
   -0.02427639    -0.03803480     2.95627809
   -0.02426828    -0.03802675     2.95627809
   -0.02427322    -0.03802606     2.95627809
20MABNDB000135_PR027
   -0.02101971    -0.01014926     2.74937153
   -0.02101589    -0.01015242     2.74937153
   -0.02101886    -0.01015569     2.74937153
   -0.02101352    -0.01015282     2.74937153
20MABNDB000126_PR028
   -0.02032103    -0.03874315     2.14679813
   -0.02031648    -0.03874113     2.14679813
   -0.02031877    -0.03873957     2.14679813
   -0.02031676    -0.03874084     2.14679813
20MABNDA000272_PR038
   -0.01320824     0.01120792     2.74965882
   -0.01320366     0.01120608     2.74965882
   -0.01321209     0.01120591     2.74965882
   -0.01320970     0.01121067     2.74965882
20MABNDA000003_PR039
   -0.00592228     0.04107185     2.14891768
   -0.00592171     0.04107085     2.14891768
   -0.00591957     0.04107084     2.14891768
   -0.00592372     0.04106886     2.14891768
20MABNDA000318_PR004
   -0.00840524     0.03861742     2.74965668
   -0.00840821     0.03863154     2.74965668
   -0.00839869     0.03863542     2.74965668
   -0.00840711     0.03863118     2.74965668
20MABNDA000334_PR005
   -0.00422921     0.03154065     2.14977312
   -0.00423407     0.03154323     2.14977312
   -0.00423736     0.03153880     2.14977312
   -0.00423393     0.03153794     2.14977312
20MABNDB000317_PR015
   -0.01737682    -0.03433815     2.75128746
   -0.01737695    -0.03434306     2.75128746
   -0.01737728    -0.03434616     2.75128746
   -0.01737760    -0.03434944     2.75128746
20MABNDB000146_PR016
   -0.01348008    -0.03178443     2.15201283
   -0.01348353    -0.03178473     2.15201283
   -0.01348425    -0.03178199     2.15201283
   -0.01347909    -0.03177796     2.15201283
20MABNDM000168_PR025
    0.02039144    -0.06973486    -3.78849745
    0.00217299    -0.07614300    -3.78855085
    0.02039144    -0.06973486    -3.78849745
    0.02699284    -0.07578740    -3.78837204
20MABNDM000168_PR026
   -0.09853402    -0.08568801    -3.98335481
   -0.07006753    -0.08609045    -3.98387146
   -0.07951406    -0.03863139    -3.98404121
   -0.07973737    -0.03855791    -3.98403740
20MABNDM000168_20MABNDL000077
    0.01139554    -0.03902284     5.38884640
    0.01138609    -0.03903061     5.38884640
    0.01137708    -0.03903263     5.38884640
    0.01137227    -0.03904190     5.38884640
20MABNDM000168_PR001
   -0.05751489    -0.01349073     5.81470394
   -0.05747152    -0.01346655     5.81470490
   -0.05747007    -0.01344680     5.81470490
   -0.05747723    -0.01345910     5.81470490
20MABNDL000196_PR036
    0.05074996     0.00569693     3.68777633
    0.05076051     0.00569818     3.68777585
    0.05076420     0.00569377     3.68777585
    0.05077010     0.00569157     3.68777585
20MABNDL000196_PR037
   -0.02585002     0.02873904     3.88380623
   -0.02584795     0.02873491     3.88380623
   -0.02585001     0.02873361     3.88380623
   -0.02584331     0.02874319     3.88380623
20MABNDL000196_20MABNDM000020
   -0.01385138     0.03898677    -5.47473907
   -0.01383916     0.03898666    -5.47473907
   -0.01383570     0.03899319    -5.47473907
   -0.01382825     0.03898041    -5.47473907
20MABNDL000196_PR012
    0.08152720     0.11844195    -5.91443157
    0.08288755     0.09165493    -5.91472626
    0.05522773     0.07710992    -5.91523504
    0.06809551     0.09291434    -5.91493797


*****************************************************************coordonnees du prisme dans le repere ATLAS********************************************************************************** 
20MABNDB000069_PR031 0.00000000
    3.69177032     3.84800911    -7.77863359
    3.69177032     3.84800911    -7.77863359
    3.69177032     3.84800911    -7.77863359
    3.69177032     3.84800911    -7.77863359
    3.69177032     3.84800911    -7.77863359
20MABNDB000069_PR033 0.00000000
    3.53335476    -4.07045746    -7.87972879
    3.53335547    -4.07045746    -7.87972689
    3.53335524    -4.07045746    -7.87972832
    3.53335619    -4.07045746    -7.87972736
    3.53335476    -4.07045746    -7.87972736
20MABNDB000131_PR032 0.00000000
    3.86897254     3.64756608   -12.94159031
    3.86897254     3.64756608   -12.94160080
    3.86897683     3.64756608   -12.94160271
    3.86896610     3.64756608   -12.94158459
    3.86897993     3.64756608   -12.94159698
20MABNDB000131_PR034 0.00000000
    3.67360640    -3.92562389   -12.89301205
    3.67360377    -3.92562389   -12.89301968
    3.67360306    -3.92562389   -12.89301205
    3.67360306    -3.92562389   -12.89301682
    3.67360711    -3.92562389   -12.89301109
20MABNDA000208_PR042 0.00000000
   -3.68186307     3.84913993    -7.89822769
   -3.68183613     3.84913993    -7.89819098
   -3.68179989     3.84914088    -7.89827251
   -3.68180728     3.84914088    -7.89823675
   -3.68182993     3.84913993    -7.89826441
20MABNDA000208_PR046 0.00000000
   -3.53239083    -4.07031298    -7.87557697
   -3.53239393    -4.07031298    -7.87557650
   -3.53239298    -4.07031298    -7.87557507
   -3.53239250    -4.07031298    -7.87557602
   -3.53239512    -4.07031298    -7.87557220
20MABNDA000035_PR044 0.00000000
   -3.86873746     3.64758229   -12.93383408
   -3.86873746     3.64758229   -12.93384171
   -3.86872435     3.64758325   -12.93384457
   -3.86875939     3.64758229   -12.93383121
   -3.86871910     3.64758325   -12.93384457
20MABNDA000035_PR045 0.00000000
   -3.67597008    -3.92563367   -12.88936424
   -3.67597699    -3.92563367   -12.88936806
   -3.67597628    -3.92563367   -12.88937473
   -3.67597628    -3.92563367   -12.88937378
   -3.67597055    -3.92563367   -12.88936710
20MABNDL000077_PR002 0.00000000
    2.83553243    -3.69493794     6.48618937
    2.83552146    -3.69494629     6.48618937
    2.83551836    -3.69494700     6.48618937
    2.83552194    -3.69495249     6.48618937
    2.83551621    -3.69495487     6.48618937
20MABNDL000077_PR003 0.00000000
    2.82020521    -3.73079753     6.67530537
    2.82024431    -3.73080111     6.67530489
    2.82019234    -3.73080230     6.67530537
    2.82020402    -3.73079419     6.67530537
    2.82019687    -3.73080802     6.67530537
20MABNDL000077_20MABNDM000168 0.00000000
    2.83686090    -3.75059557    -2.68949842
    2.83686614    -3.75057316    -2.68949747
    2.83685207    -3.75057101    -2.68949842
    2.83687639    -3.75059700    -2.68949747
    2.83682656    -3.75059295    -2.68949842
20MABNDL000077_PR024 0.00000000
    2.85122275    -3.68031335    -3.11695194
    2.85121775    -3.68029356    -3.11695194
    2.85122490    -3.68029547    -3.11695194
    2.85120583    -3.68030572    -3.11695194
    2.85119557    -3.68028879    -3.11695194
20MABNDM000020_PR013 0.00000000
   -2.86448097    -3.73437524     6.48601866
   -2.86447930    -3.73435450     6.48601866
   -2.86449957    -3.73435402     6.48601866
   -2.86449885    -3.73436069     6.48601866
   -2.86451197    -3.73436236     6.48601818
20MABNDM000020_PR014 0.00000000
   -2.88391757    -3.67256379     7.43189812
   -2.88386083    -3.67254472     7.43189812
   -2.88386536    -3.67255092     7.43189812
   -2.88385892    -3.67257786     7.43189907
   -2.88385725    -3.67264295     7.43189955
20MABNDM000020_20MABNDL000196 0.00000000
   -2.77435589    -3.71221948    -2.71070576
   -2.76539230    -3.70650125    -2.71058440
   -2.76539707    -3.70650697    -2.71058488
   -2.76538992    -3.70650077    -2.71058440
   -2.76539135    -3.70650196    -2.71058440
20MABNDM000020_PR035 0.00000000
   -2.79957533    -3.68999815    -3.11713266
   -2.79956889    -3.69000888    -3.11713266
   -2.79952526    -3.69006133    -3.11713314
   -2.79948688    -3.69009066    -3.11713314
   -2.79946995    -3.69010639    -3.11713338
20MABNDA000188_PR008 0.00000000
    3.54177952     3.84863997     8.10601807
    3.54177952     3.84863997     8.10601807
    3.57447624     3.84859705     8.10570526
    3.54177952     3.84863997     8.10601807
    3.56322527     3.84858036     8.10774517
20MABNDA000188_PR018 0.00000000
    3.52011633    -4.07061148     7.89738989
    3.52011538    -4.07061148     7.89738655
    3.52011609    -4.07061148     7.89738655
    3.52011395    -4.07061148     7.89738703
20MABNDA000039_PR009 0.00000000
    3.87550926     3.64747238    12.93590927
    3.87556410     3.64747143    12.93591404
    3.87553334     3.64747238    12.93591690
    3.87557197     3.64747143    12.93595123
20MABNDA000039_PR011 0.00000000
    3.66447425    -3.92580438    12.88411713
    3.66446948    -3.92580438    12.88411903
    3.66447210    -3.92580438    12.88411999
    3.66446972    -3.92580438    12.88412094
20MABNDB000155_PR020 0.00000000
   -3.68112493     3.84880972     7.89869452
   -3.68120694     3.84880948     7.89870405
   -3.68116808     3.84880948     7.89868402
   -3.68111324     3.84880972     7.89869833
20MABNDB000155_PR022 0.00000000
   -3.53487229    -4.07042980     7.89142132
   -3.53487468    -4.07042980     7.89142179
   -3.53487277    -4.07042980     7.89142227
   -3.53487444    -4.07042980     7.89142036
20MABNDB000010_PR021 0.00000000
   -3.86154962     3.64768982    12.93610859
   -3.86155128     3.64768982    12.93605995
   -3.86156940     3.64768982    12.93608379
   -3.86153841     3.64768982    12.93608952
20MABNDB000010_PR023 0.00000000
   -3.68509245    -3.92559791    12.88591957
   -3.68509030    -3.92559791    12.88590717
   -3.68509626    -3.92559719    12.88592243
   -3.68509650    -3.92559791    12.88591290
20MABNDB000212_PR029 0.00000000
    2.59963775    -4.19501352    -6.54798269
    2.59964442    -4.19501352    -6.54797602
    2.59964037    -4.19501352    -6.54797840
    2.59964132    -4.19501352    -6.54798126
20MABNDB000128_PR030 0.00000000
    2.61013794    -4.14002848    -6.93110895
    2.61014247    -4.14002848    -6.93109608
    2.61014152    -4.14002848    -6.93109989
    2.61013889    -4.14002848    -6.93110275
20MABNDA000444_PR040 0.00000000
   -2.60460711    -4.19508934    -6.54052639
   -2.60460448    -4.19508934    -6.54053497
   -2.60460472    -4.19508934    -6.54053020
   -2.60460377    -4.19508934    -6.54053783
20MABNDA000053_PR041 0.00000000
   -2.59368014    -4.14012766    -6.92688227
   -2.59368134    -4.14012814    -6.92686653
   -2.59367895    -4.14012814    -6.92686701
   -2.59368491    -4.14012814    -6.92686558
20MABNDA000196_PR006 0.00000000
    2.58484197    -4.19496298     6.54850388
    2.58484125    -4.19496298     6.54850435
    2.58484173    -4.19496298     6.54850245
    2.58484364    -4.19496298     6.54850578
20MABNDA000324_PR007 0.00000000
    2.59420919    -4.13996410     6.94838047
    2.59421110    -4.13996410     6.94837570
    2.59420443    -4.13996410     6.94837856
    2.59421158    -4.13996410     6.94837904
20MABNDB000001_PR017 0.00000000
   -2.59781647    -4.19505119     6.53889847
   -2.59781885    -4.19505119     6.53889847
   -2.59781504    -4.19505119     6.53889513
   -2.59782004    -4.19505119     6.53889894
20MABNDB000260_PR019 0.00000000
   -2.60448551    -4.13995647     6.94261694
   -2.60448575    -4.13995647     6.94260931
   -2.60449386    -4.13995647     6.94261742
   -2.60448885    -4.13995647     6.94261789
20MABNDB000135_PR027 0.00000000
    2.60384345    -4.19700384    -3.82521152
    2.60384727    -4.19700384    -3.82520843
    2.60384440    -4.19700384    -3.82520509
    2.60384965    -4.19700384    -3.82520795
20MABNDB000126_PR028 0.00000000
    2.60559607    -4.19701910    -5.89347696
    2.60560060    -4.19701910    -5.89347887
    2.60559845    -4.19701910    -5.89348030
    2.60560036    -4.19701910    -5.89347887
20MABNDA000272_PR038 0.00000000
   -2.61132860    -4.19698286    -3.82727647
   -2.61133313    -4.19698286    -3.82727814
   -2.61132479    -4.19698286    -3.82727838
   -2.61132717    -4.19698286    -3.82727361
20MABNDA000003_PR039 0.00000000
   -2.61580896    -4.19701958    -5.89169502
   -2.61580944    -4.19701958    -5.89169598
   -2.61581159    -4.19701958    -5.89169598
   -2.61580729    -4.19701958    -5.89169788
20MABNDA000318_PR004 0.00000000
    2.61459804    -4.19698811     3.83338118
    2.61459494    -4.19698811     3.83336711
    2.61460447    -4.19698811     3.83336329
    2.61459613    -4.19698811     3.83336735
20MABNDA000334_PR005 0.00000000
    2.61676931    -4.19703007     5.89772034
    2.61676455    -4.19703007     5.89771748
    2.61676121    -4.19703007     5.89772224
    2.61676455    -4.19703007     5.89772272
20MABNDB000317_PR015 0.00000000
   -2.61123037    -4.19700384     3.83567739
   -2.61123013    -4.19700384     3.83567238
   -2.61122990    -4.19700384     3.83566928
   -2.61122966    -4.19700384     3.83566594
20MABNDB000146_PR016 0.00000000
   -2.61281514    -4.19702482     5.89856577
   -2.61281157    -4.19702482     5.89856529
   -2.61281085    -4.19702482     5.89856815
   -2.61281610    -4.19702482     5.89857244
20MABNDM000168_PR025 0.00000000
    2.78350139    -3.76570773    -6.47911263
    2.77709794    -3.74748755    -6.47917223
    2.78350139    -3.76570773    -6.47911263
    2.77744699    -3.77230740    -6.47898436
20MABNDM000168_PR026 0.00000000
    2.76756787    -3.64685059    -6.67401314
    2.76715779    -3.67531705    -6.67451906
    2.81461930    -3.66588306    -6.67469549
    2.81469297    -3.66565990    -6.67469168
20MABNDM000168_20MABNDL000077 0.00000000
    2.81477261    -3.75330758     2.69822550
    2.81476498    -3.75329804     2.69822550
    2.81476283    -3.75328898     2.69822550
    2.81475377    -3.75328422     2.69822550
20MABNDM000168_PR001 0.00000000
    2.84034896    -3.68424559     3.12405586
    2.84037304    -3.68428898     3.12405682
    2.84039283    -3.68429041     3.12405682
    2.84038043    -3.68428326     3.12405682
20MABNDL000196_PR036 0.00000000
   -2.84791040    -3.69352460    -6.47909927
   -2.84790897    -3.69351411    -6.47909880
   -2.84791350    -3.69351029    -6.47909880
   -2.84791565    -3.69350457    -6.47909880
20MABNDL000196_PR037 0.00000000
   -2.82483673    -3.77029634    -6.67505836
   -2.82484102    -3.77029419    -6.67505836
   -2.82484221    -3.77029610    -6.67505836
   -2.82483268    -3.77028942    -6.67505836
20MABNDL000196_20MABNDM000020 0.00000000
   -2.81439233    -3.74958754     2.68347168
   -2.81439257    -3.74957538     2.68347168
   -2.81438613    -3.74957180     2.68347168
   -2.81439877    -3.74956441     2.68347168
20MABNDL000196_PR012 0.00000000
   -2.73497200    -3.65376306     3.12307358
   -2.76175976    -3.65241480     3.12336755
   -2.77629185    -3.68008089     3.12390232
   -2.76049352    -3.66720605     3.12359285


*****************************************************************Rapport********************************************************************************** 
CAM-ECTC-US-IP_ECTC-US-IP-T    2016.05.10.09.37.19     3.69177032     3.84800911    -7.77863359     0.00000000     0.00000000     0.00000000 0.00000000 VRAI 
CAM-ECTC-US-IP_ECTC-US-IP      2016.05.10.09.37.19     3.53335528    -4.07045746    -7.87972775     0.00000053     0.00000000     0.00000070 0.00000000 VRAI 
CAM-ECTC-US-HO_ECTC-US-HO-T    2016.05.10.09.37.19     3.86897359     3.64756608   -12.94159508     0.00000467     0.00000000     0.00000674 0.00000000 VRAI 
CAM-ECTC-US-HO_ECTC-US-HO      2016.05.10.09.37.19     3.67360468    -3.92562389   -12.89301434     0.00000173     0.00000000     0.00000334 0.00000000 VRAI 
CAM-ECTC-USA-IP_ECTC-USA-IP-T  2016.05.10.09.37.19    -3.68182726     3.84914031    -7.89823847     0.00002243     0.00000047     0.00002901 0.00000000 VRAI 
CAM-ECTC-USA-IP_ECTC-USA-IP    2016.05.10.09.37.19    -3.53239307    -4.07031298    -7.87557535     0.00000144     0.00000000     0.00000170 0.00000000 VRAI 
CAM-ECTC-USA-HO_ECTC-USA-HO-T  2016.05.10.09.37.19    -3.86873555     3.64758267   -12.93383923     0.00001394     0.00000047     0.00000555 0.00000000 VRAI 
CAM-ECTC-USA-HO_ECTC-USA-HO    2016.05.10.09.37.19    -3.67597404    -3.92563367   -12.88936958     0.00000305     0.00000000     0.00000403 0.00000000 VRAI 
CAM-LBA-US_EBA-US-HO-H         2016.05.10.09.37.19     2.83552208    -3.69494772     6.48618937     0.00000558     0.00000587     0.00000000 0.00000000 VRAI 
CAM-LBA-US_JDA-US-H            2016.05.10.09.37.19     2.82020855    -3.73080063     6.67530527     0.00001849     0.00000466     0.00000019 0.00000000 VRAI 
CAM-LBA-US_CAM-LBC-US          2016.05.10.09.37.19     2.83685641    -3.75058594    -2.68949804     0.00001687     0.00001140     0.00000047 0.00000000 VRAI 
CAM-LBA-US_EBC-US-IP-H         2016.05.10.09.37.19     2.85121336    -3.68029938    -3.11695194     0.00001108     0.00000891     0.00000000 0.00000000 VRAI 
CAM-LBA-USA_EBA-USA-HO-H       2016.05.10.09.37.19    -2.86449413    -3.73436136     6.48601856     0.00001235     0.00000768     0.00000019 0.00000000 VRAI 
CAM-LBA-USA_JDA-USA-H          2016.05.10.09.37.19    -2.88387198    -3.67257605     7.43189859     0.00002295     0.00003533     0.00000060 0.00000000 VRAI 
CAM-LBA-USA_CAM-LBC-USA        2016.05.10.09.37.19    -2.76718531    -3.70764608    -2.71060877     0.00358529     0.00228670     0.00004849 0.00000000 VRAI 
CAM-LBA-USA_EBC-USA-IP-H       2016.05.10.09.37.19    -2.79952526    -3.69005308    -3.11713300     0.00004229     0.00004311     0.00000029 0.00000000 VRAI 
CAM-ECTA-US-IP_ECTA-US-IP-T    2016.05.10.09.37.19     3.55260801     3.84861946     8.10630093     0.01373109     0.00002566     0.00073221 0.00000000 VRAI 
CAM-ECTA-US-IP_ECTA-US-IP      2016.05.10.09.37.19     3.52011544    -4.07061148     7.89738750     0.00000093     0.00000000     0.00000139 0.00000000 VRAI 
CAM-ECTA-US-HO_ECTA-US-HO-T    2016.05.10.09.37.19     3.87554467     3.64747190    12.93592286     0.00002502     0.00000048     0.00001661 0.00000000 VRAI 
CAM-ECTA-US-HO_ECTA-US-HO      2016.05.10.09.37.19     3.66447139    -3.92580438    12.88411927     0.00000194     0.00000000     0.00000141 0.00000000 VRAI 
CAM-ECTA-USA-IP_ECTA-USA-IP-T  2016.05.10.09.37.19    -3.68115330     3.84880960     7.89869523     0.00003710     0.00000012     0.00000731 0.00000000 VRAI 
CAM-ECTA-USA-IP_ECTA-USA-IP    2016.05.10.09.37.19    -3.53487355    -4.07042980     7.89142144     0.00000103     0.00000000     0.00000071 0.00000000 VRAI 
CAM-ECTA-USA-HO_ECTA-USA-HO-T  2016.05.10.09.37.19    -3.86155218     3.64768982    12.93608546     0.00001111     0.00000000     0.00001736 0.00000000 VRAI 
CAM-ECTA-USA-HO_ECTA-USA-HO    2016.05.10.09.37.19    -3.68509388    -3.92559773    12.88591552     0.00000262     0.00000031     0.00000593 0.00000000 VRAI 
CAM-JDC-US-IP_JDC-US-IP        2016.05.10.09.37.19     2.59964097    -4.19501352    -6.54797959     0.00000239     0.00000000     0.00000258 0.00000000 VRAI 
CAM-JDC-US-HO_JDC-US-HO        2016.05.10.09.37.19     2.61014020    -4.14002848    -6.93110192     0.00000185     0.00000000     0.00000470 0.00000000 VRAI 
CAM-JDC-USA-IP_JDC-USA-IP      2016.05.10.09.37.19    -2.60460502    -4.19508934    -6.54053235     0.00000125     0.00000000     0.00000439 0.00000000 VRAI 
CAM-JDC-USA-HO_JDC-USA-HO      2016.05.10.09.37.19    -2.59368134    -4.14012802    -6.92687035     0.00000223     0.00000021     0.00000690 0.00000000 VRAI 
CAM-JDA-US-IP_JDA-US-IP        2016.05.10.09.37.19     2.58484215    -4.19496298     6.54850411     0.00000090     0.00000000     0.00000119 0.00000000 VRAI 
CAM-JDA-US-HO_JDA-US-HO        2016.05.10.09.37.19     2.59420907    -4.13996410     6.94837844     0.00000283     0.00000000     0.00000173 0.00000000 VRAI 
CAM-JDA-USA-IP_JDA-USA-IP      2016.05.10.09.37.19    -2.59781760    -4.19505119     6.53889775     0.00000196     0.00000000     0.00000153 0.00000000 VRAI 
CAM-JDA-USA-HO_JDA-USA-HO      2016.05.10.09.37.19    -2.60448849    -4.13995647     6.94261539     0.00000337     0.00000000     0.00000353 0.00000000 VRAI 
CAM-EBC-US-IP_EBC-US-IP        2016.05.10.09.37.19     2.60384619    -4.19700384    -3.82520825     0.00000244     0.00000000     0.00000228 0.00000000 VRAI 
CAM-EBC-US-HO_EBC-US-HO        2016.05.10.09.37.19     2.60559887    -4.19701910    -5.89347875     0.00000182     0.00000000     0.00000119 0.00000000 VRAI 
CAM-EBC-USA-IP_EBC-USA-IP      2016.05.10.09.37.19    -2.61132842    -4.19698286    -3.82727665     0.00000304     0.00000000     0.00000190 0.00000000 VRAI 
CAM-EBC-USA-HO_EBC-USA-HO      2016.05.10.09.37.19    -2.61580932    -4.19701958    -5.89169621     0.00000153     0.00000000     0.00000104 0.00000000 VRAI 
CAM-EBA-US-IP_EBA-US-IP        2016.05.10.09.37.19     2.61459839    -4.19698811     3.83336973     0.00000368     0.00000000     0.00000680 0.00000000 VRAI 
CAM-EBA-US-HO_EBA-US-HO        2016.05.10.09.37.19     2.61676490    -4.19703007     5.89772069     0.00000289     0.00000000     0.00000206 0.00000000 VRAI 
CAM-EBA-USA-IP_EBA-USA-IP      2016.05.10.09.37.19    -2.61123002    -4.19700384     3.83567125     0.00000027     0.00000000     0.00000421 0.00000000 VRAI 
CAM-EBA-USA-HO_EBA-USA-HO      2016.05.10.09.37.19    -2.61281341    -4.19702482     5.89856791     0.00000225     0.00000000     0.00000283 0.00000000 VRAI 
CAM-LBC-US_EBC-US-HO-H         2016.05.10.09.37.19     2.78038692    -3.76280260    -6.47909546     0.00311691     0.00924353     0.00006861 0.00000000 VRAI 
CAM-LBC-US_JDC-US-H            2016.05.10.09.37.19     2.79100949    -3.66342765    -6.67447984     0.02364711     0.01033403     0.00027872 0.00000000 VRAI 
CAM-LBC-US_CAM-LBA-US          2016.05.10.09.37.19     2.81476355    -3.75329471     2.69822550     0.00000671     0.00000894     0.00000000 0.00000000 VRAI 
CAM-LBC-US_EBA-US-IP-H         2016.05.10.09.37.19     2.84037381    -3.68427706     3.12405658     0.00001600     0.00001837     0.00000041 0.00000000 VRAI 
CAM-LBC-USA_EBC-USA-HO-H       2016.05.10.09.37.19    -2.84791213    -3.69351339    -6.47909892     0.00000261     0.00000731     0.00000021 0.00000000 VRAI 
CAM-LBC-USA_JDC-USA-H          2016.05.10.09.37.19    -2.82483816    -3.77029401    -6.67505836     0.00000377     0.00000278     0.00000000 0.00000000 VRAI 
CAM-LBC-USA_CAM-LBA-USA        2016.05.10.09.37.19    -2.81439245    -3.74957478     2.68347168     0.00000447     0.00000836     0.00000000 0.00000000 VRAI 
CAM-LBC-USA_EBA-USA-IP-H       2016.05.10.09.37.19    -2.75837928    -3.66336620     3.12348408     0.01487160     0.01125032     0.00030366 0.00000000 VRAI 
